# vtk DataFile Version 3.0
A great-looking cell
ASCII
DATASET POLYDATA
POINTS 586 double
296.72476693857453 63.87683327127941 53.81886444468178
292.873679237701 60.82342945002866 51.59325121459397
297.12398963387227 60.01443346230727 51.47423959359567
299.3954009240753 55.81397056124491 52.937425394735904
310.4109609230628 74.43818286219732 62.59776641876072
315.9334250944269 71.32222807509892 58.01442363742938
310.1389335914563 74.10090624187751 67.95043511589077
296.74113629874824 72.57711297612781 66.76317535717155
311.91791248729857 58.41104733006309 55.8645352134457
298.98018409100854 59.80372025238673 52.01894423012509
304.81544473517545 73.87531506280845 66.75766880041945
291.1982710218257 52.83114122787268 61.748699510641295
298.26190772055196 71.31069436313581 60.10910458310199
300.22624421168166 67.21436122810327 54.00293772647951
306.26653383549245 65.9760564249306 52.21195420066768
291.92266375591333 63.69153019581138 61.45582334933205
292.0086057747043 61.89175056179981 57.4867252151858
298.29073937717374 69.72722177154796 57.52062848860089
308.12005953030484 73.56041302336256 59.833752487803416
318.14308925077427 73.47188962868672 65.22813345499428
315.53507917301994 73.50025668559866 61.85454504391873
314.2626400296175 72.52074265560839 58.51629553367773
306.10646928947625 61.885187110269165 74.68167357119816
290.6641313300805 59.884783696852885 57.575721575918415
307.7214502805604 70.5558612769278 54.48860285347333
291.4322004128216 63.68606482263079 64.19182036586292
314.75860896096094 58.40079940683327 73.61499725469278
296.7142459975939 71.05014621163188 60.88412766171686
303.9082529894271 57.521372764977656 54.208042348026126
299.5499729126433 64.4515374470132 53.159361296343945
300.0464921144477 62.82754412501045 52.574560766574656
292.24123040735884 63.14526132864966 59.14180329166214
291.2667631171319 53.78865550581659 58.62089475476109
299.59436509246206 69.73092297682601 56.277706154884186
292.3885879011644 65.60801974333039 63.26333527030196
291.4117247671117 59.347017396857716 52.83099171911598
290.07379147448114 57.56178994954828 58.42062851950026
298.59690991147795 70.70630176456245 58.7052776377717
310.28123069854684 73.3475903287738 70.0526327900884
308.17169867524035 72.40905627459873 71.11734346346624
305.67964788719206 52.62415113169804 61.701093480412354
322.1267017831369 63.6321776567287 69.62304613748073
318.0864738816714 64.79798030443119 57.56148098069229
303.5354207113789 52.315575660609866 61.09560789894791
316.7432360233003 68.20543127247635 72.66020102768107
304.75199073319874 67.23026788668307 52.048566669957225
302.6512575244301 73.06594522901914 58.37805186529066
311.07196174152057 66.73654992469511 53.948241403709545
310.5292040208118 52.12583490850684 69.70527816782726
300.23653665640717 73.562842050993 67.83082265320131
292.0517864605268 65.31969619616429 65.05217954989224
298.49952459163694 67.31211547393602 54.74925628349029
299.01969584516195 51.02289466739866 60.4687812828372
302.625347505269 65.42633495967564 74.44653004877652
308.45030324224945 56.7503356218333 73.2528660639885
316.03968118521806 68.77122596774076 56.26149211220999
323.10311460968234 63.54986463496778 64.86952844893484
301.70223800030124 62.8063682465212 74.4911511491359
305.44254722479025 56.762584007432444 73.2745977607954
319.1857460906529 51.66242223499689 64.33455856942706
318.7620292760732 59.432140550775856 73.68875975123063
309.8764138393293 72.9741619182639 58.63159130148192
318.73686442071573 55.75531392869807 60.354271584490775
306.42913681158166 67.8949480975171 52.6328351146323
290.8401482735887 55.45094132400063 68.6327053488017
310.43128200803056 71.96400844635052 71.4291170219205
314.559339547778 52.825689937301334 70.78029950361527
294.8371538433242 65.24032490100517 56.535405950664384
322.9167052943787 56.5445714751954 67.54765634348203
304.74856914663286 53.36334280950281 59.120717345516574
299.0300569833123 65.87156990235835 53.846938897959035
320.10745675712434 52.88491805357228 68.63654865637115
304.5103253098979 73.10437269856709 58.32043529219361
321.08682998535977 66.4320626340062 62.17301900721729
310.37896431216035 50.72970483658958 64.56353391787138
293.3391025422871 56.624583425779605 49.427226084292904
315.71722088899713 54.787099006916414 72.46528320434477
298.09928340445424 57.95549170528934 51.698928970499836
304.99289763723414 54.46307440565318 56.96531373805512
307.66652523351297 57.289245904958044 55.37974891825193
315.9414183010216 73.75394622479688 68.31986314695283
314.21883897074025 59.13407164543243 56.27269865193845
316.37437724744916 60.546042493084315 74.24601677655143
311.2743740908307 56.856119211444906 56.44367940198719
309.94377781768236 58.251590839924255 73.74521547212956
318.71434657101184 71.23781949071552 70.46539091394283
302.0909211119008 56.72328430515352 53.654805275804044
321.0215777055849 69.8280199105302 64.93399799776034
322.7281322667118 64.36788422527954 66.70851145428115
312.0201967031161 74.1584116947844 66.64113646414921
317.18201328160654 57.10612429433162 72.86529388128761
317.4100637834493 70.92248940055723 59.2529647750944
320.6538124959188 70.79135386995651 67.70418719092753
314.25891975621465 49.908914554640894 63.46192205475959
314.303172797047 71.92007161560271 71.88424706361755
303.92281104984374 55.618842850115776 55.23779198821192
298.8359858197252 52.18927685794407 57.81515634957401
323.1150654246421 61.09811285342062 68.6455325108526
308.6082584696083 65.42933894470634 74.4280477007293
292.94887093575073 66.90475474456052 67.90222022374101
299.0989555130979 73.29960935805946 64.5023601835296
303.8158316991462 51.38511936949853 66.12933753206536
301.67063288352955 73.71617579010172 69.3127911198256
320.0020784330861 68.29110336918865 61.537447513400075
321.44533784779526 60.9443563356127 71.04236190666595
321.2442377709786 68.98234614709057 66.94127241396876
317.092818467456 72.73175131476722 69.78908367133039
319.8285060124734 63.76471784015761 59.10918878792795
303.2255358774 66.3735567190298 52.37498318047932
292.6346101314684 61.71267228981095 53.436367095006105
310.11725695628525 53.407123646402404 71.48884986024139
290.4869547354941 61.13730202201694 63.01976186200576
310.7607195748164 67.33773603867778 73.94612009243214
296.94403854568617 69.8635279658773 59.23903177477169
305.7040858479308 59.845486059736935 74.11301124130662
323.2342491183479 59.5156783737219 63.66173264699224
322.7645199740802 56.73229467397401 64.81378088350502
309.38423525756207 53.43985387514497 59.40429141868789
299.7416302822379 71.84758484116188 59.054495460218504
311.13762909340403 50.80613256596106 67.3084263522957
311.03939606843693 64.3885555665455 54.30349847679182
314.4654437452842 63.257696944041044 55.5446830113357
312.243847879207 50.97154416064674 61.94976130658059
314.11555879199034 73.85581234959307 67.58906351778795
312.0085633043697 70.73519988639315 72.43310389537133
308.94457148725246 54.42417003656285 58.35466825780775
291.5408970116595 60.677432218715886 55.33486556850262
311.8878122589136 54.77857070055765 57.61156577603131
304.0169828198289 52.04077291837842 63.536870669892785
292.8598187850079 50.83008288528651 63.4187348604086
292.36368838384726 65.06217228801995 68.55360852594448
316.3527881582554 51.280917561262946 68.79091956269232
308.12987162925907 66.6675983342248 52.976656587203884
317.4642177561246 73.14076439510245 62.84044020129414
311.55663223731557 62.771888163253514 74.22651609124812
306.18933268776243 72.85886867176013 57.58763483542962
290.04021812112506 59.22490705417874 65.4264937238055
298.4340861890144 68.38588059457852 56.26237969958447
304.1488830723953 60.85970964695911 53.0943402872094
319.64481553795383 58.28806583512837 59.35121240839482
309.86827964267695 74.2941415696853 65.66250179523402
293.6611352426222 66.79624257263664 69.4889999164507
305.0612692086506 72.14383248968345 56.59897097255263
308.04185272999456 74.152727499847 67.03685218143937
321.6611185428055 54.55086455312242 66.4797394945025
300.4216768015012 71.69038330042875 71.25674292136671
291.5367312841146 62.708350259217156 68.1470504919036
304.95998350743986 58.97596164377593 53.86805280737367
312.713414470068 56.27750289501486 57.119712323359245
313.26423919389725 69.73863821482045 55.63813361013766
314.9966464531303 61.10972779646557 56.30067460876689
312.1861638603798 65.67891997437783 54.50074450840452
296.93595661922456 63.621964213656256 73.51539151287297
308.6881036615816 51.61446135067235 67.16071227188588
302.14547199348993 60.30711380543044 52.60080206576238
290.1846644915711 56.653979818269455 66.5103120671564
292.0060758957475 55.008247855119755 52.35222665079062
309.3945697510608 70.60680315940012 72.58097251999907
315.82376162294463 55.1048275192455 59.00908045897219
294.98213908898515 66.43247687135974 71.2062463101005
295.50927711891796 66.92853538491183 57.028472016535304
295.6020783601181 54.144059612070386 52.42146881775991
295.6466250118225 58.00083025683397 50.269166466423066
304.29803179293395 73.77734510026264 61.92990846903067
292.53871587487134 54.05019649862508 53.303833778077625
294.8789923443544 60.382673730254396 51.249846251805565
307.7710881871254 71.02141137420875 72.32724454539698
307.9288866656574 62.67721477383186 53.813234763301914
309.9664627969345 65.48816804988601 53.86482087113355
304.48580531546514 63.636926389019244 74.69180782457596
314.56552221648656 73.43591487356942 60.20291911243527
303.2705970117139 52.396063624828244 70.7620600630917
302.08085416136436 72.29260069260536 70.94459836179726
292.72196453418775 62.98981640696369 70.18170834771796
294.55704754964944 53.462127767082755 53.942909631258594
310.7765507452927 68.95834149899324 73.5966612587309
310.8801039667764 53.730530263148665 58.62931775221211
296.86871408574626 49.36540542771063 65.03540067108143
314.3318010136282 69.58389532159909 73.01492575286376
306.76866725061535 74.19531632214961 65.38953348879471
306.3929437043057 63.56799773331179 74.77713073839452
296.65901444196624 70.33201549195313 70.54917688535666
306.8426879223176 54.45252892870872 57.856617447771264
312.6081054196109 51.91996224884058 70.62582323525949
291.3665680848764 57.92784671693517 71.35401681191506
320.3976553376327 57.097299969169946 60.745480596690584
323.22854478438387 62.83405268977421 67.80460950185113
321.3315565744567 56.82089760536296 70.95060701736728
318.45620652663456 67.64640310317532 71.81833731230174
314.53923165737774 65.71991479457756 55.04937700334044
290.28471134666756 58.482678063590164 67.29544342786971
321.1743663210097 67.97477013417638 64.08399645718549
290.41158117543205 54.857866085801845 62.66257815810227
311.7155956933277 73.79633422610432 61.129394260120534
313.83546537522676 74.19645783483931 63.256020214343195
290.46721165127747 62.02118435851752 65.96499066477074
306.9017305792421 57.96598077955176 73.55458406533758
298.6791530911908 73.37943811593256 66.27268144697129
301.0251291094231 70.36337535227948 72.20172352637945
315.0638182521547 64.0550207353199 73.90060544903412
302.053546941326 51.133112165331404 69.53475268634656
304.277200365329 67.07651692969361 74.1634133044575
299.37031424648217 56.35516024386525 74.13635528347677
293.43272983704605 63.93040682951332 57.4671539822322
312.2456734510786 74.10811075931088 62.54502948232683
292.3435181282528 53.63877319428683 55.641490645276484
292.2193973187061 53.69517513377543 71.59829951891982
319.78061844757315 54.36305960108106 70.15746435971421
301.31273757908525 72.99035720407288 59.51854277109075
297.2748969407158 65.67222681507168 54.650038379062856
294.2702190853057 49.99378001680523 62.34161351676638
319.2686050685809 73.12970055709569 66.76097466799162
304.30360530194116 72.10842540355831 71.00982102324141
306.85861580167915 59.01487298243743 54.54346488334491
302.9263227019557 53.747321555262424 56.92790590521756
312.89780432166475 73.42545633936862 59.825501873953336
318.42678910427753 71.60707861442695 61.27452282317795
307.6818106472402 53.31988571181978 60.038679512028004
316.864142013324 62.47328932234269 57.03584282263993
301.75308618498804 67.03893983691461 53.034441300433215
291.50832704136 56.389106091405026 72.48089046759043
295.5589219391248 71.19279004768366 67.15463786414725
318.0621671535719 61.40865947664127 73.87238112009366
311.36639333491166 56.84917367845951 73.27522497520069
301.5581419978513 51.28924536947666 61.991801835608285
300.8901036415357 73.69448090768554 65.46526158601405
291.5167356884588 56.65291544202641 51.4835356110963
303.04070162231307 74.04279592909238 65.52437376421267
319.0959738340515 60.91360434139149 58.462798354026575
317.5726563783017 55.30579445876422 71.92008647748824
300.4732699649056 60.92433865531948 52.175280564957916
321.16665584407565 55.88856684467613 62.46278147099235
298.53043129397736 61.51412377652673 52.20792137184575
306.19947532443524 55.912633599142254 56.27106846647734
321.2367974862438 64.26379241842747 61.47832916766102
296.31429018935853 62.107505389562405 52.41813674467279
310.4205464754945 60.4702098241147 55.03088902820252
301.28005810962406 64.25465229923796 52.80525498964592
318.87329921908093 63.999316789677735 72.75723540901426
298.6512790985823 65.26196652322535 73.77152344537448
290.56646819217445 54.085689464252546 64.78534340137584
296.68935975090517 65.78887774720242 72.65455542048777
316.7684471648343 58.88321517684416 73.57958813319647
297.7723291062132 72.10136087960188 70.08965532963703
316.78947862065723 69.18162067159207 57.96562781130161
313.3299250505785 64.6667007024791 74.06192730209544
312.5050450300411 60.07306012301484 74.26796920189618
314.3508561645822 62.25967847413172 74.23394588562704
294.5346387815452 69.59825483686755 66.35624637945763
302.9624012835698 58.86112575691651 53.384268667418176
293.93111370926255 66.47797349218014 59.78003510337397
320.1405253516555 67.2162905732972 70.67076380923177
314.92065445249926 70.02631652046414 56.74334189875036
299.69034402505457 54.475390229447214 73.3918852189821
308.8297099373861 59.005141068519784 55.15368613917853
312.2081458469814 52.611084583320526 59.910138838675756
293.0651736197697 66.06239883197597 61.259648103421334
313.8902763567349 54.22734364453011 72.02834555879248
309.9555722535054 73.69308671230944 60.62249137808525
308.32446131473154 74.14047223858829 61.81854760368139
307.26474173281264 72.05582115772087 56.21589964881819
294.1967767661391 49.80416299634812 68.14008289630135
309.8469441554282 69.66518331201424 54.18479390454096
319.0646625237193 57.74354284139588 72.53771790471963
292.96749948724835 64.97346540924528 59.48664161181147
291.2006087408616 55.66202882642647 53.95724750022967
300.5527635302943 64.69455494063868 74.13575120809367
298.1769288825454 72.95274504854542 68.35737548693929
311.29529004397955 73.22054451373802 59.74831319680838
295.8054870021511 52.96992692675602 73.5272428668735
295.2078767440847 51.829536339834505 71.61372987400128
313.49598289203726 74.05136225567632 61.39709747659028
301.3091263493782 72.04416812522267 57.63953845463408
289.8112242534463 59.02564670715982 63.267431475444695
308.31950151296013 74.26870644744517 65.52523987316853
317.8351553998268 53.443399790482026 70.64865373812243
308.78462813390183 67.43651081324381 73.96712494099589
293.79363444304175 68.35081012570188 64.88775533746606
321.1970015394394 61.51098783683395 60.62752228816318
311.45836510540784 70.47820723422963 55.49125914616621
295.66254574851575 64.60567395200748 55.11287070520881
319.2608208736534 53.322658227002265 62.160720227852856
315.69630615529394 72.34451383859067 70.92941923051431
298.11897443877257 64.69384309663887 53.56672400514607
316.17651399427024 64.62821256162064 56.21673911950163
319.8547832853125 66.16220253484367 60.25437345181343
323.7134705763684 58.92998117694622 66.7653857156244
310.0919608330167 52.550026086785955 60.77672883709354
297.95180467349195 49.118395654879045 66.70775181841721
291.59382887459344 64.1929625441699 66.42696344495913
297.82196259751765 71.93551148286468 61.54400476698248
314.4970818158149 68.12410373270289 55.385287165736116
303.25402457856205 68.12487924995395 52.84354058755633
298.8780070597951 70.96706319649333 71.38337300642496
291.293453252295 55.44559542309674 71.07026744773839
320.15652530088425 71.54729859126886 65.80437128985731
313.93251040650614 74.07544551252558 65.38368708619676
316.72569253727244 51.274766699897825 62.73679743028782
317.1340000924741 73.04354422852795 61.33611619169286
294.51302104867057 50.301432109480196 69.88405203420743
316.3811462102779 72.66507945848623 59.84789386128902
293.66137648631127 65.05939737839516 70.30795364392058
308.6083947933018 74.40020504623224 64.02570646154427
299.1719390397045 62.95480695922323 74.36927735991974
304.956420111304 73.518114744668 60.040084934613084
301.6761110506176 68.7002517531835 54.20483124468352
312.30590406895465 72.61149984487922 70.84863586407955
318.31827789212474 51.82463986734594 68.95321688755988
310.8081246245996 71.82126253035777 57.03514336046809
319.2142787772986 65.51201826953918 58.75830058309875
300.7405754687766 69.74357150575322 55.27573891481104
291.7965307295021 61.59340706446176 69.28841914991592
320.7680635468043 53.691368324137464 64.24796247504854
315.8462576389911 73.87011981248685 64.13738216232547
309.8831515700389 67.59351768583363 53.6810981950115
300.95415136683465 51.81427720932404 70.9956494439961
321.3248161062739 65.53030589728574 70.26172746989896
318.4977224861638 67.15457897591256 58.583568722651414
313.3755572141807 66.94811750371251 54.6342829148788
316.0967115870469 49.955804461635445 65.46412648964898
316.45260118385187 66.9313979758548 56.62507680630638
296.6111988056855 55.52461943027798 51.40110235166349
317.4143496514779 57.42909413727005 58.481309617335995
305.41322183743404 64.22290556207943 52.51541881969868
321.1304711602945 68.22602194680485 69.00399748768491
300.9382129944926 70.71252421193972 56.35966743732859
297.41954765451305 72.60037686855678 64.74171866686576
312.1080778756856 53.499505879415466 71.73556032145518
317.0751632649299 63.33244712577447 73.72540635154913
301.70456923375616 50.52727725297679 64.65070653142638
317.820848786662 73.69137028212673 67.60342127188082
297.9312040774157 53.39191859924779 73.67395712026858
321.7181072459311 55.14076787919012 64.45698749389699
291.40527093475737 52.220757630920886 63.89923706048078
292.423929680079 66.05774044982402 66.54852178978273
312.3455157459639 57.92572749723547 73.46073111175555
320.92130271424696 58.3411524012114 72.27379220611249
293.28191790554206 56.02487304361475 74.41824766386463
322.4460743717059 60.551011391698474 61.98405195564392
323.29225794072306 61.83811076624212 65.9218109647884
319.6501618701972 72.31990464266428 68.50209296193228
296.87040127260167 68.362203174771 57.48098034163115
312.02279500493995 68.18978243149898 54.465737413008185
308.35917551107 73.89507805880858 69.24096808588259
294.2995070987741 65.91267936190374 58.224817086519074
306.22679377683795 62.33442169031697 53.32588354885161
293.97193393180083 49.792325051636126 66.04697610780795
295.0566664303109 68.46043770871132 70.1072947716919
300.3023483275547 73.59326184230537 63.14642827137297
309.853232039006 57.33739781536952 55.9211285934631
294.19493402977633 67.52574427739309 60.864902913500096
294.4374146112969 54.7523794963465 74.4840991059987
290.29571756200806 58.09090116965007 55.33817524384696
292.9439420509834 66.7991409381126 64.84965862458937
305.58825561644113 57.39319884919776 54.91222670556743
320.325237215055 60.246957593493924 72.59380832005856
292.2642528757868 55.00068075507777 73.27775558184683
300.745291106651 53.096503886977764 56.78366041657352
297.3176267427482 53.845066424908495 53.55589576249835
321.37760290714823 55.449987213054534 69.43227787500429
320.4295768023655 59.85682778457323 59.88118591545807
313.3484293155692 64.51426712252972 54.91826830828343
300.6541142491056 58.597215884539004 52.476297604526536
306.49189743466553 65.49009743702585 74.59398314998003
292.282452579579 52.240697616330415 59.66509267427087
306.51598639859765 73.97736321940994 63.08721637535028
306.38173118842445 73.79539159680074 68.53806041771287
319.2515598327329 72.37566584442425 63.50507411948044
302.47185616469056 74.0865612361224 63.630971627685255
307.82147522336487 73.10631646919373 57.9634761779319
297.7176423379539 69.77762571456225 71.88975647581594
290.6287133087395 55.601493332276874 56.69790033245027
307.86737183044914 60.345667335359586 74.21197033764882
314.50606543329235 60.271463797722085 74.41904277651035
303.8762257997007 69.72315410810455 54.136930724225266
302.45891182354785 67.1495391233523 74.19033104553102
290.72840802067265 56.64168030525715 70.04914771334458
312.8503879346952 67.40751439702146 73.7487551884854
313.4782589931022 57.73397221756017 56.59626054630555
296.4131908125898 59.70523128252652 74.55296208880588
319.567216656415 69.99366346344064 61.30405528484465
312.1772228507108 63.39623271812156 54.68039579124926
296.7610173355415 50.64414566133313 70.45327263181308
298.1786132897968 55.021316121844336 74.24696921547846
296.5204533380388 71.3183696260006 62.92985265406562
293.1611319756566 52.10727992829603 70.76080216204802
312.5062778706968 69.25484891498695 73.37718215351754
313.3272175710844 50.97144870040201 68.81112545780132
320.25852027431125 70.36830058302188 63.0816405524987
294.76241960638896 49.61543967576885 63.71763107294027
290.94832075519145 61.18196837994635 59.83525442775675
322.05396203568114 65.1113794254936 64.04538911437807
316.6410159677132 70.93069996571153 71.74815526810558
294.73430142393437 57.31825704698608 75.08723001732228
301.81664424855296 53.57406895953848 72.51832144318155
302.1221039780198 70.40031110238115 55.166530677557695
296.29477201158124 51.331318553527936 59.10583099344103
318.6782294439332 69.31944553287256 59.907256584938274
291.96358906177034 60.527620330064686 70.66650282471149
295.6924217105975 71.37455329658977 65.2677724377733
309.1119609182757 69.19615988281566 73.43602316829539
297.33991930850743 51.94782369069467 72.21198345132457
298.3829622296581 67.03862790147156 72.8822770848264
299.40346460306614 52.7832762651595 72.21367565720962
291.3384504756355 53.46417729941096 67.31827241526192
294.2013095369269 61.85785549007847 52.31496655813668
295.08167699924064 55.85946435739635 50.00884152574019
298.1973989860899 63.31070008931679 52.83131885549065
301.1860000438997 60.393247080290415 74.27191794556965
306.4917342156458 74.08351141504545 66.93520551222852
314.5763145950456 71.36404542986755 57.4778758487675
292.33925210595436 57.233296446489085 73.71759143281793
300.80291170181005 68.79485179427108 73.01225419446983
306.90215063012477 55.659202539400134 72.48500922066329
310.1696109704054 74.5007521081066 64.1540600177777
312.04744411986127 72.6957559337104 58.355159029152105
299.11836489972615 68.96125321938864 72.60823420062754
314.24069217787047 55.63838533871585 57.875049166770914
315.97928464550034 73.91102877525772 66.37505349503755
317.16845912921605 53.38680651828632 60.68820020393365
315.21025251057733 56.53359128568269 73.01592974784845
292.95181344660966 62.68356284389099 55.50667392757043
301.2073083120907 58.06145569176182 74.06992417893981
306.294756141141 52.4122031263933 65.50152256917474
304.46677110805786 65.41424169562599 74.50049114869395
303.5560643383369 53.797292300132725 71.80947812274698
304.7448570979952 52.4982153726289 69.791594221998
299.57287941500044 72.75394778198283 61.04844872091164
307.96518533839105 61.04473784451389 54.454557212287064
295.4099237352463 61.74825991440503 73.26444189285651
307.15669427551694 73.54140658636935 70.02447040585936
321.6504223028347 58.7173989483661 61.22415413542923
293.74279826072285 54.451366711586566 51.26051314731728
299.76159120128654 70.77061266643364 57.61075238007983
290.7307127013485 60.241245291292955 68.27087214543272
309.3902734763275 71.29154169950587 55.62730472411727
320.23731377605384 64.48072152052289 71.4729096464248
302.670038428692 56.75129355530515 73.87126904215313
306.41443677716904 67.89181263783388 74.19637352259457
303.95711555532677 73.34881304242863 69.23894166821125
307.75302589768813 64.28908914837633 53.07921758577649
303.2710819432434 64.46795524166471 52.459065017985026
301.1613412633454 54.43504793862227 54.821419830543164
298.5710266358939 58.36107660129996 74.66422579861397
289.84317461520607 56.855065327361764 63.496624714721214
314.97429217389333 57.228074023002485 57.42179119184636
316.6167638494969 50.08119415432473 67.30186341727308
289.84590525598753 58.73367357965011 61.09749411019755
295.2306441221332 69.44769731960137 61.32372397891459
293.25490857442156 67.78584126584452 66.46233515527972
319.5625135988792 62.116146944621434 72.68200315899647
296.27856086373157 52.26252484993171 56.031488461468975
298.9833569159748 60.610948511509946 74.59273918980085
295.71367670816335 55.70505458727286 75.0611630466174
310.0490829880238 55.567338639232084 72.32677176676196
306.08752761306096 69.51016956296729 53.66492143859216
312.4226994786401 50.046069350133024 63.90371871964865
303.67144363888036 60.83157358604551 74.57658973979684
314.5189880072521 50.88372687328875 61.91436942986586
313.2284142571867 54.296037814596474 58.56256094855443
299.35666327050774 54.0415168477732 53.9007385098476
310.6162307359102 65.46662630664932 74.057268560053
299.78585855490707 72.83682239286676 70.11879408139843
304.871363759686 68.59115870291369 52.947962046218066
290.3182743257884 59.36179269654097 59.22293627610395
308.3738790214146 52.32340072155174 69.13944412035411
303.65220636444076 71.30162926604594 55.592468192207896
302.42669247990966 73.89260240776453 67.36976372351356
296.4221057758643 49.59147913910156 67.99925013764958
315.11360584134434 49.95720593848732 67.44315895454714
290.53168465613186 54.849866332842126 66.84809427427699
293.54596594066896 67.78351860972202 62.863133107159506
291.7723516686173 53.496169343650564 69.64928932204822
301.44785292760014 55.76083516327956 73.50715543602277
308.2189123476157 53.62365210894812 70.70136883537684
308.33475932271824 55.871643613364185 56.87060096967276
321.9671335360523 66.63338300936684 66.05156488821572
291.9204790586357 51.785031028924905 65.64862185017547
319.4165639905095 56.034503496920465 71.40837672277944
305.02487497442655 69.27780885522817 73.32883711704955
319.4680122791863 67.79738981531897 59.937417380414146
302.4990002647891 68.73320774672118 73.44189114297761
306.00349431172344 72.69988537677105 70.29862914076028
313.08364658892674 71.35430337382783 56.9197794225968
296.7944582984002 68.20431473215338 71.9211387092755
293.6464331798485 59.494583191918316 72.98900153617619
298.8552454393517 51.1017657458913 70.95184910622234
303.9656468091583 55.32387156658767 73.12667606462398
294.55622920565133 63.22945829696418 53.86139540512481
308.48110605107723 63.236953840023304 74.60302885706929
322.675556410544 62.40339582343565 63.09213282581764
306.30608424989236 52.75210822133054 68.55388704908249
318.6358502505385 62.979951007794725 57.80790403672847
299.01460029933287 49.66479034412366 67.85047731221628
315.50104580883385 65.94835946075814 73.61221774661163
300.1511205580772 50.566705308324444 69.42386482331564
314.5605545608042 73.31336563029417 69.90335916173294
300.62965078616554 67.01455159890463 73.57757155785004
297.22408745023563 56.405697318890155 75.15749200031114
293.6670170657293 50.95801815994546 60.72969950033175
294.7228723869678 69.76842121301715 63.906950287683614
301.6149466472055 50.21906542602279 67.47125908983666
296.7579640633833 58.03816708091087 75.3410263244225
318.60504758065395 69.23375677876273 71.27802375585716
304.64771229494687 74.09395597584326 64.38004969208922
303.8427185856533 51.76834814268881 68.49211203031757
301.60782291963045 52.48928009700824 59.19485459398895
290.3773653135686 55.61207768639606 58.5720211488261
293.6541587414087 52.15505370705529 57.84677836707478
317.8128362776461 50.46816478299312 64.73158504647184
302.2292312783024 62.36264899855222 52.69201433091588
308.0064731601384 68.63728293573624 53.638039675526656
313.1714424494313 55.8517148697163 73.04974512063593
320.96869038824775 62.82418932822857 71.32137881949747
309.04837850168815 72.33346781191047 57.042614750767875
310.07294183958123 60.919285737327 74.37605686008072
301.8429930658532 73.56147528751217 61.5021421039802
321.8297847603185 66.46473502101654 68.55104004418197
304.0193426202041 58.08157847006763 73.97914878600284
297.3289669763097 61.77105816372209 74.23344719299166
303.260693113666 73.31474632063235 59.95017516359843
302.51077427588274 59.29734401827427 74.50777100474517
320.30214786428127 52.48449157995345 66.12596547108252
291.14766171469125 59.130302424108834 69.80416477205532
306.0258666822163 71.26048982625093 72.09860186438227
304.57714971770395 65.64046117944406 52.17011951468519
293.6901278077835 61.7488050757802 71.82408053897298
302.2361818171838 71.38846361462926 56.33809864959829
304.2603940368414 62.8513329377214 52.79243925732265
298.24211824371395 50.26659883890938 69.35597882973791
300.26450960428997 61.69051044463212 74.60655572367133
293.7490245334204 53.235608332803324 72.67770749191057
307.5030639954434 69.64128216720013 73.33121137127067
312.25171239333883 73.83774701726223 68.92114275248443
290.8232368078999 57.43015774906569 53.31118702199515
318.18969196934967 65.85813683435342 72.46129438422312
295.2245023018076 67.83721715908054 59.10276576051375
314.88402853836635 67.82045965392169 73.37214942466656
312.8554142817547 61.06086437697349 55.273887645788065
296.3061067295594 50.20405009900162 62.045660192765794
320.1396097631316 69.764470598269 69.29887309271876
294.2966900491674 63.93375955416538 55.7016563779509
292.5399648814339 51.18468293339473 68.32400342173881
322.4304595261354 58.25801129411339 69.68339083416687
311.7890884052982 74.33838683842646 64.3183780382262
306.33125027724384 73.36956900775434 59.10294306849827
313.1406585941822 49.71225573136634 65.93618498203166
310.2981909715554 58.72732289295167 55.222644760440154
311.31885224418056 61.97485014792774 54.77914473970563
305.59088569544133 71.07184945339576 54.93741551864073
299.8284986299366 68.55495616209613 55.081364705212216
299.54192197616186 49.248885824266424 65.77508837882371
293.8839287499179 68.41596708296106 68.22648381355619
318.55672342324505 50.594271491898404 66.96074153685507
316.5654771751077 59.60976863084741 57.422177666956756
299.0209896281865 53.07618901705778 55.367820669413334
294.8542628110211 63.91834456237288 71.86822068055204
293.03389887241923 58.85430859063158 50.6610033205898
296.4631412241157 71.75350217946027 68.69274387486482
294.12892661932716 52.6130041337456 55.75414128012502
303.4649337612079 70.88680693958868 72.4547542290204
310.5547363355591 55.548981213222866 57.18412137887377
290.7304546522684 57.789476441861126 68.85110093663188
314.5898608561449 52.555285951026754 60.574546365991296
303.17777976196874 72.46926829225904 56.942924868252504
308.3796048422588 51.78224104947903 65.04940781120222
306.0156857362448 52.43693007191793 63.43236820216579
322.32885787918235 57.66587543710004 62.97169290425251
305.28991984920356 53.67937745287976 71.06859445640063
297.05528509436544 67.16092218509277 55.94253873611956
296.55903389684545 54.62752286901454 74.50981225793336
298.41857955082804 72.6456033284318 62.968049424268386
310.2078041564886 51.63727975046173 62.571962062132954
299.24452520728676 49.890320681325164 63.1986142499312
300.5714611957507 65.78952609119187 53.07994946390258
309.79384664129844 62.99648847594538 54.34731784385376
301.96735654417694 65.60537529250658 52.54787914485323
299.98066684919706 59.35635729004776 74.39069115527207
289.9263448015672 55.62002773497949 60.62295642994865
296.06859170271116 65.92511422803652 55.85466738385291
306.41503928455495 73.82204429316131 60.94948054183626
295.2114660056529 70.05880002747774 68.57568420926006
306.0227553924511 60.45968480674554 53.8799961787683
308.09272995542193 52.203125298258556 62.95929433439066
305.0197263657518 52.180823790301204 67.15616273161984
318.290027383043 59.008770467265016 58.214419308365144
POLYGONS 1168 4672
3 0 407 235
3 235 405 488
3 0 283 407
3 488 541 280
3 488 421 541
3 203 67 541
3 280 0 488
3 29 30 407
3 0 235 488
3 280 579 209
3 280 209 0
3 160 579 67
3 344 67 203
3 67 280 541
3 67 579 280
3 407 283 29
3 29 283 70
3 283 209 70
3 283 0 209
3 70 13 574
3 51 209 569
3 488 109 421
3 70 209 51
3 203 264 344
3 160 344 536
3 160 67 344
3 574 29 70
3 574 237 29
3 569 137 51
3 569 341 137
3 29 237 30
3 30 237 510
3 1 109 405
3 109 488 405
3 569 579 160
3 1 165 557
3 390 447 111
3 447 36 578
3 235 407 232
3 407 30 232
3 226 35 557
3 557 35 1
3 352 36 23
3 30 230 232
3 51 550 13
3 232 2 235
3 235 2 165
3 405 235 165
3 569 209 579
3 264 250 344
3 109 126 421
3 23 126 352
3 352 126 35
3 126 109 35
3 1 35 109
3 341 160 536
3 137 341 17
3 421 126 16
3 16 126 23
3 203 421 16
3 350 448 536
3 27 113 448
3 113 12 37
3 421 203 541
3 405 165 1
3 113 37 17
3 250 256 350
3 305 13 550
3 12 118 37
3 272 118 208
3 130 146 173
3 574 576 237
3 574 219 576
3 137 33 550
3 344 250 536
3 208 46 272
3 37 118 433
3 433 118 272
3 36 352 371
3 352 265 371
3 390 16 23
3 232 9 2
3 13 305 219
3 350 536 250
3 390 15 31
3 500 384 448
3 137 550 51
3 17 433 33
3 350 471 448
3 471 500 448
3 441 108 525
3 33 325 310
3 27 384 290
3 50 34 25
3 25 34 15
3 17 33 137
3 290 427 12
3 75 557 162
3 323 525 14
3 14 525 45
3 527 325 272
3 237 441 510
3 264 256 250
3 15 34 256
3 448 384 27
3 362 77 9
3 272 325 433
3 433 325 33
3 353 471 34
3 390 31 16
3 16 31 203
3 358 321 3
3 162 77 321
3 321 77 3
3 31 264 203
3 31 15 264
3 154 230 510
3 50 353 34
3 471 256 34
3 2 162 165
3 165 162 557
3 358 555 451
3 25 15 111
3 113 536 448
3 510 230 30
3 334 353 50
3 230 9 232
3 341 569 160
3 113 27 12
3 27 290 12
3 111 195 25
3 305 550 310
3 550 33 310
3 17 341 113
3 113 341 536
3 37 433 17
3 173 301 130
3 130 301 141
3 173 556 301
3 130 289 146
3 130 334 289
3 289 334 50
3 256 264 15
3 354 233 95
3 463 45 292
3 262 314 511
3 69 182 217
3 217 182 125
3 442 357 555
3 555 357 96
3 442 214 357
3 213 354 147
3 213 79 354
3 233 475 182
3 182 475 125
3 555 96 451
3 14 132 440
3 314 168 132
3 132 168 440
3 79 349 475
3 475 349 561
3 440 323 14
3 440 345 323
3 428 236 254
3 86 362 249
3 249 362 154
3 561 127 176
3 176 127 459
3 561 148 127
3 127 148 459
3 561 125 475
3 561 176 125
3 475 233 79
3 79 233 354
3 287 117 176
3 176 117 125
3 287 217 117
3 117 217 125
3 8 83 349
3 349 83 561
3 8 148 83
3 83 148 561
3 254 79 213
3 254 349 79
3 8 547 236
3 236 547 254
3 8 349 547
3 547 349 254
3 69 506 214
3 510 528 138
3 528 510 441
3 471 350 256
3 182 78 233
3 78 95 233
3 138 528 345
3 345 528 323
3 463 63 45
3 45 63 14
3 441 237 576
3 3 86 442
3 86 95 442
3 136 434 195
3 195 434 146
3 574 13 219
3 441 576 108
3 108 576 219
3 525 108 45
3 108 292 45
3 528 441 323
3 323 441 525
3 557 75 226
3 348 368 516
3 265 205 371
3 205 32 371
3 287 583 217
3 374 463 292
3 440 168 575
3 96 506 52
3 52 506 224
3 214 78 69
3 69 78 182
3 342 47 314
3 314 47 168
3 342 151 47
3 47 151 168
3 69 43 506
3 506 43 224
3 95 214 442
3 95 78 214
3 217 40 69
3 128 43 40
3 40 43 69
3 329 224 128
3 224 43 128
3 560 481 479
3 479 481 201
3 343 39 38
3 435 24 260
3 511 455 24
3 63 132 14
3 189 361 151
3 151 361 381
3 189 121 361
3 361 121 381
3 354 28 147
3 86 249 28
3 28 249 147
3 9 230 362
3 362 230 154
3 362 3 77
3 362 86 3
3 520 163 304
3 463 455 63
3 63 455 511
3 163 580 304
3 259 18 580
3 310 395 305
3 527 466 395
3 252 5 244
3 504 163 368
3 578 32 11
3 524 39 482
3 343 143 366
3 504 179 365
3 259 580 365
3 560 198 481
3 560 172 198
3 259 302 4
3 259 365 302
3 504 368 227
3 427 348 516
3 516 208 427
3 155 136 444
3 236 538 8
3 381 121 538
3 432 226 75
3 398 526 173
3 173 526 556
3 526 429 556
3 53 375 497
3 497 375 481
3 53 201 375
3 375 201 481
3 72 304 545
3 428 575 236
3 224 329 573
3 158 563 459
3 221 581 558
3 224 573 52
3 459 255 176
3 122 287 255
3 255 287 176
3 429 485 379
3 379 485 393
3 459 417 158
3 158 417 445
3 459 148 417
3 417 148 445
3 142 564 72
3 142 466 564
3 155 444 240
3 52 396 96
3 96 396 451
3 172 102 462
3 462 102 49
3 172 439 102
3 583 40 217
3 173 311 398
3 398 311 434
3 173 146 311
3 311 146 434
3 13 70 51
3 294 376 64
3 64 376 562
3 294 184 376
3 376 184 562
3 214 506 357
3 357 506 96
3 25 289 50
3 415 308 61
3 39 65 38
3 39 157 65
3 65 157 124
3 267 197 7
3 258 18 259
3 482 366 439
3 439 366 10
3 415 215 21
3 193 271 215
3 18 369 545
3 4 204 193
3 194 271 204
3 204 271 193
3 169 424 53
3 53 424 201
3 169 363 424
3 424 363 201
3 107 309 285
3 285 309 317
3 107 42 309
3 309 42 317
3 141 99 130
3 99 334 130
3 578 444 447
3 489 180 22
3 22 180 169
3 489 363 180
3 180 363 169
3 159 347 141
3 9 77 2
3 77 162 2
3 300 5 21
3 155 64 562
3 138 154 510
3 334 449 353
3 334 99 449
3 138 582 147
3 147 582 213
3 342 149 291
3 291 149 252
3 342 279 149
3 86 28 95
3 95 28 354
3 141 552 99
3 141 347 552
3 552 347 581
3 154 138 249
3 249 138 147
3 146 289 195
3 195 289 25
3 111 15 390
3 484 402 416
3 416 402 497
3 402 239 497
3 111 136 195
3 304 72 520
3 520 72 46
3 61 514 369
3 61 308 514
3 514 308 435
3 291 320 189
3 317 42 320
3 532 438 276
3 201 363 438
3 438 363 276
3 262 435 279
3 435 308 279
3 61 268 415
3 193 215 268
3 268 215 415
3 439 212 482
3 439 172 212
3 212 172 560
3 271 194 20
3 194 313 20
3 558 581 181
3 181 581 347
3 369 18 61
3 18 258 61
3 484 159 241
3 241 159 556
3 482 430 366
3 366 430 343
3 482 39 430
3 430 39 343
3 345 582 138
3 345 428 582
3 248 552 581
3 305 374 292
3 314 132 511
3 511 132 63
3 197 267 49
3 49 267 462
3 415 21 483
3 10 467 439
3 10 227 467
3 416 370 484
3 484 370 181
3 416 293 370
3 370 293 181
3 348 225 368
3 368 225 227
3 193 268 258
3 258 268 61
3 291 318 342
3 342 318 151
3 291 189 318
3 318 189 151
3 301 556 159
3 159 141 301
3 511 24 262
3 262 24 435
3 189 284 121
3 121 284 218
3 284 42 218
3 314 262 342
3 262 279 342
3 181 243 558
3 462 267 243
3 243 267 558
3 582 428 213
3 213 428 254
3 157 175 124
3 20 170 271
3 21 215 170
3 170 215 271
3 440 167 345
3 345 167 428
3 440 575 167
3 167 575 428
3 429 152 556
3 18 545 580
3 580 545 304
3 384 500 399
3 399 500 248
3 545 369 135
3 135 369 260
3 20 313 133
3 8 538 81
3 326 399 7
3 399 221 7
3 181 347 484
3 347 159 484
3 545 135 72
3 72 135 142
3 415 483 308
3 308 483 279
3 381 120 151
3 151 120 168
3 381 575 120
3 120 575 168
3 99 552 449
3 552 248 449
3 22 372 489
3 179 302 365
3 293 462 243
3 243 181 293
3 369 514 260
3 260 514 435
3 72 564 46
3 46 564 272
3 142 549 466
3 466 549 374
3 549 142 260
3 142 135 260
3 272 564 527
3 527 564 466
3 277 500 471
3 516 520 208
3 208 520 46
3 520 516 163
3 163 516 368
3 198 293 416
3 504 365 163
3 365 580 163
3 179 504 10
3 504 227 10
3 12 427 118
3 118 427 208
3 221 558 7
3 558 267 7
3 527 395 325
3 325 395 310
3 305 395 374
3 374 395 466
3 463 374 455
3 455 374 549
3 455 549 24
3 24 549 260
3 49 467 225
3 225 467 227
3 491 474 568
3 482 212 524
3 524 212 560
3 290 571 427
3 427 571 348
3 449 277 353
3 353 277 471
3 454 327 512
3 326 571 384
3 384 571 290
3 197 326 7
3 197 100 326
3 326 100 571
3 107 278 228
3 225 197 49
3 225 100 197
3 44 392 178
3 247 134 246
3 134 461 489
3 454 110 327
3 327 110 48
3 454 474 110
3 110 474 48
3 439 467 102
3 102 467 49
3 348 100 225
3 348 571 100
3 38 306 533
3 461 98 489
3 489 98 363
3 461 276 98
3 98 276 363
3 399 326 384
3 474 465 48
3 48 465 153
3 474 491 465
3 465 491 153
3 500 277 248
3 248 277 449
3 248 221 399
3 248 581 221
3 305 292 219
3 219 292 108
3 252 410 5
3 5 410 21
3 252 483 410
3 410 483 21
3 19 367 133
3 133 367 216
3 19 295 367
3 244 397 317
3 293 145 462
3 462 145 172
3 293 198 145
3 145 198 172
3 191 476 391
3 191 105 476
3 476 105 517
3 44 503 392
3 503 251 540
3 285 234 107
3 234 391 490
3 339 97 286
3 97 543 286
3 343 38 6
3 38 533 6
3 124 94 306
3 124 178 94
3 94 178 392
3 295 92 105
3 105 92 540
3 295 340 92
3 92 340 540
3 276 400 532
3 532 400 157
3 276 175 400
3 400 175 157
3 397 91 216
3 5 300 91
3 91 300 216
3 388 216 367
3 367 295 388
3 490 339 115
3 115 339 286
3 103 388 191
3 295 87 388
3 388 87 191
3 295 105 87
3 87 105 191
3 397 480 317
3 317 480 285
3 397 103 480
3 480 103 285
3 218 492 228
3 228 492 107
3 218 42 492
3 492 42 107
3 317 320 244
3 251 324 540
3 540 324 105
3 251 517 324
3 324 517 105
3 391 476 88
3 88 476 517
3 392 85 106
3 392 503 85
3 85 503 540
3 247 82 328
3 41 88 517
3 106 80 496
3 496 80 123
3 328 535 494
3 494 535 44
3 377 112 461
3 461 112 276
3 377 175 112
3 112 175 276
3 275 76 66
3 491 423 153
3 42 284 320
3 320 284 189
3 228 554 218
3 445 81 554
3 133 313 19
3 313 418 19
3 532 524 479
3 479 524 560
3 169 457 22
3 379 443 452
3 388 380 216
3 216 380 397
3 388 103 380
3 380 103 397
3 431 360 278
3 278 360 228
3 431 139 360
3 360 139 228
3 340 330 106
3 19 418 330
3 20 298 300
3 300 298 216
3 20 133 298
3 298 133 216
3 247 245 134
3 134 245 461
3 80 106 330
3 330 418 80
3 81 378 8
3 8 378 148
3 81 445 378
3 378 445 148
3 339 186 97
3 97 186 41
3 339 88 186
3 186 88 41
3 140 143 6
3 6 143 343
3 140 414 302
3 302 414 4
3 140 544 414
3 414 544 4
3 487 568 413
3 413 568 474
3 556 152 241
3 241 152 239
3 497 266 53
3 497 239 266
3 153 119 48
3 546 387 119
3 119 387 48
3 543 97 104
3 104 97 41
3 391 73 191
3 285 103 73
3 73 103 191
3 6 533 89
3 89 533 123
3 153 565 74
3 74 565 583
3 153 423 565
3 565 423 583
3 123 80 418
3 454 413 474
3 194 296 313
3 296 418 313
3 116 115 286
3 543 68 286
3 144 116 68
3 68 116 286
3 387 131 66
3 66 131 275
3 484 241 402
3 402 241 239
3 543 104 336
3 106 85 340
3 340 85 540
3 445 322 158
3 445 554 322
3 193 258 4
3 4 258 259
3 275 229 76
3 76 229 90
3 275 478 229
3 229 478 90
3 89 296 544
3 544 296 194
3 21 170 300
3 300 170 20
3 394 315 171
3 124 306 65
3 65 306 38
3 158 322 62
3 62 322 139
3 306 496 533
3 533 496 123
3 372 515 489
3 246 134 515
3 515 134 489
3 312 281 231
3 491 426 505
3 505 426 171
3 491 568 426
3 426 568 171
3 306 94 496
3 5 91 244
3 244 91 397
3 544 204 4
3 544 194 204
3 171 425 394
3 394 425 487
3 171 568 425
3 425 568 487
3 281 59 297
3 281 312 59
3 19 211 295
3 295 211 340
3 19 330 211
3 211 330 340
3 6 89 140
3 140 89 544
3 218 150 121
3 218 554 150
3 150 554 81
3 251 535 436
3 140 274 143
3 143 274 179
3 140 302 274
3 274 302 179
3 297 319 93
3 93 319 546
3 84 372 196
3 418 296 123
3 123 296 89
3 487 58 518
3 518 58 196
3 487 413 58
3 58 413 196
3 53 57 169
3 391 56 490
3 490 56 339
3 391 88 56
3 56 88 339
3 244 55 252
3 252 55 291
3 244 320 55
3 55 320 291
3 26 420 90
3 90 420 76
3 26 512 420
3 420 512 76
3 44 537 494
3 494 537 377
3 44 178 537
3 537 178 377
3 121 150 538
3 538 150 81
3 377 386 175
3 175 386 124
3 377 178 386
3 386 178 124
3 496 282 106
3 106 282 392
3 496 94 282
3 282 94 392
3 139 585 228
3 228 585 554
3 139 322 585
3 585 322 554
3 157 166 532
3 532 166 524
3 157 39 166
3 166 39 524
3 196 114 518
3 22 457 114
3 114 457 518
3 128 101 329
3 128 423 101
3 454 54 413
3 413 54 196
3 454 84 54
3 54 84 196
3 201 438 479
3 479 438 532
3 461 245 377
3 377 245 494
3 169 57 457
3 457 57 408
3 303 239 152
3 303 266 239
3 366 409 10
3 10 409 179
3 366 143 409
3 409 143 179
3 303 57 266
3 266 57 53
3 246 335 26
3 26 335 512
3 246 84 335
3 22 114 372
3 372 114 196
3 494 199 328
3 328 199 247
3 494 245 199
3 199 245 247
3 481 412 497
3 497 412 416
3 481 198 412
3 412 198 416
3 279 483 149
3 149 483 252
3 122 255 563
3 563 255 459
3 408 521 457
3 457 521 518
3 408 422 521
3 521 422 518
3 443 577 452
3 452 577 408
3 443 422 577
3 577 422 408
3 152 519 303
3 379 452 519
3 519 452 303
3 281 62 231
3 473 253 394
3 473 394 487
3 408 530 452
3 452 530 303
3 408 57 530
3 530 57 303
3 553 522 71
3 71 522 144
3 522 312 144
3 379 519 429
3 429 519 152
3 297 509 319
3 319 509 553
3 297 59 509
3 509 59 553
3 319 469 546
3 546 469 387
3 469 131 387
3 546 119 74
3 74 119 153
3 74 572 122
3 122 572 287
3 74 583 572
3 572 583 287
3 297 458 563
3 563 458 122
3 297 93 458
3 458 93 122
3 122 456 74
3 74 456 546
3 122 93 456
3 456 93 546
3 158 419 563
3 281 297 419
3 419 297 563
3 281 419 62
3 62 419 158
3 501 551 329
3 177 573 551
3 551 573 329
3 381 548 575
3 575 548 236
3 381 538 548
3 548 538 236
3 450 513 436
3 436 513 41
3 450 104 513
3 513 104 41
3 551 501 493
3 495 529 493
3 493 501 495
3 529 495 486
3 468 493 529
3 394 403 315
3 394 253 403
3 401 486 403
3 107 234 278
3 278 234 490
3 486 382 529
3 359 71 144
3 351 356 531
3 177 539 573
3 539 52 573
3 131 446 553
3 553 446 319
3 131 469 446
3 446 469 319
3 477 346 542
3 177 468 346
3 490 338 278
3 278 338 431
3 490 115 338
3 338 115 431
3 529 382 468
3 312 332 144
3 144 332 116
3 312 231 332
3 332 231 116
3 253 331 403
3 331 401 403
3 531 206 385
3 531 356 206
3 206 356 294
3 131 307 275
3 275 307 71
3 131 553 307
3 307 553 71
3 542 299 385
3 468 382 299
3 493 288 551
3 551 288 177
3 493 468 288
3 288 468 177
3 385 270 531
3 129 346 477
3 486 401 382
3 401 270 382
3 396 52 539
3 570 383 498
3 570 331 383
3 383 331 253
3 531 270 269
3 269 270 401
3 177 389 539
3 177 346 389
3 389 346 129
3 468 261 346
3 346 261 542
3 468 299 261
3 261 299 542
3 312 522 59
3 59 522 553
3 184 485 398
3 473 202 253
3 443 498 202
3 570 269 331
3 331 269 401
3 570 453 351
3 351 453 393
3 570 498 453
3 453 498 393
3 171 200 505
3 505 200 501
3 171 315 200
3 383 253 202
3 202 498 383
3 478 187 336
3 336 187 543
3 478 359 187
3 187 359 543
3 68 543 359
3 359 144 68
3 436 238 450
3 450 238 328
3 436 535 238
3 238 535 328
3 531 269 351
3 351 269 570
3 329 101 501
3 501 101 505
3 501 200 495
3 495 200 315
3 422 437 518
3 518 437 487
3 422 473 437
3 437 473 487
3 403 486 315
3 315 486 495
3 583 566 40
3 40 566 128
3 583 423 566
3 566 423 128
3 505 584 491
3 491 584 423
3 505 101 584
3 584 101 423
3 498 502 393
3 393 502 379
3 498 443 502
3 502 443 379
3 184 411 485
3 485 411 393
3 443 202 422
3 422 202 473
3 11 499 129
3 396 539 499
3 64 472 294
3 542 385 472
3 285 73 234
3 234 73 391
3 26 373 246
3 246 373 247
3 26 82 373
3 373 82 247
3 393 337 351
3 351 337 356
3 393 411 337
3 337 411 356
3 542 404 477
3 542 472 404
3 404 472 64
3 129 333 11
3 11 333 240
3 129 477 333
3 333 477 240
3 382 270 299
3 299 270 385
3 82 222 328
3 328 222 450
3 82 60 222
3 222 60 450
3 450 355 104
3 104 355 336
3 450 60 355
3 355 60 336
3 398 523 184
3 184 523 562
3 398 434 523
3 523 434 562
3 336 263 478
3 478 263 90
3 336 60 263
3 263 60 90
3 205 508 32
3 451 396 508
3 356 220 294
3 294 220 184
3 356 411 220
3 220 411 184
3 129 210 389
3 389 210 539
3 129 499 210
3 210 499 539
3 71 207 275
3 275 207 478
3 71 359 207
3 207 359 478
3 294 472 206
3 206 472 385
3 508 396 499
3 11 192 578
3 578 192 444
3 11 240 192
3 192 240 444
3 477 404 240
3 240 470 155
3 155 470 64
3 240 404 470
3 470 404 64
3 517 316 41
3 41 316 436
3 517 251 316
3 316 251 436
3 155 190 136
3 136 190 434
3 155 562 190
3 190 562 434
3 44 188 503
3 503 188 251
3 44 535 188
3 188 535 251
3 231 185 431
3 431 185 139
3 231 62 185
3 185 62 139
3 387 183 48
3 48 183 327
3 387 66 183
3 183 66 327
3 451 174 358
3 431 567 231
3 231 567 116
3 431 115 567
3 567 115 116
3 90 242 26
3 26 242 82
3 90 60 242
3 242 60 82
3 246 515 84
3 84 515 372
3 265 164 205
3 432 174 164
3 164 174 205
3 358 161 321
3 321 161 432
3 358 174 161
3 161 174 432
3 432 156 226
3 226 156 265
3 432 164 156
3 156 164 265
3 35 534 352
3 352 534 265
3 35 226 534
3 534 226 265
3 205 559 508
3 508 559 451
3 205 174 559
3 559 174 451
3 398 485 526
3 526 485 429
3 371 507 36
3 36 507 578
3 371 32 507
3 507 32 578
3 390 464 447
3 447 464 36
3 390 23 464
3 464 23 36
3 32 364 11
3 11 364 499
3 32 508 364
3 364 508 499
3 136 273 444
3 444 273 447
3 136 111 273
3 273 111 447
3 327 257 512
3 512 257 76
3 327 66 257
3 257 66 76
3 512 223 454
3 454 223 84
3 512 335 223
3 223 335 84
3 442 460 3
3 3 460 358
3 442 555 460
3 460 555 358
3 75 406 432
3 432 406 321
3 75 162 406
3 406 162 321
