# vtk DataFile Version 3.0
A great-looking cell
ASCII
DATASET POLYDATA
POINTS 1092 double
379.20326186198486 271.3334948518988 61.52856297282019
379.56436387434695 272.2947631612096 60.078331461501705
378.5622832352989 273.2957587340682 59.46393734153299
381.9679319837623 273.7899684810597 60.56519416126401
378.1967111597057 274.9536442204349 58.3287140443349
377.965083648666 271.90380669291767 60.04061397695557
376.98221309959723 273.110893614111 58.75526284446615
381.70600218452574 275.4056127322605 60.08238125089878
380.28534356857944 273.93378403893524 59.59659699123162
376.13732069339284 274.4680836290018 57.551878725072505
378.5291864139763 277.46187835041457 57.887391141573815
378.68101415264954 269.88852047451707 63.2780772742613
375.9566124873769 271.5083038179281 59.71341023896266
384.12137183722484 273.0246020589368 63.651712448078925
383.2732253767286 272.84370811067964 61.50778485042473
380.1274209058739 276.1592579221006 58.97021793245103
376.28341853615234 276.6257424999235 57.12690266663114
377.1925127538619 270.80712438129234 61.556562475300744
384.6018567604805 272.5976910912344 65.53699506019437
373.98825331498284 275.18846655256954 56.68261694246069
383.21592050725206 274.7112376770875 60.954166206830955
374.7782065528813 273.0443855680095 58.17533004528942
381.50912797924065 277.36421810734157 59.834379286997205
380.0958892026047 277.98271673650316 58.87772391298272
376.54291522323575 279.5368537931971 57.37234625084722
382.20973514941244 268.68102069298783 68.1603411531975
377.48969870143395 268.94091346093927 64.40313364432765
375.88509980751166 268.8330188023016 64.55895375462754
376.5413953398631 269.5574443594538 63.02303101752974
374.97848873090504 269.0483328018499 63.115552538532775
374.90112693017153 270.2302311452239 61.494984348911316
385.44811575100766 273.1600086452627 66.89245807406165
373.5623364009075 271.4287917517825 59.515310542560464
372.02569446377447 273.74699657948537 58.426713131972065
384.1347079934904 274.1737363672706 62.18076111151447
384.7448074593337 274.9189998331375 63.45310893751504
384.1690656434503 275.7049981726116 61.94523156894932
373.7721462067727 278.2642119362367 56.79184440729381
382.93363320393985 276.5350679837621 60.92169016015223
382.73796883340685 278.73801315625224 61.20934515673258
375.0464248105122 282.22136124140707 57.73293787804516
380.8158411792508 279.3003027869486 59.79289281996583
379.1004991068611 279.58527884906084 58.48619205206981
378.0761432488137 282.02936149098286 58.53275574538228
376.6229672704175 284.46408097343664 58.7947270525192
380.17127148821135 268.06523203153523 67.52437005830193
375.2141489541495 267.8605460832812 66.0681060012548
379.05590958736025 268.8924257650326 65.56682522431355
373.27997387842055 269.30846534727414 62.69729713701451
372.733043244673 270.1679463262167 60.99964142237927
371.0679146831429 271.42458756760044 59.977133878327564
386.7412867870107 273.3348675013348 68.2903691977015
385.28043089194244 274.0540546622899 65.13189538267811
385.7650985605528 275.90588298302066 64.74984199018111
386.5897756695947 274.9527498920189 66.72918429965699
371.3695873500859 276.5741747567009 57.28727561012941
384.9622939654814 276.68967124120957 63.09962116597167
384.0004145968641 277.27194178025275 61.858814556342416
384.497518111654 278.5752282772882 62.82398151834751
380.09867915468544 281.0801166007859 59.28684040862287
372.66743923594106 283.5781950816906 58.68197521490662
380.17220356846417 283.180490421577 59.88797533695631
378.35608400942766 268.1517708411361 67.32663178678052
384.8032319127706 269.38038613070137 70.1530443435995
374.0773838554129 268.4545954066936 64.41372942062267
372.1005124290318 268.8628960078334 64.27128182150588
386.51174235149074 272.0373287011218 69.66767679172106
370.8889756783252 269.73891386155924 62.21948260912945
368.9686520163261 270.2949312143177 63.19401467337543
368.76632485100174 271.42697523798665 61.32161422651751
369.16918458778383 273.71931926014 59.41399874571327
367.3404723366978 278.1508741551976 59.666762001570284
386.74269737278684 277.110026371352 66.05351439889084
372.1635058821201 280.88372860770914 57.18029475459495
385.9236264042506 277.84177843687604 64.23815859367369
386.9929978809412 279.00584327201483 65.42183856546791
386.6903404869578 280.908009505283 65.463368152873
385.72482574102753 279.91272555553854 63.92954025220093
383.93135604419496 281.04469491104925 62.31942883475833
383.8969140562614 283.1126801466425 63.32111966401886
385.2592194412642 281.9753802417213 64.27524288700303
381.59518626333767 281.1253137462874 60.78037014409644
382.24971656594306 283.51931340988415 61.64013472423863
378.93096956129153 285.5134946009127 60.43367617061621
377.78071191177423 287.93800857069317 61.623785568071625
374.14319535947124 285.569581655341 59.707337898373694
378.88195451787914 267.71601719575676 69.45127249539532
376.5980773620815 267.3317683806835 68.00376484606795
374.5071644345207 267.1887196694854 67.59096905974314
372.97574360980553 267.54751201674173 68.5102203938532
372.96374640627977 267.7526802055054 66.1901508021797
371.27820268639823 268.38732467112186 67.51853731794141
371.2489901229293 268.751494257362 65.76934765207314
386.8031171190439 269.4257328842636 72.58410741246824
369.7280683758587 269.36002211104443 66.43230254060916
388.4240666338932 273.4417352890159 71.80845871661461
386.4977362539643 270.3072954009085 70.91381522147175
370.20922627582667 269.5509275173235 64.48274541731116
368.18376360187887 270.0339173930344 64.96447742377701
367.20222088071057 271.5274524498838 63.312850025725915
365.32285481987446 273.40420590430244 63.988401448099566
389.0188228124681 274.6872374214625 70.40864724910878
387.93456431551954 274.8010795701583 68.63926555486199
366.5653248970838 273.5713556374474 61.35854514829971
388.1909337663816 276.3603815864973 67.36625013523631
389.2751230654302 276.20861805387796 69.0841206392138
388.2067858583546 278.20245981995646 66.78683671639462
365.67432276532804 279.3294320520421 61.93606898058123
366.73487967585544 282.4813093808505 61.603379380925276
388.94725616771007 277.63161707238595 68.2033553202491
389.3499806009474 279.2312066198624 67.9283270856365
388.4330889997364 280.1280093668576 66.29434267746102
387.75103136593793 281.7487319910861 66.50587621738411
368.3085304226388 281.9818253889365 58.732488028907355
386.59374198878317 282.86537721472985 65.65332340091791
386.0794614096948 284.8026640837661 66.57045527948785
385.228116274296 284.1751635088707 64.45661933507512
369.971272268017 284.6175422214542 59.652085637661855
383.1865116655572 285.0238852579834 63.51798542287748
384.1655257535919 285.9890571474987 65.5433553567958
381.0929358526113 286.01008202157 62.07931402827198
382.1407833907971 287.1027984353022 64.4097101201489
379.829652967792 288.2662498304414 63.23244383847248
376.4465524434643 290.0810282826067 62.67560565567109
371.8043191881623 286.91063846583006 60.90549113821284
382.90082518283384 266.456678828855 73.89612800728274
380.7662840619713 267.2164590028885 71.28989374034452
378.62319040471453 267.24815753132077 71.96008114338271
378.35734261333755 266.54117602580993 74.00848959213266
376.738603110597 267.2399260658897 72.92426710353601
376.791132540041 267.23012602938087 70.588955784883
387.61228396398354 267.9818228487235 75.32385025666144
374.8214489910664 267.01324510532476 69.50840298112695
374.97537473837053 267.1678865864604 71.70101437221044
373.1640989430269 267.57261144120446 70.65087622903002
371.2489466529318 267.9424543892519 69.63929481609313
369.6318863242156 268.79185680946125 70.87711082401654
367.6145661809503 270.23075675079775 69.871612067653
387.3836794963953 269.6031312931402 74.15544838994317
369.42671274655874 268.9111240500404 68.56541854960724
367.81827457825875 270.1620423422802 67.23383562123065
389.2121036157921 273.136901204729 73.58932028643643
366.3350852698068 271.42360616163694 65.59661915994754
365.8872998396348 271.47624976544023 68.01941821313653
364.81318699137245 273.18237743547326 66.39658281247334
364.4584084497398 275.99493613790565 64.06670276701226
390.02975088751253 276.30420360358465 71.01009839350544
391.0021384312129 276.4784085001925 73.09198311823306
389.85786123358235 278.1488266462507 69.7665175368217
364.0828568728083 278.5776259323194 67.07857516548916
390.588159308803 277.8671833935744 71.6199206551903
390.90197054671006 279.7748236365713 71.15155830377128
389.93337609124194 280.0538421249158 69.35787037958843
365.3765498193086 281.2517829058968 64.29188675676996
388.9032621461923 281.38628687991 68.10668698205768
388.985680836583 283.531331210421 69.20946289511605
390.01603759452297 281.70643094857576 70.16088062048308
387.69220572930305 283.2984711970729 67.3845589834957
387.1194469539969 285.0616217697683 68.77101150448708
385.20794745494567 287.11084176038 67.91782926636297
382.9853780171373 287.5835808411899 66.52221421270762
367.0889566850131 285.02516398298167 63.57306670717351
382.6108994500491 288.85042392627946 68.5530024112529
380.82637922699917 288.93756448200776 66.16114258592941
376.115161810581 291.3759834782446 66.56684553432662
369.4505683324447 288.44304907793855 63.79879442875477
372.11883734173756 290.9250885662428 65.57367432374203
382.67236066888 265.37841217067364 75.41381285021846
383.9233574798546 264.66911470289364 76.21218130975298
381.06121084166494 265.0312554341126 75.99195776143615
378.28291495248857 265.5550113933201 75.50733796477542
376.5117749671498 265.9255069328021 74.92006698748266
374.99118886570403 267.06109723615475 73.7736118934842
374.80378099255915 266.4512685235134 75.3419677718022
373.3616976590178 266.6883925114883 74.5531206849149
373.3197146873546 267.45276258416794 72.74344744403324
371.73577215756217 267.5695254742224 73.84389911941796
371.492915469422 267.877847446784 71.80542680499312
370.14611485238845 268.819416309135 73.08721526430017
368.1861607668604 269.61868110064955 72.27883587520765
366.7129398906077 270.3137662188753 73.65060796344584
366.58532011250713 270.6231309320026 71.74719194672953
389.8608958268814 272.71363900558384 75.74557740195775
365.4536689250986 271.6461296366303 70.35915401508413
365.10561136111994 271.5798833817637 72.61061794440776
363.8843984098295 273.38907415745837 71.28495861247703
391.10419531830803 274.4284549592577 76.56881120902491
390.24962856334673 274.7001632992461 74.5097774054768
364.5302274846353 273.4974050060472 68.79245822270121
363.6334114513582 275.8369413527862 69.86170031384383
364.0329318340917 275.71544952470697 66.91719780763593
391.3548721493235 278.6101120088396 72.98784641295107
363.7851075619136 278.4628906237379 69.88621533433981
391.7035811573677 277.72517664820066 74.45677091252219
391.9953941734443 279.6091159519441 74.78489226601965
391.33137484713524 280.3098820921137 73.03195098794379
364.66419539449333 281.48089638293055 67.21603211296707
365.30446813418837 283.6291182187003 69.48896693556101
391.050288796667 281.8389123342932 72.0543328651064
391.03957845456193 283.6857111617532 73.23185663061662
391.7934730258887 281.74355216137036 74.0367733191422
389.91260991802886 283.5802352617931 71.30125954795068
365.5714245785641 285.42506759933224 67.21845214439315
388.6697674060883 285.3519031464221 70.57847956987986
389.53619248814573 285.31615611640694 72.6606731254911
386.9519426106656 287.0034615328512 70.3038958741412
388.29322102461117 286.7740460789121 71.99632622012605
386.6176936575448 288.1202159274693 72.77009850675837
369.4989947274235 289.7501370797622 66.45779672523804
384.7687945959612 288.440685343729 70.50826765881915
382.78738579424856 289.5946257551673 70.85357541778171
380.7764159038884 290.416987631527 69.89996910618342
378.62397808719544 292.1902744376938 70.23981829695701
373.42479315426806 292.35477199507363 67.85301541939471
379.37497355691863 264.94922851931983 76.65447050942971
378.92013364460246 263.462778251779 77.96215471178203
380.293754932138 262.67472558458803 79.1359616575721
377.3627199251298 264.9215038050149 77.16076642913691
375.63811440394227 264.3940682374703 78.44534026655072
375.27185514553946 265.4327920701352 76.6891535938685
373.7380037433062 265.0344308488103 78.1246616139515
373.5977774060747 266.196811471569 76.3432724333175
372.27948653558724 266.4050098204036 77.57913237369132
372.1051715933081 267.24157822488723 75.81206879863434
370.4284183757005 268.302053261834 75.19771924956055
370.93071656627075 267.90590703153015 77.2807577420903
368.9888979251913 268.91214585755415 76.68792400783154
390.26565531482873 272.45792965264843 79.29552083631215
390.24484442297995 273.2331341697201 77.65856937231304
368.54072980851356 269.23590543208877 74.45943631580687
366.8515229356048 269.7196782838885 75.88517236438948
364.9571357488035 271.09423600469654 74.9171643469197
363.7395154406854 272.7489494697792 76.40124599275772
391.43743696060415 274.32639349979775 78.92478054538049
363.8103995434262 273.2116182733812 73.85258729837645
363.1035785903857 275.3121714095386 75.39130552774827
363.3117540386973 275.7035735589687 72.63852510371305
391.6995188432571 276.09946710624797 75.29593179455718
392.1879918518052 276.1455420707399 77.52296236194982
392.29629038270895 277.8863519086531 76.17533086328216
363.6636829408022 278.3717045640485 72.74777526774493
393.00834239347444 279.54493785567746 76.63535372290713
364.2089383929531 280.97619100919746 69.97083589678077
392.91223529559 281.4402367062163 75.96608664404516
392.9656957522773 283.28421339237275 77.66595611263334
391.912014241305 283.55290373464226 75.37746418119332
390.8686788662462 285.63829027595347 74.55750680048573
391.3430624834801 285.33132745406596 76.99961758655148
388.7428899051305 287.1252009260247 74.11925512682605
368.4496453644785 289.72145831492884 69.09327403825444
389.8992178547715 286.81775730761916 76.09604523359987
388.1985731377984 288.45082993307267 76.37456498145336
385.83459369360963 289.38658566205345 75.15752991603516
384.23067422440994 289.6571846188998 72.78429644003924
383.1582194328858 290.56609954935345 75.28160742381255
381.67321183625637 290.86873110906686 72.43069131876445
378.35756521882547 293.43305110201277 74.01108496507682
376.84374177554673 294.0357208242814 71.62526706909452
369.8273337154965 292.39742326907435 69.74305799483224
369.29131088165855 292.95651149940187 72.64701560336854
374.20168841240815 294.97733575697094 72.5576277059417
383.66986009764486 262.779631014845 80.27308856092085
376.5212421245134 260.7842750655227 79.21495344294937
378.59687742293033 261.7645480269674 79.18491625877091
378.7284203107546 259.4741558748186 80.21720434825752
385.6832939698814 263.5026742940795 79.9299139382895
387.26684582139995 264.1848788224328 79.8876788521844
377.1335387437499 263.1311897705325 78.83412095197296
375.3177752166144 262.73159185629066 79.55907449534581
389.10196819699456 266.82969606771775 78.35896618029555
374.5998715573482 264.2617800187724 79.59943642929152
373.25101658728823 264.77989395635325 80.05898388137744
390.5947727906311 266.4580539316224 82.94888496321347
371.1136474626492 266.7187837032245 79.02272683930897
390.28212079596614 269.5873123467949 82.52342662839482
369.62834512536114 267.7005194757158 82.74428906184626
369.44580052928063 268.13961745214925 78.87950264537892
368.0265974011378 268.7328714500969 81.06827388126763
367.35329948676036 269.4079958092934 78.32751946964426
391.3018670303043 273.3658488011705 80.86183237589655
365.1775094606465 270.67425093228286 77.4174216961242
365.561047128295 270.2276981775819 80.02338554768141
392.34749033256935 274.8940103408332 82.4306094053359
392.786197912767 276.1709763723378 80.03979161938246
363.92292031917935 272.33570259564726 79.0292167194073
363.2550261390021 274.71126151052744 77.87680567682165
394.11933224656264 276.5664308150038 82.11580356986755
393.5450151635903 278.1491581046032 78.19097651804275
363.4476561135163 277.96354855510236 75.91215800917239
363.0359478185962 277.1220138221093 78.71953985194153
363.9842272254069 280.7943211068736 76.93292831471757
394.5820224373816 278.0127801834349 80.29759618378344
395.84443407752053 280.32071999558167 80.32739926245206
394.14463977675985 280.71491240959057 78.12864368398758
364.056063113656 282.29287263837153 74.5871184239751
364.3093902799298 283.8329494655942 76.51801963973367
394.0964689954388 282.7709675782544 80.11059667258353
364.5354145363465 283.90033874904515 72.57946022966533
366.75305345037907 290.24273624373495 73.66533111779817
392.2001225154297 285.26474982884855 79.825707004721
390.26488427775934 287.4875437868852 78.45681309398401
389.31295370824625 288.7532918956423 80.87603109445932
388.2205426277367 288.9642713124203 78.76699247568278
386.3479776277465 290.139258127159 77.75933707092265
383.84029043296397 291.1899654864597 78.22029839971303
387.0214766048223 290.0782669033723 80.35712193990922
380.53322296340554 291.7895086791226 74.6941254522852
376.79204066475984 294.3207097456147 76.43439134879297
369.82524712855263 294.4563207551457 75.050779958071
386.87714848413674 263.3169992731236 86.54095882082113
378.6450473302562 256.5992689912653 81.46809230338621
378.438652459197 253.58675726493058 81.80106642445577
381.2335851874729 259.3780461739624 83.00118031128947
375.91431145050353 258.2063492048253 80.57729088630133
373.7124431334871 256.8899411192257 82.1426649501746
374.24335561838296 260.71261151511715 80.78014760045333
389.5216886019425 264.9484952866935 84.405083117187
374.0594440205735 263.25989493483314 80.9632865599422
373.0515057959364 262.1929630408455 83.14294114403832
371.3173718322358 266.16065289417753 82.92783904032096
390.7256433232925 268.7498211124949 85.69416170830688
390.9184782821621 271.93274345992705 84.50995856145079
367.9738346431488 268.4982835764309 83.87307048021188
365.77334714819415 269.6735963562578 82.71282835992193
366.03600520194817 269.3097704432721 85.40504667401792
364.4036700536117 271.34402152264647 84.39630453551811
393.14266099314335 275.2628174107165 84.96127715996889
364.2128902311447 271.890443564387 81.70681877130662
363.43302132813716 273.75342486940747 83.37244791260139
363.2596810397922 274.6320572705369 80.74251223214644
394.9752476756924 276.8502778447576 84.34557620455399
395.83896632844545 278.2675991032356 82.32549286258617
363.4056061573444 277.4322578700504 81.80224410486088
396.885092665265 278.88344911713267 84.85299007243006
396.63038204886857 280.35667516363696 82.75616483051888
363.85023697579874 279.69720113202163 79.81908302417108
364.2125152100329 281.4432651480542 82.18725008625111
395.70349626636147 282.5058977529368 82.283610786131
396.54794993640314 281.7351375453032 84.61677863377673
393.4382500557483 284.29509817618435 82.54974341003386
364.1725596871348 282.88359019729415 79.33147230053024
364.45458744320484 285.7119544758098 79.91388523188877
394.7304981512118 283.1634556002146 84.30669161485346
392.9630151409152 284.5317155549418 85.29192438487992
364.42082471436197 286.6475681781328 77.2557782518578
391.7794290071037 286.111699114201 82.3405256219106
391.23574059074446 286.9061208999807 84.71784501953857
388.9399590443923 288.7792776473969 83.54139350030245
366.54764123945455 291.3284502903195 77.5113687701931
386.5650293029311 290.21472938514245 82.89831642894502
385.1869875861763 291.07655347913203 84.77964188505246
384.6912103268666 291.3721300325039 81.02047578430934
382.1163852249473 292.36213424512863 81.3749704747599
379.0504037810393 293.61695092286965 79.63519148337295
373.704424745101 295.99026870796007 78.24321821533903
370.0806509808975 295.20590974456036 80.09175827739148
383.4741900955412 262.20595752184715 86.40494874115166
387.7893797996442 263.84848096099336 88.0611244028358
380.76156821564587 254.34285416569062 86.98346026169291
380.7032445669376 256.7604505549072 83.66502063536478
381.2781263329473 256.96547711514955 86.5633778474789
382.3606110620674 259.21568396691606 87.44459576152727
382.6907091767604 261.22375700081574 87.42015011930289
375.71171418899996 247.40247895319382 95.37519423294108
372.60079826408776 255.20381600568078 85.52353334842988
371.10141306886356 258.79447770107436 89.15188960147634
390.1825222789427 265.9477105596663 88.80828544396614
372.6945099054226 264.55323315939006 84.20564450646881
372.2817748197027 265.3476160822348 88.1290844718588
371.75315758332044 265.96902255954376 84.97202461148811
390.71962590618807 269.0919215015473 89.94778789904433
390.6215956441462 269.4689651105975 87.83628248477753
370.03177582640285 267.56710517382004 87.04699783632309
368.9540529799206 268.14988983960944 88.872494296451
390.79354416951156 271.0626801443353 89.43399920372504
391.31033868894 272.976272877279 86.38579035751889
366.358523323739 268.81427932215706 88.0622964923612
392.5461697374865 274.8513352798658 87.33939716883994
364.6860908783055 270.87881710010856 87.13692062441865
363.7494286901938 272.7880051127011 89.0051953485916
363.53306193146244 273.34121309998164 86.07946949425481
394.6091070878127 276.4983796054188 86.90485986846714
363.2948703987653 276.1938196137068 84.67396570902494
363.5254136414918 275.5673372692513 87.85402921887471
363.9156783497101 278.28560428752604 86.85775763606222
393.9073925233765 275.96956228958675 89.54518917517045
395.859705707119 277.75088662849555 90.21163146964119
396.5400957503829 278.1484360867436 87.65143948522739
364.06573021248056 279.3022509480774 84.00377921677685
364.35010451345744 281.177929773726 86.38520034237851
397.3009101497333 280.88481522478054 87.0646686279795
395.2351629943925 283.0423480668565 86.80286889607707
397.0369896380618 280.21702530551966 89.82848049268449
394.40793523616543 283.15843413595405 89.8330376754849
391.58760923236406 285.80425448202845 87.32074317020928
363.99990051313546 286.16438760921596 82.69536906247265
390.1541700606998 287.41060136355543 88.58634609659408
389.4209033798998 288.2141872365634 86.21833018249822
365.1953616288915 288.171648708566 80.97822632772714
387.31304844695296 289.94660658575697 85.69849363303142
384.47605753548464 291.1603697601082 86.88983192036382
383.2100325461059 292.1231019406111 85.41941402485793
379.1677956131454 293.1037380888934 87.08115836113677
381.55907072780803 292.70546355124316 83.8097953810549
377.37821227602427 295.02231232368143 83.91158485056566
377.8273296231962 294.55561947642724 81.619761438078
372.6892899960865 296.1588728981165 81.06330325017889
369.6196089247984 294.689958462265 82.62324813939907
381.8223998609474 258.66154485318964 89.91734941825392
381.29143759489074 256.13690760845776 89.105988705387
381.4552257328092 256.718147782961 91.7771147055082
381.0596588575815 254.43326136764256 93.52402588988872
372.8407569699275 262.709763415952 92.07129584164703
371.89274586515336 261.44014309326883 88.3313045987133
372.80366562034794 263.74243239491216 89.71240952847536
387.74121144986543 266.03657264347163 92.21048960136592
370.63229703221475 267.50819265061955 90.50111358280579
368.99472771600244 268.3031144201887 91.11542830244115
367.1381159284775 269.008293335367 90.57840019073144
365.6235923809318 269.8076168492034 92.42333501111744
364.9204013927439 270.27188976852653 89.91179309624289
364.23583080089145 272.1539592120949 92.12773526416309
392.0589304764796 274.5886947322818 90.62809955653361
363.54429562068816 275.0784977878843 90.86279806896117
364.0419000025245 277.5281976608848 92.50386808132015
393.1861778210277 276.2763814642356 92.31215343337067
363.88722367383826 277.7082720884053 89.62070198667877
364.8272103786602 281.95057548357727 89.25318305140097
395.0206676079064 278.38140518081417 92.55586176824536
395.37416067646006 281.2959265821659 91.98465814187799
393.93582954146774 280.26329790460255 94.07343545438496
393.30817734936136 282.65434533061284 93.74717996430063
392.5482394302426 284.54138044929374 91.83270166376114
363.8882729538051 286.5100522161283 85.6668428046946
387.02623900992415 289.11240413543067 92.51833378599277
391.171561700129 286.35034524880746 90.49083302613185
384.0879711427668 290.786904535633 91.86363197428608
388.4714625870316 288.6263516563267 90.48698343787832
384.0089911325607 291.2425426601879 89.26420291633679
366.7640416117745 290.82978109016574 84.82564553927153
382.7867491778353 292.23328423806794 87.59131723867515
381.8423322018473 291.9540521708791 90.88629906387345
375.74555595799256 295.8701464902689 89.97183667220594
376.05415967598725 296.0637052082475 87.07743849213881
371.267504313336 296.0857135890256 83.86177829138086
386.45955949100016 264.1116395511266 91.73838665667922
382.009820934373 259.1991374050722 92.80519955545624
380.65094395576637 258.3828563114323 96.3872360355338
376.1322325526646 259.6483527982625 98.92716237688657
379.79003329571094 260.92720152793004 97.5880895922447
373.85481651860215 262.7915021957058 95.63745484490492
373.34310858059536 266.4197767974024 93.93155697739968
387.0468447829553 266.96208173884355 94.04068061799677
371.9928882524872 266.9086107245428 92.03681230748944
372.2716909686168 268.03788341861673 95.45604084065685
370.20453587589543 267.97507952386087 92.55464014931934
368.0064928740228 268.83756405309214 93.09593609277137
366.21450536592823 269.86675801294024 95.0042892569772
390.49167984938776 271.6829701540106 92.9760328208997
364.1466139280482 274.79115100429385 93.84474851909653
364.88927050257183 274.5596555367477 96.99025196417738
391.2969415332011 274.09239481632545 93.15571575572062
392.16771619999975 275.9872408578305 94.6126585023226
393.1494162383947 278.02257443817314 94.46224117173622
364.561317469993 277.3335338025941 95.42504587239077
392.8841224879548 279.9046595608269 96.25317757323921
365.1319619474403 282.3436856716303 92.00190274858846
391.1278751045907 283.7318883684487 97.6000909971215
364.89766541656434 286.4285592303257 91.13631617247974
368.0536364946104 291.4282994835794 92.80930659992796
388.767721794272 283.8122856705088 98.76111426392701
391.40559261077294 285.7906890883329 93.69954419508866
366.8357973801811 290.07786908242673 88.73566540401477
383.1030129651053 290.74189647598 94.08792509975272
386.77334817080714 288.96575042506333 95.05222174739576
380.888197724685 291.54207345318275 93.42792462237982
378.6952221387362 292.7673019944662 92.83535697045362
371.85037411315625 295.4736934861594 92.48329609381419
379.4164403983654 292.9141463850234 90.34016516741858
372.89421009993373 296.50624678609216 90.01238131360834
383.9505881588181 263.8121451264319 92.4472818157099
385.7510224355119 265.4650896379719 93.36478810241674
374.6591560571528 265.05982216576086 95.46791066973896
373.9497594470013 266.9862704198918 96.13914406199343
370.07035612242015 268.88145351845674 94.81186174248182
368.5495032466184 272.40363871924507 98.89620509362604
390.76471227862567 274.6606662634192 95.86124817117637
367.1014023031449 278.332074935757 98.93216067853089
391.56097170866155 277.3954616919104 96.8950863509072
391.2258535782655 281.1140665871434 97.77658371684338
365.78183397097854 279.5668686026255 96.87981227386527
387.950476631108 278.236540186542 98.94934317927637
388.9022372396066 281.0222147159861 98.97745013877461
383.4768418126426 284.96841657115857 99.09352600023485
380.9090754118613 289.34217678299586 98.09266714200685
379.96127062952485 290.92673399503076 95.96307919013735
382.18590089181885 263.31148799526875 94.39234714884559
383.75380421362837 265.3193447825633 94.83743768964102
380.84127761822714 262.9900140559827 96.15433955371125
378.82282083988247 263.42964999280804 97.26472587168973
375.68933807635676 266.16203412018507 97.13563537197408
374.7024395287583 267.9237259450118 97.81971087415927
373.3007434570151 268.5579553598019 96.82744525760951
371.5365561914441 269.9603969560775 97.12829774690769
368.515725736513 269.9325062741215 96.9888844025246
388.795506979765 273.1936603628717 96.6729930433935
365.90095237437896 285.71721663945766 95.29208138098113
372.84649412449176 289.0343298798593 98.88286390468161
377.50397430316144 290.7923265411623 97.40610842743556
376.2507690850789 294.4548772022455 93.46682745513614
365.3054881033346 283.5448707391047 67.34700055569387
374.0619369016261 260.0567299793378 98.4949837688673
372.1912955624253 258.74701846907783 96.8358203081914
373.06031623918085 262.76846982725993 93.90514204258662
366.26049381410644 273.46215708392845 99.00619588392465
372.96104745789836 294.3058936677813 95.97787193808627
371.2249599926471 296.2260402998198 87.82427824703531
371.31579432557413 290.87860224044175 98.56964534622988
396.2419782657107 282.1064761921588 90.3650347265051
376.8299338628316 295.6838672599525 85.44685010011153
365.9922344412394 285.6352273015554 65.29204040107183
374.2889920675699 296.93040967431324 88.3518867387431
370.41239291768204 295.3730501201855 90.2672856865279
371.4415215027004 259.5004579790746 87.4245365451883
369.4318217759722 279.21549708989613 57.56609557078096
381.53986906968265 257.1557313487329 94.33732948885401
364.64734615103055 279.97833792558146 65.75238433032004
363.75942664618543 279.9527214095088 68.49029715380964
374.1981899017823 247.13288896275407 90.54842392774555
375.34152978820924 252.4395621440577 84.0103331571605
365.58189811150817 281.26858870707673 95.88518562718257
369.9331484698701 270.8804246272594 98.2318944948255
376.66191355994624 247.31963139806072 86.53103953514548
374.35493648225173 247.9302181605106 94.17748194641725
374.60782004709125 284.03203415286356 58.59287368203805
363.54529453228315 278.8993200966558 77.84618509982846
377.19310069305516 246.64322727271542 94.39348124736338
375.77186975515207 247.92814669109111 96.93902881048325
372.8047078343422 295.78796485632597 76.55397883077364
378.3893068257061 247.04954632306465 90.07755858125121
377.066653298114 251.05994446414692 98.6429028828709
378.94045940743746 247.98875076956693 91.52854390306221
376.4538400956202 286.3319214388789 60.37451957547144
370.17896226620553 273.52177592836233 98.89656126369732
378.75230622791946 247.9826820683417 93.71598761086842
366.1307518991292 271.72343058624483 97.33189639065327
372.80627820048517 250.3469323026952 89.03447678428158
371.7699973203204 256.45846983832377 94.36025896814861
368.2853508222857 284.3569404812481 61.47933774676918
371.50854857742286 257.06423910581094 88.7262795854242
368.16945129215804 290.94610567911934 71.60188416866806
372.1587401982348 285.1110597327907 59.824490334142105
367.6950656113997 288.8064841691145 67.32636884143902
374.74835642281363 287.93462428228213 61.64318514824469
371.85724185070353 295.92405050132004 79.1763471059727
374.50385232879387 290.71940900186246 64.32240804975842
371.7557430759357 257.230488633754 95.98382850528365
382.5995592334301 289.0874128825068 97.80846936331885
376.03205030867707 249.48257872503825 98.06917430806645
377.35027648236905 291.6555068907177 68.47631902262165
367.71497856815495 286.9972382092459 65.86952566241261
384.52470090089287 289.5467061601534 95.53238635662994
371.9121993055806 255.51521048838 92.9709923708741
372.60735537906913 253.78225579371278 86.90299876875372
364.9247944423858 285.8526659254601 72.92820598791958
372.1701013687301 289.3929250451324 62.90862286942116
372.89354610523355 253.311153050794 95.46408385934483
372.65871217081843 260.52210896654015 97.03962330212384
379.6848938344078 254.13989367131455 97.47113251065471
375.98237906561053 292.99564356802006 69.0359617293941
371.15714187729776 258.5638620976707 91.0651167899401
373.26846551259445 297.1418466190502 86.13799388239894
374.7144645012495 255.20507552250345 98.07691337735567
373.3137072440348 249.84532148695556 93.55897985501973
367.6373031323848 292.64650354974134 79.77388461020875
378.13150019830636 260.2801481739918 98.72793880496286
369.7629142723186 294.90168543398505 84.20396576066572
381.602607391407 290.8402509463421 94.95962184444267
376.05742818072315 255.35966446581216 81.64299997120845
387.40415965528587 288.3505829814435 74.57314661190776
376.44672246781715 256.87644045282445 98.91977051756551
369.6356107016627 290.91972587413966 68.21246288426916
371.2235406953276 295.3461582652115 77.42223903217595
376.8587414063941 267.7754971369609 98.12790614343803
379.545108156859 250.19220374182825 95.35367742978451
377.3538633294482 246.4565009373844 92.01855731798658
377.42052400918743 248.84690740916605 85.7507347280855
378.8127090396303 267.7708506384474 98.29326680226218
371.6527231763833 294.3817848594615 72.98561000371758
379.6105261299401 255.1550753463212 82.69750167523307
373.51072183753143 252.4812082000686 85.57134719119249
380.44922493283616 266.948443769296 97.59854380438314
372.2550886869308 253.95156579710235 90.7963226382373
373.2291528210716 251.53212081243933 96.15593872804583
378.4824479306996 252.6516320068395 98.4404260470869
382.4738825585137 268.15627409914464 97.73380560470319
380.3081900142321 251.60706399987092 88.1641602582409
372.54832366157177 255.0244330619105 95.16630227825719
379.11545240804367 251.12813670331116 85.16531920896493
370.94047451963274 291.662230685295 67.6622732829391
377.2392662635273 251.5835966960839 83.36410501244166
367.5591078607334 279.94595469020743 58.58332024805503
392.60740358018234 282.2443058331023 96.13587705673133
386.56410711575967 267.7434625640057 95.66670707442387
374.89907771632005 293.51853084987795 96.09540633651774
390.1793916957381 282.4522853478256 98.61959089316342
389.97296335292253 287.46001722863826 90.44230291847359
372.4302329127145 257.4718406340079 84.33005698168131
371.86426931782313 260.08744532312596 85.41825237102172
384.7750410830751 283.6326654188075 98.99476608953488
386.1637637060389 290.05567925867996 90.52024685467829
371.56234198345055 256.74647894413005 90.60466572014333
374.4002706205638 295.7160751277687 92.10155528910319
391.3132653152719 286.13945213177226 88.93874518669972
382.91150950740933 287.56314761573884 98.96598887331676
391.95592627788363 284.16488176520073 95.21239183316989
366.8844410051442 280.2907437438572 98.30052803395479
392.2913538279615 274.84106017037345 89.05939903141957
366.5543304978553 289.43228557164343 93.00815184789629
382.52213214619235 291.37198540382127 92.59248109012009
364.4302822608239 284.76034077109904 78.25518594510497
364.6473393299882 279.8788847638399 91.00250872403024
367.3331875489296 284.9340000991829 97.2057307179689
367.93301781588923 292.13960994122493 87.08998836700742
374.06395040342903 254.32490412312637 83.33243989587633
385.6492800421071 287.7424243216819 98.64376929417183
370.14607756694534 282.5049610675645 99.04218806317249
373.0188016072779 286.1000736397539 98.97835982173255
364.9205679833117 280.1452308719237 94.09340245487557
365.5007025246817 288.9341246644819 86.78775627465873
376.22957347820295 294.7291417098419 73.99804292460615
367.4311681382716 292.1671310263308 82.22955823062743
365.6244622644861 288.7741228633837 78.50986899144829
380.461003190946 268.8818907230711 98.7250952495506
365.06155132933526 288.56267905825786 83.88770485961886
364.1806425015613 283.94405908283727 81.69009951232859
390.43355445666464 285.9545607938344 96.2878063809363
382.4517699072144 270.20579610276127 98.83697246857271
365.64889402429685 282.92192469072245 94.80067648196068
365.21900818873394 284.83512753968427 92.76383328915018
364.3562521969356 279.7900498729999 88.61888374125945
384.50142949391113 269.5161277859535 97.84009500851805
368.50984199375006 293.5404969968397 82.63177631986298
364.2263835922596 284.07839558467884 87.45520677661297
367.7053050007959 290.19374800219725 95.42418781452069
386.0798854605399 268.9297900055042 96.89085137612429
365.62382833309937 288.57447317411703 90.67109191692684
364.3597851871891 284.40710778858414 90.30267131074831
364.29109316965076 286.96575866908415 88.75780591366208
391.97025411219505 274.6785648448996 80.5646294352338
380.1430439206327 249.86238082867132 92.22705283985813
370.27772395739447 274.9477812274529 58.08987272494444
387.73525482584415 273.3374992739514 69.99440356542966
387.7738494096457 269.2335733003942 96.20270654489742
373.74135700209723 248.71557212313567 89.81462369633891
368.7332335505603 293.8509414564386 86.43151255624068
391.0277441507374 271.4940574365977 87.70134432469735
387.87488553551066 268.1998289235289 94.78121081143102
382.4231774945367 290.03309221448666 96.3254795424194
365.4944596909254 283.7008997850223 65.45088741973905
382.1661081785944 260.6153658974861 90.97725112080668
381.60178650784223 258.8603330499109 94.71245649564409
367.273576493548 287.820576182486 97.14933589115047
385.1239104606334 262.6652751644455 86.66772623581463
396.4305117848431 279.30189409492493 91.52136328203403
370.8672296456981 289.5284494457193 64.73626139008428
371.0169752325835 287.0440708559259 98.98892633118966
372.71470440657225 252.8888393168136 93.57979191586234
382.9460099424577 262.43620583459676 90.49865971692732
376.4930844904811 271.08536431464665 98.90939664285007
390.0706705206479 277.5001540375822 98.58519034776184
366.7947021845565 290.4655369548052 86.85268444944386
391.26420666549467 272.6883832023404 82.75863462633232
389.8861794223115 274.6418301699523 72.32109935617736
372.43117032674303 293.9463829776746 70.15952556457775
390.25031916170985 269.0420559869744 80.68107390150254
378.44392266769734 293.04821608760074 72.04911107530688
380.2538551851337 271.21643645221275 99.03518035381856
375.65876569377855 245.84379073804106 87.33208468686196
376.2849917610544 292.2545446754097 96.88958039159397
376.723668481088 254.49486323404082 98.93481071459352
389.4636424389556 271.68568868326497 77.60510206147953
375.29185063447426 248.02889699516544 86.19503726563077
376.6829325485074 246.00828327533654 89.58017874240052
378.5328799506835 294.0320303791318 83.05223514941781
384.40150222262577 271.5928402788886 98.83342037710594
370.8983052787867 295.5663444094723 81.90713424908805
375.2857591577098 246.2207801707564 93.44991252698428
395.1954636476467 277.1229540489851 88.57425676028421
385.48233100989574 290.70336961544587 79.33655379897091
366.5460199000198 283.9209738586138 96.08740617446249
364.43301608856586 283.89113239625226 74.5908149725284
372.1819699796708 292.91336069415524 97.4223435157573
386.6704935717329 271.29455603778547 97.37883661445724
380.6257244707168 292.99314754436847 80.5376869924308
378.2886006595665 250.27217291385077 97.6052590875253
368.2265372311852 268.23089589501666 86.3641689035845
388.9320838351843 270.98393670913566 95.93265041403329
367.62581338739074 275.6441471065301 60.155542527983854
380.1596852766687 292.14944159817503 91.83073241561812
384.0647763301545 267.9200558932075 71.04443994721385
387.98805060863594 289.50065885500885 81.91993267222595
389.9291349665195 285.1729472609447 98.02367176047206
369.2307282957775 294.2612188213413 88.27085541942527
365.98974281676885 283.18083157943585 63.649823645418564
373.5576649488225 249.79474616197712 87.1714949664453
382.51909179267165 271.6682659823942 63.08455527304494
377.89255017620815 247.36971232195856 87.86094288525251
370.7209831900363 284.83444382960494 98.93319111717443
364.72133726139066 270.7058360367353 93.71306470935865
380.42725604872504 291.73732868467465 71.11760889918392
372.9999834423326 255.89988249762754 83.7277224485233
374.0421717951459 291.4502581948207 66.02782809605498
390.23033274933016 279.10252296665783 98.12266549986752
385.0730848963209 291.21415466522245 82.97893645446919
375.8332377325972 272.85795537297753 99.09788278503073
368.5416691634213 293.90975545979853 77.75448898176565
365.6936547970495 287.20503556493026 92.97248232832538
368.147326954308 283.5077864139176 60.235277165145064
367.08144159132434 282.1600699342232 97.21679059636742
369.27016183199663 293.985334337977 90.2467801773045
377.77785126687047 292.76345312586596 95.49814376455616
382.45391479549176 260.83718204606527 89.07001306625861
380.16254404222224 273.8788974086274 99.15781496016325
377.98501037712094 294.14861070541343 78.02162924438773
387.3182442718775 289.6083187188396 89.27483755522083
371.5233037277244 278.7393739089016 56.29230074618204
382.3394421409509 274.313452213525 98.96215124882669
390.6492707738388 287.13055513900724 86.71750712759419
378.1093351050397 289.90491256411127 64.83540243835981
366.75702222732417 290.67521034592096 75.53069532843104
383.9790629527644 273.62487673744556 98.77136912758311
386.51848930745837 264.57818812122565 78.33054980073175
364.27681770115635 283.53012075554597 84.32742889438651
381.12332905565717 254.69683403595877 90.96730200874089
385.60769444426376 273.0223020968555 98.45838782290541
391.36233584218104 286.07852887940504 92.06209265127167
379.4157851425059 249.24167910110575 87.04011677073133
372.78846710995595 252.3698396121903 88.38728121878223
365.43155145398214 285.7718479365141 69.05144388847967
387.52792081384376 266.2901298338624 77.00679734373331
385.12526698665727 262.7614363412806 81.85112814601155
371.33942575746323 293.9424835052343 94.86234216005029
394.49789161662477 277.0851928527823 91.15708133449304
384.27883138765793 266.02353600119886 75.12367706967028
386.0843219370857 266.6992652969695 75.06358071894199
389.0891556523962 267.9780256607923 76.81524003423976
388.1727764362266 264.0694011286326 82.83517719090987
388.8532339290492 287.947559101534 95.9832531647661
377.4182098460921 294.27631549570106 91.15683095669391
379.77864490803125 293.2301560800833 82.08871128519996
374.1637524958612 293.7881103841928 69.0333701374567
372.6547799917703 250.9831658429684 90.9780009390001
385.56222631016834 265.1293640588753 76.47318870306374
385.71023094994575 290.13126763917995 92.14580438518712
379.7679725778755 265.9212251983155 75.06314259402252
388.6103370834379 264.73178897795134 89.36775760143166
372.0680803629517 295.39344877381563 75.18703273013257
390.4743179925307 287.5722212124436 82.45118757774976
371.72685129611835 274.6421838841775 99.05120088663517
376.4159302493327 295.08330704661597 79.14394915756567
374.1239284443288 284.7792834841459 98.8847367607171
381.1175297785015 292.6154405143014 86.16285638878864
374.74824635935545 275.34856017413074 98.8996100939967
386.19612487015803 290.27260504793196 88.00754009712932
366.31818867081955 288.18285967752956 94.87618230807304
391.55838384912636 279.35994966151515 97.36880580025607
378.99334851194516 252.2912765374262 83.42646078190609
379.90224979504814 253.89740929246224 84.3769701791675
377.8273154368841 247.9307968624919 96.42876415393489
386.52885120471814 262.97700830519756 83.25909071009113
379.143244204048 276.4172784642853 99.0133245569505
368.1384835123338 289.85117143722124 97.49454880823451
364.6049294720141 287.4523222113931 79.17863107451957
376.2898912820843 280.01078246945445 99.10219630328163
381.5677233254053 276.0474553909267 99.07493778225314
379.8596758647009 256.9936448198599 97.56597977554605
372.89244597381935 264.58980863819266 82.04228431904684
384.00282943601144 288.93572885003096 97.44116070472157
383.68589563328675 275.577417740197 98.95760099593736
371.65652509659174 267.7698675207025 93.70545155336178
370.0332544621684 267.1918765369778 84.93685693336417
365.0311598390483 277.5982080238029 62.99828592159064
385.52685578287924 274.8271930962844 98.62768964154829
390.1132590808088 268.38454089944446 78.67450498130204
374.6331501684252 295.9428746908574 80.07515202697394
372.1605236030336 255.24961829278786 88.26797536722015
387.31088216622834 273.85130362238766 98.30724709632395
379.25495769207754 293.47836556693244 84.59396225059818
371.36809214738224 266.38706629961086 86.63445059894123
372.73485205634745 264.95499500637504 86.22461863071264
372.1477544780924 266.17356089663485 80.73171904650808
370.20721025664506 267.15508383726376 80.88475831156191
381.8589011679915 285.8529462263343 98.94058884900076
372.3763560563122 262.83020035913995 85.8112578060593
382.8031481450883 266.8480378485049 71.95205612265993
375.0025002921532 245.6771342888969 91.08702675036615
392.540882347563 284.43179300515953 93.67936318729328
392.360775727263 285.4659217444803 83.72441565601203
363.85179268433177 280.1049628402023 74.51413295515138
381.6426414750289 257.7607861099998 88.25841713173713
383.11147386163304 269.85738533115295 66.3911755527832
382.56705063637884 260.80197398599176 85.85007807383508
369.17455602528713 275.15032457611494 99.06699058766687
390.04099506696014 287.24908310002746 94.4154438374778
382.1945172759558 263.0539561762195 78.69259010174282
379.84831248868727 261.31964532543253 80.23517691953006
372.4778330348778 277.41240612517225 98.96353145281172
381.93928155971236 260.94190463047397 84.02694233458381
388.16811592832335 289.0420896745267 88.04712235696412
383.86557653040285 262.4132852409737 88.33147062860894
375.21496875894326 278.37746976043803 98.97880382195632
386.66850418974076 267.9773663891018 73.47632079236128
369.38998139843477 286.242903568868 62.2650318923751
380.25414688241153 258.3685508781556 81.68706152350508
366.5092027033878 290.48078651979995 80.236717074812
375.19107921208933 252.26972930317356 98.50873993851691
380.74969274648214 264.1254512995227 77.74333124286248
364.93716271296773 287.2475410512547 75.3094681482024
378.00256418124667 278.97114218368637 99.11891445531639
377.7723600269992 294.60945683409705 86.12746192235075
363.22911520302546 277.1261812383515 71.25685259394895
381.50661830053343 262.03414600015566 80.73797584013975
380.80683098543744 278.3594119481178 99.07060828667807
384.5940693789052 271.3564584926865 67.03136001336607
376.23589029359704 263.8148103578488 96.92810407102492
371.2740014611371 258.1815901430597 93.27154452213463
383.1996262774363 277.7382367269209 98.96920454159942
365.362298772716 286.22174645007965 71.01580375672853
379.1260817755449 282.88043646406004 98.94757631149807
381.3657442035009 292.35466920258193 79.0811725374289
385.44233132472385 276.97839734243655 98.87558385834315
374.1860720985337 246.42208544023143 89.20965021013467
365.79747958629423 276.4191496552066 61.670179803528676
374.0369778700564 258.744576707989 81.35922755221256
387.1496616291327 275.8640385894387 98.82564707736657
383.50196739294387 271.4543855603414 65.03131666713593
380.8948027388573 267.9152653723139 69.31967545509475
364.32654423264904 278.65480150177905 64.39611376601253
389.2982726854681 275.6489599312969 98.05862796892654
372.76933341614915 259.3415758380342 82.61867742328907
375.65224372462353 296.53775125823614 84.63805965982311
377.85843612567106 294.265583808874 88.63327876008887
368.40301066903953 292.2116175183042 90.06346320071574
380.81984035889906 292.43539320567663 88.52538298230859
380.3181245975897 250.67375838209202 90.26861520100667
367.09745760748484 290.33781091265996 91.05757531295144
388.51367156321453 271.3102671902581 74.43183419605552
388.5670960165181 269.60680287330973 75.6962687374692
386.0169652444813 285.0847777722574 98.92285201756465
384.7729730730405 290.2546792372392 76.6247084924338
369.7221163350093 277.80654959492267 99.06915444939663
365.45939025960564 288.71901811499936 88.74793174736428
374.80164660096557 294.3840300284145 70.31209215241721
392.44387294032686 285.0973597653125 89.35642241586778
371.69497665951843 280.2504526727746 98.99373610157133
368.52513308909704 293.44448567943556 84.48845887169963
364.4336241967709 274.5047530996577 65.29466131439575
385.8028703706624 290.6320075286304 86.34475633092602
374.59824118199117 280.93024730137796 99.00115280973353
373.67294749772674 257.97693882990455 97.99018507254965
389.97330445852236 287.3098272705576 92.19814457710419
395.8820673925093 277.45038067612813 85.92565912668015
381.9437165700701 270.3320082353757 64.59090136396787
371.66661885949617 257.58756304231184 86.92973191128709
374.43009705349056 249.06272703316466 96.09662881779079
366.3126383100704 289.96533213775956 82.43506825102715
377.3873858375172 281.7347049797304 98.95904062512874
385.6082469561485 288.63753508399947 96.73115290518966
368.58580355853377 293.7597345758286 81.1800380210677
364.4172432859806 282.4318334889081 71.09121761328652
380.29766330332353 281.1613780852876 99.0803013598231
374.4252754930091 250.44925270519207 97.48697816886501
380.28415129350594 251.95512533751136 93.67735400259268
374.40064967963616 289.8416137050397 62.5571203179176
382.56754215522716 279.8245645239028 99.06091212303801
380.42474028180163 269.45236830187906 64.31101558270595
371.59000715080697 292.7767296884603 68.7221335110536
389.4161971448657 270.94824057007855 76.08517411875671
385.12629291727455 279.648407351018 98.86716431853132
373.24838007567445 249.2386815185854 91.60229503118384
379.5637708462118 251.31450866536605 97.16301018393085
365.3070503550662 287.67561038646744 73.47504729227246
374.1912234074575 247.83854074579244 92.0306963255956
368.60818355622695 283.81358210238284 98.56455474606533
380.1245992419788 252.70797778566163 86.14167730138851
383.8890738550563 269.8351854881028 68.41036992730744
389.5410957391921 270.92771054313545 94.23648234942615
368.86812809651923 286.2577443741953 98.71195629791146
379.6004941957246 287.18224236244464 61.53108084939537
388.1747265464828 272.1550243532589 72.78695566798673
389.0915972608251 267.19137049441287 91.56595647816798
385.20727501476875 289.8875960561289 93.53406091458403
384.4690302453739 262.48681304501434 85.3391393876085
387.90297399027685 264.7903034900596 90.82488373683302
365.2566378518674 277.183814090107 97.83069671771527
375.46238087573784 295.5446183223774 77.27642869105543
389.9043697927708 266.6100800231223 80.53044055538535
385.57500614314415 272.2439173143842 68.27968123000811
385.6197191364925 268.6398036216152 71.85612208479458
368.62265442879095 282.2540064138831 98.41087050385231
372.7959428731271 283.28165691756897 98.89425816239003
387.1517287627693 288.1984966069922 97.07868862501842
380.28016788969825 252.80725806280464 96.1387791352839
388.631650004758 288.3307452312406 93.74452458461309
372.15693972174427 266.0176942102867 90.06173039663878
375.61900271151455 296.08998402892814 81.91710971810069
396.40629438302636 282.2144986332147 88.80865026961916
381.6620260073392 291.79115222091895 76.84739586572702
375.4524893464412 286.09071438002815 98.98658615556948
384.7461743353601 266.9672279882697 73.06985735423989
373.01565207144097 295.394327105544 73.96114426676101
377.35072651415743 261.8275596599322 98.29240392254682
380.76782741364457 270.57087219336984 62.800988463607155
382.11199219764313 261.82308681735856 92.63995757598006
393.4057258865005 281.3169630931986 95.14458452642884
374.69837372537637 291.38375499131047 98.01701687584284
393.82957083312 282.8401316116639 91.81622581577433
379.2948731286732 290.2301823288177 97.7183805396392
389.52140250452106 265.17346751277597 82.28711842912388
382.94003130685394 262.36438560214964 82.60847357432
389.2687944246485 264.57795081312264 87.90356106109968
391.0124460395679 272.5471632200515 91.04121802597176
378.789274862867 258.3957294819208 98.54235839296253
368.11205772306533 268.9883637588532 95.09071732160606
384.34226115759543 263.8011900220679 78.0321866556202
367.6920576820317 274.1652673049821 99.00088781181589
372.8161392556622 291.2383723707588 98.66055297619175
374.330786479839 295.4557497745996 75.49594159447135
374.76936335319175 261.8458117469316 98.12048344281456
381.15551688401104 269.22059991216895 66.08983259159878
371.36926247870326 260.56257584717474 91.21757820015044
370.96212113661835 266.89227976728733 88.53068283064417
372.83465020474864 297.0126727578964 88.13446746702115
392.1264801107556 274.24095801538397 85.7881393129189
386.29149205718716 282.24930058125943 98.99987952006127
390.490906672744 270.45816069945164 91.34271950592928
368.65435917115354 280.58142165799717 99.01257121159955
389.4356927416202 269.83521113233917 77.33445345515103
389.7837029709354 270.4419090297292 79.186247478852
363.67030544174435 277.15365517532325 68.4104724206919
369.75208619787276 288.96180331189106 98.48286481656113
363.87971776376156 277.2318050410428 65.57201500146418
387.06137472612244 280.2852688178748 99.0325570935861
390.28524543803445 265.32508605234375 86.6413176161788
369.549716448033 291.45025349805326 97.25089570435551
390.3878905341448 271.2759768932317 81.22391113903652
388.6003733573105 264.21690489531454 86.38426100115001
389.7586996171967 269.8183429895412 93.01730630613197
379.7033150733543 292.21174855764656 72.41802316053804
390.54318808136094 271.1453624986951 83.07532447307054
368.19337128974774 276.7117039192665 99.11909564429858
369.12947984305214 292.5601784594582 94.94685382702335
363.17646451144327 276.27444866524723 76.97399412302659
371.851022877346 261.2243313321864 94.20616321566511
388.5617691794481 268.0809118922255 93.08171921661913
384.70755696314137 262.4744761008407 83.8064692862649
381.35655350923724 266.17896211051374 74.53656838091455
373.68573832505433 296.8538723477126 83.4423816738384
391.4664840353328 273.2363703676815 88.79097409124975
387.36544395125475 272.0641765339051 71.357781592782
377.9824823544903 284.6244050037369 99.05166239070607
390.6152543992976 270.07262597416945 84.27426226551947
390.96009539693205 267.98420348148187 81.9576597838823
380.91100898729565 253.82223749422477 89.270817476756
368.626760209348 293.9602121361611 79.70436699428262
373.3822905685464 265.1028305745077 91.72860209035322
389.1367528469061 265.85614424310137 90.6512355304001
370.70722707251275 287.74353513603614 62.4722603655653
383.3479683757218 282.22356558189864 98.87290158821955
376.91066993421924 276.72305994412073 99.07341272332256
377.41082492626356 250.1226275654286 84.38476290834559
367.23365351775885 280.35606023844264 60.166185579483184
390.1897030311914 267.3257734139785 90.35099900179019
388.51751048176914 264.62933628509103 80.9346478823593
388.5958571649324 286.8192143477412 98.5950975558238
389.8798475209291 268.6281143642623 91.58986985898872
390.8063041788256 268.2597539495785 83.73918221628044
387.73176611771913 263.5099744952298 84.74981792658767
368.94349230981453 276.27937442534477 58.352486268064055
378.9223742125049 255.57549730084187 98.54314451937074
377.1253444552106 268.24865467257035 65.94896625468036
377.4819456466847 274.6035691930026 99.03428451430472
370.51737708608675 292.7743146045737 96.16427808228781
373.54146512155074 272.8274771274659 99.00565345212884
371.20545203874724 272.06341265901574 98.87495201399601
371.31277417976924 296.3141123200261 85.91249673097245
370.0569072311518 281.22472905991157 57.701564826368774
371.57650976584483 259.2419387306229 95.56225900031059
369.5000040341745 293.8219416311718 92.32772720473811
379.6451880518179 248.94206989812136 89.55931278657927
380.58153377426595 252.43674615924917 91.15785529657063
375.1965621468769 244.84624933157554 89.23306991711063
365.7329367534666 288.9554675830246 75.89169272859604
382.2728288836422 272.4627690357366 98.95365685924698
366.76893705585104 275.6506231305005 98.88285982553363
364.2675787632562 281.3584145856869 84.22381360765534
378.067805481802 272.21811914139295 99.12029309839859
374.7512893541233 271.18699849188414 98.54090972643476
378.0791836576644 289.10111952204215 63.05256036348623
372.9568556159424 271.0248673320572 98.49846110460825
374.40539640353774 280.26953081076914 57.04521509582162
383.7404728218516 292.04037892936805 83.22333727450757
373.3948422988338 253.82616015346656 96.88345507249655
382.47828139656684 264.042989036305 76.82345492951072
391.02141976482295 266.6832318482664 85.07035315341787
390.76042161043404 270.79277316558074 86.06977676233305
380.09776252015513 286.81575814431807 98.99018537927489
393.1911314603107 284.1560953201738 87.71366336705468
378.09081997512584 269.73731790275315 98.87632220368481
391.7359940069466 273.7287164813102 84.47446191662152
375.7803484314601 269.54915888169074 98.41485432832316
373.84191000011333 269.6983348025744 97.86299930018251
394.77639743206424 279.18795851791367 79.0718670256582
383.1650431301686 292.2272716018252 79.85758439426888
370.7761596936891 276.2410931533158 98.91003999633696
378.9859763778993 290.6738733210902 67.71820801834743
380.71567753841356 255.59047159222294 96.47737397635598
378.6270033200504 283.9576473881592 59.03128257709513
381.58836532800603 266.59885693804375 72.97520626617633
381.80944726818683 260.7591100595374 95.18393895437013
382.3486753688646 291.91324195644455 89.055877345052
379.3750306497938 292.0673194166815 94.44362287755449
380.9303984668059 255.41414032365554 85.33787998817405
368.01542242991127 291.5995637713028 73.23528762425825
385.0321245520848 263.3348987623675 90.15840401232298
388.54324296560014 288.3734941073643 92.23783943632739
374.44245334566665 247.71587771837932 87.90582461829705
387.0769686008092 263.75634899503467 89.80463931423016
384.3534270448591 267.67219453568634 96.0889752957306
386.833171142418 263.78444792773973 81.47539147514615
381.47155170688364 261.1082103780049 82.43981975744585
363.2464472129542 276.85257460186506 74.16603553325133
366.5706422373863 288.84812417585914 71.18340284354277
378.177352388656 265.84607008986643 97.41497393486704
380.94240525275677 284.814107284559 60.53506569708572
383.08473613559653 262.2755010953252 84.73984312840693
386.0701455829048 262.91237216029003 88.31161021748525
373.6320198691965 295.1088055779216 94.39831523855742
378.58678756820433 289.02527808178775 98.76859034941873
365.3430170302076 274.794449455071 62.66387400585671
387.3559985539234 270.85406411602264 72.74905740474807
382.33789813401114 266.1523707324059 96.63519981543975
376.00788181811305 295.1741831037765 91.7061154411969
382.43738417399646 267.6661147295498 70.11245085110076
379.4320282954061 293.12734481800715 76.9490189888869
380.35553268180865 265.04156256778197 96.56575505844191
363.9656806670982 279.44929160096797 81.9470568526851
372.9558089694605 255.77799281564185 97.04802990171314
385.65941806443595 266.3596964152916 95.07219077632594
388.21047425464826 265.4426347023276 79.12963512083611
374.0350191544165 264.05792019353373 93.62586990963754
370.5811777656639 282.60485640923446 58.1281306350564
363.53422586832784 279.780111798131 71.21998472861259
373.4920049573674 279.23721691680237 99.06823069162009
382.01486815454905 264.46644091651314 95.87350754251695
390.71224320174105 267.79953394659816 88.8517001335166
372.57531217425446 265.8937483504441 79.11569425837786
388.9618607057684 269.4171929897967 94.64337624423648
381.72782602004804 258.9957455943864 85.08165079244124
390.9365751050442 267.29047326285956 87.18299768526225
364.6094676319139 272.1590030772837 94.98596120352094
369.9272888568649 295.0939370333739 85.85493201605814
376.0564690574295 253.23492679744646 82.47682210140492
367.8178243913677 292.2804013911526 75.01482530063298
363.92202022833925 281.141700268792 72.38479945062655
384.5240600480109 286.3497983732998 98.98173571351194
376.3284225072519 290.64104927114545 64.56068149997583
390.9259256688288 287.1381867744322 80.77956422457801
377.58910203471095 287.08750996012446 98.8801885267516
363.3067935377501 275.4981859573918 82.6475186679115
380.4098456840952 260.3315644611685 81.47542425082095
375.38611046452866 283.58871452366884 99.02945422351594
385.36001110426037 270.822155306265 69.04168302801934
368.195161661529 286.8346041337203 63.74264991496421
383.6245620155122 268.5122791863601 69.44232420103022
381.0987692176962 272.31911659446126 61.2774940954597
366.37489836363534 287.6062962014053 68.57601826591919
390.0770897780585 272.54055910239634 94.85733795486989
380.87134404487756 284.0866152386969 98.99325164045918
364.6878920566213 285.57704972206676 74.6656261847333
375.883958268927 288.8457706035487 99.02336117322868
379.25899250490096 293.06626273757047 88.64163158930573
372.7527927946194 263.61917240141673 87.63657929579215
374.28889193773546 287.52923906485347 98.88974762252764
372.15878427839914 262.14777315232885 90.33653454246226
393.71165285991987 275.8019828366421 83.4499266941534
370.72891068302954 293.5509629454116 71.34346727884139
380.07787467371037 266.5190548255439 73.26916025081802
380.9057734838283 289.8912724096503 68.01458875985678
375.3847796946346 250.18910514364362 84.73309553268736
385.97164532687447 262.70484369658413 85.07140234530675
POLYGONS 2180 8720
3 8 1 2
3 706 1076 14
3 2 1 5
3 2 5 6
3 1076 3 14
3 1076 8 3
3 2 6 4
3 15 7 8
3 8 7 3
3 2 4 8
3 8 4 15
3 0 1076 913
3 0 11 17
3 5 1 0
3 6 9 4
3 15 4 10
3 9 16 4
3 10 4 16
3 913 11 0
3 0 17 5
3 12 5 17
3 5 12 6
3 13 706 14
3 9 21 19
3 21 9 6
3 21 6 12
3 19 16 9
3 24 16 37
3 10 16 24
3 37 16 19
3 12 30 32
3 12 32 21
3 12 17 30
3 14 3 20
3 34 14 20
3 13 14 34
3 20 3 7
3 20 7 38
3 22 15 23
3 22 38 7
3 7 15 22
3 10 42 23
3 10 23 15
3 24 42 10
3 11 28 17
3 47 26 11
3 29 28 27
3 17 28 30
3 28 29 30
3 18 52 31
3 33 32 50
3 13 34 35
3 34 20 36
3 34 36 35
3 55 37 19
3 38 36 20
3 22 23 41
3 42 24 43
3 43 40 44
3 24 40 43
3 46 64 27
3 27 64 29
3 65 48 64
3 29 48 30
3 50 49 67
3 52 35 53
3 52 53 54
3 56 58 74
3 56 36 57
3 56 57 58
3 56 74 53
3 56 53 35
3 35 36 56
3 57 39 58
3 39 78 58
3 41 42 59
3 81 41 59
3 81 59 61
3 81 78 39
3 39 41 81
3 59 43 61
3 42 43 59
3 40 73 60
3 46 88 90
3 65 64 90
3 68 67 97
3 50 69 70
3 68 69 67
3 69 50 67
3 54 53 72
3 74 58 77
3 74 77 75
3 74 75 72
3 74 72 53
3 76 75 77
3 78 79 80
3 76 77 80
3 78 80 77
3 78 77 58
3 81 61 82
3 79 78 82
3 81 82 78
3 86 87 62
3 88 132 89
3 91 90 89
3 90 92 65
3 90 91 92
3 92 91 94
3 98 97 94
3 97 98 68
3 652 101 95
3 99 142 100
3 69 103 70
3 68 99 69
3 102 101 652
3 109 105 104
3 104 54 72
3 104 72 106
3 104 106 109
3 101 102 105
3 104 105 102
3 110 109 106
3 106 111 110
3 112 154 111
3 111 75 76
3 111 76 112
3 111 154 110
3 114 115 157
3 80 79 116
3 114 80 116
3 114 116 115
3 114 157 112
3 114 112 76
3 76 80 114
3 118 121 119
3 118 82 120
3 118 120 121
3 115 116 119
3 118 119 116
3 118 116 79
3 79 82 118
3 120 122 121
3 127 128 129
3 86 130 87
3 132 133 134
3 132 134 89
3 129 133 130
3 89 134 135
3 89 135 91
3 134 177 135
3 139 136 137
3 91 139 94
3 177 136 135
3 94 139 140
3 94 140 98
3 139 137 140
3 142 143 144
3 142 144 100
3 137 143 140
3 673 141 95
3 101 673 95
3 146 150 147
3 105 109 148
3 146 105 148
3 146 148 150
3 146 147 673
3 146 673 101
3 101 105 146
3 107 153 108
3 151 150 148
3 148 109 110
3 148 110 152
3 148 152 151
3 154 155 156
3 154 112 157
3 154 157 155
3 151 152 156
3 154 156 152
3 154 152 110
3 157 115 158
3 155 157 158
3 119 121 160
3 159 119 160
3 159 160 162
3 159 158 115
3 115 119 159
3 160 121 163
3 160 163 162
3 121 122 163
3 170 217 171
3 172 173 174
3 133 175 134
3 129 172 133
3 176 175 174
3 134 175 177
3 175 176 177
3 136 179 137
3 176 178 177
3 177 178 136
3 180 179 229
3 137 179 181
3 179 180 181
3 183 184 185
3 143 188 144
3 180 184 181
3 137 183 143
3 187 186 182
3 141 187 182
3 189 188 185
3 144 188 190
3 188 189 190
3 147 193 237
3 147 150 191
3 147 191 193
3 186 187 237
3 147 237 187
3 194 193 191
3 191 150 151
3 191 151 195
3 191 195 194
3 197 196 242
3 198 199 200
3 156 155 201
3 198 156 201
3 198 201 199
3 194 195 200
3 198 200 195
3 198 195 151
3 151 156 198
3 203 206 204
3 203 158 205
3 203 205 206
3 199 201 204
3 203 204 201
3 203 201 155
3 155 158 203
3 159 162 209
3 207 206 205
3 205 209 207
3 210 253 209
3 209 162 210
3 209 253 207
3 211 255 210
3 211 210 162
3 214 169 817
3 217 267 218
3 217 219 171
3 173 221 174
3 218 220 219
3 171 219 173
3 222 221 220
3 174 221 223
3 174 223 176
3 221 222 223
3 224 225 226
3 222 225 223
3 176 224 178
3 230 229 226
3 229 230 180
3 228 233 227
3 231 280 232
3 184 234 185
3 180 231 184
3 186 233 228
3 182 186 228
3 235 234 232
3 185 234 236
3 185 236 189
3 234 235 236
3 237 239 238
3 237 193 239
3 233 186 238
3 237 238 186
3 239 193 194
3 239 194 241
3 243 244 293
3 200 199 245
3 243 200 245
3 243 245 244
3 243 293 241
3 243 241 194
3 194 200 243
3 246 250 247
3 204 206 248
3 246 204 248
3 246 248 250
3 244 245 247
3 246 247 245
3 246 245 199
3 199 204 246
3 251 250 248
3 248 206 207
3 253 254 252
3 253 210 255
3 253 255 254
3 253 252 207
3 263 264 262
3 215 216 263
3 267 263 262
3 267 262 268
3 267 268 218
3 267 215 263
3 270 317 271
3 218 270 220
3 225 276 226
3 222 273 225
3 226 276 278
3 226 278 230
3 276 277 278
3 227 233 279
3 280 281 284
3 280 284 232
3 277 281 278
3 232 284 285
3 232 285 235
3 284 329 285
3 283 291 286
3 238 239 287
3 283 238 287
3 283 287 291
3 282 283 286
3 233 238 283
3 329 289 285
3 287 239 241
3 287 241 293
3 295 294 290
3 293 244 296
3 292 293 296
3 247 250 300
3 299 247 300
3 299 296 244
3 244 247 299
3 300 250 251
3 300 251 302
3 300 302 301
3 301 302 305
3 303 305 302
3 303 302 251
3 251 252 303
3 264 313 262
3 262 313 315
3 262 315 268
3 317 777 271
3 275 322 277
3 323 324 325
3 281 327 284
3 696 324 322
3 277 323 281
3 328 327 325
3 284 327 329
3 327 328 329
3 286 291 331
3 330 286 331
3 329 332 289
3 333 330 331
3 331 291 292
3 331 292 334
3 331 334 333
3 290 335 340
3 290 340 295
3 335 336 340
3 337 342 338
3 337 296 339
3 337 339 342
3 333 334 338
3 337 338 334
3 337 334 292
3 292 296 337
3 343 342 339
3 349 350 399
3 349 305 351
3 349 399 347
3 663 1037 810
3 1091 309 663
3 1059 361 360
3 358 360 409
3 371 374 370
3 372 373 696
3 324 378 325
3 373 376 696
3 696 376 324
3 379 378 420
3 325 378 380
3 325 380 328
3 378 379 380
3 381 385 377
3 381 377 326
3 326 330 381
3 382 383 384
3 379 383 380
3 389 388 384
3 338 342 391
3 390 338 391
3 386 387 392
3 390 392 387
3 390 387 333
3 333 338 390
3 391 342 343
3 341 395 398
3 346 347 397
3 343 346 394
3 399 397 347
3 408 361 722
3 357 1028 1037
3 446 410 408
3 416 453 455
3 417 416 455
3 416 417 373
3 418 456 419
3 373 418 376
3 421 420 419
3 420 421 379
3 423 459 424
3 383 426 384
3 379 423 383
3 428 430 463
3 428 429 430
3 428 463 425
3 431 430 429
3 436 438 441
3 440 438 400
3 660 914 446
3 1020 449 447
3 453 780 455
3 780 484 455
3 456 457 419
3 422 385 425
3 422 425 461
3 459 460 464
3 459 464 424
3 462 461 425
3 425 463 462
3 463 465 488
3 463 430 465
3 462 463 488
3 480 496 914
3 445 481 480
3 481 452 1049
3 500 825 1034
3 825 500 482
3 500 483 482
3 503 454 502
3 780 454 484
3 454 503 484
3 461 462 486
3 488 486 462
3 496 480 497
3 480 481 497
3 500 501 483
3 503 502 1012
3 503 1000 985
3 697 1078 505
3 1078 486 505
3 839 505 486
3 486 488 839
3 1055 1046 498
3 499 498 1046
3 1034 583 500
3 501 500 583
3 1012 1000 503
3 1007 494 1039
3 1 1076 0
3 706 913 1076
3 28 11 26
3 49 50 32
3 32 30 49
3 33 21 32
3 22 41 39
3 39 38 22
3 41 23 42
3 48 67 49
3 49 30 48
3 48 29 64
3 70 33 50
3 38 39 57
3 57 36 38
3 46 90 64
3 65 97 67
3 67 48 65
3 88 89 90
3 87 132 88
3 92 94 97
3 97 65 92
3 99 100 103
3 103 69 99
3 99 68 98
3 98 142 99
3 75 111 106
3 106 72 75
3 127 129 130
3 130 86 127
3 127 86 126
3 132 87 130
3 130 133 132
3 139 91 135
3 135 136 139
3 142 98 140
3 140 143 142
3 1019 795 125
3 172 174 175
3 175 133 172
3 172 129 171
3 171 173 172
3 178 229 179
3 179 136 178
3 183 185 188
3 188 143 183
3 183 137 181
3 181 184 183
3 159 209 205
3 205 158 159
3 217 218 219
3 215 267 217
3 219 220 221
3 221 173 219
3 224 226 229
3 229 178 224
3 224 176 223
3 223 225 224
3 231 232 234
3 234 184 231
3 231 180 230
3 230 280 231
3 270 271 220
3 270 218 268
3 268 317 270
3 280 230 278
3 278 281 280
3 313 264 310
3 317 268 315
3 315 318 317
3 323 325 327
3 327 281 323
3 323 277 322
3 322 324 323
3 335 289 332
3 299 345 339
3 339 296 299
3 356 362 802
3 376 420 378
3 378 324 376
3 382 384 388
3 388 332 382
3 382 328 380
3 380 383 382
3 810 1037 1025
3 408 410 409
3 418 419 420
3 420 376 418
3 418 373 417
3 417 456 418
3 423 424 426
3 426 383 423
3 423 379 421
3 421 459 423
3 456 417 455
3 455 484 456
3 499 1034 825
3 483 502 454
3 1049 497 481
3 496 1055 498
3 501 1012 502
3 502 483 501
3 504 484 503
3 497 1055 496
3 1042 1046 1055
3 499 1046 1034
3 501 583 1011
3 1011 1012 501
3 835 839 491
3 8 1076 1
3 1042 1055 497
3 591 1046 1042
3 591 1034 1046
3 1029 1042 497
3 587 1034 591
3 587 583 1034
3 595 591 1042
3 1029 595 1042
3 657 653 603
3 1009 1011 583
3 587 1009 583
3 591 633 587
3 633 1009 587
3 637 633 595
3 595 633 591
3 1029 641 595
3 641 637 595
3 645 1029 603
3 645 641 1029
3 653 645 603
3 998 1012 1011
3 998 1000 1012
3 669 1011 1009
3 669 998 1011
3 997 669 1009
3 677 1009 633
3 677 997 1009
3 994 677 637
3 637 677 633
3 641 685 637
3 685 994 637
3 645 693 641
3 693 685 641
3 1058 697 653
3 984 1000 998
3 984 985 1000
3 715 998 669
3 715 984 998
3 982 715 997
3 997 715 669
3 723 997 677
3 723 982 997
3 727 723 994
3 994 723 677
3 731 994 685
3 731 727 994
3 693 735 685
3 735 731 685
3 759 985 984
3 763 984 715
3 763 759 984
3 970 763 982
3 982 763 715
3 723 771 982
3 771 970 982
3 727 775 723
3 775 771 723
3 731 779 727
3 779 775 727
3 735 783 731
3 783 779 731
3 693 787 735
3 787 783 735
3 697 505 693
3 505 787 693
3 811 807 763
3 763 807 759
3 819 811 970
3 970 811 763
3 819 970 771
3 775 823 771
3 823 819 771
3 779 827 775
3 827 823 775
3 783 831 779
3 831 827 779
3 787 835 783
3 835 831 783
3 505 839 787
3 839 835 787
3 855 851 807
3 823 871 819
3 871 867 819
3 827 875 823
3 875 871 823
3 831 879 827
3 879 875 827
3 835 491 831
3 491 879 831
3 937 487 851
3 855 937 851
3 859 901 855
3 879 969 875
3 969 871 875
3 19 21 33
3 33 55 19
3 446 914 1020
3 499 449 498
3 498 449 1020
3 914 496 1020
3 1020 496 498
3 413 1085 414
3 414 1085 412
3 413 931 1085
3 1085 931 412
3 1028 357 756
3 672 1010 321
3 282 326 1010
3 320 371 1060
3 320 1006 371
3 321 375 1006
3 309 947 357
3 370 1056 371
3 1056 1060 371
3 170 214 217
3 214 215 217
3 46 87 88
3 47 45 62
3 45 86 62
3 62 981 47
3 981 26 47
3 973 1056 370
3 412 966 414
3 966 451 453
3 973 370 976
3 925 265 261
3 274 977 963
3 963 977 272
3 321 1006 962
3 962 1006 320
3 922 959 422
3 922 374 959
3 921 947 944
3 944 947 316
3 1060 1005 320
3 1005 977 320
3 977 274 962
3 962 320 977
3 321 950 672
3 321 962 950
3 950 962 274
3 321 1010 375
3 415 955 452
3 955 657 452
3 955 976 948
3 309 978 947
3 947 978 316
3 672 950 946
3 946 950 274
3 921 944 366
3 784 897 269
3 922 936 374
3 374 936 370
3 936 976 370
3 366 1060 1056
3 366 944 1060
3 663 309 1037
3 1037 309 357
3 371 656 374
3 371 1006 656
3 656 1006 375
3 1005 944 316
3 672 946 279
3 946 227 279
3 770 978 1091
3 1091 978 309
3 377 959 375
3 1060 944 1005
3 272 977 1005
3 447 449 923
3 422 461 922
3 922 461 458
3 675 946 274
3 131 812 138
3 812 93 138
3 480 1025 445
3 948 976 936
3 445 1025 1028
3 1028 1025 1037
3 182 847 141
3 1041 138 93
3 131 746 740
3 660 668 914
3 914 668 480
3 449 499 912
3 912 499 825
3 445 415 481
3 481 415 452
3 1049 452 603
3 452 657 603
3 93 812 899
3 955 1058 657
3 1058 653 657
3 51 898 31
3 51 66 898
3 899 63 96
3 645 653 693
3 653 697 693
3 168 925 1004
3 375 934 377
3 377 934 326
3 375 1010 934
3 934 1010 326
3 960 1041 96
3 955 891 976
3 955 415 891
3 925 805 1004
3 925 261 805
3 1078 887 458
3 887 948 458
3 356 802 1036
3 1036 802 808
3 1058 887 697
3 697 887 1078
3 700 63 899
3 948 1058 955
3 948 887 1058
3 795 910 125
3 63 1075 886
3 63 700 1075
3 461 1078 458
3 461 486 1078
3 66 1073 898
3 1073 96 63
3 652 960 66
3 603 1029 1049
3 1049 1029 497
3 27 981 46
3 31 824 18
3 31 898 824
3 886 1073 63
3 948 936 458
3 458 936 922
3 824 886 801
3 878 847 182
3 46 981 87
3 87 981 62
3 976 891 973
3 1056 973 366
3 973 967 366
3 1028 756 894
3 894 756 967
3 1041 93 96
3 93 899 96
3 931 954 412
3 960 890 1041
3 795 700 910
3 1073 66 96
3 66 960 96
3 86 45 837
3 801 836 824
3 11 913 876
3 450 825 482
3 898 1073 824
3 824 1073 886
3 920 822 261
3 1031 822 920
3 167 1004 169
3 169 1004 817
3 261 822 805
3 215 817 216
3 215 214 817
3 264 814 310
3 817 805 216
3 1071 814 264
3 310 814 359
3 359 814 312
3 312 808 1059
3 312 1031 808
3 216 805 822
3 312 814 1071
3 263 806 264
3 822 1071 806
3 806 1071 264
3 822 806 216
3 216 806 263
3 168 1004 167
3 482 483 451
3 451 483 454
3 359 1059 360
3 359 312 1059
3 1004 805 817
3 312 1071 1031
3 1031 1071 822
3 169 957 167
3 957 1019 125
3 824 836 18
3 126 1019 1088
3 668 1025 480
3 706 13 836
3 836 13 18
3 86 837 126
3 836 801 863
3 930 801 25
3 408 800 361
3 361 800 360
3 408 409 800
3 800 409 360
3 802 362 361
3 362 722 361
3 45 47 930
3 25 886 1075
3 25 801 886
3 1044 25 1075
3 1075 700 1044
3 1044 700 795
3 271 1057 220
3 273 222 1057
3 1057 222 220
3 414 905 368
3 368 905 932
3 794 608 413
3 368 1083 414
3 414 1083 413
3 1083 794 413
3 273 1057 791
3 791 1057 271
3 367 794 790
3 368 932 789
3 789 932 372
3 790 368 789
3 319 791 777
3 777 791 271
3 275 319 781
3 275 792 319
3 369 789 781
3 781 789 372
3 319 367 369
3 919 897 272
3 272 897 963
3 792 273 791
3 791 319 792
3 781 319 369
3 453 451 780
3 780 451 454
3 367 319 777
3 318 777 317
3 318 367 777
3 275 781 322
3 608 794 318
3 318 794 367
3 368 790 1083
3 1083 790 794
3 450 482 1051
3 1051 482 451
3 1044 126 837
3 966 453 905
3 905 414 966
3 789 369 790
3 369 367 790
3 225 273 276
3 273 792 276
3 357 921 756
3 357 947 921
3 276 792 277
3 277 792 275
3 863 801 930
3 11 876 47
3 412 1051 966
3 966 1051 451
3 1028 894 445
3 445 894 415
3 415 894 967
3 416 905 453
3 416 932 905
3 913 863 876
3 876 863 930
3 47 876 930
3 126 795 1019
3 126 1044 795
3 1044 837 25
3 28 26 27
3 26 981 27
3 746 269 740
3 129 128 171
3 128 170 171
3 366 756 921
3 366 967 756
3 1088 755 128
3 128 755 170
3 755 214 170
3 770 747 978
3 974 919 747
3 269 897 1050
3 1050 897 974
3 897 919 974
3 740 753 745
3 1030 974 747
3 732 753 740
3 306 254 255
3 974 266 1050
3 974 1030 266
3 732 740 1050
3 732 266 265
3 732 1050 266
3 261 265 741
3 925 168 753
3 1030 770 741
3 266 1030 265
3 265 1030 741
3 899 812 910
3 753 168 744
3 910 745 744
3 770 1030 747
3 956 741 770
3 744 167 125
3 744 168 167
3 910 812 745
3 978 747 316
3 316 747 919
3 956 770 1091
3 744 745 753
3 1050 740 269
3 753 732 925
3 925 732 265
3 740 745 131
3 745 812 131
3 45 930 25
3 25 837 45
3 700 899 910
3 847 890 141
3 141 890 95
3 1036 893 356
3 893 956 1091
3 808 920 1036
3 675 939 946
3 741 920 261
3 675 784 939
3 956 1036 920
3 920 741 956
3 938 746 848
3 893 1036 956
3 227 681 228
3 939 938 681
3 228 681 182
3 878 182 681
3 681 938 878
3 939 784 938
3 784 746 938
3 946 939 227
3 939 681 227
3 897 675 963
3 897 784 675
3 938 848 878
3 878 848 847
3 147 187 673
3 673 187 141
3 282 672 279
3 282 1010 672
3 356 810 362
3 722 810 668
3 1025 668 810
3 910 744 125
3 963 675 274
3 746 784 269
3 847 848 138
3 138 848 131
3 356 663 810
3 356 893 663
3 663 893 1091
3 1031 920 808
3 1059 802 361
3 1059 808 802
3 131 848 746
3 1019 957 1088
3 660 722 668
3 652 95 960
3 95 890 960
3 890 847 1041
3 1041 847 138
3 316 272 1005
3 316 919 272
3 375 959 656
3 656 959 374
3 470 935 492
3 214 755 169
3 393 854 432
3 432 854 435
3 362 810 722
3 493 1079 969
3 1079 871 969
3 879 935 969
3 167 957 125
3 836 863 706
3 706 863 913
3 408 660 446
3 408 722 660
3 128 127 1088
3 1088 127 126
3 169 755 957
3 957 755 1088
3 104 102 54
3 54 102 51
3 51 31 54
3 31 52 54
3 51 652 66
3 51 102 652
3 52 13 35
3 52 18 13
3 279 649 282
3 282 649 283
3 279 233 649
3 649 233 283
3 466 647 427
3 468 648 647
3 468 717 646
3 427 643 389
3 643 648 433
3 395 733 433
3 389 643 733
3 733 643 433
3 424 621 426
3 621 466 427
3 426 640 384
3 427 389 640
3 640 389 384
3 468 647 639
3 639 647 466
3 506 639 638
3 638 639 466
3 648 468 646
3 336 635 340
3 340 635 341
3 635 395 341
3 433 634 395
3 634 398 395
3 468 639 717
3 717 639 506
3 733 635 336
3 733 395 635
3 433 648 629
3 464 628 424
3 464 490 628
3 901 626 855
3 855 626 937
3 973 891 967
3 967 891 415
3 647 648 643
3 643 427 647
3 621 427 640
3 640 426 621
3 638 466 628
3 634 433 629
3 629 439 634
3 884 622 719
3 622 662 506
3 424 628 621
3 621 628 466
3 340 620 295
3 295 620 344
3 340 341 620
3 620 341 344
3 717 618 646
3 618 644 469
3 422 617 385
3 385 617 377
3 422 959 617
3 617 959 377
3 937 616 487
3 487 616 490
3 937 719 616
3 616 719 490
3 508 1081 1039
3 394 1008 343
3 343 1008 391
3 1008 393 391
3 849 935 470
3 892 436 473
3 435 736 432
3 432 736 471
3 435 861 736
3 736 861 471
3 471 636 615
3 615 636 467
3 1007 614 494
3 975 849 470
3 435 613 396
3 396 613 394
3 435 854 613
3 613 854 394
3 474 892 561
3 561 892 473
3 386 743 385
3 385 743 425
3 386 428 743
3 743 428 425
3 436 610 438
3 610 434 437
3 935 609 969
3 969 609 493
3 935 849 609
3 609 849 493
3 397 728 346
3 346 728 394
3 397 396 728
3 728 396 394
3 437 606 396
3 396 606 435
3 437 861 606
3 606 861 435
3 467 605 489
3 489 605 492
3 467 470 605
3 605 470 492
3 854 393 1008
3 1008 394 854
3 471 797 432
3 432 797 431
3 471 615 797
3 797 615 431
3 467 489 602
3 602 489 465
3 904 434 474
3 434 892 474
3 428 664 429
3 429 664 392
3 428 386 664
3 664 386 392
3 625 849 975
3 432 917 393
3 393 917 429
3 432 431 917
3 917 431 429
3 489 492 713
3 713 492 491
3 495 721 508
3 476 509 721
3 615 467 602
3 602 431 615
3 381 688 385
3 385 688 386
3 381 387 688
3 688 387 386
3 489 766 465
3 465 766 488
3 489 713 766
3 766 713 488
3 431 915 430
3 430 915 465
3 431 602 915
3 915 602 465
3 345 798 339
3 339 798 343
3 345 346 798
3 798 346 343
3 488 670 839
3 839 670 491
3 488 713 670
3 670 713 491
3 961 1079 1007
3 365 931 413
3 1064 308 259
3 1065 294 297
3 492 943 491
3 491 943 879
3 492 935 943
3 943 935 879
3 871 829 867
3 867 829 961
3 871 1079 829
3 829 1079 961
3 297 828 197
3 867 774 819
3 819 774 811
3 867 859 774
3 774 859 811
3 457 924 504
3 504 924 484
3 457 456 924
3 924 456 484
3 397 809 396
3 809 437 396
3 471 804 636
3 471 861 804
3 804 861 904
3 333 862 330
3 330 862 381
3 333 387 862
3 862 387 381
3 438 764 400
3 438 610 764
3 434 754 892
3 892 754 436
3 434 610 754
3 754 610 436
3 474 748 904
3 975 636 748
3 804 904 748
3 748 636 804
3 764 809 399
3 399 809 397
3 434 1026 437
3 437 1026 861
3 434 904 1026
3 1026 904 861
3 778 614 625
3 636 702 467
3 467 702 470
3 636 975 702
3 702 975 470
3 909 1084 627
3 627 1084 507
3 909 1081 1084
3 1084 1081 507
3 372 932 373
3 932 416 373
3 604 721 509
3 399 858 764
3 764 858 400
3 399 350 858
3 858 350 400
3 975 902 625
3 975 748 902
3 902 748 474
3 495 918 494
3 494 918 1039
3 495 508 918
3 918 508 1039
3 781 696 322
3 781 372 696
3 437 725 610
3 610 725 764
3 437 809 725
3 725 809 764
3 287 1013 291
3 291 1013 292
3 287 293 1013
3 1013 293 292
3 300 1068 299
3 299 1068 345
3 300 301 1068
3 345 758 346
3 346 758 347
3 758 301 347
3 1068 301 758
3 758 345 1068
3 282 1086 326
3 326 1086 330
3 282 286 1086
3 1086 286 330
3 249 550 258
3 258 550 259
3 476 1022 475
3 475 1022 495
3 476 721 1022
3 1022 721 495
3 307 1045 256
3 256 1045 306
3 351 1014 352
3 352 1014 830
3 351 304 1014
3 1014 304 830
3 352 1002 351
3 1002 401 350
3 298 882 993
3 255 949 306
3 306 949 256
3 508 916 1081
3 1081 916 507
3 306 908 254
3 254 908 304
3 908 830 304
3 1081 1069 1039
3 1081 909 1069
3 1069 909 961
3 867 1072 859
3 867 961 1072
3 1072 961 909
3 625 1066 849
3 849 1066 493
3 625 614 1066
3 1066 614 493
3 855 1054 859
3 859 1054 811
3 855 807 1054
3 1054 807 811
3 859 1072 901
3 627 708 901
3 884 626 708
3 708 626 901
3 358 1023 360
3 360 1023 359
3 358 768 1023
3 1023 768 359
3 477 989 742
3 401 1002 403
3 403 1002 352
3 440 400 401
3 400 350 401
3 469 644 952
3 952 644 945
3 937 900 719
3 719 900 884
3 937 626 900
3 900 626 884
3 662 888 941
3 401 762 440
3 401 403 762
3 472 852 646
3 646 852 648
3 472 629 852
3 852 629 648
3 441 844 478
3 442 842 443
3 443 842 820
3 820 842 402
3 830 1045 353
3 662 765 506
3 506 765 717
3 662 644 765
3 622 884 888
3 888 662 622
3 843 469 989
3 820 402 788
3 788 404 820
3 403 788 762
3 762 788 402
3 760 405 353
3 352 750 403
3 353 405 750
3 478 749 476
3 749 509 476
3 762 402 844
3 844 440 762
3 618 717 765
3 765 644 618
3 402 1082 844
3 844 1082 478
3 402 842 1082
3 1082 842 478
3 440 1021 438
3 438 1021 441
3 440 844 1021
3 1021 844 441
3 439 866 634
3 634 866 398
3 439 631 866
3 623 472 843
3 843 703 623
3 122 729 163
3 574 716 348
3 439 856 631
3 439 623 856
3 788 403 750
3 843 846 469
3 469 846 618
3 846 646 618
3 212 569 257
3 569 164 213
3 351 714 349
3 349 714 350
3 351 1002 714
3 714 1002 350
3 212 710 211
3 211 710 255
3 212 949 710
3 710 949 255
3 708 888 884
3 646 846 472
3 472 846 843
3 742 1038 477
3 1038 604 509
3 442 749 842
3 842 749 478
3 301 701 347
3 347 701 349
3 301 305 701
3 701 305 349
3 476 699 478
3 478 699 441
3 476 475 699
3 699 475 441
3 353 694 830
3 830 694 352
3 353 750 694
3 694 750 352
3 398 815 632
3 692 916 604
3 506 690 622
3 622 690 719
3 506 638 690
3 690 638 719
3 304 689 303
3 303 689 305
3 304 351 689
3 689 351 305
3 788 684 404
3 404 684 405
3 788 750 684
3 684 750 405
3 604 679 721
3 721 679 508
3 604 916 679
3 679 916 508
3 1016 212 211
3 256 676 257
3 257 676 212
3 256 949 676
3 676 949 212
3 254 850 252
3 252 850 303
3 254 304 850
3 850 304 303
3 901 761 627
3 627 761 909
3 901 1072 761
3 761 1072 909
3 407 686 355
3 355 686 406
3 407 444 686
3 686 444 406
3 888 666 941
3 888 708 666
3 666 708 627
3 644 772 945
3 945 772 941
3 644 662 772
3 772 662 941
3 153 196 659
3 494 658 495
3 295 344 1080
3 260 630 257
3 257 630 256
3 630 307 256
3 436 619 473
3 473 619 475
3 436 441 619
3 619 441 475
3 1039 1069 1007
3 1007 1069 961
3 348 993 632
3 632 993 344
3 355 869 407
3 407 642 856
3 856 642 631
3 407 869 642
3 642 869 631
3 611 786 592
3 592 786 738
3 364 624 590
3 359 589 310
3 310 589 311
3 359 768 589
3 589 768 311
3 405 906 404
3 632 773 398
3 398 773 341
3 632 344 773
3 773 344 341
3 308 588 259
3 632 815 348
3 348 815 574
3 860 580 448
3 448 580 923
3 580 980 923
3 906 405 760
3 252 579 207
3 207 579 248
3 252 251 579
3 579 251 248
3 313 578 314
3 578 624 314
3 495 577 475
3 475 577 473
3 495 658 577
3 577 658 473
3 407 576 444
3 444 576 1062
3 407 856 576
3 576 856 1062
3 449 575 923
3 923 575 448
3 449 912 575
3 575 912 448
3 841 404 906
3 354 896 928
3 928 896 307
3 354 760 896
3 896 760 307
3 631 574 815
3 631 869 574
3 593 667 573
3 411 1017 903
3 208 599 166
3 166 599 213
3 738 590 705
3 786 864 364
3 307 630 928
3 928 630 260
3 674 588 260
3 903 568 594
3 594 568 980
3 903 1017 568
3 568 1017 980
3 954 567 450
3 752 573 667
3 667 566 597
3 597 566 1003
3 667 593 566
3 566 593 1003
3 625 868 778
3 625 902 868
3 868 902 474
3 931 826 954
3 571 443 841
3 580 860 572
3 297 564 828
3 828 564 882
3 297 1080 564
3 564 1080 882
3 364 563 786
3 786 563 738
3 364 590 563
3 563 590 738
3 597 562 667
3 611 592 562
3 562 592 667
3 592 738 752
3 752 667 592
3 473 658 561
3 561 658 778
3 1064 348 716
3 716 308 1064
3 716 355 582
3 582 308 716
3 165 560 208
3 202 1077 560
3 778 557 614
3 614 557 494
3 778 658 557
3 557 658 494
3 561 778 868
3 868 474 561
3 574 965 716
3 716 965 355
3 574 869 965
3 965 869 355
3 298 1033 882
3 1033 828 882
3 991 873 650
3 903 584 873
3 873 584 650
3 729 164 1016
3 1016 163 729
3 1003 1048 597
3 1003 572 1048
3 1048 572 860
3 593 816 1003
3 816 572 1003
3 117 813 124
3 556 597 1048
3 1048 860 556
3 493 793 1079
3 1079 793 1007
3 493 614 793
3 793 614 1007
3 768 767 311
3 311 767 600
3 768 598 767
3 767 598 600
3 307 724 1045
3 1045 724 353
3 307 760 724
3 724 760 353
3 409 964 358
3 991 596 964
3 964 596 358
3 298 730 1064
3 1064 730 348
3 298 993 730
3 730 993 348
3 354 554 406
3 406 554 355
3 354 582 554
3 554 582 355
3 213 877 674
3 674 877 258
3 213 599 877
3 877 599 258
3 608 607 864
3 864 607 364
3 259 1087 258
3 258 1087 674
3 259 588 1087
3 1087 588 674
3 295 691 294
3 294 691 297
3 295 1080 691
3 691 1080 297
3 611 570 365
3 365 570 931
3 611 826 570
3 570 826 931
3 258 581 249
3 249 581 208
3 258 599 581
3 581 599 208
3 84 553 123
3 124 565 553
3 830 908 1045
3 1045 908 306
3 84 889 83
3 83 889 120
3 84 122 889
3 889 122 120
3 828 1033 1077
3 1077 1033 249
3 123 999 84
3 84 999 122
3 123 729 999
3 999 729 122
3 882 818 993
3 993 818 344
3 882 1080 818
3 818 1080 344
3 308 757 588
3 308 582 757
3 161 1074 813
3 813 1074 165
3 161 560 1074
3 1074 560 165
3 212 559 569
3 569 559 164
3 212 1016 559
3 559 1016 164
3 421 1061 459
3 1061 460 459
3 208 552 249
3 249 552 1077
3 208 560 552
3 552 560 1077
3 85 551 124
3 124 551 117
3 85 60 551
3 551 60 117
3 249 1033 550
3 550 1033 298
3 365 549 611
3 611 549 786
3 365 864 549
3 549 864 786
3 611 562 826
3 120 1035 83
3 83 1035 61
3 120 82 1035
3 1035 82 61
3 257 853 260
3 260 853 674
3 257 569 853
3 607 840 314
3 840 318 315
3 311 578 310
3 310 578 313
3 980 680 594
3 572 816 680
3 680 816 594
3 124 553 85
3 161 548 108
3 161 813 548
3 548 813 117
3 826 547 556
3 556 547 597
3 826 562 547
3 547 562 597
3 153 107 838
3 654 546 705
3 705 546 738
3 654 752 546
3 546 752 738
3 460 1061 545
3 545 1061 457
3 573 865 593
3 650 584 544
3 985 543 485
3 485 543 803
3 985 759 543
3 543 759 803
3 235 1032 236
3 236 1032 240
3 235 288 1032
3 1032 288 240
3 288 799 240
3 294 1065 799
3 799 1065 240
3 485 545 504
3 504 545 457
3 807 1015 759
3 759 1015 803
3 807 851 1015
3 1015 851 803
3 769 544 584
3 85 542 44
3 44 542 83
3 542 84 83
3 460 895 464
3 487 490 895
3 895 490 464
3 294 799 290
3 290 799 288
3 285 953 235
3 235 953 288
3 285 289 953
3 953 289 288
3 588 911 260
3 260 911 928
3 588 757 911
3 911 757 928
3 650 541 990
3 650 544 541
3 541 544 585
3 590 1090 705
3 593 872 816
3 816 872 558
3 593 865 872
3 872 865 558
3 107 71 833
3 558 769 695
3 695 769 584
3 558 540 816
3 816 540 594
3 558 695 540
3 540 695 594
3 990 737 596
3 596 737 598
3 737 586 598
3 990 541 539
3 539 541 585
3 928 538 354
3 354 538 582
3 928 757 538
3 538 757 582
3 990 539 707
3 883 796 687
3 687 796 585
3 796 683 585
3 683 539 585
3 487 895 995
3 995 895 460
3 1090 586 682
3 363 537 865
3 865 537 558
3 363 769 537
3 537 769 558
3 363 536 769
3 769 536 544
3 363 687 536
3 585 544 536
3 536 687 585
3 289 535 288
3 288 535 290
3 289 335 535
3 535 335 290
3 60 534 40
3 40 534 44
3 60 85 534
3 534 85 44
3 865 533 363
3 883 687 533
3 533 687 363
3 678 532 707
3 707 532 586
3 678 682 532
3 532 682 586
3 707 539 683
3 683 678 707
3 678 992 832
3 832 992 796
3 678 683 992
3 992 683 796
3 189 821 192
3 192 821 240
3 189 236 821
3 821 236 240
3 144 857 100
3 100 857 145
3 144 190 857
3 857 190 145
3 103 698 70
3 103 833 698
3 698 833 71
3 504 531 485
3 485 531 985
3 504 503 531
3 531 503 985
3 490 530 628
3 628 530 638
3 490 719 530
3 530 719 638
3 624 529 590
3 600 1090 529
3 529 1090 590
3 654 528 883
3 883 528 796
3 654 832 528
3 528 832 796
3 196 527 242
3 242 527 192
3 196 149 527
3 527 149 192
3 84 542 553
3 553 542 85
3 335 1047 336
3 336 1047 388
3 335 332 1047
3 1047 332 388
3 240 1053 192
3 192 1053 242
3 240 1065 1053
3 1053 1065 242
3 487 951 851
3 851 951 803
3 487 995 951
3 951 995 803
3 149 942 190
3 190 942 145
3 149 838 942
3 942 838 145
3 192 940 189
3 189 940 190
3 192 149 940
3 940 149 190
3 594 881 903
3 903 881 584
3 594 695 881
3 881 695 584
3 328 1070 329
3 329 1070 332
3 328 382 1070
3 1070 382 332
3 912 929 448
3 450 567 929
3 166 555 565
3 107 782 838
3 838 782 145
3 107 833 782
3 782 833 145
3 991 734 411
3 991 964 734
3 734 964 409
3 903 873 411
3 411 873 991
3 153 526 196
3 196 526 149
3 153 838 526
3 526 838 149
3 410 525 411
3 447 1017 525
3 525 1017 411
3 389 996 388
3 388 996 336
3 389 733 996
3 996 733 336
3 364 711 624
3 624 711 314
3 364 607 711
3 711 607 314
3 600 1063 311
3 624 578 1063
3 1063 578 311
3 586 971 598
3 598 971 600
3 586 1090 971
3 971 1090 600
3 529 624 1063
3 1063 600 529
3 358 885 768
3 768 885 598
3 358 596 885
3 885 596 598
3 631 815 866
3 866 815 398
3 650 845 991
3 991 845 596
3 650 990 845
3 845 990 596
3 990 707 737
3 737 707 586
3 472 671 629
3 629 671 439
3 472 623 671
3 671 623 439
3 832 1027 678
3 678 1027 682
3 259 1024 1064
3 1064 1024 298
3 259 550 1024
3 1024 550 298
3 1090 682 705
3 682 1027 705
3 113 972 108
3 108 972 107
3 972 71 107
3 318 840 608
3 608 840 607
3 923 776 447
3 447 776 1017
3 923 980 776
3 776 980 1017
3 705 1027 654
3 654 1027 832
3 411 734 410
3 410 734 409
3 654 880 752
3 752 880 573
3 654 883 880
3 880 883 573
3 883 533 573
3 573 533 865
3 314 834 313
3 313 834 315
3 314 840 834
3 834 840 315
3 1062 655 703
3 703 655 623
3 1062 856 655
3 655 856 623
3 608 523 413
3 413 523 365
3 608 864 523
3 523 864 365
3 479 522 477
3 522 989 477
3 443 521 442
3 442 521 479
3 443 571 521
3 446 525 410
3 404 519 820
3 820 519 443
3 404 841 519
3 519 841 443
3 391 907 390
3 390 907 392
3 391 393 907
3 392 518 429
3 429 518 393
3 392 907 518
3 518 907 393
3 457 709 419
3 419 709 421
3 457 1061 709
3 709 1061 421
3 442 479 612
3 612 479 477
3 507 517 941
3 941 517 945
3 517 692 945
3 703 516 1062
3 742 515 1038
3 1038 515 604
3 742 692 515
3 515 692 604
3 522 479 516
3 516 703 522
3 545 514 460
3 460 514 995
3 545 485 514
3 450 513 954
3 954 513 412
3 450 1051 513
3 513 1051 412
3 1038 509 612
3 612 477 1038
3 556 988 826
3 826 988 954
3 988 567 954
3 567 512 860
3 860 512 556
3 567 988 512
3 512 988 556
3 469 952 989
3 989 952 742
3 945 983 952
3 952 983 742
3 945 692 983
3 983 692 742
3 444 958 406
3 841 906 958
3 958 906 406
3 73 1052 60
3 113 117 1052
3 1052 117 60
3 61 1018 83
3 83 1018 44
3 61 43 1018
3 1018 43 44
3 841 958 571
3 571 958 444
3 698 979 70
3 698 71 979
3 692 927 916
3 916 927 507
3 692 517 927
3 927 517 507
3 995 926 803
3 803 926 485
3 995 514 926
3 926 514 485
3 906 785 406
3 406 785 354
3 906 760 785
3 785 760 354
3 124 968 565
3 565 968 165
3 124 813 968
3 968 813 165
3 571 933 521
3 521 933 479
3 571 516 933
3 933 516 479
3 572 680 580
3 580 680 980
3 145 1040 100
3 100 1040 103
3 145 833 1040
3 1040 833 103
3 55 726 37
3 37 726 73
3 55 524 726
3 726 524 73
3 565 874 553
3 553 874 123
3 565 555 874
3 874 555 123
3 37 1001 24
3 24 1001 40
3 37 73 1001
3 1001 73 40
3 1062 986 444
3 444 986 571
3 1062 516 986
3 986 516 571
3 55 979 524
3 524 979 71
3 123 1067 729
3 729 1067 164
3 123 555 1067
3 1067 555 164
3 163 1089 162
3 162 1089 211
3 163 1016 1089
3 1089 1016 211
3 113 987 524
3 524 987 73
3 113 1052 987
3 987 1052 73
3 242 870 197
3 197 870 297
3 242 1065 870
3 870 1065 297
3 674 751 213
3 213 751 569
3 674 853 751
3 751 853 569
3 197 739 202
3 202 739 1077
3 197 828 739
3 739 828 1077
3 989 720 843
3 843 720 703
3 989 522 720
3 720 522 703
3 108 718 113
3 113 718 117
3 108 548 718
3 718 548 117
3 555 712 164
3 164 712 213
3 555 166 712
3 712 166 213
3 153 704 108
3 108 704 161
3 153 659 704
3 704 659 161
3 166 665 208
3 208 665 165
3 166 565 665
3 665 565 165
3 447 661 1020
3 1020 661 446
3 447 525 661
3 661 525 446
3 70 651 33
3 33 651 55
3 70 979 651
3 651 979 55
3 71 601 524
3 524 601 113
3 71 972 601
3 601 972 113
3 202 520 659
3 659 520 161
3 202 560 520
3 520 560 161
3 450 929 825
3 825 929 912
3 448 511 860
3 860 511 567
3 448 929 511
3 511 929 567
3 202 510 197
3 197 510 196
3 202 659 510
3 510 659 196
3 941 666 507
3 507 666 627
3 442 1043 749
3 749 1043 509
3 442 612 1043
3 1043 612 509
