# vtk DataFile Version 3.0
A great-looking cell
ASCII
DATASET POLYDATA
POINTS 852 double
152.4347801636652 341.63116102149786 7.96234639636889
146.93033722118597 341.89037291858756 4.14142228124965
148.3279414419617 340.8793171854095 4.461161295403877
149.96234119034506 341.03046010516704 5.046409160830364
152.03003449534705 343.45827715461354 8.472033666352253
145.12217765047436 342.8793170103993 4.0577044798957385
148.7685615974381 342.6350573300293 4.670753595647823
152.75565281092105 342.8419592693784 11.889386061062417
150.88475113698232 344.3043443547286 7.064744955221921
152.48214443977537 344.2707264935944 10.313763786999523
147.70662743619442 338.10967926743086 5.281667450565158
150.44498481183598 339.4843009306917 6.186945760090169
151.27141311627236 341.22316333950783 6.476718712255175
152.1089839503929 339.66101228250113 7.442329107811265
153.14814675546916 340.1762389298215 9.326742507577471
152.93502060338818 342.272507977908 9.850481969881384
143.52683613102522 341.4747278783361 3.8489889769207823
144.2167488366759 338.9876118983931 3.6679101674325176
146.79821037356254 339.6329599269746 4.37800622434376
149.03647452895066 339.21699659749027 4.6670018432493325
153.7588330020213 340.95693026605744 11.386924005135642
142.9833012109115 343.834802546472 4.349669765923586
141.82427426084845 345.4465792423161 5.371703674124418
143.68144308478162 345.6352063183419 5.516646338467706
145.63264079657597 345.69123532015425 5.851659022417798
146.1281877504281 346.48590680954163 7.302997537367846
147.5295177398896 345.7125138444562 6.547356469437631
149.2997307944934 345.5085450920316 7.786672401106253
142.38252539568296 335.10569700309367 5.725206902103283
145.04470285224681 335.53656889872605 6.858981267817106
147.50251898054344 336.5966420253804 6.4439392229307035
141.61693045667306 337.89732427986974 4.844157461379254
143.91663596647663 336.63874553476927 4.689754855913525
147.35838826885765 335.2892327046386 8.465232241403827
149.44118332090525 336.26777788393906 7.642544385879582
150.80166661085175 337.99510024786974 7.529973405893422
150.75162971938994 336.9536220074519 9.219549920513266
152.3345286313269 338.193137593597 8.972644159743668
153.32803807902462 338.49945444089906 11.11474785496558
153.9435536347333 339.68354431650937 13.212853331086595
139.2002915939919 342.19781530747474 4.68405627020848
141.34987214645926 342.03774176757355 3.8403376659913033
140.09192332084766 340.05568852248217 4.04727741188619
142.14392631261393 340.06518838432766 3.901720065938357
149.0909774324152 338.0216874388222 6.380553165844979
154.03059401474934 341.93502646840295 13.496054684790572
140.6010572896438 344.01492654868747 4.983043539050989
138.83781826352288 343.87372586716333 5.916312383624487
154.6905346426163 342.08025496444685 15.222466411002806
139.596143618403 346.4467981545177 6.2865398572955185
142.3366616633406 346.24924652166897 6.963128011022821
144.41030500008247 346.48901733256855 7.154837895897923
141.2751051809415 347.1167222304789 8.20645791853123
143.26880131982372 346.95468305300477 8.958359196067828
144.78304733119802 347.50065886107456 10.43026338786314
145.42718722590004 347.14326183629527 8.674025726214703
154.03534444389973 343.4798170081144 14.89541515820776
146.42659992193055 347.6861318304133 9.95936828419261
147.56967921134807 346.89884523473995 8.547690264154088
153.42806262033804 343.7762057914246 13.324180655809293
152.31203057774897 344.76480190484057 12.353687066111743
151.05955431997862 345.13836639731767 8.968329528384967
143.05064839993875 333.89338591450286 8.071693285607665
140.69404816445135 333.5830877044539 7.211793723007037
138.18678514251246 334.29136865021167 7.504614695665529
139.79262926454538 335.9074557914857 6.060358182951377
147.51556448323177 334.56942491117536 10.828282412169388
149.21236507250902 335.73968269274764 9.792222763937383
150.8690561804858 336.04357937966256 10.856580951188075
152.21646935708745 336.9584290296363 10.248522172735099
152.3012932593491 336.6613992995205 11.920065051596051
153.2587526636617 337.69806706105476 13.309998176350138
154.17288287033634 338.5085811805838 15.199732110975097
138.59308948571697 338.0161428019202 4.637253264639039
137.38142302378952 336.74442906554464 6.7772214764098395
137.1082141241565 339.35501514873425 6.517318604743792
138.13976262882474 340.3844998414771 4.889200291153575
154.88094516512638 340.5456560217189 14.837151546788627
137.2870411622628 342.11500000142314 6.386787915993255
137.7947896100274 344.41266590379735 7.581438437138721
155.37299347384217 343.2150424122546 16.239842433798938
138.18553473336112 346.7549369706084 10.720769365752608
138.09148960637685 346.2234276435863 8.600305716714006
139.53482258249642 347.7724352928447 8.98180540041414
142.05198800866708 347.88850284490354 12.053099898220943
141.59215392163173 347.9911742581772 9.932365860420067
144.08643021704404 348.3171355201444 12.10150180333264
143.17372612739393 347.88646723391935 10.645316688337594
146.9706146899099 348.4909526744371 13.529164725616633
146.2715511322345 348.1332085836302 11.839971956255567
148.20765238149835 347.95180458576084 12.643164385508893
148.04329137327082 347.6009551021884 10.67881289351307
149.88880526849343 347.3633219923808 11.705664751818274
149.61184951006433 346.54566335424295 9.701428720762962
151.45588307826483 346.09563336500895 10.883827996624113
152.74656395389863 345.2498763912276 14.569212779328627
139.10187939445115 331.3065557430446 10.824047144044599
141.5669784654612 332.4586051199496 9.619337185876923
137.25032511922583 333.09077785160025 9.617979764125081
139.3464356465553 332.8764609602145 8.904684263294508
148.12887626919695 334.19956408581834 12.942041739316716
149.34957525221785 335.27948603822114 11.740085710201335
149.7643811227253 334.735712031025 13.165231666712915
150.9837986134673 335.4876628434971 12.550187741697775
150.69821763750252 335.33041355829 14.255541564079389
152.1938364846166 336.17152426712505 13.68811996789312
152.05991941867975 335.7920215575754 15.4120656060174
153.05957605222048 336.95883475601136 14.841594912549484
153.7129173355289 336.5364164521729 16.567825645570057
154.66905768935203 338.50766480563 17.42750438851699
136.20892141948667 335.4662222084697 8.880647274253446
135.90221762568368 338.1541450609925 8.519029885680382
155.077228898064 339.89887410196485 16.392226697655957
156.11702160390692 342.39518862501245 17.480522954650723
136.20663276952396 340.7495182995986 8.435045581903733
135.0050104790058 339.71299008555445 10.512516353534554
135.80815341108317 342.19223352294307 10.413306946725626
155.76486600604892 341.39981514014346 16.230808693744688
136.96642274895288 342.7833858512533 8.658826603953349
136.53614103432494 344.7994405917735 9.969412731748735
138.32404499855244 347.7931064901044 12.895682420672454
140.44162018051424 348.6803876221415 13.455700977816882
140.00383560612636 347.89868609067975 11.323785240145325
142.9147089348461 349.08645643105007 14.152642674585705
144.8596580394663 349.31919029338957 15.755926974447027
145.3273393772191 348.90879906902586 13.691765989210003
146.66033144772155 348.6253762586448 15.14895793730808
154.84616527576154 343.52119863033596 18.296441855262675
148.29371389534637 348.4239598272934 14.41044380574432
149.473716825369 347.9040280560017 15.305920934119676
149.72450339791934 347.5315818160573 13.735833380820656
151.42078362647612 346.56890937811113 13.05275583162558
154.05417977498496 344.6797969507195 16.471307510182047
141.49518688709065 330.28117687063997 11.326175955235776
137.90932581203307 329.2391516039708 12.871528389735557
135.43107473199635 330.68896801619127 14.088096875438728
136.39392239386595 331.7655452717914 11.752772509609844
147.42215681286015 332.82466682660305 14.664227913333649
149.29255961444971 334.0955731086431 14.566468433088387
150.53649169165678 334.69265316343797 15.99635772122097
152.01604370957924 335.2542057481087 17.190070313100698
134.53527430383582 338.65992614593796 12.98675305534993
135.49755072029836 337.0831497920637 10.955465064354113
135.20822449587607 336.00169434089406 13.437850613807784
135.81212864402187 334.4324912929166 11.333906584139475
134.72413313359974 333.26805274180964 13.531433525397787
155.71538020438285 340.6102909180106 18.312744492818798
156.725873531466 342.64477206109245 18.899488425972677
134.96045822431864 341.26949143341176 12.662002398803136
135.2984158384392 342.6215458620437 14.43185610973901
135.95524153798993 343.5863667821025 12.506898954631295
136.03564181310162 344.75340179490803 14.952287083323219
136.61989335511524 346.0306504384094 12.564655142362875
155.81288813672782 343.7976350878571 20.018393273987297
137.6166337646002 347.903690819044 16.547109789720203
139.09975836737124 348.907555850461 17.243440274184056
138.76465742204797 348.5277014084075 15.06954162158863
141.040450661742 349.392002976005 18.080905607846287
140.84589489199783 349.09559420901354 15.78428884343873
142.88284482875164 349.5203969313738 16.78095666233757
144.73667844492445 349.4061913487384 17.944954516043495
146.4681230632923 349.1573891309525 16.989783373926205
147.7627350428494 349.3567374002517 17.874427190513952
149.19575767658773 348.88785858188334 18.031219480313258
148.2895773796228 348.66142859673386 16.342186818403878
150.1607071935606 348.2475338778583 16.65508025366514
152.17830705309518 346.96325395521364 18.490269432701012
152.63110360508227 346.24960798961996 16.68507516016087
151.44354769879985 347.42211468599226 17.066447818744358
151.06875805026982 347.0012407549282 15.300790395422274
147.38454932600118 331.0866417561677 16.838061918722307
147.49133385439887 330.4986453487593 19.294193270490812
148.72771837751168 333.5066555058544 16.56866153767328
153.53759574347546 335.70569935230674 19.81363323211878
153.33261665637633 335.59353560539 18.189905125101866
154.71154118450272 336.9626111890536 20.46825424050502
154.45849195631357 336.8341365592291 18.60197348233228
133.4400583339806 330.541581035384 18.367986731361942
134.6728715102804 329.52376820528764 16.290141576648736
148.50698636462764 332.83840685591343 19.12718173417659
150.19136739886093 334.54557933803517 18.048228779339137
150.31222416325878 334.41296849451305 20.204301604113517
152.03399227359824 334.81833104879377 19.04310520148571
155.03986789845868 338.5879328442542 19.461732221942253
155.2035389121653 338.44262512132156 21.364796503875564
155.50835106402155 340.1540653495434 20.599214205782012
134.23414700655843 334.85218410801116 15.702798297800262
133.3092482450596 333.9334821286884 17.868623196729896
133.80988482708358 336.3602808213236 17.73336859281215
133.56800570450903 332.0656969322116 16.030351889213424
156.4849476729888 341.4319311589983 20.06806179173992
156.60708368426944 341.2609258289738 21.789470485737077
157.10804250576203 342.89481623433505 20.85711956180381
134.24006562530275 337.53650887082523 15.439352691252761
133.88433915777605 338.85202210403617 17.569608069644573
134.27974341683756 340.50766217497915 15.334511828152605
133.84817085722523 341.16714704195357 17.97490952240617
134.7332959171323 343.19427236038 16.5951979442357
135.32495691636134 344.77137950555306 18.150932970768675
136.82970191987872 347.395263149284 20.56933373585827
136.33154177784218 346.30301368694734 16.99931260795165
138.1813194709906 348.6374134875645 21.145639323666785
137.4789794759945 347.99138350760614 18.72481075677829
139.73975195103617 349.5185366792993 21.080879979208667
139.3783117418191 349.1903129917602 19.397931808710684
141.16317774374946 349.5553340007131 20.22926605786791
142.92194445827374 350.17484657935694 21.513528518839898
144.95742376252173 350.21690980656626 22.011094079767506
144.83368915361044 350.00729709398706 20.052511443440068
146.89586288634635 349.78340099840625 21.113518102474966
146.48555239149596 349.50754228694035 18.89932425949247
148.228772555409 349.62413989359527 19.381206288418273
155.5889622258251 344.016517132471 22.10747612469112
149.7501256121633 348.7715480166501 19.731804871949006
152.9089988838896 346.3376925332334 20.328819338825515
150.65285017614235 347.97390063908693 18.35248286242099
153.9903129794588 344.33175039694106 20.30015481007376
153.6445668220775 345.50402870356544 18.427850803951298
144.5438712994821 327.0608530610562 21.265057067995993
146.4979618718422 328.9665187930857 21.19947802924895
131.8252539332008 327.5524948246516 22.77864417373577
132.43098223849705 327.79904973716225 20.36699233852075
147.9467296010948 331.3854930662808 21.242914137650214
153.81863675767133 335.87925200769934 21.64232282330498
154.81342593756685 337.0650969740741 22.03985335404307
132.53147073694637 329.91799915483716 23.345740368125803
133.03909592295312 330.17003037385246 20.880691588419868
148.48156586524655 332.1711770305275 22.97611400342139
148.82319125037964 333.504672802718 21.62358939485303
150.78974244618962 334.31347040697153 22.32997146147445
152.30519835716214 334.7911957236691 20.981827664294105
152.83763043287374 334.75214813360964 22.975469597913904
155.10219804264833 338.13734559281056 23.114257093222147
155.42846662360907 339.88392936907655 22.535778806373294
155.34320279967488 339.4332753417846 24.4339065487437
132.91021695333723 332.62809982975733 19.864140613511744
132.70897025319485 332.43320656370946 22.64994371712085
132.91180313238408 334.88625374881366 22.662535186656847
156.56153480284146 340.98257482604276 23.842992946717608
157.61285160919138 342.8284505346489 22.962894521053638
157.30184491002004 342.51026683074826 25.341621845837636
133.27899902197052 335.21813790942196 20.127576294849778
133.05978999337188 337.1731359966573 21.780553291646104
156.28171780347435 343.84066016864205 24.19118255026018
133.39448760833554 337.7909420896615 19.594159228835288
133.13409594271 339.39278743364 21.13698283053109
133.1817203653405 339.73520423121346 19.225097539644075
133.90520550913675 343.30547880884933 21.341397745635412
136.9280132461955 347.60754926589453 24.368034308505152
137.87080429210206 351.2174068644404 23.97944631022961
137.65192703500924 349.0753130231283 23.271823336694563
140.09557665926252 351.5948439239578 23.430742543651053
139.15822516015572 349.90640614719086 22.62142579678154
141.78621388296762 352.31883761875883 25.062434068763533
140.8354146651445 350.2431947234028 22.039120446653598
143.8398943462009 350.692157579911 23.931099646231242
146.29634464569276 350.4325337028188 23.45535302198537
148.9071635236532 349.7085534412491 20.940183460594806
150.1172507266399 348.57229008116593 21.579100877342647
151.30926461364263 347.73573629885095 20.136336706032676
153.6531485882766 345.50420577553405 22.26436924921985
142.29794567388134 324.18562967008137 25.06588052494223
144.40528816335143 326.97811485367737 23.929878405623732
143.6990174382035 326.0908226712495 26.52296062340921
145.1818958023696 327.78850991706605 25.824439850734677
131.29645387147795 325.05894494891197 22.50470332931409
131.26023400615202 326.0800117423496 24.86866404587496
147.61605956578404 329.9676802372099 25.13104762797893
147.71508057083645 330.4090277932123 23.25721604767258
154.35265633691264 336.34013384623455 23.616311605683965
132.0776484467591 330.74699240775067 27.778354631395363
131.48209746428677 328.55724964079866 25.243402784556526
148.4604579054817 331.92655501810697 25.040225560606597
149.29612837888675 333.7016220307059 23.740563405171816
149.71128730560739 333.8858676598931 25.853589457489196
151.33858400403648 334.1323434603692 24.400810752340853
153.209848999064 335.0430508908406 25.062711401240307
154.4044692258152 336.6015263455189 25.794686657122398
154.97244067202965 337.78731677526264 24.69070269695265
132.24551583343666 332.8171552896092 25.11556372116971
132.17430353579417 333.1403336066788 27.33699980320027
156.0113474581252 340.7100182161882 25.977157695427856
156.7274933615373 342.28578473322716 27.73924424299793
132.44269389229305 334.98815847545654 24.935030522065816
131.95895798829818 335.6545687968062 27.26216811240349
155.4915297587937 343.8618025342096 26.228019668202048
132.88949633954303 336.8381171365743 23.920833690958837
132.80322304172213 338.3533408082704 25.160056665307703
132.7990693722748 338.90093862657824 23.2565457993376
135.90796108153532 348.90798162451 29.43993214902487
136.77321736584537 347.907562123238 26.166553235172774
139.6665282563819 354.17198342323405 27.70886092616831
139.1841756550937 353.0980553880037 25.367453654575606
145.97803778000062 351.4250515284421 27.14317485368319
145.5260489646088 350.7603635603911 25.3427234590775
148.64390317480616 349.63086628875254 22.9882100964333
149.8428633795148 349.1888218910357 25.052858437144696
153.02895250660941 346.347319086188 24.300257817065937
154.53029746563686 344.69635211177876 24.19683523993893
151.85441350575132 347.27810153569015 22.36583056877755
140.93092018682793 322.4499152350551 27.63231038742981
130.7351195748452 323.4821632316183 28.44378575949565
143.46298324967336 325.1667362774353 28.844779599217915
145.39447483052683 327.6876373577204 28.144409138143224
146.7700459458292 328.846722470389 26.43493009736148
146.24221407502617 328.68356322060066 24.053019715655974
130.8167068898569 323.7461720513185 25.73805875944078
131.38652803996575 328.3592683793924 27.652025689002347
147.36974995233697 329.2620903635105 28.618418245479987
148.17260405250997 331.2825537975401 28.9853000319346
147.89326925088676 330.62819503015413 26.930590446730328
131.77780526601038 330.6716848891457 30.345247992300163
148.89424749698674 332.52457874851837 27.382095345706023
150.32439633906287 334.0393133151004 27.963356002624792
151.78828161163682 334.3619969127127 26.4816748903585
152.22664997744118 334.7799174353027 28.469212387180537
153.50094693015689 335.35698668119505 27.0837295240359
154.45871237709048 336.9378050835676 27.80883437107942
155.02629493606403 338.6269010650011 26.46821168131272
154.8698183634977 338.5169135216189 28.52868712005266
155.16746637624232 340.37881476570726 28.058716185667627
131.92832041919988 332.4158672133994 29.2346348429629
131.88049091207105 334.33479386717244 29.285978468775262
131.79792530119332 335.49920221278757 31.046220105941302
132.4064101831592 337.6202267994762 28.714394121819385
135.46989490375194 343.2756993120075 33.67449825012537
136.2625874660837 353.08842896266106 34.096307268892744
135.67335637336507 351.8826683794064 31.759189785259387
140.40597407588083 355.8255484225883 34.58865962372493
139.12501447796876 354.6611686662024 30.309846642122363
143.27018824875643 353.82018851749956 30.45844207931987
145.3770319911943 352.01962547870363 30.994218815838156
144.388758294928 352.10607116869164 28.666527923772286
146.26592881209297 351.6667023121903 29.06102271082113
149.30174731727817 350.23168599242774 29.34367556277402
147.82233715439568 351.02069233425954 28.10332867897285
149.57442782989432 349.9469735988191 27.191241513921547
151.10021985618346 348.4587028239688 26.651875352679678
152.6036279236918 347.1021783191742 26.23348009674416
151.4656240519595 347.81038417528225 24.65315761377328
153.76093397506992 345.4009806931369 26.12299279653408
150.44784638711664 348.5819499557866 23.315782818799477
139.2555595878437 321.271186709935 28.53923382738833
143.2362508637364 324.67434218143904 31.19945980721524
144.35683523978724 326.7242403129153 30.338642901468855
146.4283931279716 328.42495956111713 30.80005131319755
147.53972759436147 330.20516737832554 30.39885772895149
147.48060065428652 330.1882789081443 32.5355097635636
148.19487746431815 331.89847374184683 31.05096957128033
130.86290180659654 324.31969754294227 32.040452779644625
149.05303107281046 333.22031197529975 29.52745839630085
150.96358154698697 334.229076054283 30.080519898933908
152.91458835617277 335.2687351554757 30.386781198722954
153.72081081704957 335.7048903172836 28.805103781305547
154.4149307023345 337.15942257674476 30.142129112005986
154.80536049370608 339.56893430485866 30.128725268819682
155.8619743591667 341.47532748782373 29.864085299846547
155.45318927903904 343.3950723355212 29.284496424941022
132.69152961665986 334.5041791639549 39.013710991998
135.91227079426326 342.0201404758756 38.79130736378477
136.457665670778 345.46056015014636 36.98349906251848
136.61758228986997 353.6604564828352 36.73665052624352
144.5343161931849 353.2737143001394 35.25597296679859
147.73552016757435 351.0997536075489 34.847181656716366
145.84358885386948 351.5199533344107 33.55288549865109
148.204132849072 351.0378054269798 32.70129078286927
147.5889844330811 351.19060622879726 30.45828222491452
149.18834783841743 350.4005626652843 31.107142529952572
150.87171021246516 349.07780793347257 28.645627058923505
154.2382311112175 344.6398693841806 28.14965071357871
155.68352869887372 343.7574957190496 27.88328477281209
142.93546776327022 323.7007455465561 35.33337957193637
145.16860830797518 327.37999051952704 32.83302908154624
143.74366515886993 326.5126395409694 37.720994218632036
146.65549956744988 328.8834371038746 34.646504160818886
148.76785563510563 333.78352337112966 34.39731532778174
148.208845948805 332.29508379157016 32.991090832363234
139.49709598047156 327.8133503568211 42.79169508078049
149.3233408921205 333.907735849198 31.91872988209049
150.358452695189 334.8198805650885 33.691520086543896
151.59384286541174 334.8785279228937 32.14709915000462
151.9446619865361 335.9355983733349 34.099366221794696
153.25527746689548 336.44430873602727 32.29972022987752
153.39240515194612 337.40451471181336 34.16887358415443
154.29261921753195 338.7507076163765 32.51102505208821
154.88619514152538 340.941171313487 31.771013394435673
131.1022939265803 326.25221902731977 34.08578109710688
135.03244555394957 332.7721498303796 43.1368453910677
134.9404899131315 340.3102255216479 40.50648533866971
136.63382449924092 340.4789677325441 42.226059579542394
137.41771748977703 342.4364098988665 40.782224662987986
138.1310367470402 347.3359873361094 43.80038833198554
145.1271890527645 350.65688621686917 41.48642794201496
136.97961698958707 347.04101214876795 41.27143214201242
135.58124511431444 350.3755374807355 39.69984585821667
140.84910511634376 355.73669220547475 37.10965111707183
148.72980429811454 350.58415424615293 37.120684160966476
149.48269314062054 350.10153736813794 34.52038638033822
151.05026999152653 348.67059126452483 33.90290296710979
150.10344005792072 349.8162114182382 32.46664411319534
151.57416576207893 348.51343783423084 31.94333838924412
150.67128199465787 349.58152694978537 30.581644656441025
152.62288688392206 347.26793081225566 31.337919610208075
151.90966103394675 348.1141542020783 30.044399932649714
153.34364399451093 346.47562815329843 29.641679142461715
152.32788637230442 347.7197741464362 28.12922883714716
153.3376019486209 346.3205817466438 27.647355995251452
145.10437767416502 333.9474415143695 9.655966106231112
135.15704741768633 327.1049418977405 16.197719681244884
136.02190978617753 323.4007661302901 18.988245747871595
145.61835245298494 348.45447771921584 44.18193978712179
134.69163422639372 341.0748680424667 36.62006387669023
146.201167483769 330.0966256365823 39.69527166489215
147.77530856559946 331.4729090419485 35.09650779294902
136.84834088706512 325.43257583005993 17.15741168395325
147.24866941352855 332.1685381994359 38.70071515850175
148.45272956236212 333.4587358847955 36.96011896515935
146.84397222367292 334.39676420007066 41.019726345357846
142.34439736944023 334.01118895478004 42.950429617171274
149.49230556664713 335.2399768825068 38.21922157761598
150.24948591486492 335.44497172857535 35.930892820728474
136.31926048839588 343.80735685795185 37.884678980587424
151.9794223608707 337.5589099463377 35.83304056615895
154.334737020462 340.6633843834271 33.560947579793265
139.71721360744445 334.163144377881 43.55560293928332
137.25152110931475 353.54475396317173 28.803594039867733
137.10719026139142 347.0203117452636 14.809482593951246
153.66702677682773 339.4253516669083 35.193278401865314
150.1421385711444 348.18201729879166 41.23136329042178
154.86127656066574 342.8555540097835 31.172774060899695
136.681548153706 338.14510169857374 44.029649412756626
139.1492422823223 344.8699919558238 45.017995232967195
140.42823631500283 343.0816275651998 43.862356175085196
142.80448973511406 342.386894162757 44.326063981701566
135.4322156068053 348.6206616970149 34.9863382431481
135.42685303834583 350.9674752265259 35.10025545258704
135.20119333748312 350.0560978159623 30.85733070772412
132.53098616698293 338.17492747337667 32.677476164140394
141.44048164832512 346.54096332248577 45.89261572643304
144.05756229609455 347.3792952884937 45.43050711951045
147.67399294048175 347.4024513087203 44.9601448210784
143.46830612439095 352.66579879935153 40.87334774164331
142.93277117459908 349.6464725888794 19.102370798846824
148.59384527681573 350.04012996537045 40.043339098390476
150.5001899498323 348.68721793101906 38.57524944640978
150.7822226704498 348.98663304304335 36.07682075783828
154.09630318390012 344.5042895608903 30.38892384854471
133.376276551089 328.0140793862589 18.027915222247827
146.7542191253083 343.66922900561445 46.483248605442974
134.5586668776626 322.0642767750076 20.601972451563224
145.88886987956207 347.32453649295917 45.3641336590989
139.31193386792756 355.76680426452924 36.084150913763786
135.54770018033867 320.9601552015641 21.84076659910211
138.54664169843903 349.36945660704896 43.78994737671582
148.06563382213028 334.29851998699115 39.39408454801753
139.49189142023104 354.50466661202336 40.80832569810908
134.80839160966426 320.51497085657445 36.307907228112576
133.15419684430375 318.8423168826322 28.468356417605058
140.33145453733133 352.86489985809357 42.52794201637676
141.92706046652813 322.94408758527914 31.134424400093522
136.22030758369766 352.80555072890866 30.28262933462773
149.86282681036982 343.2347288159105 46.39201316478525
139.09463608289107 353.43563213176225 41.796612123992084
137.28470135287355 354.0814188448938 38.327362678188294
151.13113127708314 336.9430004128708 38.4148596915445
141.18305925214298 354.5050497443459 29.51959034271838
135.91996866446976 352.38506287715046 35.7958456458778
142.96499241048184 354.6554156275423 36.587226274922585
131.96047530898446 321.51569970958246 22.694062334983265
136.78171708232318 352.69071207110903 38.859551049433215
138.76967544135914 320.7916456486931 30.481121131607043
145.0148330620996 336.60992479518313 42.58578137838451
135.49952749546372 351.4908142473077 33.477778467801734
142.73035099893335 354.8072019107601 34.12469895655135
137.2657742543489 352.1809068629735 41.26857397225759
147.1148265971293 336.5530249192025 41.4013822810005
138.7275171788923 355.26400434358106 32.70474078497929
137.05913151848077 349.53705714023704 42.26365799106158
149.150841141389 336.4096111226371 40.198051508301326
151.82224096703737 344.75281631994307 44.00937982669108
135.73695895718916 351.66223030407815 37.24403237251228
136.96086042994554 353.9775250309513 31.557460835671083
140.58076408228075 322.1484124170406 29.90035556030623
141.2748560697299 355.1158091335267 31.916220397270422
137.97876050898304 354.99907603242707 35.01480976410392
138.3693600890981 355.2088491741301 37.601600812281994
142.24872082519312 354.32554591838465 38.97784962159045
141.0574012531863 353.89479963870025 41.26037871150237
152.9973685058822 338.9334792146044 37.78772229757798
141.13349284271024 322.3732984686137 34.697829888662525
142.01074203035867 352.36323358973556 43.244332646923844
139.4449826018146 325.4133468795383 16.074517979877093
142.99044312497816 326.83686961872183 16.844094368072447
145.2798005351272 327.99832719560203 19.79449900855668
136.05972180522133 320.4334226068428 35.184502277532495
142.6633565955722 328.0133126350504 14.13525829167807
137.54416371812508 323.3122949568662 20.114190282324504
139.18646245072208 343.70612665062833 43.3935166088023
137.96211707496232 354.31322624716546 39.96119040987492
142.3200692127261 348.4252693633997 45.315346838809745
139.53416762423132 347.0488265248039 45.26647544796299
144.5700583660016 340.86902408785375 44.55901546017798
136.0099609475971 346.33937962996146 31.459750575048517
146.20749286653233 329.3803772534929 16.099314073547873
133.93018195021284 332.5000339911317 41.56695425611995
139.69511191532712 321.7895390001934 36.31687297887678
149.7108259245447 338.9601606480473 43.97211717809768
152.12915882842427 341.4308719083691 43.92114767799843
146.32723251519676 337.85607109317243 42.19382981182685
145.62664223338965 339.07887449735153 43.47424893817139
150.4816046544189 340.6813997028055 45.751456938427125
140.4209760666849 321.9490689673447 32.28727541200561
135.70717659033843 346.3722962251057 21.343125301270852
147.96693892916258 338.19592957870475 42.79259275600914
145.89548756546742 337.52879676779986 5.1423297417532146
153.82791140439704 342.2497691480653 38.35045448373819
132.4596164374492 326.5927012838412 18.781490790923844
153.39184856996243 342.1677409923715 40.97366612109564
141.47400357000885 344.34153540695434 44.90470136381902
131.04583006926896 321.7221820687473 28.691772418078813
147.9438824727931 339.930809364517 44.64545765188054
149.93966895690443 345.48316361566634 45.05026228124448
146.11034403780502 345.55247940436647 46.19387876986434
151.42311151173345 343.2145524740605 44.83168280301462
132.32609009207962 332.2786225908662 35.84715103229531
134.2059723861681 343.1841308430192 19.05681632945446
142.81431469486319 325.4404799214602 39.46864816149464
152.87749606838807 340.5905857254864 41.98194924585289
148.6938030273786 337.1548034550384 41.70713749037586
134.28799929523146 319.4628778364927 34.84514343314884
131.89004151363514 321.1831264611555 34.96152865877743
138.0466093730498 353.5137671483646 26.92788130834667
153.60888286303052 344.7005653198122 36.1393256352902
138.93853204674963 322.4032539296318 23.606708669905878
138.85683261952076 324.0215058483464 18.74140999841062
134.4320091767661 318.6717784844134 26.260005735028432
135.5408453487539 344.79250020342556 16.656867875529294
145.36955175771837 342.84280123367193 45.57297221082852
133.4731295858077 318.3578478119279 30.16073163844009
153.23350182992365 343.6165256899129 39.59733262673763
150.34253914005464 338.0480912686392 41.92464952859777
147.72687836500313 341.90734548480754 46.599528700413124
132.67496010718094 319.0724122384848 26.735870477943337
137.29700063219065 321.19356951764786 22.854435180416626
142.56956238675644 323.92775756375386 27.255299399645775
151.66499598589937 339.3822028556882 43.640140159992164
141.58988140461443 323.1927831454705 26.305154317063703
151.52972519109255 346.04224935427595 42.55910420095886
152.6042425642964 343.3946182741837 42.45853671158641
131.87465390711196 320.0819202927414 29.00494533925722
140.14781617138163 321.9863096783514 38.620255441322456
133.41181926476386 341.98797900074993 30.491351522761285
131.92175025358767 329.54622317567464 26.552809292566426
136.54129598407138 319.1231075816439 27.666909567005092
139.66680433019738 331.01140470948474 42.782416135266615
134.12256748599862 336.19105592493105 41.85951569071769
144.91269226753198 351.8931324201488 39.949125529162245
132.91534885405855 336.1479063548412 38.70840833441844
140.84245310409634 323.4093524633755 23.057064884243257
138.70803150148163 329.90241997207124 43.07920193473918
139.1133898904266 321.65370370673577 34.19785337244209
133.25964435638693 339.8463228475767 33.07370803447723
132.56425774895007 338.9481697563591 29.80272132341815
141.55434259215747 324.6099108749696 40.81963767451014
132.19526686717793 331.85018640271966 26.43966893477703
138.52571846608055 324.0432633610381 41.39293561347768
140.38133525736532 322.78322214080026 41.07829119723747
133.02698901695166 333.78428724739547 21.331276372590963
132.5808945089941 333.7821806138436 23.84043711632982
151.922617615733 346.32302943183043 39.67851129700109
134.8750195225626 318.33659482652774 28.019201952139955
132.16041250306745 330.6998579279131 25.524626163586976
131.33203739176454 327.2291976045413 26.283803671767643
134.34754716585476 327.53287149552926 40.55939151817901
140.8328649916622 340.87844581117344 43.39430425024949
153.126497433328 345.284057478582 37.50897588939328
146.95806477016217 333.3508147649002 39.8721036161521
136.20656459199495 327.04457633096905 40.453594056815554
136.76560489648367 324.63065869167383 39.89225336786737
131.90836941401855 328.2947731591225 38.58620930384008
131.13520598838772 323.9723852364413 34.369489870680894
132.88685601260948 320.630451827165 36.22961550665279
130.65895158378788 323.88143479150807 30.21283738788794
130.91932067970265 322.11632618611725 30.50692254495683
131.22030794469876 324.4317569055491 24.189329496676123
137.32375343633177 354.5095659094874 33.33702586576197
135.4120187848535 319.0430338332491 31.181241189690724
152.12629459859383 347.32520034866656 37.10780242028906
131.8950675533916 320.3794844761617 24.256845630577683
135.83174553563526 345.48510665215036 33.3161155662049
131.45603075312604 324.91188638633736 36.28796430842241
131.02176630530434 326.50634013428026 31.785862670624322
131.30719183686315 329.71227209056684 33.45312953976132
137.92360951400875 320.10420756196766 27.464235157938287
131.35792808949026 329.59215006563585 31.901337020110173
130.80902461266248 325.6351172124906 29.836788510147375
140.17692750024716 322.75189101850674 25.430763457966776
138.62292620131578 320.91543246906514 32.5289585254485
131.20787649444523 321.40369560576363 26.831734784180284
139.1919517333518 351.5001445833803 43.56502222314604
142.8258005984757 328.54455252103185 41.89671657140361
152.04382320461494 347.7254965180588 35.154058743360274
133.71954862858163 320.18664951302577 23.792410270096983
132.51347139589382 330.14326089738984 38.47794015710623
134.06979784056747 344.35124663571787 25.81072239972397
152.61610144133866 347.1797825540476 33.29075024355932
132.92168860211623 327.2618942258993 39.8205759591019
134.39114387817767 321.7825179960746 37.72077002372151
135.36189831387534 328.9286032037584 41.345646144883766
134.40694784096914 330.9440654119663 41.629829790586676
134.22705529321271 325.55916758722753 39.64799004492439
138.11778407589512 321.96296887915486 37.667105895467635
134.64222750343933 345.0634895937646 22.30505458772744
146.0837905282402 328.48973406175264 36.40244174823447
143.23944493851562 325.6981930406196 24.55326275116032
142.63811168275237 325.4767192554562 22.689221287839686
133.93407988847557 344.04581557779204 28.070822991320593
140.01376768359808 354.9479342104719 39.38639188265739
141.28854032495906 335.24062714325487 43.89371320361603
133.1603806201831 342.3105159061565 25.07723472547643
138.8418728778103 322.80370353198424 21.32248463293571
142.70540705313246 325.99976502987676 20.218490100501494
140.49848329295645 332.25581811740165 42.26536353630271
145.31759839202158 349.3974172441726 42.89058201084653
133.20146071000985 339.3635322846719 36.49850692871469
132.6467503323874 338.7897684159126 34.541126214146196
153.51025127088494 345.92575137232296 31.77225909387226
136.47053380545964 322.49047630286026 38.648292293489234
133.31925663759816 329.08825237731736 19.47294760135502
132.16637542224984 336.92317351878586 33.9977853094389
131.93214708180153 336.6848699302883 32.32021135018051
133.5033857654889 338.75969427060255 40.08676181821001
153.88122867300018 344.02745985128513 34.670799087213815
153.84986774715097 343.2873889344107 36.96341818499707
134.08498819264017 339.9691873687873 38.4843331358094
132.2591940423449 325.3094654966573 20.08934624245825
141.76158187851692 355.310455270014 35.60036697901792
135.3417371546646 349.4336435000226 37.102862814192434
140.77999300424332 353.4492453535847 26.34488227262638
132.08710256104456 335.32403333298214 35.27841838219531
154.2612763135042 342.4093493546814 33.10176805097652
140.19261503824953 336.4104510825911 43.724588802083076
141.71972350564542 322.6018670735776 36.97883950207679
154.17044708889253 341.8160082111754 35.13384696592078
136.0603293611542 347.1908168900596 29.95284813590292
135.18870325323897 345.4556523495859 29.507293922639988
153.58847386137904 340.94180595307625 39.529705158463976
131.6534082978827 329.4793782037031 29.009630494515896
134.62165217915106 345.2625449395345 24.117664694561586
152.3693900763211 338.50651601678743 40.39762899136993
132.31895218320332 334.1519503721797 26.176022862641915
136.08188921383453 346.59852313969037 34.993115164631845
143.0220781252821 339.4807284550137 43.76784652493405
132.7423373389985 339.3647091216121 31.35469917836314
133.16470766152432 341.98553444345356 28.6432021174907
135.85157974708804 346.46560569860105 19.29745980093301
138.9088399233112 337.7132298221042 44.888860740809875
131.94370012076755 322.6176049261946 21.083416772336644
135.74253759152398 347.5379119957607 33.16631795946783
142.99675114660548 354.4875479407746 32.27989727935596
136.2766458848425 347.09284331324943 27.955434811090814
135.80516210567748 347.5175805875295 36.587865945312736
132.93771775384485 322.12513196934833 37.000638979047764
137.1847494858367 333.77868977073666 43.74771566300051
152.2135334527172 338.73564160090956 42.1827087713815
148.13714109271208 344.38524363237025 46.46829291833326
132.6964314304541 337.2991372224006 35.97401145633067
141.887055844357 350.9646994661711 23.21733432950008
136.9264548576104 349.53930218544997 25.227745803424284
136.94238327835035 347.48659287977546 22.348055534872692
134.92411885174968 344.87058850315447 20.243903809069575
134.11566506321356 342.7105612860127 31.890144363871013
135.57509012811462 348.2866861200233 31.292434842145898
144.93680730893408 328.92652377957194 39.637076306782234
131.33868332940074 322.8203442243212 23.622063138427055
135.16785719350915 344.43510576696747 31.639184888773773
147.77320410713534 350.62689288562814 25.544653148120503
132.7168999971208 332.00378988916503 39.94150414638097
132.53842303945765 336.7495194781366 25.63675913167402
138.9336475357383 342.08173532861093 42.54609993751527
136.2170225230598 348.58591507367834 40.606414382794355
132.59075650687572 328.81857320834433 21.86808724003598
131.802155971701 335.1130326123082 33.082917737967094
132.70579166100583 339.6530535892624 28.154097935733283
137.93980711388318 344.5643297858405 42.41421562692006
153.84444192197194 341.0807880909439 37.17790815244525
131.4434689120018 329.55435186457936 36.89468786368682
151.50969391980726 342.7160949631825 7.084900059080208
132.34072091369939 319.966884960246 34.08043710860739
143.8860350757071 327.26841100505607 18.573146797910727
132.35358476808494 333.651740374965 36.77601289216472
132.27967520779424 337.49085264474206 30.763797136137214
143.08721860036277 330.3438072421961 42.08692126110308
144.1821205132355 353.3796967223694 32.76995212229102
131.0467129505538 328.1592299705145 32.714930112093995
143.80489801273487 335.26283588308445 43.18121140884399
150.50195765809912 342.83352374800967 5.742131742777813
133.27296087728726 341.0525338439227 31.742803480134597
152.56558712897902 344.95396516556127 41.12387075160812
137.6498139048231 321.60085711482327 35.66029455666063
132.12239694544763 333.08131185793997 34.311258048800376
138.7394983582143 339.76523248853573 43.73718490708356
135.71598450235555 346.3790673217529 23.34276625433053
137.01875510819457 351.8271251950137 26.545348939159037
131.77845216349783 330.8645062783426 35.057485790442655
133.89488056197467 340.3462399324612 34.82094862045585
144.88924676173204 344.5458522801699 4.745228949855803
135.776715132321 351.3278496111548 29.160097632279687
134.43149142116326 338.2381936010132 42.19244784649278
145.31184121628303 330.91808964473387 40.874662621263695
143.50652642774992 332.81238943942833 42.435510360400905
145.73155008216207 330.6200035819556 14.399719733156807
136.7666433987298 344.7040698230436 39.55712477406173
131.05981190399143 325.9370342234015 27.369487017885284
131.19154065812037 328.6481732601765 34.80616256825654
133.22304823546995 332.2887404999075 18.017725027399806
137.37612497200138 320.73578206578185 33.76783540158757
149.04625877934103 344.2824868638982 5.99767024176487
136.09468596580035 347.5734825122363 38.8430372452371
144.24632388426 328.2173420601501 15.721242159722019
142.20103920717253 353.26275713640297 27.68105061664781
136.21336103947456 341.32782768820164 40.58834176286032
134.96493792545303 323.62233586072057 38.76882763909696
133.5550661029923 329.311715411596 39.95880013402431
133.54726676369512 320.94795429968923 22.43036768419422
147.63730554501814 335.5188790344418 40.3167874874149
132.64862092000507 331.46485141289844 24.200927386896225
154.0940595682782 344.2323618908194 32.44194142307869
135.06232904753176 318.9969297357562 29.664727463613282
146.98913233528498 344.246373558702 4.652171373744012
132.871559440578 340.2516434747448 24.872354064998287
132.44235009332752 337.92814844734625 26.87210136304285
138.03714797917567 336.04061057452066 43.54828002433117
150.83162005153693 337.34737430170287 40.29613435038056
136.74340222983625 322.031926556545 20.753572499574286
146.11031074807812 328.7961593817906 18.16306369786345
131.6074807016285 326.4924376113633 21.33177132360422
142.00989209658673 323.29777482026526 39.24816195008392
146.7550904688538 351.453584315283 31.925274994858054
141.24646946428828 350.6586192787796 43.87145684194281
135.36179931782695 319.9476471129528 23.51694391240466
134.24723319540556 341.4513074688654 33.328990522016056
133.84186384095838 334.3132312979959 41.33071377271366
136.73521659319528 332.16755419752275 43.77885684021752
143.2952115334024 349.73998787109844 43.70499838130612
133.59330940375688 323.5250346965193 19.450794564672407
137.08824593294705 320.16003027254965 31.766074243405065
134.18600952043306 343.42705969698955 30.03586929026501
131.34274894208232 327.2709286278966 36.550661872541745
135.65370124691003 346.2756571957309 25.590652428997554
143.6334425828596 329.3343232826573 12.838690855705865
133.00669251472547 323.7226930904211 37.80666140786525
153.2269960475622 346.090113822727 35.371622045993995
138.05090199320642 321.08883405714 25.19274370750307
131.99242656697447 333.18388562337907 31.438091932225632
147.2327962686923 348.74192471843793 42.20347604665946
131.2193791307562 328.185646846988 30.24998084971048
136.89114042014216 320.12339342396615 24.229127345834023
144.03635642201297 337.99379808569853 43.21891857755178
143.40657852544118 325.5767876889295 35.96482709032395
131.22060861394723 322.06725420366075 25.091657124826042
132.9938312863584 337.74884077304205 38.23262787351167
135.5363619405439 328.36117639615645 14.203343426396422
145.9875762666804 335.37513840588156 41.876500149959604
136.0917182470826 344.76512430453164 35.01849404025673
149.3510536704943 347.246842986494 43.24399230108838
139.77179674692474 326.49191143108516 14.097425424400917
131.74239175081465 322.54010307578193 35.897269163631684
146.1265680366945 340.68819595747993 45.3152304280284
133.7396881998723 343.6881667614242 23.552083277552036
133.2163130225602 341.3371012558239 22.77207207310303
134.04164288956198 319.469987873246 25.00236493554144
140.79131988001356 328.2374207894976 12.982467796859414
142.398529516271 331.8567402445046 42.04068879423571
142.57172777065065 336.68115517014814 43.480795812067456
144.40799269718696 352.81330979141774 38.16460519348474
147.54762436507372 331.8131460179286 36.96304884853725
144.36063956050543 329.72441433343675 40.85017257067118
135.23316573961947 349.8295728017876 32.95088762807203
132.10865622001776 326.02972068922617 38.37981492954756
140.43943109009984 348.87895854720904 44.51118151491875
135.2672792745418 341.5860805297331 34.854574982070105
141.05091507429734 324.36726616566034 20.610701253224697
143.4347993551589 332.9102302343536 9.487808000438807
137.44128337097513 328.4782296784197 41.91846043125122
145.4223952329469 327.9217243829162 22.61003713388973
153.719350135558 345.5991367001237 33.5274303083167
132.5716378355644 332.94161408278205 38.25836577877843
143.54798907093243 344.84571302328936 45.368298065989094
139.85023143325202 329.8530415348471 12.107556224800744
143.47248360289342 351.3553516822171 42.32348792155603
135.8419058791777 343.10954828843234 36.249103814678584
139.39767891049857 321.3690504457465 26.80345542317671
145.8796336433152 332.4007166655967 40.53005077279592
132.35556865157744 335.81447711329645 37.37991786678215
141.53460150644216 327.4251387559754 43.142659595465275
133.38160714146736 342.7842045930407 26.852940279853843
133.32374631816813 336.5717815874383 40.27693984485821
143.9329290084641 331.5313660027544 10.802879160676381
144.12092154681852 326.4985308467293 28.466769921297505
146.15846495210144 351.5453593802108 36.33359217026827
140.37791260058208 325.0995135834051 42.915977733105244
140.70873977393757 338.4873187878393 43.80392901373236
143.93524155753258 351.7224860738707 26.317231396743317
146.08854374187632 332.68878636762344 12.270409990999708
137.8866990417631 320.8485555131007 28.958615555453036
142.96781287055842 324.4214162127782 37.48720793115827
132.6507425799698 339.46861846576564 26.336456272799687
136.40125545666268 320.8444881967189 37.195885909788586
143.74588179235033 327.691373914585 39.860606731768335
141.19819954129846 329.9751554688951 43.288704228794174
142.6401438684975 323.1392810642263 33.045794587972075
144.89243252783456 333.95576201418817 42.361117196558666
132.9375211844213 341.0878767698475 26.656276079780152
142.22287811672632 323.4480869583656 29.32170933351413
137.42619620808358 326.5971400653558 14.423090170671012
144.08037076917435 326.06183504194877 32.02013350528871
142.16395241663335 326.45350215701836 41.36422235531871
137.86435649628493 326.0751539508592 41.94165455380386
144.255258735602 331.68512765787585 41.69175319317395
133.33645996563243 340.41161058032685 30.00756614151022
131.97708449470062 319.9956449487562 31.664825880432126
136.24239501973994 319.1029353214031 25.756571282245925
136.26770112059873 330.3402449016789 43.42815579058588
141.81215229214396 325.34672904797293 17.88559538208794
145.09268930181284 330.8350661372118 12.40067437082279
148.0206847855536 345.8037495794006 45.83688508558758
145.34205909051894 340.97638842498765 3.8641636534922945
133.42271944450198 341.39415065928966 20.229948891369702
133.792166944885 318.88475329727856 32.649710480911935
146.86961838045426 330.08432097823965 37.12357664824818
138.26629638552083 332.02120237077276 42.767294148405526
131.69533602963295 331.1878194795246 32.75374757997689
145.38360036040532 328.2671895039615 38.08092284246724
135.7520937986148 319.6114536837633 33.274686323234306
133.96360373938873 325.3370155643375 17.923932673497884
135.34373797389722 335.63880928141697 43.31969982997741
146.93910741648418 350.36176753438065 40.85867615775987
138.36626643136572 322.90190536522624 39.606388255754595
131.18907278005972 327.01623641144334 28.78119451902567
144.79426124189183 327.27920489095646 35.61755343035114
135.05866632380256 345.4202638694579 27.38470912935241
132.28524881849668 331.62502788058964 37.31874344479932
146.5520512356826 328.61952915960927 32.70864161565839
136.24679420724337 349.4417995521267 27.35565410990183
143.40513083121076 325.5946719805093 33.701300028049225
141.65513710191672 326.9755111637168 15.413326688110722
132.04434326263126 336.12398704567454 29.415515161233206
131.16786362294314 321.90100410676234 33.41582625886122
136.76244354697118 319.56430990494715 29.412981591980916
146.4118827829217 351.13475066274566 39.136409662319736
138.88499049333072 327.3205014697816 13.005140674657147
POLYGONS 1700 6800
3 687 0 12
3 4 15 0
3 4 0 687
3 6 3 2
3 6 2 1
3 706 729 5
3 8 717 27
3 12 13 11
3 0 14 13
3 0 13 12
3 15 14 0
3 5 16 21
3 827 17 16
3 19 10 18
3 1 2 18
3 18 2 19
3 2 3 19
3 7 20 15
3 21 46 22
3 51 24 23
3 706 23 24
3 706 24 729
3 27 61 8
3 93 61 27
3 8 61 4
3 7 9 60
3 4 61 9
3 28 29 62
3 29 28 32
3 29 32 514
3 31 32 28
3 32 31 17
3 17 514 32
3 30 10 44
3 36 34 35
3 44 35 34
3 35 37 36
3 35 13 37
3 13 14 37
3 38 37 14
3 14 20 38
3 14 15 20
3 39 38 20
3 41 42 40
3 43 31 42
3 43 42 41
3 16 41 21
3 41 16 43
3 17 31 43
3 16 17 43
3 10 19 44
3 11 44 19
3 20 45 39
3 45 20 7
3 46 41 40
3 46 40 47
3 46 49 22
3 46 21 41
3 7 59 45
3 45 56 48
3 45 59 56
3 49 50 22
3 22 50 23
3 23 50 51
3 52 50 49
3 53 51 50
3 53 50 52
3 54 55 53
3 51 55 25
3 57 58 55
3 57 55 54
3 25 55 58
3 25 58 26
3 91 58 57
3 26 58 27
3 91 93 58
3 27 58 93
3 95 56 59
3 93 94 61
3 60 95 59
3 60 59 7
3 61 94 9
3 60 9 94
3 62 97 63
3 62 63 28
3 31 28 65
3 33 67 66
3 33 34 67
3 68 67 36
3 67 34 36
3 70 68 69
3 36 69 68
3 36 37 69
3 71 70 38
3 69 38 70
3 69 37 38
3 71 39 72
3 71 38 39
3 73 74 75
3 42 76 40
3 65 64 74
3 65 74 73
3 31 65 73
3 42 31 73
3 77 72 39
3 39 45 77
3 77 45 48
3 75 78 76
3 78 40 76
3 40 78 47
3 79 78 118
3 79 118 119
3 79 47 78
3 47 79 49
3 81 82 119
3 56 80 48
3 122 83 81
3 49 83 52
3 84 85 122
3 83 122 85
3 52 83 85
3 52 85 53
3 86 87 84
3 85 84 87
3 53 85 87
3 53 87 54
3 87 86 54
3 56 132 80
3 88 89 125
3 54 89 57
3 57 89 91
3 90 91 89
3 90 89 88
3 56 95 132
3 92 93 91
3 92 91 90
3 131 94 92
3 93 92 94
3 94 131 60
3 96 97 133
3 97 96 99
3 97 99 63
3 98 99 96
3 64 99 98
3 63 99 64
3 102 100 101
3 66 101 100
3 66 67 101
3 104 102 103
3 101 103 102
3 101 67 68
3 101 68 103
3 106 104 105
3 103 105 104
3 103 68 70
3 103 70 105
3 108 106 107
3 105 107 106
3 105 70 71
3 105 71 107
3 109 108 72
3 107 72 108
3 107 71 72
3 74 111 75
3 98 110 64
3 64 110 74
3 72 112 109
3 72 77 112
3 146 112 117
3 112 77 117
3 117 77 48
3 114 115 116
3 142 115 111
3 75 114 78
3 117 80 113
3 117 48 80
3 119 118 116
3 119 152 81
3 80 132 127
3 120 81 152
3 121 122 120
3 81 120 122
3 122 121 84
3 84 121 123
3 84 123 86
3 124 125 123
3 124 123 159
3 86 123 125
3 161 126 124
3 125 124 126
3 125 126 88
3 164 128 126
3 164 126 161
3 88 126 128
3 88 128 90
3 129 130 128
3 129 128 164
3 90 128 130
3 90 130 92
3 169 130 129
3 92 130 131
3 169 131 130
3 131 169 95
3 131 95 60
3 95 167 132
3 135 136 134
3 96 134 136
3 96 136 98
3 100 138 137
3 100 102 138
3 138 102 104
3 138 104 139
3 139 104 106
3 139 106 140
3 140 106 108
3 176 108 109
3 142 143 141
3 144 145 143
3 144 143 142
3 142 110 144
3 135 145 136
3 98 144 110
3 109 112 146
3 115 148 116
3 142 141 115
3 113 127 147
3 113 147 146
3 113 80 127
3 149 148 195
3 116 148 150
3 116 150 119
3 148 149 150
3 151 150 149
3 150 151 152
3 150 152 119
3 152 426 120
3 155 156 154
3 426 154 156
3 120 426 156
3 120 156 121
3 157 158 155
3 156 155 158
3 121 156 158
3 442 159 157
3 158 157 159
3 127 216 153
3 159 442 160
3 124 159 160
3 124 160 161
3 210 161 160
3 211 162 210
3 161 162 164
3 163 164 162
3 163 162 211
3 215 165 163
3 164 163 165
3 129 164 165
3 129 165 169
3 217 167 166
3 168 169 165
3 168 165 215
3 166 167 168
3 169 168 167
3 169 167 95
3 127 132 217
3 167 217 132
3 179 171 170
3 170 137 172
3 170 172 179
3 176 175 173
3 178 177 189
3 135 178 189
3 137 138 172
3 181 179 180
3 172 180 179
3 172 138 139
3 172 139 180
3 180 182 181
3 180 139 140
3 180 140 182
3 173 182 174
3 174 182 140
3 183 184 175
3 183 175 176
3 176 109 183
3 185 183 146
3 183 109 146
3 186 187 188
3 143 193 141
3 189 187 186
3 143 145 186
3 186 145 189
3 135 189 145
3 190 191 185
3 146 190 185
3 190 192 191
3 190 146 147
3 190 147 192
3 194 193 188
3 141 193 195
3 193 194 195
3 147 153 192
3 147 127 153
3 196 195 194
3 195 197 149
3 195 196 197
3 149 197 151
3 201 202 199
3 154 200 202
3 154 202 155
3 203 204 201
3 202 201 204
3 155 202 204
3 155 204 157
3 254 205 203
3 204 203 205
3 157 204 205
3 157 205 442
3 216 212 153
3 206 205 254
3 207 208 206
3 442 208 160
3 209 210 208
3 209 208 207
3 160 208 210
3 257 211 209
3 210 209 211
3 213 211 257
3 211 213 163
3 163 213 215
3 217 166 214
3 259 215 213
3 215 259 166
3 168 215 166
3 214 166 259
3 216 217 214
3 217 216 127
3 222 219 171
3 171 179 222
3 175 223 173
3 222 179 228
3 222 228 227
3 229 228 181
3 228 179 181
3 231 229 230
3 181 230 229
3 181 182 230
3 173 230 182
3 175 184 224
3 234 232 233
3 184 233 232
3 184 183 185
3 184 185 233
3 233 238 234
3 233 185 191
3 233 191 238
3 187 241 188
3 225 236 226
3 240 238 239
3 238 191 239
3 243 240 239
3 239 191 192
3 242 241 237
3 188 241 244
3 188 244 194
3 241 242 244
3 212 243 239
3 192 212 239
3 192 153 212
3 245 244 242
3 194 244 246
3 194 246 196
3 244 245 246
3 196 246 828
3 251 252 249
3 201 250 252
3 201 252 203
3 252 251 254
3 203 252 254
3 206 255 207
3 207 255 256
3 207 256 209
3 209 256 295
3 209 295 257
3 243 212 298
3 243 298 285
3 341 258 295
3 257 295 258
3 213 257 258
3 213 258 259
3 297 260 299
3 299 260 214
3 299 259 258
3 299 258 341
3 259 299 214
3 298 260 297
3 214 260 216
3 260 298 212
3 216 260 212
3 262 264 263
3 262 305 264
3 265 266 220
3 268 222 227
3 268 227 272
3 268 305 219
3 219 222 268
3 224 269 223
3 220 266 271
3 220 271 225
3 274 272 273
3 227 273 272
3 227 228 273
3 273 275 274
3 273 228 229
3 273 229 275
3 276 275 231
3 275 229 231
3 269 277 276
3 269 224 232
3 224 184 232
3 278 234 318
3 278 232 234
3 234 238 281
3 281 240 282
3 281 238 240
3 240 285 282
3 240 243 285
3 237 283 286
3 237 286 242
3 286 287 288
3 245 288 770
3 249 292 251
3 294 293 676
3 255 294 256
3 295 296 341
3 298 297 340
3 263 264 303
3 264 304 303
3 305 267 304
3 304 308 303
3 309 308 310
3 304 267 310
3 304 310 308
3 310 267 272
3 312 309 310
3 272 312 310
3 313 312 274
3 312 272 274
3 315 313 314
3 274 314 313
3 274 275 314
3 314 316 315
3 314 275 276
3 314 276 316
3 317 316 277
3 316 276 277
3 319 317 318
3 277 318 317
3 277 278 318
3 320 319 318
3 270 321 280
3 281 282 320
3 281 320 318
3 234 281 318
3 280 321 322
3 321 754 322
3 370 282 285
3 323 322 754
3 330 693 331
3 366 333 331
3 332 330 331
3 332 331 333
3 332 333 293
3 334 335 366
3 333 366 335
3 293 333 335
3 293 335 676
3 334 336 335
3 368 336 334
3 676 336 296
3 337 296 336
3 337 336 368
3 338 339 337
3 296 337 339
3 340 297 338
3 339 338 297
3 341 296 339
3 341 339 299
3 297 299 339
3 298 340 285
3 343 302 344
3 344 303 345
3 344 345 372
3 345 346 347
3 345 303 308
3 345 308 346
3 346 348 347
3 346 308 309
3 346 309 348
3 309 350 348
3 309 312 350
3 350 312 313
3 350 313 351
3 352 351 315
3 351 313 315
3 354 352 353
3 315 353 352
3 315 316 353
3 353 316 317
3 353 317 354
3 355 354 319
3 354 317 319
3 355 319 320
3 355 320 356
3 320 282 356
3 357 356 282
3 370 369 357
3 370 357 282
3 363 364 800
3 693 362 364
3 693 364 331
3 365 364 363
3 399 367 365
3 366 365 367
3 366 367 334
3 401 334 367
3 401 367 399
3 403 368 401
3 334 401 368
3 405 368 403
3 337 368 405
3 337 405 338
3 338 405 406
3 338 406 340
3 340 406 369
3 340 369 285
3 285 369 370
3 347 413 374
3 376 375 413
3 376 413 347
3 376 347 348
3 378 379 375
3 378 375 376
3 348 378 376
3 348 350 378
3 381 379 380
3 378 380 379
3 378 350 351
3 378 351 380
3 383 381 382
3 380 382 381
3 380 351 352
3 380 352 382
3 382 384 383
3 382 352 354
3 382 354 384
3 384 354 355
3 384 355 385
3 385 355 356
3 800 396 363
3 445 397 396
3 363 396 397
3 363 397 365
3 365 397 399
3 605 400 398
3 399 398 400
3 402 403 400
3 402 400 605
3 401 399 400
3 401 400 403
3 403 402 404
3 405 403 404
3 369 406 404
3 405 404 406
3 416 375 420
3 416 420 419
3 375 379 420
3 420 379 381
3 420 381 422
3 381 383 422
3 384 385 423
3 423 427 384
3 385 356 429
3 429 356 357
3 443 444 396
3 444 569 587
3 396 444 445
3 445 444 587
3 445 587 601
3 445 601 398
3 398 601 605
3 402 605 626
3 402 626 404
3 404 626 446
3 404 446 369
3 416 454 415
3 420 422 464
3 464 478 419
3 464 422 488
3 422 427 488
3 569 575 587
3 632 786 752
3 601 587 752
3 601 752 605
3 605 752 786
3 626 786 727
3 626 727 446
3 427 685 488
3 446 357 369
3 696 687 12
3 12 3 696
3 1 5 729
3 11 19 3
3 3 12 11
3 22 23 21
3 35 44 11
3 11 13 35
3 46 47 49
3 51 53 55
3 65 28 63
3 63 64 65
3 73 75 76
3 76 42 73
3 79 119 82
3 82 49 79
3 82 81 83
3 83 49 82
3 86 125 89
3 89 54 86
3 110 142 111
3 111 74 110
3 114 116 118
3 118 78 114
3 114 75 111
3 111 115 114
3 174 140 108
3 108 176 174
3 144 98 136
3 136 145 144
3 141 195 148
3 148 115 141
3 152 151 426
3 161 210 162
3 176 173 174
3 186 188 193
3 193 143 186
3 223 175 224
3 230 173 223
3 223 231 230
3 241 187 235
3 235 177 226
3 226 236 235
3 268 272 267
3 267 305 268
3 231 223 269
3 269 276 231
3 321 270 311
3 311 754 321
3 413 375 416
3 422 383 427
3 383 384 427
3 454 416 419
3 419 420 464
3 454 419 478
3 446 727 429
3 429 357 446
3 488 649 464
3 427 423 643
3 643 685 427
3 423 385 640
3 640 643 423
3 385 429 640
3 640 429 727
3 6 1 729
3 6 696 3
3 9 15 4
3 9 7 15
3 717 6 729
3 696 6 717
3 687 696 8
3 8 696 717
3 4 687 8
3 646 649 488
3 646 488 685
3 632 633 643
3 643 633 685
3 640 632 643
3 727 632 640
3 727 786 632
3 34 33 30
3 30 44 34
3 113 146 117
3 305 304 264
3 335 336 676
3 398 399 397
3 397 445 398
3 296 295 676
3 575 752 587
3 278 277 269
3 269 232 278
3 626 605 786
3 828 246 245
3 720 803 253
3 803 293 294
3 769 247 770
3 813 796 619
3 619 769 770
3 5 21 706
3 706 21 23
3 24 26 729
3 729 26 717
3 800 775 850
3 362 800 364
3 362 775 800
3 51 25 24
3 25 26 24
3 366 738 365
3 365 738 364
3 366 331 738
3 738 331 364
3 5 827 16
3 5 1 827
3 330 332 720
3 359 390 712
3 717 26 27
3 391 393 684
3 121 158 123
3 123 158 159
3 292 253 251
3 360 712 718
3 718 712 393
3 18 827 1
3 18 17 827
3 703 707 425
3 292 249 703
3 253 803 255
3 255 803 294
3 295 256 676
3 676 256 294
3 245 770 828
3 828 770 247
3 250 669 248
3 669 199 512
3 248 668 250
3 668 703 249
3 255 667 253
3 255 206 667
3 667 206 254
3 293 803 332
3 332 803 720
3 290 668 248
3 360 764 791
3 791 764 325
3 764 589 325
3 289 707 844
3 844 707 703
3 718 661 360
3 718 637 661
3 661 637 434
3 796 813 654
3 841 645 660
3 791 325 781
3 253 667 251
3 251 667 254
3 198 655 200
3 655 512 199
3 290 248 749
3 248 702 749
3 360 661 651
3 651 661 434
3 749 702 648
3 502 644 645
3 644 672 289
3 747 671 675
3 675 671 325
3 841 660 749
3 749 660 290
3 248 669 702
3 702 669 512
3 290 844 668
3 668 844 703
3 604 619 796
3 604 769 619
3 648 769 604
3 675 645 747
3 247 612 670
3 612 648 702
3 796 616 604
3 645 841 616
3 616 841 604
3 660 645 644
3 644 289 660
3 749 604 841
3 749 648 604
3 502 645 675
3 747 645 616
3 675 589 502
3 589 658 502
3 394 637 718
3 325 589 675
3 512 655 670
3 670 655 198
3 390 684 712
3 712 684 393
3 199 669 201
3 201 669 250
3 200 536 198
3 198 536 197
3 200 151 536
3 536 151 197
3 828 525 196
3 525 670 198
3 17 18 514
3 670 612 512
3 512 612 702
3 672 502 658
3 672 644 502
3 670 525 247
3 247 525 828
3 648 612 769
3 769 612 247
3 196 525 197
3 197 525 198
3 10 30 514
3 514 18 10
3 206 442 205
3 206 208 442
3 707 436 327
3 672 778 436
3 637 435 434
3 434 435 778
3 252 250 249
3 250 668 249
3 800 850 396
3 396 850 443
3 672 658 778
3 658 434 778
3 778 327 436
3 391 684 431
3 200 655 202
3 202 655 199
3 443 755 428
3 151 200 426
3 426 200 154
3 329 291 425
3 791 421 360
3 360 421 712
3 791 359 421
3 421 359 712
3 672 436 289
3 289 436 707
3 537 788 433
3 788 439 438
3 589 651 658
3 658 651 434
3 755 410 440
3 410 744 439
3 764 360 651
3 651 589 764
3 29 514 30
3 178 447 177
3 414 408 815
3 408 447 178
3 66 407 33
3 62 29 407
3 100 804 66
3 29 30 33
3 33 407 29
3 133 97 798
3 407 66 804
3 804 798 407
3 137 804 100
3 750 772 133
3 219 735 171
3 170 711 137
3 711 804 137
3 170 171 735
3 133 798 750
3 711 719 750
3 290 660 844
3 844 660 289
3 347 843 345
3 345 843 372
3 347 374 843
3 843 374 372
3 374 840 372
3 840 845 372
3 414 409 835
3 373 840 833
3 413 830 374
3 415 412 830
3 830 412 833
3 372 816 344
3 344 816 343
3 372 845 816
3 816 845 343
3 814 302 343
3 343 845 811
3 833 809 373
3 818 801 377
3 303 799 263
3 263 799 302
3 303 344 799
3 799 344 302
3 600 795 817
3 600 810 795
3 795 810 377
3 415 793 412
3 569 428 547
3 302 544 263
3 544 261 263
3 831 622 424
3 424 622 418
3 262 785 305
3 305 785 219
3 262 218 785
3 785 218 219
3 443 428 444
3 444 428 569
3 823 559 831
3 377 810 559
3 415 776 416
3 416 776 413
3 415 830 776
3 776 830 413
3 817 526 809
3 809 526 373
3 471 763 475
3 475 763 417
3 471 812 763
3 763 812 417
3 836 742 387
3 742 797 358
3 836 732 430
3 388 721 359
3 359 721 390
3 388 389 721
3 721 389 390
3 418 710 812
3 812 710 819
3 418 773 710
3 710 773 819
3 819 709 793
3 793 709 412
3 819 777 709
3 709 777 412
3 306 713 266
3 306 301 713
3 311 832 754
3 389 708 430
3 389 388 708
3 430 701 389
3 433 574 652
3 433 432 574
3 471 695 812
3 812 695 418
3 471 774 695
3 695 774 418
3 690 639 700
3 819 692 777
3 777 692 600
3 819 773 692
3 430 708 836
3 322 323 847
3 683 731 324
3 682 700 639
3 221 681 226
3 226 681 225
3 221 220 681
3 681 220 225
3 280 322 284
3 322 847 284
3 389 679 390
3 389 701 679
3 284 678 283
3 283 678 286
3 678 287 286
3 412 673 833
3 833 673 809
3 412 777 673
3 673 777 809
3 742 358 677
3 387 663 836
3 663 732 836
3 815 491 414
3 846 824 491
3 574 802 652
3 802 774 652
3 732 656 430
3 656 701 430
3 653 691 437
3 691 324 847
3 847 323 691
3 731 287 678
3 678 284 731
3 283 650 284
3 284 650 280
3 283 279 650
3 650 279 280
3 307 647 270
3 270 647 311
3 307 756 647
3 647 756 311
3 424 641 732
3 641 774 802
3 754 832 700
3 832 704 700
3 847 324 284
3 324 731 284
3 656 802 701
3 701 802 574
3 797 631 761
3 388 634 631
3 631 634 761
3 682 630 323
3 323 630 691
3 630 437 691
3 732 641 656
3 656 641 802
3 639 629 682
3 437 630 629
3 629 630 682
3 700 682 754
3 682 323 754
3 690 794 639
3 690 358 794
3 666 794 761
3 226 628 221
3 221 628 447
3 226 177 628
3 628 177 447
3 437 629 625
3 625 629 666
3 624 634 411
3 794 666 639
3 666 629 639
3 708 388 631
3 631 797 708
3 810 773 622
3 622 773 418
3 842 787 690
3 690 787 358
3 842 677 787
3 787 677 358
3 732 663 424
3 424 663 831
3 831 743 823
3 823 743 387
3 831 663 743
3 743 663 387
3 774 618 418
3 418 618 424
3 774 641 618
3 618 641 424
3 615 218 262
3 824 621 782
3 218 615 621
3 621 615 782
3 261 614 263
3 263 614 262
3 261 615 614
3 614 615 262
3 374 613 840
3 840 613 833
3 374 830 613
3 613 830 833
3 806 371 759
3 377 784 818
3 751 610 779
3 387 609 823
3 609 677 723
3 823 609 608
3 608 609 723
3 748 686 714
3 808 627 607
3 686 603 842
3 723 677 603
3 603 677 842
3 808 611 627
3 627 611 838
3 809 600 817
3 809 777 600
3 600 692 810
3 810 692 773
3 306 598 301
3 756 594 311
3 311 594 832
3 756 694 594
3 753 593 822
3 832 592 704
3 704 592 714
3 592 694 714
3 756 591 694
3 756 595 591
3 591 595 349
3 714 686 704
3 704 686 842
3 386 714 694
3 386 748 714
3 779 590 751
3 779 748 590
3 590 748 386
3 594 694 592
3 592 832 594
3 819 793 812
3 812 793 417
3 723 579 606
3 723 603 579
3 579 603 686
3 265 584 266
3 266 584 306
3 265 674 584
3 584 674 306
3 821 848 583
3 583 848 349
3 301 582 595
3 595 582 349
3 301 583 582
3 582 583 349
3 713 301 595
3 801 817 795
3 795 377 801
3 751 590 767
3 779 579 748
3 748 579 686
3 779 606 579
3 694 591 386
3 386 591 349
3 627 722 607
3 607 722 751
3 722 610 751
3 390 679 684
3 838 578 627
3 177 715 189
3 189 715 187
3 177 235 715
3 715 235 187
3 349 580 386
3 349 848 580
3 580 848 767
3 610 577 573
3 610 578 577
3 577 578 818
3 417 576 454
3 454 576 415
3 417 793 576
3 576 793 415
3 432 679 574
3 574 679 701
3 723 573 608
3 723 606 573
3 573 606 610
3 606 779 610
3 307 572 713
3 713 572 266
3 307 271 572
3 572 271 266
3 784 823 608
3 271 571 225
3 236 568 237
3 237 568 283
3 236 279 568
3 568 279 283
3 237 567 236
3 236 567 235
3 237 241 567
3 567 241 235
3 818 565 801
3 818 578 565
3 565 578 838
3 279 564 280
3 280 564 270
3 279 571 564
3 564 571 270
3 408 414 835
3 835 447 408
3 735 689 719
3 178 762 408
3 408 762 815
3 762 134 815
3 221 736 220
3 220 736 265
3 221 635 736
3 736 635 265
3 133 789 96
3 96 789 134
3 133 772 789
3 789 772 134
3 784 577 818
3 821 688 848
3 741 705 781
3 691 562 324
3 691 653 562
3 562 653 820
3 561 653 437
3 625 666 624
3 624 705 625
3 625 705 561
3 561 437 625
3 683 324 562
3 562 820 683
3 731 807 287
3 731 683 807
3 807 683 813
3 627 578 722
3 722 578 610
3 482 470 342
3 823 784 559
3 559 784 377
3 407 783 62
3 62 783 97
3 407 798 783
3 783 798 97
3 782 558 620
3 782 615 558
3 558 615 261
3 300 792 596
3 596 792 753
3 792 593 753
3 573 577 608
3 608 577 784
3 475 725 478
3 478 725 454
3 475 417 725
3 725 417 454
3 225 726 236
3 236 726 279
3 225 571 726
3 726 571 279
3 781 411 791
3 791 411 359
3 411 634 359
3 359 634 388
3 761 557 797
3 797 557 358
3 761 794 557
3 557 794 358
3 634 624 761
3 761 624 666
3 836 555 742
3 742 555 797
3 836 708 555
3 555 708 797
3 831 554 622
3 622 554 810
3 831 559 554
3 554 559 810
3 619 730 813
3 730 288 287
3 807 813 730
3 730 287 807
3 813 683 654
3 654 683 820
3 747 551 671
3 288 730 770
3 770 730 619
3 820 653 697
3 653 561 697
3 551 697 671
3 697 741 671
3 849 553 593
3 593 553 822
3 849 570 553
3 553 570 822
3 270 552 307
3 307 552 271
3 270 571 552
3 552 571 271
3 820 551 654
3 820 697 551
3 747 616 654
3 654 616 796
3 697 561 741
3 741 561 705
3 286 288 242
3 288 245 242
3 583 549 821
3 494 834 716
3 300 546 544
3 544 546 261
3 300 596 546
3 546 596 261
3 302 814 544
3 544 814 300
3 808 699 611
3 699 716 560
3 343 459 814
3 814 459 482
3 343 811 459
3 373 759 840
3 840 759 845
3 586 746 834
3 746 716 834
3 834 829 586
3 829 688 821
3 542 549 598
3 409 734 449
3 620 543 734
3 747 654 551
3 821 549 538
3 767 662 751
3 751 662 607
3 767 581 662
3 662 581 607
3 635 657 265
3 657 674 265
3 596 558 261
3 829 821 538
3 538 586 829
3 588 542 598
3 307 839 756
3 756 839 595
3 307 713 839
3 839 713 595
3 539 575 569
3 781 705 411
3 705 624 411
3 414 534 409
3 534 824 782
3 575 539 633
3 620 534 782
3 218 621 689
3 689 621 824
3 620 533 543
3 620 558 533
3 533 558 596
3 633 532 575
3 575 532 752
3 633 632 532
3 532 632 752
3 671 741 325
3 325 741 781
3 652 758 509
3 509 758 471
3 652 774 758
3 758 774 471
3 449 745 409
3 635 835 745
3 745 835 409
3 649 733 464
3 464 733 478
3 649 540 733
3 733 540 478
3 548 698 547
3 547 698 569
3 548 539 698
3 698 539 569
3 588 760 674
3 674 760 306
3 588 598 760
3 760 598 306
3 848 530 767
3 767 530 581
3 848 688 530
3 530 688 581
3 688 529 581
3 834 494 529
3 478 528 475
3 475 528 513
3 478 540 528
3 528 540 513
3 649 646 527
3 690 524 842
3 842 524 704
3 690 700 524
3 524 700 704
3 649 664 540
3 540 664 545
3 649 527 664
3 664 527 545
3 520 509 513
3 428 765 547
3 440 521 765
3 765 521 547
3 548 517 539
3 539 517 646
3 548 527 517
3 517 527 646
3 835 516 447
3 447 516 221
3 835 635 516
3 516 635 221
3 633 515 685
3 685 515 646
3 633 539 515
3 515 539 646
3 593 792 342
3 342 792 300
3 541 520 510
3 509 508 513
3 513 508 475
3 509 471 508
3 508 471 475
3 548 507 527
3 527 507 545
3 548 523 507
3 386 580 590
3 590 580 767
3 545 506 540
3 540 506 513
3 506 520 513
3 849 746 586
3 677 504 742
3 742 504 387
3 677 609 504
3 504 609 387
3 537 768 541
3 541 768 520
3 768 509 520
3 543 533 753
3 753 533 596
3 560 716 597
3 716 746 597
3 509 501 652
3 652 501 433
3 501 537 433
3 588 771 542
3 771 740 822
3 598 519 301
3 301 519 583
3 598 549 519
3 519 549 583
3 537 522 788
3 788 522 439
3 768 537 501
3 501 509 768
3 433 518 432
3 433 788 518
3 518 788 438
3 699 560 505
3 505 611 699
3 170 503 711
3 711 503 719
3 170 735 503
3 503 735 719
3 391 500 780
3 780 500 438
3 391 431 500
3 500 431 438
3 550 611 505
3 744 499 439
3 439 499 438
3 744 780 499
3 499 780 438
3 711 825 804
3 804 825 798
3 711 750 825
3 825 750 798
3 684 497 431
3 431 497 432
3 684 679 497
3 497 679 432
3 409 496 734
3 734 496 620
3 409 534 496
3 496 534 620
3 750 495 772
3 772 495 846
3 750 719 495
3 495 719 846
3 716 699 494
3 494 699 808
3 218 493 219
3 219 493 735
3 218 689 493
3 493 689 735
3 846 492 824
3 824 492 689
3 846 719 492
3 492 719 689
3 824 534 491
3 491 534 414
3 801 565 566
3 566 565 838
3 526 806 373
3 806 759 373
3 759 371 845
3 845 371 811
3 489 505 560
3 550 737 566
3 806 526 737
3 806 642 371
3 642 550 505
3 487 490 441
3 775 486 441
3 361 484 326
3 361 485 484
3 342 300 482
3 482 300 814
3 489 371 642
3 642 505 489
3 326 481 327
3 329 425 481
3 394 480 637
3 480 435 637
3 431 432 518
3 518 438 431
3 547 479 548
3 548 479 523
3 547 521 479
3 479 521 523
3 391 477 393
3 394 477 474
3 474 477 599
3 487 441 486
3 693 473 362
3 778 472 327
3 327 472 326
3 778 435 472
3 472 435 326
3 482 511 470
3 470 511 597
3 394 469 480
3 394 474 469
3 469 474 498
3 481 476 329
3 476 484 328
3 737 550 642
3 642 806 737
3 483 328 473
3 611 550 838
3 550 566 838
3 362 467 775
3 362 473 467
3 361 480 469
3 395 617 486
3 395 485 617
3 617 485 498
3 486 775 467
3 467 395 486
3 371 489 811
3 811 489 511
3 435 466 326
3 326 466 361
3 435 480 466
3 466 480 361
3 486 617 487
3 329 465 291
3 329 483 465
3 465 483 330
3 361 463 485
3 485 463 498
3 361 469 463
3 463 469 498
3 474 462 498
3 474 599 462
3 521 461 523
3 541 510 461
3 461 510 523
3 541 461 665
3 665 461 521
3 566 563 801
3 801 563 817
3 563 526 817
3 327 460 707
3 707 460 425
3 327 481 460
3 460 481 425
3 811 511 459
3 459 511 482
3 487 458 490
3 490 458 599
3 487 462 458
3 458 462 599
3 511 560 597
3 511 489 560
3 470 597 746
3 746 849 470
3 483 659 330
3 330 659 693
3 483 473 659
3 659 473 693
3 476 585 484
3 484 585 326
3 476 481 585
3 585 481 326
3 329 476 483
3 476 328 483
3 570 457 542
3 542 457 549
3 570 538 457
3 457 538 549
3 292 531 291
3 291 531 425
3 292 703 531
3 531 703 425
3 522 826 440
3 440 826 521
3 522 665 826
3 826 665 521
3 526 563 737
3 737 563 566
3 607 456 808
3 808 456 494
3 607 581 456
3 829 834 529
3 529 688 829
3 498 455 617
3 617 455 487
3 498 462 455
3 455 462 487
3 291 465 720
3 720 465 330
3 494 456 529
3 529 456 581
3 328 451 395
3 395 451 485
3 328 484 451
3 451 484 485
3 586 728 849
3 849 728 570
3 586 538 728
3 728 538 570
3 441 790 392
3 392 790 744
3 441 490 790
3 790 490 744
3 440 765 755
3 755 765 428
3 395 636 328
3 328 636 473
3 395 467 636
3 636 467 473
3 720 638 291
3 291 638 292
3 720 253 638
3 638 253 292
3 740 757 822
3 822 757 753
3 740 543 757
3 757 543 753
3 599 453 780
3 780 453 391
3 599 477 453
3 453 477 391
3 542 535 570
3 570 535 822
3 542 771 535
3 535 771 822
3 674 468 588
3 588 468 724
3 674 657 468
3 468 657 724
3 543 452 734
3 543 740 452
3 452 740 724
3 545 507 510
3 510 507 523
3 520 506 510
3 510 506 545
3 744 623 392
3 392 623 755
3 744 410 623
3 623 410 755
3 740 602 724
3 724 602 588
3 740 771 602
3 602 771 588
3 775 556 850
3 850 556 392
3 775 441 556
3 556 441 392
3 439 450 410
3 410 450 440
3 439 522 450
3 450 522 440
3 734 452 449
3 449 452 724
3 541 448 537
3 537 448 522
3 541 665 448
3 448 665 522
3 342 805 593
3 593 805 849
3 342 470 805
3 805 470 849
3 393 680 718
3 718 680 394
3 393 477 680
3 680 477 394
3 134 762 135
3 135 762 178
3 755 837 392
3 392 837 850
3 755 443 837
3 837 443 850
3 635 745 657
3 657 745 449
3 657 449 724
3 490 739 744
3 744 739 780
3 490 599 739
3 739 599 780
3 846 766 772
3 846 491 766
3 766 491 815
3 772 851 134
3 134 851 815
3 772 766 851
3 851 766 815
