# vtk DataFile Version 3.0
A great-looking cell
ASCII
DATASET POLYDATA
POINTS 746 double
147.06459534997984 340.4519617806839 14.20187391478307
145.0703973850772 340.53218424063726 12.815131012539394
143.32762178158777 339.48447079181034 11.525248490719642
147.18286586257614 341.7148537332457 15.917706382778
142.9562744536935 343.28029022303724 12.77287722891872
144.20099613812621 342.25131611265226 13.305499506939936
142.15738092080258 337.59158227709327 11.499055545615628
143.87755248600908 337.7649378312711 11.603663978262503
145.16446939207063 338.7977431862052 11.605085828893458
144.9646775233297 337.3727396635991 12.731777134197728
146.44923121831553 338.63887938591637 13.036380061621873
147.78998936767493 341.64706572401474 19.389890034003415
142.20462833519858 342.72307242814975 11.30266267216939
142.19760395670212 344.5347265900906 14.15386742859267
143.10485136856008 344.6665891980528 15.977288469665428
144.0220888187468 343.68686288254514 14.358672020596433
142.0344590089915 336.162045119963 12.498679015294622
140.45288548738353 336.3043426956657 11.940406518275116
146.05223404157886 336.9055203828226 14.1914915495972
148.0688633751025 340.1279299397023 15.818697956023366
148.17185011947626 340.9298765261838 17.447495283861443
149.02516760500376 339.94272940550553 19.057566285699668
141.67195906753872 339.17221878576737 10.477583344443088
140.05979590029577 338.1671774846279 10.94118497496178
140.0815702040824 340.30216362362205 10.360191773896481
140.47723126890125 342.52982048022466 10.497312993206622
141.03605987117697 344.11475393160816 12.255303830351655
140.54533132804914 345.080585399654 14.047084871810426
145.36444870578265 342.0289110365476 14.810162276042938
143.13223949810597 335.0140338687824 12.889596659506278
139.43269263726305 335.58384143238277 13.644955994581283
141.24139985570096 334.8709197630078 12.977428318712949
146.69781481649858 336.44222330920235 15.750264071334616
147.7079503416127 338.1776736583715 15.094782980952816
148.75071998759321 338.94350508010143 17.132845117689623
138.22743943517415 337.2055714709553 12.283900930226293
138.33141059260424 339.4832029147006 11.428975752070773
148.76660324819002 340.64615640761616 21.410760042578573
138.72152700597894 341.6003325162328 11.378109312172112
137.5188040257219 340.81974795185886 12.77190424729752
138.10221814972118 342.6610978672122 12.97856394296748
139.13912562894018 343.474480504522 11.665640594539942
139.20128442854093 344.1814320304696 13.414387219564118
143.98237678312685 344.57475938854265 17.739157756155073
144.68791908867576 343.56697351270043 16.16669430179121
145.9214705025997 342.63525341070823 16.48350944562012
142.3932713600003 333.66889819188214 14.233072595735937
138.9695197913508 332.09709385241024 15.039765111640254
138.09997603618237 334.0387650820059 14.372950004768482
146.71054870402875 334.8917697714028 16.771939207447762
147.90250567118213 336.7387218079004 17.280361502674864
148.6818585064144 337.9815043498953 18.95953987054224
136.64934432294302 338.9961278933085 12.663512875882622
135.5852839045428 336.6191787944938 14.691749454287661
137.38715322976918 335.9613485957673 13.99724816937334
136.40549471151368 334.89745164101555 15.457304517835542
138.0393125163915 343.47159242625577 14.846204538415595
137.85850315175838 344.5991516428781 16.941095047241053
142.006373709598 346.6004513850862 19.281734046257537
144.95211384380804 344.5136916569354 19.414201154943324
145.73254949774025 343.80110901092723 17.695116451368072
146.59393127197814 343.3621936799366 19.42071447585942
146.81908653558025 333.0624462076529 18.175350410931017
146.69860223953316 332.4100120296072 20.16205652284048
147.705099552276 334.95636017437937 18.29136475870523
149.85235966847264 338.70987159272744 20.512161752600324
150.1624561807207 339.0770726358104 22.579091090264598
133.99002005876974 332.51257509308317 18.414649923573574
135.4562271490651 331.43253516618677 16.755362863112754
147.47555425617685 334.3227702674628 20.207135309701435
147.81988551895398 336.3300761626933 19.41990158611125
147.9899188377851 336.1454722863581 21.282407703936535
148.94314180380462 337.1485853586169 20.344867847912518
134.70920362166643 335.77094601795073 16.234038770189546
134.85534523760657 333.6529308830795 16.437599065114927
134.72325713985344 337.6876892867197 16.10847567685432
133.41036053583747 337.1957383623937 18.863464465681698
137.38564232864832 344.88474607388747 19.284502796826512
142.54327118932565 346.84010130263863 21.04062326148417
144.070155375001 345.2879698074526 21.143482129953927
143.44918833177644 345.75256517952886 19.330965691952365
145.80009072035926 344.15901468877564 21.24959203797535
147.46539814364385 342.76183454130444 21.322422236858166
144.48991807798947 327.7824949384539 21.22003001834
147.01072540802824 330.72865976369104 21.398497331286745
130.80178585679985 328.61529171506254 22.049485250525557
132.71975918649542 327.9772834033356 19.68362233124694
147.422305546987 332.7947645046248 21.812623087167605
131.1005249750189 331.14610559914325 22.777774977569347
132.43844770214466 331.07563945946515 20.49027885612611
147.61629543591326 333.302475618644 23.402457110751175
147.89265841102153 334.54350053918023 22.320029272077015
148.63160075170728 336.0739822974849 23.06887787483119
149.25762617493362 337.41173554638533 21.914889129321054
149.7432303154919 337.44539885513467 23.781662059191863
132.95961315156913 333.86610186021363 20.21416172524848
131.66167661377375 333.4665521931548 22.33180507030934
132.73255206813104 335.92933971826 20.027258457912403
132.98494036122395 338.68679232943566 21.779937948792917
137.04965244290878 345.195113200196 21.095272450278046
143.3903463367892 346.2170697796303 22.8776875871251
144.96039981329085 345.0494630884641 22.904490710295196
141.9744411128218 324.9213658785642 24.855029275632972
144.64581233284918 327.428485202118 23.453343756894327
143.49185862293766 326.04704595475573 26.797666083081722
129.29481181883364 324.72616531902224 22.663256133052
147.63637488386675 331.103121070579 25.14724349184333
147.45310837660097 331.5261690497927 23.46464868586135
150.20206366045724 339.0855295149957 24.64955440048026
130.5138208526042 331.47916990386216 27.148563280269915
130.44397757432503 329.96736623686826 24.67393270350259
147.6999137869185 332.88844722731204 25.197554619644333
148.21317175790293 334.60803822911936 24.160231249415936
148.2040741897459 334.7744969371182 26.06820661852501
148.85608134309265 336.1854610135018 24.939770081002443
149.8798170850207 337.55741632555316 25.729635963103124
149.27434427769978 340.325586094978 25.705996306886064
131.25455966167647 334.69373625588645 24.45634599720962
145.35620281596826 344.72776120853763 24.46105782617058
140.81381847254843 321.5193898709816 27.764836754934183
143.125764704865 325.025053210058 29.245161098995478
147.63455238581562 329.943984485306 26.043728717558256
146.82570346090043 329.8371283443574 24.4275822713403
129.10413847947893 329.1175728382852 26.75704947015784
147.66649525756617 329.6703278778222 28.020937261048264
148.0843406710847 331.77947822422453 28.65844755071958
147.7704597414178 331.4487549981473 26.735320133656757
130.3085571184738 332.08265407771324 29.767476755290794
147.9509804129823 333.2832421554898 27.32823209860083
148.43764122167022 335.0136558196084 27.935746228560006
149.08832445453044 336.2728225376448 26.808025503953452
149.10956793882582 336.3496909758773 28.38719812343577
149.81677482103663 337.8623820192297 27.79818210991888
130.16378106324396 333.48246224501963 28.32290295797781
130.46113486933004 335.4222554347702 28.120585821021294
140.83155103030575 354.25752072894716 27.3317521994387
144.32280348520274 350.6389187886578 27.275972652704283
145.01316118653395 345.36838316189534 26.107667185872963
146.34925311216352 344.0607403457685 25.497288756865956
147.50899512864615 342.7313081242631 25.07229888004342
146.59883661761776 343.7475066894491 23.38651957310502
139.47393070549973 319.4137652128295 28.484040897082174
142.44967360496923 324.3267084306 31.81703576278763
144.5101993142112 326.22769935595454 31.139213921887062
147.31384797553224 328.5650590862395 30.332119008880277
147.91476257697212 330.49279992046934 29.965322816383193
147.9106514637634 330.3505569063249 32.14564779896616
148.32207991405627 332.1559101613826 30.66773795756736
148.18421264259274 333.68101390857163 29.299233237960024
148.76815700016974 335.44755651130214 29.674390370761056
149.57362664899406 337.07341519802407 29.713697369960364
149.8686154983008 339.0185209819667 29.666409787755544
135.10908646342628 342.38719362387263 36.85124786071836
145.0805785380056 348.4471391766397 30.525007981802908
145.20568051044702 346.82792466074653 29.088111022573774
144.85853699160344 347.06345599992545 27.140361165629052
145.2805724282385 345.6119334288356 27.861507882322723
142.34613090611197 324.4854784325884 36.90190529364323
145.69379795132352 326.9928609253095 33.41249257521954
144.1404874043568 326.50565359607344 37.78802322441391
147.34336223837576 328.93480773827304 34.31644678955648
148.44763519110344 334.073896601577 33.71472619712094
148.39774372577412 332.48968827479416 32.557447059919376
138.93792917475128 328.1712893387141 42.259582406104855
148.4852086259602 334.25294110664606 31.4273262699534
148.65182730946768 335.5949586791554 32.78314082363501
148.86864730717406 336.28452081697736 31.27638531070805
149.11326065952926 337.121648439314 32.83378004605949
149.36360068555334 337.99818814036587 31.28918691968416
149.12159458769753 338.65346104458075 32.669681833511305
148.63459474945404 339.82417922719674 31.35059722132557
128.66647787669234 325.79314007710184 34.58142557165905
134.71691020550386 334.2894413135782 41.15816739429316
134.55715460805524 340.9555564267586 38.579102555868765
135.73521342780157 341.22300382601577 40.73961731444304
134.8601111190923 346.3940132112624 36.839787986063946
134.89425499945122 346.2047056983729 33.8710692215258
145.46253037251225 347.89265154107846 32.8340557508115
145.26653702434405 346.3093524580391 31.182358463836312
145.83357173982336 344.74464964357173 29.522368112198233
146.19638077065787 344.34850863517613 27.366739890555664
147.29811651395445 343.3038713452187 26.644534669587316
144.4841357776935 335.9282760902462 13.784024188703276
135.7910705597423 329.0893087924852 16.385194261584793
137.35387109901058 324.0750487651369 16.206564563461804
146.2047760399648 330.7718834344066 39.15225458178086
148.04102999760912 331.7221505072657 34.788022518760854
147.66919786071787 332.3985415537962 37.6799551287797
148.46461504802096 334.2117741717536 36.06125403357293
141.40219296205433 335.41259064929034 41.5434368826587
148.5116541759248 336.1166582462893 36.76382346089247
148.76871063251386 336.1503918845515 34.657555272670265
135.62586851703526 344.26151191819633 35.42152956282602
132.31648583128646 315.8023551282651 31.998545584729914
148.92155018992156 338.1973089517025 34.22956770958747
136.0829594154463 317.2924520911394 21.381981524184454
130.2173296500878 319.411916734705 19.71450481789897
137.257933716656 317.07054788827014 38.47619894475291
133.45044571953574 318.4539987114414 42.344129214621816
134.96120699913038 315.901205136404 32.56198853256664
129.24425867034185 317.98042316307533 26.191274648636583
138.73683553154873 335.43050641838835 41.55291387791185
148.55154554648493 339.8744102773116 33.530519044563036
137.19826770705822 320.2876387482056 42.20244409128886
136.56161519302222 337.43770171935705 13.514026009721182
136.13897645983062 339.11302117673813 41.79443880068799
136.29516467825405 349.11430956498 41.69855143905383
133.14141161328396 337.47102532059847 20.43994483727163
135.2739948582376 340.4400471376029 17.557714492125857
132.25478205320198 337.52529753696473 23.291712624337315
136.95248443499642 341.88826995666665 14.312630443676813
132.3915126946753 335.12489169149717 21.43331379203952
138.05747116933338 319.3024605210641 18.87773525100239
139.0138923940582 321.1768970699578 20.72980279659127
136.97606811867752 318.32894411062966 19.363124302515764
129.48274454629126 319.5909337277152 21.588438822225886
132.63468530861076 340.44385736896527 31.16991664681719
137.7885186973319 317.9136695525799 22.520392003727235
135.29710883808204 339.22845468741826 16.405530764514847
137.10509246535668 348.9365490160728 19.55315171504472
140.23016169289966 345.9996696670545 42.431809546781736
133.29233399650218 349.31113833646714 38.85972727660617
133.14049311709712 339.9541868683183 26.690459985199414
133.66834804272517 349.53043942610674 21.575023343250034
132.092136809091 352.5402543724125 23.38680340087772
134.01880303827525 354.94776906704317 30.510136311696716
132.1456078196942 353.6721114037333 32.8467902808661
132.15469006853618 349.4912197708318 35.54044295730533
131.27622100111935 351.2602819656471 25.62469551016661
133.4618732512149 351.21421478029333 20.150945584224342
133.06501549183812 321.0313460824912 15.860166836519722
131.5806572532794 318.93792494533994 18.36270152056719
133.86530826640367 340.2003484941269 24.907942908839793
133.4928527170164 347.42216727908084 33.299451778246286
140.55763922132343 349.9861756436084 20.69286796767142
140.08047903318314 354.48070772631627 25.45424554051536
133.42226216583813 348.554271951099 37.246357283858636
131.50014738655415 350.35826792550887 34.24846550749936
132.94654548098782 347.4966272297047 27.48698172681777
132.02961677510265 348.666068450902 26.741144453888705
133.2216896783299 320.5868001864023 42.3744380826937
133.0389978187004 354.54316770676985 28.170788019579916
132.4988914228374 353.4755169421508 34.46903872360072
131.02430855165235 320.55876192654944 17.158350622696094
132.55598419051694 315.882330127603 29.328994155337927
132.06855327303612 348.8712877307876 33.019774854557106
140.98099717050036 352.41493136305365 22.289166490823508
136.67390026315033 354.4846583899165 23.586431915315053
129.44238715605007 324.059958075291 20.61591448337712
134.68055520960192 315.8801459312232 35.293598313239
138.55949099896955 355.8505049739329 32.49480701181004
128.08044749126745 318.60661305315494 39.38315475865235
141.1625276966724 353.3111204006657 24.915897218583975
137.11094763421886 355.5202752910111 27.48122668833047
148.83990586030004 340.3685477847607 29.538052627910055
133.43119533105042 347.77334262035765 34.97640403602385
135.65622679797994 355.27006689677694 31.438579820318278
145.37099221789555 347.2409393511165 34.77689036612095
128.78740603064162 317.1566968441583 40.17916017188155
136.83577968188794 355.53015001993913 33.63914853978163
126.8553353578858 320.99798589225946 32.46794749088598
134.25442751278172 316.896578448537 20.412455471728624
127.17248991703084 318.6435318131999 31.9211042780389
139.42196762483 353.2582520780137 40.45632694283334
139.0617980485784 325.11725414442196 41.853431542215695
135.45090284832676 352.3272595971277 40.698005032370816
138.23318772194597 350.97039398236626 19.552047679076342
129.62204930350043 315.68357034789005 37.26958198788618
143.91533279909888 325.5194078653312 33.20440467701457
135.38786110098135 342.6043240042118 23.339552888762825
133.20492079702134 318.94233385779575 17.517500634180227
135.81050624997434 350.49294591131525 19.201222231036223
132.47701993476613 317.6982775674829 19.720830964351915
139.31630191318564 341.49075415468553 44.86806976131925
132.27694740774822 350.3704781532271 22.687057228942702
131.22602260970982 351.80213370435087 32.8842700603432
132.30613143567726 352.29487483505636 21.70069700799413
128.10564515313328 316.6071640716054 36.35936623596248
135.09698047928526 322.2670918953819 15.079263058230465
132.12820957995086 348.4002153151055 31.0044425317155
129.97613351747972 317.94728973936634 24.14662833774786
149.17641933226867 340.4525477552981 23.749561323922954
129.94384244552407 315.0883126534572 31.587267532716268
142.25166901252862 353.7941105881284 36.9863498948912
133.08068789604388 315.7422138404888 38.60540662478967
132.32838447819836 348.1934641135033 29.081960450273048
140.57003601585112 355.0193549086004 29.272675887184608
140.9135299033902 354.91222221029443 33.12241543185863
134.60094710339052 341.26223262868666 23.676780758533052
135.0666629567783 317.2485236338098 18.513167779683723
149.185219719474 339.94218421591836 27.77490352032856
150.15449720250157 339.07580547748574 26.411329572735607
134.8042764891425 354.34781118334604 35.61079411722678
138.39172119627483 321.2604802292974 18.790728275238834
135.91628070156503 355.4078599368246 29.089784292174578
134.75467591458195 354.43248852491024 24.267992043316383
142.95652589937947 354.3223462726219 34.03406923867428
141.13137760421256 345.57955777171645 15.930602304226417
131.6095455270595 315.5440798076196 38.019399612879944
127.75693320643123 317.70602299766017 30.69571840379522
130.26779616818087 317.2861072203186 40.70664109825308
131.464012895554 316.6129562401845 24.81682389689732
134.51956779007185 341.2564283966453 26.800453436793926
135.57909850589422 341.8354919745763 18.839302746669144
132.09051167114876 339.20340263457405 27.606275128031303
140.09458971933591 355.3533299043115 35.33429589304568
138.72028069211459 355.5772632577559 28.760885546877084
148.28582728254528 341.30386255508074 28.58343018757819
142.44797321257272 353.365025345076 28.089415855304722
137.18456653296514 324.2880754704883 42.398559896990534
130.15729937113824 316.52659591367205 39.145016053024925
135.91741139375299 341.8593817371563 17.237933919891745
131.272442244912 315.3965187178081 30.49638981787272
144.5571544834657 353.6435660670504 37.532457518559475
133.6356399672318 347.07037077838334 25.773482679905023
140.90381246447234 353.7797525689104 38.63911874836086
145.5474002174724 353.5021456991703 35.6338445343972
133.09933374635798 338.91680982622876 23.68393189413121
129.60834233649075 315.3017156327299 34.2056345607795
135.25717990258667 341.57425506867406 20.611264893696138
137.40747150865684 351.7567680014119 41.74424288554211
129.05237563687743 320.8882092684408 41.44646370823514
130.02793205337971 315.809557600981 29.283600666190907
145.6944054105617 352.2457779361 30.433987784968874
131.29078202473727 316.45678637678657 27.945752734567275
145.27200567166918 347.5184038409697 36.970207792352404
133.40157833567778 316.5377679930289 22.27994085308397
138.88489868113084 355.13941977989276 38.56579485822917
141.62688936299014 321.98188070234335 37.01827939694125
136.01007906789235 316.17799263847013 34.11552893657195
136.255574489767 320.47891177159676 15.61790015236964
142.2060908348395 353.95528396441034 32.55190862615256
135.45983728170043 342.72830679383696 21.794456312639223
134.22174854851062 353.34525702167446 22.443818225614034
141.58233574638908 322.14381036557637 31.581963091188378
140.39336456169468 320.4063522980875 36.72666059633245
134.57858955910038 353.06060229489236 38.4595956925465
129.534151677248 321.8203777273758 21.28541582813844
128.26023840920706 323.49866247480895 36.85183837190867
148.81259175499488 337.79183686835063 36.16533598406924
142.66831396360584 352.34196551890545 26.599089783639492
136.12971955817412 346.70987446481894 22.099398811347715
139.43454068556122 319.33581916620716 34.905316493860205
128.177079364375 320.0970747525492 40.26105743210254
136.51073058124288 340.2559828922768 13.997685827776381
141.027628988192 338.29232627345544 44.216883222394614
139.24205135609756 318.8033025373506 31.16978344796997
145.52928705419666 337.6059952874962 41.42696576521383
141.7654911184997 349.9107137323897 22.685833670316175
145.97683474917378 350.41728964963454 32.03087409333476
145.87581866643964 352.7326997773231 32.17697971581491
131.15124699141705 315.3910113093252 35.49259379631174
132.11794603833567 338.34145316014747 25.507108313146084
137.89513968062036 318.42908081931284 39.527981426765365
148.39960575570908 337.4032366663382 38.35222691332928
145.03527216243734 345.1013116470209 37.525067755383645
127.0943972861813 321.95836888360725 34.02170642165991
134.14061475501197 336.8785824075652 17.42787493126676
134.5541267241893 319.48348567813434 15.543574655375503
144.11364375684064 352.68920279423367 28.736954942415
140.09270879849956 355.237737675697 31.35820437033783
132.30041755121368 323.24250298525584 16.20580995345987
132.13377215781625 335.632895757828 22.986803898904924
142.2044950550571 351.3406164364435 24.375003348461007
148.56629668648478 339.5380416331213 35.43957216622415
141.96764901285073 322.8667551510523 35.361897721924606
145.03037799805637 349.2996048014847 39.0765046173722
132.82185189973455 350.83449102801006 37.64813891526358
142.50937170563046 345.9051487622379 17.635677393546572
140.48494090082264 328.11680960094407 16.695519572377684
143.38453761706776 329.3097425784656 17.40845290972674
145.79718230702372 329.2638134913103 20.515131963396687
134.1193217132605 339.9654831664555 22.924745332449124
142.9922568767226 331.18092064825373 16.020341581160114
127.50231611598412 320.63555471423723 38.350062369321044
137.38170531649791 346.37467605608174 41.84728254926922
138.42713395219877 355.7936051137572 35.9710342113945
141.4429613618647 348.15691912044633 40.78956695692625
133.49979458587103 335.7151226720455 41.29281737150299
143.1981153048763 342.5997056779628 44.12139435576283
148.1610541960502 341.69844112348073 26.748540323991804
145.76246761388384 331.81423357771433 17.43053974946743
139.40869894468165 344.71681983345223 15.362072228679988
128.249362960136 316.26744484009754 34.41417025436672
138.94452487197233 318.96955575730965 37.85172778439148
143.4651012600545 347.47010978196465 24.402583967865507
134.8792627832739 318.56054140532007 17.07557078290891
127.7555508831467 326.3341198298694 32.17539099019056
147.53485020304151 337.9064112624892 40.472202755685615
145.15182844848258 340.054053514401 41.817690390361356
144.83288597263638 344.07502237605155 39.88373649794873
140.68629734774495 320.37641825493415 32.76514228393679
135.16548723872995 348.63465827915553 20.60323019297769
137.45477839619815 330.629945508961 15.803686811641398
134.93728435851514 340.1326478867788 19.348154385262095
131.07215720313414 349.95899855356265 28.099117285485235
139.84950753262035 352.0151971527831 20.461784476922706
141.21989664367183 321.08037045534894 35.050544114988064
144.78165046374488 352.0402352573815 39.58162775968818
126.90238493529287 320.1409530139544 35.783732427059554
134.85562737825254 315.9933953207371 39.16632240006748
143.13641846876908 348.65894936206007 39.789820994908716
143.46924199091475 346.67937929230555 39.42004695025265
140.3417475178179 354.71187227708265 36.710178804384306
137.1710019050041 321.6417053936013 16.570360536229266
138.31050631907195 322.64486180806864 17.251597786105528
133.49148802328224 338.9332233903066 19.76893951034505
146.37180047270724 338.8962543099043 41.11177413766663
142.49334455429317 347.985519801021 22.86117999496594
128.06168708701654 324.6177054968985 27.988584356883543
143.25875387252876 350.4845197749153 25.69491046448883
139.38878208796763 345.8490373595656 16.853349709070365
145.65233060524147 343.7473661918012 35.40564732867011
139.6841859622182 321.28005029140354 22.576553473029186
145.87817621764393 341.80251496939195 40.080554850266
136.75558067947404 317.2495408224261 24.19432168421885
137.4560095943452 346.9950483268297 20.414146117743535
142.9035154673638 344.76079042851126 41.898471720955854
139.53431912121775 320.8341498832523 24.398179652629125
145.83443468727748 349.3452817852157 37.078257487826214
143.57869636513658 354.1194159432279 35.43624711103141
133.8587293095749 354.7469526812162 32.83734285212214
129.05413995121629 319.68250713502044 23.60415895809493
135.61896980279167 338.7608763164292 14.591395624250332
146.95879893798 342.44707120980473 34.434790214179756
131.09994925452082 337.56526007192343 27.76996229971678
141.95915184871794 323.8118907530088 27.23657372754171
129.06732880773504 315.89250340414753 30.621435557021364
141.34475833415038 354.2001316341775 34.714463045216434
127.67932964216176 319.097771692355 28.499616222327354
138.8627484773227 319.75060250846695 40.602646817497686
136.2231747910952 344.37353487422973 22.571215242787222
136.57732959886738 354.8478586246365 37.4771723021449
138.460349652272 317.9797117610255 26.425825146522293
139.67692916511427 333.24739736280355 42.55386013297277
133.22655004310235 340.6769058310614 28.68857646727328
129.47725070023748 327.2297430165055 24.45439509510923
145.46460664345273 336.0481966915548 42.049956290851156
141.0481633363838 323.71536459296385 22.621082039363834
137.89327868867704 330.9839100153458 42.40330208268576
146.30432392909847 328.64283398980024 26.283847571073018
129.91443677475038 324.4399428386728 39.02457989134254
146.05847729134047 327.4941024965507 31.447187717925075
131.29120461689726 334.64749314899166 39.0378022314457
142.83206708565 325.20653920359365 39.57458412178822
142.81689413849216 338.4913303889044 44.423578808401246
148.1642873750506 342.09099233340356 23.294176409948523
148.40134725177032 341.4203520588944 24.90439194153772
132.41145066047028 348.94203346244757 24.688427981812584
135.87178817678273 340.8036964746802 15.68586337787768
142.87012943454704 349.31579207891684 24.336849856454347
145.24274524032896 345.82359161575795 35.623489096084796
134.2786978009305 316.06719285769384 25.077725473255466
130.89274153273905 332.45334658063274 24.628400958873005
133.1953299486976 322.68623991133484 41.74652503122328
136.51061537230973 326.7378627593505 16.308893311094312
146.26073087139685 327.9255700887359 28.41197377610043
139.02732216099378 343.6858765736514 43.620267075729544
136.01578768984865 352.32652287797504 20.58927501800674
147.86170530543808 335.0594751649198 38.516453810651164
134.10696913093722 326.5670409301217 41.176033084106805
135.43103184105385 324.0809253307576 41.27378501304232
130.15616166826493 328.9470978393157 38.29339429826864
128.1994677482823 323.70264961821704 35.325814845910116
127.30752514133266 317.99292368277395 34.99019038928769
138.68919771616257 346.11961748129403 18.655912137880456
127.09127942227552 320.04352810822934 30.99981838883981
143.31621336586335 341.5481520872536 12.035006418536767
140.9052297675688 347.62507970012206 20.259980992447904
147.7052315986347 336.5104311087711 39.5673887093453
141.02642106890738 325.0727206430696 20.321054370614366
145.11266401584612 327.34239527590034 27.157544357111558
141.37975663365793 344.38926902038514 43.88006323982447
145.37120781814832 345.5410697259131 33.49076680873325
130.4732415129752 323.3095124209897 18.80994600269224
130.70944947443343 318.01533507386944 22.194194008012737
129.11629638513838 324.87181143381014 37.01563663427805
138.86343269192474 321.52552452418826 42.629310447664984
128.1765848833179 316.57353084252054 31.651913302201468
145.5901471748673 342.738398313331 37.814196679597956
146.5076947750045 352.0453965129708 34.21395011097734
144.9803744008725 327.1922345501665 25.43957865425954
127.30114289365828 322.29443261763697 31.633023498340744
130.2095836006718 326.57389185946386 22.493750120328915
140.8559659959959 322.22285974935465 25.032050007336707
138.1825813628285 317.637372767322 33.130769142355255
128.0557601458831 322.43382402169453 24.08783461496979
134.20603427600736 350.56333138495006 40.12803432913302
130.92319112238346 336.7455710784998 36.93821507941727
145.76496410879702 344.57593238830566 31.628935712521823
143.2837788118416 336.88704044194503 12.869022501948166
130.4121393126528 331.0866859412859 37.99721884013972
135.80431181815507 345.6417413097318 26.47885679734658
131.46485566492356 353.4362493366259 26.77005214540457
131.68129230118848 327.8247506856264 40.11677201700267
128.36657120892 321.63733204020673 40.038557597588266
133.23125785766615 329.5979336635917 41.7213939522562
132.92767321139044 332.2963143940938 40.73184460996461
131.97706466288878 324.96386017557177 40.04383805074083
136.35485521025564 318.1047944664703 41.09727623862768
128.26398323927106 316.77583562748293 38.44826375542602
146.03548913360896 327.45535912314716 36.140310551423724
143.5443209679366 326.36696304914267 24.608691378781
142.6601243386488 326.1678190259157 22.46115537357295
135.78296872750755 344.5929220031926 28.457723683633063
142.06280770327308 341.0145442244254 10.584560312348941
139.5380108189926 355.5096762112355 33.80848654676192
135.83547556309145 343.99932281132305 24.74127440973539
138.9187392787025 326.25853901096036 16.826942729633313
139.92679970872825 322.67052499252117 20.478641387780307
142.49380318870158 327.2427694305266 19.899017473781193
143.22606447659862 334.608783813074 41.322830668966205
128.34984481065672 323.0810054452895 38.528119670907145
133.15227660478368 340.2715947206621 36.39467152040507
140.5658683714052 320.8402584541001 38.79173451524219
147.41393824584188 343.01101947625625 28.596149162155097
131.151728826975 320.4256288007974 42.520325394025505
133.90867287836426 329.92859083746623 18.01783017507191
131.16440440427726 338.2773506881522 32.35163430706388
130.94848569004702 336.7269290245517 29.98905154741436
133.31909778818257 339.861298369662 38.44374543227435
143.09637835348906 352.25507867313456 40.23311087735893
148.00779710410023 341.1703170581754 34.81429360670452
130.98598847975992 315.1165391760438 32.87035554961372
132.569442798101 325.43399644872943 18.221047146624084
130.06033142807968 321.27944963272256 19.14872184389635
129.26826892069406 315.677148867375 35.57060131834545
127.9924932986918 328.4950561011462 28.620916636048655
126.8816102980615 319.5720932740695 33.27901763024453
130.04438499663905 336.3811251330237 33.379425807794675
136.5520951114724 319.4319547468128 17.432257864664606
139.80982434520212 337.75598147112487 42.24048408612601
136.3724696544214 316.26535428633224 26.992561170951543
147.81412421489014 341.7763889653441 32.65421356792083
134.2391790199532 346.53167184425456 28.379801520160022
135.3961068400869 345.66537234607034 30.07549685143084
147.99561476547595 340.6827559644004 36.45729069627894
128.07667974850932 324.31263505314837 30.55784409437996
135.74439883793482 346.2748832171886 24.246765666767004
148.00552042851112 339.21179221012835 37.2420333522122
136.85580143521224 353.97773531042924 40.027478611103255
146.87520360747018 342.33147891778225 17.721201378001904
141.65854313599849 340.2843397442582 45.982350997498145
131.10415402411644 317.85988713060584 42.153377619206026
134.96965108676767 342.4410419541102 28.593711526034667
137.61403410917808 355.8533293006509 31.118229550018732
138.06882076185312 339.0042804518562 42.46314182223774
147.97839902382756 341.58760789275476 30.280784788150058
146.97174444723262 342.0075709807387 36.21463332317382
145.27819630505113 350.50094305445384 29.414575673284038
146.15116201536853 351.42069751522706 37.08128408863084
127.18208618734911 326.55626532718185 29.54737688654363
138.42424129678145 344.95870700660026 42.3925825583009
136.61904531216308 335.4472452611154 41.57190565114206
132.974017740971 353.8259194812876 25.163938346489537
145.98443976784264 328.24378333185086 24.403219531659218
131.59702811530616 339.17120450358493 34.70624630383313
140.89483567797896 342.7832733734219 45.052576986851456
135.24955021702718 316.41292432841817 23.16698310243882
139.05380257363532 348.1340813406066 19.839769230156744
132.69448373673535 316.1560065077478 26.446330875506046
134.95309223667257 343.01459010352016 32.14691697012557
135.77663422736893 315.9844982770218 29.330815381569472
129.78610608077017 330.34240412723807 33.81099717290699
142.76461236349525 350.480768538424 40.21309655433164
135.53407206265743 345.1056015701936 31.8862602564694
144.41539969412722 345.97643074458506 24.398139827509453
131.04966531105873 332.9859130410221 39.07798714638725
130.3858235462947 333.96797345814593 26.38229288271592
137.26787203902356 343.67400847182756 41.33283583837958
139.03163162320078 348.46503018561634 42.28792641708872
144.58242045576822 353.8131439519085 33.55596310765002
130.0654527518278 336.18790809632895 31.690568586422323
131.77443345001578 351.56978969300343 35.37749233687012
136.00246492212898 345.59459603241544 39.52141536327604
141.54056330423361 352.34249532826055 40.027832619630665
129.72667820697825 330.2130374474062 35.83320455439079
131.64718422364686 338.4429075528753 36.26426934118497
128.07878712687557 320.63304826393005 26.261087919307954
144.2693553247141 328.90225447043605 18.852725108488908
129.98923245545734 334.99796027443944 35.22817443917723
131.4992470959813 339.01444538546514 29.566001246433736
142.69218486755054 329.67407885496095 41.37995396270094
138.2235568108375 350.09452804657616 42.22917083326295
129.9467752579013 330.50450071977343 31.838207272793955
142.94153213278304 353.4135403621862 39.07957239453223
128.0582372582384 321.95963176755475 28.968086000247414
133.88495699030733 341.5267017824175 32.338013116069675
135.77569653518637 347.13869322655637 40.87031650461494
141.90769380196582 346.3096378746595 40.999295351983285
137.7689647791458 317.37182518704253 35.86023188535563
129.72840644865806 334.52052284047295 32.7109685982515
137.44503572077502 341.1033346618438 43.05974995728807
134.01844856318016 348.08751651426536 23.02024407396849
134.80871587450252 341.3809875147531 22.23243363780354
130.05337160343967 332.2894432037871 33.95406626688308
132.8086412570811 340.3257698725937 33.541127341698875
132.81259147747213 336.98442269337784 40.360987729547446
135.50614044282193 354.9509654515006 26.21909660478255
134.14390401931763 339.12509246629014 40.046642879427495
135.03024994058475 320.6790981307283 42.165107456727036
141.49422621700398 348.39695442110116 21.60301174977554
145.46746805728188 332.9925298747461 16.07793118696261
135.87855167636974 344.3453080920638 37.49711583749287
128.25933037916764 324.84111365977554 25.376250082770927
129.225305462929 328.40729102653154 33.61268690283109
133.59542304539818 335.0926213460422 18.112087029123014
127.63897886035478 326.94918418029147 26.864610478043577
138.33544623096392 323.51611427245365 43.55701706125348
143.9404689590894 340.1463216645753 44.07276152186048
144.65975342444096 330.3974812383079 16.539490050846723
143.75805086489967 348.60445695810654 26.1851282036075
135.57876252733735 343.08311920092325 39.146878050911006
128.93187375480468 316.91395020278014 28.733134461590183
130.11037707983357 322.8179937342477 40.79228251109625
131.14574511847712 330.5035770892688 40.034807510057625
131.65801800900036 336.4873869667344 24.42861953717588
140.85819969888163 328.86138203573734 41.921136516299015
133.50933358273278 315.7268112768058 36.70352626556456
146.99665419502148 343.3046361433648 30.979145651381742
139.61481615821967 323.89153853013573 18.05149130003883
131.01690951367027 350.0721984916445 30.553945602448486
135.1664175346737 322.3250124780098 41.520758273035106
128.45512168503865 328.4682889072109 30.863243201458477
131.05719918738384 336.1095119810627 26.08003965303697
137.43218858793858 337.33295278466704 41.51496200355837
140.469075475544 323.30078143288927 43.133842301865016
132.95849707521543 352.95031579256687 36.52785790283057
146.15516421784636 330.77906167467114 18.890330308187508
130.6606224257853 325.8932957926688 20.556562556182136
141.80752030200873 322.95820186892666 39.14976058505259
134.48892658850562 339.9489276522797 21.148251898508548
136.56344934034485 355.37025621337295 35.71249708347661
138.35681759305052 319.3014332875421 20.945372366553194
147.11163601802537 340.0106757054087 40.43940393801277
132.3834191206566 334.7252157510793 40.26672992913703
136.48526115301772 343.3083777946634 18.08677940775132
139.98575610039396 350.6487467052912 41.115910094856304
134.63402423512113 324.95763830429337 16.35973346149864
133.84169448931644 315.7206374685666 30.86865769695943
135.39988682219732 343.69756540598775 30.30011886203667
129.51976748285708 327.4435434938019 36.33849790315256
134.42124225004397 316.5664320388784 41.34685223783941
143.71404914853724 331.9986588040688 14.913096527430731
128.21771968773302 322.9002121541498 26.53787492918308
146.22358666584068 343.4280531231076 33.06194857799491
138.86354325789281 319.0849892616048 23.832374275801453
129.85025256596205 334.4950037772358 30.27805043055054
128.93675090476577 315.7433442301592 32.584988312510156
129.68721579909567 329.83184296615974 29.17082494734831
140.53932992226092 346.7096092460323 18.251361396274504
132.0160813780314 353.7567894084634 30.9823307821728
144.17408363719545 325.829722580904 35.308290454979556
141.19716071750844 321.49029067450397 41.34021593759076
133.82564931570147 315.81666237318626 27.979141964290204
144.31271925965876 341.3607572139541 43.04026296987427
146.6968085626254 335.7578700587158 40.734779282473276
135.40976358911723 344.1072361073698 33.51400286101692
139.4117646167857 354.26080822294375 23.770174279059916
139.78610032341768 330.1677285853466 15.958557850293888
127.5661923473116 322.22723576955326 36.504685993768106
144.581001891227 342.54326969510026 41.926526366290815
134.71658395381334 348.0269796971603 39.37773962552068
131.34626650188764 336.1444374440701 38.98023586082334
141.22278289061364 324.176883099803 41.11720525566943
141.47112032131884 331.790051831737 15.248626574571755
142.5784081807695 332.77720767892936 42.18306414249504
142.1741953777091 337.61832866231407 42.6402526458277
145.9288583130805 327.1848483839483 30.01095646108424
136.56752937642716 322.3780119044997 42.68083707207142
145.06233251618661 329.3838439570699 40.57129657837305
133.6947460277852 346.9757973671545 31.327072269504647
130.01689068699054 326.46598433880484 38.74229540053918
144.18009442752788 338.17041837417054 42.99137247739379
134.57507880588892 342.1588644047295 34.29522791498289
128.18934861162757 323.9885737855192 33.015122101456335
136.83198867134263 342.6713015462712 16.17051974489398
136.0345522006452 328.84008251208223 41.90550290137703
145.99661422394416 329.0443235191124 22.621899732757996
141.9951274792585 353.8699742299983 29.80079289467453
130.4922621324218 334.73250867420796 37.75189121531665
136.5153899089445 316.30573485891534 31.521860018646795
140.25385973801235 333.606375611833 14.131042729606548
139.38025398289494 319.04198175440115 32.99271774441637
127.3388978503084 318.3748673959756 37.2943572563359
139.5893431922008 320.22700519501205 26.005367420272947
146.45766712609762 333.27759916789694 39.922744840010175
130.77660528953794 337.38567339188876 34.8273514614506
140.96235285182073 326.3698164195155 18.16391012753248
132.58853800385182 319.56583373470704 15.980291938206983
135.47290096983363 343.2819472885291 26.685915426075887
132.07369143620417 338.48388885343314 38.398893873197515
144.2760371110654 353.7251648020386 31.09192391642382
144.73477597141184 326.63472800730517 28.797991090107324
136.25620143040908 353.61086922715873 21.843375334560328
141.32439388199035 326.9627356273225 41.11369419669986
139.01000205711455 339.18254420506616 44.472981396696106
143.99160555864066 346.75754611453874 25.757394152155705
145.66410013578025 335.16066458583697 15.076598678962245
147.29138148745483 340.95916591983683 38.25230805365223
133.42223494303252 315.75611524219124 33.737953777769874
130.92078876260234 352.0945012861688 30.809037824591908
132.3115820424672 316.3903757465449 40.39542681986425
143.9061866414648 327.4327075793948 40.18113726968653
140.6139359259522 330.4896399612272 43.225480105538495
141.78300315435118 322.5140080940687 33.48623437282452
144.979490183591 334.2350966001287 41.946351208893816
135.00449618262198 342.0696783436039 25.02305598614387
141.7728496144608 322.94127769578284 29.648585181220675
138.15200922565006 328.52528766479594 16.460158563255703
140.56226355941942 320.8892841646283 30.241323284959577
138.05937452929464 317.38394073104274 31.28663211845424
136.73512380459252 326.1683543189597 42.10904796043605
144.79916614594651 331.6249996648614 41.07511466050519
134.4137401769913 341.7607966832302 30.55593942136733
138.378371449897 355.09040994918456 26.017931773825083
143.8388646164916 336.35285214453864 41.64119695735062
135.3519141308055 331.5667532802823 41.51463157087411
142.35678779382457 328.22933478924176 17.85843528938363
144.51419360534783 333.8282132114654 13.937638691310763
129.0665459641697 318.72269973656967 41.50265162719283
147.76840318709276 339.12700061164855 38.979352337636236
136.10027601737005 343.4786671199651 20.300509535686967
146.93825873016803 330.2237942142194 22.969131433055693
147.34565890116386 329.74576422551627 36.94651000961659
137.3196831584698 333.3941048409318 41.1319919923438
129.98591128286773 332.77721726300115 31.709330770349638
145.9741812660981 328.18487627021466 38.75401493354724
127.70261402898267 317.4641366404036 32.78756623056282
134.33334780414035 327.36738819125145 17.463386898750862
134.95354688733914 336.8960540122979 41.44064349498071
145.92475085245553 349.3792822555751 34.99541966290562
135.4575314382192 351.04463275346745 41.75447417458372
144.38771439599677 348.6529963284441 28.378972887803325
134.5412055249115 338.608441093565 17.955038263757697
133.7324636295283 324.5332411758208 40.876017046088535
130.4806377617618 332.70406899862644 36.603024566837576
146.85987526710358 328.4721613921035 32.332625136798356
138.30292979430638 353.3931833642729 21.334630718886736
142.6142061820138 324.37252642973095 34.34239561158286
142.17849333775646 329.8509630564417 16.481522617619472
132.62893156022926 336.72163754043237 21.66351745678988
131.06151429165584 352.32072289559795 28.701711211036073
137.8816395956071 317.2479108601468 29.309142953111248
135.69150746573797 316.33537447115884 36.60341734279186
136.91403396101538 332.81017070383183 15.721071421263995
POLYGONS 1488 5952
3 5 467 4
3 15 5 4
3 6 7 490
3 7 6 2
3 22 2 6
3 0 10 1
3 12 26 4
3 12 4 467
3 26 13 4
3 4 13 15
3 14 15 13
3 44 28 15
3 44 15 14
3 15 28 5
3 490 29 16
3 490 16 6
3 9 10 18
3 20 11 21
3 22 23 24
3 6 17 23
3 6 23 22
3 26 25 41
3 26 41 42
3 26 12 25
3 26 27 13
3 13 27 297
3 13 297 14
3 45 28 44
3 29 31 16
3 30 31 682
3 17 31 30
3 16 31 17
3 18 33 32
3 18 10 33
3 33 10 0
3 33 34 50
3 33 0 19
3 33 19 34
3 34 19 20
3 34 20 21
3 23 36 24
3 30 35 17
3 17 35 23
3 24 38 25
3 42 41 40
3 14 43 44
3 60 44 43
3 44 60 45
3 541 45 60
3 682 48 30
3 32 50 49
3 32 33 50
3 50 34 51
3 51 34 21
3 54 55 53
3 745 55 48
3 30 54 35
3 59 43 80
3 43 59 60
3 61 60 59
3 60 61 541
3 541 61 11
3 69 63 62
3 62 49 64
3 62 64 69
3 68 67 74
3 49 50 64
3 71 69 70
3 64 70 69
3 64 50 70
3 70 72 71
3 70 50 51
3 70 51 72
3 65 72 51
3 37 281 66
3 37 66 65
3 65 21 37
3 74 606 73
3 53 55 73
3 73 55 74
3 79 80 78
3 79 59 80
3 81 59 79
3 59 81 61
3 82 61 81
3 87 84 63
3 63 69 87
3 87 69 91
3 87 91 90
3 92 91 71
3 91 69 71
3 94 92 93
3 71 93 92
3 71 72 93
3 65 93 72
3 88 96 89
3 606 97 76
3 78 100 79
3 140 81 101
3 79 101 81
3 81 140 82
3 107 87 90
3 107 90 111
3 84 87 107
3 281 108 66
3 85 110 88
3 113 111 112
3 90 112 111
3 90 91 112
3 112 114 113
3 112 91 92
3 112 92 114
3 115 114 94
3 114 92 94
3 108 291 115
3 101 118 140
3 122 106 121
3 125 124 126
3 121 106 126
3 121 126 124
3 126 106 111
3 128 125 126
3 111 128 126
3 129 128 113
3 128 111 113
3 131 129 130
3 113 130 129
3 113 114 130
3 130 132 131
3 130 114 115
3 130 115 132
3 132 115 291
3 290 132 291
3 109 133 568
3 568 133 134
3 133 647 134
3 519 134 647
3 136 549 733
3 137 697 155
3 566 137 118
3 138 118 137
3 138 137 180
3 139 140 138
3 118 138 140
3 142 120 143
3 144 145 146
3 144 124 145
3 145 147 146
3 145 124 125
3 145 125 147
3 125 148 147
3 125 128 148
3 148 128 129
3 148 129 149
3 150 149 131
3 149 129 131
3 151 150 132
3 131 132 150
3 151 132 290
3 549 349 153
3 549 153 733
3 179 156 154
3 155 154 156
3 155 156 137
3 137 156 180
3 138 180 181
3 138 181 139
3 146 186 160
3 162 161 186
3 162 186 146
3 162 146 147
3 164 165 161
3 164 161 162
3 147 164 162
3 147 148 164
3 167 165 166
3 164 166 165
3 164 148 149
3 164 149 166
3 169 167 168
3 166 168 167
3 166 149 150
3 166 150 168
3 168 170 169
3 168 150 151
3 168 151 170
3 349 177 153
3 473 178 177
3 153 177 178
3 153 178 154
3 154 178 179
3 619 179 489
3 515 180 179
3 515 179 619
3 156 179 180
3 180 515 181
3 188 161 191
3 188 191 190
3 161 165 191
3 191 165 167
3 191 167 194
3 167 169 194
3 188 459 187
3 191 194 339
3 339 354 190
3 339 194 364
3 194 202 364
3 451 412 473
3 533 619 645
3 489 473 645
3 489 645 619
3 202 522 364
3 16 17 6
3 38 40 41
3 41 25 38
3 38 24 36
3 36 39 38
3 65 51 21
3 54 30 48
3 48 55 54
3 75 53 73
3 93 65 66
3 66 94 93
3 95 67 89
3 89 96 95
3 107 111 106
3 106 122 107
3 94 66 108
3 108 115 94
3 133 109 127
3 127 647 133
3 186 161 188
3 194 169 202
3 169 170 202
3 459 188 190
3 190 191 339
3 459 190 354
3 364 539 339
3 202 170 533
3 533 522 202
3 547 533 170
3 28 1 5
3 0 1 28
3 536 539 364
3 536 364 522
3 619 533 547
3 10 9 8
3 8 1 10
3 697 137 566
3 489 179 178
3 178 473 489
3 118 101 566
3 412 645 473
3 116 291 108
3 108 281 116
3 152 612 603
3 192 603 175
3 192 657 674
3 175 176 192
3 640 561 565
3 565 561 657
3 492 507 690
3 492 538 507
3 565 535 640
3 690 504 492
3 535 534 504
3 504 534 492
3 314 492 534
3 640 535 504
3 657 176 565
3 612 574 603
3 603 574 175
3 465 77 416
3 722 77 636
3 99 77 722
3 1 8 2
3 349 731 177
3 177 731 257
3 257 325 451
3 674 152 192
3 192 152 603
3 325 366 402
3 657 192 176
3 7 2 8
3 68 517 67
3 455 183 709
3 183 517 68
3 18 182 9
3 32 698 18
3 7 8 9
3 46 29 719
3 182 18 698
3 698 719 182
3 49 698 32
3 643 665 46
3 84 628 63
3 62 602 49
3 602 698 49
3 62 63 628
3 46 719 643
3 602 610 643
3 146 737 144
3 146 160 737
3 737 160 158
3 160 501 158
3 159 501 727
3 186 724 160
3 187 185 724
3 724 185 727
3 158 268 143
3 143 268 142
3 268 739 142
3 708 120 142
3 142 739 705
3 727 703 159
3 104 693 120
3 693 143 120
3 187 686 185
3 120 426 104
3 426 102 104
3 725 434 201
3 201 434 189
3 103 83 678
3 257 451 473
3 717 439 725
3 163 704 439
3 188 187 186
3 187 724 186
3 695 444 703
3 703 444 159
3 347 656 388
3 730 625 205
3 173 612 152
3 173 174 612
3 706 666 713
3 686 713 185
3 713 670 185
3 127 726 647
3 174 599 205
3 174 173 599
3 205 592 174
3 580 529 591
3 713 582 670
3 713 666 582
3 205 599 730
3 572 591 529
3 86 85 89
3 89 85 88
3 174 569 612
3 174 592 569
3 568 624 117
3 185 670 727
3 727 670 703
3 172 553 730
3 553 625 730
3 625 546 205
3 546 592 205
3 216 581 518
3 568 134 624
3 123 649 109
3 109 649 127
3 201 531 625
3 647 726 591
3 726 595 591
3 546 696 592
3 691 520 513
3 173 513 520
3 625 531 546
3 546 531 696
3 529 518 572
3 591 572 647
3 572 519 647
3 580 687 529
3 89 517 86
3 89 67 517
3 599 173 520
3 520 691 599
3 704 666 434
3 434 666 189
3 736 680 580
3 736 567 680
3 625 553 201
3 201 553 725
3 717 725 172
3 725 553 172
3 667 531 189
3 189 531 201
3 503 83 103
3 83 503 510
3 102 502 104
3 102 503 502
3 502 503 103
3 160 724 501
3 501 724 727
3 163 677 712
3 172 497 717
3 497 567 615
3 717 497 496
3 496 497 615
3 641 576 605
3 576 491 736
3 615 567 491
3 491 567 736
3 703 582 695
3 703 670 582
3 704 582 666
3 649 584 127
3 127 584 726
3 646 433 415
3 726 584 595
3 595 576 736
3 171 641 605
3 672 641 476
3 476 641 171
3 713 686 706
3 706 686 656
3 615 462 494
3 615 491 462
3 462 491 576
3 672 462 641
3 641 462 576
3 672 494 462
3 612 569 574
3 67 606 74
3 67 95 606
3 675 356 463
3 498 460 494
3 656 686 459
3 459 686 187
3 457 569 592
3 615 494 496
3 494 672 498
3 677 717 496
3 110 453 88
3 117 453 568
3 568 453 109
3 183 455 729
3 729 517 183
3 628 579 610
3 68 393 183
3 183 393 709
3 86 629 85
3 86 524 629
3 46 665 682
3 682 665 47
3 677 460 712
3 596 556 513
3 710 346 141
3 717 677 439
3 439 677 163
3 490 182 29
3 182 719 29
3 470 438 509
3 438 503 102
3 119 685 484
3 685 433 646
3 494 460 496
3 496 460 677
3 88 453 96
3 96 453 117
3 674 513 152
3 152 513 173
3 725 439 434
3 434 439 704
3 640 714 561
3 714 216 587
3 216 596 587
3 714 587 561
3 587 674 561
3 123 109 110
3 109 453 110
3 640 504 544
3 544 504 690
3 587 596 674
3 119 484 426
3 426 484 102
3 120 708 426
3 426 708 119
3 142 334 708
3 708 334 710
3 142 705 334
3 159 652 501
3 640 544 714
3 524 474 629
3 484 438 102
3 596 513 674
3 83 510 579
3 579 510 718
3 509 438 413
3 413 438 484
3 561 674 657
3 524 729 638
3 339 539 354
3 736 580 595
3 580 591 595
3 517 729 86
3 729 524 86
3 433 685 141
3 141 685 119
3 171 463 476
3 567 497 635
3 635 497 172
3 417 661 390
3 661 417 379
3 590 342 384
3 62 381 602
3 602 381 610
3 62 628 381
3 381 628 610
3 602 719 698
3 602 643 719
3 574 569 375
3 184 508 620
3 643 373 665
3 665 373 740
3 643 610 373
3 373 610 740
3 84 371 628
3 83 579 371
3 371 579 628
3 740 370 718
3 718 370 579
3 740 610 370
3 370 610 579
3 444 157 159
3 157 652 159
3 710 391 346
3 355 390 479
3 402 390 355
3 633 413 646
3 661 414 390
3 390 414 479
3 417 390 402
3 433 141 743
3 141 346 743
3 47 393 745
3 745 393 68
3 325 257 731
3 740 659 665
3 740 369 659
3 659 369 709
3 665 659 47
3 508 369 688
3 509 620 470
3 508 688 620
3 620 688 470
3 325 355 451
3 740 718 369
3 718 688 369
3 455 508 184
3 369 508 709
3 709 508 455
3 293 620 509
3 503 470 510
3 503 438 470
3 470 688 510
3 510 688 718
3 184 638 455
3 455 638 729
3 257 473 177
3 745 48 47
3 48 682 47
3 682 31 46
3 46 31 29
3 74 745 68
3 74 55 745
3 7 9 490
3 490 9 182
3 325 402 355
3 611 410 136
3 136 410 340
3 100 78 408
3 408 78 601
3 450 410 611
3 697 385 611
3 408 450 385
3 385 450 611
3 80 58 78
3 58 468 78
3 650 368 297
3 297 368 14
3 650 58 368
3 14 368 43
3 340 359 136
3 359 549 136
3 47 659 393
3 393 659 709
3 408 601 348
3 468 601 78
3 450 363 410
3 501 652 158
3 155 697 611
3 154 155 733
3 733 153 154
3 408 385 100
3 566 100 385
3 385 697 566
3 43 368 80
3 80 368 58
3 384 514 430
3 335 514 384
3 710 334 391
3 391 397 342
3 365 397 705
3 335 328 514
3 342 335 384
3 342 397 335
3 328 157 630
3 157 365 739
3 739 365 705
3 365 328 397
3 397 328 335
3 328 365 157
3 444 630 157
3 514 328 630
3 664 630 444
3 463 356 660
3 590 485 342
3 650 297 411
3 11 37 21
3 184 278 638
3 290 254 151
3 254 170 151
3 158 652 268
3 268 652 739
3 119 710 141
3 119 708 710
3 157 739 652
3 541 20 3
3 695 664 444
3 334 705 391
3 705 397 391
3 28 3 0
3 0 3 19
3 3 20 19
3 676 636 57
3 57 636 77
3 431 507 538
3 722 431 99
3 117 362 96
3 431 269 507
3 636 676 311
3 352 232 317
3 3 28 45
3 75 423 53
3 581 425 519
3 519 425 134
3 95 97 606
3 302 222 435
3 222 304 435
3 352 222 232
3 352 304 222
3 435 304 581
3 581 304 425
3 544 435 714
3 544 302 435
3 97 207 76
3 97 741 207
3 624 352 616
3 317 372 98
3 317 232 372
3 707 232 302
3 232 222 302
3 714 435 216
3 216 435 581
3 734 76 406
3 76 357 606
3 75 73 357
3 357 73 606
3 624 616 117
3 616 362 117
3 616 352 209
3 209 352 317
3 209 317 98
3 304 352 425
3 423 75 218
3 218 75 734
3 96 211 95
3 95 211 97
3 211 741 97
3 741 211 362
3 362 211 96
3 394 406 631
3 631 406 98
3 406 76 207
3 134 425 624
3 425 352 624
3 362 209 741
3 209 98 741
3 741 98 207
3 207 98 406
3 210 56 40
3 75 357 734
3 734 357 76
3 210 344 449
3 394 734 406
3 52 204 423
3 423 204 53
3 204 54 53
3 616 209 362
3 208 449 218
3 210 676 56
3 210 449 676
3 39 52 344
3 344 52 423
3 56 676 57
3 52 39 36
3 218 449 423
3 676 449 311
3 208 734 394
3 734 208 218
3 39 344 210
3 344 423 449
3 636 303 722
3 722 332 431
3 372 631 98
3 449 208 311
3 269 431 332
3 332 594 269
3 288 269 594
3 594 332 319
3 594 372 288
3 372 232 288
3 394 303 208
3 311 208 303
3 311 303 636
3 507 269 707
3 707 269 288
3 288 232 707
3 631 319 394
3 394 319 303
3 707 302 690
3 690 302 544
3 507 707 690
3 319 631 594
3 594 631 372
3 608 669 477
3 626 608 477
3 461 669 309
3 303 319 722
3 722 319 332
3 56 42 40
3 664 264 626
3 264 608 626
3 54 204 35
3 35 204 52
3 712 264 163
3 163 264 695
3 5 1 467
3 467 1 2
3 245 275 621
3 534 671 285
3 535 671 534
3 695 264 664
3 99 431 341
3 341 431 538
3 460 461 712
3 461 309 712
3 516 454 614
3 614 454 498
3 608 309 669
3 176 671 565
3 565 671 535
3 309 264 712
3 155 611 733
3 733 611 136
3 79 100 101
3 100 566 101
3 38 39 40
3 39 210 40
3 52 36 35
3 36 23 35
3 649 623 584
3 730 599 597
3 597 599 691
3 605 584 623
3 171 675 463
3 607 527 123
3 123 527 649
3 607 551 527
3 467 505 12
3 505 25 12
3 675 171 387
3 171 605 387
3 387 605 623
3 649 527 623
3 623 527 551
3 551 387 623
3 537 387 551
3 604 436 105
3 604 607 436
3 436 607 123
3 675 387 537
3 264 309 608
3 409 607 604
3 110 436 123
3 42 56 382
3 382 56 57
3 537 482 675
3 25 505 24
3 24 505 22
3 551 607 409
3 409 537 551
3 42 27 26
3 635 597 663
3 663 597 691
3 416 559 465
3 518 519 572
3 518 581 519
3 57 77 465
3 680 663 488
3 488 663 691
3 680 488 580
3 580 488 687
3 556 596 518
3 596 216 518
3 556 577 513
3 577 687 488
3 650 465 559
3 650 411 465
3 57 465 411
3 556 518 687
3 687 518 529
3 556 687 577
3 382 57 411
3 411 297 382
3 297 27 382
3 382 27 42
3 513 577 691
3 577 488 691
3 559 234 468
3 650 559 468
3 22 505 2
3 2 505 467
3 644 409 604
3 468 234 601
3 601 234 348
3 650 468 58
3 409 586 537
3 409 644 586
3 605 563 584
3 584 563 595
3 605 576 563
3 563 576 595
3 450 348 363
3 450 408 348
3 537 586 482
3 675 482 356
3 482 586 466
3 586 644 578
3 667 189 716
3 466 586 429
3 429 586 578
3 730 378 172
3 172 378 635
3 730 597 378
3 378 597 635
3 578 644 486
3 486 644 604
3 486 604 105
3 422 578 486
3 85 436 110
3 410 363 340
3 416 341 392
3 77 99 416
3 341 416 99
3 314 538 492
3 538 593 341
3 538 314 593
3 635 443 567
3 567 443 680
3 635 663 443
3 443 663 680
3 471 693 104
3 103 678 555
3 555 678 122
3 122 723 107
3 107 723 84
3 122 678 723
3 723 678 84
3 143 693 668
3 440 471 481
3 481 471 104
3 121 440 122
3 440 555 122
3 502 103 481
3 481 104 502
3 124 440 121
3 144 456 124
3 144 668 456
3 440 481 555
3 555 481 103
3 440 124 456
3 678 83 371
3 371 84 678
3 471 456 693
3 456 668 693
3 440 456 471
3 143 442 158
3 143 668 442
3 442 668 144
3 392 341 593
3 139 446 140
3 446 82 140
3 515 380 181
3 61 82 11
3 37 446 281
3 139 447 446
3 446 447 281
3 380 290 116
3 116 290 291
3 542 273 696
3 457 592 273
3 273 592 696
3 307 254 290
3 37 11 82
3 254 547 170
3 254 307 547
3 380 307 290
3 515 307 380
3 547 307 515
3 281 447 116
3 139 380 447
3 447 380 116
3 181 380 139
3 37 82 446
3 737 158 442
3 442 144 737
3 590 329 485
3 600 203 669
3 669 203 477
3 203 430 477
3 681 485 329
3 743 532 433
3 532 654 452
3 433 532 415
3 415 532 452
3 351 523 700
3 618 351 700
3 639 562 681
3 681 562 743
3 639 654 562
3 301 326 452
3 466 429 299
3 618 298 351
3 422 200 578
3 578 200 429
3 532 743 562
3 562 654 532
3 590 744 329
3 744 400 618
3 329 199 681
3 681 199 639
3 329 700 199
3 199 700 639
3 384 197 590
3 499 400 197
3 523 193 700
3 700 193 639
3 523 312 193
3 193 312 639
3 600 198 499
3 301 475 326
3 200 301 324
3 696 345 542
3 667 445 345
3 345 445 542
3 486 337 422
3 324 560 654
3 654 560 452
3 324 301 560
3 560 301 452
3 20 541 11
3 667 345 531
3 531 345 696
3 516 240 454
3 454 240 600
3 516 198 240
3 240 198 600
3 454 735 498
3 498 735 460
3 454 461 735
3 735 461 460
3 706 511 666
3 666 511 189
3 706 716 511
3 511 716 189
3 105 337 486
3 744 590 197
3 197 400 744
3 539 721 354
3 354 721 388
3 699 721 539
3 699 539 536
3 391 683 346
3 346 683 485
3 391 342 683
3 683 342 485
3 477 653 626
3 477 430 653
3 653 430 514
3 388 721 634
3 451 355 412
3 412 355 479
3 699 414 634
3 634 721 699
3 533 424 522
3 424 548 522
3 699 479 414
3 699 548 479
3 630 653 514
3 547 515 619
3 388 407 347
3 347 407 389
3 388 634 407
3 407 634 389
3 412 424 645
3 645 424 533
3 430 203 499
3 499 203 600
3 461 622 669
3 669 622 600
3 461 454 622
3 622 454 600
3 479 548 412
3 548 424 412
3 522 548 536
3 548 699 536
3 326 558 452
3 452 558 415
3 326 195 558
3 558 195 415
3 542 609 379
3 542 445 609
3 464 528 728
3 614 512 495
3 498 441 614
3 476 512 441
3 441 512 614
3 347 437 656
3 656 437 706
3 347 716 437
3 437 716 706
3 499 353 430
3 430 353 384
3 499 197 353
3 353 197 384
3 660 338 463
3 463 338 476
3 660 512 338
3 338 512 476
3 45 541 3
3 526 277 383
3 681 711 485
3 485 711 346
3 681 743 711
3 711 743 346
3 704 617 582
3 582 617 695
3 704 163 617
3 617 163 695
3 347 673 716
3 445 667 673
3 673 667 716
3 656 469 388
3 388 469 354
3 656 459 469
3 469 459 354
3 646 418 685
3 685 418 484
3 646 413 418
3 418 413 484
3 389 414 661
3 389 634 414
3 356 399 660
3 464 684 399
3 728 383 464
3 429 200 613
3 613 200 324
3 299 429 613
3 613 427 299
3 495 512 374
3 374 512 660
3 427 478 299
3 299 478 728
3 427 648 478
3 478 648 728
3 427 322 312
3 312 322 324
3 427 613 322
3 322 613 324
3 495 321 614
3 614 321 516
3 321 720 516
3 343 495 374
3 351 318 523
3 351 526 318
3 318 526 383
3 702 310 298
3 648 383 728
3 464 277 684
3 277 500 684
3 399 684 374
3 374 660 399
3 528 464 399
3 399 356 528
3 277 464 383
3 720 543 516
3 702 198 543
3 543 198 516
3 523 318 648
3 648 318 383
3 298 310 267
3 267 310 500
3 728 262 299
3 299 262 466
3 728 528 262
3 262 528 466
3 466 260 482
3 482 260 356
3 466 528 260
3 260 528 356
3 258 500 310
3 277 526 267
3 267 500 277
3 720 321 343
3 343 321 495
3 523 282 312
3 312 282 427
3 523 648 282
3 282 648 427
3 298 284 702
3 702 284 400
3 298 618 284
3 284 618 400
3 298 267 351
3 351 267 526
3 500 251 684
3 500 258 251
3 329 249 700
3 700 249 618
3 329 744 249
3 249 744 618
3 474 248 629
3 629 248 105
3 474 337 248
3 248 337 105
3 702 300 310
3 720 258 300
3 300 258 310
3 543 720 300
3 300 702 543
3 312 244 639
3 639 244 654
3 312 324 244
3 244 324 654
3 343 251 720
3 720 251 258
3 684 251 374
3 374 251 343
3 184 404 278
3 293 530 404
3 389 673 347
3 389 609 673
3 673 609 445
3 379 655 661
3 661 655 389
3 379 609 655
3 655 609 389
3 487 662 206
3 400 642 702
3 702 642 198
3 400 499 642
3 642 499 198
3 574 662 175
3 626 653 664
3 664 653 630
3 206 588 375
3 375 588 574
3 206 662 588
3 588 662 574
3 375 570 206
3 377 637 570
3 375 552 220
3 220 552 457
3 375 569 552
3 552 569 457
3 105 483 629
3 629 483 85
3 105 436 483
3 483 436 85
3 377 570 220
3 220 570 375
3 220 472 417
3 417 472 379
3 220 457 472
3 377 564 637
3 349 480 731
3 480 550 731
3 550 398 366
3 398 564 366
3 672 476 441
3 441 498 672
3 679 692 359
3 637 564 575
3 571 350 692
3 571 480 350
3 350 480 349
3 331 571 692
3 376 327 403
3 359 323 549
3 549 323 349
3 359 692 323
3 679 360 331
3 331 692 679
3 350 349 323
3 323 692 350
3 571 316 480
3 480 316 550
3 571 420 316
3 315 575 585
3 398 313 585
3 398 550 313
3 135 308 340
3 340 308 359
3 135 679 308
3 308 679 359
3 428 305 403
3 403 305 376
3 428 506 305
3 305 506 376
3 571 296 420
3 420 296 428
3 571 331 296
3 296 331 428
3 315 403 327
3 316 420 313
3 313 550 316
3 585 521 398
3 398 521 564
3 585 575 521
3 521 575 564
3 428 287 506
3 506 287 360
3 428 331 287
3 287 331 360
3 403 315 283
3 283 315 585
3 403 283 428
3 428 283 420
3 313 420 283
3 283 585 313
3 731 419 325
3 325 419 366
3 731 550 419
3 419 550 366
3 379 557 542
3 379 472 557
3 557 472 457
3 487 265 336
3 336 265 540
3 265 320 540
3 575 263 637
3 575 315 263
3 506 259 376
3 320 637 263
3 263 540 320
3 540 263 327
3 327 263 315
3 367 573 227
3 360 306 545
3 421 259 256
3 256 259 545
3 715 306 135
3 376 432 327
3 432 292 336
3 294 256 545
3 259 421 292
3 175 255 176
3 227 245 255
3 363 252 340
3 252 135 340
3 545 250 360
3 360 250 506
3 545 259 250
3 250 259 506
3 738 247 658
3 336 367 487
3 294 545 306
3 715 658 247
3 247 598 715
3 658 246 738
3 363 348 246
3 573 242 275
3 242 292 421
3 651 241 742
3 241 294 598
3 239 238 285
3 285 238 534
3 239 314 238
3 238 314 534
3 227 237 245
3 245 237 275
3 227 573 237
3 237 573 275
3 662 236 175
3 236 367 227
3 135 235 715
3 715 235 658
3 135 252 235
3 235 252 658
3 255 175 236
3 236 227 255
3 252 363 246
3 246 658 252
3 176 233 671
3 671 233 245
3 176 255 233
3 233 255 245
3 246 348 234
3 327 432 540
3 540 432 336
3 598 253 715
3 715 253 306
3 598 294 253
3 253 294 306
3 314 448 593
3 593 448 274
3 314 239 448
3 285 395 239
3 285 621 395
3 395 621 742
3 292 627 336
3 573 367 627
3 627 367 336
3 241 598 554
3 275 226 651
3 651 226 421
3 275 242 226
3 226 242 421
3 738 396 266
3 266 396 234
3 738 246 396
3 396 246 234
3 256 225 421
3 421 225 651
3 256 294 225
3 242 573 627
3 627 292 242
3 241 651 225
3 225 294 241
3 554 493 241
3 241 493 742
3 554 228 493
3 493 228 742
3 266 458 738
3 458 229 333
3 366 401 402
3 402 401 377
3 366 564 401
3 401 564 377
3 333 224 554
3 274 228 224
3 224 228 554
3 234 559 266
3 738 694 247
3 247 694 333
3 738 458 694
3 694 458 333
3 135 286 679
3 679 286 360
3 135 306 286
3 286 306 360
3 376 632 432
3 432 632 292
3 376 259 632
3 632 259 292
3 637 583 570
3 570 583 206
3 637 320 583
3 583 320 206
3 239 228 448
3 448 228 274
3 742 228 395
3 395 228 239
3 274 276 229
3 229 276 333
3 274 224 276
3 276 224 333
3 229 271 392
3 229 458 271
3 271 458 266
3 285 279 621
3 621 279 245
3 285 671 279
3 279 671 245
3 229 223 274
3 274 223 593
3 229 392 223
3 223 392 593
3 367 221 487
3 487 221 662
3 367 236 221
3 221 236 662
3 273 542 557
3 557 457 273
3 651 701 275
3 275 701 621
3 651 742 701
3 701 742 621
3 559 219 266
3 392 271 219
3 219 271 266
3 392 219 416
3 416 219 559
3 247 295 598
3 598 295 554
3 247 333 295
3 295 333 554
3 320 732 206
3 206 732 487
3 320 265 732
3 732 265 487
3 196 525 243
3 243 525 474
3 196 337 525
3 525 337 474
3 422 280 200
3 200 280 301
3 422 475 280
3 280 475 301
3 326 475 272
3 272 475 196
3 524 361 474
3 361 243 474
3 272 270 289
3 530 330 404
3 404 330 278
3 530 358 330
3 330 358 278
3 326 261 195
3 195 261 289
3 326 272 261
3 261 272 289
3 243 231 196
3 196 231 272
3 243 270 231
3 231 270 272
3 278 230 361
3 361 230 243
3 278 358 230
3 638 278 361
3 361 524 638
3 195 217 415
3 415 217 646
3 195 633 217
3 217 633 646
3 422 215 475
3 475 215 196
3 422 337 215
3 215 337 196
3 289 214 195
3 195 214 633
3 289 530 214
3 293 213 633
3 633 213 413
3 293 509 213
3 213 509 413
3 417 589 220
3 220 589 377
3 417 402 589
3 589 402 377
3 289 386 530
3 530 386 358
3 289 270 386
3 386 270 358
3 633 212 293
3 293 212 530
3 633 214 212
3 212 214 530
3 293 405 620
3 620 405 184
3 293 404 405
3 405 404 184
3 243 689 270
3 270 689 358
3 243 230 689
3 689 230 358
