# vtk DataFile Version 3.0
A great-looking cell
ASCII
DATASET POLYDATA
POINTS 948 double
153.30317486356762 340.88155574627024 3.0606230473597957
154.56414618505727 340.0703823151667 4.436065759996071
156.22500643356474 340.844149848944 3.647395864369569
145.40120109885257 341.78135713117496 0.8302923697666431
146.63557461371457 341.0407622913167 2.112579916739024
148.3476539264901 340.3036449215968 2.000600034767271
149.64412535225637 341.12199092182044 0.581016318841306
150.19806771833893 340.44970869852506 2.2032843971202967
151.89328819943756 341.1985646373064 1.3540823461232439
154.1615938782761 340.7625407490681 1.3283922250417832
156.01193024242667 341.06993487910097 1.8293027271885618
157.56781254562742 342.0502832642139 2.7410932873346603
157.76870925654387 341.16610792360734 4.652985788306951
158.442103239488 342.5841576437505 4.346302859141925
158.7858717781308 342.05593781597804 5.973419297376029
143.69033922870568 342.8916246345182 2.2782533196076824
159.78140330831852 343.5783585441453 5.048421503947746
160.90552964287525 344.23627146809764 6.749390970471133
146.501161633216 343.00589549032804 -1.1029246486100055
148.25516538039673 344.3465701775884 -1.78416195434966
150.57252491194492 344.2042730194038 -1.8577086848728115
152.60728147845168 343.38749487819354 -1.5135090146567076
154.64469757500078 343.15433820633444 -1.150353392267918
156.5811001138064 343.110143062097 -0.4796409660237334
161.488417654468 345.79510120991006 6.796470747371547
143.67783504645647 344.95828331620726 1.651123037142411
149.01725019603902 346.06990300344637 -3.0440413935080883
151.638760353944 346.1789967567484 -2.826926348986388
159.89444804639663 344.764086173168 3.615511900763158
149.08196372979666 348.35043620634036 -1.9108909327360182
151.59949782763294 348.86603169161793 -2.5668458828819505
153.59600470695986 347.3994794069786 -2.392539916338666
155.54792473558481 346.5924448154305 -2.398812001910808
156.9292401388379 346.12555548634776 -0.8467013034045033
158.29081146325157 345.5364822937495 0.3714261688010312
159.15516271723902 345.0665845382309 2.0566917316913003
160.35218829234924 345.6866193355105 5.199179098135292
152.4714314772712 349.22515733483425 -0.24361054962635362
154.38478767144338 349.33565804948984 -0.19273574760253706
156.21857073828437 349.98005304966415 -0.7413849977250271
157.87062489173383 348.9759554837382 -0.2680291962829808
158.3030368942046 347.2989090700999 -0.22696446483635993
153.5621875783401 350.1272333671075 1.3356490260521863
157.14319891581036 349.46579462712543 1.167817321657752
159.20330768432842 346.78363451296076 1.4053605840548449
154.65061701436005 349.9131693970275 3.0938807022476715
155.94444706987377 350.3316888000794 4.618318190527678
156.48549066960678 349.67911898424995 2.870421122941224
158.14528152446726 349.21838509597353 2.701527361899652
159.3169440607036 347.95569801299126 2.799615144677487
160.10646927918555 346.3246790033533 3.106033854705313
148.1040643197461 338.6211926385335 4.986805173076681
151.4296378163772 339.3138183993285 4.906022495032428
152.7916954155548 340.1114837890874 4.42931086144401
153.25619427385 338.72265132518015 5.363139970407857
155.02400454875402 339.03010893672274 6.26462111842044
156.41387755727672 340.1535138201239 5.453040846697065
158.22641922949913 340.2366747497073 6.370210045976273
143.4112669765594 341.7480340979974 4.058921081694091
144.3715629319066 339.86516180256615 4.785295007200447
146.8564934498194 339.7973106010469 3.717769289243626
149.46083780642505 339.72846658474 3.905687338388084
151.4910142887192 340.41744135629114 3.3749894971332504
159.7362939584716 341.09404906049105 7.792624571489681
160.0161109790137 342.8176886042769 6.875902542466581
143.21170334127933 343.85889019878886 4.570959425286869
141.8319206968195 345.3344281110045 5.176466828673085
161.3790500544146 342.72530744222917 8.461248064280554
142.89206114399778 345.86256053562903 3.605853110403871
143.52213701922767 347.13054922189383 1.6807685510340913
162.06444969469854 344.9163759496106 8.345916425633078
143.79076788667032 349.27603354086125 2.1611353956958608
145.08352815423413 347.8877283261263 -2.6953379391510683
145.3510637527853 350.2611151616896 3.2680217402982974
145.6765791382193 349.7903932740099 1.078493032299821
147.50545153847176 350.37618261133144 2.6275814550845795
147.88933409281543 349.57917142738887 -0.02914595756434616
149.2505276207077 350.9746095780663 3.296202096561378
149.56012059017016 350.26139869863573 1.6641711695905854
150.76104838197384 350.22617182686116 3.2748384895580926
151.58572177359486 350.16321845144654 1.4210291709642169
152.70440223862917 350.1874774041764 3.2076903531741117
157.36888717237838 350.8766713807758 5.930553015439484
157.71639415242691 349.9004808975766 4.320120588943384
158.94352469780222 349.9591870906546 5.745942954559201
159.35294924272927 349.1809512361766 4.14689756925858
160.42235056190898 348.9741212813184 5.7277747766339875
160.15740975145818 347.58671455920165 4.506499290540438
161.06055359271144 347.3031189619326 6.233052812433576
143.27205694955245 337.2275675596259 7.430508027792325
145.85372234765083 337.0840538010103 7.644257340725374
148.100784439833 337.7483114774947 6.671298710606022
142.29063919388952 339.028447183298 6.046615672391688
144.41897531120972 338.28224414707444 6.234727111697134
148.32947932022552 336.7477519182967 8.710965297923124
150.0896702857934 337.61668111752164 7.584137312347333
151.7095060020007 338.27298100734805 6.510705444616192
152.03531845441776 337.5722542095669 8.368897562985298
153.45532483622242 338.5927854925239 7.389062098242116
155.23632090000245 338.5862648892796 8.197698033280632
156.67670692007778 339.4080328240327 7.277132390125572
156.88441313848026 338.7147835672126 9.04320948708231
158.20121053372233 339.75483381571365 8.353561622787693
158.18246164242674 339.0488078576866 9.88414186541808
159.4194371409979 340.0583594066364 9.780245367223625
140.4039753651295 342.53521076817475 6.320805856618436
141.74515358669953 342.30915416724673 4.933869065294697
140.9502297722161 340.8385188275689 5.747362078649299
142.47882862837656 340.6823422516141 4.9497460649439775
149.83783988532076 338.46121020453654 5.711857193022656
160.556361574175 341.29311798381985 9.644704975711031
161.51066008679027 342.1759475454273 10.702988746915642
141.32726486833076 343.99093828161614 5.87299837890823
140.04950448041495 343.995039386541 7.043086495274298
161.78210815816706 343.23177275815345 11.899023269349696
162.53989234134872 344.64088217376053 12.181548056420752
140.52769828238428 345.90140491733877 6.966900164315962
161.99731402890959 343.9910444868166 10.319596520190867
141.69760522974207 347.1134940716973 5.275275558208246
142.60086882036038 348.17134780652384 3.6333731442993438
140.68197238576855 347.94643789310686 6.647283929301593
141.68613873401694 349.4331571784317 5.646419077704998
143.6349403559179 350.3442848070458 6.453082070808617
143.66694069692673 349.7707872602924 4.3751653229294
144.94589528184156 351.3846046487071 6.909049219234617
145.03588753045776 350.9844603369473 5.172530965892761
162.756881565767 346.21824189753397 10.335066312700937
146.72107385994778 351.7018055821382 6.206672381619521
146.54885652222785 350.9893994610113 4.347461090435551
148.1844903760777 351.28751981340673 4.6224203422736565
149.99317584780957 350.9437107654244 4.860587602043866
161.75940879353544 346.90463926723675 8.120786050919047
151.7747294610255 350.50128332151877 4.9491215326697
156.85857415739102 351.0606133261555 7.814958548245253
158.72189839627805 350.8004065820856 7.416872947230087
153.89128365356726 350.4022909622764 5.177420843938027
155.53284137641998 351.11287231370994 6.385669252963533
159.92570961072704 349.77422116388084 7.062666408832132
160.99181098218364 348.64915614535386 7.578271464306717
144.14517670888736 336.1053907082511 8.973672626123975
142.0676565444338 336.2057691066877 8.976082679175514
139.95040729675438 336.785393240671 9.327600222232036
140.92894197020684 337.5685580543931 7.510896032429047
149.06662224696743 335.8520430701286 10.751780707018312
150.4527465713985 337.01807653263364 9.551451061454715
152.28197618939586 337.41638454623956 10.333320509519389
153.76324632536142 337.98223497162536 9.24846679195402
153.96734633770754 337.7982240766189 11.159957866864232
155.45290278079412 338.2494623452626 10.080813340253938
155.69183552300586 337.8812014199444 11.92769349865099
157.1759890832026 338.19912153208776 10.813777668328049
157.37282233608872 338.0843473934246 12.706822460288413
158.91172948321525 338.942960859137 11.602058393624393
158.68435358200628 338.5796453192717 13.48422131783711
160.17928061376094 339.1916835832344 13.312967855189052
139.9450877370766 339.46622794956596 6.723589962543004
139.2631216817802 338.734029531099 8.630171010727077
138.73468966775846 340.6999348949801 8.0598520879948
139.48406495598906 341.2596671183703 6.604680897182123
160.7464976249927 340.36219684629464 11.486089830564666
161.15924621372847 340.51277288938417 13.413244196527613
138.7617139801478 342.80450285853334 7.589150191033011
161.7722400985898 341.7689288709949 12.581119683276643
162.32168267289458 343.1999533509703 13.494118423456689
162.98592228882504 344.8028630858815 14.218892413363637
139.29030624697307 344.681694010535 8.515095893318508
163.34597931120197 346.41223410980723 12.847378317005074
138.42350988561373 347.6293062410253 9.817823830281451
138.84167505467744 346.35856369486237 8.402884725309553
139.7535988589555 347.7673252998969 8.167778696794908
141.32119104856585 350.78835496724207 9.407744368688059
140.8704113704502 349.2617151712619 7.85491784097157
143.62274961997946 351.45325054947074 8.600923064393493
142.24769445178714 350.2165775295036 7.609358073566125
162.52415297984442 348.1846131922073 11.80593233497988
147.21522353683994 352.9315570122276 9.618840832297991
145.8031051040959 352.26418637853084 8.195545084211354
147.58225790498093 352.2663829845793 7.884115234135023
148.98100053751963 352.0248484277295 8.982738267199835
149.04524483123606 351.4875352788104 6.743653011927145
150.99849609148401 351.26442711857004 8.342411819156865
150.81497948429808 350.7849588161102 6.36514825858435
152.4684413964918 350.4661731116868 6.833347529882977
156.3905396348557 351.73555862808706 9.567642033285093
158.17942318860813 351.0166815596648 9.32278855630426
161.83221641418876 348.4466233907659 9.58338388640003
154.12402889161498 350.7016017680119 7.112070172264431
155.0906779896547 351.63260011498994 8.162184855731223
160.1261696284391 350.01816783691146 9.000879729018738
140.85800278246427 334.6839551315428 12.203176320440187
143.20546707808947 334.59199874056713 10.659082506118684
139.27820962126034 336.1104654946164 11.230283129365189
141.06794116302765 335.66662972405464 10.47257652828076
149.98573749811612 335.5732429877077 12.68697599891557
150.92124694525236 336.6944479480232 11.454427588855264
151.50616427541894 336.23463425084555 12.845314780369709
152.7048440464384 336.72706371221534 12.000281438299094
152.73291553935186 336.5495907137838 13.777777406286399
154.2812651533277 337.11941552223846 12.902970182562592
154.30846694847642 336.9686624852261 14.861047510977238
155.87073068528784 337.70776809372813 13.851347503416985
156.23098208583696 337.255230969111 15.984540039563427
157.51738588373172 338.23457904741537 14.599135898257307
157.96866190612798 337.8678456899243 16.126639756700765
159.35781826974764 338.5363527987393 15.201157846645062
138.09320148224313 337.77298191058634 10.233772079678912
137.69768263876898 339.9503778828643 9.733155557360108
160.9077664101338 339.82683665312334 15.006622699727432
161.67687985998995 340.5594630753078 16.648798597589394
162.59873488022666 341.9028341933086 16.483564794820026
137.70156307680674 342.06444486360846 9.35608786389054
136.9584580526776 341.48541223279585 11.32469311277107
137.45951153355247 343.607972754264 10.940783012174213
161.89478284217927 341.5726249470702 14.719008581293359
162.80982937857243 343.21821452757973 15.408384342370992
163.2908493630879 344.8361781239262 16.287487486380645
137.99788721919225 343.7779936421052 9.148937662109132
137.4445371248516 345.59162554455645 9.765497300787283
163.67037202012676 346.48508431899 17.232063431638252
163.60461900568345 346.51102751638115 15.106843569538116
138.47597332405093 348.94392617374405 11.691045438657628
140.52719103026251 350.3576862894673 11.97011375070649
139.90156085630343 349.1186014971272 9.823000097051336
142.59824593319365 351.9673320651581 11.447143339737218
144.53604051285345 353.20701542517645 12.903273369057242
145.00485068091572 352.83739119472733 10.358111779153418
146.851456400658 353.3749782902448 11.916805376858937
163.3143062814721 348.382289959573 16.26185327835827
148.8893152755695 353.3976696207191 13.2421173004721
148.9366162102014 352.89387662063467 10.954579151557532
163.2220749913889 348.2338527193192 13.948253258172885
150.7790368170824 352.09992621890615 12.223416567675825
150.3229942055758 351.8956843256178 10.193181208821182
152.47932638922524 351.04259627860046 12.212558729978788
151.85366173185952 351.06879793347906 10.50678546941173
157.07663013747012 352.1968563075793 12.651334869896951
157.5262727397964 351.5525065884492 11.137362741695638
158.56719735669418 351.42236337175893 12.785604850957874
162.1057219830192 349.71706316998234 13.149347597167791
153.7211912362559 351.23611254662626 10.972564920894483
153.34657990299604 350.6780390528111 8.879804798697618
155.55588159134845 352.19330363131985 11.463698440643276
154.8336233697877 351.4780360928375 9.80870672101329
160.37263641839718 350.66049300486225 12.894073645407946
159.34929975655743 350.7752083630527 11.04728295914195
161.17173575808894 349.76550014742054 11.202980389892636
142.85380929840764 333.58228885670553 13.306202693912805
140.36783237335433 333.67094598387314 14.735999112525876
157.5196171921147 337.3924209880403 17.62771214327331
138.11882264491896 334.65578552012255 15.103845446224542
138.62277624291713 335.1269610619528 13.16560659402442
149.14249323799967 334.69066889744175 14.48771123787873
151.078925160243 335.78384757942797 14.316441084132546
152.52073757419922 336.2683041252036 15.682464649487258
154.21657152340273 336.68913337058933 16.905694264294983
159.14329528941838 337.9792355797843 17.221036718731003
160.07530304063036 338.5854148737523 18.43818634982067
135.85338907758612 340.85207276935813 13.352330736337521
136.77196857987704 339.1961706099137 11.6452526060418
135.53483878603967 338.268868573582 13.50579016394255
137.2928803553549 336.94031871408464 12.203935736504764
137.03649311663827 336.43454066937903 14.44964406741738
160.48746119997531 339.1268029337574 16.824886367083604
161.1950795742389 339.80359546789975 18.493662969003182
162.49052870798423 341.4523548154475 18.41977734070155
163.07694901141326 343.16645264668 19.42139422817768
163.06457417776045 343.2057936503246 17.39381208281298
163.5255697100617 344.819339114423 18.380404342368518
136.16245510959462 343.2083326423958 12.861919450554629
135.12646939752764 344.93720450796684 13.907867801933133
136.32071637984203 345.3765542029179 12.144180848931306
135.72226718488375 347.3291326203877 14.22908724492958
136.65359846953538 347.566451023808 11.478295047893
163.59237980383134 346.53821634576366 19.25385654242172
136.51640998573862 350.2712636329123 14.883148220228632
136.62421380635615 349.20159737689744 13.134310746315554
138.39905300431917 351.2194707012869 15.79114325305725
138.48280717391089 350.19142757337545 13.63810250715502
140.53544973850833 352.3996767320608 16.397424850738435
140.208439575419 351.5046514014081 14.120398953291986
142.94745002569516 353.46649254880305 17.010847275148436
142.29688119103162 352.6356805467768 14.235651467952511
163.519894370548 347.852682324538 18.143467486827337
145.1383055711754 353.8884582535582 16.56823948067553
144.269436204295 353.4739445049677 15.056849373499784
146.55999951673212 353.71666294491786 14.64687751406861
149.07601870192863 353.4635712911954 15.66687277297831
163.2300781831713 348.2792040584196 19.79023575589506
162.90093804327896 349.3937958874664 18.15827922290783
151.09406827999624 352.1644849638654 16.374075438489026
150.44051882402798 352.54215818675044 14.338539518219955
152.26495755241973 351.4233730729896 14.203457327269442
155.87508069632153 352.64271034705956 16.349438852942388
155.72447968110492 352.2982295785657 13.719204324607134
157.63577125353163 352.2468665792346 14.381222022855537
158.52110403463053 351.97759097841964 16.355092248407118
162.83204325644908 349.72488119497854 14.861895827990645
154.21558898973734 352.06617271224263 14.67522187532189
154.0684648133941 351.5103234875208 12.90385050451996
160.55281351000704 351.2842630821786 16.369387334221408
159.42075920251278 351.1693703957281 14.60964918777523
162.0654095719262 350.02396026277904 16.421944523605035
161.33010735116068 350.6159152537296 14.686583199909297
148.6149127308719 333.16894526416166 16.659418499096034
148.75662824959358 332.51705186638634 18.983081987351262
150.70792294833925 335.011129315828 16.29753935002481
155.71262785260947 336.9473743653592 19.92728688927265
155.80049054955856 337.0471935593377 18.09453025974785
157.2784417662719 337.2515390823869 20.627379921691343
157.0174572348998 337.2418271566573 19.113770179523925
136.09139445517812 334.031851132061 18.961615131206063
138.30075799431089 333.02683683695756 16.897741020243476
150.3330657889865 334.4877942264752 18.860107731396745
152.3398331147469 335.8726595584239 17.793444512525852
152.2620048644018 335.95776199190766 20.00260995951136
154.11751024335643 336.42639963966667 18.954309049939877
158.6864597265261 337.70105151513417 19.268434011613323
158.78549588094037 337.7422205614856 21.44801699219135
160.41382751684728 338.7981522482818 20.385965791494037
161.2851493883071 339.8517370775521 22.077160031272037
135.29293369022432 337.5320940034814 15.834367909613679
134.55055710330066 336.46508590745447 17.88960313248135
134.34995935548545 339.07706039817595 17.64293840955624
136.55335954392993 335.3489872275049 16.510719317211993
161.7260386245772 340.50208867691737 20.237084199134543
162.49977669836812 341.8802472877896 20.245493101501577
162.2513697802736 341.34488401207534 21.776736336074737
162.9371199707001 342.9305288420669 21.357862293392913
134.54755366942797 340.0053308226316 15.353403130769935
134.11747188029247 341.5600144251149 17.451659684214523
163.40840147417128 344.87166005562443 20.704909705390897
163.7056428363241 345.6972558363784 22.4860350626033
134.8647195345794 342.9243061464808 15.24563730631282
133.83761859261526 344.1125371344631 17.788428034884035
134.46054241021375 345.73986799144853 15.99105793408236
133.0681695149705 347.4394814428196 17.14408847994444
163.51088173044292 346.9228883441499 21.237189408482784
133.9873307216524 351.70459963411946 19.245972228892096
134.34027065890086 349.4911645905218 15.693959117320004
136.33535839587995 352.7589415737898 20.033583062281984
135.89666894606103 351.651851502112 17.095904988564033
138.80710209567138 352.873080691747 20.35828392283673
138.51614254279346 352.16847105877713 18.189885007652933
140.969037233089 353.1803722941582 19.091542182749333
142.88343726864886 353.91269142467934 20.973274910044918
145.29227682615908 354.3089432133524 21.327074586827695
144.83241952394397 354.1100520719047 18.888209356686826
147.64660952623643 354.14789813281095 20.138348806777657
147.18116334967485 353.9991683470164 17.326097728246534
149.70255548954367 353.1014860802144 20.202423170973596
149.64351385319068 353.2025631004388 18.165365046772063
163.17564966733164 348.7581494028921 21.735532590582242
151.14496951401117 352.09821787099486 19.4787380656931
151.02290988027758 352.20342296173703 17.99461779752012
152.21433089458344 351.3700253755111 17.962711259521964
155.8558823073962 352.8035157627618 19.049410380305492
157.29544107754242 352.4768930603154 20.057574416488364
157.70862983041408 352.2984264666063 18.309590958605153
158.80960233289048 351.73356857701623 19.895414121810532
154.14102451584785 351.99160904514736 18.207586655854172
153.35138211606127 351.6654583988924 16.28995000719614
160.56361889878679 351.0268051169469 19.885088928028107
159.65318556443586 351.5790856116962 18.16801754732276
162.4229493838774 350.1665995449541 20.210086145475085
161.64933151981907 351.0001334852041 18.192102450669893
145.2014420669501 329.6120763972507 19.789000367656243
147.87223889245234 330.970278034989 20.651058271698567
134.96224482190127 330.89347587713314 23.898295533688135
136.95602968916947 330.960942345442 21.86816752727929
149.6512599469046 332.9961168791021 20.821229353546897
155.902468679639 336.95671095277754 21.76194876524765
157.41649727937605 337.2121093558518 22.21845323462605
133.38997354582258 332.49789585912686 23.356358967903756
134.70739859096292 333.02891954822184 21.261425370687107
150.1102536319484 333.6894695522089 22.54524710278857
150.87586700648856 334.8333775231963 21.296709765146925
152.44142578268224 336.13437894416893 22.14940202774121
154.13667168239047 336.54865916502854 20.97150653775598
154.3922552607629 336.5335013858972 22.998625651108096
158.43373066602373 337.6775671251652 23.424328006181653
160.0976578721382 338.4664073455189 22.7342083597143
159.8295259806533 338.33426333922716 25.24944752458742
160.91885315545778 339.4928764880558 23.774476512724824
133.46381909949085 335.438814511268 20.0270255299434
132.1164757606204 334.57135906872986 22.302430746506705
131.64313077477684 337.2685258858298 21.513699938821627
161.89637544885827 340.7681599272238 23.524504606960864
162.74762412258576 342.3414737613592 23.198211868310132
162.3400441328943 341.73466105331346 25.012657015155945
163.0687970169057 343.4642156610182 24.6916016240131
132.99961491603685 338.12605282890445 19.432879379906257
132.02556219776483 339.9381380171233 21.223656421732162
163.39922005555772 344.0591583060771 22.787358361416445
163.63588480046457 345.311583251128 24.27825874372493
133.46847668431803 340.60690070645376 19.418939236328665
133.0464304785476 342.3539356988596 21.23157190303336
163.58342625847797 347.3814448071829 23.46052177617716
133.73680842852252 342.5833174499028 19.2555017612831
131.46244856000405 345.4961191213901 21.08563876262623
133.02542871671469 344.12975094046965 20.01259247389406
132.8436960370007 351.99511004274717 23.59816464733723
132.13768729819415 350.4303581127516 20.634795467354206
137.51532691961538 353.72644527994015 25.417713966177327
135.06378706651122 352.97659822136745 22.4960415149029
140.06997409376476 352.8648101106138 24.52093358980154
137.78959836632623 353.30737191238586 22.632744354374083
142.37411798233163 353.7221564764437 25.324689903625828
140.44806183368166 353.0493371274561 21.812466644790362
144.18899557246922 353.91491233417753 23.511394682037622
147.01081898711988 354.2733394458306 23.112587523772202
149.18726907041705 353.2384326923678 22.020351085336934
163.12225837294233 348.82316715514804 25.202395150048943
163.02654424163546 349.19365875396323 23.403557327252138
150.91940507752622 351.9842052054031 23.013968872360206
150.71434603572027 352.51133787929354 21.19873026587235
151.85456043653622 351.1799532624583 21.18586680449451
157.34066953819902 352.3220926037436 22.987832369656793
155.80064894731066 352.7593008253107 21.497703992012955
157.9714225003186 351.9882992837048 21.492882597042044
158.9190460856877 351.62311454514 23.045793666030267
162.50945103245215 350.3894547261291 22.34421074967693
161.27706754642762 350.94536382118736 21.412323988108533
153.79696758740232 351.5779204697837 21.303758561693037
152.99126305570238 351.3481498073527 19.650516649407354
154.4831043784655 352.1802848168331 19.946449277068744
160.76271663541672 350.84712080997525 23.162151462116796
159.69909414755597 351.27317408215623 21.479623383939696
142.2872438178739 327.2309973093209 23.655745560923922
145.0833230037308 328.5996485369141 22.73591429241814
144.43011031355778 327.6688305583615 25.67946891168102
146.6048523481167 328.5983901483835 24.838180718249042
136.77934412440172 328.99666127663346 24.314584757332216
134.88099634857224 329.9293439848929 26.004385104835958
148.99982447814244 331.3505037042771 24.445202944997508
149.01451602072606 332.0898855855743 22.696446141495255
156.43870990413888 337.072069812676 23.78928533253342
131.33780072173693 332.36420893510035 27.780025805232434
133.02483511737066 331.4699050311867 25.580230566508583
149.94830449558472 333.3634701420989 24.53809816239559
151.01110268030325 335.11012123482027 23.362794410724163
150.96714986436575 335.4683295231199 25.468889829189134
152.69224217000172 336.11531097492457 24.22646500664153
154.60724031411434 336.5878752815031 25.0649805892169
156.34332779396343 337.16459800816364 25.95670662337038
157.82316508838235 337.59299040902243 25.052316700921256
131.09706564213343 333.796546545846 25.03382703541712
129.35799291552263 334.6341164359876 27.348610579909156
160.6856502318563 339.64923148811215 27.11069336613197
161.24534353348673 340.1933270527404 25.245128287793783
161.73537884079755 341.1919964019951 26.768571899291192
162.67572054287712 342.7973102832146 26.553989939355837
130.0115409096108 336.4993203207658 23.90353796593242
128.34564281886384 337.0921818344462 26.525061631091518
163.1811489162607 344.6882965793139 26.258192655049232
130.7762588363818 339.1825862850577 23.314047437593377
130.28406106449845 340.83894857393307 25.28208319813233
131.99282056440683 341.49089699054804 23.418206105185156
133.00433931907048 352.3046812351374 29.984785010423586
132.42407632616215 351.9456866043769 26.24976315288746
138.0529968415009 353.80048892312294 29.093579564041846
136.19361451960935 353.8341829921879 27.486002517191118
140.20367811126712 352.4123154792414 29.38338069436987
139.47757684030512 353.2202695175276 27.056366283033118
141.82464502856095 353.0907171727409 27.592890974779976
146.00463447517916 353.7020587416994 27.805678136497093
145.7627645736018 354.1381456634375 25.40449948755614
147.79146334584203 353.6797570890825 26.314375472703823
163.28394029739658 345.930390898052 27.982181978020176
149.51048238639427 352.7277228240011 26.466269116302517
149.06081754894197 353.2815899100725 24.444766666206053
163.49228648587336 346.7614854834671 25.845912167045963
150.882023528765 351.90584459832985 25.26757571994659
152.04276099275592 350.93722045911136 24.21051695281584
156.5660188358652 352.286290406172 26.196615091891452
155.70986994578598 352.47386338562694 24.117083364415503
157.99147784191257 351.9307144228403 24.73555266139702
159.31322265235923 351.0638039302774 25.893529669119346
162.68028387778105 350.57326001890175 26.44226795438046
162.58289082544047 350.5947456570602 24.269076730509244
152.82017277150624 351.0367126701062 22.78044347647881
154.28950314805982 352.0245797862308 22.807688026784003
160.94368041520315 350.8563223135583 25.21261475868372
159.5270655269815 351.06445683599225 24.393912671060352
140.85201432813096 327.0888998301817 25.905944982176113
135.26761960357828 328.69649783645525 29.163810818553245
142.7587277031579 326.7391214907645 27.91152712669352
146.69898932517086 328.35769356977863 27.340256831606347
148.12926472213636 329.965222483515 25.65677052089852
147.71870325905934 329.9276463366292 23.14433800048337
136.14287409367378 328.45233084183707 26.871561867706404
133.48340288808117 330.4317286044753 27.95642027554807
148.5554544665287 330.335611028887 27.955805113464027
149.5757204342278 332.3496228727222 28.45345890204283
149.42666615984024 331.7890874196782 26.318791650188544
131.0301730074008 332.01159383388875 30.282629236040062
150.30387329031132 333.83920990725863 26.9157753038211
151.2085388755856 335.78283676655485 27.60423510858069
152.89843250027565 336.18520468410344 26.297233915913456
153.1264246916401 336.37592653447894 28.317303627069943
154.71568872239993 336.7587115186034 27.084437332361134
156.30560859751932 337.5242837530155 27.876815969841484
157.99550440719688 337.76352710923504 26.81192436108213
157.90946321354613 338.20596021484346 29.040847340058235
160.18783354791373 339.32758825201125 29.42093434925313
159.49248878283902 338.39231383559206 27.581662922037804
161.13979711899918 340.76953635476326 28.319523951796114
162.18706835648882 342.076646153608 28.33248864525524
129.66063690104963 333.40669120260503 29.32164288966238
162.8385707065696 343.90125074637945 28.171769187847406
128.42697774572702 335.1674640344953 29.55519994508767
127.48895103411495 336.29533480419553 31.762262169692146
127.94136406012434 339.73826256678865 28.998828854069767
131.1300190961452 346.01319722746916 34.37147497649161
162.64568188894677 345.01420413481753 29.766956878998922
133.49242232101196 351.0807219162341 36.75292644514078
131.05346420612426 349.26197806725526 32.53747130784663
138.85743343453353 353.0935174659223 34.193739864610976
137.69489271660248 353.9539907447622 31.82383466684547
140.53471778338022 351.0230945389958 34.39296015539769
139.96650188355898 352.34981778198005 31.945141772852967
142.79655236569926 350.3604858228973 32.972283603073585
142.0872963452406 351.44852615454977 30.770969417262982
144.8855470806974 351.65906042139824 31.648890983467915
143.84488516181915 352.71449031451726 29.12460427118587
146.223720364277 352.92483341075933 29.936940602996792
150.08367785864206 351.21789359357166 30.01017076579617
148.42506376829007 352.66993461665305 28.555718911725755
162.8379915099764 346.9376567959822 29.797357559210283
150.95748364824166 351.41159790943345 27.58171716616541
153.43299895489628 351.2328743095711 27.729407860930056
152.60262490674825 350.83201182342765 25.85816551042031
155.50218508657696 351.80946606532467 27.810796254650224
154.52343117713673 351.87574290440324 26.0232240932907
157.3794301646331 351.7899690892774 27.76053948748021
158.9517677945076 351.12136510139703 27.529007375793572
158.13556587456756 351.817923125566 26.446803458622515
162.9945913653192 348.3875055021082 27.763905329268198
162.6013764854148 348.98673653235335 30.280157824052452
153.6985133587762 351.47679434510735 24.297659337873075
160.67791978164806 350.73943979525967 27.09613854779042
139.816897044468 326.9712759926661 28.456613049033155
142.72316219446097 326.45813337000334 30.907338997551616
145.16494374360147 327.3767883607787 29.705184244858806
147.8773908032396 328.88922672843364 30.193937412993595
149.0180750379382 330.99996962814276 29.850839817044385
148.8742530126652 330.86436857115444 32.09787169459363
149.62393496476452 332.77462266002715 30.585068260689404
135.17442260472197 328.4972632335863 32.07032019040095
150.2074150018023 334.41966006350265 29.106527215013674
151.51295727392147 336.1135310916466 29.71398237765948
153.4494908064696 336.60242102823855 30.230345378835175
154.86685100406305 336.923283155312 28.95557052355284
155.16610475339337 337.15540769074653 30.69515637146003
156.2272267551316 337.5103655073616 29.494148048845076
156.61468912394858 338.1921008740089 30.82774685479118
158.3008113783444 339.1605852939909 31.13423632303892
159.93403967166572 340.6245833195496 31.636575415235672
161.40232037331114 341.243403893493 30.013820662658706
162.14960537411608 343.1497773326758 29.96367768783333
130.55851278393988 335.1389948936207 40.08498809161741
134.16505106388462 342.6565023366078 37.376957937314195
134.7175564529999 346.68302293555655 36.93404049134045
136.5734889328054 348.1557528684084 38.49243148870282
139.62337972156007 350.8182195003649 37.06358360506931
142.86921952816635 350.17028836674814 35.47654212348452
147.43823298066619 349.47324451645164 35.030178678176995
145.38676368009726 350.28024858108574 34.15396397615201
147.88621064915168 349.81579261401833 32.985012806958224
147.57424236453818 351.220140060957 30.944264765646693
149.30641262477914 350.024600754514 31.40961985047801
152.27161301777943 350.5115367663739 29.4255525587664
156.56612762334578 351.4454069604905 29.117766986322852
159.0444859157981 350.1133195393123 30.31702464436991
158.27758994103803 351.2424786562224 29.1970697344924
160.935989864884 350.2198890963394 30.48129459195322
159.97128972789386 350.36512291710926 28.816355583155044
162.14800449399831 350.5972604508982 28.684521589587284
140.51838206578927 326.42578963000324 34.19647688231598
146.40004328837702 327.5767552703796 32.415394366782856
144.4852104666064 326.96853707735755 36.685782382823604
147.89792471555054 329.3640322804481 34.439530493473505
150.06344190264048 334.5767252465777 33.88794554511454
149.54530793910206 333.1071329138526 32.550265328526024
139.19859269625158 329.20666820680725 40.169520359257135
150.4036638600846 334.88595865392267 31.481551243562095
150.92705396888584 336.0835630961027 33.02009728108504
152.05971751117735 336.34935105521885 31.637190864810805
152.37169643866656 337.01107354849876 33.42745265426773
153.7684795135819 337.15334596515197 32.00023105770062
154.02159757602118 338.10230569947873 33.666832080810316
155.30289354109786 338.1028937331424 32.18927415593572
155.23213122767703 339.21675817526807 33.31545901668772
156.50616450521696 339.37513289148603 32.20787028174332
157.83816352700063 340.70019596199364 32.62369338214374
134.69382460648941 328.8616556068651 34.64668122276502
134.9557903997345 333.289503379033 40.92523559059036
161.06689410448655 342.544332146302 31.75251930667778
133.0834781976083 340.9510950809423 39.73360414337514
135.59062682974437 340.8247969409742 41.02186801996623
136.6924066376128 342.4053526270017 39.32213028990552
140.26599409792573 345.4161589850925 38.53453016590363
144.05380534131257 347.67856057862696 38.57804440755241
137.83817423164703 346.14053219007604 38.26620294920866
139.4412405937715 348.13449636839925 38.143086844979905
141.71364989068917 349.2217434703669 37.28827758972883
146.18769660565124 349.68050868501916 36.6257708421525
148.4740614024148 348.7853208222606 36.7843161731557
149.308376852504 348.93834749648346 34.6080026308589
151.34037093829633 348.4174696320572 34.18642553955123
150.13460488389913 348.99726563629457 32.677748841934864
152.24870764270855 348.65983226953404 32.3865931467624
151.1917287079416 349.6882642655112 31.033038857530762
154.3361699636666 348.53734017356385 32.114706423493274
153.3204798705161 349.85254837993284 31.082715630503465
156.31447993364318 348.5136685121511 31.55326772642519
155.11117310228653 349.52248965642127 30.878680570907235
154.70800921345054 350.91231334276415 29.650970225583904
156.90965107450714 350.09860066697325 30.30248170866041
158.28066227820065 348.7741515687046 31.164812503379654
159.8301408583216 349.34269498019717 31.408308776406074
161.40265139990055 349.1505494155062 32.10897603288305
146.30215817888458 335.48217257983174 10.200141346279887
139.3418396738987 331.6096339965102 17.98209508360452
139.47755454352776 329.2879073467423 21.512535311678626
145.23496878473946 345.08296958963945 39.98225596737752
131.23223676986035 341.942543337355 37.78610792395245
147.54336554286772 330.3058376400824 39.61491361566301
149.175481858882 332.2372471398211 34.76453725026553
140.30771784581353 330.2122818918886 19.038439211876092
148.77744593313264 332.8852247333591 38.92828651040869
143.5872931537611 342.4982594015521 39.54244083681925
149.57332210479007 334.4947167258398 36.53276508064065
147.12649526295752 334.5471782588692 41.165412446476
142.4203449179931 334.8811044479104 42.675870690349335
133.9952005781761 353.02775045102896 31.35620346513151
149.7231887990602 336.8174815991423 37.14574442271262
150.71247924697226 336.62532797877816 35.013051104125296
134.83174233481543 344.632123649006 36.57519339192985
152.2012056041762 338.52454267412793 34.77382541971931
155.84826038817985 340.69756907743397 33.36481684455729
139.53736099984647 334.85710292675236 42.90130826048623
139.09556496839733 353.31188107158596 30.574897852082035
135.72611610964387 349.10880707646714 14.426965914068425
153.8766446063903 340.1673813874003 34.43054225393459
148.21516509214942 346.2712939737982 40.218812248811346
158.86200935600263 342.536544977847 32.3145867879994
139.25825649528227 352.1247200821895 35.65184467015326
133.95869829785119 351.04239092173174 17.27531624011626
135.78060961055257 338.8504528927293 43.05228971451662
140.06480618135825 343.59330886465557 38.87574912076475
161.6159156295713 344.44924874525526 31.282537599223804
147.2662894833979 349.2688504838046 37.96242364703936
140.5871182747162 341.2507079564401 43.494999445861424
136.2743389017574 353.3729010276162 23.94968706169375
139.69249851240525 342.262957934392 40.633871813399146
142.59808557775926 341.28037820597484 40.30578383109123
135.15410251624525 352.4189842907169 37.03732181216351
137.37474166201636 352.8524181137039 36.560952617324325
135.11908334350977 353.47511103028813 32.56569934725342
127.76210260591728 340.23200347663146 34.0091155652122
142.08219338918548 343.4894002472726 38.79122811822861
144.81212726352103 343.5984555112951 39.1957163059504
146.9955758512653 344.571338483034 39.986247725881526
141.0347312685492 349.9631049954277 35.90326367147075
142.00164194793632 347.1397005393938 38.44354256361552
142.89632994391525 353.6933737204327 18.988817295947843
147.96834653171138 347.9896939646672 38.96542366023363
150.06573216447848 347.17538445531306 38.03965293128865
150.44388531748152 347.8052736315112 35.87063725061213
133.62071778117996 345.83177403042055 17.506291502807287
162.1348843778105 345.9219939694868 30.998920375429037
157.69347134182038 347.45330640738086 32.41004451689129
138.02807386155555 331.8502169425324 19.36048184828394
161.90747554429223 347.4077247705252 31.525907352584476
148.89943285492677 335.8182408479907 39.09868767292902
150.76609680005456 338.48942827957023 36.649495158156775
144.61001502014324 337.51955107429416 42.64261688187966
147.04345127176057 337.6197206673182 40.90015612631604
149.05181408850697 338.5660741212316 38.66045149466576
152.13999890844815 340.1904658847148 36.2342840964309
132.07937438993338 350.35712579012386 32.72842733825087
144.7451713507625 339.6345810923725 40.9146249214993
131.0826372235586 349.2000447590977 21.272776694360882
146.73691992308258 339.9969493298775 39.31335900823033
146.32519431680313 338.7671047518707 5.828052846371501
132.9035653992138 345.9201642032348 18.9605987425913
134.3691079072647 347.50330297245125 15.749825003516415
144.85781176706723 341.50296282490893 39.605347238993005
146.91884406941847 342.35070735699725 39.36680839227151
134.6447303534884 352.43113139431796 20.790522432420836
148.87089788584242 341.082644766096 38.82970241329229
149.25300791680215 343.25894429900563 39.902410834450805
150.64796826863966 341.8943842909348 38.879187471475554
150.4638835257101 345.60486969808335 40.041683682237974
151.44445638788721 343.6900279422473 38.4268613479931
152.894660283932 343.056718056207 37.082394057768354
152.69391732411168 344.76661317952556 36.69089515624426
151.35804529116896 345.59021050643537 38.00522095776041
138.07704363698872 350.02311905826724 38.737423030455055
151.63265271708127 346.48177833387945 36.53072511232506
130.94268242070035 348.1654005261233 33.94395065316858
153.04191997252155 346.0837068038219 35.243081932720024
152.02722496836603 347.33468829909083 35.20111020419963
129.76773472163245 348.59011955807415 26.011130553085188
153.36644918301138 347.5045811006612 33.82961789443052
130.33219479101908 347.81850134788584 22.063454788760378
129.8323213393421 346.90696902255667 28.556127858928427
130.61740696274262 342.41106121804177 31.654905296608597
140.9363661798364 336.03867562710786 43.551358622062544
130.34155416528938 345.14288567477575 25.849319378121532
135.61075720224648 329.55162076888035 39.07197694464847
140.81767625322033 328.06581774673316 22.324674899036157
132.2850116897503 351.2381507826054 22.160114064783865
140.87311993262574 333.16063588788853 41.79713418999261
127.38683908916859 337.532404770769 37.37858460185414
129.3653616446717 341.3081257971954 38.09672196951792
127.81244349241814 340.0113912062016 36.007363556033766
155.71684656511948 347.6686335447486 33.324526549622504
137.4825909328996 326.70860594398556 37.120610327050535
136.44750215063831 332.469132186178 20.353999061144684
127.29673024646237 338.25385791069914 35.66749435897561
127.14655641286835 338.08602432070626 33.39330580459528
131.65470239800499 339.38738474064394 41.0451978856217
155.84536508490214 344.1919887752768 34.62891868213851
154.19978492536785 343.4614304437059 35.959855475509826
130.26126749203786 340.6040151739099 39.638056655327
137.96756175123917 329.0044533352526 22.614093372729183
138.89828459383202 340.91300870545916 45.026835394626616
137.93973860184695 351.6081893248449 38.18158256516253
127.92214600271473 338.57452920780486 27.83337893395198
129.82712236618298 332.9097368105976 33.73321519979353
127.85905078428523 336.00231278284423 36.40222973551601
156.7475764622849 342.51695321727993 33.208200297243394
139.63185803187164 336.7740433414242 44.82559215848446
130.5220945881758 345.6744722629709 32.59056264854182
154.95433884229033 342.1468109872276 34.561613936416926
131.89884797060256 350.4679058032612 31.11752538083854
130.37400158274204 348.552235830661 30.248194580324277
152.101082476404 341.70219713579195 37.672745826543924
132.249797421871 331.30823451450766 29.168392293508884
129.9334784123537 348.2843441172609 24.441256440294882
150.8712550100751 340.1369309007634 38.17642535536151
129.47164015756022 335.3754648942306 25.576009763846862
132.84168579045996 348.5728732517163 36.51231177244784
142.3791980000094 339.5354213382924 42.27950294150877
128.26004554182828 340.96766293310236 32.226909425891314
131.79676147839734 351.0413956297824 24.66784478115404
132.65570845422445 349.91254123310824 18.00721321028269
137.40237240463873 338.94101111097393 45.55586531823317
141.8191319361775 339.6081071547215 44.0940233556507
132.02357209007502 349.98762371659836 34.506771349834544
131.89209136817558 344.3516875552389 34.395543148299005
131.51946580906807 350.6345348784854 28.456929464677092
134.5243469753602 349.0631330716161 37.72098617654249
135.9393640872155 350.9878774635692 38.32160772940231
137.05955774817744 334.46929800392166 41.85250901269475
134.6132195063265 352.9043631915441 35.091648125440116
131.26470074781338 343.2176081099377 30.06004367453396
128.18534962346592 339.430038059271 38.01677888062321
141.89113723847225 353.8386841315912 23.235422678830638
134.77464014226263 353.286946604522 25.26697505947881
133.26413356912303 352.1268439656048 21.40801105905174
131.41320433653289 348.01879584731785 19.60313902259703
131.3202411853239 343.9847325412522 32.64101031262841
133.0224538231882 351.9521075193921 32.80372298718068
146.21076181640225 328.92185279072845 39.42661865053928
158.35816092194557 348.3055185002775 1.2474920689895022
130.38057592148962 347.2614291897829 32.45186244534674
147.47341180411166 354.07900388237664 24.84680141874418
132.17851285746605 332.850115368379 40.278198581832065
129.07181412418063 338.8483068730995 24.845093635794374
137.48784694698608 341.4327705912576 40.88409794688352
128.3774812309176 336.07304753666546 28.115260560803318
134.79171932781338 331.5608957549056 22.37030210860893
127.48923047673188 336.22554682166833 34.18704512834074
128.90564298236794 340.8306925783491 28.555066953083674
138.44065516222037 344.10193371217895 38.95361616633373
153.63814118990462 341.6405984070907 36.234821325341855
133.20593427007674 330.63626388365617 37.51546370969084
155.4117522556778 349.80822990721015 1.2479403379108298
144.08587217646905 353.71783402913684 25.22786573246732
131.78369305940413 347.9099233356146 35.13618068840097
129.45916015741528 333.98213467441434 37.57969257642934
127.49074879059931 339.2863227953948 31.37860105132033
144.23818299186152 330.6093921479387 42.19341551964107
141.16747325860342 350.9926533950606 32.413028677097934
133.41712294856407 330.02284390204716 33.17865767597709
143.62302628091402 336.16206309886735 43.33578673849869
157.02498758175048 348.04636277949976 -1.7306243140446445
129.5130824117041 342.17070362982895 33.19123943958346
141.5203790153713 341.3716931872751 41.81405244153069
153.5685055386629 349.0611350897196 -1.6548550703895568
150.3566421159141 349.87057523896055 -0.48127565708096864
128.66493140816 334.15037039566124 34.65076274935952
137.78236628105316 340.893449219107 42.9197364726113
131.1476888531287 350.1751363502503 23.03391694526172
137.83406270968575 353.80821470473995 27.25825247302908
130.47900560536587 332.3991395436299 35.41874225499785
129.1375684368068 341.4714363726275 36.08968932161262
143.12857500595075 344.35572489010775 2.9756403652965506
135.3812875475695 353.5169849685823 30.026293901983312
133.81136819378216 338.9381609314252 41.445280445498476
146.79843521725832 330.90085695840344 41.273968258626
143.93046534360164 333.37464888328884 43.31691044111998
147.23628450100927 333.0464730054377 14.234925971070297
136.13200195751082 344.7084111592774 37.92855627627095
134.95634065394748 329.3949509570841 27.49462071566569
150.36718483011566 347.32575082146604 -2.4577777406578267
147.14563233903255 348.99326152654226 -2.157492454459271
143.96442999074733 348.60775463460334 -0.2156181255054736
147.2686280108878 347.154204464771 -1.9098408404228775
136.15046034957484 346.38220625161637 38.266959673218906
146.36237391374596 332.03496639871867 16.03430697954626
141.98461462036147 352.4475048103793 29.236412277399843
134.99429124680452 341.37911285808605 39.145836544280996
158.18152137811754 343.50853177302224 0.9574079250357722
157.8225442270286 344.4121749337048 -0.9850131338458247
134.0702042220265 331.05631769871337 39.18705371876358
155.9674460342871 344.6439399735891 -1.6803825661135239
153.65250133134307 345.2542351904932 -1.6193928462715272
152.29905500392582 344.4132265907021 -2.754446814827897
158.13057589012678 344.15775041620964 33.6537067360275
139.00266840038296 325.9707609149351 33.26437965516351
146.21471609580894 345.22644557189983 -2.935682250695317
144.1991012641354 345.8988387078238 -0.7403371967851925
133.9871607317523 352.9795005706853 27.86297502468034
128.62426438935339 339.88802923483144 26.989884709808397
137.2382585209346 336.55446284397095 43.554863940523184
158.92017669843054 343.54386577214456 3.0915539770437386
160.03830608726662 344.2382336698017 32.51505877833682
147.05780158018172 331.10052980919903 17.975920361509157
156.57899186266533 342.43187880990604 1.093844267586878
155.58080571355998 341.37745009643515 -0.1683486369577986
146.4053748541139 350.6751378298006 32.39872322561164
153.3241360189412 341.45729806687393 -0.6083580346947086
151.09656641084635 341.96099666421975 -0.8666266787244119
148.98603000694868 342.89379926274194 -0.550035208380614
132.81805368673133 334.8339480043412 41.304940004653666
136.93344765368315 332.89433274515585 40.96932124330267
143.69977742485676 345.6008679201497 39.19096286795013
144.345551691232 343.57986684675024 0.005179748128687666
140.94762147310988 353.1206586017369 26.123571912711142
130.2401310102236 345.6907905101964 30.65791923427275
155.04293036134658 348.24049219797377 -1.2759849216808095
130.8219313318404 350.00425317319616 25.78004692311725
144.74894473753378 332.2537152218809 14.467218320140155
136.32895549363792 327.764182103767 36.00808754429997
154.1870447851622 344.96756298560945 35.49049803819595
138.2571577055837 327.3488193807104 26.152959361296414
129.03061939894656 333.59823802926496 31.896050325828682
145.92114861078727 346.72118096386174 39.76138817871763
133.1814778704582 330.4370065320933 30.682634876132195
142.9457446061485 348.319986186854 37.87375754827821
147.64388747164557 342.0255785385455 0.9199857045146397
129.71141201895122 346.8325882417192 26.29066994561743
156.92959810586115 345.96877724316147 33.650636562724976
129.7376118407007 338.07752726574154 40.37030518906087
154.85540516426502 340.80387954586115 2.876382081280374
145.9364445812088 336.1701571891839 41.90655639609161
132.55412209035683 346.74186647149634 35.938581614315176
143.0947571213095 327.28803335531035 37.88817515697743
132.83433955023537 330.76507960670955 35.54636194241892
136.29625111858246 327.372831787683 33.7813217152203
158.94945863295186 345.9299174924368 32.739224264113716
130.57951558907033 345.78876335206985 23.959269400646548
131.9836774035026 343.8302370039646 22.79244964080393
141.29539315644837 351.7701676556092 12.873964953033175
142.48661840229974 332.142739788649 15.088196859267732
142.91362635361813 332.0508478867271 42.20594369550194
142.23752378354664 337.43431089113005 44.075986192125335
143.9979176371657 349.3629460916683 37.37202410389677
149.1929927394033 332.5693018029687 36.831075514951706
145.62276236435565 329.5347056995281 41.24060913183118
136.71289104298145 353.7384368122492 34.15801071591923
134.6915913440096 329.3544513880681 37.24528751867925
141.95560505250896 345.43603753965414 39.018444472433856
131.8290394890135 342.5797385914094 35.04443338140658
142.2820904091239 328.6051505572679 20.93064773454702
138.8161954661084 330.88320915288466 40.8669686389281
149.3598493257069 347.0793659733844 39.60922851935475
146.61406240042425 329.5550541866146 21.495093864749155
154.96219427725833 346.21061387169505 34.629850906959874
130.73131215356705 333.29535358183995 39.11537376386401
142.62861336164192 326.92439476402603 25.744226379202107
145.86835834622983 349.2894941240749 -0.931985020958033
141.9828274918384 330.60252876946254 17.87915769783497
133.13599602769372 344.8074555235967 35.64230074261172
148.741451547489 344.82521460138986 41.00430433909502
147.60636269622455 332.10446939933433 41.010103476351475
128.4933198826029 336.5750780653605 38.57439280338811
139.39332203768984 327.83164111249334 23.648593937065705
141.0100397771233 329.45368427448244 40.377989535519234
130.46014433261013 344.7645879851954 27.808131102915105
132.06833570291136 337.09914206487616 41.537086975420905
145.39058895942856 333.97647978973833 12.582562203873463
144.81498347980374 327.4235824938909 27.633501106970545
144.62104965660404 350.2027914318483 36.010940385097136
139.34090834269134 328.15019525789154 38.61148145887249
140.32698625847604 339.23497014143027 45.16385710445988
144.0027181157444 353.35342024658013 26.708586294965524
148.01382439325693 334.3925455658171 12.297431135133287
127.95638083623248 334.9577067460791 33.12011112099706
142.096735085318 326.940608055899 36.42553182669573
133.05944996272845 351.66469602258763 34.85540863340074
137.94746638993809 326.15442971968486 34.98662002225522
144.40779458643746 328.0924868639554 39.11919455465109
140.55547425971722 330.8612748757368 41.431036946232275
141.68415360436347 325.82224925813205 32.559270951698586
144.9819502916127 334.9982606413426 42.96601350649794
130.1441436981479 341.9879939086225 27.822475935038664
141.24913161444078 326.4615412315243 29.630049108545293
140.9494188847372 331.7058758090355 16.911188396652992
144.53499755304637 326.84790869630365 31.677449795746487
141.43548705881042 328.21767293820574 38.836188457480304
137.47639506138245 328.81993606360595 37.993703241460395
145.63893461214798 332.15598276420855 42.422678326572544
129.2195954871136 341.3861727058393 30.478231830546644
136.94690905381376 326.90023403834596 30.766070494130748
137.31091373889262 327.0996164595819 28.414259777805245
136.9419990805586 330.9914973297934 40.14895074670611
142.7483615777454 329.73010570824647 18.75973146782178
159.83469996511766 347.663055718787 31.72981849531118
131.28433537190335 343.4346589317213 25.43629518266426
144.81750818921185 340.8115018309972 2.7063590533898276
132.21566642088192 343.8776259004924 21.21219533995045
145.0092678032327 344.217893135166 -1.5075955303669433
148.46666353063117 330.8590473448526 37.02954067934117
138.6931919957525 332.6191304237301 41.35425743997852
131.360344825429 331.6947823969661 32.960995900483155
146.7457328723068 328.52527964706223 37.41571940639801
137.5399159429829 326.1499796700063 32.65318309445612
138.79015049094394 330.7015116114348 20.51689596132624
134.8448637709841 336.3133937744809 41.87781639911124
142.8188441910896 329.472824374547 41.14026092644103
139.47915187187735 327.2130566471002 36.94688428863112
160.84658568012722 345.9503561557284 31.997462292544242
146.05053076754422 327.4817200125844 34.949052489603865
129.90681225733792 348.778149145801 27.60856141292379
131.62567883070847 331.8654789710904 37.90536290294522
147.93404618733712 329.0567896477359 32.290124946860345
132.65653678234366 352.0446963256173 28.144343767223543
143.53746156792656 326.94467091512104 33.70627474403792
143.95956205922027 330.9893564621307 17.019398399228695
127.46950060142997 337.4085411623233 29.07608200873419
136.46553858196842 327.2082462499181 32.31045490142276
138.43185035075655 326.24053334590565 29.68259630932038
145.83016335594263 348.8446956309074 38.63853489020596
139.78237453672267 326.6995650996942 31.37862816627219
POLYGONS 1892 7568
3 857 1 0
3 2 56 1
3 2 1 857
3 12 56 2
3 853 4 3
3 853 5 4
3 6 7 5
3 6 5 853
3 8 62 7
3 8 7 6
3 13 12 11
3 14 12 13
3 16 14 13
3 36 24 17
3 25 840 15
3 824 840 25
3 72 823 824
3 76 29 808
3 792 29 76
3 80 37 792
3 42 37 80
3 46 47 45
3 87 50 49
3 36 50 87
3 53 54 52
3 1 55 54
3 1 54 53
3 1 53 0
3 56 55 1
3 15 58 65
3 923 59 58
3 4 923 3
3 61 51 60
3 4 5 60
3 60 5 61
3 5 7 61
3 61 7 62
3 62 0 53
3 57 14 63
3 57 12 14
3 67 63 64
3 14 64 63
3 14 16 64
3 65 112 66
3 64 16 17
3 64 17 67
3 17 70 67
3 17 24 70
3 119 69 68
3 25 68 69
3 25 69 824
3 73 74 71
3 75 76 74
3 75 74 73
3 77 78 75
3 76 75 78
3 76 78 792
3 24 131 70
3 79 80 78
3 79 78 77
3 792 78 80
3 80 79 81
3 80 81 42
3 88 131 24
3 24 36 88
3 132 81 79
3 135 81 132
3 42 81 45
3 83 47 46
3 83 46 82
3 84 85 83
3 84 83 82
3 47 83 48
3 83 85 48
3 48 85 49
3 135 45 81
3 45 135 46
3 86 87 85
3 86 85 84
3 49 85 87
3 87 86 88
3 87 88 36
3 89 90 139
3 90 89 93
3 90 93 684
3 92 93 89
3 93 92 59
3 59 684 93
3 91 51 109
3 97 95 96
3 109 96 95
3 96 98 97
3 96 54 98
3 54 55 98
3 99 98 55
3 101 99 100
3 55 100 99
3 55 56 100
3 56 57 100
3 103 101 102
3 100 102 101
3 100 57 102
3 57 63 102
3 104 103 102
3 106 107 105
3 108 92 107
3 108 107 106
3 58 106 65
3 106 58 108
3 59 92 108
3 58 59 108
3 51 61 109
3 52 109 61
3 63 110 104
3 63 104 102
3 110 63 67
3 112 106 105
3 112 105 113
3 112 116 66
3 112 65 106
3 67 111 110
3 111 117 114
3 111 67 117
3 117 115 114
3 67 70 117
3 117 126 115
3 117 70 126
3 116 118 66
3 66 118 68
3 68 118 119
3 120 118 116
3 121 119 118
3 121 118 120
3 122 123 121
3 119 123 71
3 124 125 122
3 123 122 125
3 70 131 126
3 127 128 125
3 127 125 124
3 73 125 128
3 73 128 75
3 179 129 127
3 128 127 129
3 75 128 129
3 75 129 77
3 179 130 129
3 77 129 130
3 77 130 79
3 185 126 131
3 181 132 130
3 181 130 179
3 79 130 132
3 132 181 182
3 132 182 135
3 134 82 133
3 82 134 84
3 138 185 131
3 138 131 88
3 186 135 182
3 135 186 136
3 135 136 46
3 133 82 136
3 82 46 136
3 84 137 86
3 137 188 138
3 86 137 138
3 86 138 88
3 139 190 140
3 139 140 89
3 92 89 142
3 94 144 143
3 94 95 144
3 145 144 97
3 144 95 97
3 147 145 146
3 97 146 145
3 97 98 146
3 149 147 148
3 146 148 147
3 146 98 99
3 146 99 148
3 151 149 150
3 148 150 149
3 148 99 101
3 148 101 150
3 153 151 152
3 150 152 151
3 150 101 103
3 150 103 152
3 154 153 152
3 152 103 104
3 155 156 157
3 107 158 105
3 142 141 156
3 142 156 155
3 92 142 155
3 107 92 155
3 159 160 154
3 159 154 152
3 104 159 152
3 104 110 159
3 159 162 160
3 159 110 111
3 159 111 162
3 157 161 158
3 161 105 158
3 105 161 113
3 111 114 162
3 163 162 114
3 164 163 115
3 114 115 163
3 165 161 216
3 165 216 217
3 165 113 161
3 113 165 116
3 115 166 164
3 167 168 217
3 126 166 115
3 222 169 167
3 116 169 120
3 170 171 222
3 169 222 171
3 120 169 171
3 120 171 121
3 172 173 170
3 171 170 173
3 121 171 173
3 121 173 122
3 173 172 122
3 122 172 124
3 174 230 166
3 126 174 166
3 175 176 225
3 124 176 127
3 176 175 177
3 127 176 177
3 127 177 179
3 178 179 177
3 178 177 175
3 126 185 174
3 180 181 179
3 180 179 178
3 240 182 180
3 181 180 182
3 184 133 183
3 133 184 134
3 185 245 174
3 240 186 182
3 186 240 187
3 186 187 136
3 183 133 187
3 133 136 187
3 134 184 188
3 188 245 185
3 188 185 138
3 189 190 246
3 190 189 192
3 190 192 140
3 191 192 189
3 141 192 191
3 140 192 141
3 195 193 194
3 143 194 193
3 143 144 194
3 197 195 196
3 194 196 195
3 194 144 145
3 194 145 196
3 199 197 198
3 196 198 197
3 196 145 147
3 196 147 198
3 201 199 200
3 198 200 199
3 198 147 149
3 198 149 200
3 203 201 202
3 200 202 201
3 200 149 151
3 200 151 202
3 202 204 203
3 202 151 153
3 202 153 204
3 204 153 154
3 156 206 157
3 191 205 141
3 141 205 156
3 154 207 204
3 154 160 207
3 208 207 213
3 207 160 213
3 213 160 162
3 210 211 212
3 258 211 206
3 157 210 161
3 213 214 209
3 213 162 163
3 213 163 214
3 214 163 164
3 214 164 215
3 217 216 212
3 219 218 215
3 164 219 215
3 164 166 219
3 217 272 167
3 219 227 218
3 166 230 219
3 220 167 272
3 221 222 220
3 167 220 222
3 222 221 170
3 170 221 223
3 170 223 172
3 230 227 219
3 224 225 223
3 224 223 281
3 172 223 225
3 285 226 224
3 225 224 226
3 225 226 175
3 228 229 226
3 228 226 285
3 175 226 229
3 175 229 178
3 231 232 229
3 231 229 228
3 178 229 232
3 178 232 180
3 233 234 231
3 232 231 234
3 180 232 234
3 180 234 240
3 236 241 235
3 236 183 241
3 237 244 236
3 237 236 235
3 183 236 184
3 236 244 184
3 174 245 238
3 227 230 296
3 238 296 230
3 238 230 174
3 239 240 234
3 239 234 233
3 241 242 239
3 240 239 242
3 240 242 187
3 242 241 183
3 183 187 242
3 243 244 237
3 184 244 188
3 238 245 243
3 244 243 245
3 188 244 245
3 246 247 189
3 249 250 247
3 189 247 250
3 189 250 191
3 193 252 251
3 193 195 252
3 252 195 197
3 252 197 253
3 253 197 199
3 253 199 254
3 254 199 201
3 203 255 248
3 248 201 203
3 203 204 255
3 256 255 262
3 204 262 255
3 262 263 256
3 258 259 257
3 260 261 259
3 260 259 258
3 258 205 260
3 249 261 250
3 191 260 205
3 204 207 262
3 262 208 263
3 262 207 208
3 208 264 263
3 208 209 264
3 211 268 212
3 258 257 211
3 266 267 265
3 266 265 264
3 209 266 264
3 209 214 266
3 266 214 215
3 266 215 267
3 269 268 332
3 212 268 270
3 212 270 217
3 268 269 270
3 218 273 267
3 215 218 267
3 271 270 269
3 270 271 272
3 270 272 217
3 272 275 220
3 276 277 274
3 275 274 277
3 220 275 277
3 220 277 221
3 278 279 276
3 277 276 279
3 221 277 279
3 280 281 278
3 279 278 281
3 282 287 273
3 282 273 218
3 227 282 218
3 283 284 280
3 281 280 284
3 224 281 284
3 224 284 285
3 284 283 285
3 348 285 283
3 350 286 348
3 285 286 228
3 282 227 288
3 282 288 287
3 289 290 286
3 289 286 350
3 228 286 290
3 228 290 231
3 360 291 289
3 290 289 291
3 231 290 291
3 231 291 233
3 235 241 293
3 294 235 293
3 294 293 292
3 295 300 294
3 295 294 292
3 235 294 237
3 294 300 237
3 301 288 227
3 227 296 301
3 297 298 291
3 297 291 360
3 233 291 298
3 233 298 239
3 239 298 241
3 292 293 297
3 298 297 293
3 298 293 241
3 299 300 295
3 237 300 243
3 301 302 299
3 300 299 302
3 243 300 302
3 243 302 238
3 302 301 296
3 302 296 238
3 312 304 303
3 303 251 305
3 303 305 312
3 309 308 306
3 311 310 323
3 249 247 311
3 249 311 323
3 251 252 305
3 314 312 313
3 305 313 312
3 305 252 253
3 305 253 313
3 313 315 314
3 313 253 254
3 313 254 315
3 306 315 307
3 307 315 254
3 316 317 308
3 316 308 309
3 248 316 309
3 248 255 316
3 318 316 256
3 316 255 256
3 256 263 318
3 320 321 322
3 259 328 257
3 323 310 321
3 323 321 320
3 259 261 320
3 320 261 323
3 249 323 261
3 324 326 319
3 324 319 318
3 263 324 318
3 324 325 326
3 324 263 264
3 324 264 325
3 325 327 326
3 325 264 265
3 325 265 327
3 329 328 322
3 257 328 332
3 328 329 332
3 265 330 327
3 265 267 330
3 333 332 329
3 332 334 269
3 332 333 334
3 330 336 331
3 267 273 330
3 269 334 271
3 273 336 330
3 339 340 337
3 274 338 340
3 274 340 276
3 341 342 339
3 340 339 342
3 276 340 342
3 276 342 278
3 407 343 341
3 342 341 343
3 278 342 343
3 278 343 280
3 287 351 336
3 287 336 273
3 344 343 407
3 345 346 344
3 280 346 283
3 347 348 346
3 347 346 345
3 283 346 348
3 349 350 347
3 348 347 350
3 352 353 350
3 352 350 349
3 350 353 289
3 423 354 352
3 353 352 354
3 289 353 354
3 289 354 360
3 357 355 356
3 357 292 355
3 358 362 357
3 358 357 356
3 292 357 295
3 357 362 295
3 351 287 363
3 288 363 287
3 359 360 354
3 359 354 423
3 360 359 292
3 297 360 292
3 355 292 359
3 361 362 358
3 295 362 299
3 363 364 361
3 362 361 364
3 299 362 364
3 299 364 301
3 364 363 288
3 301 364 288
3 367 368 431
3 369 366 304
3 304 312 369
3 308 370 306
3 369 312 375
3 369 375 374
3 376 375 314
3 375 312 314
3 378 376 377
3 314 377 376
3 314 315 377
3 306 377 315
3 308 317 371
3 381 379 380
3 317 380 379
3 317 316 318
3 317 318 380
3 380 382 381
3 380 318 319
3 380 319 382
3 383 384 385
3 321 390 322
3 372 384 373
3 310 383 321
3 319 386 382
3 319 326 386
3 388 386 387
3 386 326 387
3 389 388 387
3 387 326 327
3 391 390 385
3 322 390 394
3 322 394 329
3 390 391 394
3 392 393 389
3 392 389 387
3 327 392 387
3 327 330 392
3 392 330 331
3 392 331 393
3 395 394 391
3 329 394 397
3 329 397 333
3 394 395 397
3 396 470 393
3 331 396 393
3 331 336 396
3 333 397 399
3 404 405 402
3 339 403 405
3 339 405 341
3 405 404 407
3 341 405 407
3 336 351 396
3 344 408 345
3 345 408 409
3 345 409 347
3 469 410 409
3 347 409 410
3 347 410 349
3 396 411 470
3 396 351 412
3 396 412 411
3 413 414 410
3 413 410 469
3 349 410 414
3 349 414 352
3 479 415 413
3 414 413 415
3 352 414 415
3 352 415 423
3 418 417 416
3 356 355 417
3 418 356 417
3 419 426 418
3 419 418 416
3 356 418 358
3 418 426 358
3 420 425 478
3 420 363 421
3 420 421 425
3 411 412 478
3 420 478 412
3 420 412 351
3 351 363 420
3 422 423 415
3 422 415 479
3 417 424 422
3 423 422 424
3 359 423 424
3 424 417 355
3 355 359 424
3 425 426 419
3 358 426 361
3 426 425 421
3 361 426 421
3 361 421 363
3 429 427 428
3 428 430 429
3 428 488 430
3 431 489 432
3 431 432 367
3 434 369 374
3 434 374 438
3 434 488 366
3 366 369 434
3 371 435 370
3 367 432 437
3 367 437 372
3 440 438 439
3 374 439 438
3 374 375 439
3 439 441 440
3 439 375 376
3 439 376 441
3 442 441 378
3 441 376 378
3 435 443 442
3 435 371 379
3 371 317 379
3 444 381 501
3 444 379 381
3 445 436 446
3 384 451 385
3 372 445 384
3 449 447 448
3 381 382 448
3 381 448 447
3 382 386 448
3 448 388 449
3 448 386 388
3 388 450 449
3 388 389 450
3 385 451 454
3 385 454 391
3 389 453 450
3 389 393 453
3 391 454 456
3 391 456 395
3 454 455 456
3 470 467 453
3 393 470 453
3 395 456 865
3 461 462 459
3 402 462 404
3 462 461 463
3 465 464 466
3 408 465 409
3 468 469 466
3 470 411 536
3 467 470 536
3 469 471 413
3 530 472 471
3 413 471 472
3 413 472 479
3 475 473 535
3 416 417 474
3 475 416 474
3 475 474 473
3 476 482 475
3 476 475 535
3 416 475 419
3 475 482 419
3 411 477 536
3 411 478 477
3 538 479 472
3 538 472 530
3 474 480 538
3 479 538 480
3 422 479 480
3 422 480 417
3 480 474 417
3 481 482 476
3 419 482 425
3 425 482 481
3 477 478 481
3 425 481 478
3 429 430 486
3 430 487 486
3 488 433 487
3 487 491 486
3 492 491 493
3 487 433 493
3 487 493 491
3 493 433 438
3 495 492 493
3 438 495 493
3 496 495 440
3 495 438 440
3 498 496 497
3 440 497 496
3 440 441 497
3 497 499 498
3 497 441 442
3 497 442 499
3 500 499 443
3 499 442 443
3 502 500 501
3 443 501 500
3 443 444 501
3 503 502 504
3 501 504 502
3 501 381 504
3 436 507 446
3 447 505 503
3 447 503 504
3 381 447 504
3 506 505 449
3 447 449 505
3 506 449 450
3 446 507 509
3 507 849 509
3 508 506 450
3 450 453 508
3 508 453 467
3 510 509 849
3 467 513 508
3 518 519 516
3 517 516 519
3 461 519 521
3 521 520 522
3 568 524 522
3 523 521 522
3 523 522 524
3 523 524 464
3 525 526 568
3 524 568 526
3 464 524 526
3 464 526 466
3 525 528 526
3 570 528 525
3 527 467 536
3 468 528 471
3 529 530 528
3 529 528 570
3 471 528 530
3 531 532 529
3 530 529 532
3 533 473 531
3 532 531 473
3 534 535 533
3 473 533 535
3 476 535 534
3 536 477 576
3 536 576 537
3 538 530 532
3 538 532 474
3 473 474 532
3 476 534 539
3 476 539 481
3 576 477 539
3 481 539 477
3 540 483 485
3 541 485 542
3 542 486 543
3 542 543 578
3 543 544 545
3 543 486 491
3 543 491 544
3 544 546 545
3 544 491 492
3 544 492 546
3 492 548 546
3 492 495 548
3 548 495 496
3 548 496 549
3 550 549 498
3 549 496 498
3 552 550 551
3 498 551 550
3 498 499 551
3 554 552 553
3 551 553 552
3 551 499 500
3 551 500 553
3 555 554 502
3 553 502 554
3 553 500 502
3 555 502 503
3 555 503 556
3 503 557 556
3 503 505 557
3 557 505 506
3 558 557 506
3 508 513 558
3 508 558 506
3 603 562 602
3 604 563 603
3 518 564 520
3 565 566 605
3 520 564 566
3 520 566 522
3 567 566 565
3 609 569 567
3 568 567 569
3 568 569 525
3 527 513 467
3 611 525 569
3 611 569 609
3 613 570 611
3 525 611 570
3 527 536 537
3 616 570 613
3 529 570 616
3 529 616 531
3 617 571 616
3 531 616 571
3 531 571 533
3 572 573 617
3 571 617 573
3 533 571 573
3 533 573 534
3 574 575 572
3 573 572 575
3 534 573 575
3 534 575 539
3 575 574 576
3 539 575 576
3 537 576 574
3 545 627 580
3 582 581 627
3 582 627 545
3 582 545 546
3 584 585 581
3 584 581 582
3 546 584 582
3 546 548 584
3 587 585 586
3 584 586 585
3 584 548 549
3 584 549 586
3 589 587 588
3 586 588 587
3 586 549 550
3 586 550 588
3 591 589 590
3 588 590 589
3 588 550 552
3 588 552 590
3 590 592 591
3 590 552 554
3 590 554 592
3 592 554 555
3 592 555 593
3 593 555 556
3 596 556 557
3 557 558 596
3 527 670 513
3 664 603 600
3 602 600 603
3 603 664 604
3 605 606 565
3 668 607 606
3 565 606 607
3 565 607 567
3 567 607 609
3 704 610 608
3 609 608 610
3 612 613 610
3 612 610 704
3 611 609 610
3 611 610 613
3 614 615 612
3 613 612 615
3 616 613 615
3 618 617 614
3 615 614 617
3 616 615 617
3 617 618 572
3 572 618 619
3 572 619 574
3 574 619 620
3 537 574 620
3 631 581 636
3 631 636 635
3 581 585 636
3 636 585 587
3 636 587 638
3 587 589 638
3 592 593 639
3 592 639 591
3 639 643 591
3 593 556 645
3 645 556 596
3 596 558 650
3 650 558 513
3 650 513 670
3 654 655 660
3 688 661 687
3 661 688 662
3 697 667 693
3 666 667 606
3 667 697 699
3 606 667 668
3 668 667 699
3 668 699 702
3 668 702 608
3 608 702 704
3 670 527 673
3 612 704 717
3 612 717 614
3 614 717 671
3 614 671 618
3 618 671 921
3 618 921 619
3 619 921 620
3 620 921 673
3 620 673 537
3 673 527 537
3 631 674 629
3 632 629 674
3 636 638 675
3 675 678 635
3 675 638 679
3 638 643 679
3 677 678 683
3 678 690 683
3 596 650 829
3 744 681 655
3 655 681 687
3 690 741 692
3 690 692 691
3 688 691 662
3 738 694 692
3 691 692 694
3 691 694 693
3 650 670 935
3 693 694 697
3 697 694 696
3 697 696 699
3 847 701 696
3 723 881 847
3 701 847 881
3 670 673 935
3 702 699 701
3 702 701 704
3 704 701 881
3 717 881 855
3 717 855 671
3 921 935 673
3 675 741 678
3 643 777 679
3 741 738 692
3 829 650 935
3 738 777 695
3 695 777 724
3 695 724 696
3 696 724 847
3 0 62 8
3 9 857 0
3 0 8 9
3 3 15 840
3 43 47 48
3 48 766 43
3 52 61 62
3 62 53 52
3 66 68 65
3 96 109 52
3 52 54 96
3 112 113 116
3 119 121 123
3 134 188 137
3 137 84 134
3 142 89 140
3 140 141 142
3 155 157 158
3 158 107 155
3 165 217 168
3 168 116 165
3 168 167 169
3 169 116 168
3 172 225 176
3 176 124 172
3 205 258 206
3 206 156 205
3 210 212 216
3 216 161 210
3 210 157 206
3 206 211 210
3 307 254 201
3 201 248 307
3 260 191 250
3 250 261 260
3 257 332 268
3 268 211 257
3 272 271 275
3 285 348 286
3 309 306 307
3 307 248 309
3 320 322 328
3 328 259 320
3 370 308 371
3 377 306 370
3 370 378 377
3 383 385 390
3 390 321 383
3 383 310 373
3 373 384 383
3 434 438 433
3 433 488 434
3 378 370 435
3 435 442 378
3 451 384 445
3 445 372 437
3 437 436 445
3 507 436 494
3 494 849 507
3 627 581 631
3 638 589 643
3 589 591 643
3 674 631 635
3 635 636 675
3 674 635 678
3 678 677 674
3 829 821 645
3 645 596 829
3 679 741 675
3 643 639 735
3 735 777 643
3 639 593 732
3 732 735 639
3 593 645 732
3 732 645 821
3 935 863 829
3 921 671 863
3 10 857 9
3 11 2 10
3 10 2 857
3 11 12 2
3 836 853 18
3 835 6 836
3 836 6 853
3 834 8 835
3 835 8 6
3 832 9 834
3 834 9 8
3 831 10 832
3 832 10 9
3 831 11 10
3 16 13 828
3 828 13 11
3 19 836 18
3 20 836 19
3 20 835 836
3 21 835 20
3 21 834 835
3 22 834 21
3 22 832 834
3 23 832 22
3 23 831 832
3 815 831 23
3 815 11 831
3 815 828 11
3 28 16 828
3 36 16 28
3 36 17 16
3 26 19 823
3 823 19 18
3 27 20 26
3 26 20 19
3 819 820 27
3 27 820 20
3 819 21 820
3 820 21 20
3 818 22 819
3 819 22 21
3 816 23 818
3 818 23 22
3 34 815 816
3 816 815 23
3 35 28 828
3 30 807 29
3 29 807 26
3 30 27 807
3 807 27 26
3 30 31 27
3 31 819 27
3 31 32 819
3 32 818 819
3 32 33 818
3 33 816 818
3 33 34 816
3 44 35 34
3 37 30 792
3 792 30 29
3 38 791 37
3 37 791 30
3 791 31 30
3 39 843 38
3 843 32 31
3 40 788 39
3 788 33 32
3 41 34 33
3 36 28 50
3 779 38 42
3 42 38 37
3 43 39 779
3 779 39 38
3 43 40 39
3 43 766 40
3 766 41 40
3 766 44 41
3 45 779 42
3 45 47 779
3 47 43 779
3 49 766 48
3 49 44 766
3 49 50 44
3 677 632 674
3 681 744 676
3 683 681 677
3 677 681 676
3 688 687 683
3 683 687 681
3 738 741 679
3 738 679 777
3 723 724 735
3 735 724 777
3 732 723 735
3 821 723 732
3 829 863 821
3 723 847 724
3 855 723 821
3 863 855 821
3 855 881 723
3 671 855 863
3 56 12 57
3 95 94 91
3 91 109 95
3 209 208 213
3 488 487 430
3 526 528 468
3 468 466 526
3 608 609 607
3 607 668 608
3 678 741 690
3 921 863 935
3 471 469 468
3 696 701 699
3 691 688 690
3 688 683 690
3 695 696 694
3 694 738 695
3 444 443 435
3 435 379 444
3 717 704 881
3 399 397 395
3 44 34 41
3 28 35 50
3 44 50 35
3 788 40 41
3 41 33 788
3 34 35 815
3 35 828 815
3 922 455 909
3 463 899 406
3 899 464 465
3 455 922 456
3 456 922 865
3 864 398 865
3 909 892 922
3 39 788 843
3 843 788 32
3 922 864 865
3 125 73 123
3 123 73 71
3 808 810 72
3 72 810 823
3 810 26 823
3 71 74 809
3 791 38 843
3 843 31 791
3 15 799 25
3 25 799 68
3 15 65 799
3 799 65 68
3 72 884 808
3 72 809 884
3 884 809 74
3 69 809 824
3 824 809 72
3 604 870 564
3 605 870 946
3 946 870 601
3 601 852 664
3 664 852 604
3 601 870 852
3 852 870 604
3 850 601 839
3 839 601 664
3 18 925 823
3 823 925 824
3 18 840 925
3 925 840 824
3 564 896 566
3 566 896 605
3 564 870 896
3 896 870 605
3 661 839 660
3 660 875 600
3 600 875 664
3 660 839 875
3 875 839 664
3 601 850 946
3 946 850 666
3 119 71 69
3 71 809 69
3 568 833 567
3 567 833 566
3 568 522 833
3 833 522 566
3 15 923 58
3 15 3 923
3 521 813 461
3 461 813 463
3 521 523 813
3 813 523 463
3 560 599 805
3 886 876 560
3 808 884 76
3 76 884 74
3 26 810 29
3 29 810 808
3 654 776 599
3 600 602 776
3 221 866 223
3 223 866 281
3 221 279 866
3 866 279 281
3 463 841 462
3 462 841 404
3 463 406 841
3 841 406 404
3 561 811 562
3 562 811 602
3 561 805 811
3 811 805 602
3 60 923 4
3 60 59 923
3 460 800 459
3 800 517 459
3 462 796 459
3 459 796 460
3 462 402 796
3 796 402 460
3 406 780 408
3 408 780 465
3 406 899 780
3 780 899 465
3 469 768 466
3 466 768 465
3 469 409 768
3 768 409 465
3 395 924 399
3 399 924 398
3 395 865 924
3 924 865 398
3 403 761 400
3 761 337 401
3 400 760 403
3 760 460 402
3 408 759 406
3 408 344 759
3 759 344 407
3 464 899 523
3 523 899 463
3 916 757 909
3 757 763 842
3 458 760 400
3 561 859 886
3 886 859 512
3 859 781 512
3 457 800 825
3 825 800 460
3 562 753 561
3 562 754 753
3 753 754 514
3 892 909 757
3 757 842 892
3 937 737 752
3 512 751 886
3 886 751 876
3 512 763 751
3 751 763 876
3 406 759 404
3 404 759 407
3 335 747 338
3 747 401 337
3 400 746 458
3 458 746 844
3 400 795 746
3 746 795 844
3 561 753 743
3 743 753 514
3 844 795 740
3 515 736 737
3 736 764 457
3 842 734 767
3 767 734 512
3 842 763 734
3 734 763 512
3 937 752 844
3 844 752 458
3 400 712 795
3 795 712 401
3 400 761 712
3 712 761 401
3 458 825 760
3 760 825 460
3 854 709 892
3 892 709 922
3 854 864 709
3 709 864 922
3 740 864 854
3 767 737 842
3 398 705 762
3 705 740 795
3 892 706 854
3 737 937 706
3 706 937 854
3 752 737 736
3 736 457 752
3 844 703 937
3 937 703 854
3 844 740 703
3 703 740 854
3 515 737 767
3 842 737 706
3 706 892 842
3 767 700 515
3 781 750 700
3 700 750 515
3 563 698 603
3 603 698 562
3 698 754 562
3 781 700 512
3 512 700 767
3 401 747 762
3 762 747 335
3 599 776 805
3 805 776 602
3 337 689 339
3 339 689 403
3 337 761 689
3 689 761 403
3 338 686 335
3 335 686 334
3 338 271 686
3 686 271 334
3 853 3 18
3 3 840 18
3 399 685 333
3 685 762 335
3 59 60 684
3 762 682 401
3 401 682 795
3 762 705 682
3 682 705 795
3 764 680 750
3 750 680 515
3 764 736 680
3 680 736 515
3 762 685 398
3 398 685 399
3 740 705 864
3 864 705 398
3 333 669 334
3 334 669 335
3 333 685 669
3 669 685 335
3 51 91 684
3 684 60 51
3 344 665 343
3 343 665 280
3 344 346 665
3 665 346 280
3 564 663 604
3 604 663 563
3 564 518 663
3 663 518 563
3 800 658 517
3 764 756 658
3 754 656 514
3 514 656 756
3 754 657 656
3 656 657 756
3 403 653 405
3 405 653 402
3 403 760 653
3 653 760 402
3 605 651 606
3 606 651 666
3 605 946 651
3 651 946 666
3 517 873 516
3 756 657 873
3 873 657 516
3 750 903 764
3 764 903 756
3 750 514 903
3 903 514 756
3 658 756 873
3 873 517 658
3 600 649 660
3 660 649 654
3 600 776 649
3 649 776 654
3 338 647 340
3 340 647 337
3 338 747 647
3 647 747 337
3 516 646 518
3 518 646 563
3 516 657 646
3 646 657 563
3 521 785 520
3 520 785 518
3 521 519 785
3 785 519 518
3 666 850 644
3 644 850 662
3 271 642 275
3 275 642 274
3 271 338 642
3 642 338 274
3 519 641 517
3 517 641 459
3 519 461 641
3 641 461 459
3 886 637 561
3 561 637 805
3 886 560 637
3 637 560 805
3 764 634 457
3 457 634 800
3 764 658 634
3 634 658 800
3 687 630 655
3 655 630 660
3 687 661 630
3 630 661 660
3 560 625 597
3 560 876 625
3 781 743 750
3 750 743 514
3 850 624 662
3 662 624 661
3 850 839 624
3 624 839 661
3 859 561 743
3 743 781 859
3 90 684 91
3 311 672 310
3 628 622 911
3 911 622 311
3 628 672 622
3 622 672 311
3 563 728 698
3 698 728 754
3 563 657 728
3 728 657 754
3 143 621 94
3 139 90 621
3 311 247 911
3 193 900 143
3 90 91 94
3 94 621 90
3 190 139 621
3 190 621 894
3 246 190 894
3 621 143 900
3 900 894 621
3 251 900 193
3 623 628 877
3 428 427 877
3 877 365 428
3 845 867 246
3 246 867 247
3 867 911 247
3 366 830 304
3 366 365 830
3 303 804 251
3 804 900 251
3 303 304 830
3 894 900 804
3 804 845 894
3 246 894 845
3 303 812 804
3 804 812 845
3 303 830 812
3 942 830 365
3 458 940 825
3 825 940 457
3 458 752 940
3 940 752 457
3 545 939 543
3 543 939 578
3 545 580 939
3 939 580 578
3 580 936 578
3 579 941 936
3 936 941 578
3 628 931 672
3 672 931 368
3 628 623 931
3 931 623 368
3 579 936 929
3 929 936 580
3 627 926 580
3 629 626 926
3 628 920 877
3 877 920 365
3 920 942 365
3 583 919 914
3 929 580 926
3 926 626 929
3 484 917 547
3 947 930 917
3 578 912 542
3 542 912 541
3 578 941 912
3 912 941 541
3 489 918 484
3 540 910 947
3 947 910 541
3 540 485 910
3 910 485 541
3 908 915 632
3 541 907 947
3 947 907 577
3 541 941 907
3 907 941 577
3 929 905 579
3 579 902 941
3 941 902 577
3 902 934 577
3 934 897 914
3 914 897 583
3 934 913 897
3 897 913 583
3 486 895 429
3 429 895 485
3 486 542 895
3 895 542 485
3 905 933 913
3 934 904 577
3 913 934 902
3 917 484 918
3 933 891 913
3 913 891 583
3 933 906 891
3 891 906 583
3 483 890 427
3 632 888 629
3 629 888 626
3 632 915 888
3 693 887 691
3 691 887 662
3 693 644 887
3 887 644 662
3 483 883 485
3 485 883 429
3 483 427 883
3 883 427 429
3 927 713 640
3 640 713 633
3 927 906 713
3 428 880 488
3 488 880 366
3 428 365 880
3 880 365 366
3 666 879 667
3 667 879 693
3 666 644 879
3 879 644 693
3 583 878 919
3 919 878 927
3 583 906 878
3 878 906 927
3 933 905 872
3 629 871 631
3 631 871 627
3 629 926 871
3 871 926 627
3 744 869 676
3 868 906 933
3 845 942 867
3 867 942 911
3 547 862 594
3 930 904 862
3 594 874 861
3 913 860 905
3 905 860 579
3 913 902 860
3 860 902 579
3 676 858 677
3 677 858 632
3 676 908 858
3 858 908 632
3 484 851 490
3 484 547 851
3 431 848 489
3 483 540 848
3 930 944 917
3 917 944 547
3 930 862 944
3 944 862 547
3 594 846 874
3 874 846 914
3 594 862 846
3 932 837 595
3 932 893 837
3 837 893 559
3 932 827 648
3 577 822 947
3 947 822 930
3 577 904 822
3 822 904 930
3 595 817 919
3 597 814 560
3 560 814 599
3 597 598 814
3 814 598 599
3 830 942 812
3 812 942 845
3 494 851 928
3 633 803 908
3 908 803 915
3 633 868 803
3 803 868 915
3 915 802 888
3 888 802 626
3 915 872 802
3 802 872 626
3 489 806 432
3 432 806 490
3 489 484 806
3 806 484 490
3 918 489 848
3 848 540 918
3 798 625 876
3 494 928 849
3 437 432 490
3 490 436 437
3 598 801 648
3 598 597 801
3 928 861 797
3 797 861 938
3 890 483 848
3 848 431 890
3 846 862 904
3 648 794 598
3 654 794 652
3 655 790 744
3 744 790 652
3 655 654 790
3 790 654 652
3 763 789 876
3 676 787 908
3 908 787 633
3 676 869 787
3 787 869 633
3 782 731 793
3 594 786 547
3 594 861 786
3 786 861 928
3 915 784 872
3 872 784 933
3 915 868 784
3 784 868 933
3 547 786 851
3 851 786 928
3 511 783 916
3 648 801 932
3 932 801 893
3 817 778 874
3 874 778 861
3 817 938 778
3 778 938 861
3 509 510 943
3 826 909 455
3 909 775 916
3 916 775 511
3 909 826 775
3 775 826 511
3 774 793 731
3 798 876 789
3 789 659 798
3 368 773 373
3 373 773 372
3 368 367 773
3 773 367 372
3 509 772 446
3 446 772 452
3 509 943 772
3 772 943 452
3 598 771 599
3 599 771 654
3 598 794 771
3 771 794 654
3 797 938 782
3 782 793 797
3 452 770 451
3 451 770 454
3 770 455 454
3 938 817 769
3 769 817 595
3 559 893 856
3 626 765 929
3 929 765 905
3 626 872 765
3 765 872 905
3 837 559 769
3 769 595 837
3 595 755 932
3 755 827 932
3 942 885 911
3 911 885 628
3 942 920 885
3 885 920 628
3 898 749 652
3 652 749 744
3 898 869 749
3 749 869 744
3 827 748 648
3 748 794 648
3 916 745 789
3 789 745 659
3 916 783 745
3 745 783 659
3 783 511 943
3 943 510 783
3 826 455 770
3 770 452 826
3 451 742 452
3 452 742 446
3 451 445 742
3 742 445 446
3 490 739 436
3 436 739 494
3 490 851 739
3 739 851 494
3 640 733 827
3 733 869 898
3 928 730 849
3 849 730 793
3 928 797 730
3 730 797 793
3 511 729 943
3 943 729 452
3 511 826 729
3 729 826 452
3 748 727 794
3 794 727 652
3 748 898 727
3 727 898 652
3 623 726 368
3 368 726 431
3 623 890 726
3 726 890 431
3 625 725 597
3 725 758 856
3 893 722 856
3 597 725 722
3 722 725 856
3 774 721 510
3 510 721 783
3 721 659 783
3 827 733 748
3 748 733 898
3 731 720 774
3 659 721 720
3 720 721 774
3 774 901 793
3 793 901 849
3 774 510 901
3 901 510 849
3 782 889 731
3 782 559 889
3 889 559 856
3 758 889 856
3 373 719 368
3 368 719 672
3 373 310 719
3 719 310 672
3 914 718 934
3 934 718 904
3 914 846 718
3 718 846 904
3 659 716 798
3 798 716 758
3 659 720 716
3 716 720 758
3 758 715 798
3 798 715 625
3 758 725 715
3 715 725 625
3 758 714 889
3 889 714 731
3 758 720 714
3 714 720 731
3 947 945 540
3 540 945 918
3 947 917 945
3 945 917 918
3 801 597 722
3 722 893 801
3 906 868 713
3 713 868 633
3 427 711 877
3 877 711 623
3 427 890 711
3 711 890 623
3 938 882 782
3 782 882 559
3 938 769 882
3 882 769 559
3 827 755 640
3 640 755 927
3 927 838 919
3 919 838 595
3 927 755 838
3 838 755 595
3 919 710 914
3 914 710 874
3 919 817 710
3 710 817 874
3 869 708 633
3 633 708 640
3 869 733 708
3 708 733 640
3 916 707 757
3 757 707 763
3 916 789 707
3 707 789 763
