# vtk DataFile Version 3.0
A great-looking cell
ASCII
DATASET POLYDATA
POINTS 1054 double
192.35687102147398 230.6025129280269 31.08300318778942
195.45813137399904 232.8609971967648 30.54732312898929
188.68440826385302 224.26043209596205 70.04258119134084
191.45191690389183 225.7209248552228 67.6034498727803
174.9743545901479 232.6003472874749 43.608402996553735
176.8950649861456 231.581961629802 40.514229625670026
171.03024681329742 222.67777522778542 68.39295948045141
179.57988592859124 227.20999393313403 39.22908319094025
173.0283308284565 223.97692331324703 48.31880767840174
184.0938614981836 225.7871282502232 73.71487702335511
181.1307623314346 223.42229317872776 41.3805088249819
196.42386662717118 244.50971162824098 33.85064187396424
192.40150904487672 244.2168795018311 33.76129771955414
183.56801633287327 242.54487674662678 38.78435115220728
171.29757940537888 227.0300498542102 70.84149504581083
190.85542882775064 236.39137979343178 30.398496651085544
185.73719992839554 239.06947477391017 33.53513509823129
176.67419094372266 222.66959010050516 45.206370786280765
188.90827868008805 246.47317011074162 42.47889047115466
198.9488257513578 240.94137624025902 31.821989647534767
179.41128650721578 233.21259770517125 37.801588251105905
188.9005608886796 238.110539976977 68.18626444645092
173.55003329205397 233.69559670935524 66.66767878944756
175.64006285570213 236.7982396987538 48.70655270435846
178.76333691698932 219.37085831434806 72.52992334467329
177.52095777175018 221.70520276720006 73.51832347528209
170.9691164761945 225.5760310724563 70.32740978347037
183.20341316701993 229.2318981062632 35.210307190683544
178.91640938158926 228.17006746536242 74.7865139906826
182.3183654706009 242.1393024389269 41.04314195622264
182.5485514429392 217.59232653506172 71.79959454137955
183.23196191015168 227.27433682048684 74.27481722535846
196.3311047345786 235.72200190766674 30.134352190166712
170.50607618611963 229.61059235595854 69.61417103943533
173.98870512890596 223.5288602932233 72.06144575478258
181.5890758717642 232.57826182154562 35.911919364352435
174.9216362177675 219.90376501387047 52.24748974615801
178.25115657908822 227.49007491800987 39.75968296862658
187.42284023621588 223.98454035756507 40.81386606128146
197.20878290189063 230.02648987596612 33.73820054647196
183.4687578327314 238.41182736121198 35.07485699130794
169.64372738977772 229.3520085815419 62.84856438417192
173.53131282868154 224.4853840282574 47.02599317529298
178.18163151852227 216.01196582142694 63.26162095180549
180.38641978121154 223.48663760589207 74.35350213762713
204.07327952279516 237.9460150782991 66.70903741036156
178.0679475981073 218.3510101156888 71.2560378148073
182.27168449635843 216.07579110799915 62.20669211208041
184.87920223864052 217.55734977877714 55.25135207206679
207.04280643785182 229.37746752039806 56.35774245025385
208.65346952276747 247.13271996491926 39.18316402360108
169.54548020778535 224.401514719074 66.41431980649358
189.21004622675872 240.01560090316025 66.3469746354893
169.4683633816758 228.14593097370738 67.37829120797493
210.4938777768187 237.40723968845765 62.32753107064568
184.1753427233217 217.71391369651045 70.7634196068671
178.94355792066287 218.1642817357282 51.57023839047789
173.91867412138038 221.91266024164904 50.24345878529917
200.84714881092157 237.1117357595995 67.77022800851236
184.3919186121267 221.42791481838736 73.23032400692092
189.91839125139552 223.46142206340875 67.42167694168508
205.73565905619282 250.1420341043924 48.142600559410525
212.08665767549024 247.72924601138635 54.69695031181293
179.8557363984559 240.87970822981842 43.73448925594571
180.90826188758987 233.68114893188076 72.08127508435447
171.91799127149324 220.6155223242828 58.28744038958906
198.8896471777795 224.85313384707644 55.10303710465267
182.641269558775 216.70148376181683 56.559393237906114
184.12239350769417 235.15218757084358 33.804181214935355
202.9026029451516 231.34559042825592 64.51350408181992
175.59669188865328 237.02516599918718 52.226319148282315
211.39157919634334 244.1607199061416 61.21502297651543
203.8847189196218 239.93004662809682 66.80669951115449
181.22228852806808 240.56231589290505 61.87424693944372
185.01819731141342 217.01213952975903 61.28979714665743
173.4619549063019 233.5229647974213 49.88943351449685
174.2962604375366 235.4003816635537 63.29306883870278
171.77496068029814 226.2194890361763 50.75298504570783
193.7877395867558 230.32822197966104 31.666137540830736
202.90091332669428 234.16156879809688 66.25106630028782
174.77739391766227 235.06737849971464 66.9045557532167
176.79814551414648 216.67419063610322 59.75615848760537
177.63596334519468 216.56419631141824 67.0073586013757
173.3081827793129 219.6586710182828 66.94720449995634
176.6149307535737 218.11453829796167 54.07232477387772
172.94092777422293 220.6936181916178 54.26238195550891
192.08502691580776 240.52915894126025 31.351054701332828
170.68967061335556 224.41361955791024 54.550453557790185
186.11185686122573 218.9861185285623 69.59055488499548
187.38647758024405 221.1253295285255 69.83111489114361
171.70437553733362 231.2725222847579 69.32772880136693
218.26502082032712 241.24912234863996 45.881376380416356
175.86233494106986 222.40678473758385 73.09399053800324
179.2779657861341 237.57183995085947 66.67596045449986
192.35874026271264 221.5790445280773 53.339522035878005
214.5159555988332 244.04460760914134 39.3677654552844
181.51856537322834 220.18938634045574 73.1320499295877
190.87951190733025 234.31824788310436 30.344774011619904
186.6880344541736 225.0559542544933 72.2822736409821
171.79574679851726 229.76188484645672 51.594042294027474
177.1844930804434 231.70582864455284 73.33421525924193
169.484859820257 228.52511961611333 65.96285435700571
177.98729520772315 235.85607302384895 68.98480044108655
174.58951582547022 218.66560722820856 56.85684723057467
204.20345067956023 227.47336562084564 50.18395115573966
174.04248144428982 218.7623982391886 66.05971870549912
171.37760511143867 231.2276547982558 55.36964675614963
179.50725254542706 221.00087071905565 73.55125702266085
183.01807370040896 220.99680642729544 45.406518575141426
193.1696646005259 238.046768066315 29.70408166593583
183.67657731418058 222.9503666600852 42.09004743410218
201.95481532373904 241.03369849246897 66.94650213922307
170.38625067010236 222.4317488416203 66.37853357746943
179.5280679701772 216.18959473379383 67.73536046183003
169.4018871069063 224.4777951864746 64.22399103531413
177.48764355609111 225.56366740919546 74.54227189754577
207.73427983993227 241.86893262080272 64.95506105287703
175.79120840386554 217.51722360950615 58.51219529773642
199.61485150245875 241.41363181959093 66.97865134812443
200.5162796714622 245.45220359457753 34.70318093564988
184.19510449171526 216.73028751365098 62.67429305507809
184.4551643248399 219.26903950925833 48.76137324581313
175.29231819021877 225.96291358549735 43.78078231343203
176.19793141297478 229.2035895302621 74.16881463291188
185.72812767034557 229.42709268117096 72.58469049180907
216.98542985405174 244.80845540510327 44.39357777421424
196.15938171092583 244.19628973609292 64.9148611123176
205.86393398396046 242.01539918009115 65.68785196594814
176.0135621811218 229.0305064460143 41.81231048326945
173.77452969258889 230.0552140559939 72.56634103330957
169.687759231847 227.7048387182352 56.320303594358634
169.69009033768586 223.3951626056041 61.604781667695676
205.87763070206339 236.95710021678155 65.35151383115102
186.52667542757254 233.2472908229187 32.17947467817754
177.06076947549218 237.45061621604899 64.864669190444
201.37719910531416 226.2567084081392 57.21828521593268
188.9496052769316 219.39535701016212 56.91338584887789
215.93827466038928 246.1856965165967 46.497414345564366
169.28250332748428 226.7155943121763 59.3324567460423
170.19051540118164 229.84105237712222 67.5385022275618
172.8519827801326 225.9830100482343 71.74227645496411
191.6936786341962 226.21932898672887 35.938917709229614
204.3203691273936 247.5411051165395 62.01912315037314
202.3201418275848 238.751369095131 67.32926707285286
177.47850608527318 238.77813848500435 58.250700275239105
180.5383045333238 215.9972721142702 65.54439482197706
209.0278769785764 239.08612422625237 64.08476974677039
176.16681904731414 217.65804305249543 66.03580037890835
181.8520402390921 216.8402614099301 69.76663303690005
183.64340529045612 216.39308410358862 66.20226142416246
176.60052745879528 216.7642105689516 63.43642618614968
206.5418859861467 240.38367331941757 65.63719889285697
203.13470255309656 243.87480429607984 65.69714034086358
169.27973739155698 227.65200375896754 63.80794412436399
201.4430980383291 230.73778768463671 64.91727119979075
203.80356471241004 228.34171931483243 59.041319425742245
177.0980777927524 227.50376056694572 74.5388840282259
171.9529493301731 229.0435324623218 71.38278929546065
169.7490970629314 226.31336573938617 57.29582620060865
191.6921174395904 221.03293235499186 58.630641974224574
181.55040196930037 226.823883939868 74.59977573894234
172.371072525504 220.09414347655238 65.26113350726683
180.94971528946107 228.93565764222842 74.6348386237167
186.83667870109053 238.00800897310253 32.59059722341793
186.37577017866462 218.21787851947437 67.09959916500215
187.9102369477377 219.0110567262611 63.31132622023383
170.5109737570409 230.61301952903784 61.981658046702115
172.55676603406252 230.26979118639562 48.87437418027568
217.95549589300182 242.2892484055725 50.16864738515966
180.91115846418455 216.97630712810798 54.33501655152834
180.55531241881337 216.31367346436957 58.23126603315556
170.44093902129154 230.40074463932916 59.772909287991915
175.5417641604558 230.75306016005467 73.28786772121833
185.01837745672432 223.79322547071618 73.15500605861762
178.9690550260038 232.4791387755191 73.11436270314908
202.08276741892792 249.274301413578 41.124411575257724
180.34269298082086 220.7115393759846 45.864734176025614
173.38938091304843 228.87606332020195 45.08766083213291
183.67238711103408 231.63928143644443 72.70425840147823
188.07009356102242 233.62299662351364 31.06437155684293
200.14460648365102 226.30964357380836 58.91692024081564
211.17174944401177 244.6947685519788 37.62452082128041
174.8993368248541 233.37641177755546 70.40517928786043
187.71672712027348 218.5305459540931 58.83221554930341
180.07031913532765 241.6731136431165 53.42988887431763
170.25017514281342 224.5622349205128 68.30155782060895
178.70734766745247 217.24235979506813 54.02121592762082
181.083225676311 239.33819476243593 38.299197434896854
176.3710235048822 233.0218803987335 71.87010612184568
177.35372269224345 236.61910444244572 66.90421684500795
173.3652433972228 221.30331901636913 52.25362919396288
177.9290837752032 238.57088872638164 61.126790014927394
175.6110959899094 225.23227310598756 73.48121901909273
170.22539583333625 227.53344948405618 69.11528102748406
178.43470340735345 216.54431457663335 58.26365599762925
209.234103512445 230.22502651313033 51.933966375159876
177.45959974169398 238.38198996488237 47.86011942258176
169.7442122147965 228.71400768724214 58.04711575669471
198.70358274609387 245.6771486033752 34.975976650473
212.10131954005237 246.8999215166967 40.59427796903853
178.58733687653142 216.85056254962666 56.09985026817327
203.7135873898569 246.76636788078173 37.06391334955915
191.2366253901558 231.71288685303546 69.72994364717418
190.72390912071833 225.35208578469167 37.962255157295466
172.45889888777162 221.04920958695334 68.11160755128468
184.76624031918794 232.8263540432854 33.01188213922644
182.9660652423666 217.08815989175815 54.71926589196084
172.69300812221456 220.24377680550654 56.34851689264003
178.31610511375246 231.92551530185747 39.03488421710146
174.66341405481538 228.51072577896193 43.34408920120258
213.41509131247545 233.84401959279947 48.35701749330621
182.38773702406067 216.4849559335637 58.225865092107696
188.65158934536794 239.07591301621346 31.651598543343397
183.4967935259894 216.5411082953552 60.43631654646314
173.73445117205748 233.2955565776044 68.67611138390754
194.06184013308436 247.51410954809623 39.613019748674525
206.48442079132326 244.9959168951368 64.13401568897297
201.41462631317225 245.17679905902352 64.8228136216879
182.5301316702458 231.03532865700328 35.30909132899109
182.3758273130491 224.46740165650476 39.71331458953735
174.67399878293003 219.0533884823333 68.25174988901887
176.4514648680131 237.70362886507812 59.75040480906827
172.5786932283794 223.58617710207167 50.29805868333428
188.48780365097826 224.67912540103688 39.16641505168043
212.87635173509886 237.16838428020552 59.98138599685294
184.72320687378874 237.52451013778497 33.86658972418015
182.62438463849608 216.11679390693794 64.56544011997127
181.2183956825932 238.54428205016043 66.24505075970919
193.03684639482543 225.6856818974964 38.2203460449352
172.28666770277644 233.24111488281937 55.35408029059485
187.59991772995 229.16412186754127 71.53524856812227
187.86432953700879 246.6178006567381 46.64714903348704
179.25663937144404 228.95163921041484 38.26256101102762
195.13398289916086 248.0843476351258 57.85928274555096
185.05603913214566 243.23654060991595 59.74018213092872
183.45436380951512 219.48677769972872 72.60838337421906
170.25764826862326 230.19879038327335 64.56403339622973
194.45483802870964 248.91148130814602 50.92328371743498
185.50590350634025 217.6180605944397 59.68467197272576
185.8400004923851 220.90287919247584 71.82972685872369
171.06636513534957 222.10994539563 57.377533273439134
169.42787209061686 228.54801985693513 61.02251716246027
186.36638410323883 218.03761077772128 62.421725557667806
206.72508830236976 232.13168639064736 60.914668837755045
186.31897629880544 245.14916739584973 55.27179559210108
188.72876793692996 219.4220197364076 61.60817208951718
180.6472260736861 216.58907527813977 56.26999694143968
186.7092231225265 226.90804771661976 35.19578575181665
192.06452841337256 248.0391802772323 51.03786190262595
175.12374337564813 220.38716203421623 50.338840070952244
174.2176797756357 234.72274289148632 47.758264548450846
189.07958076036704 246.93660829708801 53.37515090871103
184.0103676491506 240.87221965402915 62.94955565840791
192.11566293173462 247.96988261835827 54.092717916900995
187.24550812738886 236.5146274783918 69.28489024449604
178.54102848009188 222.16795361852908 44.37889318082951
192.1903158589598 248.11650173134515 47.70625023313508
199.7831444341407 238.99775021222538 32.037586708990304
181.24696181005544 226.81683773499756 38.40254444785317
183.75695759723743 229.6396283996092 73.11963791137859
210.40394328461272 248.42923918737023 48.198825550535695
198.44248939786868 249.79426916695337 52.90567599737772
187.18163635974926 240.44447808118215 33.428473002120725
195.69945045427775 242.42277712575762 65.90471330092306
210.50896524611827 234.13222979097583 58.47844827009487
199.98019366322558 250.1792188400123 49.996418651711764
195.63505886661366 249.19659878639177 49.51262391611921
182.45083352154944 221.967802123515 73.82007251422647
199.50146588686619 247.65549780218282 62.119008756905664
182.43310529448655 219.59240127076336 47.8950332087536
205.14300917776353 231.81068836749637 62.39635949930248
199.09095833661678 246.80946879668556 36.42855837067769
185.23241552999326 218.11146995272807 53.316607649825045
202.22594575529558 245.3705530217287 35.282473655816865
181.67457282639077 241.7250238785284 59.397850379993635
176.77848008518205 237.95358188874545 50.84144047423114
185.81729769048786 242.02751404432902 62.34227050041717
201.80438697538605 250.3550723072873 48.05136140004058
216.28161458409127 244.537729176495 42.728075670663365
202.74697027949975 249.73796986030774 42.88606356314247
184.60079059751277 235.5844799906329 70.41706763038165
179.02713778019879 240.31140886243222 45.66257632647692
175.45820962905972 217.5045395462126 61.07871309543526
205.58187075073997 249.61359344599552 53.57256161644301
188.58659381141428 220.12381310267475 65.68248862727316
205.04541625259012 249.93567988805967 50.63290748379558
198.48353245043631 244.25275009617152 33.53311995600732
188.1685913693512 225.9901020293396 71.22706480727254
187.87920228653294 246.67649362788285 48.688304514540384
207.88611015611423 244.65319170430067 63.790835178146985
182.68138293697484 243.70950856866529 44.68936755414445
180.98800284455186 243.08600745300947 49.45756752277743
204.82594369841593 228.948569720713 43.241898783584986
189.91003379105845 225.1833195645689 68.71867054925467
196.32857949330625 232.7873539544284 68.2889982359532
169.7710543764478 224.19639158757465 59.018933254509236
194.79737530373268 248.67338433870742 43.314115126990615
172.51831184204332 226.0639907640898 48.35587841536535
185.26082358950316 244.21317077866289 41.61668079135795
180.6632335852709 241.54792527751346 57.95988085201589
170.5768886432265 221.6972271346514 63.303115052069145
207.41704031558052 233.8159997552878 38.141742105276016
183.8958845157454 238.90519981991596 67.03827214219172
190.15496700523943 220.09889868436343 59.16237478894386
196.73947564695786 224.97088121415896 60.99515868033604
204.0821607067886 229.50270258572885 60.577292929667585
177.72432054053843 219.5291440854642 49.58808883875891
198.498680612367 228.56733548544105 36.498537939423365
177.65335171252022 235.3484259821196 40.947140634320206
180.51281916819514 241.81080829212726 55.31604753743003
184.7631719479324 229.96662668042705 34.14665392043827
209.03318775454295 232.77205399240566 40.998582067444175
208.2276211391488 249.16756950131702 48.23730991759916
179.86165800850458 239.14594571940694 39.91649221749158
190.44418081023517 242.23666104543 64.40117078303123
200.35226284336647 231.50118098433694 34.136116178009395
197.89571753411334 227.34953059123958 37.847839435486364
209.80467400727656 248.51199528265687 53.47070214005014
188.747269507168 220.66422588515636 48.87440170011661
193.52504068551184 222.993206686414 61.922201274467305
185.43142389586413 221.68396875854773 44.350084225433356
194.3178520480089 237.97406915697763 68.15472184194606
178.6827265717036 239.85733898415182 56.92725654763776
188.92035204468903 244.1114923488782 36.227213896815606
178.20916956742002 237.1175274046572 40.99601112712108
180.09364690318222 215.97331277214892 63.18131225530334
179.8152300074616 236.71601309201972 68.50814948969008
175.94245256501267 236.34610278721917 46.41024742288441
203.797149683936 236.00059008222678 66.48966055662785
204.07816864566198 237.44934447085026 33.88423407361227
189.10755721025757 223.50219901514694 41.84756768832539
198.5108242248094 249.83435145617491 44.11216626640237
187.7681435583286 245.15312018698677 57.629004134494565
209.27564627115635 235.84404586475668 62.12769115588559
177.01082312283447 224.2270686118978 43.45110299447943
180.63169807515763 218.68033791676734 71.91398315946128
195.95402980840464 223.29181103753618 52.48128882861085
186.75285135022102 218.1669754799165 55.92306561097389
192.8025753062457 245.6430420566408 60.156823834027925
190.4410515986511 247.26875962363897 54.67500142075062
173.0457852996283 233.77674328518344 52.514897041047846
209.40297631862748 233.9033034426537 39.71993388734711
197.3390980289632 224.36520360824858 48.735348857812404
204.4254591031462 227.4755288810543 55.51448884447425
191.478474413009 238.47038161851694 67.98311014657189
183.36768241835685 217.4690693886415 52.70828559976961
201.34116629344513 228.685144536493 62.33076522161906
200.27885696172726 239.38608028581993 67.77864953021609
204.7092034475476 228.07832352375794 46.911436100471896
182.84648028287532 243.96499636183162 53.191575506772075
196.35459421889718 224.86933677848884 44.70964309283131
202.43099308835772 226.4805327014648 49.659961295775815
195.16685665187924 222.70306764772934 54.07654865678516
198.30857258813234 229.79645158008992 65.69766187583515
208.37939835278942 236.67435728663955 36.61893545078803
189.99711666598316 227.35738832462195 33.859428577623646
196.85665846660586 246.08514622344208 63.448217413122435
177.31039816702645 217.61204561580237 68.72339098463985
180.37667410667441 239.18293070737587 64.35522241009946
198.66433777259087 224.60656397682126 51.43888915271049
194.42702614715017 222.77053771753364 51.262839301349636
205.6330529537403 237.6321869352386 34.53569914373422
197.0843556110733 226.37480197752163 62.93590635159159
202.50675523847872 228.91198643340113 40.165811100138775
188.8752500271355 225.98365508187047 36.20408199062767
207.14532356661454 235.62766185544066 36.67974630901055
195.0691732253871 223.4789096955125 59.9919131481122
197.86395090510453 224.8823405608095 46.474651308214575
209.60394941871175 232.49999332540884 58.09560420497363
180.50131594987536 231.54237691109546 37.04569393104477
193.983130192284 228.3494454348 67.27887327090936
200.64169576398965 225.54692461218343 55.30046567649736
199.4188422872251 225.71676451808034 44.882018998398976
197.53654187419923 224.13641144312513 56.119988060175956
171.56583301021507 231.02936781114786 53.27821636890231
194.7169417956669 231.11925692048516 68.25480449239392
205.26145269644414 233.1377908045258 63.98871919836739
182.59961892236433 244.1438059651874 49.1377736168463
202.450476817858 243.6230822347197 34.06359235911922
196.78503667499592 245.8271696414676 35.56994594509481
171.09735462050372 228.04076887481384 52.597904290071625
178.6136340381527 239.33814396153542 59.602448551311205
196.91158173385742 237.13519978724122 68.10770463585558
206.51343273523622 230.55201881809936 42.27037590800583
211.60471199767113 238.492744624651 37.34529269565498
210.2616867827475 232.10304708388688 44.086149584827346
181.31384058707974 217.62267156009528 52.529840035441175
204.3716276334961 232.83811117667057 37.134587124016335
197.6875758662727 249.7564330637834 50.94970082657406
201.09544341637192 233.90128673408202 67.02070863987083
172.0168408398522 232.2360592409556 66.42232127031465
177.9133849400868 223.5433578604768 74.29991895335301
181.66618057015214 235.34884570807947 70.49311443727841
206.55128766492953 233.44199685153623 62.49189551163286
214.44547456271164 247.0424263721 48.38141783381014
193.26803398810856 232.1332280304744 30.214001135700077
208.26842241981993 233.81735503896965 61.07059070505384
187.04261506032304 218.75037138050575 53.914411983289874
206.42273343134542 246.11355748089585 62.86043101756797
174.55135509449002 236.15027457820588 53.57311802675519
217.26715444594447 244.6252141956823 47.97983098879276
174.54937861131148 228.2439273864437 73.2921971999016
211.3628929755399 234.9217607434183 40.33048183510239
188.8696385772494 219.49560373910913 54.361923915374504
190.06282159099894 246.36995013423132 40.57030278095052
210.22293254305862 230.85576289254973 50.80880557007359
181.0810091985024 243.17577882121248 51.34772068250153
203.22840249300734 227.41644042459208 57.24033122729131
193.27597270734495 248.40336487680435 49.78100477071157
201.7986487116227 236.99326741710655 33.127800109279164
185.54207437524695 231.57152131070723 71.83583781058515
194.4912343517703 224.54835266417638 43.149080234125364
173.4023901639129 234.41806838963953 64.75935578826086
199.6633018532802 225.1611716926128 53.34205676375468
175.43501932637878 236.342972308219 64.54952529464171
182.16022450804172 215.95052800671039 67.05133254135639
190.83255533864198 228.91515576660223 69.42702158830237
192.6412315059324 246.69017345779525 38.467929956384495
195.69362307011878 226.25261852660665 38.58556415252348
197.75777686081688 239.69287120087353 67.5630997988918
188.63100989591817 246.8341803853263 51.34040666497497
187.36327360284355 219.0896057110296 52.06109259486476
179.4917851148965 225.48415256248072 40.40616481406236
173.8347022683847 231.28026847140922 44.87778829285684
189.22778421026695 229.30382814599267 32.233063839812694
189.8381974793949 222.96160367061844 43.63021422929161
208.07380038780673 239.80852853418102 65.12602898449502
194.96475039389261 234.91690739802937 68.53600562089514
190.66090926526124 247.68452351133843 49.63970315244303
172.4453424817902 231.30619977763058 50.54936471991606
180.31049195394948 242.30949189297527 47.09348230153419
197.46147203058413 223.85502804621086 53.59315588752987
192.33048834443545 223.31972309026068 63.784331587180375
212.67985816910596 244.70486222191093 38.86451684776031
212.66210745673555 248.02134708303487 50.202488509798535
206.96109562919216 241.45313298699477 34.48364406996607
179.39603912514005 217.17039252939583 70.08585677794997
187.49881262209962 245.45180582992236 41.608454667342876
201.85134354686693 232.2281611547894 66.00603089417683
203.40125043907872 250.15038074664966 52.39150125519717
176.89460853799935 226.85487452327342 41.74725165268108
203.06468124917927 246.5392634508122 63.89907556695339
198.84493103774292 225.6251127914033 58.819438975750586
192.95963873640787 224.2518174838144 41.7421135436504
199.36916173817946 227.56661287372086 38.57234535303703
179.5973517087503 226.08082064405312 75.14389703903316
202.64888516861004 237.059199747384 67.19872537433203
206.65853259239375 249.59707583403116 49.58765009958072
182.34773533989087 239.37999838391534 36.61352581296925
216.93846397652626 242.7817408803372 42.258333479996395
183.81973241807282 241.8260999256103 37.116407653220975
171.8232211950718 232.4871487619132 60.368514179544356
185.1108523785116 233.59205228541478 71.13064535928686
195.98893285366665 238.75710071136228 30.227037207824473
175.72326308825046 222.29939879995896 46.245555326531615
175.80594840125156 233.49097978341032 42.818366893192696
186.41522204930845 219.19453748844947 49.52220963694197
215.3498494175856 235.27937723454207 47.22398183866606
193.2103970383701 222.06382795488574 58.366708998859124
198.21765039091454 225.9687423457424 41.81528815019743
193.86350188250344 225.34834857361412 64.74975106175346
207.18273531907144 229.4765256730929 47.54967936653022
202.48267412393005 250.27860940578577 50.46167580247252
173.24215145288358 231.92021840217365 47.90015128072852
201.2147097596322 226.2751989294063 45.93529527452705
200.48221925575177 235.2328948246761 67.7829101067672
217.89613327545862 242.58183120356088 47.60493793634485
200.03516226263318 230.97658925121348 65.94023281633557
197.97494012391877 228.2490449635587 64.35999602925713
170.35990969196808 226.39288765345196 54.983782823126454
203.11997175897935 245.1673683258019 64.72680378171405
214.56193937836503 238.16740062375092 58.7503277140033
173.33173801642866 234.4500141314593 61.88322411776888
199.18435977304802 233.8194722345038 67.81619165504922
215.9603304696462 245.9976612853098 48.24997371474568
188.7867330506999 222.69605847720476 68.69723168043588
201.48437270646426 231.6414853478616 35.73349848071522
208.74371840245385 231.7961297955688 42.202881200681354
178.00924443832469 216.35559267438532 61.30164498528241
202.65862968002693 250.2737093723809 45.44337188858986
205.36555257500288 235.85422306954405 35.1242908851258
193.27264691453195 239.56801346392376 67.49355236798272
206.9636644348339 229.14224027441443 50.58360035860457
178.28695677905665 216.09856742726245 65.19944676469657
212.58264164772282 241.20349760857206 37.55610845153175
192.66982386019356 233.06526883783317 69.05077759999999
206.71787382440516 230.88568931915322 59.29537857712078
202.94107746558151 226.68749172331357 51.70497025985717
204.96039058831678 243.44444414080309 65.66782906864285
176.2767303781507 238.04394626709728 56.68992696831886
205.43441078869316 227.91498316714876 53.851600934382304
199.35705962401562 249.69275562787035 55.20568881889441
210.51864460508926 233.1665284979593 41.8079695441879
209.60481978863476 230.4111784018836 49.04516264579984
185.1685541451448 217.06393136843312 65.15039761222499
199.7180750808173 228.79382788030708 37.42631081164142
175.00869671257823 223.95347185197417 45.45469284708263
185.50623600147216 224.36084879533917 39.872320591956125
174.5984258302908 219.13075301777633 54.18143745652164
205.97141627798945 228.3274479302888 55.46401219225619
196.43463632896714 229.67918396018806 66.83904942340796
208.1325464776072 230.90857686285744 57.590368377218944
203.54624374397696 233.15033793062022 35.830307175028956
205.76458215937166 228.57458866185624 48.71084832136107
187.64747184266392 244.13108118582124 60.504314708049534
195.47680899277387 223.20844186601389 56.89007515417903
170.23633545855586 224.2174508437231 56.209949482311856
214.85438002895998 236.24731216280293 42.531183805176795
173.38662543556467 219.17442955133833 59.35888715187201
199.3685132314805 246.36072073341722 63.555935689974596
199.47980263270577 226.41994513566686 42.57786434459874
171.9255709615008 222.89401628315443 52.32734449908914
182.7702857167083 233.46445292592 34.819686488094035
198.12301680811063 231.67835336822617 67.28480892350578
180.75168098780668 216.10093820740164 60.241404144251014
209.2919012530233 235.56509175551562 37.74195403331753
208.15353819617246 232.26141459793956 59.42671768684582
200.09185763611507 229.4368881482704 64.21104092527858
206.68420210312917 229.6217419646075 58.07637409062625
177.9444778779448 239.2041739792249 49.726048442960916
187.17675063315488 231.19678696268036 32.31432902333822
203.07763821782177 229.54848081137547 62.06567009094687
207.8088231666919 229.5995419230817 48.99618406761473
186.09769703575728 245.81720673191796 47.008702128715726
192.68659360413767 227.4919140297282 34.0830411854567
195.2917866667259 247.06304978579465 60.5166493127378
194.54804275864612 248.85282334993258 45.382221477599536
177.18021901863503 233.4636943015171 41.0950341938508
203.52557416490154 247.55476781532712 38.45046652501519
176.59789457852654 218.79289425620823 52.22869104100117
198.60194983484465 226.15173887326404 60.50992977416981
210.55846525649565 248.3596871347865 50.257194498585754
191.35322397927033 224.23713394571502 66.23615322942297
217.095908124605 244.92866543114832 46.23142957486186
201.894619045774 226.37212887247472 47.68706145650181
192.5908804973327 236.1640962982465 29.629185484189023
194.07531737911648 248.20966891001277 55.187807103147094
203.41702733803203 231.70177604243608 37.36412448295717
191.5069191393226 227.46595414643306 68.367697889012
199.81768337530966 235.64735393992441 32.22093027189721
204.69191867169144 234.63304012607355 65.24856094886677
201.52789600819412 247.80642179589367 62.16098491611225
185.62261730559302 228.01462254539948 34.43407276817114
215.31420591653875 240.6523819721957 39.62993928626244
202.62972498942761 226.37813198123817 55.43771718686875
182.67813102244432 227.14384744992006 37.0403659352548
187.819413320395 221.20261882553368 46.39404038542207
206.32071634290324 247.48978927758841 60.87501252408523
205.22428879649982 249.4395801764037 43.09078816261546
191.95202305476812 222.59839568276243 46.91268505688028
175.32587904875416 237.05370585617925 55.08802872676825
205.5738123836358 239.81200815924143 34.231382763141276
169.323179554496 226.4533730901693 66.51583985526094
212.60408798421724 247.89965224944507 48.18680598468515
195.22357924670172 248.12082870190264 40.583431553030316
196.0866607175409 243.06104135517324 32.37600268131029
203.12582619428107 248.28240650305867 60.75454288390868
173.56385083059087 226.61910209690615 45.56165850882648
211.96851768517166 238.19764457723016 61.6568523368178
172.1075099515626 228.6808443405666 49.972877848051134
175.74704158862684 231.21207599031533 42.247984938019385
183.36107283683137 221.8127751855944 43.77320946963386
206.07483347003824 248.63181347534513 57.62324320662106
203.98439699537653 241.98545677947422 66.42183726480266
214.58447222921637 245.44154842435267 40.85244354746417
215.1963339126804 238.15380142340948 40.37764279447317
213.40551846340622 235.25520253740865 55.800649456406475
198.31215592333 248.32990336765153 38.62275451717158
208.6182530067958 230.22173013067942 47.51579899576011
202.1369029094869 230.01672963185658 63.58431004536981
190.20986612065735 245.60697729127224 37.92521246146234
180.60821918311973 218.60452804822435 49.92244879981776
191.620521254965 223.68126151354338 43.14092134642083
174.94442638972538 236.4442485648697 61.9869749132158
204.73592485035053 228.4997672692413 45.228833947093975
201.1080131731524 227.3955811094653 41.329011675244764
188.59287577305508 242.4662468181074 34.22590311254926
198.57585667169573 224.91394437520077 47.993651601845215
174.44239025074563 218.47432982931625 63.65954194762272
173.83088241820352 231.71827915498574 71.243572384292
171.78560557205705 232.48016088584447 63.33432111884814
218.05390614805103 240.14782645699051 47.013849118853074
185.00200937929753 237.43498246443068 68.53977266532912
211.40238142482352 232.12854378998057 48.94598495361565
208.56507222629548 230.37331798770356 55.38335027691469
199.87828907567493 225.50693404865706 47.344290357645846
194.04898247845574 239.82823897444456 30.514992516457546
205.96859595085132 248.75544730401566 41.56452229974038
214.90888814239437 234.89963945273536 49.81240214235526
194.02903451076162 242.75644460753585 65.47631242419646
210.49270863712474 245.76795647749574 60.71353473807932
203.868560878433 230.53097126380013 39.19981025814189
199.56063169387537 248.37362276815284 60.53339256909927
198.90624274570033 244.2810960676285 65.40325837177609
187.16762456978918 246.08296920329943 53.20329778650847
208.44518167811603 246.55220674221326 61.08907700593251
187.29132204050794 228.36570412981186 33.56922071129125
209.34047850937304 242.9772769149635 63.88077939824004
171.2376801441069 224.80963419545094 52.78033857542227
191.1886247625727 220.7457348095668 56.30696933767678
183.5454060848922 242.8671175327768 40.33358034270626
176.44275695453538 238.13777969904726 53.72978095637603
190.00511403216655 230.3792525303247 70.30257310013326
190.24200623658874 231.3840989166414 31.009621042751824
199.52898594202637 249.0370076285375 58.0080940276041
209.3780195629423 230.8900603844258 45.92739858414913
181.2921011190944 222.0461847164237 43.48587920934479
186.62495681139373 238.83764282538883 67.21411099892688
207.18352930741025 229.14819518646706 54.139021248599256
216.85884924673405 239.55983260763276 55.63221144382723
177.37772110337528 239.15421482595545 52.376479566020464
178.8358554581897 239.24106806556335 42.77098765114085
194.25189650662583 245.93692113865416 36.43186624058619
211.6783106700787 242.87470797438635 37.22585576476142
210.8074716705624 241.49296564634028 62.97449954114219
192.4341623848291 235.835703045108 68.67273683924233
177.4369760722449 237.64708560596816 42.68042188190878
199.23294839513343 250.04243031345095 51.65478150353199
187.58509802308097 223.28767887222054 71.31673753634105
172.08976322167462 223.3726446034242 70.13672909190558
215.5287007383703 246.2384839881873 44.64116747012113
209.57180655670626 231.96949174013733 56.166590105284826
176.7262323974077 235.69190649090402 42.777309057677876
189.6027261657239 221.8760926191489 65.9215535436937
216.57968205620278 238.03248077585386 42.70564231546204
208.63634231598098 229.9255683430652 50.58833587494688
206.3693272535308 229.5535647228488 44.55542921843907
187.99376417734695 231.68093643478483 70.85108870474488
200.83162430339564 227.8038942794498 39.04043562034606
199.23789182396686 242.80968971021068 66.35873672416211
217.50967561003685 237.65458729087086 47.40383764523432
207.9161875721962 243.3192451023185 64.44207432337292
209.15685275045962 248.68354681575897 44.36165443531674
177.34064487556537 239.22127818838308 55.29035156609365
196.52346133241846 249.22503991079174 54.29213913518028
212.29160800794787 233.10434566388076 47.022490444735716
184.40823058123627 217.29949574925263 57.13341523539406
217.46661866944245 242.66385959098818 44.42225652384352
212.9842400515124 233.6937801141739 50.69416600275606
194.8525648640094 228.8876075207043 33.38404910136129
192.73039317357123 226.31170411262835 66.71445444608888
191.08540047188723 222.637418145854 64.8301066965022
198.8902172224579 226.7024873690323 40.200461009184124
197.4312842108985 247.16488086899247 37.15251581138931
192.65606098262631 243.80691978440709 63.81587005948701
215.79830485581803 239.47311034840837 57.53762259682174
197.73104230833135 225.61506515359642 43.32694957646308
179.66188923885358 219.7945204310537 47.96860943828432
187.68302955372434 241.2274951421235 64.4011545452435
207.3517086958901 237.54605862802399 35.28197039813521
195.45799154292865 223.59440905800167 49.248031947073954
217.6767346620361 239.4851823432803 44.77695229203181
201.22770649879737 250.16936586708277 54.83838992207855
197.42219180871083 234.03828519611216 31.1083037829095
190.51856664625853 246.2035332657904 56.906455233950616
188.82217999607903 236.51229452093537 31.026294814487898
198.72315825751807 231.91465674324292 33.02333111990415
192.01315741832457 247.30382713053402 55.69566369525521
183.29084829943272 233.23176301034974 71.60131659391794
176.12695501551266 220.73389373370108 48.65829876919629
193.44958342551703 248.32595559630983 52.356041760396835
196.7164154665695 249.46105628671904 43.61093587559675
207.50897570841292 248.52868530857276 55.88194110078042
184.74224290434222 244.61530127737151 44.67155175130965
210.01615789951637 246.78506932682063 58.65113324229342
212.64850547174552 233.84579572899077 53.510451803917135
203.88705474236838 250.53563449987067 47.207132304235834
196.99619423781843 240.38658096079746 31.227366035524017
187.05910300425214 220.31032355374728 47.96616486523293
191.92803819260178 229.21963281926318 32.25073750886772
200.12491678827146 247.80840639272245 37.670615565262494
211.4044045332108 233.28086912098453 43.34826872856956
196.75547385113137 223.84985195626518 50.98865958488497
216.75842611540128 240.64487734697911 41.94243561949286
218.07407251906275 240.9056363532763 51.926061374965876
197.03020949648246 249.65264743720175 52.55173529016201
206.52083973560153 243.61914485758717 64.71769037611473
181.30183593523864 243.02359535987753 53.08358189253457
207.72140678032332 236.34682047584417 63.72005954527206
185.101139174484 244.1376048127566 57.19129805890621
191.87309955711405 221.73681912656374 50.400889140961446
209.8236284387874 237.85248881345746 36.589688587723344
192.67291420535528 244.73017322824563 62.15888688240362
209.9304585425996 231.3899880661683 54.35716012596362
179.82171507764411 241.76083237643246 51.603269151796276
204.1565659558723 231.9706752096653 63.83858888151955
188.20357625254172 226.97903868408483 34.58200064363305
172.90019925082007 229.10710803582418 47.197195160920835
186.11554178242073 217.8641321539511 57.88830319164457
195.47050370581616 224.06956766396962 46.89147897796878
207.94243026434188 246.37510664692283 37.892262158940916
194.48359230927593 245.4927520442691 62.83291654203978
182.74640966328948 242.8066236555473 58.26646711066014
182.842137456623 243.6201596949258 55.309908107971665
207.44476161997767 232.27921689050112 40.27734368585633
184.427755668296 245.03946897515675 51.02661924692424
199.91196024674318 250.20458728193276 48.07787006440691
186.5727792484611 223.06807643787886 42.12452199479516
205.41395056574825 242.91501793110302 34.51176071475842
197.1844824330357 249.23209102551363 56.87448642824566
200.28849918016982 249.4182549459841 41.8868718495668
202.96193276218517 250.15422794413254 54.51516468811454
179.06616502176792 240.74462765571832 48.94213630369316
207.621752933578 249.0931870718313 51.32941316262457
176.16976013281263 234.77022335127722 69.34622575509786
184.6968408703015 244.50367821408173 55.24923892121197
201.19734609764174 248.45032539227824 39.38865836708628
203.71305833916088 227.32072152661345 48.183847699450915
190.83901883431773 243.21898011355867 34.124952389489444
203.94563429492212 245.23849955850073 36.000097452548864
190.79763446225886 221.2985757790743 63.13489563545593
209.03454605356558 230.01851914159556 53.478795721964595
216.38742357763647 236.20830295888334 51.519590512070515
184.67685304249628 240.0059679209487 34.906686757712684
193.12718922014307 223.57092503670142 45.61213817693855
201.63004910497722 226.86045062757697 43.829644214564674
197.09447579501807 228.85036491832125 65.45908526673797
187.38382048979358 218.87625769220907 65.0431747567016
194.28393873621204 244.17864731526933 64.37489037848191
201.81259137949039 229.8669697061246 37.89271695330203
196.99005866635946 228.3290466253553 35.59935457309748
211.13551522173384 240.2925155346369 36.75128832566624
210.85141341448315 248.1305380193947 43.16606542798884
181.79269415991513 228.79963911700634 36.50553847574336
197.79950998158546 233.17436244609686 68.11594122804952
178.37060939443847 240.39061521299934 53.75337827029446
196.31061373042567 227.12469191054615 36.95631609606204
194.41642901826506 248.76207407793373 47.280447476923186
214.3672897258086 242.34698071589926 59.11493221442961
185.6162065690416 227.050870204651 72.89018689788038
200.75220096090936 225.73114077734877 51.1530820708559
192.17070051043706 230.10295436730868 68.99393082449983
215.36521349609487 237.2238531263963 56.35019700513946
190.31261448358012 221.20342956926834 49.76213481782752
192.26690706472442 240.86137480766266 66.23391855925077
213.42745200246642 236.22410400745335 57.97461065742986
213.46992917731941 241.3546701692135 60.520699859516604
205.37739833799395 233.98285125055256 36.67017416028012
188.4437434415633 242.78044609529675 62.73129745395659
212.18436063907197 233.42382174845375 44.945292158431585
207.4329471357531 247.83446180111758 58.70993784355635
174.00901322743286 235.82046691898444 59.47501455530278
194.3952399446566 244.54665738811016 34.21581156239791
188.51904967811345 246.2088067107801 55.20248646904818
205.39055711052893 246.7164413814089 37.72752001310426
198.20654101911668 249.7582979633737 46.012201818215196
210.80473738228835 243.25652738330157 62.60504809829772
184.3865713152772 244.9464938294402 46.88507867130459
174.66319851466977 235.77926510917206 50.77672490174498
185.2313681208364 218.99619937957462 71.5235461836396
209.36691644960575 240.7458752087006 64.15767955862786
172.68309964277117 233.84990444455613 58.16622248112128
214.29763980181983 246.83137365356464 50.149810097779714
195.57693225188902 247.54915438862773 38.09834976408584
189.9642306301114 247.23866425300304 46.54724109700649
189.62543238593202 227.84672576590967 69.92127117585706
194.06309555859983 225.06632964906257 40.525967786860335
212.23297266727917 240.3042787421855 61.919227349079776
186.26050323008508 245.20146396522034 43.06984761463036
202.96516145710711 228.32347608969883 42.334283424369836
196.01716305624464 238.8533771586368 67.70335148963318
197.96847845351928 249.77149458206483 48.01217729849494
197.6474633623486 247.44010403495528 61.79468322321307
203.76174249279518 232.80065202608478 65.15359664105436
191.58103768570027 246.05019763362552 58.51216213151151
217.1040150997772 244.4452618207582 49.742908402859285
210.31657562913983 248.57753385406565 46.11779473152906
211.1475882830156 236.41068103911817 61.00843407279795
188.2277325380889 222.3096094547555 43.923368089455664
203.03666857378835 234.90228096354417 34.26945126127778
210.30615167814895 246.18948813901977 38.60878262658516
207.84631464961518 229.59326328227993 52.166983483115736
204.0096408432571 249.90430827397583 44.24449029006824
197.27366512680354 226.46624159775448 39.464923401743505
193.2634750306886 222.99985200429256 48.37940758660948
177.1224456052344 237.8043634103072 62.804864634660646
192.9377412548496 246.78922005975144 57.57460377432331
179.94372103339333 230.95729592506467 74.22973333930199
197.79205428864194 245.39226172554925 64.51850375733774
177.9811781329011 224.8975431019697 41.802875110457514
204.4367345918355 234.3547001719341 35.33270488742027
178.087083563675 229.99634482572148 74.1102562089456
185.03297278472198 240.25872393879635 64.89384751471907
212.0143574336743 234.6799704893674 57.35504373449051
213.10948686083148 247.88770713231582 45.258424945055665
192.73044757175194 248.02100362490452 43.31644193731244
192.72389653933513 248.22721762196386 45.27623895117033
178.82424251597794 238.14579717187078 64.91045083141228
203.6486947006451 230.8250860713394 63.06108729792863
209.44575268543306 244.3658673764329 36.81087986063933
182.41117794367096 224.99902073646854 74.40264192042397
190.1532619395765 245.26548079030442 59.288345359936145
183.57528160028866 231.77895253861797 34.15287937931422
176.1704419479134 219.09610815348876 70.40085017907782
203.70752462377234 241.59374549891376 33.75519711458282
200.5236562155685 243.9411710406286 33.552654990525355
177.32227879661048 229.58756028640357 40.46603125429823
186.10509313274332 245.87332810028536 48.859699144609834
212.22407533502968 242.4156611086342 61.830771125424725
178.0627083564263 240.00846288507287 51.18805649358475
202.38790103234908 241.80572206442437 33.18120159143875
182.86029262124967 243.13332911252692 42.68171598143226
200.70205042088884 227.3413377303624 60.70040986661775
216.07328184026937 246.02098779559358 50.04895493359502
213.7027624846151 247.0350535431079 42.776458313392986
188.05722863377127 219.90155550021677 50.52408576042119
197.37553064875706 234.63063393958805 68.31213896088504
169.16109720664082 225.80816032289667 61.488455511607945
187.8763000388933 220.17500787747417 67.44790962056018
191.45138128140331 224.4887087954919 40.338726606730305
202.52824521122884 242.56115371743203 66.50337663021712
214.94793472359058 235.69757419156926 53.878479749311516
182.6523946242574 237.36724216795707 68.7811658885592
214.35447018364172 246.4820200661059 54.17672701682714
203.80128776337077 250.42898962903254 48.91851115544834
201.7603214544164 225.98335710309843 53.43792576159913
213.62319377656965 239.1965262048018 60.59524183354848
190.1196261663589 241.15178304642606 32.27312474833826
209.34744900126833 233.48320994171854 59.48656653371599
200.8242765375969 250.00380510447934 44.094656104368056
173.85253791739143 218.6126697160165 61.57612187301515
186.407298738673 242.5223025411351 35.857976187090365
188.88134483465586 220.06023601048827 64.13263109986157
196.58477046654343 225.70603116818702 41.27036951550622
177.1774207629765 237.80822059501511 44.65582851186076
177.00265007458526 220.19451867005492 72.45698153226056
210.77905374149012 233.33214913535804 56.79964738059991
180.57167698237413 237.30364707127853 37.839605115715344
171.21208638327096 221.52358595178592 60.15370470933535
208.23838686253183 230.66154638208027 44.13135028242059
190.44809015990987 220.55285334009795 61.14961676128627
211.46377869652352 232.26825077537956 51.679525433137385
206.75984745218864 244.96403357038963 36.06281747057142
185.33972294476638 243.72898523838043 38.66517763417257
189.85807798721936 233.32008374060686 69.96290434257509
211.9627061473551 245.14479851877377 59.36406039996766
192.106700124943 221.36362910682473 60.68141643037011
205.6350225888122 228.20148876993096 50.75639573564894
174.38915714920597 221.04959268651416 70.83470170280158
190.66733771226077 244.1502550076116 61.9054311578204
205.44150736481402 230.66297328259785 60.73640063815829
200.97259109503034 243.09427994899718 66.2444430239696
196.60868481088954 248.35702234617696 39.66742303689327
202.46826786217667 228.50468247169707 60.5917742993717
182.15461628452093 241.08837565076047 39.249851875036505
213.0208394462647 243.34662131040852 60.15912872099812
175.11132492363208 236.95505050797638 58.07485745007372
196.4189692658482 231.2851442279576 67.71902749689525
197.89944944222947 225.07179853916725 44.80238778486812
179.04960298443976 237.2693726848021 39.239345529138824
189.4033647737695 221.64362824477163 47.28595279756317
209.43489270727545 247.6011416703942 40.65316530793388
189.75137867968266 220.56613701122163 51.65403723488377
217.0394816162882 237.4401041995667 53.98984701380149
182.90320648919584 241.51249377399816 61.05973241731337
207.64428717771173 249.00034182059142 53.57252056255726
198.98289173000035 235.96604532468453 68.14743233763329
205.43361570952436 250.40561064048674 45.48224776205079
178.73727635369207 234.99218963106185 71.00648764710506
202.6041995773875 239.79721613359635 33.113589996992886
192.88786314030045 247.49985162729183 41.33527299944376
209.72405427735347 244.96052027727825 62.536909627822354
183.68263217334905 225.83455084665633 37.89064772710214
199.9663073081754 250.13779427657818 46.252593514753954
187.0796513899056 218.4109986409517 60.63403048531132
190.88927564307903 247.67603498745922 52.365849256366346
208.54346926629307 240.22161124953956 35.1737822227902
204.8525068972299 227.3716984352433 52.04985952208726
217.79298572872807 238.48577906807037 51.748420359494965
200.13835674622203 232.42286303588097 67.01012573200326
211.66446002631452 235.58263864771698 59.167668145012115
186.20267196175521 245.700574272536 50.747501487052254
184.0077782076684 216.85585733067484 58.850976738783
216.32096679838145 236.6941881599563 44.81833711093305
181.0926920526047 242.30588484529275 44.658033865489
186.4950902563034 244.59391409116986 40.20636158334304
190.79082925252484 222.0261948090038 48.20578427276558
184.28161558641165 227.58214614578392 35.848289331590536
207.7533682539563 248.81497010070913 42.73760110058437
187.89576079702505 244.9369560672059 38.90905010669522
182.81504197086915 243.98053370033185 51.169607113421065
195.6092429357189 225.8112592396244 64.01745622057068
194.161512662377 226.7945354897556 66.05960177936979
195.9033564889664 231.3609848471611 31.836568110513962
195.68409871733826 248.79467981710096 56.071347828678746
218.0395438481761 239.91454817737565 49.39048171631573
199.23437870476235 225.39376920169184 57.154879752278994
195.82000319084062 227.39977848181067 65.24791239151432
192.2965007763237 242.52259470601336 65.10670355784337
181.72167572633725 231.64585809311697 73.31461376575265
200.8780568444696 233.42795747733703 33.65688881715047
199.22539461871213 233.77501604699393 32.54292129713118
187.00911331768316 233.93842484648937 70.59266114278074
203.2604571204203 249.10575982056275 57.97979055523356
206.5787535189209 249.60335254401744 44.14505521675641
206.85140775092276 238.82441665314818 65.5502670141255
200.47646955334972 241.99669230325335 32.76492980227242
173.00489755816284 234.12512601558035 59.96997924140082
190.34536000517082 222.50403802662544 45.638513514994166
193.47548188516194 222.07227322711714 55.7977937430429
199.2684131922363 227.77073946319342 62.47165152258332
203.82749445939245 226.66490842845974 53.67567139635159
206.0997250635264 228.96961866284107 46.48963619446245
206.35494393918697 228.5097578010646 52.2567914196013
212.60146212379982 234.5214622940666 42.56778752753516
182.56002762686063 243.9079856322013 46.93008886729403
206.74846079574576 249.6718478197227 46.82355887705563
195.67206578526086 249.10538380148017 52.00907327643758
185.24176606323255 220.24666673631899 47.140074913832386
180.98174307040762 241.15577510427843 42.00367394402953
194.03710370989504 246.9016539774879 59.031318934651445
187.08375281032036 243.94231279927317 37.35932207814259
194.69044771134014 232.95645584055347 68.66165446101935
195.087392600132 240.63754372992034 67.0384943628717
180.58995840811025 240.66418593279596 60.13945807942033
210.17260371825884 231.14969344237846 52.621541182227055
196.3679449780978 249.43375230768504 45.66459904575516
201.83191058220297 249.46849790483287 56.639836865526114
191.24684194545935 234.5799691600951 69.28365476741486
186.1066218858133 235.31546841726325 32.26777770861862
184.32933587539142 245.0721592658199 48.9739627623017
216.67771058582872 235.97681928792034 49.14997643551816
206.80134183849984 247.88312419846062 39.86662989560147
215.85737187199365 245.58322545705295 51.86691194354821
198.95755429957845 237.86232157924482 67.92502524972873
202.19916505595472 233.3164400004471 34.932873800545025
196.435978549403 223.42563810634607 55.17967887724918
193.06644993000194 242.44366946456282 32.2758813916961
198.27775677779618 242.33766959780553 31.934599021232405
203.4357492526583 227.99859795894693 44.13316412586544
197.4035010698701 237.25166364439235 30.89398240491753
217.68523107632308 237.4719603255479 49.86306458200696
182.3734962797554 236.58095114415693 35.21358407986403
206.2814985571987 234.90137742942792 63.905077504545574
209.9715404307553 242.18570576806923 35.82973323035774
203.13796973576498 227.18698330672308 45.959539083233814
202.0145997644512 227.25879646372013 59.00115624731548
174.58072961208168 222.36169912260286 48.080026502787575
191.16593545849273 238.59089461098853 30.464103728407313
204.10439997655465 248.88398110589446 40.562057930625016
187.80416821994112 245.97272566495272 44.452496707268466
208.2201937271458 245.79718460937428 62.74903002073315
201.93130849225125 248.77529580020283 59.372810667436696
210.19609585273687 247.77372934009645 56.22700522640049
213.99737716106006 244.20470478073943 58.32032240539803
193.481492486815 222.4777462102079 60.24742080718026
172.54388274557624 219.82809569766607 62.211653961808096
170.45836831540635 229.28862333308936 55.37118220082432
188.53505498106293 234.98884947775844 69.8517789942978
215.01759550301816 240.46581018523526 59.21538877071812
214.32043424561925 246.69518576066707 52.097234691122935
192.81156098769824 234.17267832863098 29.675181736663312
205.22566981792033 240.7026455007169 66.32266893719566
207.8194170096509 238.09048285256492 64.56771639667706
199.2437649489816 224.8382926078812 49.39625305844783
217.5379996329892 243.3873432834625 52.1510541183682
194.8694425500116 248.88313380902628 53.47935963886349
210.00816646575697 234.9038542930933 60.20091533488506
195.05675087034064 241.60796365624927 31.282175066999166
211.08859293949143 232.69333347462504 55.03622596893635
186.24344314087318 225.7208156990382 37.281309741952064
173.25737397647342 234.9193424785893 54.41348318644417
195.9949529514593 249.6372418750657 47.621669590237516
194.815059981431 234.48954528846164 29.717790025226453
213.59780974826288 233.9604227689546 46.43328039954515
199.33217287317225 229.9076112190662 35.17997009493244
171.31797795593357 222.3140512961078 54.372518907409464
197.9887782341269 224.449874942709 50.14571360530147
194.47377717213053 227.1379316595602 36.10530447626079
194.98475776386132 237.19901154364155 29.81362158215459
197.3238240889174 248.45318747284668 59.358249097208876
179.59274237743267 239.3143506976757 62.321098300881545
207.59973894249728 234.88797166043554 62.64015616158683
204.56185050972067 249.18173816800632 56.508452001247605
211.6047864864186 236.86136943438686 38.60231921437415
193.67020178828108 224.16543641693045 63.2319040506401
213.96746018936494 242.32025602635528 38.41087894246527
212.6878797646418 247.76321462751406 52.17369372289634
215.26750014953475 246.0635394384673 42.63840120192747
214.93066747410603 244.93439367530476 56.360342604628826
191.88352678829307 245.09428174167917 35.77331792996549
210.48308942891012 239.25011060143947 62.976255062869086
192.21388237128255 222.22981102842314 62.40733522632111
187.14806282540246 240.03610618659005 65.6773683119943
216.02289637945225 242.24412213052966 57.10815756207745
207.92580541642283 242.75583201360772 35.28077212100607
179.56084397421245 240.44664166384277 58.68358141069612
196.29439181889188 225.17015375167495 43.11342672180854
209.23415327348144 237.60465877668221 63.42511465844877
181.57881616565643 242.6124180233551 56.74717157503527
208.82671341379296 247.8480557784248 57.407085026147385
200.8353302147916 225.79432320745994 49.052305564885636
185.778599609236 218.32650196163624 51.31410965310211
176.66697631930282 217.52447242737068 55.954907025130595
178.8629540396904 235.001955984127 39.17919031279099
177.29909824412547 221.0057448506394 46.83508759247992
182.15949038977976 240.02917952657901 63.67738463923766
214.40552327955982 234.8166390538857 51.892613371897085
197.33816592516135 224.74565268583578 58.63746479911604
214.69262969009276 247.03717859419453 46.874077487800434
171.15090822946337 231.3765811433914 57.48192487666818
215.7888677355887 242.99916789527293 40.52900613775633
204.71085662246216 246.44032570731153 63.42801211544906
199.29721216317031 248.9526395462605 40.29827379174095
213.32719893440864 236.18334775271362 40.477368412911055
217.79154134396052 239.57430210230376 53.616329579515686
205.33250797457862 229.57835838867737 59.16777625287672
213.52670919708822 237.47200857244803 39.198495153919296
210.53317726206342 235.1709984185749 38.9730345091926
210.93414048359048 232.10601065917234 46.41282956617964
217.48656710772198 241.72973884460606 54.292955056234234
201.80435903075485 246.75038290817395 36.81877877032229
204.38108680110383 230.358070526222 61.85394334364623
179.08632989564848 223.41785232072678 42.22865169578127
183.70882481138 218.40433247647874 50.69213389579765
183.00684315608177 239.68878567171436 65.58690595342753
201.35398278937117 246.40030460299292 63.54367336636316
184.6160304218508 244.86491756777528 53.16253762947304
186.39673142759932 244.16356776363494 58.76688779165114
173.9303801553188 235.9703081107196 56.35058348596885
210.03210915532233 231.0909627445053 47.55923120934901
202.04072055499014 235.5314419603873 67.27183704749345
194.8381530802845 224.3341225651144 45.1068951469785
205.36023425818695 228.33912916807736 57.363951988363674
212.6552500665434 246.3838443046272 56.96183682528183
195.1844444474662 224.6085784219271 62.639294151189006
207.6509787426461 229.95693905181196 46.02853104189349
204.67716347781885 248.57587948124953 59.29986088973147
184.36913555982258 217.0238869987621 68.02036856184874
211.96604608325805 233.97656547321336 55.69329320127016
200.6439278491159 229.9814097584267 36.50909347296865
201.41203991618966 235.22553202461168 33.28821742594214
190.65913593109352 247.28054174012888 43.40527428530047
216.2548655976266 244.2036533556525 54.41323333455873
200.8757193097217 250.15978558104865 52.75100044518747
197.4829783693201 242.25396383837656 66.40183879779283
205.5650687763964 230.99021053897442 40.24007249613505
204.8664945206188 245.17297763910662 64.595322346249
189.98836421436383 236.05982671111946 69.24787523584152
205.33858706864223 232.31766450714747 38.452096431054315
204.42278242286676 229.63055775588262 41.206780857012916
213.28891465253835 239.35711033165003 38.25388055816443
175.114891072511 234.20580333645992 44.86248117484735
173.9932004621296 233.07107319293783 46.315125634986146
205.47367924189155 239.10479445795258 66.19232045784265
190.6155800783871 220.472621187008 53.893848666593534
211.21508609648754 232.10808298832856 53.47999590065232
180.7381649571142 234.26586756826376 36.70221454178404
214.16673629876726 234.99122248248543 44.74868167926474
176.1529894350074 236.063127732985 44.647061353654024
207.703638009456 249.1693231610102 45.4247267626212
197.39683583834116 249.23447029365184 41.422870398667534
204.95494440155687 247.76531853059052 39.14697607708435
195.94893241052867 246.80069421728038 62.308976508600594
POLYGONS 2104 8416
3 840 270 1012
3 393 243 396
3 396 243 516
3 243 270 840
3 393 270 243
3 243 486 516
3 243 840 486
3 486 840 1006
3 843 305 521
3 393 376 270
3 69 685 763
3 516 818 396
3 540 933 132
3 132 328 540
3 685 376 763
3 972 393 396
3 540 79 763
3 563 952 127
3 127 952 151
3 952 1044 151
3 116 676 127
3 446 1021 328
3 953 132 678
3 155 1023 1006
3 1044 45 132
3 1044 72 45
3 328 79 540
3 45 446 328
3 521 1012 788
3 69 788 685
3 376 540 763
3 132 933 678
3 393 933 376
3 685 270 376
3 1012 270 788
3 788 270 685
3 540 376 933
3 328 132 45
3 972 933 393
3 750 597 116
3 116 631 676
3 676 631 289
3 116 597 631
3 631 597 289
3 972 333 678
3 396 333 972
3 988 981 146
3 127 151 116
3 151 426 116
3 826 783 264
3 368 264 818
3 54 333 767
3 957 870 767
3 426 953 146
3 368 826 264
3 870 957 264
3 957 818 264
3 933 972 678
3 783 870 264
3 957 767 333
3 398 216 289
3 289 216 676
3 398 1037 216
3 216 1037 676
3 54 988 333
3 826 368 621
3 678 333 988
3 151 895 426
3 988 54 981
3 953 895 132
3 818 957 396
3 146 750 426
3 426 750 116
3 750 146 981
3 757 614 981
3 953 678 988
3 558 54 767
3 767 870 224
3 426 895 953
3 566 783 1029
3 71 798 845
3 845 798 736
3 957 333 396
3 146 953 988
3 501 368 516
3 368 818 516
3 736 798 757
3 132 895 1044
3 1044 895 151
3 746 71 861
3 471 816 224
3 614 798 746
3 746 798 71
3 1029 826 959
3 566 811 732
3 621 959 826
3 757 981 558
3 981 54 558
3 614 757 798
3 614 746 597
3 1027 547 740
3 1027 142 547
3 547 142 398
3 984 944 728
3 984 979 944
3 224 558 767
3 826 1029 783
3 959 1046 665
3 835 944 1024
3 944 979 1024
3 224 870 735
3 931 885 868
3 979 813 1024
3 979 1033 813
3 1010 1033 984
3 984 1033 979
3 224 735 471
3 735 732 471
3 868 674 1005
3 558 816 757
3 757 816 736
3 665 1029 959
3 997 811 665
3 224 816 558
3 931 712 921
3 711 771 195
3 1005 853 868
3 732 645 471
3 471 949 816
3 816 949 736
3 949 728 736
3 853 811 712
3 1046 915 831
3 588 997 638
3 566 735 783
3 1005 609 853
3 853 609 732
3 853 732 811
3 783 735 870
3 683 915 1046
3 736 728 845
3 845 728 944
3 984 609 1010
3 984 645 609
3 1024 664 835
3 1024 943 664
3 71 845 835
3 835 845 944
3 746 861 597
3 597 861 289
3 664 740 595
3 1010 955 1033
3 1010 674 955
3 835 590 71
3 71 590 861
3 590 595 861
3 588 921 712
3 861 941 289
3 289 941 398
3 861 595 941
3 941 595 398
3 981 614 750
3 750 614 597
3 711 915 683
3 1010 1005 674
3 1010 609 1005
3 609 645 732
3 645 949 471
3 728 949 984
3 984 949 645
3 1033 923 813
3 921 588 457
3 831 665 1046
3 210 583 635
3 142 1002 398
3 398 1002 1037
3 142 441 1002
3 1002 441 1037
3 931 868 712
3 868 853 712
3 651 630 873
3 811 997 712
3 997 588 712
3 665 811 566
3 683 959 621
3 665 566 1029
3 566 732 735
3 1033 955 923
3 923 955 765
3 1024 62 943
3 1024 813 62
3 62 813 977
3 398 595 547
3 547 595 740
3 595 590 664
3 664 590 835
3 931 630 885
3 135 407 936
3 541 441 142
3 49 518 1023
3 942 556 1027
3 1027 556 142
3 942 541 556
3 556 541 142
3 788 69 569
3 569 69 154
3 49 501 518
3 49 584 501
3 762 970 525
3 762 592 970
3 592 541 942
3 486 1006 518
3 486 518 501
3 516 486 501
3 1006 1023 518
3 217 841 152
3 841 118 111
3 501 584 621
3 1023 499 49
3 499 343 490
3 625 493 405
3 405 493 583
3 901 490 343
3 901 867 490
3 676 488 127
3 676 1037 488
3 488 1037 152
3 1037 470 152
3 152 470 217
3 1037 441 470
3 470 441 217
3 127 488 563
3 563 488 152
3 507 1004 565
3 407 343 1023
3 649 551 866
3 104 837 867
3 104 503 837
3 840 1012 305
3 1012 521 305
3 563 72 952
3 952 72 1044
3 210 588 638
3 210 964 457
3 210 638 583
3 583 638 831
3 885 674 868
3 565 624 507
3 651 873 624
3 624 873 507
3 143 72 111
3 72 563 111
3 974 515 681
3 457 873 630
3 651 581 630
3 466 885 581
3 581 885 630
3 588 210 457
3 931 921 630
3 921 457 630
3 788 569 521
3 521 569 346
3 513 500 353
3 58 465 1021
3 473 389 465
3 465 389 1021
3 929 292 574
3 887 716 500
3 500 716 353
3 887 468 716
3 716 468 353
3 135 886 371
3 371 886 66
3 111 347 143
3 143 347 58
3 111 118 347
3 305 1006 840
3 58 347 924
3 837 903 867
3 903 490 867
3 143 58 446
3 446 58 1021
3 998 442 530
3 530 442 180
3 998 886 442
3 442 886 180
3 501 621 368
3 517 353 468
3 468 900 517
3 389 438 79
3 438 154 69
3 154 517 569
3 569 517 346
3 473 856 806
3 58 924 856
3 936 180 135
3 180 886 135
3 1048 739 904
3 635 1009 739
3 715 929 935
3 154 467 517
3 517 467 353
3 513 353 467
3 465 58 856
3 856 473 465
3 837 482 903
3 482 522 625
3 79 1021 389
3 79 328 1021
3 154 438 467
3 446 45 143
3 143 45 72
3 49 499 608
3 1046 959 683
3 126 1035 593
3 584 683 621
3 584 711 683
3 722 766 784
3 784 766 553
3 79 438 763
3 763 438 69
3 730 359 954
3 730 413 359
3 711 608 771
3 771 608 903
3 651 673 637
3 405 195 625
3 195 771 625
3 466 637 533
3 492 402 904
3 1020 1009 583
3 583 1009 635
3 873 1048 507
3 915 405 831
3 831 405 583
3 509 593 217
3 195 915 711
3 997 665 638
3 638 665 831
3 608 584 49
3 608 711 584
3 1004 904 402
3 402 974 1004
3 405 915 195
3 155 1006 305
3 487 815 730
3 815 413 730
3 66 413 371
3 371 413 815
3 887 362 468
3 759 363 1040
3 605 1009 1020
3 413 431 359
3 359 431 672
3 936 155 843
3 936 407 155
3 135 371 544
3 544 371 815
3 544 815 901
3 815 487 901
3 935 707 534
3 707 503 104
3 126 356 691
3 356 509 762
3 94 360 352
3 135 544 407
3 351 487 730
3 843 346 802
3 843 521 346
3 901 487 867
3 487 104 867
3 585 464 534
3 534 464 935
3 464 715 935
3 503 461 522
3 522 461 568
3 461 1026 568
3 774 714 689
3 407 544 343
3 343 544 901
3 441 1016 217
3 217 1016 509
3 441 541 1016
3 1016 541 509
3 998 373 886
3 886 373 66
3 413 66 431
3 66 373 431
3 904 507 1048
3 904 1004 507
3 585 367 372
3 341 402 492
3 707 935 348
3 954 991 730
3 534 351 991
3 991 351 730
3 104 351 707
3 707 351 534
3 383 829 626
3 383 477 829
3 499 1023 343
3 672 967 359
3 359 967 954
3 672 342 967
3 967 342 954
3 626 902 574
3 503 348 902
3 902 348 574
3 829 1026 626
3 829 605 1026
3 1026 902 626
3 104 487 351
3 929 574 935
3 574 348 935
3 575 759 715
3 715 759 929
3 739 1009 385
3 635 964 210
3 635 739 964
3 964 739 1048
3 759 575 363
3 575 628 363
3 694 1036 1039
3 829 477 385
3 385 477 492
3 363 591 1040
3 591 1036 1040
3 1026 605 568
3 568 605 1020
3 608 490 903
3 608 499 490
3 568 493 522
3 522 493 625
3 583 493 1020
3 1020 493 568
3 903 482 771
3 771 482 625
3 1023 155 407
3 382 321 427
3 774 680 876
3 774 360 680
3 680 360 94
3 689 650 774
3 672 360 650
3 650 360 774
3 350 367 689
3 367 342 689
3 898 549 876
3 876 549 774
3 898 714 549
3 549 714 774
3 458 505 366
3 737 480 365
3 365 480 649
3 689 1022 350
3 350 1022 411
3 689 714 1022
3 1022 714 411
3 1009 605 385
3 385 605 829
3 525 338 691
3 431 336 672
3 672 336 360
3 431 352 336
3 336 352 360
3 485 731 375
3 904 671 492
3 492 671 385
3 904 739 671
3 671 739 385
3 672 650 342
3 342 650 689
3 531 317 977
3 317 662 943
3 694 311 477
3 477 311 492
3 694 341 311
3 311 341 492
3 530 304 998
3 1025 366 304
3 304 366 998
3 515 341 301
3 301 341 694
3 342 577 954
3 954 577 585
3 342 367 577
3 577 367 585
3 468 362 900
3 900 362 530
3 366 505 998
3 998 505 373
3 802 346 900
3 346 517 900
3 352 899 94
3 458 599 899
3 899 599 94
3 843 155 305
3 373 926 431
3 431 926 352
3 373 505 926
3 926 505 352
3 887 500 370
3 370 500 375
3 837 503 482
3 482 503 522
3 1025 319 366
3 503 707 348
3 596 310 520
3 534 991 585
3 585 991 954
3 624 565 673
3 673 651 624
3 503 902 461
3 461 902 1026
3 432 975 460
3 460 975 1025
3 432 319 975
3 975 319 1025
3 1048 457 964
3 1048 873 457
3 1036 694 383
3 383 694 477
3 917 973 701
3 693 692 679
3 942 917 604
3 604 917 491
3 662 562 740
3 740 562 1027
3 662 973 562
3 562 973 1027
3 312 703 531
3 299 309 322
3 383 626 292
3 292 626 574
3 409 329 769
3 329 480 769
3 701 973 283
3 283 973 662
3 924 382 856
3 856 382 806
3 863 277 479
3 564 278 1001
3 722 784 804
3 804 784 620
3 592 942 604
3 604 970 592
3 692 274 854
3 854 274 914
3 692 299 274
3 274 299 914
3 709 273 1011
3 1011 273 119
3 709 378 273
3 273 378 119
3 119 271 1011
3 887 881 362
3 362 881 1025
3 887 460 881
3 881 460 1025
3 634 699 491
3 970 604 699
3 699 604 491
3 914 986 381
3 381 986 322
3 914 299 986
3 986 299 322
3 762 268 592
3 592 268 541
3 762 509 268
3 268 509 541
3 761 266 388
3 265 1034 462
3 913 263 589
3 589 263 126
3 913 1035 263
3 263 1035 126
3 283 703 285
3 491 261 634
3 491 1034 261
3 620 784 999
3 999 784 553
3 766 260 553
3 553 260 531
3 766 312 260
3 260 312 531
3 703 317 531
3 761 388 265
3 863 745 761
3 761 745 916
3 863 331 745
3 745 331 916
3 388 266 907
3 634 956 536
3 536 956 660
3 634 907 956
3 956 907 660
3 61 447 312
3 312 447 703
3 61 285 447
3 447 285 703
3 462 439 285
3 462 1034 439
3 439 1034 701
3 479 819 863
3 863 819 331
3 479 279 819
3 378 709 698
3 839 314 644
3 939 279 548
3 701 652 917
3 917 652 491
3 701 1034 652
3 652 1034 491
3 388 617 265
3 265 617 1034
3 388 261 617
3 617 261 1034
3 916 526 727
3 727 526 786
3 916 296 526
3 526 296 786
3 1035 419 118
3 419 382 924
3 970 233 525
3 408 266 727
3 277 265 462
3 782 302 607
3 388 675 261
3 261 675 634
3 388 907 675
3 675 907 634
3 217 593 841
3 900 530 802
3 802 530 180
3 973 893 1027
3 1027 893 942
3 973 917 893
3 893 917 942
3 339 743 654
3 743 332 654
3 375 912 485
3 485 912 427
3 375 294 912
3 912 294 427
3 551 329 859
3 859 329 409
3 754 288 428
3 936 802 180
3 936 843 802
3 646 848 350
3 350 848 367
3 646 372 848
3 848 372 367
3 509 778 593
3 593 778 126
3 509 356 778
3 778 356 126
3 691 1053 525
3 525 1053 762
3 691 356 1053
3 1053 356 762
3 769 925 890
3 890 925 476
3 769 502 925
3 925 502 476
3 943 990 664
3 664 990 740
3 943 662 990
3 990 662 740
3 292 1040 383
3 1040 1036 383
3 662 855 283
3 283 855 703
3 662 317 855
3 855 317 703
3 839 791 504
3 504 791 332
3 791 654 332
3 502 780 737
3 737 780 480
3 502 769 780
3 780 769 480
3 737 301 1039
3 1039 301 694
3 974 1007 1004
3 1004 1007 565
3 974 1041 1007
3 1007 1041 565
3 923 950 813
3 813 950 977
3 923 752 950
3 950 752 977
3 1036 591 1039
3 1039 591 537
3 402 1008 974
3 974 1008 515
3 402 341 1008
3 1008 341 515
3 1025 304 362
3 362 304 530
3 548 772 857
3 857 772 479
3 548 279 772
3 772 279 479
3 1051 331 700
3 479 666 857
3 857 666 61
3 479 277 666
3 331 661 916
3 916 661 296
3 331 1051 661
3 661 1051 296
3 266 962 727
3 727 962 916
3 266 761 962
3 962 761 916
3 819 279 700
3 700 331 819
3 265 696 761
3 761 696 863
3 265 277 696
3 696 277 863
3 314 648 52
3 648 276 782
3 766 1050 312
3 769 1031 409
3 409 1031 539
3 769 890 1031
3 1031 890 539
3 312 906 61
3 61 906 857
3 312 1050 906
3 906 1050 857
3 473 869 389
3 467 438 869
3 869 438 389
3 462 814 277
3 61 666 814
3 814 666 277
3 61 814 285
3 285 814 462
3 589 734 913
3 52 344 734
3 806 724 473
3 473 724 513
3 806 294 724
3 724 294 513
3 691 718 126
3 126 718 589
3 691 644 718
3 718 644 589
3 654 657 339
3 654 776 657
3 657 776 536
3 285 439 283
3 283 439 701
3 118 629 1035
3 1035 629 593
3 118 841 629
3 629 841 593
3 913 419 1035
3 427 615 485
3 344 1038 615
3 427 806 382
3 427 294 806
3 929 759 292
3 292 759 1040
3 922 878 851
3 851 878 722
3 594 871 1017
3 294 847 513
3 513 847 500
3 294 375 847
3 847 375 500
3 857 894 548
3 548 894 878
3 857 1050 894
3 894 1050 878
3 504 738 839
3 839 738 314
3 504 276 738
3 839 682 338
3 338 682 691
3 839 644 682
3 682 644 691
3 495 719 628
3 628 719 363
3 417 612 980
3 417 753 612
3 612 753 379
3 714 572 411
3 330 809 572
3 1041 543 565
3 1041 976 543
3 543 976 1001
3 548 587 939
3 939 587 922
3 548 878 587
3 587 878 922
3 476 537 719
3 476 502 537
3 1011 706 528
3 528 706 939
3 152 810 563
3 563 810 111
3 152 841 810
3 810 841 111
3 575 642 628
3 976 613 433
3 355 424 669
3 355 596 424
3 424 596 520
3 467 869 513
3 513 869 473
3 502 387 537
3 537 387 1039
3 502 737 387
3 387 737 1039
3 515 301 365
3 365 301 737
3 537 591 719
3 719 591 363
3 460 532 432
3 480 361 649
3 649 361 551
3 480 329 361
3 361 329 551
3 515 354 681
3 681 354 649
3 515 365 354
3 354 365 649
3 628 444 495
3 495 444 316
3 628 642 444
3 444 642 316
3 52 734 314
3 495 1030 719
3 719 1030 476
3 495 965 1030
3 1030 965 476
3 585 372 464
3 464 372 715
3 372 510 715
3 715 510 575
3 372 646 510
3 118 419 347
3 347 419 924
3 476 315 890
3 890 315 656
3 476 965 315
3 315 965 656
3 720 307 316
3 316 307 495
3 720 965 307
3 307 965 495
3 316 773 418
3 418 773 823
3 316 642 773
3 773 642 823
3 721 484 1041
3 1041 484 976
3 721 613 484
3 484 613 976
3 539 257 409
3 428 256 754
3 428 408 256
3 256 408 727
3 313 909 844
3 909 874 801
3 254 280 892
3 660 253 536
3 339 657 253
3 253 657 536
3 339 251 743
3 743 251 594
3 339 865 251
3 852 403 421
3 428 248 408
3 408 248 660
3 428 865 248
3 248 865 660
3 1017 244 594
3 332 743 244
3 244 743 594
3 338 791 839
3 266 237 907
3 907 237 660
3 266 408 237
3 237 408 660
3 339 253 865
3 865 253 660
3 410 627 892
3 602 834 627
3 627 834 892
3 854 234 692
3 234 679 692
3 536 776 233
3 523 231 940
3 940 231 754
3 523 288 231
3 231 288 754
3 52 21 344
3 344 21 1038
3 52 607 21
3 913 481 321
3 321 481 344
3 913 734 481
3 481 734 344
3 844 450 448
3 450 833 821
3 892 452 410
3 410 452 658
3 892 280 452
3 452 280 658
3 288 420 428
3 420 865 428
3 456 805 421
3 421 805 852
3 456 318 805
3 805 318 852
3 309 725 322
3 418 228 968
3 332 244 679
3 836 982 710
3 710 982 432
3 836 319 982
3 982 319 432
3 567 670 271
3 271 670 1011
3 567 706 670
3 670 706 1011
3 223 809 330
3 344 615 321
3 321 615 427
3 251 865 420
3 420 594 251
3 871 594 420
3 420 288 871
3 422 258 219
3 896 795 378
3 378 795 119
3 896 286 795
3 795 286 119
3 302 227 812
3 812 227 326
3 458 945 836
3 836 945 319
3 458 366 945
3 945 366 319
3 679 705 693
3 693 705 1017
3 679 244 705
3 705 244 1017
3 699 233 970
3 306 659 995
3 995 659 937
3 306 249 659
3 659 249 937
3 693 677 309
3 298 600 801
3 298 833 600
3 833 911 821
3 821 911 323
3 833 879 911
3 911 879 323
3 985 832 789
3 709 744 832
3 485 918 834
3 834 918 1038
3 485 615 918
3 918 615 1038
3 920 797 523
3 523 797 288
3 920 871 797
3 797 871 288
3 419 760 382
3 382 760 321
3 419 913 760
3 760 913 321
3 801 663 298
3 364 223 960
3 960 223 497
3 613 934 789
3 789 934 985
3 613 721 934
3 968 639 720
3 721 681 866
3 866 681 649
3 898 572 714
3 318 850 876
3 876 850 898
3 318 546 850
3 850 546 898
3 599 1045 94
3 94 1045 852
3 599 403 1045
3 1045 403 852
3 411 756 823
3 823 756 418
3 364 203 223
3 223 203 809
3 203 228 809
3 968 726 418
3 418 726 316
3 968 720 726
3 726 720 316
3 852 680 94
3 418 756 228
3 228 756 809
3 504 234 276
3 276 234 854
3 309 989 693
3 693 989 692
3 309 299 989
3 989 299 692
3 823 987 411
3 411 987 350
3 823 646 987
3 987 646 350
3 314 888 644
3 644 888 589
3 314 734 888
3 888 734 589
3 883 653 656
3 654 764 776
3 776 764 338
3 654 791 764
3 764 791 338
3 575 510 642
3 437 875 298
3 298 875 833
3 437 879 875
3 875 879 833
3 663 523 940
3 323 570 980
3 980 570 417
3 323 879 570
3 710 822 245
3 710 623 822
3 379 643 271
3 271 643 567
3 379 753 643
3 643 753 567
3 1051 554 296
3 554 860 296
3 786 1032 754
3 754 1032 940
3 475 808 623
3 642 459 823
3 823 459 646
3 642 510 459
3 459 510 646
3 809 443 572
3 572 443 411
3 809 756 443
3 443 756 411
3 551 435 866
3 866 435 985
3 551 698 435
3 435 698 985
3 421 397 272
3 272 397 337
3 421 403 397
3 397 403 337
3 324 611 313
3 381 971 914
3 280 392 658
3 326 858 392
3 1041 384 721
3 721 384 681
3 1041 974 384
3 384 974 681
3 291 702 684
3 281 430 874
3 291 905 430
3 430 905 874
3 1042 250 327
3 291 377 905
3 905 377 920
3 291 880 377
3 377 880 920
3 374 229 340
3 880 349 1017
3 1017 349 693
3 880 677 349
3 349 677 693
3 546 908 320
3 324 308 622
3 622 308 527
3 324 994 308
3 308 994 527
3 298 758 437
3 437 758 940
3 298 663 758
3 758 663 940
3 905 290 874
3 874 290 801
3 905 663 290
3 290 663 801
3 417 404 860
3 404 879 437
3 854 252 276
3 276 252 782
3 854 996 252
3 252 996 782
3 306 529 249
3 330 768 697
3 898 546 768
3 601 633 725
3 725 633 322
3 601 489 633
3 633 489 322
3 538 640 370
3 640 532 460
3 741 573 221
3 221 573 775
3 741 472 573
3 860 215 417
3 417 215 753
3 860 554 215
3 215 554 753
3 448 932 827
3 702 799 684
3 799 725 684
3 538 755 293
3 602 230 755
3 525 910 338
3 338 910 776
3 525 233 910
3 910 233 776
3 233 884 536
3 536 884 634
3 233 699 884
3 884 699 634
3 313 849 324
3 324 849 994
3 313 827 849
3 849 827 994
3 538 370 731
3 731 370 375
3 523 747 920
3 920 747 905
3 523 663 747
3 747 663 905
3 1017 695 880
3 880 695 920
3 1017 871 695
3 695 871 920
3 876 733 318
3 318 733 852
3 876 680 733
3 733 680 852
3 908 668 456
3 456 668 318
3 908 546 668
3 668 546 318
3 741 846 1019
3 1019 846 489
3 741 221 846
3 846 221 489
3 240 506 966
3 240 295 506
3 684 406 291
3 291 406 880
3 684 677 406
3 406 677 880
3 340 399 748
3 291 430 702
3 702 430 281
3 229 751 1019
3 1019 751 741
3 229 1000 751
3 985 934 866
3 866 934 721
3 655 212 938
3 938 212 817
3 212 262 817
3 209 423 560
3 250 23 327
3 250 748 23
3 23 748 275
3 994 208 527
3 369 232 208
3 240 966 207
3 789 690 770
3 690 744 922
3 310 205 520
3 485 202 731
3 731 202 602
3 485 834 202
3 202 834 602
3 1011 201 709
3 709 201 744
3 1011 528 201
3 201 528 744
3 775 573 414
3 564 433 199
3 199 433 770
3 379 198 286
3 286 198 119
3 379 271 198
3 198 271 119
3 281 196 702
3 281 824 196
3 196 824 327
3 775 191 221
3 221 191 381
3 775 971 191
3 191 971 381
3 878 632 722
3 722 632 766
3 878 1050 632
3 632 1050 766
3 896 928 286
3 667 555 928
3 928 555 286
3 844 187 313
3 313 187 827
3 844 448 187
3 187 448 827
3 262 713 821
3 684 184 677
3 677 184 309
3 684 725 184
3 184 725 309
3 804 564 199
3 199 722 804
3 245 183 303
3 927 742 555
3 770 181 789
3 789 181 613
3 770 433 181
3 181 433 613
3 851 722 199
3 199 770 851
3 520 179 603
3 179 919 655
3 994 827 1047
3 580 412 472
3 709 832 698
3 698 832 985
3 369 218 723
3 706 175 939
3 939 175 279
3 706 700 175
3 175 700 279
3 658 178 410
3 410 178 259
3 658 889 178
3 178 889 259
3 744 1052 922
3 922 1052 939
3 744 528 1052
3 1052 528 939
3 1019 961 229
3 229 961 340
3 1019 399 961
3 961 399 340
3 648 314 738
3 738 276 648
3 669 524 355
3 669 639 524
3 524 639 968
3 748 75 340
3 748 250 75
3 75 250 463
3 472 451 580
3 996 1015 782
3 782 1015 302
3 996 227 1015
3 1015 227 302
3 445 44 790
3 790 44 267
3 445 391 44
3 409 257 859
3 859 257 896
3 422 10 1013
3 1013 10 606
3 422 219 10
3 782 983 648
3 648 983 52
3 782 607 983
3 983 607 52
3 775 787 971
3 539 653 930
3 923 803 752
3 752 803 474
3 923 765 803
3 803 765 474
3 859 794 551
3 551 794 698
3 794 378 698
3 980 708 323
3 927 817 708
3 432 641 710
3 710 641 623
3 432 532 641
3 641 532 623
3 710 830 836
3 836 830 303
3 710 245 830
3 830 245 303
3 379 742 612
3 612 742 980
3 725 610 601
3 601 610 275
3 725 799 610
3 610 799 275
3 679 1018 332
3 332 1018 504
3 679 234 1018
3 1018 234 504
3 601 550 489
3 489 550 1019
3 601 399 550
3 550 399 1019
3 744 690 832
3 832 690 789
3 512 792 218
3 218 792 310
3 512 205 792
3 792 205 310
3 429 374 340
3 753 842 567
3 567 842 1051
3 753 554 842
3 842 554 1051
3 410 230 627
3 627 230 602
3 497 219 862
3 862 219 258
3 611 824 281
3 969 963 535
3 653 891 656
3 656 891 890
3 653 539 891
3 891 539 890
3 1038 948 834
3 834 948 892
3 1038 254 948
3 948 254 892
3 539 930 257
3 257 930 667
3 860 404 1032
3 313 611 909
3 704 188 858
3 378 800 896
3 896 800 859
3 378 794 800
3 800 794 859
3 463 423 687
3 754 256 786
3 786 256 727
3 323 576 821
3 817 262 576
3 576 262 821
3 879 404 570
3 570 404 417
3 702 519 799
3 799 519 275
3 702 196 519
3 519 196 275
3 327 1049 1042
3 1042 1049 622
3 327 824 1049
3 1049 824 622
3 860 785 296
3 296 785 786
3 860 1032 785
3 785 1032 786
3 238 864 242
3 242 864 245
3 238 183 864
3 864 183 245
3 478 194 514
3 140 192 401
3 669 424 603
3 603 424 520
3 494 242 717
3 451 751 1000
3 474 400 533
3 533 400 466
3 474 765 400
3 400 765 466
3 204 220 838
3 838 619 204
3 580 390 412
3 999 394 474
3 474 394 752
3 999 553 394
3 394 553 752
3 598 469 380
3 971 358 996
3 996 358 227
3 971 787 358
3 358 787 227
3 213 514 211
3 197 1000 947
3 206 345 272
3 272 345 1014
3 206 386 345
3 345 386 1014
3 300 828 946
3 828 295 240
3 947 374 380
3 380 469 947
3 752 434 977
3 977 434 531
3 752 553 434
3 434 553 531
3 687 297 559
3 293 755 287
3 287 755 230
3 717 284 808
3 808 284 623
3 717 822 284
3 284 822 623
3 606 255 1013
3 1013 255 334
3 606 176 255
3 993 200 194
3 194 200 246
3 993 186 200
3 200 186 246
3 552 185 193
3 214 182 704
3 704 182 188
3 214 579 182
3 182 579 188
3 390 580 236
3 250 1043 463
3 463 1043 423
3 250 1042 1043
3 1043 1042 423
3 386 571 1014
3 571 269 1014
3 557 177 209
3 209 177 423
3 557 687 177
3 177 687 423
3 188 174 858
3 267 173 790
3 173 239 618
3 188 579 172
3 1000 171 451
3 1000 197 171
3 171 197 241
3 514 170 211
3 211 170 246
3 514 194 170
3 170 194 246
3 246 169 206
3 206 169 386
3 246 186 169
3 169 186 386
3 478 514 325
3 765 168 466
3 466 168 885
3 168 674 885
3 451 166 580
3 166 236 580
3 559 167 687
3 687 167 463
3 559 429 167
3 167 429 463
3 717 165 822
3 822 165 245
3 717 242 165
3 165 242 245
3 808 164 717
3 1028 494 164
3 164 494 717
3 919 163 655
3 262 212 163
3 163 212 655
3 889 162 259
3 946 578 161
3 618 89 475
3 475 89 808
3 618 239 89
3 836 159 458
3 458 159 599
3 836 303 159
3 159 303 599
3 295 158 506
3 506 158 469
3 156 401 192
3 741 897 472
3 472 897 451
3 741 751 897
3 897 751 451
3 946 820 578
3 578 820 282
3 946 508 820
3 820 508 282
3 807 153 241
3 478 150 282
3 282 150 578
3 1028 149 494
3 494 149 226
3 1028 415 149
3 149 415 226
3 357 220 147
3 325 145 483
3 325 226 145
3 145 226 415
3 1028 148 415
3 557 297 687
3 228 141 968
3 141 364 355
3 401 157 140
3 236 139 390
3 807 138 295
3 197 158 138
3 138 158 295
3 489 144 322
3 322 144 381
3 489 221 144
3 144 221 381
3 946 161 300
3 508 946 828
3 247 364 960
3 960 877 247
3 620 137 533
3 533 137 474
3 620 999 137
3 137 999 474
3 303 136 599
3 599 136 403
3 136 337 403
3 197 138 241
3 241 138 807
3 150 483 147
3 147 578 150
3 414 134 775
3 775 134 787
3 414 189 134
3 134 189 787
3 919 133 205
3 205 133 520
3 919 179 133
3 133 179 520
3 300 131 828
3 828 131 295
3 131 807 295
3 469 130 947
3 947 130 197
3 469 158 130
3 130 158 197
3 579 129 172
3 172 129 401
3 579 157 129
3 129 157 401
3 440 128 796
3 796 128 560
3 440 209 128
3 128 209 560
3 259 124 410
3 410 124 230
3 259 729 124
3 124 729 230
3 401 123 172
3 172 123 781
3 401 156 123
3 123 156 781
3 456 121 908
3 908 121 269
3 456 1014 121
3 121 1014 269
3 242 494 120
3 120 494 226
3 194 117 993
3 282 508 117
3 445 115 391
3 391 115 192
3 445 156 115
3 115 156 192
3 552 153 114
3 114 153 807
3 131 300 114
3 114 807 131
3 334 122 440
3 557 209 122
3 122 209 440
3 219 497 110
3 110 497 697
3 145 415 113
3 113 483 145
3 114 300 112
3 938 109 535
3 535 109 969
3 938 586 109
3 109 586 969
3 908 108 320
3 108 176 606
3 229 106 1000
3 1000 106 947
3 229 374 106
3 106 374 947
3 578 105 161
3 578 147 105
3 105 147 220
3 207 103 508
3 993 117 103
3 103 117 508
3 960 497 862
3 862 877 960
3 189 102 326
3 326 102 858
3 189 704 102
3 102 704 858
3 552 101 153
3 153 101 236
3 101 139 236
3 637 125 533
3 533 125 620
3 637 278 125
3 125 278 620
3 188 100 174
3 174 100 781
3 188 172 100
3 100 172 781
3 204 112 161
3 161 112 300
3 559 99 429
3 429 99 374
3 559 380 99
3 99 380 374
3 674 168 955
3 955 168 765
3 183 337 136
3 136 303 183
3 97 395 603
3 267 96 235
3 235 96 335
3 267 107 96
3 96 107 335
3 976 95 1001
3 1001 95 564
3 976 433 95
3 95 433 564
3 787 93 227
3 227 93 326
3 787 189 93
3 93 189 326
3 192 92 391
3 838 825 92
3 466 91 637
3 637 91 651
3 466 581 91
3 91 581 651
3 390 90 214
3 214 90 579
3 90 157 579
3 164 808 88
3 88 1028 164
3 113 415 148
3 966 87 598
3 598 87 469
3 966 506 87
3 87 506 469
3 927 86 817
3 817 86 938
3 927 586 86
3 86 586 938
3 966 85 207
3 207 85 498
3 966 190 85
3 85 190 498
3 498 84 993
3 993 84 186
3 498 529 84
3 84 529 186
3 220 793 838
3 838 793 825
3 220 357 793
3 565 543 673
3 673 543 1001
3 282 81 478
3 478 81 194
3 282 117 81
3 81 117 194
3 483 82 147
3 147 82 357
3 483 113 82
3 82 113 357
3 414 80 189
3 214 704 80
3 80 704 189
3 287 230 729
3 669 78 639
3 395 883 78
3 78 883 639
3 598 77 222
3 598 380 77
3 77 380 559
3 472 76 573
3 573 76 414
3 472 412 76
3 76 412 414
3 463 429 75
3 75 429 340
3 824 616 622
3 622 616 324
3 824 611 616
3 616 611 324
3 242 74 238
3 238 74 213
3 242 120 74
3 74 120 213
3 995 647 306
3 995 176 647
3 647 176 269
3 560 455 527
3 527 455 622
3 455 1042 622
3 914 73 854
3 854 73 996
3 914 971 73
3 73 971 996
3 337 688 636
3 636 688 238
3 337 183 688
3 688 183 238
3 1001 449 673
3 673 449 637
3 1001 278 449
3 449 278 637
3 748 70 275
3 275 70 601
3 748 399 70
3 70 399 601
3 139 90 390
3 412 80 414
3 246 67 211
3 211 67 636
3 246 206 67
3 67 206 636
3 508 65 207
3 207 65 240
3 508 828 65
3 65 828 240
3 369 723 232
3 232 723 258
3 874 63 281
3 281 63 611
3 874 909 63
3 63 909 611
3 658 64 889
3 858 174 64
3 64 174 889
3 995 255 176
3 293 60 532
3 532 60 623
3 293 475 60
3 60 475 623
3 239 59 235
3 235 59 267
3 239 173 59
3 59 173 267
3 249 57 937
3 937 57 222
3 249 190 57
3 57 190 222
3 306 56 529
3 306 571 56
3 56 571 386
3 238 872 636
3 636 872 211
3 238 213 872
3 872 213 211
3 113 436 357
3 113 148 436
3 436 148 335
3 1028 55 148
3 1028 88 55
3 139 53 193
3 193 53 552
3 139 101 53
3 53 101 552
3 552 51 185
3 185 51 112
3 552 114 51
3 51 114 112
3 770 50 851
3 851 50 922
3 770 690 50
3 50 690 922
3 205 68 919
3 919 68 225
3 205 512 68
3 796 208 232
3 325 47 226
3 213 120 47
3 47 120 226
3 357 436 46
3 46 436 335
3 655 97 179
3 179 97 603
3 391 107 44
3 44 107 267
3 483 43 325
3 325 43 478
3 483 150 43
3 43 150 478
3 937 42 496
3 496 42 557
3 42 297 557
3 241 41 166
3 166 41 236
3 241 153 41
3 41 153 236
3 993 103 498
3 498 103 207
3 639 39 720
3 639 883 39
3 39 883 656
3 720 39 965
3 965 39 656
3 796 37 440
3 440 37 422
3 796 232 37
3 498 36 529
3 529 36 249
3 498 190 36
3 36 190 249
3 932 512 1047
3 1047 827 932
3 369 35 218
3 218 35 512
3 369 1047 35
3 35 1047 512
3 497 38 697
3 697 38 330
3 497 223 38
3 38 223 330
3 171 241 166
3 166 451 171
3 421 992 456
3 456 992 1014
3 421 272 992
3 992 272 1014
3 213 47 514
3 514 47 325
3 320 110 697
3 636 48 337
3 337 48 272
3 636 206 48
3 48 206 272
3 598 511 966
3 966 511 190
3 598 222 511
3 511 222 190
3 364 686 355
3 355 686 596
3 364 247 686
3 686 247 596
3 254 582 280
3 302 812 582
3 582 812 280
3 838 34 619
3 838 92 34
3 34 92 192
3 619 34 140
3 140 34 192
3 222 77 297
3 297 77 559
3 148 30 335
3 335 30 235
3 148 55 30
3 30 55 235
3 163 919 225
3 259 31 729
3 259 162 31
3 176 108 269
3 269 108 908
3 729 98 287
3 287 98 618
3 729 173 98
3 98 173 618
3 157 33 193
3 193 33 139
3 157 90 33
3 33 90 139
3 781 28 162
3 162 28 445
3 781 156 28
3 28 156 445
3 877 27 310
3 310 27 218
3 877 723 27
3 27 723 218
3 140 26 619
3 193 185 26
3 26 185 619
3 391 25 107
3 107 25 825
3 391 92 25
3 25 92 825
3 825 24 107
3 107 24 335
3 825 46 24
3 24 46 335
3 275 196 23
3 23 196 327
3 564 978 278
3 278 978 620
3 564 804 978
3 978 804 620
3 450 821 713
3 713 448 450
3 448 40 932
3 932 40 225
3 448 713 40
3 40 713 225
3 977 317 62
3 62 317 943
3 529 56 186
3 186 56 386
3 653 32 930
3 930 32 969
3 653 963 32
3 32 963 969
3 708 817 576
3 576 323 708
3 214 22 390
3 390 22 412
3 214 80 22
3 22 80 412
3 607 254 21
3 21 254 1038
3 994 20 208
3 208 20 369
3 994 1047 20
3 20 1047 369
3 602 416 731
3 731 416 538
3 602 755 416
3 416 755 538
3 667 19 257
3 257 19 896
3 667 928 19
3 19 928 896
3 1032 18 940
3 940 18 437
3 1032 404 18
3 18 404 437
3 458 899 505
3 505 899 352
3 812 326 392
3 392 280 812
3 262 16 713
3 713 16 225
3 262 163 16
3 16 163 225
3 306 647 571
3 571 647 269
3 334 17 496
3 334 255 17
3 17 255 995
3 535 15 938
3 938 15 655
3 535 97 15
3 15 97 655
3 193 14 157
3 157 14 140
3 193 26 14
3 14 26 140
3 844 13 450
3 450 13 833
3 844 600 13
3 13 600 833
3 801 29 909
3 909 29 844
3 801 600 29
3 29 600 844
3 858 64 392
3 392 64 658
3 927 12 742
3 742 12 980
3 927 708 12
3 12 708 980
3 286 11 379
3 379 11 742
3 286 555 11
3 11 555 742
3 219 110 10
3 10 110 606
3 729 9 173
3 173 9 790
3 729 31 9
3 9 31 790
3 297 8 222
3 222 8 937
3 297 42 8
3 8 42 937
3 586 958 667
3 667 958 555
3 586 927 958
3 958 927 555
3 302 582 607
3 607 582 254
3 225 68 932
3 932 68 512
3 700 1003 1051
3 1051 1003 567
3 700 706 1003
3 1003 706 567
3 781 777 174
3 174 777 889
3 781 162 777
3 777 162 889
3 440 779 334
3 334 779 1013
3 440 422 779
3 779 422 1013
3 790 160 445
3 445 160 162
3 790 31 160
3 160 31 162
3 239 88 89
3 89 88 808
3 310 542 877
3 877 542 247
3 310 596 542
3 542 596 247
3 422 7 258
3 258 7 232
3 422 37 7
3 7 37 232
3 395 951 963
3 963 951 535
3 395 97 951
3 951 97 535
3 357 46 793
3 793 46 825
3 524 968 141
3 141 355 524
3 877 545 723
3 723 545 258
3 877 862 545
3 545 862 258
3 161 83 204
3 204 83 220
3 161 105 83
3 83 105 220
3 185 6 619
3 619 6 204
3 185 112 6
3 6 112 204
3 557 122 496
3 496 122 334
3 235 749 239
3 239 749 88
3 235 55 749
3 749 55 88
3 697 768 320
3 320 768 546
3 17 454 496
3 496 454 937
3 17 995 454
3 454 995 937
3 606 561 108
3 108 561 320
3 606 110 561
3 561 110 320
3 667 453 586
3 586 453 969
3 667 930 453
3 453 930 969
3 898 425 572
3 572 425 330
3 898 768 425
3 425 768 330
3 364 141 203
3 203 141 228
3 527 5 560
3 560 5 796
3 527 208 5
3 5 208 796
3 1042 4 423
3 423 4 560
3 1042 455 4
3 4 455 560
3 370 882 887
3 887 882 460
3 370 640 882
3 882 640 460
3 532 3 293
3 293 3 538
3 532 640 3
3 3 640 538
3 293 2 475
3 475 2 618
3 293 287 2
3 2 287 618
3 963 1 395
3 395 1 883
3 963 653 1
3 1 653 883
3 395 0 603
3 603 0 669
3 395 78 0
3 0 78 669
