# vtk DataFile Version 3.0
A great-looking cell
ASCII
DATASET POLYDATA
POINTS 876 double
198.06080589010682 197.6437466403656 75.42790860153052
211.14690819779324 218.97601100856158 62.6201950177308
199.9377549074388 191.52142751117785 75.17913856356247
198.3933643327645 193.1185667915275 68.58552956871432
197.5835524950823 199.65731127696577 73.48941545074685
198.41818730447022 196.37815625600277 76.28775882852173
198.98681129986218 196.58163364415122 78.19274471411148
198.7750470941749 194.73744942594746 77.33449409689528
197.5410382970431 197.95786619062773 74.06334452849852
198.79742687313396 199.87552152831427 78.06172512113692
208.83578306557024 219.43361787684123 61.26885881383908
199.22953275825392 218.75183309040776 64.01656204403234
198.94171013012766 208.4191451784312 57.833113583577955
202.30780766313055 220.22170637750602 61.62674377729441
201.8245058826491 223.1408674874182 71.03836039304826
222.28083180827034 205.49394745551484 84.7818631205911
215.40863153466697 206.9307988590496 50.844986421287146
219.41187294910335 212.08394240014937 60.04006699541933
210.24296113160668 221.37094596479824 67.68168350757054
200.2678159306301 220.62986507611643 77.2943497805663
210.8403307960801 204.69614508998393 49.06777694640375
204.40661689380084 213.20240153110458 55.496127082403284
198.03339949769565 212.98165593818558 79.14414770817172
198.52858278504743 219.15161405704774 74.5566856644664
222.26601242068116 204.6117672539773 55.1441235922322
219.6320418183777 204.2219165969866 52.81746651464764
216.2653868492726 216.21988575509974 64.68272065852176
213.49065144550636 219.05097773397674 73.74628988757772
223.63998894976916 198.1574674568048 56.37230408033217
202.97611179167282 217.04151650658588 58.300443113036636
199.91788316158963 211.94614290246528 81.26070993259553
204.77287617878113 223.5726364567512 75.35957714979706
202.32766627307367 214.90527777572586 81.30827997263691
196.9292541850149 217.33467695532286 71.52397651389614
199.0161366496905 208.35113914102527 80.67745880394563
205.6432951176501 223.60453354032305 67.53010334059424
214.8517011002087 202.403303662453 49.621972357869964
200.29208024865196 216.07580313385108 59.55161978101184
196.51326909865142 215.11898283755733 75.78789297968758
225.42936588042696 206.8744579402716 65.0766876947845
204.09868502865424 221.39955233635087 62.39419261594884
198.60587519504315 218.72136470210074 76.53986958073256
198.06522896921425 194.56931877011928 75.25919744449877
197.0563573175604 217.41871842516284 67.25334779816298
197.04922350790406 204.19029715346807 75.8858152422422
198.88029679804174 220.19318368164377 69.64668813537664
222.58058430325823 210.09102618985847 82.9921961572076
201.6391858125688 222.07336507216263 65.89572108391694
223.58818239080145 210.97129073725984 67.58108797161789
200.2732787164914 221.93211453999098 72.02650626685015
210.83638419469187 201.05854180259672 48.82510393988044
207.3905012512162 203.7027899411395 50.1551631284337
213.1635233434244 208.8388691248842 51.2294742129266
214.16119920404807 214.0391894906315 81.9655704004731
198.61225252452388 198.35166036861253 76.93058821582211
226.20036759412378 196.56566692301897 61.666829059975875
223.0839652995302 193.62093589134295 61.539556251489536
216.20731995497053 213.20026932730238 57.73545115814387
215.4526923436676 217.4635046784687 71.02705641063913
207.2299997028554 218.57143712444366 59.34906883004279
215.16535630744457 215.87715221014307 61.15721488804809
204.3315295682959 197.53585959150985 54.183919618028824
227.5891700264282 201.30682364566437 68.93280816306151
200.34076499222712 214.69306246264853 80.63241558546031
215.95219670095392 205.91767163691492 87.40052890420652
208.97276129431327 209.9258902921904 85.20430160471855
211.82601821084796 220.34733617671773 73.57789802872438
215.33303061231342 192.23032238761994 56.20013419000943
204.37855120151897 215.17689215180528 56.4631906649551
197.74582369866087 202.4448257930456 65.61968867512886
219.19568497125513 210.21275637286817 56.682256086770096
222.8005053856494 210.24421513662696 63.21645599900499
213.08158518128366 211.18807580717214 85.25458887525042
214.88572046678811 215.06768150453055 59.41342037851387
226.7767326149401 202.94609087157576 78.8336037366747
226.3619062345112 204.66187011799133 63.4999844507349
224.25285071509992 192.82538336356782 71.70239035642975
215.22694790135225 214.7875484660307 80.00513626223801
222.47373594492814 211.56694423423886 65.85478270274497
220.63017388602424 212.69019194216102 79.60652874598792
216.04684102123898 215.9493659078314 76.05363573212642
217.65723784233325 188.6523970178233 75.66365173766125
218.8140311519035 214.73229216452853 71.98311567540875
221.07683848584173 211.36181844330986 82.17129503031484
226.37541611852163 205.17564777473132 65.50852031461294
214.68284039970194 210.21838475768953 52.927165236970446
223.58316843910998 208.21113859320982 82.90281877618948
212.432790141271 219.30311700641923 65.43053374571242
213.79726604702282 186.3979993028695 75.12042397577962
224.89644655284337 203.83994789317993 82.3017131879855
202.57289140332168 223.50534913795994 73.08772845523559
220.77611047098816 213.71129939937052 70.86143603865655
227.40323865161542 203.3261537743293 75.76704463496274
207.0020485934583 216.74152361907628 81.44400227879765
207.3702333939928 221.02798354891868 62.5989254983456
222.26258709454683 212.78719173631848 76.07578678235153
201.23611970654358 211.17235092470344 82.27682488561385
214.20619981623406 218.48963938476842 68.80406911876011
197.32681762900853 198.24988876280293 72.30360175646663
220.9369193707211 212.1154536214648 63.54121117353639
204.4640995793353 209.4498894989797 53.33727271632246
217.0384425506072 215.59030130727737 73.44262668706233
209.187387810215 194.64369619726253 52.562727558808376
208.48834519596093 213.72721414181382 54.6057170699568
214.21734674118053 216.75110830869605 77.93639236387259
202.58715113395155 210.82928380332947 55.33249520912933
215.1479371601436 210.9892144683613 84.64783235913119
222.55617726636947 212.19559217904018 69.0721769640672
208.60733923617056 212.1135659859797 53.303188603951355
210.5659111337713 190.82699073866374 57.74016608182005
196.2517003783001 210.0458800585069 61.49694705690759
205.75574289634918 200.21014389537433 51.6717720528972
227.3237546342787 204.61697820960353 73.19228358142455
207.3713528934471 195.30102676740404 53.22768411024953
217.9526473881421 212.99489830467232 59.45516898606746
225.76948799832007 195.41063677087192 63.443127951804264
220.41952153270933 206.1205709973259 85.59330783392068
225.82231436154106 195.01327467703473 72.50427352920957
211.62581806190013 220.85486290337218 70.3899739568177
222.65122897153162 192.24203551471712 65.39358127781227
197.06278677143717 202.97423841771604 74.15929148859001
216.32682415618126 216.6172970634383 68.63456799268599
226.4904238851987 208.76551419835744 74.8788612512209
225.5183021747079 205.21801630684917 80.70679268064102
226.1727769902246 208.76841161826806 70.91311999580374
197.7020670981715 206.59164181002697 60.63526219223331
200.87343614359642 206.94326383277885 56.2539625627445
209.94224879946393 192.79006919205892 54.78761005756403
225.2610840095465 194.23689055435253 67.86009839364348
224.66256396834765 209.85022657463145 69.04151327009912
223.99976020184477 211.7496000518848 74.46423855044327
223.95679891708102 193.5260189877073 63.890429816515926
223.7072386639135 205.31677843500077 83.22906874746675
211.37143388932742 192.43252942470133 85.15701773100525
212.79331920534406 212.67706678538397 83.49570726726525
204.12790642057175 191.31684190907788 82.43006835413772
218.7725985973328 214.63908474967548 68.91113896712159
221.9186793628354 192.28974168136 79.31329781371876
227.18542151568488 198.53341824162356 77.20470986145378
218.79019499261815 189.01925693034983 69.04799880372279
220.815578776314 201.76289635461995 85.72027018098969
197.6194533207109 195.31388857398227 73.69984866398511
213.312422243639 216.88623712134157 61.13979522669568
209.34800069614275 194.62948385649025 86.11745149858089
207.84427902363967 188.55174220017724 61.8852013764973
204.99271547211745 218.05530312342228 58.54633784060448
213.11700125849967 186.2591443688457 66.6804925313665
220.9574756440435 210.02985815519503 58.84485218415655
221.072563546367 210.96394625613473 60.72838143462985
209.14687253676726 185.88362894032863 78.56802571313509
226.9504953410198 206.99270172056276 72.57492073805935
216.6302373414691 187.9107331022959 72.48350245184396
207.49737334581897 207.40073085916686 85.85714407626757
227.40656542980435 197.8318953052948 73.06645095437322
194.5544918824192 213.2158684118271 71.70705565927557
207.88440589214312 186.7900367694872 79.58600789691246
211.16942043953765 219.08094181287518 78.26717638170689
219.9584570242001 213.50844431502622 77.08247999397398
197.63828447310482 198.6325689641252 67.91356115006755
224.25546617368818 208.37285270588268 64.59020771704124
213.238485299426 218.81178513541997 76.01661208147263
220.47775149021732 198.6513086285313 85.09529242668528
197.93553738392336 197.42704129086 66.92212128173665
225.99801566568462 194.98401736526074 69.37495211182787
213.4492489549793 186.87147067897308 79.02929278275056
218.9629333781342 197.12578575701986 85.3855632567154
200.27648416005528 198.61520941299366 80.90950377053404
194.42224728866444 210.64484018997842 66.15713477415446
209.83199264673755 220.8578605711062 64.84494636655305
212.90076412733382 195.28054094297548 86.25755671467289
221.31483104603925 190.87692869193228 75.41219976129055
202.8312362570659 208.9321962351617 54.58903198818751
200.12745943842262 202.0587352345681 80.97565272458131
224.19844886515256 211.15939230756703 71.10983315088319
223.6940086132214 194.2830213504563 79.3187283867579
227.6883801265531 200.32720482465632 64.15351893721002
210.6135329674876 215.53398559068313 57.31825961175171
222.48084906948682 212.878590976203 74.19665212179622
218.1657288213974 213.49608304587386 80.55816872514919
204.51415992151567 222.4736259159482 77.96940260308885
213.52760380174684 219.07435724211925 71.5681214264361
225.0827300699717 210.66736578106273 76.59452105787483
199.16292118569956 193.0660186491481 76.34997269018562
205.52068549946432 189.9146463324098 82.47659114938892
222.64150134313468 212.38219471256747 72.33358634693548
200.93821445887576 210.17396736611298 56.45397184485958
210.93620958593007 195.5819923823841 86.84912525695468
220.40197860181706 190.76194300673743 77.94916933725287
227.47915145992866 201.03061141081642 77.3038692696325
196.1945142166376 204.22096957194373 70.79245615971166
211.30259856221645 185.4377426732358 67.87426491933923
216.79298933099838 214.63013174416815 61.32723210873932
206.38894625747471 201.8918970450348 50.69733017610509
211.36132146347674 208.79091236186784 86.45598058769032
200.6222475837966 191.72312398255093 79.131147163902
201.4134044304697 193.65808700326184 62.210596871920075
197.43701509700838 196.79993795628687 71.5881189375328
221.54904313592974 198.3423787617223 54.41371113178572
208.44622987506037 192.7447917873608 55.76956404653077
198.47410068401535 219.42402392040142 72.51978395556245
197.35085204214593 203.86706289890427 64.43565640161151
199.2763804312602 194.86554186549859 79.36426067712631
227.23531603898047 197.92524303147007 62.96392335749476
200.18902284354715 193.2539878274659 80.25154901204448
226.52014393068694 205.74592292107982 67.52163185521441
208.36391734889017 187.38609240467508 63.499908693731356
210.2023439239288 193.38378569135253 85.61409114034693
209.11071455883425 208.66467393299502 51.030065197067756
219.15180723459574 213.8517557509438 64.60254508440784
216.21009862450947 197.26648995652766 86.27166864701053
210.98159928915786 210.5797837607077 85.23086063298338
197.76512651852397 196.4112906588788 74.66756619238888
207.52915841717547 189.72980412458753 60.220776794391334
212.77242684906304 200.1357593297716 49.522281842234115
205.62758904933733 204.44563070484264 85.89492449186332
198.0560453475533 200.3337373342051 65.31439886261303
209.8710860320308 216.5566058477407 81.03306865482071
217.30721479386983 188.7042794921748 77.41506588291516
203.79368595453062 187.06899981680368 74.57656111538168
203.5005406773359 219.1196583280372 60.205205281576234
209.10731578491146 202.46945999751782 49.39075024613552
202.386001310518 212.7067935922431 56.24404701797864
212.93332544729162 210.59442467250216 52.14958035773438
214.7374498043849 194.8594814248726 85.7660061230524
206.6087943256519 209.8677236744952 52.606395484429086
207.44948954450592 185.60067991120226 72.58363141212978
197.5614649087688 195.3416514141643 72.1799581924589
220.0508360944911 191.44847998123095 61.85987275935955
200.18300840091666 191.68373715010475 77.24667783472118
209.24729503357815 220.9512603189945 77.6651530938259
211.2785527012804 220.45106795881816 66.43990942067126
219.86968902321377 197.31932451549352 53.730710460484396
213.0199303227607 219.6834319346976 69.6591420939342
202.429622559436 198.57749914665294 83.93639820011074
208.80993922140414 185.04844671196005 73.78422276448501
205.67490770711976 196.05459411187292 54.005967869754315
211.3848292944949 207.11657194518853 49.98065853334709
201.4059933281521 189.0827567324946 73.3008084976178
198.11480199228276 194.93236133232952 68.48817497543507
198.59407388078515 213.77028850464959 59.7969607520153
202.4236974292666 220.82906804269362 78.68458265346811
218.3129850002768 192.6841886359475 83.70803546128342
216.8930314129999 200.4217038734101 50.97254340696793
199.81605631259694 193.33052405166575 65.50152579371179
208.48692215033392 211.73861214568856 84.18120260136295
200.99538785939495 222.34630952021863 74.03025307141166
219.09736378280812 189.59234823507222 75.95821270356552
206.77792666993392 192.59246676955703 84.64714031079384
206.37956779574057 186.3047236273791 71.28052606955907
198.21030188410492 201.62041162792025 78.13193459502637
227.24857223950315 198.2052455741828 75.12744556741052
213.4825355593008 197.11461597757992 86.69963128545508
218.52900330448935 193.12952435230378 56.12959719973202
225.99845548471902 206.85045740750624 79.26579248437844
204.18419044137548 187.29624585232335 69.982210569475
219.0520969412387 212.97798262235 61.77750264617344
201.01335604161537 190.59655465647666 69.91379601071374
211.78706894851652 185.39673347731286 75.05598948980176
216.9480389010708 208.60246485334983 52.72270933130338
212.3973104661427 202.52935672565192 87.48901228330632
198.1406014350705 200.37991683693988 76.55446735551669
211.0301532261151 198.63625937773057 87.07674036007914
201.46457286250657 193.56372352993526 81.69321236903457
215.17080875538923 202.1844221508164 87.22967397219958
196.27165317647754 206.32350389807686 76.96965120283565
226.1425811099302 200.0274560869665 81.546122328517
225.24776634902724 193.8853407872277 70.68649062526949
195.01515336741835 208.2288705213033 76.39051663901027
196.89712356458125 211.83722881164712 60.84881816278834
213.72494524797494 185.9512677999752 71.53405861865133
203.81527662919882 204.08396828025852 53.35212678634054
197.9467511184882 199.15218146222148 75.20230640101028
199.44556322603242 196.58104015523898 63.60876723469424
224.8054878197283 195.8856668754139 80.4024509735413
216.91102291486646 191.77932526545354 57.15223259851219
202.50935076233247 189.24900362712668 78.70471642838808
222.295444198608 201.01285302763375 54.42920896731504
204.41325909385452 187.2460396072151 76.59022756140727
219.46002087879012 203.28259105659302 86.37097628442343
218.22544725451516 189.88178419223618 79.48194865087292
221.5055397132898 202.6222527198734 53.69801559435888
203.56846010847266 187.98986301421405 79.6388754822661
198.64587124442804 205.0550616948325 79.69450927615192
206.3311202487848 186.9128922712205 78.96817034633592
224.0185215060333 196.75166680431744 57.87881123331065
220.0452282124382 191.55987963228472 80.6238212566112
218.6456548025892 205.21458529574562 86.50166356980516
202.54261284909515 201.7939110076775 54.912801919259486
210.02482410236115 221.69850429300172 72.2645268840222
205.2796321326846 187.51652153197315 80.11671601600442
200.91746558354058 196.85801486284763 81.92726771130579
211.97842032106223 187.48613469806907 81.01761685286961
196.10366199004457 212.87739974346505 62.40360985221223
202.67668044830745 187.9176678450464 73.08879714109011
203.80021451397252 196.78140244489074 55.943706971292535
222.55489248817028 194.33560888269037 58.8807635541229
208.76644870794874 203.4185444505064 86.80144724234044
208.6150725592344 185.17326413921464 75.60808849110087
202.67506171667796 222.17495638715945 63.983038335241226
209.10999946176364 192.50716136819102 84.97769008495432
197.34623468549137 200.36235561979342 71.43485629217058
197.55580734135356 216.95921105273885 76.33282486797712
209.66808042363934 186.73995674038875 80.43971513154456
218.84237821656714 194.80979858365473 54.365314527450685
212.41181732678348 193.6729955354467 85.51635740446244
214.80273239899083 186.68722071444014 73.04654514200537
199.7371508735234 200.0248144248727 60.153023515577075
210.7556523169019 184.99841069433054 73.10388865158605
210.3812535378373 186.89320439830462 63.771404607513844
216.3399872996034 199.75221526424937 86.73920486260498
199.08381095528497 195.2163215735069 65.32138521766376
194.0054845882457 209.8631463357545 68.81711349976577
197.5024345802753 198.10750771598623 70.13075005380132
215.10025863526027 208.69010155236532 51.85648082955093
202.45444098404784 203.00541182287583 84.05067061878836
209.24406482757212 222.33233934849613 70.09726154171882
209.35301998236156 220.18247839725836 62.77290898239951
210.29153822787296 185.48993001935733 76.76747821809985
213.54102402517285 218.86572534870888 66.98818814384757
201.08769371662885 189.91611255047468 71.714660469339
212.60886869089714 211.9069240020625 53.49416334020518
225.86274117043973 203.94113033708365 61.547562468991764
195.789296087811 215.0101823579303 66.03729074539362
194.60073293195057 212.3562292643786 74.93061408829602
214.30932015548447 191.25686578443495 57.490034030392806
217.23298114046784 189.68394852697804 62.2901973166736
203.20570890269772 188.31081342517717 69.31452965184529
224.7054506863948 199.91342775307035 57.492424068554186
216.99500790080444 187.97859504935727 70.8314737709736
203.5275173655667 205.12590301768293 84.69108716725817
211.94148625560496 206.6695746987776 86.91102166119025
212.217674790325 204.59403655500464 87.40096589373427
216.08831914604528 187.74581995809766 75.24771635390023
202.11181976156132 198.83809764636615 57.239812042459235
197.7069829103275 207.3074907365974 79.51170431587282
197.12551302559984 218.02153854145251 69.10372252821391
218.6928987532228 214.73729338752506 73.69013733585037
218.04065325700762 188.77769745477934 74.00800414596134
214.8571593250606 198.2408041779164 50.74075574914663
209.46381468437102 189.96999825645415 58.88540786183295
216.8733960307096 190.07139535255277 60.81826794654355
213.651206332531 216.1332723863628 79.8277275919286
227.7688593089407 202.42175536555675 73.25259225368202
204.6194086562732 188.24542838308727 66.55405470743067
198.2469063011911 210.09339260137136 79.90168133607055
206.56249379584267 195.36103172505082 85.53278910072224
201.59688723152493 204.2384664132382 55.5379126199645
210.04908289371147 185.20080525537986 74.86862291601517
225.42803320283093 210.30831897835478 72.77953544688592
202.5252220596461 212.94820193139194 82.1999070550527
193.7797480807527 210.5414491385918 70.64519967603168
216.24249252234534 189.05764343938495 80.92431247852078
205.9927880663459 186.7087165727474 77.2849771642493
225.7635946570033 208.11116907769977 69.18211680888646
225.18105776023665 194.35028901105701 65.0458710771712
227.3017356059075 196.83882719141576 70.62976397171714
213.49155518095628 205.2040111639612 49.22446069762561
220.5712963500086 190.8099816415751 65.8346864079463
218.54272428367042 211.86435150260795 82.78011721773387
194.27967615955902 212.44377932217574 69.79094533723004
224.1674927777744 193.079600128861 74.37386889871532
224.4529258289322 193.09429846463905 69.14381641399522
227.17364550332098 203.8562984174117 67.82505574783819
211.07969759757367 220.382469537734 76.1310509017374
209.6513992115083 201.42484893096224 86.99601226837058
203.45206103686263 199.23830283584763 54.72531108982611
217.4006808809052 215.52119229371013 66.15047424094197
204.69740433392263 187.1156497681585 78.43677779615747
201.28143905145856 222.29082764200345 69.05819139506508
197.46331558317692 209.1001139697439 60.03350660263768
201.02770925553176 192.53948768076833 63.996390551293786
204.8671806871856 196.04462627571792 84.91669730297743
212.08039535758124 189.07789706436907 83.24054241536838
214.9717977329981 191.06089385412042 83.54041311569448
201.3713516334925 201.13615900409414 56.59538909885949
197.3388817405938 200.3244469524156 69.02048121810284
205.22139185915233 194.46303184577707 56.416046528514094
211.1536299768918 208.96050427105519 50.787684972284545
207.64682617508623 200.65833053042638 86.93190323829955
226.8601118374535 200.89639902717198 61.47411693324434
225.87633314789187 196.30039511217151 78.5620952420344
204.85429749342916 202.9747560200521 51.72980404935256
199.28477565769447 198.4480051823176 79.01851790006435
197.54198155754528 200.9492742391188 74.81559203544775
205.73176251384885 191.71188820693854 83.74416299581819
217.7486287945249 211.36799724411904 56.307931940884494
212.55744878745787 186.9954692562043 64.35074895116271
202.24409964233425 194.6229187780708 60.32351874477111
196.44751645091625 204.16107986625315 68.38845726359408
218.09732170647453 214.22869848072241 62.828263867638874
205.583482973358 223.86019257596604 72.60335992914942
208.58435101697913 216.86159101271267 57.75953417416891
202.57888645943984 210.2279105857119 83.05265735532348
205.85349700507774 199.9817216777471 86.14366428304328
202.01316400604983 189.08481426238424 70.43276096361652
222.31189049730384 191.4247293647982 73.10305288848441
200.34137781002073 213.53740865786438 57.98311469137866
208.9241326118152 221.96672310304675 66.37901717062907
206.34493004814092 217.06536340351644 56.87079307766599
205.33496430275744 220.35382127861706 79.87552741244517
198.58308971506608 204.10747524110732 60.872255701946074
207.39173132717326 196.8354758590654 51.956794592477216
203.53623711260536 190.44045884209208 63.54890510945333
211.85691099249874 192.69471455835117 54.94169807987687
197.48048719813733 196.66754667717862 73.08898957920685
218.24854798524248 196.15532774084403 53.07252713256389
207.25981843410375 186.01524420512146 76.31426376944994
197.1184796479682 202.1632230822158 67.79389877946099
224.38555940199234 206.1032395494581 60.176255834852796
217.4409285328312 214.37691353490655 77.94516777746492
202.12659961580846 188.26887960540842 74.8100660603056
194.07554742294693 211.3237632979214 72.64470885809061
202.5775082967993 193.7544421756013 82.86145560952583
216.81339342545476 187.95776471392278 66.74219793764175
208.4138892537548 219.0362239046614 79.85204866473012
195.15409700127051 213.64608673435058 75.48475100416948
196.24324546752914 216.60367183249832 69.8669335692374
195.09384466305582 205.7912252871386 72.20854670894789
212.67672806848879 217.93609526158014 77.91642603457512
227.1783683801917 196.80405973632165 68.36761117317758
214.25128807140499 192.78380886699344 84.75371276684535
200.3150394686801 195.0292002683269 81.19098170783684
224.61013582220974 202.23856291666974 57.344843141526916
218.5198223991461 190.91055215007955 60.57587588313969
202.19223990629888 207.42613852726134 83.35319931127849
218.93386848305107 194.434499518464 84.39910240658917
197.5200524838833 196.72876145940774 68.3882522950845
209.63783921103456 197.22370596787482 86.92576230333721
214.96250777390142 187.74373953642947 65.20329364780189
209.95014841797166 214.065337254416 82.79303026336505
209.39921154556478 222.0421696362015 74.86370859371819
197.51534804750534 205.63444887206032 78.56819181323169
223.50114533369702 198.22310930455694 83.02645569197078
222.60772894803839 191.72683771935115 67.66257813791843
202.14908591733726 200.16086221288413 55.71820647337414
223.08973721667752 195.98688458182716 81.786831313177
201.90106432623878 188.589781682673 71.92248319798888
215.8536145764433 190.02758138528694 82.4312306751385
222.91148123289332 192.29659060663928 76.90557150739193
199.51216326649475 193.13084722324416 78.33233594285949
205.5321635844997 193.83603885176382 84.67418100405285
204.65107651713595 207.2651076329575 52.88713400973565
227.07552785206772 196.57856474667966 64.72229776534738
211.36559843876057 195.40079929162997 51.41476548976562
203.26143700357395 189.6172976247419 80.31053438490429
214.92549058221297 200.23682938166658 49.96045097335257
225.02413326036395 208.03124885204429 80.4735466726483
198.68674010588055 202.43497533175787 61.44007925724512
200.36839510084354 216.48244275804433 79.6020708210404
202.22716562522947 190.30145832498943 66.6611901637783
202.91928778159 218.97186615668474 80.08395192652722
197.08658931666528 214.2057431873583 77.65838624212404
198.5788198262576 192.75690249582112 70.36770412438639
205.42986230905922 188.23536229065647 65.06253506499905
205.6936823427088 186.49626353181432 75.4177884215844
206.37306902751257 218.56513045248028 80.68260519953596
195.1781160391406 206.22677060633944 69.50933424768895
226.08677201512228 200.3260752140042 59.36619130949238
220.55604381166032 195.6944526215569 54.894491342455375
216.32246015911457 190.49557539290768 59.26918890127597
213.75140812124172 192.58618835632043 55.18981580312259
226.64854026295563 207.24635454191582 76.41229690494464
204.0862388275114 190.12901719920248 81.48197522329302
219.3890064966451 201.7051875475902 52.1552050310544
200.40995754126112 218.57110321583153 79.14121837774684
210.730954012617 212.2428942024135 53.22332904663643
197.6739149470447 200.44592196497857 66.96142521093182
198.18031704722446 198.82939264830085 66.11921080020976
206.3580021135294 213.63741845116655 54.7485661087955
214.20535009163072 204.77435484204867 87.30199781774043
198.83613073629073 192.96760581543774 74.6652233642416
220.71473602170562 194.41564836877805 56.66622806260852
227.68081719975197 200.23020764838242 74.78147132787946
202.50020730908935 196.24560823436732 58.14374942418624
196.92068988196485 215.49946626312564 63.230759816988396
213.5512653549072 190.0395588047221 83.63386647355738
210.347559122428 204.3344371442204 87.3075725706215
208.03626153122806 191.53788299354335 84.05694370973922
212.010123603702 190.17501381122688 58.733274475057996
206.84365963487545 223.52319133996917 70.07117079661998
220.90586267130044 194.92994212733242 83.19188571797322
201.53387818137736 191.99594967261237 80.7867792318276
219.31430804776144 208.09503919649407 85.40941845909099
206.74108321774045 187.41846725930245 80.27806168129703
214.20340172498163 190.05345142258852 59.490829585919066
201.21610949249657 202.45373419538305 82.4952717915897
197.03249662477373 202.60285459622907 72.02113255395636
212.5240785711249 215.0155479718096 81.18160503641256
201.97383336724585 214.999614895598 57.547925344094544
199.10679576727372 202.88269989357207 79.56890896465036
203.88622086037643 186.99670032915475 72.67777567174723
204.0008099186906 192.98063725070259 83.31455413949908
195.01720803997813 207.58344286678496 67.03488736953662
208.38189481619386 196.0386185139422 86.36107400030315
202.1647492416021 216.69504445601748 80.56205534367393
224.940850985161 210.12212753178537 79.04186803573084
222.41874571143273 206.93951793282642 84.45820680086679
217.19826717305398 215.178145762348 63.75034090144243
197.7894330352837 202.379891960121 76.18576584949797
202.8802186234302 190.9426486001629 81.21973448686055
223.2696727932271 206.52129787847747 58.45200844261395
201.0043169523772 190.58793926435789 76.38905374331968
196.62329086337195 204.96489255558953 65.99792575971951
197.2358516263164 214.29909350095207 61.851391317092165
222.10275842242362 196.84859111912712 55.63755571666755
207.11498362318747 222.69194934524197 77.06463230447875
203.80706220006144 194.3105549877676 58.47011274806284
208.29434833960917 198.7297891846542 86.86974838514895
217.05082807483416 215.89977484834588 71.04828511166016
195.0238119396936 208.8094482392344 64.58252241835831
200.1605849733219 194.45967265749175 63.70592167544777
196.03788613756157 215.79382535238918 68.00344711174212
205.80931080938709 222.27315403374394 63.65557046211186
215.4186248527873 187.0197999799438 70.61069615941426
198.33607257191343 219.0122310190593 66.82102866009627
208.25383886536443 223.22846562917954 72.41164541463074
196.0712263598599 205.16086173515404 74.38511972245296
198.878124838591 199.00325231008378 64.0362853217965
199.61968553196428 192.41496180778068 67.32579992077552
195.19802643928548 211.11517672182075 63.17409063317402
222.7442594598124 191.82852338722554 74.9590091436622
220.77944391761622 213.65362169440826 68.94430592372133
217.50820506356615 191.24680064497346 82.26060730931414
198.22846633207774 193.84149638094837 73.18637859883344
208.5321747539723 185.6509735757103 77.07881957944531
199.93635975580324 206.61176034743687 81.29028543081819
207.31772516866343 191.07913477828131 58.41377312992315
207.92549119499444 200.7043684576177 49.850753654428715
227.52180348345016 201.45167707801676 66.38804608971401
202.141050320992 189.71652746637258 68.62466955213199
206.48790482912284 188.14439561341356 63.344642750823695
227.67610332807254 198.343410781525 66.21719507400941
202.81785963551144 206.28854992492523 54.5976816894664
194.16994520379384 211.6078502739687 67.90370502285109
203.2330560139152 223.18014085027332 67.4733030078226
209.4456566487708 208.0356844077853 86.05555817226924
200.3729419749796 204.95199864791533 56.871227085122285
199.77878777910973 198.15516723377925 61.475862115278936
218.93637061835273 209.05848157378549 54.990163215026804
203.77438525721755 223.78971398722803 70.08440381199917
196.9540273773196 202.31082825259148 69.90835911603536
225.24971780759302 210.13551026573998 70.91847841843915
225.9781527207898 208.26011112975553 77.81530660690109
204.5357928711546 201.23677867754685 52.78861406138513
201.9755254457184 190.61960987718098 79.72760862058348
204.39281121011675 211.41287737132845 54.29466773098218
226.43393731104635 205.70307365788327 77.69162292969554
226.28710628737645 195.35770717395408 66.42833006700722
214.55470361143162 194.0230206026663 53.512858097801924
206.91284556312024 186.23660170435716 69.83667403483324
224.98843523808284 204.23127537192354 59.60409464692622
198.56680069840155 197.13951957243634 65.45937483426752
203.35881965223402 188.83615907827632 67.42817245675215
196.08915957587217 208.17671020753812 62.374238936774084
220.85515205256283 193.39115914415945 58.532021053898944
198.8285477603906 194.12515797754236 66.9998639729028
200.54961574442277 211.9703788843709 57.14584224857209
220.30591323951026 206.49189628418003 54.19811271510953
201.2404707017119 204.77117171613094 83.15704629536911
199.67992802359672 191.86512128217632 69.24994620475114
222.18754540612392 211.78152557544522 80.41228794294855
214.9044999721546 198.4918082134769 86.76193881915115
209.65413485548106 199.3835051612222 49.74616183032548
215.12677976365597 187.12889889428106 67.9430326080383
198.10016673913992 194.0690464507898 71.28121239052398
222.8426449748943 199.43689817649812 55.20411718756803
198.2171176208058 195.88527106160078 66.88553511487206
208.13634122608266 185.59749689019287 68.8265115594135
202.51924434346265 200.4772189708885 83.88261202696589
218.99092548553563 189.82228135433613 65.23486110349668
227.36242854275352 203.44565224488522 70.87132110263973
206.73633698710057 190.58560086300372 83.32352874171407
208.32803813027562 197.95889923841864 50.60967443996616
209.70756685064075 188.0462189345747 62.082433326356785
201.43084471668254 197.5283959675109 58.49013119061412
222.46059972876324 208.52352516477958 59.34033243311958
206.29183189592112 215.43162641190614 55.75658546476147
219.20303203770698 190.49509273852925 63.37292299596365
218.30037085826703 214.68533793449376 75.36731471109425
221.34963410063514 197.26417770000995 83.97247108927951
208.77834883557512 210.39136785672147 52.11228971023857
203.92831498833885 207.02283400922474 84.43081871402724
227.2162822235435 200.071872127937 79.77805156346456
217.82654867724676 191.21095152987067 58.730018143444035
204.6926280375743 187.51882397886325 68.28905712325925
199.80800097371937 191.53192700517732 71.397262877868
228.02073151534412 198.8178044570074 69.21575480302481
207.3771361600906 219.94056994078042 60.84277265845682
212.89415703554278 185.5903127337617 73.22981910568255
196.3305430047716 215.7411813088939 73.20418645821505
197.04213073804988 203.44811394282556 66.96399700947691
213.58840784234 199.8612897856308 87.30747165073629
215.3505540345552 189.42267957600657 61.22129442206444
218.00932245300746 209.7878760961072 84.62671677401946
218.63697343564547 189.0038414258381 71.16117131277389
224.38361027850212 194.5016894718505 62.40878784033624
207.25051483685044 222.46984394729085 65.30337133424594
207.50211027951363 193.9946787356112 54.70483439749429
198.5350117255437 215.24729355974733 60.75760043582488
196.89523629382447 216.72431183897012 65.10985641816767
205.74956711653445 204.7892432875436 51.028141696820796
226.68724203405324 198.09564259086056 79.25541938592136
199.07385196079744 192.03845548866647 73.29074563076941
205.82022476531859 191.1148059856726 60.24868779748584
205.83359324522564 220.11579494283072 60.62353260679428
207.98698904760658 205.41620039365785 86.50452388124093
209.83483918512522 185.0992059865611 68.72278120995131
221.53999997660935 192.00424160909012 63.15677664547376
199.79492818880044 220.73998552930342 74.74536648047199
214.22209063732006 187.92212803653786 80.82304479498875
217.55167524666874 207.0320251277978 86.37960308425282
225.60765086792983 197.88400175681076 81.19275555308707
222.55757450911045 191.48063404977776 70.32199630162519
209.86651631776644 188.28707585731888 82.13026061318641
200.81681389789105 191.61101370389017 65.9451844635331
223.9845279771581 209.71668783951205 66.53455259590478
225.5003414576065 210.58225730471494 74.68264689774402
195.05172679296294 214.18348315042994 68.89059807480089
207.41342553849094 221.2664009760958 78.95429260410894
214.61896659976614 187.02313602557382 77.08629239734705
226.57671992383504 206.22577434957435 69.69743094518182
207.02762190054148 209.24530345027105 85.10770371904856
220.6876134761721 209.26819033573616 57.108708762910986
196.8226521329666 211.2662037834059 78.73521345063838
215.02413018062367 217.5633016218738 73.77986748958264
213.960722748755 188.1237849165516 62.769415000320876
211.07068971431892 184.98648719534106 69.78455026568585
217.34274141033612 203.60456605161903 51.1423680883084
215.67673304863288 204.73967968008435 50.05685779853694
208.43347643650648 215.40041731364218 82.07009821634688
194.30862786243506 210.1040840826971 75.52414031822892
206.26543416542162 188.34554350146425 81.41708219599731
209.07187455035415 184.97195107610816 71.96510902548115
212.97922450304927 213.1588625576318 54.921440080053195
227.2043060783464 203.39230828596698 65.91834082761982
198.97821076746806 211.28790015331938 58.46607411298941
217.20606794515052 188.17250231869588 69.05736662322934
223.44351429631678 210.0166413421523 65.02773182335393
197.75820572559175 218.81664910592997 70.70924605525092
207.07059175324835 187.17907625737797 65.08533691326501
199.83953003158695 220.99351398896388 67.337962778193
201.78219926358454 195.17206515045186 82.60591304932805
207.0484017342834 202.52506437626494 86.60945397460497
219.22197577084953 200.12728778198152 86.00241212129649
220.96895981762762 209.0071834150927 84.15382444279147
200.0380935569473 203.96650206508713 81.19779028631184
220.11172993718918 189.87416735394504 73.51854347671836
224.5912994490439 195.59631928614522 60.82854144709742
195.53829161066977 214.91146310281692 70.81685114708877
225.92765161557907 202.1745393032027 81.53841921175979
203.8417237631285 192.65834533074704 60.4719940994714
216.6903770966981 210.31225329463203 54.38184347470856
206.90967126476136 207.26167172453412 51.469698385300745
213.1888048814902 185.82512626667793 69.38339860718663
201.92087726884318 189.06256936266374 76.70637947620745
206.2495025146209 197.36691309508498 85.92442705517526
216.95661401828394 211.54172840893028 83.83603547944767
208.94803615165424 186.44410954317792 65.3143944041279
224.0308701364689 204.47882116572103 57.64813409305027
202.39139018350085 196.9773282244897 83.61475385498339
219.1317889898938 213.71741263750644 78.84296691873682
213.4983358756657 207.29489351985302 49.81713822705269
215.3403908675072 216.37081637589256 63.042972988325566
208.14295933478297 222.78949862535524 67.80342070803225
214.4014580287801 189.15397292340907 82.55208280442973
214.70697934738794 217.34683159753192 75.97519007473755
225.2726532124227 206.2333719991386 63.165459515579386
212.1058427268504 185.08303969923395 71.39127393324432
207.24019068028747 185.8084782527396 74.48654755923218
196.29221138249312 204.15258295879394 72.71271953412663
195.88936331169538 206.92717506078228 64.59460121785418
220.09120975153562 195.9002755232944 84.32130201230262
207.59657653427638 186.29635005836994 66.8689357996364
219.31520876997735 192.26017179636463 58.19294539113064
228.04262419143186 198.3805649210872 71.1726119035166
225.46422635425046 194.58852966411732 74.74024412145572
220.55598574487726 207.9637810672413 55.71205936570381
220.62704673594905 213.4654291598385 67.00141911158478
199.57133894387158 202.13770414589862 60.014526606563926
216.11304423131293 216.60368028027756 72.31944626272666
201.46063556315175 202.56969884698307 56.16103612720867
201.71977928907103 217.9644991235692 59.60730819851262
204.4123416973101 190.77204249489233 61.95637657631027
205.24366501627662 211.4573323558381 83.36967006195779
216.71297130470967 205.4153314157819 50.842264267208
213.3209536759162 214.19904785199222 56.80305843652142
210.55363199634988 212.34779462569773 84.04366162687488
204.73163542816025 213.43733670642754 82.52995044973181
224.89635030677485 194.35584629188503 76.59544925346228
215.8016460833128 188.7429866227359 63.220851933184896
202.438407749364 193.13421069192924 61.30170638433319
212.03522253742318 197.56470582909404 50.58492978245574
223.67926068345938 211.85253540544414 76.4077855034293
221.53548457519716 212.81649501903286 77.82804360037605
199.176447288057 205.61173647795067 58.474310884756676
194.882313532142 213.31334687928933 66.9725466839107
214.80026611555184 207.1514486005508 86.80171473060165
207.74357433559177 189.4576795426094 82.62089113123014
221.0997949611851 204.57051196409103 53.76492193174902
206.9834539756022 199.21196376725555 50.650141948483174
227.95002129360483 200.36010207768106 71.61868025601963
218.07099261221683 206.24347304198764 52.01966372748194
204.32262071108573 215.23201184329582 81.68149609470667
224.1462447982835 211.50410376673483 72.6575177616343
194.4178329458063 207.98903079742357 69.15751370255661
200.82967072427923 218.638286147532 61.38414844804099
210.47710516610607 184.70189283852685 71.29809457553195
216.89816793818753 188.78901057201114 79.19309205379888
202.27601899742166 190.98621890036793 64.63922046704229
227.02571652164104 205.31440211419357 71.58780672885742
220.53338891137543 213.76286091046447 73.95406114484979
203.6213058443346 196.54918333670463 84.38006267563325
212.0891749303984 193.83799926723972 53.33565850647303
215.58521217138875 187.89857185858082 78.83797132930968
209.44278366410484 185.66322148827933 67.18482359158821
221.0069344117798 199.9486598189574 53.587426896042906
201.1315464853473 196.75899903094597 59.87142794997857
217.42183574201513 189.00284290513306 64.7080971344525
224.76984483515267 200.1358847470798 82.81806921897734
199.06127588119074 200.81850916700174 62.039909043522144
217.46207171455987 201.91557986507377 86.82025063627847
194.51740160412496 207.4383329437853 74.4416490113446
217.25137255333485 195.12159875202096 85.8264896495006
204.90065568912632 189.36516816273937 63.4697122178514
216.55354250304353 214.12068277248886 59.39150107164422
203.1957607988007 187.81644344210832 71.24737012601432
200.6222452470861 200.63384130677503 58.46393810579503
223.80382745025108 208.27786193873925 61.89770358200767
202.66584828328027 191.9831176003242 62.55882396440289
211.6589152548817 191.50460635197967 56.40975609683205
223.21941176287518 202.0513697869831 55.82008873228273
214.83261520201822 217.3682707672478 65.91362390576224
197.9615037350926 194.05280709821886 69.78575779817119
195.85012948212528 212.4542088427252 77.06550804802771
204.5458772472555 188.77819704577297 81.07983823523422
219.69464169939883 210.60312759904153 83.55646814070525
210.718088630009 213.58838993170434 54.8785114505339
210.31177715890442 191.60892494399732 84.6221425063861
218.67095765701498 207.6705439883065 53.400593321440866
199.64944577447545 196.73625314391452 80.19959484618835
212.51797611599878 191.37539653149005 84.3328664063192
226.98217736160132 206.1259956019398 75.09949557342132
211.18448055638436 190.47376755245762 83.99769142308193
205.49468485899874 192.67962373288418 58.42868677575821
201.5466741555019 198.65563635505458 82.68639849542629
206.4130081187575 211.89298233152616 53.50100038694333
217.71122811722208 198.54177266144117 86.19988413954904
222.57198570257907 209.5301389362814 61.271901441487515
208.53806851001823 205.6215991467685 50.00347281317233
195.63593251152264 214.05083420842644 64.10211233447986
215.89651179020717 187.83682723969793 77.14766489507952
228.02117854427314 200.01115144837257 67.66287197711505
207.81894114617737 185.47345391828927 70.7742736518362
207.12425785711395 192.64031373624917 56.68078509148489
216.50543489037653 195.3074626658362 52.87380988503548
197.37129690358847 201.31070612670854 73.18087504971663
222.01554339472588 203.53640866455748 85.06931776135303
199.52475832543496 200.56153340334023 79.77523979564351
210.97739290710933 185.9960685104317 65.75977364426438
216.95112981129287 204.32952507072687 87.00845760284217
195.11606732025214 213.83664187144998 73.52828803234061
218.70946194568404 189.10472859514263 67.05102680741376
226.49508645990898 208.81725888257208 72.76795660089701
205.56818211653493 186.8216156431549 69.86215207381834
210.3608670879824 217.54410365149596 59.68862939724954
212.12868798510982 217.15286520865354 79.49105009220246
221.61973297524455 193.60031763733485 81.21394253404597
208.25254693959153 215.30656497957204 55.795333939885076
220.45545783111544 190.09952609003173 68.91865864130746
224.53995588391243 206.7076457285967 81.88430477118939
209.83640565548018 189.9614739099143 83.59734600144033
212.39104735513467 219.93677508080444 67.8978809629394
221.92044821653977 206.818735597703 56.816083197432796
218.74597823139322 189.74332821126592 77.69895113704504
200.28219013936624 209.41074679753294 81.89780687206479
200.62022077981993 198.59186693914205 59.17674573195253
200.92226121977765 191.08804349140505 67.95550736256871
225.51889462805016 202.3458794579949 59.10947172105663
216.37308129030288 193.31191651212103 54.97869749888888
202.93155787623988 187.6844948351226 76.12638417139355
213.95190404840318 195.58227793313011 51.631838921783995
213.03652244623052 188.97967074629875 60.7727628963417
210.40835875253248 217.97410112839682 79.68241141390335
202.61547386492884 192.30293918219073 82.23865074549448
215.76591241363295 196.54900303109818 51.56378328631852
220.85645965084998 212.82571839679082 65.21847968091623
198.654620528454 192.77868180460362 71.9059702817933
204.11335338782484 200.2318682954517 85.13072837494384
206.89041479399407 213.9811600291104 82.52427544850859
203.58921811818936 195.257143941713 57.060171553792486
210.84022970675738 188.82731858518875 60.46599493442486
204.28876580031988 202.2538728177106 85.46440138701793
213.57862326977272 218.02345644454604 63.535611817477694
200.82314635518273 200.46257537340944 81.81563275334246
207.471643777471 186.18582050343275 78.00895296432167
223.92717184697523 202.5358040394798 83.2816355672808
220.89228501914562 190.2480734624771 71.40758981146986
219.07099862941357 199.32518986451024 52.220747584657815
223.52451742012786 210.47360886846315 81.11155054816643
197.4732872073236 217.54630286530735 74.37000860444157
194.8065709554138 212.33283071963461 65.05126688608775
219.58909361897133 212.3213413890994 81.26276217076514
210.89508626602228 210.5956566944109 51.988438566796226
203.91621742158924 198.25141486022224 84.88315228422432
203.42145804680587 194.98134027793193 83.94502585332103
212.56669820758887 216.0003288206467 58.762298576397576
227.06805069614663 202.89870895950727 64.02101032855525
215.01436325616717 212.24862433227085 55.05678523448402
205.27294421994316 198.53592096630214 52.69130629642219
217.9668139497358 212.37016279674748 57.84283644316388
209.14351052033996 191.39843471243273 56.77047625009098
209.0535342432009 188.92877710366298 60.65063735650387
226.37852700823464 196.3428146353108 75.41508825766951
211.26888180551128 185.97339596181098 78.98112628107862
206.42112818849995 186.5281382014485 68.37961119165239
204.4194558028681 208.70617374869917 84.15287898106502
199.60794980328444 203.79663309652017 59.339951360423896
193.70434438874364 209.29683923813164 73.55084129729855
215.70764677437123 215.4359238262416 77.96909244067372
209.32347732297376 184.79775397804588 70.19238824685345
203.16253449338538 187.84731163404794 77.75170393146806
220.86735406691852 192.52989365102349 60.37698308119321
222.3117504101721 195.62057851101338 57.294758357442106
224.35916674430985 193.48134541394626 66.48676974690932
196.21714416361462 209.38896097983394 77.81022407750991
206.13079308575675 221.99353986199324 78.7386688173644
225.49173839270998 207.53332698716434 67.13102245141636
211.65532574773093 200.60302774724084 87.28620936448867
222.18294986714244 200.220710379781 84.64033052846212
207.15484459718215 223.46849948534935 74.53930212983964
207.9985518269415 187.72570309046384 81.17831903115939
206.07328029676495 189.4833385771517 61.759467559522065
201.89035376487348 222.56644960817977 76.1219564041455
215.9151856798355 212.97181459661587 82.63174501815232
198.47944055080964 216.53223555534413 62.2116258443729
198.20597975879122 202.88704238094698 63.09543797044003
205.37868764329085 219.1231692957602 59.53087687578825
216.6044332324762 193.06133681030175 84.46415950756791
199.97152098225428 220.42096953368025 65.44649013157492
215.8135041128098 208.96601659215725 85.92678477073818
219.3670452498768 211.14975376901265 58.36986274108353
201.0583984120971 189.80882054514086 74.96353417669695
197.66479177855877 195.69815755500917 70.25829527827582
205.88087508905744 187.1862733387906 66.65865359136109
223.0494216099963 211.7522025476477 78.41554899556714
201.36117449130822 220.73135308021097 63.40444709606886
217.44353812985423 197.51928141036876 51.900941264801
201.44891522119667 190.5460536652574 77.96259579759277
203.75665407485442 189.4776675664092 65.3346871121521
193.87560919818196 208.4324046720488 71.3512679490998
211.77455852421133 187.7366115773824 62.23636926806808
195.797587141717 205.72262664140695 67.72714144029814
225.88481126429832 198.20813181605467 60.121252192223565
200.5136068919955 203.14271822039083 57.704723402468204
197.0987216502202 205.30832761146863 63.10255733843945
218.9863431472654 214.37232474524401 66.65953499654877
212.00229939630512 202.65317751094366 48.99743657258016
219.67396993152795 192.93606467265724 82.69583601316045
204.65030351026948 217.84294987570024 80.95836152948573
205.60068628767084 186.45450978601477 73.20148339172685
209.60157303557645 196.81363512665766 50.8739924387621
200.65934244566887 195.68313551432612 61.8465082419734
204.61633126019416 216.94347582031494 57.41393642059934
198.17002512094402 207.39463698148214 59.15397293963357
198.3926507090869 216.07232345040524 78.30177124475576
209.91919121735083 206.12402114734147 86.73546368237939
213.1949185593288 188.29105152122122 81.98743823396525
208.00421572988228 193.75090882281174 85.19804915690398
204.7711800952435 186.88134254392205 71.36914824601472
204.3074294256771 222.76342765685325 65.07363476686484
197.849230527694 204.02483631590493 77.82887201544108
213.32446010077683 209.3225554442382 86.18420004771498
212.59716676954662 186.01241984396032 77.0391625541446
198.4077572677465 201.09410680772874 64.02515299551318
200.37761081767027 190.63138752713425 73.30922229486544
205.5998463820972 206.83637648911085 85.5009945543985
POLYGONS 1748 6992
3 196 98 312
3 842 196 312
3 196 404 98
3 404 196 226
3 300 312 98
3 98 4 300
3 4 755 300
3 404 211 8
3 226 196 842
3 8 98 404
3 404 141 211
3 42 211 141
3 271 8 0
3 271 4 8
3 5 6 54
3 271 383 4
3 4 383 755
3 42 182 7
3 42 470 182
3 226 523 141
3 8 211 0
3 0 211 5
3 42 5 211
3 470 42 523
3 42 7 5
3 141 523 42
3 226 842 564
3 260 54 9
3 7 201 6
3 141 404 226
3 523 226 564
3 98 8 4
3 793 757 166
3 5 54 0
3 516 120 44
3 162 426 158
3 842 426 238
3 602 523 786
3 523 602 470
3 566 555 238
3 452 559 585
3 2 841 501
3 312 426 842
3 238 732 842
3 842 732 564
3 874 2 602
3 120 755 383
3 120 486 755
3 568 793 744
3 568 485 793
3 54 382 9
3 249 489 870
3 158 467 162
3 166 739 290
3 793 166 744
3 44 498 870
3 870 498 249
3 158 426 312
3 382 739 166
3 568 314 485
3 641 659 290
3 290 659 744
3 271 260 383
3 260 498 383
3 444 275 281
3 870 264 44
3 201 739 6
3 182 470 2
3 383 498 120
3 120 498 44
3 3 238 555
3 3 732 238
3 874 841 2
3 555 310 243
3 384 440 491
3 499 544 444
3 544 275 444
3 243 518 555
3 555 518 3
3 499 135 783
3 135 384 491
3 444 462 499
3 2 470 602
3 0 54 271
3 54 260 271
3 544 847 275
3 249 260 9
3 249 498 260
3 566 551 310
3 310 555 566
3 3 452 732
3 732 452 564
3 370 614 243
3 162 566 426
3 426 566 238
3 319 874 585
3 614 449 776
3 6 739 382
3 6 382 54
3 486 300 755
3 452 3 559
3 3 518 559
3 602 786 585
3 783 481 499
3 481 544 499
3 393 378 642
3 642 378 364
3 393 507 378
3 378 507 364
3 725 293 436
3 293 237 436
3 510 243 310
3 510 370 243
3 641 804 659
3 393 655 507
3 393 803 655
3 655 803 371
3 739 421 290
3 510 195 370
3 510 861 195
3 481 194 544
3 439 228 194
3 201 7 439
3 256 776 529
3 529 776 449
3 436 237 319
3 319 237 874
3 293 410 237
3 203 262 421
3 518 776 559
3 559 776 256
3 370 195 728
3 614 708 449
3 728 402 708
3 614 518 243
3 614 776 518
3 481 783 262
3 786 523 564
3 371 804 440
3 440 804 491
3 551 162 467
3 551 566 162
3 384 247 440
3 440 247 867
3 384 477 247
3 247 477 867
3 466 215 467
3 466 158 375
3 466 467 158
3 300 540 375
3 300 486 540
3 486 189 540
3 804 412 491
3 848 402 723
3 237 841 874
3 739 201 421
3 421 201 203
3 228 501 847
3 290 421 641
3 421 262 641
3 868 725 254
3 850 625 386
3 166 290 744
3 275 654 820
3 291 164 609
3 412 262 783
3 297 406 668
3 659 711 803
3 803 711 371
3 659 804 711
3 711 804 371
3 794 524 149
3 149 524 317
3 794 406 524
3 813 149 317
3 517 272 551
3 272 861 510
3 481 203 194
3 481 262 203
3 794 149 155
3 308 573 850
3 573 790 850
3 254 763 868
3 763 248 868
3 386 146 758
3 758 146 190
3 613 302 291
3 149 813 302
3 2 228 182
3 402 682 723
3 182 439 7
3 182 228 439
3 308 758 657
3 758 714 657
3 223 209 251
3 194 203 439
3 205 144 573
3 372 613 291
3 372 770 613
3 654 841 410
3 410 841 237
3 203 201 439
3 757 382 166
3 830 697 631
3 794 155 283
3 544 194 847
3 847 194 228
3 44 264 516
3 352 454 406
3 517 719 537
3 779 410 218
3 218 410 293
3 757 489 249
3 387 861 716
3 387 195 861
3 585 786 452
3 452 786 564
3 410 779 654
3 654 779 820
3 501 841 654
3 6 5 7
3 529 326 394
3 394 326 725
3 540 407 375
3 375 407 466
3 375 312 300
3 375 158 312
3 779 277 820
3 277 352 367
3 657 205 308
3 205 573 308
3 790 781 850
3 436 319 394
3 406 454 668
3 558 314 329
3 558 424 525
3 283 352 794
3 352 406 794
3 758 308 386
3 386 308 850
3 332 305 151
3 88 872 257
3 164 813 872
3 186 206 304
3 626 667 706
3 843 639 672
3 843 453 639
3 526 753 810
3 526 743 753
3 753 743 376
3 728 690 650
3 650 690 387
3 728 195 690
3 690 195 387
3 650 743 603
3 603 743 526
3 501 228 2
3 507 261 364
3 186 251 261
3 264 721 516
3 516 669 120
3 516 417 669
3 669 417 189
3 205 530 144
3 530 453 723
3 319 585 256
3 256 585 559
3 831 212 144
3 814 584 843
3 449 552 529
3 552 326 529
3 874 602 585
3 234 632 307
3 307 632 706
3 667 269 588
3 567 814 672
3 567 549 814
3 668 859 225
3 456 417 849
3 146 653 190
3 653 269 667
3 849 350 311
3 311 350 359
3 849 411 350
3 350 411 359
3 630 323 411
3 411 323 760
3 630 733 323
3 714 606 567
3 190 626 606
3 269 513 305
3 305 513 151
3 282 525 334
3 683 349 392
3 706 632 819
3 819 632 752
3 311 167 492
3 307 588 257
3 257 588 88
3 854 670 553
3 854 502 670
3 670 502 492
3 645 485 558
3 485 314 558
3 821 423 673
3 645 282 489
3 489 282 870
3 69 873 215
3 215 873 517
3 873 719 517
3 88 588 305
3 305 588 269
3 568 791 314
3 393 642 791
3 225 632 234
3 716 473 387
3 317 347 257
3 234 307 347
3 347 307 257
3 668 454 859
3 859 454 218
3 476 296 364
3 364 296 642
3 476 605 296
3 296 605 642
3 659 233 744
3 744 233 568
3 659 803 233
3 233 803 568
3 706 667 307
3 667 588 307
3 706 819 626
3 632 225 752
3 283 483 289
3 283 155 483
3 483 155 830
3 248 549 752
3 672 814 843
3 485 172 793
3 485 645 172
3 172 645 489
3 251 169 223
3 223 169 304
3 251 186 169
3 169 186 304
3 225 859 248
3 848 343 552
3 522 837 373
3 861 537 716
3 716 537 775
3 525 645 558
3 525 282 645
3 631 734 289
3 734 462 444
3 499 462 135
3 723 453 848
3 848 453 343
3 491 783 135
3 491 412 783
3 262 412 641
3 412 804 641
3 655 493 507
3 854 400 835
3 297 234 347
3 347 317 297
3 814 549 763
3 763 549 248
3 187 170 438
3 170 646 395
3 333 574 775
3 775 574 716
3 333 473 574
3 574 473 716
3 636 413 761
3 761 413 717
3 413 428 717
3 69 466 407
3 69 215 466
3 513 269 653
3 402 848 708
3 761 357 768
3 714 672 657
3 254 584 763
3 763 584 814
3 407 540 388
3 540 189 388
3 719 306 537
3 537 306 775
3 719 678 306
3 120 669 486
3 486 669 189
3 190 714 758
3 190 606 714
3 215 517 467
3 467 517 551
3 678 816 853
3 853 816 694
3 678 400 816
3 816 400 694
3 352 277 454
3 516 721 417
3 417 721 849
3 190 653 626
3 626 653 667
3 857 480 425
3 435 579 480
3 282 431 870
3 870 431 264
3 282 334 431
3 431 334 264
3 752 567 819
3 636 328 513
3 513 328 151
3 636 594 328
3 328 594 151
3 549 567 752
3 594 796 646
3 646 796 395
3 594 768 796
3 372 742 770
3 770 742 737
3 372 740 742
3 742 740 737
3 793 172 757
3 172 489 757
3 373 475 664
3 664 475 372
3 373 740 475
3 475 740 372
3 151 337 332
3 646 246 337
3 522 241 837
3 837 241 425
3 522 857 241
3 241 857 425
3 248 752 225
3 249 9 757
3 9 382 757
3 314 791 329
3 393 787 803
3 803 787 568
3 393 791 787
3 787 791 568
3 436 394 725
3 425 722 837
3 837 722 223
3 722 209 223
3 529 394 256
3 394 319 256
3 218 293 490
3 664 437 373
3 373 437 522
3 664 351 437
3 437 351 522
3 304 420 223
3 373 837 420
3 420 837 223
3 728 708 370
3 370 708 614
3 248 859 868
3 859 490 868
3 343 584 552
3 552 584 326
3 713 750 217
3 217 750 332
3 713 619 750
3 750 619 332
3 552 449 848
3 449 708 848
3 289 281 367
3 281 275 820
3 770 697 613
3 613 697 830
3 477 770 737
3 477 697 770
3 654 847 501
3 654 275 847
3 357 433 768
3 823 361 433
3 646 337 594
3 337 151 594
3 187 246 170
3 170 246 646
3 605 152 875
3 875 152 621
3 605 535 152
3 152 535 621
3 567 672 714
3 662 497 191
3 366 208 497
3 186 143 206
3 206 143 867
3 186 493 143
3 143 493 867
3 761 139 636
3 636 139 594
3 761 768 139
3 139 768 594
3 138 380 812
3 513 563 636
3 146 428 563
3 281 820 367
3 820 277 367
3 672 639 657
3 657 639 205
3 423 577 325
3 325 577 717
3 737 133 206
3 206 133 304
3 737 740 133
3 133 740 304
3 279 522 351
3 871 330 696
3 696 330 469
3 380 688 812
3 438 360 688
3 329 424 558
3 395 520 170
3 170 520 438
3 395 360 520
3 520 360 438
3 435 766 174
3 611 432 435
3 435 432 579
3 611 718 432
3 547 128 823
3 823 128 361
3 547 163 128
3 128 163 361
3 217 773 279
3 279 773 187
3 217 246 773
3 773 246 187
3 626 819 606
3 606 819 567
3 357 577 607
3 187 285 279
3 285 766 857
3 297 668 234
3 668 225 234
3 649 795 718
3 781 790 478
3 790 339 478
3 251 591 261
3 821 227 423
3 423 227 577
3 821 607 227
3 227 607 577
3 339 526 810
3 339 212 526
3 573 811 790
3 573 144 811
3 811 144 212
3 88 619 872
3 872 619 164
3 186 427 493
3 493 427 507
3 186 261 427
3 427 261 507
3 440 345 371
3 493 655 345
3 345 655 371
3 144 530 831
3 476 364 259
3 493 345 867
3 867 345 440
3 737 299 477
3 477 299 867
3 737 206 299
3 299 206 867
3 697 183 631
3 257 872 317
3 317 872 813
3 317 524 297
3 297 524 406
3 423 583 673
3 673 583 274
3 423 459 583
3 583 459 274
3 209 561 251
3 251 561 591
3 209 309 561
3 561 309 591
3 149 302 155
3 517 537 272
3 272 537 861
3 682 650 603
3 603 831 682
3 743 506 376
3 506 387 473
3 551 272 310
3 310 272 510
3 734 444 281
3 281 289 734
3 376 235 597
3 235 808 401
3 462 183 135
3 135 183 384
3 127 729 810
3 597 753 376
3 553 125 854
3 553 369 125
3 547 419 163
3 547 531 419
3 419 531 586
3 831 603 212
3 212 603 526
3 453 530 639
3 639 530 205
3 768 433 612
3 612 433 361
3 362 620 570
3 620 124 150
3 268 110 519
3 519 110 553
3 268 369 110
3 110 369 553
3 453 843 343
3 843 584 343
3 545 105 221
3 221 105 185
3 545 171 105
3 105 171 185
3 295 56 821
3 131 607 56
3 56 607 821
3 441 100 224
3 224 100 545
3 441 171 100
3 100 171 545
3 777 321 379
3 379 321 806
3 157 95 710
3 790 811 339
3 811 212 339
3 153 812 117
3 472 250 153
3 153 250 812
3 472 138 250
3 250 138 812
3 624 58 180
3 58 97 180
3 754 548 780
3 780 548 712
3 548 460 712
3 373 420 740
3 740 420 304
3 729 109 810
3 810 109 339
3 729 478 109
3 109 478 339
3 153 700 472
3 305 332 88
3 88 332 619
3 478 484 781
3 781 484 592
3 484 459 592
3 388 851 502
3 502 851 492
3 388 456 851
3 851 456 492
3 101 82 508
3 710 91 82
3 332 81 217
3 217 81 246
3 332 337 81
3 81 337 246
3 635 369 268
3 174 273 435
3 435 273 611
3 174 380 273
3 273 380 611
3 611 265 718
3 718 265 649
3 611 582 265
3 265 582 649
3 278 286 759
3 759 286 610
3 278 116 286
3 286 116 610
3 472 188 138
3 138 188 582
3 472 92 188
3 101 624 80
3 407 590 69
3 69 590 502
3 407 388 590
3 590 388 502
3 677 107 78
3 605 214 642
3 329 791 214
3 214 791 642
3 417 456 189
3 189 456 388
3 395 76 360
3 76 117 360
3 831 723 682
3 831 530 723
3 122 181 542
3 138 601 380
3 380 601 611
3 138 582 601
3 601 582 611
3 806 634 528
3 528 634 362
3 806 84 634
3 634 84 362
3 122 741 150
3 546 92 741
3 208 99 255
3 255 99 148
3 577 569 717
3 717 569 761
3 577 357 569
3 569 357 761
3 582 74 649
3 74 92 546
3 688 380 174
3 174 438 688
3 130 616 348
3 348 616 122
3 130 181 616
3 616 181 122
3 69 835 873
3 873 835 719
3 287 680 346
3 346 680 853
3 287 374 680
3 680 374 853
3 713 351 609
3 609 351 664
3 217 707 713
3 713 707 351
3 217 279 707
3 707 279 351
3 456 704 492
3 492 704 311
3 456 849 704
3 704 849 311
3 279 285 522
3 522 285 857
3 592 689 625
3 717 428 689
3 689 428 625
3 309 263 591
3 469 259 263
3 263 259 591
3 710 184 91
3 91 184 107
3 476 865 605
3 605 865 535
3 476 330 865
3 865 330 535
3 387 506 650
3 650 506 743
3 87 792 1
3 662 142 792
3 792 142 1
3 630 817 721
3 721 817 849
3 630 411 817
3 817 411 849
3 796 768 612
3 612 395 796
3 295 822 284
3 284 822 504
3 295 471 822
3 822 471 504
3 650 682 728
3 728 682 402
3 666 727 159
3 612 361 76
3 76 395 612
3 146 386 428
3 386 625 428
3 146 563 653
3 653 563 513
3 291 813 164
3 291 302 813
3 850 781 625
3 781 592 625
3 677 521 107
3 107 521 91
3 677 136 521
3 521 136 91
3 423 340 459
3 459 340 592
3 423 325 340
3 340 325 592
3 609 164 713
3 164 619 713
3 729 324 478
3 274 459 324
3 180 232 118
3 118 232 771
3 180 97 232
3 232 97 771
3 366 121 136
3 121 508 136
3 357 119 433
3 433 119 823
3 357 607 119
3 107 173 129
3 107 184 173
3 132 756 795
3 756 116 278
3 374 333 726
3 726 333 775
3 828 718 795
3 435 480 766
3 766 480 857
3 134 72 106
3 106 72 871
3 134 210 72
3 72 210 871
3 326 584 254
3 808 699 401
3 333 294 473
3 365 294 333
3 722 425 165
3 165 209 722
3 325 717 689
3 689 592 325
3 471 554 673
3 673 554 821
3 471 295 554
3 554 295 821
3 209 746 309
3 309 746 643
3 209 165 746
3 746 165 643
3 284 647 295
3 122 762 348
3 348 762 124
3 122 150 762
3 762 150 124
3 579 161 165
3 165 161 643
3 579 828 161
3 161 828 643
3 469 263 759
3 454 277 218
3 218 277 779
3 591 827 261
3 261 827 364
3 591 259 827
3 827 259 364
3 218 490 859
3 868 490 725
3 725 490 293
3 460 324 729
3 473 789 506
3 506 789 376
3 473 294 789
3 789 294 376
3 609 866 291
3 291 866 372
3 609 664 866
3 866 664 372
3 155 302 830
3 830 302 613
3 289 483 631
3 631 483 830
3 579 671 480
3 480 671 425
3 579 165 671
3 671 165 425
3 854 125 400
3 400 125 694
3 575 727 408
3 478 324 484
3 484 324 459
3 725 326 254
3 719 447 678
3 678 447 400
3 719 835 447
3 447 835 400
3 636 563 413
3 413 563 428
3 231 405 846
3 846 405 754
3 231 303 405
3 405 303 754
3 287 543 365
3 543 808 365
3 374 726 853
3 853 726 678
3 376 294 235
3 306 678 726
3 726 775 306
3 729 403 460
3 460 403 712
3 729 127 403
3 403 127 712
3 835 200 854
3 854 200 502
3 835 69 200
3 200 69 502
3 810 198 127
3 127 198 597
3 810 753 198
3 198 753 597
3 767 176 736
3 562 691 860
3 562 213 691
3 352 283 367
3 283 289 367
3 438 137 187
3 438 174 137
3 137 174 766
3 712 127 102
3 102 127 597
3 754 303 778
3 631 183 734
3 734 183 462
3 183 571 384
3 384 571 477
3 183 697 571
3 571 697 477
3 471 458 504
3 504 458 231
3 471 303 458
3 458 303 231
3 508 82 136
3 136 82 91
3 104 665 160
3 160 665 624
3 104 80 665
3 665 80 624
3 130 177 95
3 95 177 710
3 130 184 177
3 177 184 710
3 844 495 181
3 844 798 495
3 495 798 446
3 116 482 610
3 610 482 593
3 116 644 482
3 482 644 593
3 409 77 178
3 446 798 86
3 727 71 159
3 99 78 71
3 649 89 795
3 795 89 132
3 649 123 89
3 89 123 132
3 622 70 840
3 840 70 385
3 622 538 70
3 70 538 385
3 460 67 324
3 324 67 274
3 460 778 67
3 67 778 274
3 777 550 321
3 321 550 408
3 777 658 550
3 550 658 408
3 180 118 66
3 610 64 759
3 759 64 469
3 610 696 64
3 64 696 469
3 157 660 79
3 79 660 178
3 157 409 660
3 660 409 178
3 97 121 731
3 731 121 366
3 759 720 278
3 278 720 643
3 720 309 643
3 727 666 408
3 408 666 321
3 136 855 366
3 366 855 208
3 136 677 855
3 855 677 208
3 77 833 178
3 833 134 106
3 702 858 494
3 702 93 858
3 83 560 79
3 79 560 844
3 83 798 560
3 560 798 844
3 129 541 124
3 124 541 348
3 129 173 541
3 541 173 348
3 846 797 231
3 463 715 797
3 797 715 231
3 338 242 846
3 673 252 471
3 471 252 303
3 673 274 252
3 1 168 87
3 570 700 62
3 62 700 586
3 808 61 365
3 365 61 294
3 808 235 61
3 61 235 294
3 73 60 191
3 191 60 662
3 73 142 60
3 60 142 662
3 649 74 123
3 123 74 546
3 348 703 130
3 130 703 184
3 348 173 703
3 703 173 184
3 134 487 429
3 236 748 207
3 535 65 621
3 621 65 244
3 535 210 65
3 65 210 244
3 446 769 123
3 123 769 132
3 446 86 769
3 769 86 132
3 142 764 1
3 92 74 188
3 188 74 582
3 508 121 58
3 58 121 97
3 593 839 610
3 871 696 839
3 839 696 610
3 852 647 284
3 83 735 644
3 644 735 593
3 83 358 735
3 735 358 593
3 508 679 101
3 101 679 624
3 508 58 679
3 679 58 624
3 329 214 875
3 875 214 605
3 116 496 644
3 132 86 496
3 496 86 644
3 187 137 285
3 285 137 766
3 557 738 538
3 538 738 258
3 557 701 738
3 738 701 258
3 710 578 157
3 101 80 578
3 864 448 464
3 464 448 494
3 864 63 448
3 448 63 494
3 77 818 104
3 104 818 80
3 77 409 818
3 818 409 80
3 630 824 733
3 334 344 824
3 309 720 263
3 263 720 759
3 85 651 258
3 385 538 651
3 651 538 258
3 360 675 688
3 688 675 812
3 360 117 675
3 675 117 812
3 365 434 287
3 287 434 374
3 365 333 434
3 434 333 374
3 153 117 355
3 355 117 163
3 476 331 330
3 330 331 469
3 476 259 331
3 331 259 469
3 346 270 287
3 441 600 270
3 210 193 871
3 871 193 330
3 210 535 193
3 193 535 330
3 756 828 795
3 621 244 683
3 871 839 106
3 839 593 106
3 622 575 772
3 772 676 622
3 622 676 538
3 772 557 676
3 676 557 538
3 463 280 715
3 202 175 531
3 806 528 175
3 175 528 531
3 178 833 358
3 570 62 362
3 362 62 528
3 463 242 627
3 99 71 148
3 852 284 327
3 117 266 163
3 163 266 361
3 117 76 266
3 266 76 361
3 159 615 826
3 826 615 129
3 148 147 840
3 840 147 622
3 148 575 147
3 147 575 622
3 255 114 191
3 860 102 401
3 565 730 327
3 401 113 235
3 235 113 597
3 401 102 113
3 113 102 597
3 528 751 531
3 531 751 586
3 528 62 751
3 751 62 586
3 108 103 736
3 736 103 767
3 108 468 103
3 103 468 767
3 295 647 56
3 647 55 115
3 115 55 202
3 647 852 55
3 55 852 202
3 780 784 754
3 754 784 846
3 780 338 784
3 784 338 846
3 134 53 487
3 487 53 77
3 134 833 53
3 53 833 77
3 748 51 600
3 600 51 192
3 748 220 51
3 51 220 192
3 220 50 562
3 562 50 213
3 220 856 50
3 50 856 213
3 463 797 242
3 797 846 242
3 677 785 208
3 208 785 99
3 677 78 785
3 785 78 99
3 772 500 658
3 658 500 408
3 772 575 500
3 500 575 408
3 826 204 84
3 84 204 362
3 826 620 204
3 204 620 362
3 208 389 497
3 497 389 191
3 208 255 389
3 389 255 191
3 760 154 411
3 411 154 359
3 760 648 154
3 154 648 359
3 49 199 608
3 129 48 107
3 107 48 78
3 129 615 48
3 48 615 78
3 519 292 268
3 268 292 503
3 519 749 292
3 292 749 503
3 771 18 118
3 18 315 118
3 335 45 514
3 599 43 514
3 514 43 335
3 599 511 43
3 43 511 335
3 545 745 224
3 224 745 108
3 545 468 745
3 745 468 108
3 864 464 41
3 84 39 826
3 826 39 159
3 84 666 39
3 39 666 159
3 242 36 627
3 36 856 356
3 392 774 424
3 424 774 525
3 799 199 33
3 494 32 702
3 702 32 349
3 494 63 32
3 32 63 349
3 802 580 108
3 108 580 224
3 802 207 580
3 580 207 224
3 504 28 284
3 284 28 327
3 504 565 28
3 28 565 327
3 180 27 624
3 624 27 160
3 180 66 27
3 27 66 160
3 662 26 497
3 497 26 366
3 662 731 26
3 26 731 366
3 557 25 701
3 25 280 463
3 772 24 557
3 730 280 24
3 799 23 199
3 199 23 608
3 799 41 23
3 23 41 608
3 63 864 22
3 596 168 94
3 68 21 221
3 221 21 545
3 68 468 21
3 21 468 545
3 525 34 334
3 334 34 344
3 525 774 34
3 34 774 344
3 171 126 185
3 799 301 41
3 41 301 864
3 799 38 301
3 301 38 864
3 47 640 368
3 514 45 640
3 640 45 368
3 334 824 264
3 236 20 748
3 748 20 220
3 20 856 220
3 224 652 441
3 224 207 652
3 652 207 748
3 49 368 45
3 45 199 49
3 715 197 231
3 231 197 504
3 715 565 197
3 197 565 504
3 856 36 213
3 240 19 464
3 608 41 19
3 19 41 464
3 97 318 771
3 771 318 87
3 97 731 318
3 318 731 87
3 63 30 349
3 344 774 30
3 767 576 398
3 398 576 68
3 767 468 576
3 576 468 68
3 856 20 356
3 356 20 236
3 840 17 148
3 148 17 255
3 840 114 17
3 17 114 255
3 258 701 16
3 398 145 59
3 145 29 219
3 344 623 824
3 824 623 733
3 344 22 623
3 623 22 733
3 118 288 66
3 118 315 288
3 288 315 515
3 114 724 191
3 191 724 73
3 114 57 724
3 724 57 73
3 441 652 600
3 600 652 748
3 487 216 429
3 487 765 216
3 160 418 104
3 104 418 765
3 160 156 418
3 418 156 765
3 702 788 93
3 244 429 788
3 287 270 543
3 85 222 320
3 320 222 802
3 85 52 222
3 222 52 802
3 213 338 691
3 691 338 780
3 429 686 134
3 134 686 210
3 429 244 686
3 686 244 210
3 57 685 73
3 244 788 683
3 401 572 860
3 860 572 562
3 401 699 572
3 572 699 562
3 344 30 22
3 22 30 63
3 320 465 736
3 736 465 108
3 320 802 465
3 465 802 108
3 176 685 736
3 236 377 52
3 52 377 802
3 236 207 377
3 377 207 802
3 754 778 548
3 548 778 460
3 712 443 780
3 712 102 443
3 443 102 860
3 52 661 236
3 236 661 356
3 52 16 661
3 661 16 356
3 219 40 604
3 604 40 94
3 503 239 268
3 396 635 239
3 239 635 268
3 31 390 90
3 390 539 90
3 828 140 643
3 643 140 278
3 828 756 140
3 140 756 278
3 644 46 83
3 83 46 798
3 644 86 46
3 46 86 798
3 18 663 315
3 596 35 663
3 760 589 648
3 799 33 589
3 589 33 648
3 258 313 85
3 85 313 52
3 258 16 313
3 313 16 52
3 132 15 756
3 756 15 116
3 132 496 15
3 15 496 116
3 511 617 648
3 648 617 359
3 511 695 617
3 617 695 359
3 90 14 49
3 49 14 368
3 90 539 14
3 14 539 368
3 845 838 47
3 514 640 838
3 838 640 47
3 845 13 705
3 705 13 219
3 845 40 13
3 13 40 219
3 369 635 12
3 12 635 185
3 385 807 57
3 85 320 807
3 799 589 38
3 38 589 760
3 92 112 741
3 741 112 150
3 718 828 432
3 432 828 579
3 648 416 511
3 511 416 335
3 648 33 416
3 416 33 335
3 399 179 240
3 505 31 179
3 178 801 79
3 79 801 83
3 178 358 801
3 801 358 83
3 749 322 599
3 599 322 511
3 749 695 322
3 322 695 511
3 264 267 721
3 721 267 630
3 264 824 267
3 267 824 630
3 705 11 845
3 599 514 11
3 1 764 10
3 10 764 59
3 808 111 699
3 699 111 192
3 808 543 111
3 111 543 192
3 303 252 778
3 778 252 274
3 37 834 705
3 505 829 31
3 505 430 829
3 829 430 515
3 596 869 35
3 335 638 45
3 45 638 199
3 335 33 638
3 638 33 199
3 695 533 359
3 359 533 311
3 695 167 533
3 533 167 311
3 22 451 733
3 733 451 38
3 22 864 451
3 451 864 38
3 327 422 777
3 777 422 658
3 327 730 422
3 422 730 658
3 398 391 767
3 764 176 391
3 391 176 767
3 202 852 379
3 66 363 160
3 160 363 156
3 66 430 363
3 546 253 123
3 123 253 446
3 546 542 253
3 253 542 446
3 519 800 749
3 749 800 695
3 519 167 800
3 800 167 695
3 396 488 221
3 221 488 68
3 488 29 68
3 494 450 464
3 399 240 450
3 450 240 464
3 780 443 691
3 691 443 860
3 349 96 392
3 392 96 774
3 349 30 96
3 96 30 774
3 321 75 806
3 806 75 84
3 321 666 75
3 75 666 84
3 621 815 875
3 392 424 815
3 599 11 834
3 834 11 705
3 832 31 90
3 392 815 683
3 683 815 621
3 844 692 95
3 95 692 130
3 844 181 692
3 692 181 130
3 40 512 94
3 94 512 596
3 40 869 512
3 512 869 596
3 730 276 280
3 280 276 715
3 730 565 276
3 276 565 715
3 181 495 542
3 542 495 446
3 219 681 705
3 705 681 37
3 219 29 681
3 681 29 37
3 167 509 492
3 553 670 509
3 509 670 492
3 546 461 542
3 542 461 122
3 546 741 461
3 461 741 122
3 823 119 131
3 131 119 607
3 66 288 430
3 430 288 515
3 131 595 115
3 115 595 647
3 131 56 595
3 595 56 647
3 29 862 68
3 68 862 398
3 29 145 862
3 862 145 398
3 441 532 171
3 441 270 532
3 532 270 346
3 875 581 329
3 329 581 424
3 875 815 581
3 581 815 424
3 213 445 338
3 338 445 242
3 213 36 445
3 445 36 242
3 531 442 202
3 202 442 115
3 531 547 442
3 442 547 115
3 683 687 349
3 349 687 702
3 683 788 687
3 687 788 702
3 95 693 844
3 844 693 79
3 95 157 693
3 693 157 79
3 78 637 71
3 71 637 159
3 78 615 637
3 637 615 159
3 635 556 185
3 185 556 221
3 635 396 556
3 556 396 221
3 694 12 126
3 126 12 185
3 124 353 129
3 129 353 826
3 124 620 353
3 353 620 826
3 29 488 37
3 37 488 396
3 148 747 575
3 575 747 727
3 148 71 747
3 747 71 727
3 104 341 77
3 77 341 487
3 104 765 341
3 341 765 487
3 543 381 192
3 192 381 600
3 543 270 381
3 381 270 600
3 192 527 699
3 699 527 562
3 192 220 527
3 527 220 562
3 157 578 409
3 409 578 80
3 1 316 168
3 168 316 94
3 1 10 316
3 316 10 94
3 701 25 627
3 627 25 463
3 101 336 82
3 82 336 710
3 101 578 336
3 336 578 710
3 153 674 700
3 700 674 586
3 153 355 674
3 674 355 586
3 356 628 36
3 36 628 627
3 356 16 628
3 730 24 658
3 658 24 772
3 368 534 47
3 368 539 534
3 534 539 35
3 315 479 515
3 479 35 539
3 47 298 845
3 845 298 40
3 47 869 298
3 298 869 40
3 112 342 570
3 570 342 700
3 342 472 700
3 19 240 832
3 832 608 19
3 47 534 869
3 869 534 35
3 390 31 829
3 829 515 390
3 390 515 479
3 479 539 390
3 179 31 832
3 832 240 179
3 608 245 49
3 49 245 90
3 608 832 245
3 245 832 90
3 168 230 87
3 87 230 771
3 168 18 230
3 230 18 771
3 93 216 414
3 156 229 414
3 229 430 505
3 171 532 126
3 126 532 346
3 806 175 379
3 379 175 202
3 845 11 838
3 838 11 514
3 73 805 142
3 176 764 805
3 805 764 142
3 150 709 620
3 620 709 570
3 150 112 709
3 709 112 570
3 414 618 399
3 414 229 618
3 618 229 505
3 586 355 419
3 419 355 163
3 764 391 59
3 59 391 398
3 35 479 663
3 663 479 315
3 472 342 92
3 92 342 112
3 399 450 858
3 858 450 494
3 131 354 823
3 823 354 547
3 131 115 354
3 354 115 547
3 87 731 792
3 792 731 662
3 777 457 327
3 327 457 852
3 777 379 457
3 457 379 852
3 553 509 519
3 519 509 167
3 749 474 503
3 503 474 834
3 749 599 474
3 474 599 834
3 94 587 604
3 604 587 59
3 94 10 587
3 587 10 59
3 219 836 145
3 145 836 59
3 219 604 836
3 836 604 59
3 414 782 156
3 156 782 765
3 414 216 782
3 782 216 765
3 126 536 694
3 694 536 853
3 126 346 536
3 536 346 853
3 396 239 37
3 369 863 125
3 125 863 694
3 369 12 863
3 863 12 694
3 733 415 323
3 323 415 760
3 733 38 415
3 415 38 760
3 596 397 168
3 168 397 18
3 596 663 397
3 397 663 18
3 430 229 363
3 363 229 156
3 414 455 93
3 93 455 858
3 414 399 455
3 455 399 858
3 93 629 216
3 216 629 429
3 93 788 629
3 629 788 429
3 37 598 834
3 834 598 503
3 37 239 598
3 598 239 503
3 399 825 179
3 179 825 505
3 399 618 825
3 825 618 505
3 385 809 840
3 840 809 114
3 385 57 809
3 809 57 114
3 57 807 685
3 176 805 685
3 685 805 73
3 358 656 593
3 593 656 106
3 358 833 656
3 656 833 106
3 85 807 651
3 651 807 385
3 557 698 25
3 25 698 280
3 557 24 698
3 698 24 280
3 685 633 736
3 736 633 320
3 685 807 633
3 633 807 320
3 627 684 701
3 701 684 16
3 627 628 684
3 684 628 16
