# vtk DataFile Version 3.0
A great-looking cell
ASCII
DATASET POLYDATA
POINTS 407 double
320.65135966656544 161.2750451230046 30.133251281364355
319.3466383694247 162.19602239905436 29.40410918739788
318.43804574545 160.399928197219 30.089394195188174
320.5187463498494 159.27163895014743 30.604306922619678
320.78550886243875 163.06331101888887 29.397870934471936
317.8171625532624 162.78797903797016 30.02974395824642
319.2352209918947 163.92171290101209 29.44759469742738
321.92289329988165 164.03561765258195 29.486692256717316
318.81752164923125 157.67648733097673 31.19107103999134
316.25590543822995 158.9606332222119 31.284480953941703
316.36847647023257 161.5425140208196 31.129944292968887
316.6547228886003 156.62816049529977 32.60903292247189
319.2589287297341 155.83297128671626 33.70427778461556
321.33250691079655 158.16163784143072 32.746057878228704
315.3396440517043 160.5676062918239 32.62695494274976
316.12582991270295 163.86500845121154 30.856110404929268
317.64553368930103 164.90238507491776 29.78221426886079
319.25428743606784 165.81430011401795 29.35361534508483
320.6762770964013 164.81615683365763 29.444754670391692
322.07870352272454 165.5390502326708 29.53823854827273
316.49816361901475 156.29924235467323 35.44279248277894
321.21499391978756 157.23112597012596 35.4887562825258
315.2410212721359 158.57476313568384 33.9800693535967
314.86313144556135 161.10734269537875 34.47656722298903
323.5686038276166 167.99309028197874 30.229571925327782
324.8740542161029 165.1146037674873 30.229491760597387
320.7856701000197 166.53967569942452 29.284852956386057
321.31338432164057 157.3820379873778 38.51999503698235
314.99020179406506 159.65210942948897 36.37766284988674
322.64384064141103 158.6713369082846 36.59522888866623
314.9041764112834 162.807014717304 32.68662356139404
323.65546343127636 160.14680359004333 35.35252243538656
316.24789270817536 166.14775005304568 30.69815809049197
325.56073604911927 162.16321327804278 36.53219412624127
317.76225304423446 167.01217755965897 29.57346132200179
318.1175786711886 169.09314848938513 29.394713701205003
319.4856107928412 167.75388754498658 29.19204361584226
326.61169160057693 167.6321847385868 31.435004930830758
320.91345051660306 168.0901850073253 29.555787978831688
322.0888971250094 169.01234965402838 29.89837050681664
322.1527938386773 167.22506969749006 29.761434266983787
324.9812214593577 166.93196628273887 30.63616695728717
323.5387184521297 169.66300198594703 30.400031170051346
319.0763596469449 156.88640513304694 41.64426480613699
319.06129113256475 156.2502662976243 39.38514954418676
317.1106274290022 156.68532313312252 40.42262953142194
330.064217275328 170.55054757420828 35.79765885755445
321.1742884126656 157.93304842232922 41.21515020329731
322.56318372501664 159.0747983984685 39.92537713619989
315.2832367387954 159.48776809916652 38.88693737088961
316.9551841717839 156.1059612295061 38.186437809793354
323.6708729627233 160.2498852244135 38.98786814090655
324.89871228673576 161.53962805928256 35.16500324149857
323.5638265374767 160.58196715744236 40.68999678006197
314.76405604596977 161.05292255604073 37.812317567153855
314.17787132907716 163.16772849935174 34.82317485806952
314.2810372664811 164.5451280002794 33.67455971975107
314.46717029790676 161.88896613460608 36.36410508443871
313.8319418400526 163.77434210573182 36.675690118677586
314.191015031569 162.61254885634656 38.02662058449513
315.03485128379964 165.20593733413506 32.187671192234234
314.3917974059777 166.42809555476234 33.74684134801486
314.96183503137934 167.5033717410842 31.918094051533533
316.4219226805921 168.45083781290154 30.41414235908476
320.09403112741444 169.9497465377613 29.49087727008034
320.2010382726515 157.808165512731 42.99177427879377
321.6662636727841 159.54997050128736 44.485799615184405
324.8813457852948 161.373691761693 38.05890294648868
322.59444934810006 159.49200864326647 41.83563544830107
323.63520820890966 160.92266259181017 42.43499222385698
324.87681822803626 162.02651149731437 41.341107593847276
315.3250089700519 160.55813612630294 41.07722794087327
314.7094052741217 162.521104042807 41.10607030451958
314.7317488577236 161.60074064099976 39.42021212373176
313.97685721136276 165.17850024227897 35.30301832033501
313.7276856029983 164.1585306897328 38.25197349877099
314.08585388764925 163.39009050150867 39.61663981565251
313.6775131537474 167.3149848027595 35.54690892975235
313.9370384841666 168.80221857579863 33.68813430798172
328.376082677309 165.09089158590038 37.35609862227401
316.8978858129689 170.89144861619596 29.902616572330064
324.1496360769007 161.1163025935483 33.94707515850127
322.2174829868284 171.1510064253054 30.145113480709018
324.7331365980807 171.24638800091972 30.862286622899607
326.9057298336694 163.62268494061541 36.568596211269636
320.34804151653015 158.72123617514472 44.48072837601458
320.8726266694119 160.1383571965706 45.84326047636079
317.14002460499336 159.0678766531307 45.44663261128798
318.332689332303 157.89484633137923 43.976264191349095
319.06294180085774 159.04726770757333 45.916702880905355
322.0157249893065 161.35715872782 46.28834102197954
316.51304498903954 160.85563488862755 45.424471136936305
315.76985861054226 161.59293245816465 44.22796988264642
324.47564094319097 162.10334943335812 43.08385437514094
316.14921172678874 159.57201090086693 43.361543105714766
315.27048418566415 161.79385611460003 42.728373783445996
326.5199357878448 163.40242486430785 40.9584671842543
313.6835827320841 165.87806169916854 37.39189385183315
313.6958396101816 167.45346283029792 39.16202386857959
313.7706153425106 165.29958179857115 39.50844522003521
313.7489001112433 166.59958302363935 41.31768717743023
314.08528891512077 164.37794046696797 41.283762645938886
327.73759063105825 164.6284778748844 40.62917839712968
313.7065250480594 168.01819394551217 37.317994959365905
327.0825466769006 164.00848494313988 38.90350015565955
315.16611506390115 170.09607211443054 31.7645895241494
325.3139707288802 162.11962986751246 33.63942235674258
328.7132745230738 165.81508418806075 39.45469034386481
329.3560257737836 166.58986733208937 37.75352710424571
329.02972662986986 166.5131917237624 36.03315013591257
318.85806505631484 172.27335454449107 29.17737613667944
329.36118483896945 168.2510526804231 34.76124025824918
327.06733620843033 170.09526258012102 31.68551618538382
322.4952503992098 162.56893730756082 30.390340221329506
318.75971728845764 161.9661361134466 47.42521321298524
328.149290549877 168.07436206181953 32.85873221230433
323.6031502658696 161.87411689161 45.93946173539302
317.0646002495262 162.19824587481216 46.77634409848889
316.1559294588596 163.68269035837815 46.90029102287468
315.8588361423746 162.61731384132946 45.55890954253365
315.3205188062988 164.54018881730238 45.57305861712705
315.1529370703834 163.18308845587242 44.028901635126694
325.0786834130168 168.92315475715012 30.88792680402566
325.85797709168946 163.2991535570891 43.05266196406913
313.6586527327328 169.17923422020243 40.965915976104604
314.4795759800923 165.29524118644846 43.4207581336263
327.4357160100615 164.5163159943893 42.29418720827247
313.68508473995865 169.6917845339579 36.02193860920253
313.6521810422452 169.7718552435299 38.47080259126448
313.6031030783548 172.44216710204057 37.186649458503766
314.8365229158271 163.4587082464484 42.49019418512954
314.17464143239033 174.61308243917495 35.209343419461845
314.13091354042706 171.80874859181313 33.97993353078083
327.6130400992817 164.69986492894492 33.69790115699565
326.67695329096244 172.77804375770154 31.3309633140584
322.14795788362034 160.3741668328684 31.41528506628408
320.16505066999946 175.77162375152753 29.6049859511299
322.5393287710438 162.2222878490002 47.450018590412405
321.5080725083019 162.81817423892886 48.480174605753795
325.63001592533004 164.288577106411 31.252652314284035
323.84180080899006 162.98487564876316 47.248849243334234
319.316528674585 165.06224448092686 49.41876844410643
317.44991542233504 166.17107631295244 49.157353519865076
315.7396110924677 165.6322758993398 47.75396009588372
327.11445782037 164.67697634113946 44.22722015292157
328.55699029765367 165.62092050694696 43.33520994308544
314.27888022627326 169.6500113018715 45.7605238419088
314.63756095566487 166.88703993892761 45.72850780636643
313.6276524828542 171.86883148462204 40.17405279624335
313.7062468045234 171.28713186924972 43.22186434459328
313.55490370231865 173.9139044408757 41.904306687384086
313.71027123432776 174.63738520400443 39.29712100019181
323.48580971617565 166.19559659770155 30.062594341176183
315.46534347742477 173.11251412146999 31.28023813898375
325.99232748266735 162.74574540161728 37.904839023340934
329.77515587901945 167.820080020792 39.02436483719525
315.536014097085 175.39170292479008 32.90204195454719
315.823565183556 158.4049949813947 40.95634149898446
316.809495864714 177.92334508485894 33.23830759002255
326.2552416253737 162.56389281455364 35.04044415194657
326.6122896020098 163.28662606641456 33.53418504455469
324.63577969583304 177.48631188175682 31.304461141991233
322.57254071846086 158.66485533380998 34.659539762238964
330.21817474769546 174.22395817114926 35.69135739651916
323.69611683239674 160.09067790064847 37.28649817627728
323.07769652845917 163.66465623365332 48.64945683995615
324.16656181763466 164.99202339707102 48.987200272497965
322.7984705747096 165.36398679386815 49.831730460801765
328.4482481226261 166.3591418812249 34.13550424470803
319.461805059258 160.57181835076312 46.763466824885434
328.96695913820514 170.19820745871561 33.47595299337243
324.9642412055863 163.32553143938526 46.19801757252282
324.8245825638671 164.11561614093986 47.81605666876938
325.3606095605438 174.7079658871978 30.840579821426076
318.98405018120405 167.10386558316736 50.236406664400704
322.79079087134625 167.10581524316942 51.21823249663823
328.0740470859355 164.90500537596924 35.41779539364863
317.7785345166401 164.00384041068608 47.95391339920949
314.9274167514341 171.22348094380945 48.06074620264706
315.2506800361532 168.34483049439262 48.07002719836191
317.03556029541176 168.49604209063438 49.98659044515477
314.0344783845665 174.1865985004471 44.367431036052366
329.3902895250786 166.70003072429958 42.515257515771346
329.5989017437442 167.20302482239117 40.973641951397425
314.16390865731535 176.10326420879704 41.38709506894485
327.1539852123245 163.7657480805035 34.846784014890034
317.0839671441807 179.7852239862011 39.03939930414122
323.0176709163234 159.98753064891739 33.36101516599425
329.76327882654573 168.2559317376406 36.93976238575678
314.3442923911445 176.8326403040139 37.547820191832635
327.4418777094437 166.10493415929523 32.481232045347504
327.57695705152 178.5715573552286 33.91307190437965
330.9957897238895 174.98040862634207 38.213586860040216
323.3135921834241 164.41385645783834 29.803552908315158
324.3705367807595 163.45230254897444 30.904008886893333
326.8117206928411 164.3635112195407 32.1678779229886
326.14565462641025 165.72419091470184 31.257595252545414
323.9260017702894 161.74622189035762 32.2070387805314
324.7699757392604 162.5739181321916 44.56033840787003
330.3709278014288 169.24969367235764 40.68495983922764
331.0968605220909 171.7952515578138 40.23741844901784
325.59771610938066 163.0360413023119 32.14520641975617
330.4283016700841 169.98813954972104 38.358649489398516
325.63072892810436 165.56048174987015 48.60664467644787
328.64728452667697 165.68441045824878 41.5335557364071
327.0252646918496 166.37778752589048 48.172510460604435
326.56404729502924 165.00068037446488 46.549808029090755
328.27115355061824 166.03456414657433 45.1702320213514
320.5701958542659 168.47721963595583 51.1881404345855
327.9337829335711 167.92833208496623 48.69534793501111
325.6054443569813 162.51711363176278 39.47451224761081
328.15915303923015 166.8627192467849 46.949112065905126
324.5543845385328 161.31298753278426 39.715996600150106
316.09352666696554 167.03694275247506 49.05976138988631
329.417741290067 167.11514442541431 44.05376775223653
322.7638400943703 159.09952046003673 38.25963217848248
314.6694237716814 174.32225080163022 47.3521483332181
314.5983497660381 176.66860127765972 43.759735261028204
330.13254291843486 168.24719320925675 42.65876912891408
316.9712439031634 179.12220812222012 45.21098674270615
330.79619908284826 172.45801552557245 37.562074088439125
320.72742956773317 161.69211035193436 47.30941130037153
319.8642651489098 163.2397046636842 48.41911657595431
321.4946292191688 158.85662018374325 43.113754060291804
323.5464934849742 173.1565711731025 30.458019408583485
330.55788448714907 178.74047280008313 38.50906560199691
315.913114977426 175.04432541533143 31.075592898188404
314.832903439985 173.72803341416372 33.343523418726285
329.3434716017018 177.79030549722162 34.91047898917246
325.104250424403 182.27566009656266 40.91986355066911
320.21095137103595 180.87656085929083 34.19333975267063
315.20791693226585 157.891198188474 35.772008719792076
326.87728149739877 180.23375611324 48.74946814960947
315.6644517436318 178.50241614977082 38.23312328499715
317.67445067327066 179.4173897991753 34.38314609095348
316.8914696032491 172.78946233999548 29.554937062223495
328.12962905717984 181.10571947275065 46.29154296816144
319.403420051448 174.0711296270765 29.419161552448564
330.90763329032586 170.55710091179105 42.87635420047275
317.83970833909933 180.23499643924592 37.174909066708764
323.45083852433424 179.09730894642274 31.953145040595526
318.45537738035875 170.54076422975973 29.224406747935003
328.43770132346185 174.0806596716624 32.57124885753469
316.3594832277991 171.4375520949712 50.42166507634045
331.0685053444329 174.0396290686559 45.37538888119718
327.52676874257673 181.98820283926793 43.277501741381386
326.2699910144785 178.12754090917184 32.316501363687124
325.19204363773923 181.6762981715792 46.16065132192258
327.0452321311508 174.51036337612328 31.461134528657013
329.6453662189492 179.7348040656907 45.85830798418805
321.8896334159597 181.78922281079068 39.127525507385386
319.703027176732 179.88798930061117 48.56101638068475
329.5911401484307 174.25079384693225 33.97985345363338
319.32477719408627 179.43618956535977 33.08842262660751
328.8461710987006 181.32962331648133 40.10199361680645
329.1550037867912 176.08120402482248 34.06275829224167
327.1106780660957 181.4559433050629 37.3895806715021
318.5929708076795 178.76904673597713 49.38917367551843
323.06464851889973 179.4266802709796 50.08929673158886
326.29744669912293 180.24338753835139 34.13937688160385
329.740572208139 172.49632933933944 34.06064786091437
322.6051568306307 181.9071543833283 44.002726757090194
314.0286975871068 175.23236682286688 42.86276153512869
328.9917091159411 181.199330785118 42.26803338052009
320.2478199841308 156.94936973756992 40.230124208894495
319.355126593971 181.12227651197784 42.49237902258867
318.4640397989906 177.48918078186637 30.896731273200512
330.95540363972293 176.84283187381723 38.223040637878874
318.4706083344924 180.00777671396068 45.82816701324972
314.361795826528 175.67689710857687 45.53797092511069
317.02248375800724 157.4885191176571 42.29474749795882
322.8664687485064 169.49206441016122 51.54240136279089
315.66805213939404 177.97185383367128 44.53771925601603
326.67355912371835 169.33339316394557 49.94987399941045
330.7668653932131 177.6529985893502 44.88093195010668
328.6844827806979 181.13850344593357 44.422206816622435
322.44100591759036 160.6748852552123 45.053757247556106
325.65707373523577 182.09537391940222 43.020562935182255
326.3230455944611 181.10926898543565 47.345645798366014
318.0163628202044 179.45742028825714 47.40031637918295
325.0962158395999 179.46868433916273 32.958119493808
321.7817277985736 181.3574384310158 47.02996043446623
325.51595245280964 181.57862137057512 37.137027713567036
321.09519782381994 181.27298017874193 35.75663406028085
317.1835595037082 179.99910339072375 43.50753588681445
322.8001368907569 175.50325098383837 30.232147992982313
330.4708859378612 172.4157442966299 35.697626603142886
324.14221482551363 182.0246545631337 44.81917296179838
329.1574300702863 179.063868733842 36.100102417228484
326.5694931705695 181.83339947930588 45.09964794005
325.12062858559545 180.16264124436165 49.16223349507142
323.0749277517089 181.73871500716388 36.88096960446356
321.5922890238567 178.21954853517354 31.04586437972642
331.3206866678528 173.38872772858656 39.14982638211541
329.2709342798542 168.87685866764377 47.090422408850344
320.54700156737 171.68410977540861 29.707698170828376
315.9015702082464 157.52491543213313 39.21061953670046
316.828507460235 177.56425998878464 48.68318520751943
317.86861688402485 180.28970797088095 41.70820579601029
315.1586728580203 176.92884366604048 34.88912079140023
327.14788265597133 180.62726890133948 35.7891083895288
320.6228227455062 178.83461148204842 50.35560779243007
319.4689959753458 181.14691054491837 38.07012662881578
322.77446936377197 181.1774179552942 35.211496819773174
330.9797788751398 170.6459377659798 44.72832628276638
322.74982909599186 175.1795072368906 51.35429310116129
321.01602735284774 181.57863858035907 43.20674393053652
328.3113151260066 179.78681787765439 47.89646878762978
324.9330042049188 177.98983911691218 50.41806302898328
331.03862241660113 178.2764831466702 40.33324696515418
329.5079790241195 171.92047503252294 48.472789314492864
330.4157205121906 179.8112524034488 43.47520944895562
315.276507251145 177.94797981255846 40.190443133891286
314.88718781614534 177.43696159015667 42.02737961949757
317.7907865007864 160.38011193719876 46.76505248839221
316.4320392484742 178.99465439343203 36.179320119102684
329.27145992841673 167.45964818267188 45.69454124260058
318.8284568924436 176.83490397156632 50.6374838754611
327.1860752559012 181.94710265054437 41.43879400921346
313.78500519234575 174.6598989632309 37.28903462408935
323.69794771006997 181.3504543686641 47.25610668915833
328.7230642220551 180.79137110015603 37.89508515673781
323.3966834787431 180.49462730664803 48.84520216889945
319.920050244287 181.47215008892263 40.82531118313557
320.02894819993213 180.79076525137256 46.53169982150217
318.42875789017444 180.94341642772957 39.90447485247223
318.5933670445741 175.00987793938432 51.40317214837768
315.8217392353942 178.85147203696556 42.76698690775696
314.14508805044744 172.13179090975734 45.796108870687824
330.9800997548776 172.4428872988716 44.599518556348
329.72608355604575 170.3005755413179 47.89368924197667
315.5315813185477 169.78961656144378 49.415842822505624
313.8947968380628 168.1254658586617 43.435868002356635
317.46767587542917 174.811784159087 29.71407746542924
330.0129149235733 176.16071186987935 48.14345702473236
321.6835693282145 180.6417547884125 48.59387849665411
330.58674653926124 170.8153809051492 46.4840744639515
324.5666096316336 161.03189982423666 36.47588610803804
331.1978590099206 172.8371268377353 42.39608603461369
330.7243377710702 173.17292109101933 46.79768287990582
325.87539643273124 163.7497718805738 44.92381674052616
322.7317466912647 159.98169026764992 43.56122037490185
327.0529255537723 176.28966002486362 32.18355824052616
322.2738166735697 180.52615018363286 33.322735117049845
330.2726808380742 169.0131166380535 44.83681890211244
326.6943648055635 176.70468342586383 50.3281210246387
328.328789711149 171.91472966572647 32.45809280569589
331.26009995126446 175.0617318358405 43.5349761693792
320.3312423567792 181.51741555341857 44.88595263856387
328.9045024264397 178.48639669406654 48.945519853369944
323.6536070787163 161.30859460112367 44.118148650634176
320.9504482449876 166.2245419604061 50.21995544902508
329.82080063993885 180.31620673034007 39.287104234787215
331.23595519730355 174.38390896181633 40.71934463349864
326.14584793673185 167.24683652442323 49.47080479423867
322.51022568397093 177.03594831546988 50.99730927583556
329.92361584336174 177.8430732236907 47.51074663133173
331.2053720855667 176.70016852268608 39.93773352649231
318.7427827924479 180.84619746381128 44.219153654310375
327.4187979044699 174.48655635114196 50.115207785580125
316.7001405917332 178.42121445239897 46.958997281581496
330.4211505980976 179.80643658579436 40.855365153922904
328.66573478173126 173.14924193532343 49.54610913279257
324.6767068877182 168.37214723608838 50.65560224504812
330.2364384606512 176.85135374101702 36.45303631623021
328.62869342728015 169.9471116676579 48.9279547024353
315.318828711713 172.96298444287143 49.175249377660535
320.9408850078037 173.0940420401566 52.163429403836595
314.1670079263662 176.4735991747143 39.61315736723113
325.49282133543215 173.15176468193397 50.82260346442912
324.8461854992346 170.89944293743918 51.20540458724062
321.35380092042067 181.63804342508857 37.44163737996006
324.6467609393711 181.03992463665688 34.93591530362972
318.7650554698488 180.3891247426204 35.49643464965268
331.29157269411314 175.95203777381235 41.574263665380755
315.36967613235487 176.15403399417144 48.40767969956165
320.6211620710492 177.1414256469069 51.43864189085142
318.76628768249174 168.48866614872728 50.832343915928966
329.67151136090246 174.44276736662113 48.64399618563344
324.735634999271 175.40833160617402 51.01058180647613
331.2719878583064 177.6757775763919 42.108192023448126
315.50480531591097 157.66884962550202 37.34992183637934
319.2215930290455 155.80470824808933 36.82089901738521
321.1290497297768 171.1939753895566 51.69035301672087
327.2124752576781 178.7405838378965 49.59866191180445
320.7534275003564 175.119684709959 51.76770952680243
321.906650389671 181.74795597290702 45.43360527620542
318.74031441978957 170.14131945514748 51.121956099104786
330.750756406839 175.50541726473202 46.49044678142253
323.3762821725467 182.1085084138581 42.544182926909365
316.3454492194042 179.40832248190108 40.91678640985766
315.4706086841514 177.10207413115674 46.358270345209576
322.99015362982925 173.16002633209888 51.61695047660661
316.57602881567726 174.75119086647751 50.04741426811642
328.71750389325734 176.72136019892486 49.27978415950042
327.4313393395913 171.81498820881205 50.06920249202938
324.271233616018 182.20509025396728 38.90162497163298
318.83822469196406 172.94860721058834 51.71618470706832
324.4333932379238 166.36116878383126 49.916633138331285
321.88988787314366 181.87395141256195 41.250422757865394
316.6274655896155 176.30562902527788 31.39422470925278
321.07655747150903 173.37153037990169 29.822559049629266
322.9972887381214 171.17584200350487 51.803936333147334
325.0785143532524 172.97071217504572 30.87923466317519
326.77511284845315 182.0375417439051 39.05128834438872
321.24652636255735 164.28801773695952 49.35627304368833
323.289420446166 182.18453455632408 40.54626467224153
POLYGONS 810 3240
3 4 113 0
3 0 1 4
3 2 10 5
3 2 5 1
3 1 6 4
3 6 18 4
3 7 4 18
3 4 7 113
3 8 13 12
3 8 3 13
3 6 17 18
3 18 19 7
3 9 11 22
3 8 12 11
3 8 11 9
3 22 14 9
3 9 14 10
3 10 30 15
3 14 30 10
3 26 18 17
3 19 18 26
3 152 19 40
3 193 7 19
3 11 20 22
3 12 21 382
3 12 13 21
3 14 23 30
3 15 16 5
3 34 17 16
3 40 19 26
3 40 24 152
3 25 193 152
3 19 152 193
3 382 44 50
3 382 21 27
3 22 28 23
3 23 14 22
3 15 60 32
3 15 32 16
3 56 60 30
3 31 81 52
3 32 63 34
3 34 63 35
3 40 39 24
3 39 42 24
3 39 40 38
3 26 38 40
3 17 36 26
3 43 45 44
3 44 45 50
3 27 48 47
3 55 58 74
3 57 58 55
3 30 23 55
3 55 23 57
3 57 59 58
3 23 28 57
3 60 61 62
3 60 62 32
3 74 61 56
3 63 80 35
3 35 64 36
3 36 64 38
3 36 38 26
3 38 64 39
3 39 64 82
3 47 68 223
3 47 48 68
3 49 73 54
3 97 58 75
3 59 76 75
3 58 59 75
3 72 76 73
3 61 78 62
3 97 77 74
3 74 77 61
3 62 78 105
3 63 105 80
3 62 105 63
3 84 176 79
3 66 276 86
3 87 91 94
3 92 94 91
3 71 95 72
3 95 94 92
3 71 157 94
3 71 94 95
3 97 98 103
3 99 100 98
3 99 98 97
3 97 75 99
3 99 101 100
3 75 76 99
3 96 104 102
3 77 103 127
3 104 79 107
3 132 78 127
3 78 132 105
3 132 153 105
3 108 107 79
3 105 153 80
3 109 108 79
3 111 109 168
3 91 119 92
3 117 118 119
3 120 119 118
3 92 119 121
3 92 121 95
3 119 120 121
3 98 128 103
3 100 332 124
3 98 100 124
3 100 101 125
3 121 120 125
3 126 123 96
3 96 102 126
3 103 128 127
3 102 107 204
3 127 128 129
3 127 129 132
3 129 131 132
3 117 177 118
3 144 340 123
3 118 177 143
3 118 143 120
3 177 142 143
3 332 146 149
3 147 179 146
3 147 146 332
3 143 179 147
3 125 120 147
3 147 120 143
3 126 204 145
3 126 145 144
3 123 126 144
3 124 148 128
3 124 149 148
3 183 182 204
3 150 151 148
3 129 128 148
3 148 149 150
3 107 183 204
3 108 155 107
3 202 46 220
3 166 167 165
3 405 167 351
3 405 351 141
3 171 172 140
3 116 198 171
3 171 206 172
3 206 340 144
3 141 351 174
3 141 174 142
3 180 142 174
3 204 182 145
3 150 184 151
3 150 149 181
3 163 192 220
3 199 202 200
3 220 200 202
3 155 188 202
3 166 398 167
3 203 206 205
3 354 205 209
3 211 209 205
3 205 206 211
3 206 207 211
3 207 316 211
3 207 214 316
3 145 182 214
3 182 218 214
3 183 155 199
3 199 155 202
3 211 316 294
3 316 214 344
3 344 294 316
3 238 344 218
3 214 218 344
3 1 5 6
3 9 2 8
3 5 16 6
3 10 15 5
3 17 6 16
3 12 382 20
3 20 11 12
3 382 50 20
3 30 60 15
3 34 16 32
3 34 35 36
3 36 17 34
3 55 74 56
3 56 30 55
3 57 28 54
3 54 59 57
3 56 61 60
3 63 32 62
3 71 72 73
3 73 49 71
3 71 49 157
3 74 58 97
3 59 54 73
3 73 76 59
3 78 61 77
3 89 87 88
3 77 97 103
3 77 127 78
3 128 98 124
3 124 332 149
3 129 148 151
3 155 108 188
3 207 206 144
3 146 179 178
3 107 155 183
3 354 203 205
3 145 214 207
3 207 144 145
3 183 199 218
3 218 182 183
3 238 218 199
3 209 211 294
3 336 294 344
3 135 3 0
3 172 206 203
3 8 2 3
3 2 1 0
3 2 0 3
3 10 2 9
3 238 199 200
3 96 210 104
3 126 102 204
3 25 196 139
3 194 25 139
3 7 193 113
3 195 139 196
3 185 176 84
3 176 133 168
3 109 176 168
3 160 133 185
3 113 197 135
3 201 195 160
3 133 195 190
3 79 176 109
3 139 195 201
3 194 139 201
3 168 133 190
3 190 37 115
3 196 190 195
3 133 176 185
3 95 130 72
3 72 130 101
3 95 121 130
3 99 76 101
3 101 76 72
3 101 130 125
3 125 130 121
3 37 196 41
3 41 196 25
3 108 109 188
3 109 111 188
3 115 111 168
3 190 115 168
3 125 332 100
3 125 147 332
3 194 197 113
3 196 37 190
3 188 111 46
3 188 46 202
3 112 170 115
3 113 193 194
3 193 25 194
3 106 201 160
3 106 81 197
3 52 106 159
3 159 84 33
3 84 154 33
3 160 159 106
3 24 122 41
3 194 201 197
3 159 185 84
3 195 133 160
3 159 160 185
3 187 197 81
3 31 187 81
3 52 81 106
3 46 111 170
3 82 42 39
3 82 83 42
3 31 52 337
3 201 106 197
3 104 154 84
3 33 154 67
3 122 83 112
3 152 41 25
3 152 24 41
3 122 37 41
3 112 115 37
3 112 37 122
3 67 337 33
3 33 337 52
3 67 154 210
3 210 154 104
3 79 104 84
3 42 83 122
3 24 42 122
3 115 170 111
3 52 159 33
3 134 112 83
3 212 210 70
3 70 210 96
3 67 210 212
3 102 104 107
3 212 53 51
3 51 67 212
3 67 51 164
3 82 224 83
3 54 28 49
3 123 340 198
3 53 70 69
3 69 70 93
3 70 123 93
3 123 198 93
3 140 165 137
3 116 171 140
3 212 70 53
3 69 93 350
3 198 340 171
3 340 206 171
3 86 276 90
3 90 276 116
3 116 276 350
3 116 350 198
3 198 350 93
3 96 123 70
3 69 68 53
3 69 341 68
3 66 85 223
3 116 137 90
3 43 47 65
3 85 66 86
3 68 341 223
3 65 85 88
3 85 89 88
3 43 65 88
3 223 85 65
3 382 27 44
3 47 223 65
3 13 162 21
3 89 85 86
3 90 221 86
3 223 341 66
3 66 341 276
3 221 137 138
3 69 350 341
3 350 276 341
3 187 135 197
3 113 135 0
3 337 164 31
3 67 164 337
3 51 53 48
3 53 68 48
3 162 29 21
3 29 27 21
3 31 164 29
3 48 215 51
3 27 29 215
3 31 29 162
3 27 215 48
3 51 215 164
3 164 215 29
3 117 314 114
3 221 169 86
3 114 177 117
3 114 314 169
3 169 314 89
3 114 221 222
3 89 314 87
3 87 314 91
3 87 94 88
3 177 222 141
3 141 222 405
3 222 138 405
3 141 142 177
3 142 213 143
3 143 213 179
3 142 180 213
3 213 180 179
3 114 222 177
3 137 116 140
3 114 169 221
3 137 221 90
3 119 91 117
3 91 314 117
3 31 162 187
3 172 165 140
3 167 405 165
3 137 165 138
3 187 162 13
3 138 222 221
3 187 13 135
3 135 13 3
3 89 86 169
3 175 398 363
3 398 354 363
3 138 165 405
3 351 167 175
3 167 398 175
3 203 166 172
3 166 165 172
3 203 398 166
3 203 354 398
3 208 175 271
3 271 175 363
3 243 397 393
3 180 387 243
3 387 397 243
3 271 383 208
3 208 377 174
3 174 377 180
3 208 387 377
3 377 387 180
3 395 370 273
3 392 369 379
3 392 370 369
3 369 370 395
3 243 366 178
3 178 366 216
3 243 393 366
3 366 393 216
3 294 365 209
3 209 365 273
3 397 367 385
3 385 367 392
3 397 383 367
3 367 383 392
3 192 163 364
3 273 370 363
3 363 370 271
3 273 365 395
3 395 365 310
3 379 369 359
3 359 369 395
3 192 357 353
3 209 273 354
3 354 273 363
3 175 208 351
3 351 208 174
3 394 349 384
3 384 349 307
3 394 356 349
3 349 356 307
3 208 383 387
3 387 383 397
3 378 394 359
3 384 345 394
3 379 359 345
3 345 359 394
3 342 173 161
3 388 378 339
3 339 378 310
3 238 338 329
3 238 200 338
3 338 200 353
3 329 339 336
3 336 339 310
3 388 334 378
3 378 334 394
3 388 356 334
3 334 356 394
3 378 362 310
3 310 362 395
3 378 359 362
3 362 359 395
3 179 331 178
3 178 331 243
3 179 180 331
3 331 180 243
3 310 330 336
3 336 330 294
3 310 365 330
3 330 365 294
3 181 328 216
3 216 328 178
3 328 146 178
3 217 313 184
3 184 313 312
3 217 327 313
3 313 327 312
3 380 309 361
3 361 309 225
3 380 357 309
3 309 357 225
3 379 308 355
3 379 345 308
3 308 345 384
3 361 311 380
3 385 326 397
3 397 326 393
3 385 317 326
3 326 317 393
3 156 299 158
3 189 315 299
3 299 315 158
3 393 317 297
3 200 293 353
3 353 293 192
3 200 220 293
3 293 220 192
3 290 308 384
3 320 287 386
3 173 285 161
3 136 292 285
3 285 292 161
3 358 284 219
3 219 284 327
3 358 298 284
3 284 298 327
3 373 302 283
3 372 282 300
3 372 291 282
3 335 281 324
3 324 281 386
3 335 320 281
3 281 320 386
3 343 372 280
3 285 173 224
3 318 229 277
3 388 274 356
3 380 311 274
3 216 269 181
3 181 269 217
3 216 391 269
3 269 391 217
3 324 268 279
3 279 268 219
3 324 358 268
3 268 358 219
3 278 320 290
3 389 399 306
3 306 399 323
3 389 406 399
3 323 265 306
3 306 265 358
3 323 298 265
3 265 298 358
3 287 289 277
3 277 389 287
3 404 282 396
3 396 282 291
3 361 263 311
3 184 262 217
3 217 262 181
3 184 150 262
3 262 150 181
3 386 261 306
3 306 261 389
3 386 287 261
3 261 287 389
3 219 272 391
3 391 272 217
3 219 327 272
3 272 327 217
3 379 305 392
3 392 305 385
3 379 355 305
3 305 355 385
3 364 288 225
3 191 300 288
3 355 258 301
3 301 258 335
3 355 308 258
3 225 288 321
3 321 288 300
3 191 259 300
3 300 259 372
3 191 280 259
3 259 280 372
3 301 257 317
3 279 297 257
3 257 297 317
3 300 256 321
3 321 256 404
3 300 282 256
3 256 282 404
3 163 255 364
3 255 342 191
3 386 348 324
3 324 348 358
3 386 306 348
3 348 306 358
3 318 263 254
3 254 263 361
3 343 292 253
3 279 251 324
3 301 335 251
3 251 335 324
3 323 250 302
3 356 249 307
3 173 248 134
3 134 248 242
3 173 342 248
3 248 342 242
3 320 247 287
3 287 247 289
3 320 278 247
3 247 278 289
3 191 246 280
3 280 246 161
3 191 342 246
3 246 342 161
3 290 258 308
3 343 240 292
3 292 240 161
3 343 280 240
3 240 280 161
3 404 396 229
3 229 396 406
3 275 245 289
3 289 245 277
3 245 318 277
3 404 254 321
3 391 360 219
3 219 360 279
3 391 297 360
3 360 297 279
3 298 325 186
3 186 325 302
3 298 323 325
3 325 323 302
3 355 376 385
3 385 376 317
3 355 301 376
3 376 301 317
3 186 239 315
3 315 239 373
3 186 302 239
3 239 302 373
3 318 245 263
3 263 245 275
3 257 301 251
3 251 279 257
3 327 390 312
3 312 390 186
3 327 298 390
3 390 298 186
3 302 371 283
3 283 371 291
3 302 250 371
3 371 250 291
3 321 352 225
3 225 352 361
3 321 254 352
3 352 254 361
3 136 266 292
3 158 253 266
3 266 253 292
3 307 236 278
3 278 236 289
3 236 275 289
3 153 235 80
3 80 235 110
3 153 333 235
3 235 333 110
3 373 234 315
3 315 234 158
3 373 253 234
3 234 253 158
3 312 233 189
3 189 233 315
3 312 186 233
3 233 186 315
3 297 375 393
3 393 375 216
3 297 391 375
3 375 391 216
3 278 232 307
3 307 232 384
3 278 290 232
3 232 290 384
3 184 368 151
3 151 368 189
3 184 312 368
3 368 312 189
3 335 322 320
3 320 322 290
3 335 258 322
3 322 258 290
3 229 318 404
3 318 254 404
3 343 230 283
3 283 230 373
3 343 253 230
3 230 253 373
3 389 229 406
3 389 277 229
3 342 255 242
3 406 250 399
3 399 250 323
3 283 303 343
3 343 303 372
3 283 291 303
3 303 291 372
3 291 250 396
3 396 250 406
3 170 260 46
3 225 267 364
3 364 267 192
3 225 357 267
3 267 357 192
3 364 228 288
3 288 228 191
3 364 255 228
3 228 255 191
3 333 266 136
3 263 275 311
3 275 249 311
3 275 236 249
3 249 236 307
3 347 380 274
3 274 388 347
3 311 249 274
3 274 249 356
3 380 374 357
3 357 374 353
3 380 347 374
3 374 347 353
3 83 403 134
3 134 403 173
3 83 224 403
3 403 224 173
3 224 82 401
3 242 346 134
3 170 112 346
3 346 112 134
3 224 401 285
3 285 401 136
3 336 304 329
3 329 304 238
3 336 344 304
3 304 344 238
3 329 338 347
3 347 338 353
3 242 252 260
3 260 252 163
3 242 255 252
3 252 255 163
3 388 244 347
3 347 244 329
3 388 339 244
3 244 339 329
3 110 295 64
3 64 295 82
3 110 401 295
3 295 401 82
3 170 346 260
3 260 346 242
3 80 241 35
3 35 241 64
3 80 110 241
3 241 110 64
3 136 237 333
3 333 237 110
3 136 401 237
3 237 401 110
3 220 286 163
3 163 286 260
3 220 46 286
3 286 46 260
3 271 402 383
3 383 402 392
3 271 370 402
3 402 370 392
3 158 400 156
3 158 266 400
3 400 266 333
3 50 381 20
3 381 49 28
3 45 296 50
3 49 381 296
3 296 381 50
3 45 270 157
3 45 43 270
3 270 43 88
3 27 264 44
3 44 264 43
3 27 47 264
3 264 47 43
3 20 231 22
3 22 231 28
3 20 381 231
3 231 381 28
3 49 296 157
3 157 296 45
3 157 270 94
3 94 270 88
3 189 299 131
3 131 299 156
3 131 227 132
3 132 227 153
3 131 156 227
3 227 156 153
3 156 226 153
3 153 226 333
3 156 400 226
3 226 400 333
3 146 328 149
3 149 328 181
3 151 319 129
3 129 319 131
3 151 189 319
3 319 189 131
