# vtk DataFile Version 3.0
A great-looking cell
ASCII
DATASET POLYDATA
POINTS 950 double
373.8594961167018 270.84240364615334 3.2285115831859894
337.30586443958094 272.2997480984956 9.447086112635192
336.71803124376476 272.8069998861809 6.406926153741134
335.44941041562055 268.6700168291529 7.386901820670225
338.00161045971856 265.5551231872081 9.806804688322378
336.25126016110147 265.19877246194653 -0.4364736469873481
375.54803514554646 264.46775395476527 4.152447684724756
335.468396472424 266.4928424800536 2.791256329026763
337.3599786829922 264.37902706910285 3.0053001244003608
339.64886102769105 263.14441047328035 0.14333603629477612
345.29061667539327 274.5274102460149 18.32659623795313
335.13416575690155 270.67822026346346 3.52972608659546
335.0894670010578 270.6379043066183 1.718781941327056
337.2048700701885 265.05014733170873 5.561650390784858
335.1494097049043 266.78264434675594 0.8718302486033281
335.7736765069603 271.719670622583 -0.009170750919000962
337.9458970779574 273.6475880372485 7.835880273227623
340.8878538597053 273.511468669633 -3.0327661078012
337.3068012989368 273.6882475851955 0.5191494476766368
342.2671173697752 269.4048771915442 17.17651695348802
336.80247195608325 265.69970568880444 -2.5496663255806773
342.65051686608587 263.42864383603666 -2.1141693889663165
335.52591157059777 270.5632206214483 -2.4423383909848204
338.64739853941603 268.60356574105293 -3.0164766421414573
341.62412047142465 261.39502146972063 6.630739608317245
341.8178494178022 267.2787467685514 -3.1346213978352244
343.73875199925766 262.67210554760754 16.23790541257596
362.83714867431905 279.63988589191274 14.977262006535682
336.1888599636608 266.64823491075697 6.46004728678935
359.63158583894227 271.96269568678497 -3.033989258203677
346.9704879809508 275.12600661245 19.35940506794996
342.2629739412752 272.7008247832892 15.852449668235268
341.771737102322 276.5724673763945 10.242139962134523
348.0671726120179 281.94670599521044 1.7796258221996855
362.59353215856964 279.529418355811 -1.286872793149787
363.79423485813965 280.6806637146937 3.0820542318087556
365.77579026210526 277.29009605540136 -0.7559431429329595
360.68239908497554 276.39877173394666 -3.0145163562230133
363.6316231582439 279.8822677253026 0.7801955747033483
355.72956265788383 279.0740683647527 18.240075981637155
367.01163227838174 276.69393297588783 0.2064077313886646
353.1419520856957 265.7569275456629 25.649690494140668
345.0596718357322 278.52002036370885 12.519712582186028
350.157999109758 281.7580423249164 9.248087177818284
343.6405409494534 269.0883352297783 -3.0414547252428337
353.2399824530144 282.8700234418242 4.804673441672064
342.40608156296577 274.7201266408117 -2.997733713447846
375.7495645124358 267.70260501285736 5.172422247812083
342.8261622212889 278.5957373239778 1.1650813728927139
350.36222693465567 282.3867460570411 6.623132634446754
345.2605380912173 271.54514403272157 -3.235362863786195
345.3938518487671 280.46456758059225 -0.021796391576755003
347.1028050866344 279.7231086001016 -3.0003460060684577
351.96540956820957 281.41564133573655 -1.6409826831544976
343.1110057702678 278.92624442179385 6.023837234408693
377.22692218752246 264.38119992831366 6.801654988048903
344.10974504118076 277.1176292901816 -2.950666934240637
350.7228719319379 282.62880629723253 4.066558402121563
359.1497214049504 275.29028953817556 23.08885402844947
353.1310926442119 279.55187288488634 16.81999432825944
342.43603042802573 277.64229644989234 8.358525285326744
360.59222315162856 281.90784263214636 3.6216431782646428
347.00619726391744 281.1041247871459 6.237460191320549
354.23323971220174 282.2058576175977 9.479317333855565
345.6322046917675 258.43891391086396 12.29009421257025
347.18864462333414 281.38092223107174 3.297814617448842
344.2943360216424 259.3725944016115 11.474135129096531
346.4754006314469 268.374811287681 21.233850070550748
334.77258539983967 268.6997419420369 -2.2797919096297523
349.9098033564449 276.4850261067225 -3.010761552772749
340.3127306986428 275.9885903697016 0.5046738939027039
340.9917034847512 263.34943405438105 -1.1763180017360635
339.26321329571584 271.1970926733102 12.90404719072612
345.7981235657583 279.69357011765027 10.74576322848103
351.53462843682996 282.32125132386034 8.032327238067777
348.2467259184715 280.76722135870176 -2.787952859751247
349.48307948655247 273.68838459268994 -3.2116912810655
351.4944029704543 277.6644416497508 -3.094338623601626
335.15836624614377 269.26088780793714 5.417756283043254
346.73092016435754 265.0430523579605 -3.1149664119952942
353.9208605856676 281.1142033751473 -1.8452348730392363
353.86489825466714 278.1402535806887 -3.045626042170973
341.0174502170467 277.0554839899386 2.2626674767332244
352.3829481377446 282.94111388164765 3.0177412132432253
361.3403144031516 280.1687445839965 14.61997213057546
339.4262584280681 275.7146382703368 6.438046223449622
344.8767970075127 280.0172247685789 1.808556742717875
357.43547888217887 282.1772293935411 1.4277443388132678
355.01457428968433 282.7789381577837 4.123518264973481
349.3209026585816 282.20400828373164 5.161146441175931
356.9911290127696 278.9557511307721 -3.02810618280454
345.47809644706183 274.49141862774644 -3.020916402786762
342.32729113401757 271.9439981105403 -3.215753854353631
355.8878014774729 281.5114254970983 -0.7991347865647018
337.3067270590525 272.64367038313685 -2.009085259339228
352.8563828514 279.8418103572277 -2.9146482910842186
360.2548850492577 280.4652416171928 -1.4167709448448127
340.15324145161827 262.51240868430364 7.8358989173325755
347.9362452511207 269.8515918765443 -3.238746631018379
354.9512757403527 254.46312984153562 3.872780367381739
345.1481482333772 272.5633505978746 19.477659846079696
349.78190152615144 281.5705365032146 -1.3451041037556295
348.50244391092264 278.20911498381344 -3.0550692539664634
345.96977521422536 278.7416565749491 -2.7910970186166555
349.8654933477765 268.26111806662675 23.55147506144192
340.02143416949804 263.5219362549641 10.838140929167897
349.66668535948247 282.2726209454303 2.6197218812908134
353.8674224143367 253.110944873257 19.041754271898743
347.7282073850874 272.94441011643073 21.039220385151385
343.0949016925474 271.1989362850275 17.630655152721104
352.1156059017951 253.16726881429952 15.152675217309506
358.61183611799134 268.08199796218975 27.27460430242998
348.4165321725819 275.3121334217991 -3.2077946605644847
345.5602563096922 276.07157956873266 16.991099227735962
341.03773402034676 270.1934500304771 15.49792552462726
358.04433087245496 281.6571332522734 11.307151370766135
343.88262920466633 274.02981711047227 17.08849882208905
342.87948727486787 278.83068488154584 3.5796250255879456
362.5868248374633 280.9849524513164 11.594923879183764
352.1889864747021 270.75489690061437 -3.079819088668613
360.0804093720705 269.29627100189765 -3.1558058655908074
347.83773248995504 272.794968031625 -3.0480962574317085
351.24874512493045 274.7468550128871 -3.0721319088312256
361.1512749570326 270.8617975232238 -3.158932821837833
344.83345056554566 279.6830999907585 7.778871583359982
346.28874242035727 280.5654311200769 -1.5971418739981071
344.3472142109375 264.0412227362333 -2.995721745523991
355.34939549679 279.81775890753886 -2.8667620742339204
358.67510976705563 278.14632038624103 -3.046787641968467
337.4072236660719 270.52909463519455 10.739966885983696
336.4732127143247 265.0189877939848 1.78953175525393
359.918490663319 281.45081690229 1.0682800914965387
349.1083827106117 281.75954020903777 7.754658935227885
351.44901417369783 281.5912988840296 10.844819821484618
341.2593077317199 277.33235682235374 5.452882767795024
358.112112272102 272.87745252910037 -2.9991005070441883
353.46880704814834 282.04686909919707 -0.22007461416705204
349.59829955925596 265.5774857604422 23.36662235206963
338.3206818666268 263.8343112484104 4.437250999766789
351.2517276747078 266.99818176982734 -3.0164367622501667
357.80171785135946 282.6523341390589 3.804905227018001
353.24148852597887 272.4545909788114 -3.0662847193833374
341.79464540618613 277.0399132764207 -0.8072362137471277
349.201305616806 255.40731143481312 14.19910246420886
356.03867287498605 277.26918466932403 -3.039441290411142
368.899439772629 265.0551105204216 27.625525738974595
358.63384931027537 250.34045000340583 19.551370176145394
347.5030026293204 257.30128643339117 6.141618579247729
377.85467642571246 265.328895742988 8.145230557090185
343.83276752349974 259.476582253357 7.334134655998077
353.14212924962624 252.62181142064273 9.54591843038571
359.32901757718105 249.42089056744854 14.721782008155717
348.6014689039045 261.2565143441811 20.95278547717124
358.6840327033044 249.7859024804852 16.085548913933316
343.6956100453851 262.4670962173425 -0.42219285292678205
355.4405584597642 262.77553293053904 -2.8286895282038182
340.50245745308075 269.4189186117347 -3.0656818672894084
361.51844623498346 249.03153832657105 14.193020894857904
357.59657078755595 251.01342333549096 7.91148223583606
346.5084478532714 259.3987112862533 16.585139068148845
356.03744266249134 257.8198099118282 -0.6231978543150244
349.0946026842355 263.6584896012064 -2.9577875743794144
354.26526880069235 261.85696786273786 -2.5885547233242128
353.5967707424676 276.08455249912413 -3.1080417656451442
340.0871710272132 264.6100400118227 -2.2271176468570917
351.4377735955205 259.477959095715 -0.002014502966500121
369.7608081425984 273.7739498129454 21.55875927660838
345.5001227218727 259.65753496567595 3.8859826492240783
346.5590770709321 262.9315879524742 -1.7426006526245013
341.8651067437476 267.46362900638417 16.563654403435553
374.3264745991955 262.1040383765026 24.94255737193695
346.0692376704531 264.1286277041308 19.950162013019153
347.55304060492546 259.78500783368344 1.6916914874655753
348.34099371392875 258.87050522516694 18.892378868637163
342.45658097570197 264.2595157345667 16.063996881273095
339.2932660589219 268.3530836969563 13.605791791267379
342.78754329923265 261.33336968837574 3.1087319199376324
376.61331951025187 267.9820150394475 6.642433675978856
344.8991761134045 261.3424200365275 16.38261604215587
344.66343080363964 260.8750602849217 1.8515802923567366
349.6834487618456 257.08915082740384 3.981001217018833
354.91223499903185 260.2250608038722 -1.9680932286523733
356.3946528352659 268.9633539793163 -3.0652979244736174
362.54107464981917 249.04268821497345 12.825913787287124
366.3518331194696 255.69592680792456 27.34868268613604
356.5556582013417 259.8103161995733 27.035648892218465
357.3814557617228 257.29056163926106 26.67497506522229
351.76456364548557 262.4737171732763 -2.225460832839258
342.4158741632109 260.61157069380056 8.430079113682881
343.43524923885366 268.72480567701615 18.717654930322645
357.5337854742867 249.94102689050544 11.61701204480807
359.6320253146442 261.06206275243824 28.35470788750854
367.2897705448531 252.60697184188686 5.12696749395631
358.04569732073145 254.17036355408356 24.87140379308738
362.5250139624219 258.2620446754105 -1.9595475506190814
363.7095861509299 274.2428143815937 23.2537062848359
364.1552983191655 256.3894155620583 27.901781580718044
367.26608909896424 260.194392125031 28.469247239601962
359.72662042442806 252.69395225876454 24.440540626369405
372.80825025561927 262.95241973028897 26.182622316271853
351.02318533083076 254.38226294292267 16.38040594338345
367.92615511393194 256.7548181561908 27.335745241572262
361.7402102030522 262.64336319191347 28.77173623681176
365.1692774054008 266.093576353925 28.15898878788877
363.6140554264512 249.04650486054953 18.766649395512562
353.939106110582 263.86439579787026 26.00352258766649
357.0266527463856 252.31953316099901 22.038547171911922
354.05945968108256 255.5440448959274 2.904629277870261
358.30069191368545 265.3573425583013 -2.989075547954436
349.1943320358607 261.2707630313187 -0.7272195564473422
356.38300208545945 268.6849917717029 26.47587408252725
360.78529430318764 254.13666165514877 2.0660432868600513
346.4787824928315 261.5358980904888 18.817131857517612
347.35588388073387 256.9346308859842 8.114226838764397
355.6583744834202 252.88610552748804 21.28223466475697
350.4479405908145 271.89555762159995 -3.0604175315432274
358.42694474441174 251.993494762771 22.670376281460346
364.79908925628064 248.93277446797197 17.814839866559012
340.3196469448099 275.56669675235617 9.023249013365502
354.14714226139637 264.18863593109575 -3.0333270185622188
369.30088038111745 263.23440890453213 27.996977917699866
357.83872893850264 262.414283643082 -2.98708011206383
353.0335649411381 252.7083008749774 16.4827483715937
359.579077682954 251.98726642528177 5.285627223205946
351.40537354586803 255.21375677961464 5.386269649660977
354.3032238394845 258.66331669830623 -0.6102359134355404
365.27809833118755 252.81265683390066 4.166821359679207
347.62214741307173 266.9326943271711 21.92320718562126
351.6777625351776 253.65482235618003 9.643283800489598
351.3371891352585 253.567646751396 13.51314307813832
365.04108213923723 259.9959723357506 28.793946621451077
345.98090671680944 257.74816971752733 10.462823770374406
357.57504318314943 277.09204479217954 21.464739346666065
371.0110788386721 262.5156755061435 27.38867989645452
356.243027692367 263.46212314407103 27.199123347707904
340.6988672791818 262.1640408252306 4.766719687438004
367.0518095057352 253.88695110804693 3.245647709008903
356.546761291366 258.92636045618775 -1.9478003291124701
361.1529319832383 274.82159398557855 23.25224530467606
360.0077970371924 256.0121983138587 0.09579225961581751
356.1021311728542 266.43575923186285 -3.028035592734005
356.5503844038863 261.33827830553946 -2.8003507873004403
361.21140151663894 250.4528007555597 8.251704833392845
353.88690522608135 269.67244265499545 -3.1425780809047867
345.4084512354591 269.7880810263771 20.406262396547056
358.1288614078719 278.11975830626704 19.940529325758376
353.2143684925108 252.15076638264816 14.196415969481947
356.09212210938597 251.98335733211914 7.141856028002347
357.90775112800424 280.5308265274009 -2.658223873268864
357.4611432897483 250.53730451360263 18.125678613283394
356.28932466280946 254.64159364041984 2.7277447010071065
363.2079446836657 256.83220312770527 -1.202393887989208
357.4876602981189 251.3401678441437 20.62275035192328
360.13755663766943 257.53192640302444 27.81209216177509
354.02153309024635 257.6767189637663 24.344840695582537
352.9546214081902 260.2002405508489 24.59858848157433
338.46903768449545 263.67723393037136 1.6475581248987823
349.09911322818294 266.74681089016315 -3.039055561598776
359.03047360572043 258.8346423651039 -1.9261986967401927
357.84433037824766 249.79556316919226 13.900293670199838
365.7906880491869 257.36558865539587 -0.7170807832917597
372.7861255215775 275.01981687244216 13.88859781295863
369.6954281220516 277.84393988461227 8.90387458184286
365.2434017606461 278.68607107588343 0.4677332002296162
372.77421408071297 265.1474612077876 25.719889229895347
341.0846687154676 262.5136919091604 1.5565857885204382
368.20764583920106 276.20663891046377 1.1741531556148155
355.1232757765998 251.423192773986 16.98058846112413
358.6058390849945 270.4513211188506 -3.0010772128280876
371.6683819063476 268.61911578450423 24.700166242158197
351.71843293625653 264.94781018646063 24.73629519131669
354.37641966014473 270.2937035841858 25.156824296819334
368.47383947091276 254.95710519307102 26.358996175277756
353.77166430599283 254.9377172834109 21.618027431394818
337.27946251397935 264.2983223343666 0.42480178125055895
351.49631337094024 256.1738908487027 3.7615964881475734
372.4347721315481 272.3286974518375 2.2752645117902373
371.9866146908825 275.76730120919694 8.516030211915751
364.2334237968653 253.41850953107922 26.01998533646314
338.8947667080879 275.1561602539308 1.8635825220021307
370.70749465211077 276.31389148030485 5.291004750132925
361.2976494368007 262.6857228046401 -2.911420157317816
350.74915142031756 278.39722778172717 18.00384366661466
372.7723760233279 258.78941996404853 2.8602910932864507
345.8142783141885 257.99420121363795 8.50660344919509
367.68477696744793 269.4577284940649 -1.6292637536444246
371.07372762050045 258.8243629365173 1.3611296800508612
373.59459342253615 272.42532178792146 3.8772062870771107
374.51231921619956 257.23298295147407 6.082932199018127
369.2175471591641 250.10690887903093 12.36597426953777
361.2360643320642 278.6901204083234 -2.9812461054492547
370.5510939987245 276.0903513397001 16.055207367465755
367.6235410523957 265.77661471049265 -1.754272975118815
364.959489284657 271.4751732931965 -2.982334011929283
350.9128178665377 259.69741444502483 22.574444998574723
373.8446802538952 273.9194293120591 15.341395533455671
362.63811365740673 272.5335180141505 25.00398894628374
366.7534304134518 277.7596748161851 1.233253520296588
366.6480007997885 274.2484921493272 -1.8135501718307687
367.14483956741736 275.35324911461885 -0.6725562478436943
344.40458695215824 259.0013943544526 8.97111693036173
372.81687840858376 259.2291934680142 25.7043783333708
352.9134569899898 281.29580287513477 12.69454667873764
364.13260782565135 278.511362118721 17.008505731227682
360.7437173474522 265.45625693829487 -3.0212523697228915
378.64186611436793 260.0060973450926 11.06727104078992
334.93975583837374 268.594112170138 2.669771960072029
365.40211670454056 250.52294497632744 8.312512270432501
369.3139034021094 276.7461867769055 3.2355439537792625
374.810725552086 269.3188877630511 4.263688516644994
344.5563151418268 277.14663525436254 14.293190746271044
360.073700231339 271.666528426308 25.822607700064836
354.42933879243003 259.2597877039528 25.40327505894829
334.92943370395363 269.18092198663146 -0.14132700535665965
355.5228503083424 274.28182385190075 -3.0019496969476736
377.9529197263324 260.5688935698874 20.661815196716653
350.303007443887 262.73599443984324 23.181037036309117
370.79305760810183 277.0434077501061 9.85318565799993
369.8489732514922 270.51760867808815 -0.23854461633659285
364.21352827240776 280.58176423128805 10.861325873658986
351.44902875649353 253.51913035519686 11.54755061509386
366.9589273620105 271.8382558734185 -1.7223393621537693
366.94938149129064 279.29943569558003 5.854772139443652
343.98874353780604 275.7176954106577 15.913310290637398
341.1526447739072 261.8803838159278 9.659330889086394
369.1919006278856 258.7398277072744 -0.490050045295938
361.5903001120661 259.8189293391543 -2.575873114112131
358.98135047728294 280.863775339527 14.063162367146765
340.452601524426 265.90886254954404 14.44532086042906
368.8550046716729 274.19650087196754 0.3974977499911297
365.49697809069335 268.8185462780456 -2.8498376891416513
365.0240629407124 263.34241732754936 -2.826493145512282
367.31284278116783 278.3806916649939 3.4482199335160537
358.2781573088608 275.4432358206409 -3.077298843376347
341.3354083121096 275.0736329393473 11.999902932482449
360.62361999640467 273.6477185740165 -3.09388535013468
345.6635960949847 258.54073762567816 6.56172963389497
356.7723769461075 263.7062515218122 -3.0298562412089027
365.81794832272413 272.91556886113517 -2.4450500710370684
368.16085640635157 270.91238469883945 -1.1516638488349942
362.8842124769872 281.5860873249061 4.947950361507793
359.01611997526635 261.1596661058284 -2.995298374685125
347.93529493314946 264.091032197703 21.625590900068815
353.280591821046 267.07224742986136 -3.0714558406580736
367.95019195719414 249.48322632047854 17.25809203555748
352.5035912288228 267.69651704695497 25.11059877755347
346.0277408809874 267.49222113215757 -3.0330732420511444
359.5774519005454 276.77235459779376 21.77260018585464
365.76618379905796 277.78991615142706 17.174865496413183
349.67747543805655 276.2980486499374 19.77863416498238
363.01782251643726 275.33060140572223 -3.0878018508312985
379.0915816132526 263.7353927277952 18.13641116391075
349.98149100842943 274.3965305355957 21.550418077124593
348.54770643249265 274.7457965849542 20.510910915969305
357.0043070336956 280.2688660693766 15.943162878643161
369.0129098398257 277.9315052114572 5.484859266134672
366.4963581862828 279.52506230898916 10.459525931407587
363.4495221431415 264.52288666261063 -2.9881958406729723
366.29366433620913 270.39354004272894 -2.2911400344667747
364.05664649425506 258.365656593068 28.457781487950584
366.34721030737535 262.2045695457007 -2.1282260947000795
366.898557188815 259.45968108554496 -1.8940338722714376
370.83403581422033 267.0961624692853 0.09371623030443468
356.0754354790352 282.114018002956 10.423059141803664
355.96779952667345 271.4520884139154 -3.1175040079323684
366.06588442706766 264.97096109340737 -2.38631268583778
376.6205914726675 269.0667813817062 7.972052547468056
365.5354003921961 279.4262089074659 12.812234744789553
372.78778272240845 267.79953793018296 1.5452175934432217
355.578580334394 256.64241929068544 0.8634665780009116
365.5021555600797 279.9515867738447 4.152867368084286
357.1039715574002 266.01676684016803 27.465416233835434
358.17346284986155 252.9710674015623 23.923914242335766
363.4404693414251 272.61677349398707 -3.0003760281295775
364.21815143505347 259.09028541009224 -2.0734944457958906
376.4435201815622 257.2751206387233 8.779089599043951
371.97628472452834 255.5829877389844 5.039824261673856
360.34256405609415 278.65087755018186 18.622377431465583
371.52546543344647 251.39953049207787 10.602880698953806
370.8508805834301 258.82287467924067 26.877472675198067
372.00363920294166 256.8959175959004 25.681728515418726
363.2321760362317 275.8899742670898 21.53697865477503
346.48394562834807 276.7839814366142 -3.0616633964833446
371.1084937355825 275.162112256237 3.621755320853585
371.49476227710477 251.02902508717634 12.282917486416867
364.51720147512185 274.0861583420705 -3.0159791195060097
336.56091459538226 267.99924508770334 8.995931734475882
366.24750982987985 257.91807126538356 28.224683048342747
375.55809740699283 258.3967358355871 22.998022527617323
375.2346147173347 271.9799046383311 17.728833036700493
376.64590803329054 254.44083232891268 14.077811150837444
359.0011384819267 263.4628540371535 -2.992175364033974
363.4395765222524 281.3962058564392 6.619817052906312
370.27762432388676 251.01457446356983 20.112010837366544
379.1586798076911 259.37722508560813 14.381683995901614
378.77358825846505 258.4090227611729 16.522673542269853
378.26076747562945 262.05275527566624 20.686137706839496
374.63046564481897 252.90603485387942 16.991681166804717
351.8087524743418 255.08626362987113 19.284911622300815
378.696014921547 258.66854834051315 12.655350225507418
368.1245274216777 250.11163969337812 10.90836940404725
338.1128257294385 269.5377925948483 12.44345540423957
376.19951997387454 256.9842202096882 21.37098230085616
356.44846010547207 250.24199382674217 12.86154382565617
335.13331270140503 267.0140525590278 -1.5167391074775467
375.1616735581577 254.0464128744226 19.730393561207062
377.17827909846056 263.2097193435235 21.77515015555463
368.0917088330429 249.4912570579278 14.135252387295408
356.86570224048995 250.4301871480982 15.87542750880896
372.31081215736435 265.5138216789376 0.9547839189983904
358.85126787134277 267.7219413698397 -3.2373941326675935
372.1810199914937 274.79935498397197 5.312209060390899
377.33184770171823 261.2101126507122 22.01078180213828
339.9730233276653 273.21713259317625 12.522068043961326
358.30301510019325 255.114328186541 26.035277815482317
374.956452357865 260.15090893326703 4.609328585607664
340.93680444963894 272.9824838051959 14.042660586994327
342.4243565028061 261.3393086183882 11.408976273854433
369.16200640376337 268.7761345811091 -0.9039573366278184
339.69824758564863 272.2102270041436 -3.105573670534794
335.4316283667044 267.20629122816064 4.337592819940607
358.18526736365993 249.8273923289986 10.112266865417862
363.9419515432717 261.7034435260947 -2.8686027106618046
369.2043276769701 252.73467755405164 6.298939015182807
372.3689283583411 254.42038305731768 6.807635002725115
372.26881819870357 252.13512841011723 20.1050926353698
367.832872455961 250.64364973150984 9.190445678836562
360.9858782684906 269.2230023789926 27.23403224585073
359.58835148243685 279.65642513550074 -2.8756168518835152
375.9050887796201 261.47185061087447 5.410106150961091
370.54020691397625 277.2466716084306 7.491076441841929
362.6603789626987 259.99906039853715 28.909511800804136
368.2593129995396 271.4315355326693 24.39501616286566
371.31733642542565 256.7701010642279 2.9396803300010714
337.3618122596118 274.00211470624515 2.3894942124075986
338.3650903372724 263.9763252358266 -1.2705197944619364
358.4737141600315 253.99813278597742 2.5484164074949507
360.6397757652567 273.2130264947059 24.63198429390216
349.7858642486638 254.54945487540388 11.526647708317164
369.3059460288785 250.17397636652575 18.18011040516752
365.42657075306676 279.30295612730043 2.151510647882762
368.0076003895788 277.39845343890494 2.1911049745577396
364.96062610729973 254.09716614027275 2.390550791391636
367.93960341803154 253.1053172154764 24.922396898471707
374.9879288758153 256.4382593396016 7.483328394930897
366.2930737250374 253.96075112065066 26.195711669242552
362.2438684458863 277.10597637402276 -3.061103727956567
376.9833631499529 255.84155399972033 11.551101930434399
372.38765431878977 251.1459865048925 14.74423340264253
379.11990893771014 261.76367740982863 17.963435148978814
372.25305627950235 273.89986872635734 18.774395428808322
362.6247924120754 249.10570362448 17.369522430552184
365.1935372001525 276.67922335386 20.241005045808556
367.1644670037585 249.64923264455527 12.301906245029292
378.2324332904133 263.80272887839016 20.12393785194979
346.7021402350434 278.003624228001 15.732524175314799
349.42672947994123 256.1385813573333 5.844981230512514
344.9111609256359 280.11404312234237 4.791463631803761
369.48985561432886 252.34592595634294 23.456556372507613
365.3580520244904 280.44121334936204 9.476555740482397
376.49930459711027 255.61700585211452 19.373988183073113
374.3458923172044 272.67334187230847 6.830887552730393
372.33069811061415 260.71249482788863 1.8090956670640794
355.0305276542126 260.9825182588275 26.307598805916424
375.9499076359522 254.7019021225172 10.69159243185673
343.8125438897804 266.4362167333894 -3.0239632490469868
374.3613234295632 253.99862194729502 9.777817412109968
373.35702888963584 257.3458984186601 4.579005926631566
377.94070468044373 257.1161155326179 12.253039826112353
354.2039467571258 251.5398523014816 12.917218150523878
368.35179802524516 264.0399132161577 -1.3556684595000048
371.3996744012236 251.9140450070387 9.229064367118472
369.74092347333897 275.97473408993943 17.666684980142122
372.960276309129 252.34320430680506 10.705356973152693
373.3184512632442 255.973152320381 24.246287810879736
375.3753485914342 253.37177262551617 13.713341116313556
361.401741913542 254.51880825090754 26.641143695797112
365.80214332436196 252.40798427752492 24.830169576082422
368.96273229259106 253.91655731687374 4.436384682687904
376.31767839208004 267.9897464399662 20.845859931758724
377.09631835973937 259.1753836488266 21.41038222356565
376.5597835476866 256.03200472010184 10.084330100876393
370.22411715385283 250.22118413549092 14.34524374550092
338.9379561098199 273.195012893444 10.731611449804706
373.97157248757173 272.0633856342213 19.609612811881465
370.61053294613885 260.9003232140211 0.25997829691067015
376.8725014109383 266.18028207720823 6.285448444635987
352.3837621782241 258.567281232102 23.666252125999737
377.7384820925121 258.72076816258067 9.671670769659215
374.651602309758 256.38970980560833 22.912561268621264
371.4730609804801 251.1658603476583 18.460185573915876
379.3909318765591 265.84020718302105 15.2986039487658
361.2047695061554 282.0528902040936 5.442960834143101
375.7265604468799 253.91571007407074 18.02274637255897
362.6920820049698 248.95186408631056 15.069292859647259
362.86532858121285 254.80350318813828 27.044298359005968
376.0543790522441 253.7835947060683 15.78015004623132
354.65212941222165 266.49539836028146 26.322163664379605
372.2160204161649 275.72603627963554 10.303428681036216
374.82567030574097 258.5373791856072 5.314376942753225
377.5152226173993 257.69439899989453 19.763694253945374
351.27678336541214 282.2927517759795 0.541535436066178
360.16398320815176 249.26035322818075 13.306523597844441
371.1120824823206 269.2805848064788 0.4561900144071094
358.6370225392851 269.8441108913263 26.566236256582275
338.9148953545415 263.890515934177 8.969101534159716
375.68865613689707 258.0246338523929 6.8801881353428955
378.06171226361545 256.56621639113877 16.24646313771706
355.3265878294167 250.89170157959683 14.249312974660223
348.8868564819389 281.95447008304035 0.5229168925145041
368.83636278582907 255.5675958467687 2.5679611747505096
373.65696841968264 252.1562717670304 13.042640053460962
373.9988353092695 254.85667094154496 7.95007878860509
360.7564867185135 251.41129981351565 6.17127134029602
369.70144541767166 269.82178807437 24.9695985886937
371.4490927552491 270.6491158760242 23.61948387901373
349.48110104185247 259.29092221996007 20.79749628779844
354.40225132327345 268.3475819660811 25.948074627835705
368.97468150137485 266.37197718820516 -1.1273646822088446
369.46514965703483 272.2556431322995 -0.13741981626956498
336.7728013573525 268.16431656572115 -2.9892866047177202
351.13712937536854 279.55071138912894 16.327962325533978
374.96746240293743 267.87597936798653 22.44650037995163
376.21063260514956 269.3889930188822 20.046506290269335
378.25385956317854 259.42387584993884 19.69845303643056
360.06167911109463 266.42563981820973 28.088705078261096
376.0400604471811 259.69753347537835 6.068985605867015
353.9603302962073 282.6683420228296 6.597132481391833
375.4410163624396 255.50881044217732 9.097757003216179
355.4973468305961 256.79088029278546 25.02466772303109
371.07199166735484 252.9066164115066 7.393870992706018
341.8016971590591 264.9521646826452 -2.9434941525439893
352.9717217869832 282.59831984271136 1.191277822200748
361.7322473783803 280.596398509886 0.16795018914438428
357.2103472644427 252.19747177032207 5.606499099697329
373.5418840933409 264.2812560816575 2.1032941786887345
353.42722264861766 281.75774640385407 11.252325651650487
378.3363396791791 257.26923242637844 14.353604278954428
371.6779783450077 271.80812775848295 22.515649467823692
373.97182214817616 259.0413128336625 4.079490861783556
364.6199793148782 255.5408041440968 0.5264479352464747
344.46958935469513 263.4911997687605 17.934430056573262
366.1260685954791 270.3477074365073 25.87944724199625
366.28233771847584 279.87576563760786 8.183270262333966
352.9317343976729 260.45390904348915 -1.657804261785557
371.91373037244387 263.0390929319967 0.9165115093786095
370.9120779878421 251.94509793159963 21.876044210203254
371.7502583470702 275.7099512428968 6.75798705003708
345.23433247871225 265.7601623039544 -3.0024040830264567
367.5934401910966 273.1131543827096 -1.0916292166236383
364.21793913701896 249.68571073996543 10.232844200774416
376.3142437665432 254.48622951060085 12.483406330341026
372.7608015579826 253.3288795095916 8.599748156547962
349.47942470543313 280.5444714002732 12.820856793708668
374.83299032238705 261.82862746497693 3.9151019574122876
342.8904059838882 276.28765901850994 13.16096819059194
363.6994082496725 252.04163177450468 24.56911964785001
363.14772103739614 280.20288210974917 13.210923924414956
336.10400734545203 272.5395044323545 2.5600584058476397
369.4624638073684 277.60002988594823 13.00223141563239
376.9375113729168 259.20456289073496 7.830475390394032
363.42678438655287 249.22487729366404 11.379895924008482
374.69295232284315 263.5406885497472 3.385004288743613
369.34213377386095 276.9289751248728 15.480646037206276
353.4330335581221 254.3761966496241 5.150288455585395
346.7659274303262 281.4584856022904 0.6637260502579558
338.01930893090866 270.3295796259402 -3.158381068114328
373.5833732007066 266.9245366691734 24.352589277101522
359.83339782811515 254.44419012378606 26.140934512721305
379.2800866996419 260.8432519963202 16.08184536448533
377.6417274162655 270.1574652204649 16.198109891217783
370.3904686576589 264.81304871165366 -0.10445874040785602
360.4543538157582 249.84852506578164 9.551604580533501
362.3650476696074 281.40792381746996 3.3682855508667267
352.3661516923474 257.12113555754087 22.481933431787215
366.2463064673191 256.112585333746 0.3063619450677814
370.3419520923573 274.7285805783174 19.707683113818774
379.3123837602933 261.249750425766 13.93575586377929
377.0277272380669 261.13516401320567 7.040232397600759
379.2410016370993 265.9483520359703 13.443799807632146
378.71533443409265 266.18286919726097 11.649495491704489
367.4574899809663 258.00345599201637 -0.772238573927225
368.8757167964394 251.137213861029 21.739855690631785
378.84815216099156 262.4781352114577 19.32756373958227
362.10131719451255 278.3239835563932 18.62190792658567
373.16149598330765 274.3102424507002 7.246651953922519
373.40147397810273 274.57392836751154 9.482451323033843
378.3286815841743 267.26067540059796 18.164678812794605
378.3888794051779 268.8284500178032 15.318711996150293
377.81087287879166 262.98931210605963 8.21475078582538
356.74104005952654 281.04124313629785 13.570983349391897
361.4531843912348 276.27506418420984 21.741319255197954
363.8063573656692 277.7665408407034 18.636709074425934
379.5736587187108 262.6673721342303 15.036064529068094
366.2814331082497 249.0927885887648 13.76684633361662
339.1959805496318 263.12508141783013 6.069007463718602
373.3634302681136 261.0325051120154 25.700674366575612
365.97248163125096 261.9627376527888 28.92468060296866
359.548159751531 253.16213665058405 3.156119453933009
351.57897732738945 270.65340353762673 24.134026897829116
349.64675649019046 270.2746513484431 23.249416865889764
364.49913554754994 271.60372283487715 25.519683999917387
359.02668441358594 250.34282920072837 8.719425327507155
361.80722945980017 281.8557451201637 7.171078122406344
364.235809984529 248.83216693067038 16.124346847417453
367.2422982451279 276.433216228798 18.911058363947564
369.5557089055021 266.6322817011858 26.74399382331282
335.8458226594706 271.90028268440915 5.118283096842575
374.54794900260606 273.0622551039294 8.603560951029653
355.86871991326336 251.76853177446543 19.25291366383348
349.7831578925935 272.0078192047342 22.619293556683832
377.62927503714695 270.2262908940452 14.403690726743632
343.99067455318635 278.80423508523825 9.612334226695584
375.9814183668148 270.54168796049515 18.929375673358265
376.4120334420338 271.0708121054092 16.944258152547842
376.010856909208 264.275559038913 22.81051534618099
377.92167610049194 260.67383972952973 8.974133283593337
378.2224533305537 268.7203131903238 13.436827236585254
349.4925174878784 259.5437980448828 0.6593755508256646
377.3200255656727 255.74103918393615 13.31208657337098
370.0123384045843 274.9869553683625 1.9465919796327478
368.8572776346222 249.78368183447085 16.078874756541552
373.91967993347816 252.86462607907293 18.77865876073053
351.16339517157274 268.9961107781059 -3.125040012737454
364.47236446003274 279.0965963380968 15.28449213625184
368.6848191554312 261.343365094005 -1.179236944203256
359.4566916992717 257.34975200721254 -1.0445718102020316
358.1331668875254 282.5767926762124 7.549829582812851
375.83732930738074 262.194641355664 23.42974433616617
365.90260726635233 268.20246068904083 27.15408198368762
375.55712402754705 271.9339794208121 9.732642275259346
366.3019088276553 249.8782199319128 10.487528531018697
369.9355176468763 250.83894071056483 10.353169109251319
348.6348125575645 280.9916443500317 10.28336344422316
347.8834504806178 258.05214943133103 4.289918322263392
373.5673093156032 255.9435358503897 6.295189430426095
373.64518417957936 262.284022454871 2.4188095271969563
373.93896831151125 273.38960978612096 17.33392320761857
359.41928990149637 282.4405704148547 6.1059209882683545
354.9264780818929 268.02877907402427 -3.1406375121466814
368.12903832842926 274.99683153748356 20.69822150419384
370.9989774011213 276.2550084101881 14.518987211941257
356.67023459186623 282.73787898653165 6.4103707475382095
379.07857315809395 265.6784087655762 17.2396291105114
344.02040644661537 260.48204523995145 3.554120302925809
362.3643130968361 279.0628734973846 16.792980913777953
364.3138240633105 280.8241069145587 4.52953362847789
375.78904178788264 263.1063216252521 4.663549107794188
346.3988712399348 271.37680766143376 20.901597988471615
364.73128365954517 249.4849753977024 19.725188376700036
372.60928983533427 270.132353103076 1.7569581346301568
349.74620648077166 256.40828361928334 17.94859950483144
362.4938785002021 265.6216153463622 28.51300643397252
361.76828461560393 277.3707070411103 20.202731774914252
378.86792343241694 259.95344870676826 18.04286740092834
372.47333830619544 252.9197862480013 21.886231824486234
375.47225646677776 271.10491370137476 7.7917944449221075
353.092662661421 252.43703370833103 11.553913082871942
376.7136565542477 262.92895440478145 6.237864643244217
376.884311198347 271.2711455955745 15.424903002188874
356.9024880370603 255.9310843188032 25.61623449452209
370.06011508205523 253.81242997747052 24.932561053814602
362.16239005228346 257.5878395946934 28.257553460707857
371.813272485027 260.8753256708615 26.73902039214323
364.8001375177514 269.36453232303353 26.96746357504893
355.49962186062487 277.11737963328966 20.789552891420453
362.0383783181688 281.0702200866227 1.97545336161509
356.8054429926027 253.5180527974716 23.252786410284575
368.9258725940798 275.6521219892086 19.31599568194392
336.138940401401 271.0273124553452 7.8338949230355635
368.4681139652156 278.60091148562316 7.918739925033901
343.35563048340754 261.80012174433307 14.380114666913501
351.6208993933166 282.7520951330243 5.484247800882787
370.15119168556845 277.3316039563494 11.323835590025555
360.61949489880936 252.53375016743695 4.164589280847713
345.71742382098535 269.4951411962561 -3.0329797364707223
375.25488564717955 254.93643679404147 21.376924535957443
358.3318579617617 281.5001817850969 -0.5849977387169867
343.03454036834205 261.73263069172754 1.4903364711205316
361.9127637754848 281.4667246333795 9.951961464923041
357.787693168275 260.0524946008611 -2.444068158820469
379.47948462666136 264.1495889389764 16.115117353628914
368.1706010597116 268.5660798865815 26.286546438669227
376.68311682266284 270.11956418994447 10.020010257323216
368.79825593396197 278.2553103639566 10.37080685104919
379.1531047914717 263.09345718354473 11.62710273275623
370.1670524396597 268.1247055995892 25.811104671096214
357.3785523860119 261.29056451411725 27.577408066386933
349.3424107722981 255.71469267102063 16.217086296228686
362.568042896955 266.3235789842989 -2.9917248970726154
352.3360931301768 276.09183272982955 21.03975595202579
358.21791043182964 258.8109880357268 27.564123274971855
367.8781621964659 277.0984536405707 16.805393796538347
345.43484509237356 266.78183423352385 20.164021788018992
356.8791430279551 282.4546551679964 8.856526384698705
377.9136598450313 268.2141078551308 11.34650518779696
359.8876705229387 250.89802422148372 7.403456518773127
371.4678341788648 276.3482372178876 12.078042583105793
358.7512733572571 256.3241984302737 26.956382920086327
379.2390862970468 264.48528045574557 12.37591881521559
360.9006242188097 281.1345286252086 12.224755838999808
362.2803688638369 251.91860339479317 5.059786470125347
351.44359715642906 265.1728470560529 -3.030100869328306
353.3794067159469 271.9694372049266 24.250550308874516
363.96478309486 261.6650672498851 29.066957228748297
339.32516727867585 266.51311927344966 -2.963407608461047
347.94014249219975 257.1860098087291 16.083105789465456
357.8862798682801 255.50400945767143 1.1124299291660462
371.6871349797715 272.86326270724373 21.073622601106237
344.0694783509382 270.61929612034544 19.25098484029085
365.60928705402324 272.72395493089806 24.19666379131753
352.8074468100463 257.41834563656965 1.484141926815324
348.0535147387945 277.3375602089901 17.69604165547751
346.78300877842855 279.29750266011524 13.477161162583023
378.18281801237237 258.30746681427877 11.214270965737954
364.01283665740993 250.1660659748392 21.67339752570802
354.50952261312693 275.2175699701816 22.487822572339876
353.8006273757052 256.1887032534239 23.139087357355375
365.5112331643001 277.180811071802 18.748510888406607
361.765976823598 267.3761086112951 27.950266037875316
378.6379238560189 262.1186926825378 10.347314651594598
376.0275607949509 266.95198070146074 21.989431132239375
368.43224301303206 250.3036787996486 20.036514917900227
339.4675968252282 276.075877139595 4.124048398727204
355.35987628308305 250.94277453225857 11.706653630907068
371.46683039650327 273.9873765059406 2.4577238242107833
355.43372272894396 282.6205446081527 7.844381176649343
377.64985964239247 267.14304814155577 19.82536670171859
375.43599586794454 266.03174503838994 22.99150871264279
361.78911986268827 251.66521922887443 23.948093680523364
337.73104906175286 267.8880032353469 11.514813127181787
355.334285168703 255.43604417594958 23.793297327929825
369.57135121933095 260.87144983659897 27.75715394584865
379.49738308097926 262.8912240000575 13.197950835808815
371.5139748280266 253.1770226983756 23.43798403903979
360.77366403772527 264.6175462180951 28.619149892901675
354.7471463795073 253.1364213746605 6.14767907867464
344.79228586979946 265.0403330812154 19.17569498326995
366.50903108891424 249.02501924642365 16.028717582595075
364.7959442295929 254.73074449545797 27.08488531621199
354.5733337403182 251.77137008971346 9.454120192188954
379.5405454510877 264.33542274595203 14.233052403079952
363.1230721326653 254.40340846313785 1.711861385084127
351.4438189385413 254.51145064203047 7.031310923452774
363.31151415810206 250.7848990750175 23.33450311900175
357.1758835967476 275.5794998687944 22.68736624264471
343.86857239488836 273.17129779133836 -3.0948766759751023
360.02791653039355 249.79226645338142 18.242553331499778
358.95813764971876 263.6541904538317 28.12471035339912
374.91656686618524 269.85666379178946 21.07526996965156
354.0250709617295 251.56171746269257 15.51564877778591
361.06407383131926 249.15344410690264 11.857301676631316
361.80527778658944 271.0066438448627 26.206495170253366
360.1047298684857 281.6934015098306 10.587158461896719
378.6045613480367 261.0302832065831 19.411570043438864
364.4087482280179 263.7169470020719 28.830407943853533
347.0976291682056 257.2785215609716 13.152780665293673
339.6393128537798 263.036154450413 3.100789313742639
379.0541596753207 261.5885143253726 12.162952217415182
336.54334602509334 265.4452292781634 4.081788700812242
358.79582797441947 249.63591150041833 12.444763243459326
357.2187570700917 271.2998536116336 25.527506716008496
378.7544831831333 267.3063382161921 16.274325099096576
378.0989760030798 268.793223409695 17.160698579223943
373.8307771889834 253.45817713160469 20.841284912684173
372.9608931162311 271.16944058444636 21.91955963811518
378.6131263495872 264.41059107004384 10.26538682327212
355.13761626030066 281.54662262361535 11.90158719968418
363.2001659492485 250.19072082906283 8.774361094135191
360.69584178991425 249.18438136746357 15.58436964395385
347.9939914627799 256.2027762905916 10.724002694989897
358.40255582621273 252.7447485729165 4.420758516590211
365.4264822862086 251.69629314677874 6.0576015540162205
343.42849668515635 277.52745432432914 11.38994600310846
374.7433232075923 273.38459305249665 10.70042334789836
340.77082520798183 276.6825629440699 7.350902078450706
356.8037773676354 250.58976516028034 9.440756799359935
364.94544212361774 249.20737555873288 12.156653177575418
364.5417690129744 248.9053098188509 14.319407621718918
357.77852138904 257.23257870845043 -0.5737846993184048
357.2672284206912 253.58074706270807 3.5427368191375614
377.4362843573317 257.15643511900936 10.546084769644995
366.50785527116034 250.44310426570974 21.211704693228384
377.18121558082527 255.1903618046665 17.150678657645525
378.8489052025097 267.34197525359764 14.428405956724783
358.193465378192 279.26087426980143 17.85764510362217
363.4949044501947 270.3731996967169 26.441021597515654
345.28663631006765 259.5464521124752 14.01424430494886
373.00500442816895 251.7135175273425 17.07566808316509
376.22664843557186 260.18452330407376 22.970281944506834
365.12296592805376 251.19635171670717 23.189514748182383
347.7638284222889 270.01858702953626 22.019249627411305
367.46999853496345 251.5856270393207 7.17125729238964
367.3023036678018 251.75301719987195 23.238565950432587
375.45848096415807 272.4768283131672 15.704799394096066
361.60193227480744 256.2945363850052 -0.7444746451670615
377.27123695481936 268.8236185821448 19.041626529830555
377.15862656755394 269.935096509218 17.684357208596875
373.36092249925804 274.87598335994073 11.614595121071124
367.60799556137414 279.22091301236384 9.237918900835988
343.35022475381993 260.03375609715636 10.076685172746261
361.0476860676919 257.54665535292486 -1.471688106144348
377.3773711059259 268.2751253411873 9.40528589770244
360.23740168440145 251.18314155879017 23.032893180184708
351.3524722923473 281.05669609612505 12.763433576770225
364.064149947282 281.1038836485128 8.340886380262903
373.44121781938185 254.37959543060475 22.9038241571585
361.9697625306451 249.47959689871138 10.427070833257078
361.14418354916046 260.73842163086306 28.729394867614236
379.39587639118025 262.622589997361 16.673979278365497
370.1148513098561 262.8181621519013 -0.4687341102732762
369.68207841732726 257.2959309179135 1.3231975560137916
367.90053448176275 262.0710513245282 28.55660315144334
367.575327105487 278.7487804264697 12.299971554603678
368.0787930890507 270.06829521424584 25.42729329691044
342.76606471846543 274.8998997806816 14.66843091339957
373.28221971215874 269.204700212351 23.0542486758321
376.3244027363628 271.5520481972949 13.805935898627853
370.7340276538363 254.01771349821428 5.608018280568015
363.9326355399017 269.9306374400937 -3.010290344030246
366.95289289193425 249.43518993864524 18.679980313388857
341.38401521071467 263.4923604010186 13.381308141083121
359.7205951568964 279.79621640709905 16.35078955643419
375.9767769522505 271.81365816013573 11.642189690276625
377.3828332264616 255.42918029803647 15.156515017916396
352.28372481122693 262.47013998204216 24.687948870807322
337.5858638325867 274.1162674848555 4.612715213152228
355.08930046865277 280.0141208559061 16.453915556504306
348.4343124614297 255.77064028280856 12.40277037759821
365.4509452193092 275.39150618009495 -2.359499531068005
346.6130002606159 258.2715305825548 14.994031120110396
369.83680500506176 256.79029189549215 26.85641662180674
363.52473500914624 268.0773664938699 27.57597945710841
373.82409595002486 260.44563931130057 3.2032089601893285
362.55939496632493 256.1275886989254 27.693443226677406
377.1081393893892 270.0868771935228 12.443976833162813
358.9818209647823 282.22735742673575 2.427311712190048
360.63828117379495 259.2714542741161 28.362399550611784
351.98453083962545 256.0311030555161 21.057883339106155
340.1946590222098 264.6655620752416 12.773729238707233
359.9731111005675 277.8271634716414 20.194781775427384
377.0559019325734 265.67142060324153 21.314710918636866
364.0564062789681 277.97389342360304 -2.9835837479471676
350.0270621894448 258.16786610211375 2.2119308430446116
372.028341807422 254.71494186550584 24.798538932359655
374.77690427415405 273.4105182053634 13.24550878534289
362.9898782968203 253.08388268716905 3.479067449660373
359.49617639237164 282.1536669520157 8.804377402712293
351.42601421969226 277.35412993142637 19.634315317816842
369.5241716621484 251.68973073505543 8.232962658287846
344.36736927890166 279.03882318788106 -0.8059781559196454
350.51424049088024 257.45197492340446 20.50481468136966
336.93218248780363 266.0195071052727 8.215128178397393
363.83667693609027 252.07840386974863 5.080990064633867
347.9315364263496 281.46387262019994 -0.9791501649766601
351.6551827324283 280.3563149520176 14.551695811945764
364.3628611493497 267.1954901918108 -2.990158934160677
374.6614769894209 260.1090775270229 24.400295582627173
378.7350627741591 267.3268279504126 12.829449781095104
373.65696382981116 266.0473797490631 2.139939532554832
375.69943121519134 269.4388951334374 6.166000820848794
368.6738846967427 258.5083080132693 27.758876256614947
343.55053793893785 265.9016276495587 18.275574442323013
373.90864310610203 257.79749781678373 24.401847678943188
343.8159449960997 260.4785611896879 12.837789184626702
363.5169976273002 276.98650224945004 20.192850382281783
352.37676408249206 273.4327345888666 22.997465757031442
371.4988208274075 266.7222361501834 25.81434546946242
370.9085957058587 264.643945172485 26.931241305294847
374.2108760407542 252.49322703852002 15.229625280183617
362.38782717427813 249.73130412478693 19.874897067569343
352.3518377077189 253.74100431863627 17.863928579379138
366.6152665948435 255.24660656781157 1.5086332417797024
367.49016470311244 266.49058191408176 27.50712815859039
370.92721140793486 250.60098145933574 16.49537293151794
364.2984638142598 278.73628756764145 -0.7912120586900051
346.3330050996343 261.4514344003879 0.1107804770622381
367.1861183244332 278.17464741407974 14.717819243069446
350.4884339582264 280.1195854800175 -2.9743320453013093
372.7578095785653 251.84726966964692 18.647605556611648
366.9787879784256 267.7228646967269 -2.005341501311661
374.8016794382202 253.4842744814046 11.730301743562487
366.6088442780968 275.77012159903063 20.463598716175603
353.40302831297134 274.38869644651936 -3.0501778700437416
367.0487724300606 264.1171818336308 28.369696940937157
337.92025571694245 264.40248250179224 7.215655998564824
359.2889051203279 254.89688848534107 1.4357709911447847
367.73666595600594 256.83037500293267 0.4662010183109734
361.9112723035334 250.53331021713072 22.202218407521727
356.6550877367742 254.6290440994054 24.530149704707775
359.62807979396365 249.5268002407479 10.971949226719603
346.6858167111709 265.46355507020456 21.004868468894156
361.0937750301675 255.88830664764617 27.253515315812322
349.135906002809 279.2982344183875 15.634804165136424
367.9745872801589 273.3515867962395 22.651326923919424
374.4532115967893 264.2449466843931 24.418251691664096
358.67129253320786 273.6711473702879 24.277933616703812
372.50587238557483 273.75487745525265 3.7503062292778453
355.4329382016942 264.9683322881114 26.85163662444413
346.9925665209808 280.82713985846505 8.591632326695688
354.77905613745855 282.5095064953866 1.6031102973667088
370.5069901795224 255.39881109547255 25.77111359646597
362.22726562308304 255.37315826403847 0.2699976139867063
378.4803821671589 258.3984748279903 18.460502770948253
355.3866233702215 273.0827797889552 23.93170795671697
347.2146282250643 262.7275121822446 20.392868890026165
378.05309620148125 266.630434053468 9.776187590175914
370.39413406382494 255.13715593606761 4.095000763911253
365.3901690848434 260.58789106341476 -2.3863314278676575
378.52681266886583 265.61147515321886 19.267442192874515
355.3116474840513 254.07002970628957 22.595286557612333
355.896618923519 258.2591155962926 26.149403290027035
361.9041938409186 253.20075971490343 25.722606601006138
350.83269471344215 266.62364728005895 24.33047255176676
347.6065059409808 280.3019407510341 11.880013638887554
353.4923318676263 261.86614888834055 25.479355297701336
371.1224920376876 274.9426837937538 18.18186492776409
377.33076538562204 267.2682195385305 8.00146844930546
370.5907721659156 273.1947289272178 1.2618783727607417
339.69370720715887 274.54356146943377 -1.2522794978425218
374.5742077835658 271.33926116541306 5.3172613261418995
379.0851877654565 260.16411553593395 12.816140030653434
371.0714380489273 271.303053831308 0.8368011329935372
339.0042920752807 265.8358118247633 12.344263957589943
351.2959431224332 260.8505571419014 -1.2611862247508716
373.43780215836944 273.2400238917925 5.371776385842408
353.1257172696687 278.0631762792866 19.18651710509238
361.6787732911847 268.1167397578391 -3.0277310110843456
376.4654569816074 264.49506703706254 5.343475602876254
356.27935201529334 282.86680667969586 2.6775645019148553
364.85271391797147 280.7013573143275 6.068062862508179
373.83987117217174 269.10617714804806 2.7262490148880967
370.1796970183006 272.2260869075008 22.969081444920295
340.3775749943354 267.95819168242264 15.281636339177172
363.16687797996116 251.11031031595135 6.779026322271153
343.2810965853979 260.39218649365296 5.510778202992854
365.8146847898103 274.8956365178785 21.94480990600983
355.99085745183453 253.25618126382784 4.731307191118925
374.6335201010693 265.26955797239367 3.250171589912106
349.4691848369375 255.1275425219471 8.754106711493288
371.9847971552252 275.03169127125943 16.499627484055363
354.52284281602033 280.6418952326614 14.582272122007485
374.54927457055317 267.3259168166119 3.3011750442011163
358.5543121691672 251.48093886502107 6.530845106905861
369.941001441857 271.08845526482105 24.094686766065625
375.73033205021665 265.9219900498736 4.512518126642146
359.83820382290133 250.56393110223334 20.941613713642894
378.0122831874563 256.8409592687875 17.999833807528894
353.5421611205625 253.07441642125207 7.686149474252508
351.54207837370666 261.2531178564417 23.831955625382538
POLYGONS 1896 7584
3 461 920 925
3 656 920 461
3 656 860 920
3 656 366 860
3 411 585 925
3 925 585 461
3 608 656 461
3 656 683 366
3 586 585 277
3 585 586 608
3 585 608 461
3 656 608 630
3 656 630 683
3 586 798 774
3 774 845 823
3 630 774 823
3 630 823 683
3 823 817 835
3 683 823 835
3 47 942 309
3 945 942 47
3 486 945 47
3 860 309 920
3 860 47 309
3 177 47 860
3 177 486 47
3 177 860 366
3 928 6 945
3 928 486 55
3 917 906 148
3 177 917 486
3 945 486 928
3 177 366 917
3 917 366 802
3 802 906 917
3 695 802 683
3 802 366 683
3 835 695 683
3 695 580 906
3 579 580 858
3 714 305 399
3 580 699 766
3 758 720 685
3 714 488 305
3 305 488 616
3 766 699 685
3 641 261 697
3 697 261 798
3 580 766 906
3 611 617 835
3 835 617 695
3 617 611 588
3 587 762 763
3 763 762 588
3 695 906 802
3 588 570 763
3 588 611 570
3 577 758 733
3 733 758 685
3 921 305 758
3 921 399 305
3 720 766 685
3 579 741 699
3 906 766 148
3 733 685 699
3 741 733 699
3 55 658 928
3 148 766 589
3 468 399 537
3 647 6 928
3 741 593 733
3 809 569 593
3 697 559 641
3 641 559 563
3 794 817 845
3 305 720 758
3 577 733 593
3 486 148 55
3 148 589 55
3 479 727 796
3 727 909 587
3 6 938 945
3 858 580 695
3 817 611 835
3 817 659 611
3 845 798 261
3 845 774 798
3 762 784 588
3 784 617 588
3 614 659 794
3 659 817 794
3 647 928 658
3 589 616 578
3 589 766 720
3 796 587 763
3 796 727 587
3 593 741 681
3 741 491 681
3 720 616 589
3 261 295 845
3 845 295 794
3 295 637 794
3 579 491 741
3 579 699 580
3 589 658 55
3 858 784 579
3 858 617 784
3 617 858 695
3 845 817 823
3 611 659 570
3 570 659 614
3 578 658 589
3 429 554 647
3 636 562 554
3 554 562 647
3 945 938 942
3 942 938 859
3 560 488 375
3 917 148 486
3 567 895 728
3 636 554 833
3 468 781 714
3 636 535 562
3 714 399 468
3 433 811 286
3 447 781 468
3 464 466 528
3 539 283 833
3 539 467 283
3 415 526 499
3 539 499 467
3 467 499 288
3 762 643 491
3 286 283 433
3 433 283 467
3 714 781 488
3 488 781 375
3 763 797 796
3 763 570 797
3 797 570 614
3 784 491 579
3 654 754 524
3 539 833 415
3 749 613 484
3 429 526 415
3 781 481 375
3 464 528 481
3 375 481 528
3 466 552 512
3 479 841 727
3 551 475 881
3 471 530 552
3 471 552 473
3 376 467 635
3 881 473 466
3 466 473 552
3 658 578 429
3 881 464 551
3 881 466 464
3 636 462 545
3 636 833 462
3 545 535 636
3 511 475 869
3 869 475 496
3 384 473 511
3 635 424 376
3 635 512 424
3 622 397 493
3 493 397 496
3 397 869 496
3 447 619 551
3 754 449 583
3 754 654 449
3 869 448 511
3 796 797 613
3 613 797 614
3 569 394 577
3 528 444 375
3 444 512 635
3 524 903 654
3 654 903 395
3 376 907 433
3 619 537 824
3 921 758 577
3 552 424 512
3 552 530 424
3 485 545 462
3 462 286 485
3 429 415 554
3 554 415 833
3 784 762 491
3 464 447 551
3 788 448 869
3 764 425 622
3 530 818 424
3 478 907 818
3 824 537 507
3 376 433 467
3 539 415 499
3 526 506 499
3 499 506 288
3 395 569 654
3 512 528 466
3 512 444 528
3 507 395 947
3 507 537 395
3 942 931 309
3 931 650 0
3 500 460 947
3 480 412 789
3 444 288 506
3 511 881 475
3 511 473 881
3 351 643 909
3 535 409 859
3 510 907 478
3 510 433 907
3 489 402 388
3 489 676 402
3 789 628 857
3 351 681 643
3 643 681 491
3 526 560 506
3 493 783 460
3 783 824 507
3 841 406 454
3 454 351 909
3 754 315 524
3 412 480 315
3 315 480 524
3 818 530 423
3 578 616 560
3 493 405 622
3 493 460 405
3 405 460 676
3 587 643 762
3 587 909 643
3 490 879 425
3 425 879 622
3 490 788 879
3 879 788 622
3 460 402 676
3 460 500 402
3 632 400 426
3 453 631 400
3 400 631 426
3 921 394 399
3 399 394 537
3 593 569 577
3 841 909 727
3 841 454 909
3 622 788 397
3 397 788 869
3 583 396 754
3 569 395 394
3 394 395 537
3 789 412 628
3 412 406 628
3 619 468 537
3 619 447 468
3 708 450 576
3 708 484 450
3 450 484 637
3 475 390 496
3 619 824 390
3 390 824 496
3 637 389 794
3 637 484 389
3 389 484 613
3 402 480 388
3 388 480 789
3 619 390 551
3 551 390 475
3 393 439 490
3 388 863 489
3 863 474 489
3 511 448 384
3 384 448 482
3 439 874 490
3 448 788 874
3 874 788 490
3 488 560 616
3 473 378 471
3 471 378 632
3 473 384 378
3 378 384 632
3 424 818 376
3 376 818 907
3 506 560 375
3 524 480 500
3 500 480 402
3 442 236 226
3 236 510 478
3 546 393 425
3 425 393 490
3 824 783 496
3 496 783 493
3 460 783 947
3 947 783 507
3 411 925 897
3 540 872 442
3 872 887 510
3 510 811 433
3 510 887 811
3 625 810 485
3 485 810 545
3 625 470 810
3 524 500 903
3 903 500 947
3 471 849 530
3 849 423 530
3 578 526 429
3 578 560 526
3 749 522 479
3 506 375 444
3 518 880 418
3 485 325 625
3 811 887 325
3 859 368 942
3 368 503 650
3 545 810 571
3 571 810 470
3 577 394 921
3 368 859 409
3 625 360 470
3 360 365 470
3 467 288 635
3 288 444 635
3 781 447 481
3 481 447 464
3 681 351 809
3 809 593 681
3 470 518 571
3 640 166 576
3 576 166 708
3 166 932 708
3 616 720 305
3 571 362 409
3 571 518 362
3 412 396 406
3 406 396 454
3 809 449 569
3 569 449 654
3 728 615 841
3 628 406 615
3 615 406 841
3 606 682 873
3 448 874 482
3 519 339 549
3 360 625 361
3 0 650 276
3 650 922 276
3 365 856 880
3 365 357 856
3 422 331 360
3 360 331 365
3 422 357 331
3 331 357 365
3 880 330 358
3 358 330 819
3 880 856 330
3 330 856 819
3 922 918 276
3 922 519 918
3 549 329 519
3 325 361 625
3 543 670 322
3 322 670 355
3 358 321 339
3 339 321 549
3 358 338 321
3 321 338 549
3 927 819 856
3 335 350 373
3 418 318 503
3 318 519 922
3 559 877 563
3 749 523 613
3 613 523 796
3 749 479 523
3 523 479 796
3 519 318 339
3 339 318 418
3 550 631 777
3 631 453 777
3 411 547 585
3 585 547 277
3 658 429 647
3 754 396 315
3 315 396 412
3 503 922 650
3 503 318 922
3 396 583 454
3 454 583 351
3 351 583 449
3 449 809 351
3 942 368 931
3 931 368 650
3 948 743 564
3 794 389 614
3 614 389 613
3 640 668 605
3 605 668 472
3 640 576 668
3 668 576 472
3 381 936 452
3 301 380 863
3 863 380 474
3 789 857 388
3 388 857 863
3 354 822 327
3 679 319 805
3 670 430 355
3 338 385 829
3 829 385 350
3 338 373 385
3 385 373 350
3 624 367 557
3 356 319 367
3 367 319 557
3 927 123 819
3 335 373 123
3 123 373 819
3 920 309 0
3 309 931 0
3 307 631 550
3 624 303 348
3 348 303 592
3 624 645 303
3 303 645 592
3 370 322 332
3 332 322 355
3 549 299 329
3 829 298 338
3 338 298 549
3 829 299 298
3 298 299 549
3 295 940 637
3 940 450 637
3 819 293 358
3 358 293 338
3 819 373 293
3 293 373 338
3 410 927 304
3 645 822 377
3 592 584 653
3 653 584 377
3 592 645 584
3 584 645 377
3 880 292 365
3 365 292 470
3 880 518 292
3 292 518 470
3 472 291 563
3 563 291 641
3 472 940 291
3 291 940 641
3 482 407 289
3 289 407 453
3 411 897 383
3 0 287 920
3 287 897 925
3 503 362 418
3 418 362 518
3 348 877 624
3 358 285 880
3 880 285 418
3 358 339 285
3 285 339 418
3 811 325 286
3 286 325 485
3 286 462 283
3 283 462 833
3 576 916 472
3 472 916 940
3 576 450 916
3 916 450 940
3 383 897 725
3 563 692 472
3 348 605 692
3 692 605 472
3 605 882 640
3 640 882 936
3 605 452 882
3 882 452 936
3 381 865 653
3 653 865 592
3 381 452 865
3 865 452 592
3 947 395 903
3 647 562 6
3 6 562 938
3 562 535 938
3 938 535 859
3 571 409 545
3 545 409 535
3 409 362 368
3 368 362 503
3 863 857 301
3 301 857 596
3 749 484 765
3 765 484 708
3 422 374 326
3 422 281 357
3 281 304 357
3 383 308 280
3 280 308 355
3 519 329 918
3 918 329 620
3 308 383 620
3 383 725 620
3 276 287 0
3 920 287 925
3 430 547 280
3 280 355 430
3 326 341 281
3 281 422 326
3 798 498 697
3 277 317 498
3 498 317 697
3 383 280 411
3 411 280 547
3 547 430 277
3 277 430 317
3 620 725 918
3 918 725 276
3 725 897 276
3 897 287 276
3 299 266 329
3 173 706 651
3 586 774 608
3 774 630 608
3 670 262 430
3 430 262 317
3 670 684 262
3 262 684 317
3 940 261 641
3 940 295 261
3 374 361 260
3 329 266 620
3 620 266 308
3 341 326 258
3 258 326 801
3 453 594 777
3 777 594 778
3 453 407 594
3 559 813 877
3 559 684 813
3 813 684 356
3 357 689 856
3 856 689 927
3 357 304 689
3 689 304 927
3 355 308 332
3 277 498 586
3 586 498 798
3 932 944 515
3 515 944 514
3 932 432 944
3 944 432 514
3 356 799 543
3 543 799 670
3 356 684 799
3 799 684 670
3 432 710 542
3 317 673 697
3 697 673 559
3 317 684 673
3 673 684 559
3 482 621 407
3 482 874 621
3 621 874 439
3 846 742 442
3 442 742 540
3 742 902 540
3 887 581 325
3 325 581 361
3 887 260 581
3 581 260 361
3 304 281 391
3 391 281 341
3 374 260 251
3 251 260 540
3 251 540 902
3 582 722 393
3 393 722 439
3 722 820 439
3 743 948 228
3 853 846 226
3 226 846 442
3 456 224 743
3 743 224 564
3 456 275 224
3 224 275 564
3 793 582 458
3 771 223 943
3 943 223 513
3 771 674 223
3 223 674 513
3 341 221 391
3 391 221 337
3 341 241 221
3 221 241 337
3 846 674 211
3 779 237 258
3 304 208 410
3 304 391 208
3 208 391 337
3 853 701 846
3 513 674 701
3 701 674 846
3 371 210 497
3 246 229 657
3 361 908 360
3 360 908 422
3 361 374 908
3 908 374 422
3 932 894 432
3 640 936 894
3 479 721 841
3 841 721 728
3 479 522 721
3 721 522 728
3 932 538 708
3 708 538 765
3 932 515 538
3 538 515 765
3 258 680 341
3 341 680 241
3 258 237 680
3 680 237 241
3 275 207 564
3 369 250 207
3 301 379 380
3 732 861 379
3 508 469 724
3 724 469 657
3 508 246 469
3 469 246 657
3 599 345 271
3 902 795 251
3 251 795 801
3 902 239 795
3 795 239 801
3 902 211 239
3 769 494 451
3 254 312 255
3 255 312 463
3 254 911 312
3 312 911 463
3 267 107 222
3 107 214 273
3 873 203 884
3 652 755 203
3 203 755 884
3 667 910 214
3 214 910 273
3 667 731 910
3 910 731 273
3 738 407 621
3 239 626 801
3 801 626 258
3 239 779 626
3 626 779 258
3 662 431 837
3 568 892 698
3 596 663 301
3 233 732 663
3 230 387 197
3 214 609 252
3 267 249 609
3 609 249 252
3 728 522 567
3 522 816 567
3 755 597 884
3 371 748 525
3 832 786 427
3 380 831 901
3 861 201 831
3 269 515 514
3 884 145 873
3 873 145 606
3 884 220 145
3 214 206 667
3 667 206 216
3 214 252 206
3 206 252 216
3 606 868 867
3 868 220 233
3 201 861 387
3 861 197 387
3 451 204 870
3 870 204 649
3 451 217 204
3 204 217 649
3 755 652 202
3 812 197 732
3 732 197 861
3 934 242 513
3 778 604 494
3 778 738 604
3 381 195 936
3 296 710 195
3 195 710 936
3 374 194 326
3 326 194 801
3 374 251 194
3 194 251 801
3 837 253 662
3 698 892 253
3 253 892 662
3 407 738 594
3 594 738 778
3 738 344 820
3 820 344 439
3 738 621 344
3 344 621 439
3 820 217 738
3 217 604 738
3 371 234 748
3 234 205 463
3 445 278 477
3 477 278 556
3 193 198 568
3 423 792 192
3 837 191 691
3 191 202 748
3 724 776 190
3 442 872 236
3 236 872 510
3 270 825 205
3 270 316 825
3 427 719 832
3 832 719 652
3 427 525 719
3 719 525 652
3 233 220 732
3 220 812 732
3 873 682 629
3 629 682 542
3 377 840 653
3 653 840 347
3 377 245 840
3 840 245 347
3 748 735 525
3 525 735 652
3 748 202 735
3 735 202 652
3 494 604 451
3 451 604 217
3 662 834 196
3 196 834 495
3 662 892 834
3 834 892 495
3 482 289 384
3 384 289 632
3 400 632 289
3 289 453 400
3 724 740 776
3 948 247 740
3 740 247 776
3 226 772 853
3 792 307 772
3 380 844 474
3 380 901 844
3 870 747 451
3 631 307 426
3 426 307 792
3 508 408 267
3 267 408 249
3 508 259 408
3 230 359 387
3 662 196 359
3 359 196 387
3 729 803 888
3 803 198 216
3 890 760 190
3 190 760 259
3 890 502 760
3 760 502 259
3 812 597 197
3 197 597 230
3 478 192 236
3 236 192 226
3 911 186 691
3 691 186 698
3 911 660 186
3 186 660 698
3 387 184 201
3 387 196 184
3 778 183 777
3 778 494 183
3 622 405 764
3 764 405 676
3 230 704 431
3 230 597 704
3 704 597 755
3 198 912 568
3 495 739 196
3 495 278 739
3 739 278 445
3 546 734 458
3 888 744 729
3 729 744 556
3 744 790 556
3 582 782 722
3 722 782 820
3 489 474 806
3 474 844 806
3 691 191 687
3 687 191 748
3 426 792 849
3 849 792 423
3 242 768 807
3 807 768 550
3 242 934 768
3 606 686 682
3 682 686 514
3 686 269 514
3 662 359 431
3 431 359 230
3 790 782 793
3 793 782 582
3 427 752 311
3 311 752 296
3 427 786 752
3 752 786 296
3 234 463 687
3 687 748 234
3 652 203 832
3 458 443 793
3 443 477 793
3 201 184 272
3 272 184 445
3 837 808 191
3 191 808 202
3 837 431 808
3 808 431 202
3 515 816 765
3 515 269 816
3 451 747 769
3 884 812 220
3 884 597 812
3 844 734 806
3 307 934 772
3 772 934 853
3 807 751 890
3 890 751 502
3 807 183 751
3 751 183 502
3 765 816 749
3 749 816 522
3 816 269 567
3 567 269 867
3 489 806 676
3 676 806 764
3 431 704 202
3 202 704 755
3 425 655 546
3 425 764 655
3 655 764 806
3 333 37 335
3 335 37 350
3 792 772 192
3 192 772 226
3 495 912 278
3 205 898 497
3 497 898 371
3 205 234 898
3 898 234 371
3 296 601 710
3 710 601 542
3 296 786 601
3 601 786 542
3 347 591 653
3 653 591 381
3 347 238 591
3 591 238 381
3 592 718 348
3 348 718 605
3 592 452 718
3 718 452 605
3 269 686 867
3 867 686 606
3 514 814 682
3 682 814 542
3 514 432 814
3 814 432 542
3 901 661 844
3 661 734 844
3 199 868 233
3 201 272 831
3 831 272 901
3 393 546 582
3 582 546 458
3 260 575 540
3 540 575 872
3 260 887 575
3 575 887 872
3 348 692 877
3 877 692 563
3 546 655 734
3 734 655 806
3 832 203 629
3 629 203 873
3 638 847 603
3 603 847 679
3 667 889 731
3 731 889 660
3 667 193 889
3 889 193 660
3 832 664 786
3 786 664 542
3 832 629 664
3 664 629 542
3 432 894 710
3 710 894 936
3 217 820 649
3 649 820 782
3 888 946 870
3 216 252 946
3 196 739 184
3 184 739 445
3 564 736 948
3 948 736 247
3 564 937 736
3 736 937 247
3 790 744 715
3 715 744 888
3 267 750 508
3 508 750 246
3 267 222 750
3 750 222 246
3 273 717 574
3 574 717 254
3 273 731 717
3 717 731 254
3 779 707 369
3 369 707 250
3 707 436 250
3 853 934 701
3 701 934 513
3 436 598 771
3 771 598 674
3 436 211 598
3 598 211 674
3 890 572 807
3 807 572 242
3 890 602 572
3 572 602 242
3 777 561 550
3 550 561 807
3 777 183 561
3 561 183 807
3 278 912 556
3 556 912 729
3 247 534 943
3 943 534 771
3 247 937 534
3 534 937 771
3 731 529 254
3 254 529 911
3 731 660 529
3 529 660 911
3 550 768 307
3 307 768 934
3 294 487 255
3 255 487 254
3 294 574 487
3 487 574 254
3 556 790 477
3 477 790 793
3 568 476 892
3 892 476 495
3 568 912 476
3 476 912 495
3 242 696 513
3 513 696 943
3 242 602 696
3 696 602 943
3 477 443 445
3 445 443 272
3 426 849 632
3 632 849 471
3 790 715 782
3 782 715 649
3 649 715 870
3 870 715 888
3 890 421 602
3 602 421 776
3 890 190 421
3 421 190 776
3 870 946 747
3 660 414 698
3 698 414 568
3 660 193 414
3 414 193 568
3 508 403 259
3 259 403 190
3 508 724 403
3 403 724 190
3 861 831 379
3 379 831 380
3 198 372 216
3 216 372 667
3 198 193 372
3 372 193 667
3 657 740 724
3 438 320 229
3 229 320 657
3 438 228 320
3 320 228 657
3 818 423 478
3 423 192 478
3 301 663 379
3 379 663 732
3 216 946 803
3 803 946 888
3 443 661 272
3 272 661 901
3 846 211 742
3 742 211 902
3 734 661 458
3 458 661 443
3 698 253 691
3 691 253 837
3 691 185 911
3 911 185 463
3 691 687 185
3 185 687 463
3 410 182 268
3 268 182 364
3 410 240 182
3 240 337 219
3 219 343 240
3 237 181 241
3 237 225 181
3 181 225 544
3 456 180 275
3 275 180 843
3 456 634 180
3 180 634 843
3 541 178 212
3 178 671 787
3 265 176 235
3 235 176 935
3 634 172 843
3 628 615 895
3 615 728 895
3 857 170 596
3 857 628 170
3 170 628 895
3 596 170 199
3 199 170 895
3 233 663 199
3 199 663 596
3 935 167 336
3 336 167 634
3 867 264 567
3 867 868 264
3 264 868 199
3 640 894 166
3 166 894 932
3 438 939 228
3 228 939 743
3 212 171 541
3 225 165 544
3 241 181 162
3 162 181 544
3 567 264 895
3 895 264 199
3 369 711 225
3 275 843 711
3 174 169 328
3 544 924 187
3 187 924 209
3 544 165 924
3 924 165 209
3 219 162 187
3 187 162 544
3 209 161 187
3 209 168 161
3 244 189 693
3 354 785 822
3 822 785 377
3 785 245 377
3 369 160 779
3 779 160 237
3 369 225 160
3 160 225 237
3 706 173 159
3 159 173 212
3 943 158 247
3 247 158 776
3 943 602 158
3 158 602 776
3 494 157 183
3 183 157 502
3 494 769 157
3 157 769 502
3 66 300 231
3 769 747 153
3 153 747 249
3 187 161 702
3 702 161 257
3 294 316 152
3 152 316 342
3 336 284 300
3 300 284 231
3 336 213 284
3 284 213 231
3 187 702 219
3 219 702 343
3 241 155 337
3 337 155 219
3 241 162 155
3 155 162 219
3 769 151 502
3 502 151 259
3 769 153 151
3 151 153 259
3 948 150 228
3 228 150 657
3 948 740 150
3 150 740 657
3 300 149 336
3 336 149 935
3 300 188 149
3 149 188 935
3 456 147 634
3 634 147 336
3 456 213 147
3 147 213 336
3 747 146 249
3 249 146 252
3 747 946 146
3 146 946 252
3 408 259 153
3 153 249 408
3 220 868 145
3 145 868 606
3 200 398 651
3 803 729 198
3 729 912 198
3 756 143 706
3 229 200 143
3 634 167 172
3 172 167 179
3 243 141 364
3 243 343 623
3 364 141 314
3 257 139 702
3 702 139 343
3 257 623 139
3 139 623 343
3 333 314 144
3 144 314 163
3 364 135 268
3 364 314 135
3 135 314 333
3 364 182 243
3 638 140 642
3 335 135 333
3 333 144 128
3 215 122 141
3 268 120 410
3 410 120 927
3 268 123 120
3 120 123 927
3 243 119 141
3 141 119 215
3 243 623 119
3 119 623 215
3 225 711 165
3 165 711 843
3 700 115 327
3 679 118 319
3 319 118 557
3 679 700 118
3 118 700 557
3 371 111 210
3 371 525 111
3 111 525 427
3 200 110 222
3 222 110 246
3 200 229 110
3 110 229 246
3 273 398 107
3 275 711 207
3 207 711 369
3 904 896 745
3 771 780 436
3 436 780 250
3 771 937 780
3 780 937 250
3 104 791 227
3 707 779 239
3 267 609 107
3 107 609 214
3 141 883 314
3 314 883 163
3 141 122 883
3 883 122 163
3 250 99 207
3 207 99 564
3 250 937 99
3 99 937 564
3 623 98 215
3 215 98 121
3 127 93 248
3 136 900 93
3 121 91 112
3 144 90 128
3 128 90 248
3 144 127 90
3 90 127 248
3 642 140 88
3 88 527 642
3 346 98 257
3 257 98 623
3 179 876 172
3 172 876 209
3 876 168 209
3 457 86 117
3 700 84 557
3 700 327 84
3 84 327 822
3 134 117 82
3 163 81 144
3 144 81 127
3 81 95 127
3 95 80 127
3 136 93 80
3 80 93 127
3 168 79 161
3 161 79 257
3 168 126 79
3 95 878 53
3 53 878 101
3 122 77 163
3 878 95 77
3 215 76 122
3 122 76 112
3 215 121 76
3 76 121 112
3 102 75 878
3 75 101 878
3 81 163 77
3 77 95 81
3 80 95 53
3 53 136 80
3 633 553 133
3 672 74 527
3 102 878 77
3 93 900 87
3 88 900 83
3 115 847 694
3 103 850 125
3 345 599 104
3 175 114 72
3 279 70 919
3 919 70 142
3 279 82 70
3 70 82 142
3 102 69 112
3 112 69 122
3 102 77 69
3 69 77 122
3 218 85 16
3 791 67 227
3 227 67 693
3 791 244 67
3 67 244 693
3 926 690 665
3 410 208 240
3 240 208 337
3 245 232 347
3 347 232 745
3 245 665 232
3 232 665 745
3 106 65 89
3 65 86 457
3 213 770 231
3 770 756 231
3 154 126 168
3 231 64 66
3 66 64 787
3 231 756 64
3 64 756 787
3 527 74 63
3 63 74 133
3 855 941 302
3 302 941 767
3 124 62 457
3 132 89 62
3 638 61 140
3 61 666 131
3 229 143 438
3 282 926 59
3 436 886 211
3 211 886 239
3 436 707 886
3 886 707 239
3 296 195 238
3 238 195 381
3 706 688 651
3 651 688 200
3 706 143 688
3 688 143 200
3 896 761 311
3 271 210 761
3 651 851 173
3 851 574 294
3 767 590 115
3 115 590 327
3 767 941 590
3 855 59 941
3 106 83 501
3 113 323 116
3 116 323 815
3 113 310 323
3 323 310 815
3 109 100 116
3 347 58 238
3 238 58 896
3 347 745 58
3 58 745 896
3 257 79 346
3 218 775 85
3 85 775 134
3 218 60 775
3 775 60 134
3 350 842 829
3 672 57 89
3 89 57 106
3 672 83 57
3 57 83 106
3 142 850 56
3 56 850 103
3 457 54 124
3 134 60 54
3 54 60 124
3 101 501 53
3 53 501 136
3 91 382 112
3 103 102 382
3 382 102 112
3 125 52 103
3 103 52 102
3 125 75 52
3 52 75 102
3 86 51 850
3 850 51 125
3 86 565 51
3 51 565 125
3 125 854 75
3 75 854 101
3 125 565 854
3 98 50 121
3 121 50 91
3 142 46 919
3 88 45 527
3 527 45 672
3 88 83 45
3 45 83 672
3 565 86 65
3 56 91 46
3 46 142 56
3 134 54 117
3 54 457 117
3 117 48 82
3 82 48 142
3 48 850 142
3 56 103 382
3 382 91 56
3 34 290 96
3 297 440 332
3 332 440 370
3 743 939 456
3 456 939 213
3 92 44 156
3 92 50 44
3 398 851 651
3 136 532 900
3 900 532 83
3 136 501 532
3 532 501 83
3 133 43 633
3 633 43 132
3 133 74 43
3 43 74 132
3 457 62 65
3 65 62 89
3 866 610 599
3 610 108 791
3 939 438 770
3 770 213 939
3 310 555 815
3 815 555 334
3 310 773 555
3 555 773 334
3 101 509 501
3 509 106 501
3 205 915 463
3 463 915 255
3 205 825 915
3 915 825 255
3 633 899 73
3 73 899 124
3 633 132 899
3 690 352 866
3 108 610 352
3 352 610 866
3 316 137 342
3 342 137 227
3 316 270 137
3 132 49 89
3 89 49 672
3 132 74 49
3 49 74 672
3 73 42 713
3 713 42 310
3 73 773 42
3 42 773 310
3 270 41 345
3 345 41 497
3 270 205 41
3 41 205 497
3 173 152 212
3 238 437 296
3 296 437 311
3 238 896 437
3 437 896 311
3 875 34 38
3 222 871 200
3 200 871 398
3 222 107 871
3 871 107 398
3 553 713 893
3 893 855 553
3 60 612 124
3 124 612 73
3 60 773 612
3 612 773 73
3 124 899 62
3 62 899 132
3 282 848 926
3 926 848 690
3 282 349 848
3 848 349 690
3 39 59 926
3 333 128 37
3 37 128 290
3 829 36 299
3 440 35 370
3 875 842 34
3 34 842 290
3 106 33 65
3 65 33 565
3 106 509 33
3 33 509 565
3 854 565 509
3 509 101 854
3 773 32 334
3 334 32 218
3 773 60 32
3 32 60 218
3 842 875 36
3 36 829 842
3 108 648 791
3 791 648 244
3 108 100 648
3 648 100 244
3 815 31 116
3 116 31 109
3 31 114 109
3 108 30 100
3 893 712 282
3 712 349 282
3 599 600 104
3 104 600 791
3 599 610 600
3 600 610 791
3 328 933 175
3 175 933 114
3 328 169 933
3 933 169 114
3 271 761 904
3 904 761 896
3 633 914 553
3 553 914 713
3 633 73 914
3 914 73 713
3 178 787 159
3 159 212 178
3 370 930 322
3 322 930 543
3 930 805 543
3 855 804 553
3 553 804 133
3 855 302 804
3 804 302 133
3 245 39 665
3 665 39 926
3 140 929 88
3 88 929 900
3 140 87 929
3 929 87 900
3 866 716 690
3 690 716 665
3 716 745 665
3 349 352 690
3 113 30 712
3 712 30 349
3 645 84 822
3 805 603 679
3 165 618 209
3 209 618 172
3 165 843 618
3 618 843 172
3 140 836 87
3 87 836 131
3 140 61 836
3 836 61 131
3 847 753 679
3 679 753 700
3 847 115 753
3 753 115 700
3 745 716 904
3 904 716 866
3 904 703 271
3 271 703 599
3 904 866 703
3 703 866 599
3 133 536 63
3 63 536 767
3 133 302 536
3 536 302 767
3 255 949 294
3 294 949 316
3 255 825 949
3 949 825 316
3 173 516 152
3 152 516 294
3 173 851 516
3 516 851 294
3 282 521 893
3 893 521 855
3 282 59 521
3 521 59 855
3 497 517 345
3 345 517 271
3 497 210 517
3 517 210 271
3 311 504 427
3 311 761 504
3 504 761 210
3 340 492 603
3 603 492 638
3 340 61 492
3 492 61 638
3 111 427 504
3 504 210 111
3 713 455 893
3 113 712 455
3 455 712 893
3 59 827 941
3 941 827 354
3 59 39 827
3 827 39 354
3 227 137 104
3 248 677 96
3 96 677 131
3 677 87 131
3 340 646 35
3 35 646 370
3 340 930 646
3 646 930 370
3 666 573 35
3 35 573 340
3 666 61 573
3 573 61 340
3 666 533 131
3 34 96 533
3 533 96 131
3 543 459 356
3 356 459 319
3 543 805 459
3 459 805 319
3 290 446 37
3 37 446 350
3 290 842 446
3 446 842 350
3 666 35 38
3 38 35 440
3 128 428 290
3 290 428 96
3 128 248 428
3 428 248 96
3 805 392 603
3 603 392 340
3 805 930 392
3 392 930 340
3 877 367 624
3 297 263 440
3 875 38 263
3 263 38 440
3 299 40 266
3 266 40 297
3 299 36 40
3 40 36 297
3 875 263 36
3 36 263 297
3 34 533 38
3 38 533 666
3 327 590 354
3 354 590 941
3 642 627 638
3 638 627 847
3 642 694 627
3 627 694 847
3 527 726 642
3 642 726 694
3 527 63 726
3 726 63 694
3 694 363 115
3 115 363 767
3 694 63 363
3 363 63 767
3 243 639 343
3 343 639 240
3 243 182 639
3 639 182 240
3 356 367 813
3 813 367 877
3 87 677 93
3 93 677 248
3 465 44 346
3 266 441 308
3 308 441 332
3 266 297 441
3 441 297 332
3 218 483 334
3 129 72 483
3 669 386 129
3 386 730 129
3 335 29 135
3 135 29 268
3 335 123 29
3 29 123 268
3 71 154 265
3 557 27 624
3 624 27 645
3 557 84 27
3 27 84 645
3 175 923 328
3 175 730 923
3 541 26 178
3 178 26 671
3 541 174 26
3 26 174 671
3 328 821 174
3 174 821 671
3 821 417 671
3 541 862 174
3 174 862 169
3 862 189 169
3 354 39 785
3 785 39 245
3 300 800 188
3 188 800 417
3 300 66 800
3 800 66 417
3 279 723 82
3 279 826 723
3 723 826 85
3 265 678 176
3 176 678 179
3 265 154 678
3 678 154 179
3 235 595 138
3 138 595 885
3 235 97 595
3 595 97 885
3 179 154 876
3 876 154 168
3 126 548 79
3 79 548 346
3 126 465 548
3 548 465 346
3 126 531 465
3 919 419 94
3 419 92 156
3 114 416 72
3 114 31 416
3 416 31 815
3 465 25 44
3 44 25 156
3 25 705 156
3 188 324 97
3 97 324 105
3 188 417 324
3 324 417 105
3 138 757 235
3 235 757 265
3 138 256 757
3 757 256 265
3 419 566 94
3 419 156 566
3 705 164 435
3 435 164 71
3 705 531 164
3 164 531 71
3 465 531 25
3 25 531 705
3 188 24 935
3 935 24 235
3 188 97 24
3 24 97 235
3 520 23 705
3 705 23 156
3 520 566 23
3 23 566 156
3 566 22 94
3 566 520 22
3 108 353 30
3 30 353 349
3 108 352 353
3 353 352 349
3 154 21 126
3 126 21 531
3 154 71 21
3 21 71 531
3 435 20 705
3 705 20 520
3 20 404 520
3 109 19 189
3 189 19 169
3 109 114 19
3 19 114 169
3 94 18 919
3 919 18 279
3 82 723 134
3 134 723 85
3 85 826 16
3 558 18 15
3 15 18 94
3 22 313 15
3 15 94 22
3 175 401 730
3 730 401 129
3 175 72 401
3 401 72 129
3 92 17 46
3 46 17 919
3 92 419 17
3 17 419 919
3 22 68 313
3 313 68 404
3 22 520 68
3 68 520 404
3 179 644 176
3 176 644 935
3 179 167 644
3 644 167 935
3 78 420 28
3 28 420 759
3 78 306 420
3 313 14 306
3 313 404 14
3 279 434 826
3 826 434 558
3 279 18 434
3 434 18 558
3 669 607 78
3 826 558 607
3 28 13 885
3 885 13 138
3 28 759 13
3 13 759 138
3 306 12 313
3 558 15 12
3 12 15 313
3 78 11 306
3 558 12 11
3 11 12 306
3 30 10 100
3 100 10 116
3 30 113 10
3 10 113 116
3 256 9 265
3 265 9 71
3 256 435 9
3 9 435 71
3 256 8 130
3 130 8 759
3 256 138 8
3 8 138 759
3 759 7 130
3 759 420 7
3 7 420 306
3 404 20 5
3 5 20 435
3 14 130 7
3 7 306 14
3 417 821 105
3 730 386 4
3 28 3 78
3 78 3 669
3 28 386 3
3 3 386 669
3 113 455 310
3 310 455 713
3 16 483 218
3 826 2 16
3 16 2 669
3 826 607 2
3 2 607 669
3 404 5 14
3 14 5 130
3 607 558 11
3 11 78 607
3 105 505 97
3 97 505 885
3 105 4 505
3 505 4 885
3 130 274 256
3 256 274 435
3 130 5 274
3 274 5 435
3 334 416 815
3 885 852 28
3 28 852 386
3 885 4 852
3 852 4 386
3 244 709 189
3 189 709 109
3 244 100 709
3 709 100 109
3 72 413 483
3 483 413 334
3 72 416 413
3 413 416 334
3 189 862 693
3 129 1 669
3 669 1 16
3 129 483 1
3 1 483 16
3 923 730 4
3 4 105 923
3 105 839 923
3 923 839 328
3 105 821 839
3 839 821 328
3 693 891 227
3 227 891 342
3 693 171 891
3 891 171 342
3 693 737 171
3 171 737 541
3 693 862 737
3 737 862 541
3 92 746 50
3 50 746 91
3 92 46 746
3 746 46 91
3 346 675 98
3 98 675 50
3 346 44 675
3 675 44 50
3 104 913 345
3 345 913 270
3 104 137 913
3 913 137 270
3 850 48 86
3 86 48 117
3 671 864 787
3 787 864 66
3 671 417 864
3 864 417 66
3 706 830 756
3 756 830 787
3 706 159 830
3 830 159 787
3 438 828 770
3 770 828 756
3 438 143 828
3 828 143 756
3 212 905 171
3 171 905 342
3 212 152 905
3 905 152 342
3 574 838 273
3 273 838 398
3 574 851 838
3 838 851 398
