# vtk DataFile Version 3.0
A great-looking cell
ASCII
DATASET POLYDATA
POINTS 704 double
202.15345079348117 187.86421594912562 60.609307603601636
203.92612946569733 186.7781654925032 61.578027215563864
202.0086216456442 185.50624972152607 60.024353975333455
200.5102495866077 187.5643475823636 59.390332761942595
198.7518427908549 187.17921135710432 57.9565567673367
210.18955423610296 205.77613711069353 55.335206872124374
208.13959246558406 205.57484306418152 54.40434270301535
198.04274279640558 188.84805116382225 57.21458390980121
199.33277430351754 189.30984404816044 58.57305981282586
205.94263032823036 202.19700012828858 58.07999968265152
202.2069953043239 195.30336780528384 58.891961288956544
201.19930901858564 189.96871880006918 60.05287127278894
197.44061547622653 189.89314302916154 43.95469210624048
201.7369068406333 180.02683245807313 43.28582792465934
215.75919788209976 186.74969233719062 37.49936446186594
225.39797561159975 194.78008297701965 45.47588751374112
222.99035715427402 193.276743059151 41.60484816425938
200.36647049744582 200.6004886346876 49.92218900509548
210.89122042115898 194.5270817516198 32.53603150627179
221.72932511653343 182.9685141757834 49.51889891714528
199.69700685901847 179.37673289658494 47.149305188363876
197.96139578344852 183.51750633219345 45.789141479511365
224.49899397566034 187.04902240358342 50.80352690890243
220.76234273052236 195.6811151464428 39.48458083676167
214.12071278435232 185.32381097648437 37.064351113430256
217.45894236705178 205.99727986761818 50.72970366029907
204.36859317312113 191.73170543637588 61.719020290088096
204.72512281070544 202.24331521002725 56.74804000066103
209.64002066753886 173.88892079164896 49.64711800416906
214.71002602022594 191.70262074918068 34.668964332429425
198.29424776430008 191.77325811882466 55.38482467872755
211.64964508258362 183.6941532822752 37.201768837204426
212.31138383848665 177.51289624298988 43.48600550543895
200.92654924497285 193.6343550190219 58.26955660953149
209.49569452659057 206.31387316202668 53.220004097179356
216.07153833175695 190.99158509104916 35.730725849194826
223.6585312487169 188.90599355245118 45.561043086546675
197.91698095936528 180.82458076217884 54.068214865820416
205.94619140760184 205.1860778932151 49.7321914379769
204.96849384395546 194.6177512342737 61.1838198906087
217.6800362515772 184.95672103850356 40.14048824265976
217.50147929018775 200.359995043183 38.4585428053361
203.98918438653564 203.50405614216118 44.98497325492599
205.28002254519188 204.13173706870285 52.58616192124653
206.8201388807335 203.7694805889686 40.671509194563235
220.97966459757163 202.41848419066983 43.30692506390112
198.44947106924565 194.05451759468247 53.03857378732984
224.26404597778003 201.14055350961524 47.08154673347811
197.24560799398208 181.3490925570679 51.42816383559567
223.64329594884444 194.83797585088485 42.3153649852356
216.67647989635398 206.17339730075298 47.08078548673194
222.7533548727106 186.707618151633 46.22825629023228
223.91529615018257 200.17222540135023 44.816378693986806
220.9216876689827 181.1461252321508 51.71996392584104
203.36554118394386 196.7957538864432 59.47207748511974
225.45324972963041 191.9954920485207 48.671747342107906
199.5073435767112 197.71660769698886 51.54653963563585
220.2773740756405 190.07969646667505 40.0092369916845
206.0429165544303 186.88249050227023 62.88941958022863
214.31932236411535 205.84995863395906 55.14888761132492
203.5561652271797 189.55065574859697 61.335105203244
207.30725450618493 175.21327959536512 45.878518114815236
220.42061390671088 197.65730150227742 39.779074262159476
219.97364547379365 188.3137999018532 40.845020731121416
206.29997588727548 191.2703587605107 33.764584389986496
224.6262302357336 190.46550676424093 46.94088174991352
217.3650071977224 186.8215267736236 38.763417104507674
225.07755471179001 188.4672254161433 52.54372923510514
207.15679283755554 181.16720641541855 38.93709294111538
219.7877358772482 184.0928613555051 43.749110125811654
225.25415856201607 201.35157412944844 49.84017353585385
211.57682104030502 177.4965009712175 59.66497611544589
203.87576146325554 193.29105050350705 60.836944312689134
218.98626017844919 203.92034997877528 43.82481780663852
207.80994817886324 192.64252272299717 62.855423700294146
225.5044288813456 194.5619703431224 54.742822795816785
219.00793950334426 186.69716175597716 40.386746640138796
200.03147871751017 194.7556177176701 56.61738961477767
218.09460281291024 183.27965366950053 41.728879989184165
205.15807706894265 177.92268556321176 42.61505729603944
204.80102017640775 177.22898745697907 58.74424483362192
208.58491950927026 173.41732270623882 52.32222368041682
208.6512341182661 177.436389580084 60.13461043582104
205.19521465480415 193.16363484787897 61.59637825677592
221.31741264136693 184.15662439930085 46.61749394568403
222.39213608229272 204.33047897774225 50.16750968185041
224.7713749103205 190.25436406965636 56.34343633482327
201.5216979348684 189.7872789663829 37.03804914699396
207.76796169928338 205.89482481415706 52.435961719505045
200.00227141760158 181.28964864421562 44.872451330005106
212.74412832183302 206.79055161884105 46.30084758987093
204.22979459427592 203.93490278570437 46.936956320354206
202.70390337735196 191.72841420990156 60.67917398726485
221.79300458906502 191.5581412726007 40.7998562482382
224.07204616571775 188.70014690117708 58.12920365541054
217.9341948208908 188.4392676530804 62.846626104817204
219.21972541342842 195.40347312028555 61.19503002646286
223.623355787805 203.03508549887204 48.87125599905137
220.42543089305912 186.75056519958267 42.45957526559294
215.9712544974633 184.96855075472524 38.60072602014824
202.37255307541437 199.30044594210355 57.478139423520766
203.83411415518717 179.67640062111127 60.179847673470825
199.84660250912086 199.58924899320087 46.540782639522284
208.78839615476932 200.82944644683175 35.51321508667222
202.9802429274586 177.89373976926183 44.2010124259571
224.9997154269245 188.60895442628674 54.44896706448725
218.68049896962796 192.66537478964392 62.19817546560094
208.4095784799761 197.6886055318589 61.88800530361766
224.64702387551412 187.37967145086841 56.26648838431165
224.18471039013727 192.91919267474609 57.38548850701997
205.23878377883577 175.22964313260965 56.27018211330298
215.53405615121738 200.6475948662959 37.541135700867635
220.30145640234824 192.12553516247394 39.2920567731728
218.19838989309338 194.19820370582966 62.15126304827947
216.28492560491836 200.9408399024299 60.093419895669236
210.32570949998603 203.36367581571244 38.579800718863765
217.70184046833413 191.69617745782156 36.50901989296138
198.05358076195247 193.43583299932365 44.55791841618177
224.96094439919685 192.58375806663267 46.16010421795559
223.02722538368596 194.5925362199234 58.91818725362045
221.52905239049161 198.55272686436203 58.29129496042702
214.72537387781762 206.4297674339234 51.48711607136106
198.1085582082641 192.61141724669082 53.861604411605114
206.00726248506297 192.17096424531965 62.516937947338725
203.6402771772861 202.19776308672994 55.14418042199427
197.531308188733 192.57987420338137 46.535205678533025
219.88198367973138 189.46586266771112 62.094095672296156
223.31355015278027 184.4437875422505 51.62743523053808
211.58379720741544 176.06290220829845 57.0970624976186
203.4231343974708 181.56143418065224 40.26456553188438
206.8751168921902 201.29973083831686 36.34099213730302
218.80721262716818 205.26802479004098 47.66967107475323
214.62038470988986 199.516516465924 35.86450994092923
224.26097699679636 200.88276796402795 54.68212359071321
219.98032463823083 193.6734201360966 61.55166249471096
223.29218593837837 189.4996518424199 43.605217620610276
197.45393106215084 190.8831227961973 53.78857491118083
203.54018920302758 195.0029489614295 60.20942338615847
217.4063902270824 196.03686344106254 62.022141477429415
199.34169489714216 187.57879738474224 40.929990817451866
226.1451073490604 196.44510123548963 47.408909788700726
223.23360486072437 191.25722757490573 42.59532751933607
224.2318640999096 195.42550026171486 56.772551837696994
221.63293506922653 190.28688837193627 60.81879377898866
205.78625587934394 181.1959792213593 61.74610132918166
202.48747250997002 200.08381682944866 39.249669313319664
200.97728171935944 193.62563279506864 37.0382077668266
219.88331659590116 180.79736120948118 48.877157103532596
197.55413916270788 189.71208496333907 55.609714182397674
201.79478391472756 202.10618759361606 49.48280735975955
216.61440871596375 194.42106046266903 62.66465075836716
224.2957429805503 188.30093324241273 48.12513536476458
220.1733980858098 196.74207353715087 60.367579478488246
214.38372272421586 205.68928697399986 43.41032487933618
226.3008128825988 196.93540179480416 52.56736269043166
200.25725057703272 197.74241339340253 55.03057948863704
222.3198741640859 187.74544045177998 43.979065754847184
225.0745997305234 192.538617488393 55.24549384796045
219.74048497868858 184.526628387408 60.91061761763695
223.57129663900224 202.66398661628278 53.49181753619279
225.78717840504848 192.93899593197884 53.48902694888807
224.3909472776282 195.76139417418523 43.69662513015263
205.48279159262017 200.15774111882374 36.15759623783826
196.7545127706669 183.6524397394722 52.0047419945292
214.18721674546967 198.64420045147267 61.48332983684643
223.32263533069434 190.90160748817243 58.91289675878017
224.0662233408032 193.3616032262652 43.81099127926495
196.5301821902317 189.267383516447 49.8557882940077
201.58247260579202 195.7592250877126 36.731216696735565
213.70657840585312 204.72017737301687 41.39709549380614
221.53852653877277 200.52169311760926 57.815292653160206
207.2834002596073 201.96732601272274 59.160905449246286
212.07929481321935 186.36947057192205 35.4038726256607
204.31246282035218 175.1616522220761 46.939063312064846
204.6109112161365 199.7559668027179 59.16807303075101
209.094128676909 188.817737188469 33.7271703352845
207.9356948281017 187.49344396472742 63.743205819184
210.44247199744416 179.60303605403647 40.01672727115426
203.6744312460074 199.52057802132106 37.073733227306164
216.75599224148525 189.09311975066257 37.12063820335347
207.26406162760438 190.77580015214593 63.00810590273689
199.99172475766858 185.61764508048935 58.64078065178745
201.4449219794604 192.06549979025965 59.45686668681869
215.0832228281233 178.83707132975087 43.10352856872943
217.64441553990187 194.03500341172102 36.62624534674516
213.03515268318301 206.24585997681737 53.77304876079668
206.5736661647327 188.91720126681818 63.31301766012371
207.59739810815768 199.22735932510275 61.14911148863338
205.06260016997567 188.48653027601856 62.37722776900108
211.45749120982921 200.80377592407405 60.70308618526474
202.63434552953544 202.10617124908438 53.13257778903232
200.3430791558442 199.6866095891064 51.6389094352129
219.0651823963869 179.1791667837288 51.039800936155665
210.9733044658497 201.70567154837698 36.45184786557273
205.41792023557062 190.28704260973086 62.47627021595804
215.99464904168835 206.03067673417587 54.21879887803601
222.68967974426027 203.29725538457663 46.809920741812206
203.46376966780213 200.0643091549216 58.20951321658532
225.2605038163609 196.80521318583484 45.139545457131454
225.19965105117373 189.82922787734867 50.479641376863185
202.46641577127684 201.87508865395432 41.39524145582396
205.80821105510003 201.029694333734 59.39033674120558
226.70196743245046 194.521508892814 49.75840711199411
222.75958840096348 199.2150228158241 57.27409588572657
224.08629596038682 198.18316745012268 43.661605824058014
204.80656543931013 196.3119261075586 60.608621602572136
196.75241963437773 188.61576540377283 53.79958697494133
210.90685263332037 175.3235130874031 47.191513298976496
214.14713090140475 183.30797133421834 38.746887891732726
226.4771196474569 194.64788042728628 52.49696363881917
205.68367662830747 203.97169749613994 54.07500319178733
226.02641804537902 193.9847878697158 47.400592069495325
225.26097757968984 198.76084274414507 45.975375529620194
209.38127178121545 184.93776408888735 35.745198904833195
197.7384146806518 193.07636587051132 50.32196253888855
219.18175170415844 198.97292904944075 39.343633206579966
212.49965574425013 202.80109464523622 38.12632804005892
206.73244895294226 202.46680595824856 37.615919065616346
217.96179674767316 198.3564190059108 38.06103361573904
199.68647270023473 199.09413218188598 50.240129831364584
203.41894247861018 203.27346067174363 50.08727117905634
223.9539095332184 191.01744871655674 44.78253736550406
220.84437809015594 199.24937319894718 41.0234124469493
222.42592181038827 198.2929250103259 42.178533835750805
219.27889789835803 195.05890497281928 37.791493770803584
197.50519331461382 182.07931168468647 48.62540574324259
217.74648754876947 205.1733579218309 45.52527114905563
197.53495661915332 192.82021543790015 48.701014087772386
215.92127301361407 206.49777860968146 50.355218730361486
199.68798160601054 195.9034161156242 55.10745934761465
209.67720245231718 192.5890635963646 32.37186147943109
218.98244116461996 190.68075142388838 38.151349510205506
217.45259505795477 179.9533135098392 44.47664366389332
201.2376572404021 199.52871404533082 41.17119125431827
225.23391329980177 201.27113010687958 52.498778979346625
203.03588091346703 182.70554134708112 60.73644580209708
204.07801403332797 203.16187107269334 42.98426543873303
204.35274669351753 203.20629176325954 53.70781082293453
215.52831627969135 176.95128782768825 53.436687762273635
211.71402997489173 205.19439423666185 56.81313549902446
209.86090544182136 206.44057654693833 45.44273814485565
201.42852158799235 201.29975487375594 51.456881512132064
217.54540661628096 177.8227854990699 49.27759904067685
214.62534452468597 181.27012255942225 40.27605605994323
209.1876634393833 174.3895635552109 56.78745128711321
213.19795095861647 175.76597156242698 49.14071262089834
213.12034220623696 204.359380647519 57.66595987287011
222.75331210257156 201.98756321061694 44.9019499434072
214.2160398698029 195.84012585222132 34.20445059084166
200.31974684960554 183.1001826306026 58.835248822287845
196.1816902404363 185.67001084060394 51.279468278804245
211.4934760857931 204.53551398785086 40.50090837007538
226.0639458314691 192.36174088469954 51.38594139965294
207.5493648457359 195.92732365588927 61.97535372342724
212.47707854706957 200.10738886665942 35.091731697520174
212.90700834744237 203.0210722638578 59.026617853209785
207.4015960674439 204.12385610673527 56.90802699139806
198.73830134371434 190.6491037288643 57.04780315120985
208.89555932108695 194.45238604729863 32.55106710431383
203.105113218106 189.45013326398748 35.743499709562805
217.8535136285054 199.58994188865174 60.250439494241235
209.02381032253248 204.33775419381647 40.4528006261515
221.34282240748104 202.4410813398174 56.469468102535984
224.50365877247606 186.3188859184298 53.616898368440616
209.9609107040953 200.70955812649558 60.81319305267061
207.009016782871 197.67077739140703 33.86755062297513
213.84387581783656 196.8431535637687 62.251799142916575
199.99367531119285 191.46988509542896 58.534781130341884
200.15380576223478 198.7417019736433 53.357482788983354
218.73019559125518 188.61570971138167 39.20330929806969
205.2396299192697 204.01952749221667 44.11399918154649
224.11857802732703 198.76922876414483 55.90096463729635
206.45150029249191 197.48625903631273 61.021512525385894
223.41669237521992 184.63539329563636 55.94867917793188
211.0016367628075 174.27839386512466 53.12515897511823
206.53268776530777 205.05142014274443 53.460424117346335
212.72445374364997 199.8607912825874 61.14756753184911
201.3976882922332 175.67307222364823 49.866435787708006
200.06117773868664 198.34330920147087 42.92951753249734
217.32651104721387 182.93528426194788 61.03876813865744
205.42278515998993 184.3438735647052 62.138285743140976
199.13044840519012 197.74859670643946 49.438514311129744
220.25041777447916 193.8761647328473 38.83032676063471
215.73825555111492 197.40443158127886 61.85043255673417
204.91105868076986 204.167312260964 50.79415146770128
219.34518746053908 182.13834163738628 58.74175231183436
202.39907427664937 202.3935375601585 44.030548352343004
225.9900312942684 199.16973135627174 51.23600791747209
198.56369514721368 189.9538462745797 41.69694218469634
223.15439766942015 185.50838903273794 48.7500379878042
220.3743810112851 197.91191176871254 59.29257960624778
203.30447028605442 198.61006699427247 58.82967106068976
215.254463692619 203.52823972022583 40.55137646373576
211.19909715144365 198.55767174691064 33.82149973325484
218.49033144458448 181.87413722186562 43.44069417928054
199.1205060412898 195.29779935571221 53.77655735029536
205.9880378370298 195.74519154112923 61.53569277513122
204.69283884788462 198.1092251395629 59.99555193583787
214.89510257881312 183.42341070223642 62.29433128621016
198.74797722480935 196.02875504890818 50.391117494360245
199.89047965680567 193.13452794533194 39.10493376062516
208.0648298378431 182.70241074822374 63.010311614461145
216.63750865651824 180.96912432641977 41.87252142908839
223.22872977551043 196.6036297822694 42.19073388478517
201.76887258582423 176.8761069305626 46.89376666998891
200.3656620433875 197.37510944132515 40.45543067827197
212.00432014441023 207.08366556958512 47.768140845263424
205.1037220702798 196.08008144594166 34.467472055872015
209.29581653830962 199.3109814912654 61.60195476682369
203.96240366718447 174.37496023231515 49.81906077076584
200.6440827931988 200.96380667632144 47.946512140349846
221.02508324302136 194.97506549173445 60.2542393204752
206.67416498177622 204.54104859921077 55.40728209113372
201.0262395984518 195.5697990729222 57.74165917542847
197.36144003578292 187.1757424895184 55.90817913363708
208.1075203278632 206.06051695519997 45.70517343628996
215.93912938190493 178.05167141158486 56.18518722067609
209.87636510829134 203.75520451678665 58.50190112719302
211.40502040089285 204.1224454047868 58.365501569496
205.3303737763011 189.251204885802 34.67878285010789
212.3271056201565 198.13224707435907 61.858346726234416
218.6998655253389 196.8668158464148 61.054686844021035
198.98265984840634 195.70706763743462 52.24595874290491
206.01553143667087 199.4298129564566 60.2639454432829
221.68996354939674 196.57381271947781 58.87077726486995
221.2077140797872 182.5622759248826 56.442333477183524
207.47258391950996 192.9823821278875 32.686400603348126
208.85671238859237 205.75000575414117 43.9601595407731
208.54258865924305 200.3813727674791 60.90078551949674
210.49840508164064 200.32975257389387 34.669385629538326
199.60354838702213 199.4198619482564 48.58665348756445
199.95185353145158 184.9213269156302 41.572526234969196
222.6797360630146 188.52315650383343 59.772453528465824
197.2473913788655 183.40251711543013 54.641703818789786
204.54558870651508 201.12295219566641 58.130571911563884
207.22919833356616 189.39684633263178 33.89480480143579
198.4327702482658 184.75500099089447 56.921838654386704
219.27619268630173 197.09357310592196 38.456092417221626
210.6432586352134 206.74285836687693 48.40923564276164
200.44489107815397 195.5035000240546 38.57006298032825
214.79665914271087 202.33001668653768 38.645753790154636
213.48724377920365 192.50401335817054 33.68137262618287
198.64497070584204 179.62305266147558 49.69766609068233
208.71637919089306 201.6316139256107 60.12091536670007
217.96701929864716 178.9525465262702 53.808448698505664
220.66337676027015 204.87776302436572 49.06468176261325
208.58683058582085 204.09603845095833 57.7573700692374
205.01225728977457 182.73193727738598 38.17629417166222
214.73359775413283 203.64947172218186 58.46044812165026
204.54242373593772 204.181083089309 48.899008159839
213.49350116623015 198.08348240068867 34.32915741171848
224.80559427589466 193.86142565504932 56.067820952595106
200.02739533879796 181.06179942585493 58.05753193728125
206.18064605767802 203.31404083949562 56.7809351916155
210.59181121606144 190.50934135790345 32.92552264697698
218.15559196595962 179.20015762277077 47.22320047335309
212.81102090947053 201.3885230738259 60.0978918419981
211.38146210350862 206.27822519925198 53.56185838842969
200.49940231035094 177.49298049197938 55.61326521259836
210.7320338833935 202.37786532363035 59.686888344973504
198.8628651335676 192.52087086337878 41.08319600744528
220.64673474271186 182.39085002719824 47.723361250864706
218.8920692751305 179.08040529674926 49.05226434628362
198.7847936639917 181.67921629296885 56.59903728418903
199.58983028136322 194.849732650969 40.702494784591195
198.97096451886875 197.8949121125474 47.42730931825266
211.77931669443788 196.09569454304025 62.680953249786654
222.34243171920414 182.7616304541029 53.69756987222765
214.60279878707763 190.86673081054198 63.61312286984228
216.1721893546306 201.356953854058 38.64199203387584
225.30902173811216 190.70895401515 53.41985403693168
207.13816303968684 174.38062797124297 56.771903162685796
215.3774698472498 195.58597944645155 62.65025728455278
216.03817458631528 177.85926065549035 45.73823256681223
221.5685589236795 186.46491022124485 60.31929452176462
212.8574888155186 179.016444716092 60.34776807268736
209.48915001118036 177.85033905289208 42.043789422698325
223.98417448903976 203.05094905186468 51.23167095880921
217.1757442160588 192.88978910511858 62.94313985123513
207.31001893954635 203.185071454562 58.013538415759456
207.56471441760104 206.0648009901843 47.43714740555572
196.76062689122205 184.39422077588273 49.53328184686371
198.3918064395756 196.18967616195397 48.4682764857359
198.9591444438687 193.89550854347672 54.96585094733663
215.52817068333005 197.3874221188144 35.42856973033205
199.532795069465 192.67788927445238 56.776104108489776
204.36572301479393 187.12522706606202 35.943412200847334
201.84228244695393 191.61332781374898 35.84596624186184
218.21383779921888 202.4692578772291 40.824045622399076
220.11715749530245 180.82437435790345 54.62169825438935
221.2667250003574 185.9263529524982 44.62939543014558
207.18453072421855 195.26476663888732 33.30604920473324
199.40892213800097 196.28051164760043 42.450082338160904
220.11935276232018 191.65465103473338 61.81311607725621
218.04555021831797 180.10998236337727 56.8140811183228
208.38268097868115 205.18909313468794 56.362548175630494
211.36721713966008 206.7249655859495 45.31916235105734
207.291050838767 200.66751369550096 60.241597603352176
213.11304909795405 182.54351067039966 62.4090010966118
213.66915128918285 195.2432972476716 63.103148572809225
212.04247267623998 196.3350771285742 33.499757085351234
212.82568094981718 177.2508835142394 58.08052787156996
221.69662153109107 184.25458668454257 58.65735554827442
207.0161538193337 205.96305864693986 48.898216335534684
212.89931199984736 189.85553026432504 63.69987987798169
221.770809272456 189.22208309700977 41.896515006071894
214.87679131514852 193.33120920112103 63.33484705111776
210.66470670363944 206.62450211591144 50.31860981823791
214.72467017516 176.67303877974788 55.27929765879437
205.85039434141112 205.15685636278576 47.66891124373444
214.5387863414096 206.31033911836928 53.12965035182034
197.49488756638618 185.9679949489629 44.93868737137335
210.96959056280906 174.63682218074055 55.28045056255606
218.95226002709907 201.0175508913633 40.43080377747112
196.84701832015185 185.84611861392113 47.19148360875682
196.7048396211288 185.9138559398007 53.56212705009108
205.80731239612933 202.71032753947847 39.11721379214129
210.2906758464867 173.91817390369195 51.52167849145806
216.2381937466082 179.31041452778936 57.86134540974075
205.45007121563617 204.54281911274293 45.69510753443625
219.03910491993705 185.13503976180996 41.65712009559796
214.72439414899097 204.91402233531133 56.96830352838982
208.37118788437414 190.89966324069988 33.118885166124635
213.46671168260198 176.6288346862786 46.16562982592646
204.37380695189697 174.0005097212458 51.7353574981899
223.37143843371317 186.49844595333198 58.42074441091868
210.05410416622362 184.47618956483544 63.50355549177004
204.05356467830725 191.53830143258298 34.622422140902636
210.00462493198833 204.89105274174082 57.32997167741441
222.17443204769768 204.19427710380714 48.36255017170082
213.89585443298714 176.7581175069582 56.81714387493309
206.7153764236396 177.081556615265 59.66275282290396
219.08405119619593 198.13822555815997 60.24421015839555
214.06699655422565 206.67415959575297 49.92514183321151
202.59292142450394 202.45942213881384 51.22089866604798
216.27558293817077 189.73131102629068 63.43908853578888
213.57312377728528 201.3817034156929 36.76305098259017
216.09802944623615 195.09175335458102 35.309711855922046
198.46083171476167 179.45937939023958 52.231018844548245
211.37110327868191 174.8979246320836 49.24035010951192
207.78735602722637 173.41800593136264 50.451743444004194
209.26630546728478 174.97160311899793 46.10890873488306
214.4284897355766 187.63109982675917 36.203724669853955
215.6805274867734 181.89270804320552 61.123266402794606
217.00428780780183 177.72293729646452 47.49373692155813
200.45974221197244 188.98467172502802 38.89184529473768
197.09523045470846 183.90572937971092 47.74358963218495
222.4901069991701 200.3761912954926 42.85685088098402
198.80376381903054 186.26076355393167 42.18285686120268
215.3971142311159 206.73138070719662 48.53333318291827
218.0385329831483 190.92188708158469 62.68158896415696
214.44558930934792 200.3631550250234 60.61078503322417
213.773922942132 180.8983575814091 61.11814010572092
209.73452118451502 175.9362661432943 58.65548910715253
200.3514145389527 179.2356081197317 56.91500413037087
213.00196308668038 179.58884442438557 41.290795770445875
214.275554170511 186.3092346755547 63.48844053214749
221.8816052919342 203.6244172780242 54.51512425614184
211.91980442981685 203.75176728314935 39.11175037242821
217.35030308190568 203.64492218172765 41.66790173096424
197.08876510333002 190.01839766804264 51.87935585515818
205.89142021319554 203.98530385077868 42.554457238984575
208.7802898945213 179.85525587763698 61.69788576262125
219.63784379731942 187.14030087830528 61.73848742955333
215.45178931702944 176.83747162245257 50.57863105631649
212.31097974117424 205.88873557079557 55.22749117887307
209.62015784887834 183.2488561813136 36.82094800986448
212.39134008551196 193.94928429629448 63.39527759550245
199.2412884953955 189.30998652591092 40.179345316984
201.09819506198443 201.28913389745242 45.69242450575183
209.11062141341299 206.34134623877176 51.27558113241518
206.8362361802231 204.99130907713584 44.348944283779765
222.3451186358257 204.270320644956 52.40255827451353
213.57039451523661 175.78686285547585 51.879278995000995
216.22206822691984 191.56375935897083 63.341667311571975
201.49333767774252 180.62037783345147 59.10204114565371
225.8127224288986 199.06031503136953 48.557381661112046
217.25767873843833 185.67312617139484 62.59796220412833
203.46717705056736 176.51207852335818 45.61787311491664
201.01940101663007 200.6116042131108 43.229704178364656
210.38875434855368 197.81032712800794 62.01832647325377
213.1650288842146 188.4913860356038 34.82101776187287
207.89910067747923 204.6556139572927 42.385653145394606
220.61236838827477 205.06222529198848 51.154009616083364
199.3754565842438 183.34459256205898 43.470730833303186
209.37124225130637 193.04624245566384 63.07084727740139
206.53287595454023 194.12151406607398 62.14237153417142
199.52243168408552 196.89526176673652 53.5318601754578
212.24531810334994 207.0342278881289 49.392300366287046
211.47420762419063 186.6035844275774 63.84452399296957
221.22539975967217 188.3492541480534 61.15942677465989
207.74938535817418 185.34147125620964 63.42179026861252
214.2278679772244 178.65975083522676 58.727313392225824
216.215598603466 192.86636438718045 35.43193507376389
212.80977341876115 191.8814103124527 63.57866527299381
201.33168469838242 198.76747406051092 39.714669046651345
205.1995903444164 203.2738320193036 55.32299005406584
207.46798086444798 184.84639236605685 35.72136184710989
213.2499584122908 205.4623599343441 56.50315741155904
203.14845988371334 175.2347146459418 54.59930737672957
200.53964706236044 191.32678648773 37.83700332305693
216.4319638017614 180.77663651317928 59.41958165581316
220.5834168394907 201.1935036448656 41.81110017576172
212.969433965547 175.75827894511 54.453382850149865
197.75262230828292 192.33217602068166 52.04315348011119
226.85194961066662 195.80623221042117 51.26389333121427
212.15635373719667 205.4777531251693 42.645198342585
207.2503463251872 186.94161444977536 34.86342042354014
208.7682830881309 206.48311586646932 49.14253007889406
206.26589082538467 205.14849665287028 51.59613486588771
210.96976889998712 206.73486901232226 46.72611543142285
205.62838932534544 179.81030682338007 40.683319752716635
214.51857634884928 188.77162051609398 63.686176292706676
212.28670786462035 175.17504889973247 52.6199519661981
217.52997255378045 197.94757301587592 61.244517397241935
203.02704952530067 201.06694521501333 56.85485042299939
201.64913251730047 200.06038788578726 56.293786167966
216.10577539694665 187.75970142055962 63.44953206032185
211.37923457671698 188.8431953895702 63.99684220403505
212.92686470315633 188.07505775293689 63.94501565276141
201.74695817739362 202.19782238692252 47.496842903496045
201.00372710461468 176.2966585813082 53.94414924754106
210.90738970003073 192.53077561182243 63.306248907119034
212.52010364935555 184.15962611904277 63.209895246452994
211.12606823190222 181.96251275302512 62.45849074499398
196.9146246231095 190.83928058523998 48.16314189488491
214.0570364816387 206.45088049581784 45.16353662184058
210.37730971973684 194.3872860555482 63.10092860800109
200.19000337445343 177.74621483405085 49.01326096901927
222.3685271712739 195.2031846858642 41.03849366045728
201.25954338694234 179.113021136238 45.29731416566346
211.20459034503912 190.69552563591938 63.735118354017835
196.9385883369355 182.19971595424633 53.105632480520455
216.34672584910916 182.98737656134634 40.013798902266
197.4668263373055 191.65764435445757 44.80964341052285
212.30074647019867 181.433232043082 39.15826508118719
214.72203255359605 206.68317616933385 46.70191030636809
205.14058915768467 201.29195059337485 37.663362020663534
200.22734762461937 199.5689101084466 44.64976159451991
220.986962510886 203.456407262753 45.29225168981399
196.58869204069205 187.71847085637705 51.648287473427246
222.91174551583146 200.71577670909744 56.312159080455885
202.48294550973122 178.6236762093048 58.40857946932423
206.14179403868442 173.66457249381907 51.35293157662046
217.520935377109 196.57485713927932 36.883995776527804
207.08922480009645 178.1654471137586 41.64359190330896
203.75972064288456 200.72796729465907 38.29301425939043
202.27853773880804 176.71338550158933 56.624023055840674
202.45649111530773 180.83020923886224 41.91783993698714
216.38975051194896 202.5055664148504 58.82577137918782
208.51709938716826 194.36974171310962 62.601471994971384
208.82530773237175 180.3443287395913 39.21479301835208
213.52194921516053 206.831347439332 48.101853272153036
208.72142453145898 202.922798327872 58.96666378512158
198.40196101822414 181.16017381361436 46.71267350835775
201.97108454559725 183.82918367479974 39.94827307545223
209.75384803964255 188.07460744494995 64.07711682674922
211.38547699448122 178.4019466497218 41.51686640041326
199.85733709529742 177.48434667947154 51.57113545536379
209.4392314597375 196.64445785624642 33.11073546277894
199.48784020391813 178.61640292348372 54.31053026761376
217.21351394974914 206.08199127633196 49.050451319136876
207.65690908520793 183.07491578738865 36.77973906535862
211.433737427989 179.5007867808923 61.24804039940305
209.52380376566637 173.57022007227772 54.57349336350348
198.05681711376826 194.49268422540433 45.893939847242706
226.2541703095044 195.76092717488018 53.84214728150493
216.42109475682466 203.97493597491726 57.4583366134527
209.49970118835543 196.0526707217059 62.386922212535154
207.28833666615532 176.78316931177494 43.465390500218334
209.36352172126016 186.3407450268892 64.1122411241823
210.02538819488356 205.14150866597896 42.32117913620445
213.32266373483657 203.7749964999822 39.609757875497685
212.58093521179367 206.3123021427366 44.4306166143032
208.85071381321558 174.14628775833796 47.307638477893484
197.11746919605466 187.98905595369916 45.46641180432194
218.9216507828326 205.51589490118502 49.93859341053389
215.50341127435848 177.00602387597291 48.051150370686365
225.52381938534802 199.05689614859753 53.781400213947926
204.7164089165826 203.063136773492 40.930206824451986
197.0347661382938 190.25960387332697 46.07888631517044
198.32407879105503 194.27401045664828 51.24141958115363
209.2575600783297 191.2861141693316 63.50485918875476
221.86719801370324 192.72706056004228 60.311980508991205
216.48891515471846 206.07506986594288 52.318705329774915
223.00858542492196 197.3554764375558 57.278750797478175
219.8955116093343 203.9894882410808 55.35102756218353
211.3659760950777 188.47383857144064 33.894341897530055
210.7822153477216 206.1369011351406 43.95425404604208
224.25900287117278 197.12031535401258 56.32432518979313
201.66277125741257 197.8462327358611 38.106927955936555
202.71476185359202 175.28299998401076 48.28169898489901
222.17548940320515 182.76846233050765 51.61194950463794
199.34657061534492 197.0506404513411 43.71018096173538
215.77407014910318 206.04929543915122 45.179353471509785
219.63649124328728 179.90965258155228 52.8267167768227
210.00179987763232 189.66424214167597 63.80080327809483
219.47104823617073 204.427691011412 45.89999195366101
201.31520611621102 200.35972122070544 53.23721518457573
203.18909311808162 184.97253275022186 37.76455707838984
198.1753962013853 194.464610200334 49.44031024976052
218.08479090458806 202.88291911385846 57.855929821580865
198.58304640145064 195.70054710278296 44.368680724099995
197.00603377801914 182.84565213875055 50.396337606435644
218.64273681138653 205.469036860622 51.95739851324772
223.01325156123224 196.01334008722935 57.987334723537124
200.96031319346562 175.77667501967233 51.926006805025146
216.71229294730975 205.05490510123238 43.51854855945757
223.1474308527878 192.79237784366396 58.92499274640225
196.24841466423308 186.88786459672986 49.50530827773173
197.15659802048597 191.41619815193317 50.170473920814985
205.4457993965626 193.5742965506022 33.86719590986693
206.6746363150833 205.51152233094177 46.14216211975296
198.028668846434 194.45440492132437 47.58094409729857
221.46235523367852 193.61895984299997 40.123790051950664
216.0129834051517 199.1626756118019 60.95547744655993
203.36356635512547 179.4229197302998 41.88865470816566
211.66330965178378 176.24224961732546 45.303531403238736
213.00063812781318 190.4527755934827 33.70308787258313
208.08512280579276 179.39835468962593 40.32154454611842
197.99106590703067 187.51864833116048 43.14107534255256
220.84606273786588 204.3573677841192 47.151341823479136
198.31972773539613 185.14299969700687 43.36038045719423
218.08211147584012 201.28590980250138 59.11713170866575
199.42309498485218 190.87103108856516 39.69964643849515
225.3385324223385 196.83390631504653 54.95841254589861
214.70745432256928 193.70710507160203 34.279340290211906
205.6478005204125 184.74202946427903 36.16349900005815
211.66770708844925 174.74112464141004 51.01934242338163
214.76305414178938 189.68436102747847 35.26289742847993
201.96000929606845 197.2718020841703 57.940856628705035
202.1443896431908 187.70537519230794 37.301603646318405
209.8421350225181 186.96890700989536 34.46358681680099
222.98027035252528 202.22448408317723 55.253078392433245
223.64634140287876 184.38140674126913 53.71533039836757
219.92764188509474 199.80824154792288 59.31064054292658
216.32719025085711 205.26602255419306 55.86475483378918
200.34271993822452 196.74839531179816 56.68808794352431
202.1189462450369 200.9699945351936 54.9649141536695
215.4998835351632 204.59101829258935 42.07232766908272
203.1605762872553 197.1074794752232 35.8880292487394
209.68705445679478 181.65728294521324 38.12923455417043
203.26642504346228 183.15938989820754 38.88418294909679
205.03669851403905 176.4531211865383 44.69020653223459
207.8307541792774 203.36912023301298 38.81085245546302
212.65454046902974 206.6451509338983 51.71715595108241
211.03406167937533 199.50944050103072 61.516280133380484
219.7629406781804 181.3145120730989 56.70505527146718
226.51204495493567 197.02951965993825 50.11245217412545
207.43117107244078 205.95087734341956 50.51980738728513
221.71033547263124 197.13043110629442 40.91589522211644
218.1253394937108 204.28073130087563 56.41219706675127
205.20967669729706 198.40517067250119 35.36783382059673
206.32673136679963 178.54051710432506 60.70755757033594
206.95624068943442 199.74204203787667 34.981534900251496
198.74633791480565 194.1443234289162 42.696906341809026
198.4461068201622 196.14142265848048 46.46616949172382
203.5501656144931 184.83154953261155 61.19401891462673
216.50824496368793 198.85387009408603 36.95688500924787
203.81914145742593 203.29579916914022 51.93093033645757
219.5268702164075 181.69584326702963 45.95305095101344
208.57943116524694 202.24913193415904 37.15697539960234
200.97886750721958 199.48016794985378 54.931566600082434
219.85719843910354 201.83666649114338 58.11564193368931
207.25312548936668 175.57017115099833 58.48709982460522
207.30206260093883 173.89905051021398 54.807217416569785
205.02439334492266 174.15721321447666 53.49032764342918
216.89891993545837 202.12182891107832 39.87512795961337
210.13483800929095 178.45930902291462 60.85956611274419
219.07656269566905 192.90949042376485 37.81348427413639
203.80738120853366 201.95290888410386 39.217073102638984
199.28464825246454 197.80917885975126 45.12718550550986
198.76138956550838 179.8549755224851 55.67350601777913
212.9113009080225 194.2429163750277 33.400322850153984
208.92871326068627 199.16796215553444 33.94409789465511
214.31556932309738 177.4847820426418 44.50727025688082
201.14075924019548 182.1697630677502 42.083182045033126
198.52141642823975 180.5300603669903 48.03966510975096
209.77402039930033 176.09829315853443 44.665814631689464
214.6115445122381 202.05106456182992 59.63188105641358
197.12449775806857 185.26523798404747 55.40916105432213
202.71038564551594 202.8043532502368 46.211370237458816
219.52488189269928 203.1992032204592 56.938738329274756
219.2779814500665 202.577858093232 41.870291424028046
201.13493544641634 198.5016189988957 56.47272936317383
209.27156043409187 206.5889872691406 47.12988236216208
217.2947759063351 177.70298409631192 51.667821958379776
220.28014279131636 204.73025135714104 53.30819355897304
202.97970551834885 194.23070206160955 35.21315866054526
203.0477639338763 203.12408697601253 48.1848768370551
197.97944618455634 191.97400786637093 43.05782164250734
205.27242271574684 181.26327865184257 39.44807641819598
211.7905158515712 192.464204366155 33.00523795443917
206.81362494625148 174.01332481660936 48.69235908414083
206.7438579473252 173.6870453889017 53.00928061451888
210.6548846025035 206.38149937851063 52.0078890171051
202.45677341987073 193.50304976950568 59.71021319790174
208.42310349278284 189.40434136788016 63.759266901432916
225.05137450608728 190.10248418814075 48.51318501990046
202.66382648768675 174.7371972566429 52.239665503179225
200.9959191399965 186.25265754064128 39.25167612531043
214.91425072505677 180.0129490155986 41.4859180683811
196.6098433402337 188.5169202071814 47.683578211132506
218.05689366596945 205.3636481228815 54.28254699016633
POLYGONS 1404 5616
3 0 3 2
3 0 2 1
3 2 3 181
3 3 4 181
3 4 8 7
3 4 3 8
3 3 11 8
3 11 3 0
3 8 267 257
3 8 11 267
3 11 182 267
3 182 11 92
3 194 188 186
3 180 194 186
3 123 194 180
3 582 697 596
3 180 697 582
3 522 582 531
3 531 582 596
3 123 180 74
3 180 582 74
3 74 486 123
3 550 253 486
3 404 519 512
3 570 489 556
3 452 492 501
3 519 456 512
3 512 456 517
3 522 494 467
3 522 531 494
3 518 489 519
3 406 467 494
3 582 485 74
3 74 485 550
3 477 95 517
3 176 570 556
3 523 426 524
3 474 435 450
3 450 435 95
3 474 406 368
3 494 404 368
3 467 399 366
3 95 435 517
3 517 435 512
3 494 368 406
3 257 385 30
3 33 77 385
3 463 374 490
3 374 402 425
3 435 474 368
3 474 378 406
3 374 158 402
3 550 486 74
3 368 404 512
3 568 253 550
3 456 477 517
3 385 77 383
3 383 30 385
3 512 435 368
3 95 126 450
3 501 285 279
3 501 394 285
3 568 527 366
3 83 486 39
3 490 126 463
3 426 489 570
3 394 344 389
3 531 404 494
3 279 477 298
3 298 477 456
3 53 367 389
3 367 325 389
3 253 296 486
3 450 378 474
3 33 313 77
3 402 285 325
3 402 158 285
3 285 158 279
3 279 158 477
3 344 394 316
3 316 238 344
3 402 273 425
3 402 325 273
3 273 325 367
3 320 480 366
3 480 568 366
3 33 385 267
3 267 385 257
3 406 150 372
3 404 518 519
3 425 332 374
3 374 332 490
3 382 281 365
3 365 281 330
3 406 372 399
3 399 372 266
3 426 523 489
3 383 122 30
3 106 378 450
3 7 8 257
3 266 320 366
3 291 54 297
3 54 205 297
3 205 272 297
3 201 9 334
3 100 516 684
3 684 516 662
3 100 515 516
3 697 556 596
3 518 531 596
3 39 72 83
3 190 124 237
3 334 174 201
3 596 556 518
3 523 298 456
3 126 393 450
3 393 106 450
3 487 155 268
3 518 404 531
3 662 598 268
3 378 150 406
3 33 267 182
3 182 696 33
3 126 143 393
3 143 583 393
3 485 527 550
3 527 568 550
3 199 252 370
3 252 160 370
3 138 150 113
3 320 646 480
3 393 583 134
3 332 143 490
3 332 165 143
3 75 157 160
3 160 157 370
3 96 134 311
3 582 522 485
3 522 527 485
3 372 150 138
3 137 72 39
3 165 86 109
3 113 150 378
3 92 696 182
3 113 96 138
3 625 142 75
3 106 113 378
3 425 273 108
3 108 273 263
3 568 107 253
3 253 107 272
3 107 187 272
3 393 134 106
3 106 134 113
3 263 105 108
3 105 86 108
3 7 148 314
3 291 197 100
3 152 96 311
3 463 95 477
3 463 126 95
3 108 86 94
3 165 583 143
3 137 205 54
3 165 94 86
3 332 94 165
3 126 490 143
3 157 109 86
3 134 583 311
3 108 94 425
3 425 94 332
3 96 113 134
3 266 366 399
3 67 105 263
3 157 86 370
3 86 105 370
3 467 406 399
3 697 176 556
3 489 518 556
3 2 181 249
3 268 56 487
3 252 199 55
3 630 10 54
3 247 47 52
3 105 67 370
3 370 67 199
3 275 509 43
3 70 47 97
3 413 215 41
3 519 489 456
3 426 301 524
3 330 102 365
3 456 489 523
3 92 72 696
3 83 72 26
3 210 43 237
3 263 22 67
3 67 22 199
3 176 697 186
3 186 697 180
3 390 69 98
3 382 299 281
3 487 56 322
3 281 219 330
3 281 56 219
3 219 56 191
3 334 9 27
3 291 174 197
3 197 174 334
3 366 527 467
3 527 522 467
3 247 52 447
3 248 350 384
3 350 132 384
3 460 136 504
3 136 122 504
3 188 1 58
3 386 631 259
3 259 631 87
3 12 690 288
3 197 515 100
3 197 334 515
3 637 630 684
3 684 630 100
3 73 683 459
3 252 209 160
3 209 75 160
3 447 45 247
3 334 27 515
3 268 155 662
3 662 155 684
3 132 658 384
3 437 384 544
3 140 198 212
3 650 303 529
3 66 14 179
3 99 24 14
3 265 654 674
3 674 654 103
3 654 130 103
3 119 109 142
3 684 155 637
3 637 155 229
3 193 661 115
3 313 630 637
3 313 10 630
3 87 631 445
3 445 631 700
3 335 319 64
3 319 386 259
3 288 620 12
3 631 599 700
3 599 555 700
3 125 227 613
3 167 610 525
3 504 214 610
3 300 624 360
3 339 364 305
3 18 673 692
3 692 673 341
3 602 655 117
3 382 600 299
3 600 227 214
3 386 599 631
3 386 627 599
3 662 638 598
3 504 610 460
3 460 610 167
3 299 581 322
3 581 46 322
3 580 702 525
3 702 575 414
3 640 168 590
3 590 168 339
3 640 688 168
3 125 565 117
3 125 613 565
3 565 613 656
3 365 656 382
3 656 613 382
3 41 667 413
3 702 414 609
3 191 56 268
3 555 331 700
3 507 627 386
3 415 540 250
3 540 609 250
3 590 145 178
3 12 534 690
3 12 580 534
3 534 580 125
3 119 311 583
3 125 525 227
3 125 580 525
3 515 638 516
3 516 638 662
3 445 700 139
3 700 331 139
3 146 500 300
3 500 624 300
3 525 702 167
3 702 609 167
3 525 610 227
3 227 610 214
3 493 626 437
3 295 46 383
3 383 46 122
3 77 229 383
3 229 295 383
3 227 600 613
3 613 600 382
3 248 626 673
3 673 626 341
3 575 12 620
3 64 427 611
3 611 427 688
3 64 422 335
3 64 326 422
3 656 671 602
3 381 609 414
3 414 575 411
3 673 18 400
3 415 250 163
3 624 500 445
3 326 230 422
3 18 692 230
3 87 387 259
3 387 500 146
3 300 360 364
3 364 360 655
3 461 482 44
3 360 690 655
3 655 690 117
3 288 360 624
3 288 690 360
3 305 364 392
3 392 364 655
3 313 637 77
3 637 229 77
3 155 487 229
3 487 295 229
3 68 347 562
3 599 627 347
3 347 627 562
3 102 671 365
3 671 656 365
3 690 534 117
3 117 534 125
3 117 565 602
3 602 565 656
3 292 667 340
3 300 339 146
3 300 364 339
3 259 387 427
3 12 575 580
3 580 575 702
3 611 326 64
3 611 391 326
3 259 427 319
3 319 427 64
3 602 392 655
3 149 310 17
3 265 391 307
3 307 391 611
3 335 507 319
3 319 507 386
3 559 400 18
3 590 339 305
3 115 216 193
3 178 640 590
3 178 652 640
3 427 387 688
3 688 387 146
3 322 295 487
3 322 46 295
3 46 581 504
3 504 581 214
3 46 504 122
3 122 136 30
3 30 136 148
3 350 400 293
3 222 447 223
3 200 233 479
3 288 139 620
3 193 216 436
3 673 400 248
3 248 400 350
3 384 437 248
3 437 626 248
3 384 658 544
3 341 618 692
3 618 629 481
3 559 265 674
3 559 391 265
3 674 293 559
3 559 293 400
3 52 47 212
3 18 258 559
3 18 230 258
3 258 230 326
3 559 258 391
3 391 258 326
3 329 103 193
3 293 254 350
3 293 329 254
3 169 251 506
3 130 661 103
3 661 193 103
3 224 337 23
3 337 62 23
3 503 473 238
3 235 2 249
3 650 23 62
3 350 254 132
3 437 544 184
3 190 241 598
3 692 354 230
3 230 354 422
3 161 49 303
3 303 49 529
3 49 16 529
3 644 44 261
3 221 36 135
3 303 223 204
3 303 650 223
3 132 111 658
3 506 588 573
3 191 17 219
3 219 17 330
3 23 282 224
3 544 218 337
3 544 658 218
3 218 658 41
3 661 217 644
3 644 217 416
3 217 537 416
3 506 571 588
3 222 62 215
3 215 62 337
3 204 212 198
3 204 52 212
3 118 15 211
3 211 15 140
3 115 261 251
3 315 240 327
3 652 654 265
3 245 423 577
3 577 423 373
3 118 65 221
3 65 36 221
3 202 209 252
3 202 252 55
3 145 200 670
3 145 233 200
3 103 329 674
3 674 329 293
3 211 140 202
3 140 15 198
3 198 15 161
3 650 529 23
3 529 614 23
3 481 629 442
3 629 179 442
3 132 436 111
3 132 254 436
3 436 254 193
3 193 254 329
3 692 618 354
3 207 423 245
3 354 175 422
3 175 632 507
3 648 202 140
3 172 213 632
3 245 473 628
3 118 211 55
3 55 211 202
3 632 213 507
3 640 307 688
3 688 307 611
3 688 146 168
3 168 146 339
3 265 307 652
3 652 307 640
3 161 15 166
3 437 184 493
3 178 162 652
3 178 537 162
3 162 537 130
3 303 204 161
3 161 204 198
3 223 447 204
3 447 52 204
3 35 179 629
3 223 650 222
3 222 650 62
3 482 327 571
3 151 289 51
3 44 644 416
3 55 65 118
3 22 127 289
3 221 135 141
3 614 282 23
3 215 413 222
3 123 26 194
3 194 26 60
3 166 221 141
3 141 16 166
3 221 166 118
3 118 166 15
3 644 115 661
3 644 261 115
3 224 669 184
3 224 282 669
3 327 588 571
3 147 19 53
3 280 301 491
3 301 280 144
3 231 112 57
3 614 93 112
3 658 111 41
3 98 156 390
3 390 156 51
3 537 217 130
3 217 661 130
3 36 156 135
3 16 141 93
3 93 141 405
3 420 98 69
3 500 87 445
3 500 387 87
3 289 151 22
3 22 151 199
3 151 51 36
3 14 442 179
3 63 98 76
3 98 405 156
3 156 405 135
3 652 162 654
3 654 162 130
3 1 188 60
3 60 188 194
3 235 144 280
3 65 151 36
3 57 63 269
3 57 405 63
3 66 269 76
3 76 269 63
3 176 186 58
3 58 186 188
3 92 60 26
3 0 60 11
3 0 1 60
3 176 58 491
3 58 280 491
3 141 135 405
3 269 231 57
3 263 127 22
3 405 57 93
3 93 614 16
3 16 614 529
3 232 294 660
3 280 58 1
3 156 36 51
3 127 19 289
3 19 84 289
3 161 166 49
3 49 166 16
3 390 51 84
3 26 123 83
3 83 123 486
3 363 336 333
3 493 116 35
3 92 26 72
3 172 31 213
3 172 24 31
3 626 29 341
3 29 35 629
3 11 60 92
3 231 116 669
3 614 112 282
3 314 336 4
3 4 336 181
3 144 235 101
3 84 69 390
3 63 405 98
3 98 420 76
3 84 51 289
3 231 269 179
3 179 269 66
3 301 144 462
3 116 231 179
3 93 57 112
3 622 411 620
3 620 411 575
3 282 112 669
3 669 112 231
3 622 21 411
3 524 301 462
3 337 224 544
3 224 184 544
3 337 218 215
3 215 218 41
3 78 533 40
3 533 99 40
3 163 333 415
3 66 76 40
3 533 78 302
3 14 66 99
3 116 179 35
3 301 426 491
3 35 29 493
3 493 29 626
3 669 116 184
3 184 116 493
3 341 29 618
3 618 29 629
3 10 137 54
3 10 696 137
3 481 172 587
3 481 442 172
3 40 99 66
3 463 158 374
3 463 477 158
3 333 37 363
3 181 336 249
3 249 336 363
3 355 373 232
3 381 163 250
3 415 314 206
3 206 314 148
3 696 10 33
3 33 10 313
3 183 32 455
3 40 76 420
3 272 296 253
3 272 205 296
3 4 7 314
3 7 257 148
3 148 257 30
3 540 415 206
3 206 460 540
3 460 206 136
3 136 206 148
3 355 660 147
3 232 660 355
3 296 39 486
3 480 107 568
3 660 69 84
3 53 192 147
3 208 533 243
3 31 535 641
3 535 208 243
3 40 420 78
3 381 250 609
3 208 24 99
3 414 411 21
3 183 232 373
3 302 294 232
3 302 78 294
3 455 535 243
3 632 175 587
3 587 175 354
3 609 540 167
3 167 540 460
3 69 660 294
3 294 78 69
3 69 78 420
3 533 302 243
3 137 696 72
3 296 205 39
3 39 205 137
3 422 175 335
3 335 175 507
3 302 232 183
3 562 641 68
3 24 208 31
3 208 535 31
3 641 535 177
3 177 535 455
3 442 14 24
3 99 533 208
3 48 225 342
3 172 442 24
3 587 172 632
3 618 587 354
3 618 481 587
3 426 570 491
3 491 570 176
3 91 681 689
3 91 409 419
3 262 663 170
3 539 621 196
3 682 586 651
3 203 541 170
3 541 262 170
3 410 584 121
3 278 593 671
3 671 593 602
3 278 392 593
3 593 392 602
3 549 601 567
3 25 561 228
3 121 645 410
3 88 470 649
3 88 34 470
3 239 465 5
3 465 59 185
3 164 451 276
3 703 604 584
3 703 584 195
3 195 59 636
3 59 421 636
3 228 433 121
3 121 433 645
3 433 488 645
3 85 429 345
3 85 97 429
3 429 97 196
3 514 283 138
3 164 266 283
3 170 663 635
3 240 510 396
3 396 510 90
3 34 6 5
3 6 395 5
3 682 601 663
3 663 601 623
3 234 377 159
3 234 70 377
3 377 70 97
3 428 318 239
3 276 356 189
3 356 679 255
3 75 351 157
3 157 351 109
3 75 142 351
3 351 142 109
3 185 410 645
3 185 59 410
3 38 349 284
3 91 689 349
3 636 567 651
3 421 567 636
3 6 34 88
3 679 451 114
3 585 203 120
3 131 597 226
3 131 621 597
3 597 621 539
3 152 311 324
3 324 311 119
3 260 623 114
3 623 549 114
3 266 164 320
3 320 164 276
3 635 663 623
3 260 114 615
3 635 120 170
3 120 203 170
3 189 359 264
3 152 321 96
3 152 432 321
3 321 432 514
3 432 635 260
3 260 514 432
3 260 615 514
3 549 679 114
3 703 636 651
3 195 636 703
3 234 159 133
3 159 633 133
3 154 578 625
3 234 133 578
3 212 47 476
3 476 47 70
3 260 635 623
3 380 685 315
3 315 685 240
3 510 306 90
3 633 262 541
3 541 133 633
3 96 321 138
3 138 321 514
3 322 56 299
3 299 56 281
3 247 196 47
3 196 97 47
3 214 581 600
3 600 581 299
3 85 377 97
3 635 290 120
3 290 432 152
3 153 639 169
3 639 292 169
3 138 283 372
3 372 283 266
3 234 287 70
3 154 648 287
3 635 432 290
3 514 615 283
3 283 615 164
3 164 615 451
3 451 615 114
3 346 395 256
3 346 428 395
3 5 428 239
3 5 395 428
3 256 353 379
3 379 353 9
3 395 312 256
3 189 646 276
3 276 646 320
3 498 239 246
3 239 318 246
3 679 356 451
3 451 356 276
3 109 608 165
3 165 608 583
3 109 119 608
3 608 119 583
3 120 324 585
3 421 59 498
3 90 306 552
3 552 306 488
3 34 695 470
3 695 357 645
3 470 508 649
3 508 338 685
3 226 50 131
3 50 561 131
3 203 585 271
3 646 189 264
3 236 461 579
3 236 270 461
3 419 270 42
3 419 471 270
3 469 681 286
3 286 681 42
3 50 449 561
3 561 449 228
3 25 576 561
3 561 576 131
3 537 670 416
3 416 670 579
3 585 605 142
3 142 605 119
3 585 324 605
3 605 324 119
3 588 396 573
3 573 396 90
3 573 153 506
3 506 153 169
3 345 483 85
3 483 472 85
3 131 345 621
3 131 576 345
3 685 510 240
3 685 338 510
3 75 566 625
3 625 566 154
3 75 209 566
3 566 209 154
3 648 505 202
3 202 505 209
3 648 154 505
3 505 154 209
3 687 457 472
3 472 457 159
3 457 633 159
3 120 290 324
3 324 290 152
3 578 133 271
3 271 625 578
3 625 589 142
3 142 589 585
3 625 271 589
3 589 271 585
3 154 287 578
3 578 287 234
3 210 496 312
3 124 27 496
3 203 271 541
3 541 271 133
3 27 124 515
3 515 124 638
3 247 539 196
3 247 45 539
3 222 502 447
3 447 502 45
3 502 683 45
3 284 509 38
3 284 43 509
3 73 607 226
3 240 588 327
3 240 396 588
3 461 44 579
3 579 44 416
3 44 482 261
3 261 482 571
3 506 251 571
3 571 251 261
3 315 327 471
3 471 327 482
3 286 42 236
3 236 42 270
3 681 91 42
3 91 419 42
3 149 520 310
3 681 469 520
3 520 469 310
3 584 604 25
3 25 604 576
3 315 612 380
3 315 471 612
3 612 471 419
3 567 601 651
3 651 601 682
3 703 687 604
3 472 483 687
3 687 483 604
3 121 584 228
3 584 25 228
3 169 572 251
3 340 216 572
3 681 520 689
3 482 461 471
3 461 270 471
3 604 483 576
3 576 483 345
3 70 287 476
3 476 287 648
3 633 457 262
3 586 262 457
3 457 687 586
3 216 340 436
3 436 340 111
3 584 410 195
3 410 59 195
3 90 552 536
3 552 449 536
3 539 45 73
3 45 683 73
3 212 476 140
3 140 476 648
3 683 502 413
3 413 502 222
3 159 377 472
3 472 377 85
3 310 469 102
3 469 538 102
3 102 538 671
3 538 278 671
3 687 703 586
3 586 703 651
3 649 509 88
3 509 275 88
3 312 275 210
3 275 43 210
3 317 428 346
3 317 318 428
3 573 526 153
3 536 594 526
3 526 594 153
3 246 421 498
3 246 348 421
3 649 508 403
3 338 407 488
3 407 645 488
3 38 403 409
3 409 403 380
3 226 597 73
3 73 597 539
3 102 330 310
3 330 17 310
3 201 171 9
3 171 379 9
3 449 433 228
3 345 429 621
3 621 429 196
3 124 496 237
3 237 496 210
3 220 659 284
3 659 190 237
3 284 659 43
3 43 659 237
3 190 638 124
3 190 598 638
3 88 275 6
3 275 312 6
3 601 549 623
3 403 38 649
3 649 38 509
3 262 682 663
3 262 586 682
3 695 645 407
3 407 470 695
3 255 359 356
3 356 359 189
3 645 357 185
3 171 553 379
3 465 185 357
3 470 407 508
3 508 407 338
3 91 349 409
3 409 349 38
3 284 349 220
3 220 349 689
3 59 465 498
3 498 465 239
3 488 306 338
3 338 306 510
3 190 434 241
3 190 659 434
3 434 659 220
3 149 17 241
3 17 191 241
3 220 689 149
3 689 520 149
3 536 526 90
3 90 526 573
3 695 34 357
3 639 607 459
3 459 607 73
3 538 469 479
3 479 469 286
3 413 388 683
3 683 388 459
3 413 667 388
3 388 667 459
3 403 508 380
3 380 508 685
3 111 369 41
3 41 369 667
3 111 340 369
3 369 340 667
3 241 191 598
3 191 268 598
3 380 612 409
3 409 612 419
3 241 434 149
3 149 434 220
3 340 572 292
3 292 572 169
3 6 312 395
3 479 286 200
3 200 286 236
3 312 496 353
3 421 348 567
3 567 348 549
3 5 357 34
3 5 465 357
3 200 579 670
3 200 236 579
3 226 594 50
3 226 607 594
3 670 546 145
3 145 546 178
3 670 537 546
3 546 537 178
3 50 536 449
3 50 594 536
3 488 433 552
3 552 433 449
3 251 458 115
3 115 458 216
3 251 572 458
3 458 572 216
3 549 348 679
3 348 255 679
3 255 348 246
3 667 292 459
3 292 639 459
3 594 607 153
3 153 607 639
3 9 353 27
3 27 353 496
3 174 323 201
3 323 397 201
3 379 346 256
3 379 553 346
3 359 343 264
3 359 553 343
3 343 553 171
3 272 323 297
3 272 187 323
3 255 246 318
3 343 328 264
3 346 553 317
3 317 553 359
3 328 343 397
3 256 312 353
3 359 255 318
3 318 317 359
3 264 328 308
3 308 328 187
3 264 308 646
3 646 308 480
3 291 297 174
3 297 323 174
3 328 397 187
3 187 397 323
3 480 308 107
3 107 308 187
3 630 291 100
3 630 54 291
3 201 397 171
3 397 343 171
3 68 619 511
3 619 177 376
3 104 616 79
3 79 616 511
3 104 13 616
3 455 557 177
3 177 557 376
3 455 32 557
3 557 32 376
3 82 462 653
3 653 462 144
3 560 558 521
3 177 551 641
3 641 551 68
3 177 619 551
3 551 619 68
3 547 110 80
3 511 545 79
3 511 619 545
3 545 619 376
3 13 89 676
3 68 691 347
3 347 691 129
3 68 511 691
3 691 511 129
3 173 643 61
3 643 104 79
3 20 554 89
3 89 554 21
3 554 225 21
3 163 603 48
3 48 603 225
3 163 381 603
3 603 381 225
3 61 693 173
3 693 309 173
3 678 376 32
3 110 666 665
3 277 591 309
3 309 591 173
3 277 304 591
3 591 304 173
3 28 574 207
3 28 693 574
3 574 693 61
3 376 678 569
3 569 678 61
3 309 693 543
3 545 376 569
3 569 79 545
3 643 79 569
3 569 61 643
3 104 530 13
3 104 304 530
3 530 304 20
3 511 616 129
3 277 309 699
3 110 664 80
3 101 542 80
3 454 547 542
3 542 547 80
3 207 617 423
3 423 617 32
3 207 678 617
3 617 678 32
3 274 564 81
3 244 665 564
3 564 665 81
3 274 513 503
3 503 513 473
3 274 628 513
3 513 628 473
3 37 532 48
3 48 532 163
3 37 333 532
3 532 333 163
3 110 499 666
3 110 547 499
3 499 547 521
3 666 694 665
3 665 694 81
3 666 543 694
3 694 543 81
3 129 676 555
3 555 676 331
3 392 278 305
3 305 278 233
3 13 530 89
3 89 530 20
3 507 497 627
3 627 497 562
3 507 213 497
3 497 213 562
3 145 495 233
3 233 495 305
3 145 590 495
3 495 590 305
3 331 484 622
3 331 676 484
3 484 676 89
3 278 479 233
3 278 538 479
3 333 680 415
3 415 680 314
3 333 336 680
3 680 336 314
3 104 478 304
3 304 478 173
3 104 643 478
3 478 643 173
3 277 528 304
3 342 20 528
3 528 20 304
3 445 468 624
3 624 468 288
3 445 139 468
3 468 139 288
3 641 466 31
3 31 466 213
3 641 562 466
3 466 562 213
3 622 448 331
3 331 448 139
3 622 620 448
3 448 620 139
3 21 446 414
3 414 446 381
3 21 225 446
3 446 225 381
3 225 677 342
3 342 677 20
3 225 554 677
3 677 554 20
3 347 642 599
3 599 642 555
3 347 129 642
3 642 129 555
3 129 548 676
3 676 548 13
3 129 616 548
3 548 616 13
3 151 698 199
3 199 698 55
3 151 65 698
3 698 65 55
3 80 653 101
3 101 653 144
3 622 484 21
3 21 484 89
3 249 475 235
3 235 475 101
3 37 672 363
3 363 672 454
3 37 560 672
3 672 560 454
3 1 657 280
3 280 657 235
3 1 2 657
3 657 2 235
3 277 606 558
3 558 606 521
3 277 699 606
3 606 699 521
3 524 563 452
3 524 462 563
3 577 464 245
3 245 464 473
3 577 242 464
3 577 444 242
3 242 444 355
3 577 373 444
3 444 373 355
3 279 443 501
3 501 443 452
3 279 298 443
3 443 298 452
3 28 439 628
3 628 439 245
3 28 207 439
3 439 207 245
3 48 438 37
3 48 342 438
3 438 342 558
3 492 430 316
3 430 128 503
3 666 424 543
3 543 424 309
3 666 699 424
3 424 699 309
3 238 686 344
3 242 192 686
3 686 192 344
3 501 418 394
3 394 418 316
3 501 492 418
3 418 492 316
3 128 453 244
3 128 71 453
3 453 71 82
3 207 441 678
3 678 441 61
3 207 574 441
3 441 574 61
3 543 440 81
3 81 440 28
3 543 693 440
3 440 693 28
3 81 417 274
3 274 417 628
3 81 28 417
3 417 28 628
3 244 412 128
3 244 564 412
3 412 564 274
3 128 412 503
3 503 412 274
3 128 401 71
3 71 401 492
3 128 430 401
3 401 430 492
3 71 668 82
3 82 668 462
3 71 563 668
3 668 563 462
3 316 408 238
3 238 408 503
3 316 430 408
3 408 430 503
3 342 528 558
3 558 528 277
3 524 398 523
3 523 398 298
3 524 452 398
3 398 452 298
3 452 375 492
3 492 375 71
3 452 563 375
3 375 563 71
3 244 371 665
3 665 371 110
3 244 664 371
3 371 664 110
3 80 431 653
3 653 431 82
3 80 664 431
3 431 664 82
3 37 438 560
3 560 438 558
3 355 362 242
3 242 362 192
3 355 147 362
3 362 147 192
3 147 361 19
3 19 361 84
3 147 660 361
3 361 660 84
3 547 358 521
3 521 358 560
3 547 454 358
3 358 454 560
3 454 352 363
3 363 352 249
3 454 475 352
3 352 475 249
3 473 464 238
3 666 499 699
3 699 499 521
3 244 453 664
3 664 453 82
3 238 464 686
3 686 464 242
3 101 475 542
3 542 475 454
3 394 647 285
3 285 647 325
3 394 389 647
3 647 389 325
3 367 634 273
3 273 634 263
3 367 127 634
3 634 127 263
3 192 595 344
3 344 595 389
3 192 53 595
3 595 53 389
3 53 592 367
3 367 592 127
3 53 19 592
3 592 19 127
3 455 701 183
3 183 701 302
3 455 243 701
3 701 243 302
3 183 675 32
3 32 675 423
3 183 373 675
3 675 373 423
