# vtk DataFile Version 3.0
A great-looking cell
ASCII
DATASET POLYDATA
POINTS 201 double
357.61542914133685 219.76271843623832 44.937572702374695
358.10929201432026 220.4069571529308 46.8111403754719
358.52478230168447 220.74272740946176 48.38643778914457
356.3660949356118 218.82949857083 43.54773261368743
357.6299916152823 217.59922764094932 44.66778583461917
354.82340168311373 220.03556643743772 43.19913244670122
356.13328751923956 220.46350462085823 44.250232481510636
358.582489770224 218.56635156348835 46.30340576555511
356.564825909978 221.62288641452284 45.797752623402246
358.9542733288143 219.29894798126656 48.017289148103146
357.4463689366696 221.89253481609393 47.854010481000515
358.12235158267634 221.69373097566427 49.59608918798315
359.0288300635069 219.91042196237638 49.89498649989882
353.0303420237598 219.11950055095664 42.6405547672953
354.79817277231604 218.26334827953684 42.74449646856605
353.3933811070794 216.8270033881261 42.876391537340105
355.83190113681223 216.53619586494452 43.469362305360505
354.1454290890118 214.60590766854008 44.01746454169933
357.3823599435264 215.42822417537377 44.7845360178015
358.5080371566487 216.5370352526983 46.27736555121349
353.1536402822366 221.32288959941354 43.06840339902316
359.2961459463002 217.56546524650886 47.763992399071604
354.8874933568393 221.68969038835522 44.29492216397503
359.7062820421022 218.42839076755942 49.10253749309115
354.78386339328415 223.00241791701032 45.804980357946924
355.8865713984768 223.0133757053309 47.45061481416029
356.5934446557247 223.02160431225772 49.45396168260869
358.5703178462932 221.33510999361235 51.34341741790525
352.16939961763364 213.67288391361515 44.87234097897725
353.7981556862364 212.82458107998738 45.7620593158486
355.26347589609986 212.40541198685847 47.25293112296135
351.51867181081127 215.37026259253656 43.73071430083981
349.5271763918182 216.6427364977271 44.9831632396044
351.0655000790192 217.82746130112434 43.19352974485407
356.093685526552 213.64847768305484 45.477453129704145
356.75893046037555 213.35219189115338 47.45872541972947
357.91268990825586 214.04127218274144 48.99562748169859
357.83421982243834 214.6167348389247 46.74943335734331
351.0492847147812 220.308869702879 43.14269832461389
349.247202217504 219.1759259573758 44.50983346428767
349.92103286920695 221.43365926718278 44.84899170415084
358.7764185016035 215.7995433688285 48.11036572303914
351.61635400924155 222.0017741207152 44.08680194943359
351.33118679030633 222.9568668791733 45.86783588964771
359.4108444997194 216.90066324277086 49.387446972623536
353.1824948987539 222.7415268935076 44.65480193983968
353.160687766414 223.42671229990427 46.205437742848694
354.2009296706241 223.87954258488165 47.39047465589311
355.1462977508506 223.8706928724983 48.721538047351835
359.1805580482967 219.57495697135823 52.11593732525386
357.62116160786627 222.55112388249748 50.8388620719512
353.3450800823369 211.51091525331458 47.56493286568529
351.2355307688873 211.52202020715072 48.72868379388712
351.56946391900266 212.52921662427192 46.52977591748942
353.2946834312212 210.92534616328058 49.70198817588697
355.264842555395 211.44631828842387 50.49045434878985
354.8169871570913 211.48576872061503 48.71903978057246
350.11051456437747 214.2048189849878 45.54847740386636
349.43756805894213 213.14769833182305 47.87123154264342
348.29569571673017 215.48445418418595 47.17444541310176
356.3015419360725 212.46753281241686 48.98407609116499
357.2300128077932 212.71677654759588 51.19037905606369
347.70675782608834 218.09584521988666 46.53168589460252
346.7835773460278 219.90072254979958 48.69665527268562
358.18678432232485 214.0745533881817 52.87302095386595
358.6375555844612 214.5536960661337 51.01372699152275
359.00403214316975 215.5032596178605 52.38184317886209
348.3062948383507 220.6052486732614 46.37534511484245
348.4791461080558 221.94773389212074 48.24950017597166
359.3098085886656 216.27057345395357 51.0166353855317
349.59762028412143 222.1225557589527 46.60716039290363
350.34559826172165 223.15345470946377 47.96273447269128
352.3237497805311 223.71145945228324 47.65024091093122
353.52109813860056 224.1299085452517 49.1365775840844
354.9906268149348 224.0684340903718 50.39665650289312
356.325826137945 223.24421609277465 51.47202355208478
353.6099386368362 210.97958344131143 51.89681536876998
351.88727051437957 210.70754851949846 53.50312393072244
351.36394017459463 210.98615873147017 51.16077232686057
354.0570171128755 211.25060218006254 53.957726093661684
355.6863229143632 211.7634032813564 54.298197585965895
355.56809722299556 211.61574911495316 52.573240465891764
349.1779761305386 212.08634400288904 50.31651533261619
349.47569007613276 211.73701321422058 53.040760819154684
346.8275827870441 215.1557405037466 52.36400699565359
347.6847036595411 214.47258041048417 49.85783684977096
357.04762693008456 212.55844816323082 53.58828247188776
358.00780068623504 213.8069560696808 54.97815597721818
346.8312723898205 217.07515866874522 49.14817772862807
346.1035619086338 217.4243415906616 51.55173988848386
358.8823663001883 215.48757302149377 54.08362040442129
346.3790755067645 220.05771637241455 51.692832658720725
348.11798311127006 222.03665409931548 52.00752520262951
359.3984069782367 217.34252404103484 52.889809693723016
347.74766219475356 221.48562884577208 50.15443112316257
349.35467070245716 223.14023343975083 50.18922694578741
350.9930541031322 223.83258561336507 51.24132104140599
351.53646332071173 223.87211613442616 49.54556801399017
352.94288418747226 224.11422100405116 51.23543399351064
354.78818837976985 224.03770245224456 52.38924556592283
357.5310601551478 222.3538501821574 52.377525092276585
354.85279417668113 211.52812313624506 55.75703502183635
353.9408671742489 211.3514336206457 57.718112145177365
352.72131151056107 210.85981871610323 55.72374540089741
350.32020458696405 211.16261132858196 55.283484790728
351.08436674388 211.40589812178308 57.88190852013578
348.84622240892634 212.66571654835323 56.441621352963004
347.67034067155197 213.47565024259742 54.35549830094303
356.637719326451 212.39401363001497 55.5874462999485
346.1320215287395 216.9345874441513 54.07687166596115
347.6297463651629 214.36703764195747 57.822094519525585
346.31744140753665 217.8438520306853 56.93965010481704
359.0274045769307 215.20637335848383 56.15777252012255
346.2722206366564 219.5174929972514 54.54743328424401
347.83693378477886 221.24026250081974 55.76433501004338
347.4261193643981 221.08975430202216 53.59959324064427
349.4255819053697 222.6394009844795 55.5817754089077
348.77848841573984 222.35216572227938 53.95072930121376
350.41659968453627 223.38125431059535 54.26241321976912
349.7718303443577 223.2934287831426 52.427539178283794
352.2937475476483 223.78758638405992 54.54600639820963
351.5778609947248 223.89372077025524 52.817653964744565
353.2163004587366 224.06656137437471 53.123766608603596
355.82953501059853 212.10649573161993 57.22049065563839
355.6814382694276 212.34700014671157 59.371369686673525
353.0371249098703 211.9313776794154 59.90360035117081
352.32051952331193 213.0769751607996 61.64888579119006
350.79357503983664 212.9454622771349 60.11902282047437
357.59536805013295 213.60272699740915 57.566144254503634
358.81711954667276 215.38074934153244 57.85997631430217
348.98635256274747 214.68811539950212 59.98457186677963
350.87712187114465 214.8062367086445 61.711891636736134
349.3052182550652 217.24034825412036 61.268214275767434
358.9774348323793 216.8635238543446 57.12376909857339
359.1811644597284 217.14733226589672 55.23215738401389
347.41247470166013 216.6410937323466 59.06698597452039
349.18651831836763 220.07618592643462 60.680650523113236
347.6525560942782 220.1122699543083 58.30159052147459
350.8856832262181 221.64906071393878 59.78942993921028
349.5959745749333 222.05809070340413 57.611848794604875
358.9968310938531 218.61274709979645 56.590503293320076
351.8843946759022 223.07335932670242 58.05484747001473
353.1017997490973 223.5264790551351 56.287768917689235
351.04910429289953 223.30962615632038 56.11190066883641
354.4576708839729 223.64557466975194 54.52867618575022
356.2125895070649 223.10369345800845 53.36550696806235
346.72456279731654 215.26920445167445 55.89307069750351
345.950944807301 218.50613468632952 52.96770337078869
357.12856279351735 213.78453907816592 59.71360986651192
356.1011166598468 213.6840931084004 60.8570211105242
354.4079750379924 213.17991080566895 61.33765401171576
358.30964084949585 215.00982205157547 59.39614540201881
353.22670811288646 214.8429751232179 62.36754823981678
351.8748609554141 216.94578492221115 62.75936937075914
353.391844383095 218.8414142829584 62.37149692818658
351.10801294743413 219.2115163000871 61.94995338116399
354.615132132903 220.08263855038092 61.665507993821464
352.70860568389435 220.76745373832387 61.21523794185159
354.9309114653982 221.65985096659907 60.796049706103254
353.2072629905715 222.56440309693699 59.7878040335262
356.76071892004074 221.37311606202766 59.25257819233324
354.0468549678796 223.24701647298667 57.96829162890977
354.8640703763267 223.36184445295928 56.39604436651172
358.55964677666236 221.16795228705004 53.26014838239125
355.08033417371274 222.55211456107028 59.19900046205938
358.4988012462429 218.31818234993034 59.59205169020651
357.52349897836973 221.4855297269092 57.02779498270608
355.468028976338 214.88151251006667 62.10231216952874
357.151560807023 215.0188368018366 60.96792546228584
354.4405850024746 216.7989472696774 62.828941125425914
356.7099868674933 216.704773582876 62.195820193465366
358.7014539539431 216.72027645055502 58.79454811525163
355.5704972214057 218.5970085701176 62.13230370726878
358.2002096604105 216.66661037234175 60.60311944092323
358.99524696979495 219.37038300978554 54.511809113310605
358.97022387228765 218.0984860160905 58.1020565821114
357.44198338289937 222.20525921143414 53.92247353225193
357.7449447469905 219.79829182879737 60.02682701477511
358.4433953026513 219.85137230118704 58.206735455858635
355.91162341416407 222.64513221508145 57.601169161164066
358.59673475087965 220.21235997007585 56.310949649314416
356.4756138792286 222.71512831507192 55.44820924497557
350.89118507609516 220.66125444278651 61.1838914337413
348.90593353005073 212.06359918118528 54.80152950318771
359.6354692289041 218.09251576089608 50.74965902758795
357.4316001090939 218.47825660877143 61.208981739016025
356.3536089912415 220.18294857842508 61.11169989331367
349.2580304003263 212.9744425897658 58.594730219100335
358.09446647837854 221.310081501226 55.10689940116277
347.72803626486984 218.56237538759544 59.93848342130429
348.00808489074586 213.26153587036768 51.96653558010092
349.07948751569154 221.32663097689945 59.2915497015386
346.79231264618323 215.18606023429786 54.17274170586404
346.6209145907815 215.91247362742638 57.571967863924556
346.72179089146596 219.84329001575247 56.475390665857425
346.2686640157364 218.62380024536776 50.21606680383327
355.93830613175567 214.94273235213606 44.25984213194762
346.56009865627857 215.91115867421217 50.656239645637235
346.89395586577587 218.35413393356302 58.73280171477957
347.4985089585763 213.7702341778855 56.17225992231525
359.06052516140136 215.39758359037202 49.665867845614144
POLYGONS 398 1592
3 0 6 8
3 1 0 8
3 6 3 5
3 0 4 3
3 0 3 6
3 7 0 1
3 7 1 9
3 1 10 2
3 14 15 13
3 16 17 15
3 16 15 14
3 3 14 5
3 14 3 16
3 3 4 16
3 19 18 4
3 19 4 7
3 22 5 20
3 22 20 45
3 22 6 5
3 6 22 8
3 7 21 19
3 7 9 21
3 46 24 45
3 9 12 23
3 9 23 21
3 47 25 24
3 47 24 46
3 8 24 25
3 48 25 47
3 8 25 10
3 48 26 25
3 10 25 26
3 10 26 11
3 49 27 163
3 17 29 28
3 34 30 29
3 34 29 17
3 31 57 32
3 15 33 13
3 15 17 31
3 34 35 30
3 37 35 34
3 36 35 37
3 38 39 40
3 32 39 33
3 13 38 20
3 41 200 36
3 41 36 37
3 19 41 37
3 19 21 41
3 43 42 40
3 20 42 45
3 42 43 45
3 44 200 41
3 21 44 41
3 21 23 44
3 72 46 43
3 45 43 46
3 47 46 72
3 12 184 23
3 50 11 26
3 11 50 27
3 27 100 163
3 51 54 52
3 29 53 28
3 56 55 54
3 56 54 51
3 29 30 51
3 51 30 56
3 57 58 59
3 57 59 32
3 52 58 53
3 60 61 55
3 60 55 56
3 30 60 56
3 30 35 60
3 60 35 36
3 60 36 61
3 62 88 63
3 39 67 40
3 32 62 39
3 65 64 61
3 36 65 61
3 36 200 65
3 66 64 65
3 68 67 63
3 40 67 70
3 40 70 43
3 67 68 70
3 66 65 69
3 95 71 68
3 70 68 71
3 43 70 71
3 43 71 72
3 97 72 71
3 97 71 95
3 98 73 97
3 72 97 73
3 47 72 73
3 47 73 48
3 49 174 93
3 48 74 26
3 26 75 50
3 100 50 75
3 76 79 77
3 54 78 52
3 81 80 79
3 81 79 76
3 54 55 76
3 76 55 81
3 58 85 59
3 77 83 78
3 52 82 58
3 81 86 80
3 55 61 81
3 81 61 86
3 64 90 87
3 64 87 86
3 61 64 86
3 64 66 90
3 63 91 94
3 63 94 68
3 91 92 94
3 69 184 93
3 66 69 93
3 66 93 90
3 119 95 92
3 94 92 95
3 68 94 95
3 96 97 95
3 96 95 119
3 97 96 98
3 122 99 98
3 74 99 75
3 100 75 145
3 101 123 102
3 79 103 77
3 108 123 101
3 79 80 101
3 101 80 108
3 104 105 106
3 102 105 103
3 77 104 83
3 80 86 108
3 108 86 87
3 84 109 89
3 90 112 87
3 91 113 115
3 91 115 92
3 113 114 115
3 116 117 114
3 115 114 117
3 92 115 117
3 92 117 119
3 118 119 117
3 118 117 116
3 120 121 118
3 119 118 121
3 96 119 121
3 96 121 98
3 123 124 102
3 123 128 124
3 125 150 126
3 102 125 105
3 108 128 123
3 108 87 128
3 130 131 132
3 126 131 127
3 112 133 129
3 112 129 128
3 87 112 128
3 133 112 134
3 112 90 134
3 140 133 134
3 134 93 174
3 134 174 140
3 90 93 134
3 114 137 139
3 114 139 116
3 141 143 139
3 141 139 138
3 116 139 143
3 116 143 118
3 142 143 141
3 118 143 120
3 120 144 122
3 122 144 99
3 124 128 148
3 148 149 124
3 128 151 148
3 128 129 151
3 131 153 132
3 126 152 131
3 154 153 169
3 132 153 155
3 132 155 136
3 153 154 155
3 156 157 154
3 155 154 157
3 158 159 157
3 158 157 156
3 138 157 159
3 141 161 142
3 142 162 144
3 179 162 161
3 100 145 176
3 100 176 163
3 149 167 150
3 149 148 168
3 151 168 148
3 152 150 167
3 167 168 170
3 171 175 165
3 154 169 172
3 154 172 156
3 156 172 186
3 172 170 185
3 172 185 186
3 185 165 177
3 156 186 158
3 186 185 177
3 162 181 144
3 179 181 162
3 170 168 173
3 151 171 173
3 180 188 166
3 179 166 181
3 10 1 8
3 9 1 2
3 13 20 5
3 5 14 13
3 22 45 24
3 24 8 22
3 31 32 33
3 33 15 31
3 28 57 31
3 31 17 28
3 38 40 42
3 42 20 38
3 38 13 33
3 33 39 38
3 50 100 27
3 51 52 53
3 53 29 51
3 57 28 53
3 53 58 57
3 62 63 67
3 67 39 62
3 62 32 59
3 59 88 62
3 44 184 69
3 74 48 73
3 73 98 74
3 75 26 74
3 76 77 78
3 78 54 76
3 85 58 82
3 82 52 78
3 78 83 82
3 88 59 85
3 99 145 75
3 99 74 98
3 101 102 103
3 103 79 101
3 104 77 103
3 103 105 104
3 109 111 113
3 122 98 121
3 121 120 122
3 125 126 127
3 127 105 125
3 125 102 124
3 124 150 125
3 130 132 135
3 135 110 130
3 127 131 130
3 144 120 142
3 142 120 143
3 145 99 144
3 124 149 150
3 152 169 153
3 153 131 152
3 152 126 150
3 161 162 142
3 168 167 149
3 129 171 151
3 165 185 173
3 173 171 165
3 133 175 171
3 171 129 133
3 145 144 181
3 181 176 145
3 168 151 173
3 170 173 185
3 188 181 166
3 170 172 169
3 16 4 18
3 167 170 169
3 169 152 167
3 7 4 0
3 18 19 37
3 37 34 18
3 17 196 34
3 34 196 18
3 17 16 196
3 196 16 18
3 44 69 200
3 200 69 65
3 160 164 158
3 10 11 2
3 12 27 49
3 174 49 163
3 177 178 160
3 23 184 44
3 177 160 186
3 186 160 158
3 184 12 49
3 49 93 184
3 180 178 140
3 158 164 159
3 188 163 176
3 12 9 2
3 178 166 160
3 179 164 160
3 2 11 12
3 12 11 27
3 188 176 181
3 175 178 165
3 165 178 177
3 179 160 166
3 180 166 178
3 161 164 179
3 161 159 164
3 138 159 141
3 159 161 141
3 180 174 188
3 133 140 175
3 188 174 163
3 140 174 180
3 178 175 140
3 157 182 155
3 155 182 136
3 157 138 182
3 182 138 136
3 139 191 138
3 138 191 136
3 139 137 191
3 191 137 136
3 111 194 113
3 113 194 114
3 111 137 194
3 194 137 114
3 89 147 91
3 91 147 113
3 89 109 147
3 147 109 113
3 109 146 111
3 107 183 106
3 106 183 104
3 107 83 183
3 183 83 104
3 106 187 110
3 110 187 130
3 187 127 130
3 91 195 89
3 89 195 88
3 91 63 195
3 195 63 88
3 107 192 84
3 84 192 109
3 107 146 192
3 192 146 109
3 111 193 135
3 135 193 110
3 111 146 193
3 193 146 110
3 83 190 82
3 84 85 190
3 190 85 82
3 136 189 132
3 132 189 135
3 136 137 189
3 84 190 107
3 107 190 83
3 135 198 111
3 111 198 137
3 135 189 198
3 198 189 137
3 89 197 84
3 84 197 85
3 89 88 197
3 197 88 85
3 110 199 106
3 106 199 107
3 110 146 199
3 199 146 107
3 127 187 105
3 105 187 106
