# vtk DataFile Version 3.0
A great-looking cell
ASCII
DATASET POLYDATA
POINTS 530 double
248.7904256079119 128.9308356809805 57.215719598204316
248.982493849986 127.01177827574067 55.68168141919928
247.53262951825954 127.46972564965532 54.069247673628354
246.8958276775806 126.32258513729538 52.95140671318607
247.99814024962185 125.51557229093117 53.94477310426375
246.37026079227888 128.6351475384174 54.33798151502987
247.14728133368413 129.93633705194839 57.00968897294088
248.1112233373839 130.14489574281512 58.3679199742847
246.80658219303078 124.6430939103913 52.492623255853616
241.69171942589642 128.6424966387411 52.02315236638883
243.7710769979228 127.50725485771713 52.270475654174575
247.46325765438158 122.9652204370125 53.919069587560465
249.0185096901638 124.60196575401328 55.37156859105142
249.66672792419425 123.85413305291384 57.05943974045896
249.90089279414997 125.65341202164376 56.767944656873645
250.43472184055446 125.31232044870468 58.31530942693597
250.8512417948871 126.49610812801559 59.41953405587482
250.16315670419647 127.35471505053651 58.007111704297174
244.77926262681518 129.24180961932834 53.55309564359226
242.7748352442724 130.35432382479485 53.85648265003133
244.1198685562181 131.25522394455515 55.98910386924608
245.75977140101492 130.81869167862314 56.99718489686478
249.58209633861443 129.41111966781486 59.35458458698057
246.71787057352455 131.08246504741058 58.345192561686346
248.88233115648407 121.65312096862242 57.58631071242733
245.07953142827 118.90396711114781 53.34225407476311
239.46346673583614 129.85067607636674 52.124356898189646
250.05348555962775 123.44375086947963 58.95056336900319
250.68248100837678 125.07284683632068 60.0630298032542
250.96914212389495 126.55321202951438 60.934544901360496
250.9508700749948 127.9854376291724 59.98288865807502
250.7383290609104 127.843842083282 61.82091462456905
240.36699207335573 131.65847987337193 53.83878374608917
237.58674814634898 134.44224760878896 54.431963735859206
240.5119640299836 134.13834972118352 55.71101894353849
242.1712768059369 132.17912011771855 55.35518440080626
242.94521869814147 133.31229905209548 57.36985044126393
250.37725316835562 129.08507399220218 61.00715201168294
245.96490763190678 132.0879550319569 59.76592271446533
244.95689515604718 131.96391059351583 58.03321451710215
249.33907649765754 130.28168793740073 61.38898540181462
247.82412321556836 130.9270942334215 60.11691195790144
247.65466275006617 119.512212985229 57.04602528740284
232.0423277518794 132.12991098499614 53.476085835687215
247.05488065940557 118.0138342460189 62.25267001944033
250.27089175604328 123.4490009759098 61.0030892573944
250.39340215142383 123.6583382472249 62.985196026561205
250.7501326483945 125.38264557038421 63.55636146247969
250.88024793811095 126.50016947775973 62.439244798626525
250.38231400888304 127.34170130545026 63.85560686462892
238.0282378159664 138.5390196677606 58.924322875866096
241.72049018408617 137.64197614415895 64.48744293734792
240.3935869513044 136.5175082167211 58.06654779398557
242.53020325941958 135.10059324954807 59.42789468281021
242.37638817718366 136.3477671427888 62.10424039175275
244.03915347628964 134.35576125922447 61.42440073523318
244.33199566797194 133.37387122166436 59.49206356172464
245.4249283223355 133.224383472509 60.91755706173452
246.67634624897372 132.20884162769033 61.461703673331726
248.03051288549793 131.30583019343953 62.001694894168985
249.93222338727267 129.10184345732833 62.64679025952955
246.27186411346042 117.97324050411919 71.02195976391842
241.05259629490803 127.57191092722853 75.32958843846576
236.877480685822 123.93390968052948 77.42393874307503
247.00287477194263 121.95469006748134 72.22410695052271
250.30488637598089 123.61934823782714 66.28988242532465
250.54000855661195 125.57662761927143 65.40967684796261
249.4487396296148 129.16151719621533 64.57810719603557
239.11856898284927 139.66313518423524 69.27234679300872
242.42923024214087 135.42401152954818 69.26185779356645
243.92301462869864 134.56809703126027 63.979634030141625
242.7919805740887 135.63694748010994 66.2906533736999
245.78083870208243 132.89402230700875 64.60702256430822
245.63346756007425 133.44660350242435 62.596461616739774
247.05806587594995 132.1418863444135 63.17974875990666
247.86988989925317 123.73955262219665 72.0048882524744
245.78396680067686 126.15448664964596 72.69145620975232
243.61568636072928 127.42490451533287 73.39171634742245
249.62306410370516 124.91338128361231 69.6360015059204
249.49872847076023 126.88472687406005 68.76119280357706
242.69037535900026 132.04715087962762 71.89905181052406
244.1640255689719 129.66169617817036 71.86838181950594
244.57502428140555 131.09967957512276 70.07019582552705
243.51682132588124 133.09122742147542 69.17998751231241
245.32545950392526 131.8753588632527 68.22975475375229
244.36542366576074 133.4400214158604 66.63266809252306
246.20254378553554 131.85467612502623 66.38597886109307
247.30144855398805 131.5229536542438 64.80201145305122
248.6174402331832 130.7092164615509 63.38854502765278
247.3335791981137 127.14003750713054 71.31739172129754
248.92991682695785 128.72662206155587 68.06745005166545
245.6051416722467 128.03213102079079 71.62966035242052
246.99983985494262 128.49426103276144 70.47466781177036
245.76470006133016 129.4953767574117 70.27028156617963
246.12544387213123 130.6929280454887 69.18420331759042
246.98775537606022 130.97618947193848 67.87727780803006
249.86503669288837 127.5841511753369 66.390899129193
233.1842038074125 137.45868280932825 57.99294266501707
232.95474551211979 133.82628186020384 54.278847286720826
225.3814160295639 129.46971395559325 70.2016010152833
230.95030741385818 130.3881629049963 52.74105238629591
236.87222239870678 137.85673949813463 57.43598455655142
233.6264912751059 122.33286659819979 77.84457486819193
225.01130088773186 127.82464595166807 62.618385572215594
228.83405598769815 136.8446689076879 64.6233454217187
233.2894946624877 113.72829151538048 56.12030460510669
228.71157210723177 124.05845499758118 53.35265591139699
230.01746696061375 114.93782033540192 57.888969502811314
230.42318232584623 132.2187621088162 76.0579835244015
234.5246029870526 131.41161376523516 52.52356183458681
233.27836912346112 132.63101585063677 76.74247992607003
234.0725787192454 141.1198578421799 70.51704540540584
235.62796826531326 135.14551256403288 54.495452584502125
247.4214035933217 129.53157997428738 69.0650507350995
231.23462588953902 118.20541387734069 52.728842494480105
248.52596659631016 128.0937837565825 69.96416383285171
234.8130849566387 139.61820173861523 73.72035631353629
241.80879315076788 134.96620092387425 57.509178876319986
234.21344281602134 138.80933925881243 60.161507006661274
233.28080046631015 140.21857613895403 63.096615097533345
229.77575457313202 136.55940825580194 72.38016692207638
241.43517271253248 137.97355632293858 62.56182244285119
227.8725625599961 131.1646001301665 74.89326074560526
236.97611343782063 134.73859694727656 76.46915833521045
226.9517976978965 133.98270516423878 62.871052205573505
231.33105914378152 117.5961798631916 75.63757007534714
233.2538019713589 140.97242133709457 66.54248437485678
237.65861402048662 140.25003728426015 70.77766190735665
242.59480571002942 126.1126102911746 74.61158220539772
239.71891495778704 139.56189969381217 67.28192998864576
232.96416260231365 140.55877696254788 64.81545156443393
241.87332128477544 131.37544392445167 73.83708120447187
235.74495005242025 118.58734733760868 77.13700525715657
236.92688739852812 140.18359308317454 62.34236580174039
233.53246670676617 125.66309032354273 50.03555301306416
227.42247947245886 121.86629359570543 55.933974577003205
226.87650670510206 119.96775249672541 58.31695470622485
229.29409885906736 118.06092473124959 55.87482894711744
233.9537324523989 136.88509860380574 56.83193541574036
227.24707145266837 132.12410134785205 58.07942732951018
240.4462606820032 135.08322678641844 74.4862035691652
230.05482917485472 138.2027189961771 65.32026623293625
233.6985237445561 139.5360305420591 61.63230180957104
228.5251973229791 136.4216258584871 68.57351475332531
229.9842700391672 136.86960553391242 60.40524158294127
226.7255555395695 133.28023983776598 61.10929161947579
236.5898142845618 138.46360929676828 74.17181457196938
238.41682056867958 139.68179646692533 61.48143083617392
240.19652296232343 139.0818296445153 63.07720687116652
236.63619845938857 140.68571029984653 65.04635841820638
227.7428709738234 133.54388443793013 73.16847555075341
239.98231343388758 139.3890065010182 65.4998238699637
231.93105610379192 139.97052451185363 69.7863151089338
233.63585503664632 141.0581404784411 68.22362482363799
236.01697156585644 140.47601792007953 72.16194919625764
226.9949471913695 134.58422161254308 67.16728540763383
231.5077968732952 140.18759853024505 66.90008161317105
231.86623022013356 138.4104193907121 73.43871100771901
235.3108115329683 140.6095105497965 63.396745298198255
237.89923387454274 140.29760367860914 66.64120345510555
233.23803318732774 135.86620950797416 75.52139347464596
248.87505823808388 129.54030258847112 66.31945852055132
241.59628917796942 136.62042159054909 60.03692119078909
229.890735603711 134.83284402126083 74.78801094225089
242.7816264597048 136.10453982855915 64.22028165255448
226.87358147012634 131.71175758308704 73.19248218220218
227.64605398604346 135.02833581994662 68.67861178370335
243.28690422731805 134.40218528543883 67.8488754537902
237.06855916456053 115.57964443464441 52.45832317651834
227.91708402270257 135.61270104367853 63.87432114841437
226.08313916126602 120.47857158622253 70.52559495200384
236.81463248988103 132.86589940873972 77.01406827294564
239.9762036682601 128.4034643496456 51.11800636031064
239.72811921409607 129.16155987719029 76.46721096181545
230.22482714989079 117.01709374577628 55.492243886079194
233.87470679276592 128.55640336818198 50.6781522721773
237.41033811723537 131.73572861071847 52.84291100426654
239.81876814904444 118.12421044365234 76.58632218934997
228.56189700174656 128.68280836190257 53.66954090263458
226.0180199711533 128.1097216694187 73.40292554082907
230.07749646702632 128.50381898498912 52.27882930504212
226.146695696521 124.38046175632 57.29351198648319
238.7002738330675 135.95087588408708 56.069842257566464
228.7000410358968 135.22004269942568 73.18741244081434
228.66253686982768 116.81103686579327 59.40576941054607
229.8659617621334 115.7965096399529 73.55168678443079
230.07872647867 120.80485510589375 53.10438257675663
238.57796797017178 113.89519742659488 54.15165839550127
237.37713768331042 117.07732020456146 51.435402644210534
226.6820980715801 118.68923875267836 68.24975156340362
238.07051521355075 114.45465292926993 75.53112750398954
235.06227900455903 138.04225205082233 58.43213198870258
236.34593030742298 140.98910068982966 69.15474302759341
225.66678288706652 127.23516098573235 72.30098060804681
227.8021336417432 130.83439018769934 55.56989962048744
237.98458908116396 128.16582139810814 50.792473427253306
227.96808479717888 119.6143944129101 56.487692449675
225.382932744604 126.67257450853116 58.905319862939834
230.15939775438207 132.64763585385032 54.5719444475751
229.75520367425392 122.31985219092846 75.63745849835824
224.68705989015544 126.04696805427939 68.12426354574137
233.1514842382387 116.04255546369309 52.86678020898027
231.57937640540558 116.60678830700309 53.809900703603475
234.82272070984402 112.35352961281896 73.4966275852359
226.10694078150578 129.1736848971629 71.97358116819812
229.3855962370066 130.50486665850582 76.0611721623615
227.93245648967937 125.65314087901848 75.60512416110288
226.5101341981565 122.14680611951529 57.84521097409838
238.20817708233093 137.41054963600413 57.01322039631099
225.78195421719127 120.0838236228088 64.37045473040335
224.85417715831042 122.63182593791693 68.18774211414053
242.30797524481287 127.0418672885607 51.3156510247268
225.26062999283724 129.92165714373726 68.22598015103218
232.36357464968884 112.68953222722153 72.1921579539732
228.21392668952635 136.12418858843037 66.50260093421711
231.62526861346444 139.03437455748747 62.96130075403036
228.12297770365947 116.75978051963779 69.95765271224933
240.565199249929 138.09001245897988 60.757884375653326
226.2664157017795 126.55090574657385 57.11804977993601
225.47336776891947 129.22963588339402 61.5457448092997
227.06804434795728 133.9051378426895 71.13939627245392
224.84675549690854 123.59736477040525 64.146006525572
225.50545899609702 122.47663915948246 60.27930397822314
233.00810205922957 139.95276015502026 72.55501526324564
238.83189094545605 121.31031918249816 49.37683617683078
239.2086913201239 133.42505911757104 76.08420766059953
227.29270796430677 129.04540552554778 74.50957473352298
226.55110520493523 133.86719208421368 65.31526168495124
231.67359411149818 133.8026501067443 75.70123308650933
235.88422799429011 120.41973592212624 50.06866617098463
225.84547761347977 124.92933816201406 71.84214373557901
226.94423386185 130.48873336036024 57.23377172794283
225.24222958225954 127.37599436486938 69.84944320219559
234.95602312271402 131.28106674812065 77.10207455867653
229.21768847219928 115.10232237385218 64.82474181548065
233.94237389712774 112.14261762151243 72.14128733621875
224.5619993700564 126.23493189690731 63.83500150158597
224.9372087306851 126.80403040280807 60.894936992816135
232.41928449055428 112.29383397765187 68.14368984917064
224.4618948799541 124.58357493150811 66.58394609841277
230.77213229332605 113.66942079414406 69.96703661509852
231.98127954515854 121.99872153165818 51.26249059792993
240.52090087434183 126.40792933843906 50.555761373555306
236.70822951535726 114.48372259516854 54.002160665888624
231.1218723682984 128.90037573559007 77.09147460217945
230.23603085087632 125.47382423256255 52.04908128294603
236.21001628815537 128.988698326535 77.59959962595136
230.23293408180515 134.70362658891997 56.818087004489854
224.73100728318968 124.63988099114381 69.29407926715513
232.24260466301678 138.00777838398932 59.84313045009608
226.38761721056062 131.31190145719523 59.804765940849954
225.68266952412765 131.1485778741062 65.83323863287526
241.06063708838747 116.1573329001145 75.1881401726909
235.60848112199554 129.71232000813998 51.18838802208432
243.12929277238933 125.50863395408341 50.81682521725747
241.7674594619382 118.8867089286683 50.960344525925635
243.1621326549255 123.56489474338188 75.36071784095269
240.75541392142622 123.66218609613081 76.57066538596051
248.12134807234958 130.01596709530983 67.56803632289022
238.3903580381723 136.3810082396969 75.29960334057526
236.23546605442317 136.69705862690336 55.89543608245963
238.242806055324 110.97833308533484 65.23432528085094
234.82372511638303 124.27498138702154 49.92980594822056
244.16783678929752 116.05117759737904 72.59775046012783
245.96242375706706 116.54781732418591 58.326813087440435
237.8298637847259 119.61757243955162 50.17482436049705
240.93496489591584 116.46613316151692 52.341695001271226
245.91885549615031 116.61773095433261 62.266950744766376
236.92321571405054 112.25857779851695 57.362333129761545
237.5244340271935 125.30359922882602 49.82886454178599
248.94641195385074 126.32060951097937 70.73426450218646
240.3836323556502 111.6487151459282 61.87234565103527
238.0897188859461 118.27545594569982 77.0017967591396
243.69860138354193 113.69587999928301 62.39516110202012
240.70531349848338 130.71593419944816 75.40757712549667
231.52009562968254 120.05991610764168 51.87945956436572
241.1419446180023 137.97352838255273 67.58844659934636
229.94393880149644 124.63174937792672 76.58588056128825
235.10273838767407 122.3223221877552 77.94927198613809
232.34067692153047 124.04886198032978 50.771282029276065
225.0339784756394 129.05732085053626 64.22900757746764
247.70535023934514 130.7610065969015 66.31384179684524
235.33237052160305 111.18020320928056 65.7382294630465
234.79461070019354 111.65107062927626 70.37817671758054
243.83448147828707 118.22390525898601 74.61473186718479
229.92733532802254 137.91811192279815 68.48627362524087
229.31615494313553 116.81909022622854 57.53766261937159
240.63790941752242 113.04729890748195 57.18402695778737
244.23283386041135 122.12095814461983 51.180182690303496
226.81208886368654 120.91329186312963 72.34802266585515
241.7850975480051 114.01657813468817 72.62819190659754
233.71207749399636 126.5303788018148 78.33865163655618
229.00176688897824 115.29062177303545 62.92930280622196
233.62700256042973 128.6208955884168 77.77888949160773
233.63931428109575 112.06474707766571 59.71557080474319
230.95381433117217 113.80425614553401 58.35288791237109
231.39593435177815 115.53958726332178 75.00379392402675
228.72343570706178 116.53122718646223 71.92084813071854
238.2508205895867 111.44669084126339 70.93182172278357
238.32719557670285 110.99598090406302 68.0732385161168
246.61819161946278 120.61441917282525 54.00052707992973
241.72608667524187 115.5981930412049 53.68825209842357
247.456129928953 118.34763220811028 60.2551705886605
226.28545483379585 132.88194750619652 68.13034438003096
227.87186981381416 116.8593742642488 62.93720871308305
228.1600876738527 118.8058346229435 72.73508933952834
224.9090100905353 127.51552754284869 66.7221441228929
233.92491960716106 114.97966073636589 75.65941932040285
244.54972793434337 114.78367217499479 69.5142975775551
240.25789618908206 114.02235809598082 54.83585496519659
234.61931340409677 133.99836136304577 76.50066732102461
236.19765966214996 111.36812884450006 61.43864057746826
228.95179263507094 132.96432719347726 74.77966288391981
241.53709580920403 112.07780918103579 67.91242966904876
228.7874160661389 121.71988788071724 54.378423285943434
225.80816688012223 120.3926628372111 68.55143932405781
227.1677077518972 118.52335865807476 60.811612268805426
241.08057279977425 130.1454533556825 52.94879015999407
230.62980868185102 138.18592621650595 71.70918016306113
247.53351718574763 119.27418506981964 65.92443939739285
240.8859018329723 137.60004935013706 70.77732039726644
229.4042620142564 137.28761005290764 62.79567672442527
227.88549960773446 117.14826731913423 67.96017190566403
236.96878901465823 111.23726208675596 69.396084652104
229.20461501235235 127.52535070824494 76.19936041910981
239.62426223225538 111.10646185784492 66.67020136576727
229.28554254881576 115.0927443564149 66.67150965569502
228.01195673240025 117.01079991458298 61.1086998230639
225.69666698618104 122.39918043096573 70.47360988719176
225.6150272316769 124.7412875036918 59.142136971202426
235.35318457441716 113.18449266069047 56.357901279436355
232.34537312330133 112.41181690628106 66.69023553898845
225.3829636752113 121.45414402334771 62.75286330182701
232.4039766799611 112.44345962596019 70.12094899225998
231.08448912403404 136.47361105517632 74.0251101674236
239.42190935230664 122.60304016022434 77.12397150520854
230.69597448483464 114.07514315113166 72.1656974740842
235.0960076452107 127.0185756767742 50.32700410539032
230.01081982335558 118.98420824894453 54.17639412571985
231.69302563172366 126.44125493353648 77.77836552640112
237.69152607485123 125.81633108842655 77.4647669182603
242.11113786539863 112.58953601503727 62.60524351788789
226.48222785595377 118.97139044939702 66.09794916440583
226.38267664087013 120.15355683134159 60.23786085477838
228.80953980594896 120.44266170668857 74.33412610387379
228.19963924371984 126.58933024517289 53.68591348745379
243.43130379273438 120.20953698185158 51.14900863500091
236.55945509108145 111.12536265224283 63.79923775148175
225.68388474796566 131.83133120059372 62.90449226231167
231.97436224223046 122.55941026957778 77.04173810951913
227.74618253770134 133.3652489496216 59.1820559448047
240.0966235898581 137.05248052521713 73.38212873736394
245.87665755925127 118.85372169013804 72.33157889080726
238.05982550343572 130.6038184685173 76.85394315280331
239.7078753111741 112.3932132035297 72.21186075608185
229.64628924890988 115.03454832188788 59.92032174097193
226.38882416451943 126.500529823669 74.15871250343358
242.65605849690385 133.88722800037388 70.66321144091924
238.50947996969947 112.11032266807514 58.41479065118774
242.20500961279672 113.03918905622004 70.25085270462337
239.685238886338 111.39762606885925 63.826526536877644
248.0990093592128 119.17061043560624 62.91487193869659
228.16011817168086 135.204224205394 61.205966266891615
229.3465719970676 115.11788941626 69.53492961712058
225.78041217464155 128.5704638219051 58.87459284913811
247.58270155277955 125.35084248070535 71.92691944863247
239.86291662896326 123.33630995270146 49.50510526684217
227.50809130366343 127.27630390346923 75.34451994273788
245.72946634759802 116.53072826216433 69.69548798725833
238.161226438811 113.01553634195463 74.09253854048151
241.78985690491507 120.03388025270247 76.2347309794238
246.26859818367174 123.26678034636508 52.5023515906638
248.18082493303643 119.79872260652208 59.075923114274076
237.98187444471452 140.1748605196617 63.90936440981954
243.52693855318378 113.45401475408792 67.54342179677293
246.81848014626328 119.88072467245253 71.73212063833616
227.1862969918287 124.1928794130421 55.48935918443515
250.54045039181 124.04894092249825 64.59179742491125
235.17472872724628 141.00901940313378 66.25422625308968
245.80675024228233 122.0628201040164 73.47482687607574
227.29306394084813 128.69299920529298 55.27176105595
239.34385931017454 116.46926657090917 75.95838568346205
243.6811656571307 113.5190310210795 65.77594969851258
232.05396624534416 131.16635384435673 76.72168997733806
233.42217427237185 117.56571117696954 76.17950559628898
242.8330361419266 114.47278214832382 56.01172291952483
230.51476597704763 113.67200414136661 62.11950479908487
235.0558420782698 116.02531009390903 52.199277490880284
239.48714915289736 125.14735897741183 76.76378350616895
235.8376279199044 113.47755771739112 74.76571434539854
227.1152243864867 118.62044924499028 70.33967076992535
238.15169083734875 113.0841257318102 55.95190740227313
245.65511643751677 117.61398267978062 54.75421319587816
244.84470255642216 115.08060226386253 60.36525777565438
237.0539930947079 120.85754496383059 77.40552449254629
226.72240106887963 118.62331675530199 62.87653071750776
242.70137931897173 116.10340190549809 73.83117603346987
241.60047140339935 124.57100387414015 49.9996109852203
239.96986197541605 119.98743224607585 76.65687607981252
233.05309364777239 113.1813051259943 74.00154873215516
230.72429619838175 113.4790436859067 64.8349561119445
235.0854783072297 118.67734381186106 50.758005526531754
245.35243057527902 125.96064511638716 51.955834940566675
226.18987266672931 128.64774605870795 56.95731791732842
232.75241264597932 117.60471475195112 51.76880594374691
236.90207531622602 122.21604342407937 49.64396375903096
240.1914191153493 114.54404286348907 74.33708091932002
246.87251259274478 118.22491604176828 56.74505316350402
243.54794594709253 113.74354363455666 60.59281801024372
232.4140804843542 127.07476417645356 50.871732766946565
244.96601887123822 115.02828666342013 64.14005120646394
233.99431727641186 120.52048121064003 77.17564487298023
231.34884670621946 114.87803325896098 56.29313688017385
236.56346002606162 111.95069047575394 72.29071575148119
245.94244397165076 116.6172144471688 60.29130095303951
233.7817640610293 124.30857873593723 78.37901743314285
243.2798245698167 120.12068134160928 75.35763571813307
237.0347798450609 110.92701636023247 66.6790628748109
233.58486704254818 111.83659602028659 64.74266368532699
233.05737957327517 112.87463511146817 57.90868678146429
227.6219955449718 118.32493630968024 59.07361032844826
248.44637123620998 120.36599699096571 65.47631378507263
229.56481964362433 135.1828539667273 58.589254105649374
229.89455125295655 117.76943793578899 74.21576599236475
235.76660455452128 111.99669494367846 59.22394790305049
225.11865438273315 121.58308871330642 65.8053391989439
241.96110875049806 124.76985847298192 75.76673912627018
242.0428156370594 112.49560978192406 65.49666496975247
228.0348319710146 116.70328546835641 64.89231871277761
228.67714967555253 132.89116682313818 56.4227481769275
247.55603873338995 128.75185774594155 55.56183703422027
231.84459300216096 112.83417369931205 60.30227327130989
245.3459322853103 120.09727828710638 73.51604930172827
236.33721675565494 116.10622430719755 76.40161640420403
226.923081363732 126.50495410509623 55.210966932817236
235.79616078177796 126.5563499814359 77.8899057406845
237.62151471471145 129.8826652445163 51.7162762232375
233.7372923934568 135.37773892478646 55.15390838955832
231.2221427796955 134.18496711691273 55.193918541067
248.62348605222283 122.78124963012341 55.848410085380735
238.32959867201637 111.46316451258878 61.182556910119814
245.82633992402924 116.33561388720612 66.07182799391762
239.12491214033798 115.44372675360042 52.8470887957097
233.82204415925463 121.33547039267957 50.262569953913996
228.7423656616745 136.30157045184185 70.61811832277262
227.48693915317133 123.44631073142837 74.16542355990735
238.56745127473448 137.93341070411765 73.97661539635787
241.65689079479358 118.00266567147096 75.92748590556033
246.6349357988935 117.9613666644596 68.69687406083814
230.9171363801291 113.35587033075551 67.99892595785543
233.69375594174505 114.74516348408324 54.36054973697682
244.3074619860012 116.32383789883944 54.384321788920936
231.38463296936106 139.6591791782071 64.95932815651679
232.71614124260452 129.81103719513962 51.7663646803296
235.91984573614866 139.65195459615109 60.74890605355463
248.87977988331372 124.66488435628776 71.21274550513859
242.7780927841328 122.81492472246237 49.9840748535669
245.95402601399982 116.5940393106147 64.21967385918548
243.89995307232255 113.73071177007922 64.09265054408186
245.61268046964162 116.12864925932669 67.72619362517983
238.6098136813561 139.0100949564346 72.22015154594833
239.61038391457876 111.4898486394707 69.41832869810585
244.9278998783401 115.07549190932797 62.296404775835164
239.04902989369467 133.06263704274093 54.0798205158514
241.87898580067812 122.12912463660744 76.04717335167643
224.86047335847968 124.18192246633089 61.79030235934603
247.7233840847719 121.17529632419563 70.6904274600851
245.80704100964095 116.92653128560202 56.50206836633964
247.4474262685445 118.8662487762137 64.37999257057135
225.08310720464786 129.43398469552133 66.24737825799743
249.8019760668714 123.22664931798693 68.42497211810151
244.38301886269983 130.20270361898739 54.713662189979196
246.23308691290492 123.83883727504295 73.25603500701823
243.3088832812577 128.99558128808374 52.81715712108685
247.29639145199232 119.70527356456958 69.77967146410305
247.7294448040466 121.01636237045965 55.564655685830814
235.5753010628074 136.42240120877884 75.71976452617093
231.70859347144548 124.41719031430064 77.62825349289467
241.04075166827272 112.20507705864432 59.948680084253866
249.15026618620976 121.76216501606088 66.88997862487086
248.86413773350577 122.88650398916683 70.65421581080413
228.7503052769737 124.02640644201134 75.4421048357849
249.5709979163893 121.85520001732108 62.2554199257349
243.6632946526392 114.7250915741408 71.89585002961708
249.70220047748785 122.210513021658 64.58856077723614
246.7080890614978 117.84341424907471 66.3671294321344
246.87403939947038 117.96853952699475 58.30155890341979
233.65843627213403 138.07893016785653 74.46509213155423
244.4621114026553 115.64278873945221 56.272736150148546
246.59659135302556 118.90031325170027 55.35076534240089
248.6962028228274 120.37509436010897 63.51847980588274
245.81796057178826 127.51848082601636 53.220171553713854
248.55113871746417 130.50912722606256 65.01035764988812
250.13559447798104 125.33862903865987 67.52361186110556
244.94938768545015 117.51604704868572 72.92806096014726
244.99541945303602 116.18372743351328 71.33739621241229
238.373021326098 127.69505714003985 77.09394287997905
245.16001541484553 123.74852334970747 51.16489273861527
232.04158457614574 112.46461405060101 62.72727424760693
242.5547262653036 117.63805377498437 52.31897138506626
250.82662713557718 125.10502183016193 61.84263457734799
248.5081185748573 121.40504038840574 69.0055975989573
233.0287381408207 119.24769928819477 50.568836953826555
242.65124133927634 113.55176650172871 58.362553539381224
230.78381566392176 136.6923118249286 58.96482345311681
240.69679676581976 120.48870212376664 50.11803794224111
245.68528190139685 121.59778882439593 52.23970829026473
248.41732083006372 119.87097576962522 61.45531724403108
234.29389189361055 111.5088985917488 67.75250932686488
230.36618767475775 122.56191849539843 52.231178496702846
245.74857288933526 129.82900024167122 55.47966278555112
247.7347522234046 119.7936512640525 67.4559040488996
230.70664769701693 137.93005460653544 61.45973007913138
244.0481368167751 124.9372329055056 74.37306574719065
231.30482530060334 119.78645743858216 75.80646475922792
234.84732406706308 133.52927064307897 53.63860789112984
244.87023837594646 114.86653539771528 65.92152637600263
226.43424584138018 122.93384023771023 72.25424057989949
244.6583859510048 115.15582121466844 58.302434157615004
242.27750569094556 129.75447901842134 73.55642228451232
225.90515975521353 131.2632644868117 70.5274663618105
249.2506720195316 121.69682607423886 60.02534706397338
244.31053516858913 122.3891825030505 74.56066567683922
234.18185114956677 111.73999146566113 61.6875946913258
241.8455722853844 134.9895691927089 72.24136254994407
229.1130714383115 130.84409782853933 53.84613755652652
241.4460701957752 133.00394529886248 74.23176460636662
244.74958775249283 114.71797917045353 67.6988101363668
231.73202650590613 136.26616053441376 57.26441481808594
240.0454893775523 117.90771560323887 51.41151001281946
POLYGONS 1056 4224
3 0 1 430
3 430 1 2
3 2 3 491
3 2 4 3
3 1 4 2
3 2 5 430
3 0 17 1
3 17 0 22
3 6 23 7
3 3 4 8
3 14 15 13
3 14 13 12
3 4 1 12
3 12 1 14
3 17 16 15
3 17 15 14
3 14 1 17
3 21 510 20
3 510 21 6
3 23 6 21
3 23 41 7
3 15 28 27
3 13 15 27
3 16 29 28
3 16 28 15
3 30 31 29
3 30 29 16
3 16 17 30
3 19 35 20
3 17 22 30
3 39 36 56
3 34 36 35
3 36 39 20
3 36 20 35
3 20 39 21
3 39 56 38
3 21 39 23
3 22 40 37
3 38 41 23
3 38 23 39
3 22 7 41
3 22 41 40
3 27 28 45
3 45 28 500
3 48 49 47
3 48 47 500
3 28 29 500
3 500 29 48
3 29 31 48
3 48 31 49
3 49 31 60
3 53 54 55
3 57 56 55
3 56 57 38
3 37 40 60
3 88 60 40
3 41 59 40
3 96 493 66
3 47 49 66
3 66 49 96
3 67 96 49
3 49 60 67
3 67 60 88
3 54 70 55
3 71 85 70
3 85 72 70
3 55 70 73
3 55 73 57
3 70 72 73
3 73 72 74
3 58 74 59
3 57 73 58
3 40 59 88
3 96 79 493
3 80 81 82
3 84 83 82
3 83 84 85
3 85 86 72
3 86 85 84
3 72 86 87
3 72 87 74
3 455 78 270
3 78 79 270
3 96 90 79
3 81 93 82
3 113 93 92
3 82 93 94
3 82 94 84
3 93 113 94
3 95 94 113
3 84 94 95
3 84 95 86
3 86 281 87
3 86 95 281
3 87 492 88
3 270 115 89
3 92 89 115
3 258 95 113
3 67 88 492
3 115 90 113
3 96 161 90
3 113 90 258
3 96 67 161
3 492 161 67
3 7 22 0
3 5 2 491
3 6 7 0
3 32 34 35
3 35 19 32
3 53 55 56
3 56 36 53
3 58 59 41
3 41 38 58
3 58 38 57
3 74 58 73
3 74 88 59
3 80 82 83
3 88 74 87
3 91 92 93
3 93 81 91
3 91 76 89
3 89 92 91
3 492 87 281
3 270 79 115
3 115 79 90
3 115 113 92
3 281 95 258
3 161 258 90
3 492 281 161
3 161 281 258
3 430 6 0
3 18 510 5
3 30 37 31
3 37 60 31
3 30 22 37
3 6 430 510
3 46 500 47
3 46 45 500
3 47 377 46
3 47 66 377
3 377 66 65
3 470 65 493
3 493 65 66
3 46 482 45
3 482 490 507
3 8 402 3
3 8 497 402
3 521 482 507
3 479 484 65
3 77 519 62
3 77 81 519
3 519 81 80
3 64 480 75
3 79 78 493
3 78 470 493
3 19 473 9
3 9 473 10
3 19 18 473
3 473 18 10
3 75 472 64
3 20 471 19
3 19 471 18
3 20 510 471
3 471 510 18
3 501 479 470
3 470 479 65
3 479 501 511
3 501 474 511
3 64 466 480
3 480 466 501
3 466 474 501
3 490 482 484
3 484 482 46
3 13 27 24
3 27 521 24
3 75 480 455
3 455 480 78
3 27 45 521
3 45 482 521
3 474 448 511
3 511 448 485
3 474 61 448
3 516 441 459
3 459 441 485
3 516 457 441
3 441 457 485
3 13 439 12
3 12 439 11
3 13 24 439
3 480 470 78
3 480 501 470
3 5 510 430
3 484 421 490
3 421 468 490
3 468 485 457
3 457 44 468
3 464 416 522
3 462 410 458
3 458 410 516
3 462 457 410
3 410 457 516
3 497 456 254
3 467 392 489
3 489 392 25
3 467 451 392
3 392 451 25
3 76 91 77
3 77 91 81
3 388 62 496
3 432 522 416
3 522 379 472
3 472 379 64
3 522 432 379
3 379 432 64
3 3 402 491
3 491 402 10
3 65 484 377
3 377 484 46
3 474 375 61
3 64 432 375
3 511 421 479
3 479 421 484
3 489 475 42
3 42 475 24
3 507 372 521
3 372 486 42
3 451 499 25
3 11 371 8
3 8 371 497
3 11 506 371
3 371 506 497
3 464 370 416
3 416 370 447
3 464 398 370
3 370 398 447
3 26 176 32
3 176 515 33
3 456 505 366
3 494 495 61
3 18 491 10
3 18 5 491
3 521 372 24
3 24 372 42
3 490 361 507
3 507 361 44
3 490 468 361
3 361 468 44
3 518 488 467
3 467 488 451
3 518 385 488
3 488 385 451
3 8 4 11
3 11 4 12
3 42 407 489
3 489 407 467
3 42 486 407
3 407 486 467
3 455 365 75
3 365 89 76
3 11 439 475
3 475 439 24
3 424 358 440
3 440 358 478
3 69 357 83
3 83 357 80
3 69 524 357
3 357 524 80
3 61 352 494
3 494 352 432
3 61 375 352
3 352 375 432
3 25 346 506
3 346 505 456
3 428 342 395
3 354 461 359
3 458 427 341
3 435 415 63
3 464 335 398
3 335 388 63
3 516 382 458
3 458 382 427
3 516 374 382
3 382 374 427
3 343 395 332
3 472 513 522
3 472 76 513
3 513 76 77
3 360 341 427
3 418 331 400
3 400 331 449
3 418 508 331
3 424 419 330
3 63 340 435
3 435 340 496
3 63 388 340
3 340 388 496
3 426 62 388
3 449 326 400
3 449 363 326
3 466 64 375
3 375 474 466
3 325 360 427
3 341 478 408
3 323 508 417
3 322 342 428
3 69 320 524
3 68 460 320
3 468 319 485
3 485 319 511
3 468 421 319
3 319 421 511
3 347 440 360
3 9 317 19
3 19 317 32
3 9 26 317
3 317 26 32
3 420 316 343
3 343 316 395
3 420 327 316
3 316 327 395
3 342 315 425
3 374 313 427
3 461 325 313
3 313 325 427
3 485 448 459
3 483 359 308
3 308 359 374
3 461 313 359
3 359 313 374
3 44 302 507
3 44 414 302
3 302 414 486
3 459 527 516
3 516 527 374
3 459 308 527
3 527 308 374
3 384 307 433
3 399 389 307
3 307 389 433
3 495 483 308
3 385 301 451
3 301 499 451
3 506 300 25
3 25 300 489
3 300 475 489
3 461 299 325
3 325 299 417
3 461 323 299
3 299 323 417
3 523 347 418
3 413 298 354
3 354 298 461
3 413 323 298
3 298 323 461
3 462 393 414
3 414 393 518
3 462 408 393
3 393 408 518
3 296 336 399
3 431 295 419
3 419 295 412
3 431 355 295
3 297 363 336
3 478 503 408
3 408 503 518
3 503 385 518
3 499 346 25
3 292 327 355
3 442 301 309
3 309 301 385
3 483 290 359
3 406 354 290
3 290 354 359
3 445 289 344
3 75 365 472
3 472 365 76
3 345 106 376
3 509 314 106
3 106 314 376
3 506 288 497
3 497 288 456
3 506 346 288
3 288 346 456
3 478 358 287
3 287 358 391
3 447 284 416
3 447 396 284
3 284 396 494
3 417 282 347
3 347 282 418
3 417 508 282
3 282 508 418
3 508 283 333
3 508 323 283
3 283 323 413
3 63 278 394
3 394 278 411
3 63 415 278
3 339 324 277
3 495 368 61
3 459 448 368
3 368 448 61
3 394 398 335
3 335 63 394
3 349 514 411
3 514 344 423
3 347 311 440
3 440 311 424
3 347 523 311
3 311 523 424
3 51 276 71
3 71 276 69
3 354 369 413
3 413 369 389
3 354 406 369
3 458 273 462
3 462 273 408
3 458 341 273
3 273 341 408
3 341 271 478
3 478 271 440
3 341 360 271
3 271 360 440
3 89 365 270
3 270 365 455
3 405 269 366
3 462 267 457
3 457 267 44
3 462 414 267
3 267 414 44
3 499 266 529
3 529 266 442
3 499 301 266
3 266 301 442
3 414 264 486
3 486 264 467
3 414 518 264
3 264 518 467
3 483 263 396
3 396 263 494
3 483 495 263
3 263 495 494
3 309 385 287
3 287 391 309
3 443 262 405
3 443 279 262
3 417 261 325
3 325 261 360
3 417 347 261
3 261 347 360
3 507 302 372
3 372 302 486
3 503 478 287
3 287 385 503
3 406 290 396
3 396 290 483
3 529 265 505
3 464 257 335
3 335 257 388
3 464 426 257
3 257 426 388
3 505 255 529
3 529 255 499
3 505 346 255
3 255 346 499
3 522 256 464
3 464 256 426
3 522 513 256
3 256 513 426
3 497 254 402
3 402 254 10
3 447 252 396
3 396 252 406
3 447 381 252
3 252 381 406
3 348 280 251
3 411 132 394
3 411 384 132
3 132 384 433
3 450 387 243
3 366 269 242
3 449 240 363
3 363 240 336
3 449 333 240
3 240 333 336
3 400 498 418
3 431 523 498
3 498 523 418
3 528 437 438
3 528 247 422
3 422 247 429
3 528 438 247
3 247 438 429
3 449 238 333
3 333 238 508
3 449 331 238
3 238 331 508
3 465 237 329
3 280 236 306
3 236 239 306
3 409 279 245
3 245 279 509
3 333 283 235
3 235 283 413
3 428 234 326
3 326 234 400
3 428 292 234
3 234 292 400
3 383 293 233
3 364 250 231
3 356 230 445
3 230 248 328
3 274 225 353
3 465 222 332
3 332 222 343
3 465 329 222
3 326 363 322
3 322 428 326
3 425 221 332
3 332 221 465
3 425 239 221
3 250 219 348
3 348 219 280
3 250 364 219
3 251 303 227
3 227 348 251
3 237 465 236
3 52 50 217
3 363 216 322
3 322 216 390
3 363 297 216
3 216 297 390
3 219 364 237
3 297 305 390
3 344 289 305
3 305 289 390
3 292 386 400
3 431 498 386
3 386 498 400
3 232 248 230
3 333 213 336
3 336 213 399
3 333 235 213
3 213 235 399
3 232 212 306
3 212 303 251
3 404 401 387
3 328 210 315
3 315 210 425
3 328 248 210
3 459 368 308
3 308 368 495
3 425 209 342
3 342 209 395
3 425 332 209
3 209 332 395
3 445 206 356
3 206 277 324
3 205 226 324
3 399 203 389
3 389 203 413
3 399 235 203
3 203 235 413
3 239 425 210
3 210 248 239
3 412 202 450
3 450 201 387
3 387 201 404
3 450 202 201
3 201 202 404
3 248 200 239
3 239 200 306
3 248 232 200
3 200 232 306
3 344 199 445
3 349 277 199
3 475 300 11
3 11 300 506
3 43 198 438
3 438 198 429
3 43 525 198
3 198 525 429
3 364 197 237
3 237 197 329
3 364 218 197
3 197 218 329
3 394 272 398
3 433 381 272
3 505 224 366
3 366 224 405
3 505 265 224
3 224 265 405
3 338 196 314
3 196 286 420
3 337 195 269
3 337 253 195
3 429 194 231
3 231 194 380
3 429 525 194
3 194 525 380
3 356 193 230
3 230 193 232
3 193 204 232
3 50 191 454
3 353 246 496
3 496 246 435
3 246 293 435
3 381 190 406
3 389 369 190
3 190 369 406
3 390 189 322
3 322 189 342
3 390 315 189
3 189 315 342
3 442 188 529
3 188 265 529
3 465 221 236
3 236 221 239
3 509 186 314
3 314 186 338
3 509 275 186
3 186 275 338
3 423 185 296
3 296 185 336
3 423 297 185
3 185 297 336
3 420 184 327
3 327 184 355
3 420 286 184
3 184 286 355
3 444 220 183
3 519 274 62
3 445 517 289
3 289 517 328
3 445 230 517
3 517 230 328
3 330 450 243
3 243 391 330
3 339 477 415
3 415 477 349
3 339 277 477
3 477 277 349
3 391 187 309
3 309 187 442
3 391 243 187
3 187 243 442
3 33 182 34
3 34 182 52
3 33 260 182
3 401 265 188
3 188 387 401
3 376 181 218
3 218 181 329
3 376 207 181
3 181 207 329
3 180 453 409
3 204 179 226
3 226 179 356
3 204 193 179
3 179 193 356
3 327 304 395
3 395 304 428
3 327 292 304
3 304 292 428
3 525 178 380
3 380 178 345
3 525 180 178
3 178 180 345
3 398 177 447
3 447 177 381
3 398 272 177
3 177 272 381
3 376 434 345
3 345 434 380
3 376 218 434
3 434 218 380
3 523 294 424
3 424 294 419
3 523 431 294
3 294 431 419
3 344 305 423
3 423 305 297
3 380 403 231
3 231 403 364
3 380 218 403
3 403 218 364
3 411 514 384
3 409 175 337
3 337 175 253
3 409 453 175
3 175 453 253
3 444 318 285
3 416 284 432
3 432 284 494
3 429 350 422
3 350 362 422
3 339 244 324
3 339 293 244
3 244 293 383
3 286 174 412
3 338 202 174
3 174 202 412
3 274 173 62
3 62 173 496
3 274 353 173
3 173 353 496
3 207 222 329
3 207 343 222
3 353 171 233
3 233 171 310
3 353 225 171
3 390 170 315
3 315 170 328
3 390 289 170
3 170 289 328
3 405 262 269
3 269 262 337
3 269 195 242
3 366 397 456
3 456 397 254
3 366 242 397
3 397 242 254
3 424 268 358
3 358 268 391
3 424 330 268
3 268 330 391
3 242 172 9
3 9 172 26
3 242 195 172
3 172 195 26
3 303 520 220
3 303 212 520
3 265 229 405
3 405 229 443
3 265 401 229
3 229 401 443
3 254 211 10
3 10 211 9
3 254 242 211
3 211 242 9
3 524 526 80
3 526 225 274
3 443 502 275
3 275 502 404
3 443 401 502
3 502 401 404
3 362 169 321
3 227 214 169
3 387 168 243
3 243 168 442
3 387 188 168
3 168 188 442
3 444 166 220
3 220 166 303
3 431 386 355
3 386 292 355
3 165 204 226
3 71 164 51
3 51 164 54
3 71 70 164
3 164 70 54
3 384 296 307
3 307 296 399
3 334 163 228
3 228 163 312
3 334 183 163
3 163 183 312
3 321 141 215
3 141 214 285
3 356 367 226
3 226 367 324
3 356 206 367
3 367 206 324
3 378 192 159
3 159 192 68
3 223 157 487
3 487 157 334
3 223 318 157
3 157 318 334
3 310 160 228
3 228 160 334
3 160 487 334
3 320 69 276
3 276 68 320
3 303 155 227
3 227 155 214
3 303 166 155
3 155 166 214
3 520 204 165
3 165 220 520
3 460 351 320
3 351 524 320
3 378 153 192
3 223 152 318
3 318 152 285
3 152 156 285
3 159 151 373
3 151 276 51
3 220 150 183
3 183 150 312
3 220 165 150
3 150 165 312
3 373 149 159
3 159 149 378
3 373 158 149
3 149 158 378
3 373 151 148
3 148 151 51
3 454 147 50
3 147 217 50
3 422 362 144
3 144 362 321
3 214 143 285
3 285 143 444
3 214 166 143
3 143 166 444
3 215 142 249
3 142 158 454
3 285 156 141
3 389 190 433
3 190 381 433
3 52 162 53
3 53 162 54
3 52 217 162
3 162 217 54
3 524 140 526
3 526 140 225
3 140 259 225
3 250 139 231
3 231 139 429
3 250 350 139
3 139 350 429
3 528 138 437
3 437 138 260
3 138 191 260
3 146 460 154
3 192 111 154
3 154 111 223
3 192 153 111
3 153 156 152
3 207 136 343
3 343 136 420
3 207 196 136
3 136 196 420
3 314 135 376
3 376 135 207
3 314 196 135
3 135 196 207
3 337 134 409
3 409 134 279
3 337 262 134
3 134 262 279
3 373 133 158
3 158 133 454
3 373 147 133
3 133 147 454
3 433 272 132
3 132 272 394
3 80 131 519
3 519 131 274
3 80 526 131
3 131 526 274
3 130 378 158
3 276 129 68
3 68 129 159
3 276 151 129
3 129 151 159
3 351 259 140
3 140 524 351
3 426 128 62
3 62 128 77
3 426 513 128
3 128 513 77
3 192 127 68
3 68 127 460
3 192 154 127
3 127 154 460
3 378 126 153
3 153 126 156
3 378 130 126
3 126 130 156
3 348 145 250
3 362 350 145
3 145 350 250
3 227 124 348
3 362 145 124
3 124 145 348
3 225 123 171
3 171 123 310
3 225 259 123
3 169 362 124
3 124 227 169
3 148 217 147
3 147 373 148
3 249 512 215
3 215 512 321
3 249 144 512
3 512 144 321
3 312 122 205
3 205 122 226
3 312 165 122
3 122 165 226
3 217 121 54
3 54 121 51
3 217 148 121
3 121 148 51
3 334 120 183
3 183 120 444
3 334 318 120
3 120 318 444
3 345 180 245
3 245 180 409
3 215 119 142
3 142 119 158
3 215 130 119
3 119 130 158
3 422 504 528
3 528 504 249
3 422 144 504
3 504 144 249
3 249 118 191
3 191 118 454
3 249 142 118
3 118 142 454
3 460 446 351
3 351 446 259
3 460 146 446
3 446 146 259
3 293 246 233
3 233 246 353
3 34 117 36
3 36 117 53
3 34 52 117
3 117 52 53
3 487 116 223
3 223 116 154
3 487 146 116
3 116 146 154
3 156 452 141
3 141 452 215
3 156 130 452
3 452 130 215
3 404 114 275
3 275 114 338
3 404 202 114
3 114 202 338
3 437 112 515
3 515 112 33
3 437 260 112
3 112 260 33
3 275 241 443
3 443 241 279
3 275 509 241
3 241 509 279
3 52 208 50
3 52 182 208
3 208 182 260
3 153 152 111
3 111 152 223
3 228 110 310
3 310 110 233
3 228 383 110
3 110 383 233
3 515 109 43
3 43 109 453
3 109 253 453
3 312 108 228
3 228 108 383
3 312 205 108
3 108 205 383
3 324 244 205
3 205 244 383
3 310 476 160
3 160 476 487
3 476 146 487
3 146 476 259
3 450 105 412
3 412 105 419
3 450 330 105
3 105 330 419
3 253 436 195
3 195 436 26
3 253 176 436
3 436 176 26
3 123 259 476
3 476 310 123
3 384 125 296
3 296 125 423
3 384 514 125
3 125 514 423
3 345 245 106
3 106 245 509
3 435 291 415
3 415 291 339
3 435 293 291
3 291 293 339
3 355 107 295
3 295 107 412
3 355 286 107
3 107 286 412
3 83 167 69
3 69 167 71
3 83 85 167
3 167 85 71
3 306 469 280
3 280 469 251
3 306 212 469
3 469 212 251
3 338 137 196
3 196 137 286
3 338 174 137
3 137 174 286
3 214 104 169
3 169 104 321
3 214 141 104
3 104 141 321
3 280 103 236
3 236 103 237
3 280 219 103
3 103 219 237
3 411 102 349
3 349 102 415
3 411 278 102
3 102 278 415
3 208 101 50
3 50 101 191
3 208 260 101
3 101 260 191
3 453 100 43
3 43 100 525
3 453 180 100
3 100 180 525
3 204 99 232
3 232 99 212
3 204 520 99
3 99 520 212
3 349 199 514
3 514 199 344
3 43 98 515
3 515 98 437
3 43 438 98
3 98 438 437
3 191 97 249
3 249 97 528
3 191 138 97
3 97 138 528
3 253 109 176
3 176 109 515
3 32 463 34
3 34 463 33
3 32 176 463
3 463 176 33
3 445 481 206
3 206 481 277
3 445 199 481
3 481 199 277
