# vtk DataFile Version 3.0
A great-looking cell
ASCII
DATASET POLYDATA
POINTS 656 double
217.02896874948405 190.9451862351605 47.96227579909255
226.6233810360263 195.64885797556815 42.05930344491609
220.75195566080453 193.71683124334896 43.87992994414464
224.95299179728897 183.38403450490625 52.06666573193271
219.0180705388857 194.54425134983393 44.895039583244525
216.0637457743217 192.11221207488714 49.033423188124324
216.81156355928832 188.16941622635122 52.302007749328915
224.06785993198767 187.65927322254913 45.11303657666085
215.1955922158518 195.38110368582636 49.12560392473096
219.7964057236752 199.80285456140513 46.03536524767061
224.3703927636066 202.55173143786854 46.06180165141162
222.1620151571078 195.86753760559694 43.60056540429709
216.2750274791691 201.27587462233066 50.55303010412353
222.7280916326524 186.6364825422002 47.283350676600136
223.15547368313185 200.3317075552585 44.8558158680305
220.79489615531597 185.82549665054557 52.65450766687757
214.40029077832114 191.3612775912517 54.49584117866649
228.8868580265292 187.96898507434295 41.80114017787864
219.36746306079195 190.8333640677254 45.68046081978332
220.27852787529892 195.93283391520373 44.64742485212369
226.05606539316406 188.0953166329392 43.40006473143881
226.76084573092908 182.16767636040717 53.835195910077545
219.08837651681327 188.2422006652065 48.32289097470874
225.88675000715338 204.48138749886465 48.147245284820244
231.5259745495624 200.37200085419073 63.449446999863405
218.4227700035932 190.00171938378938 47.18110455684204
220.8792179876012 186.80294694781648 48.922201770110085
221.96122706288932 204.37094328092732 49.52373054021585
225.27626566037537 186.6186907855804 62.38532907147515
220.36474651986464 191.72518852934917 44.52585151112616
222.9419754594486 186.18244484855387 60.90501939883426
218.81461256639273 195.03753378815122 62.91642093239925
223.65058847672458 204.0368819258404 48.20492830842809
220.0550247328302 189.14982682229135 46.479228496152274
225.4437529390792 183.09750514822142 56.54060348927644
217.80224960791108 191.75485917954438 61.729447714173055
223.72133825830443 184.43583759617698 58.82762720117819
226.2462358871822 192.4808320511038 64.37598109921463
219.11557419678462 192.75537647233165 45.26283640012787
215.77820201814535 200.35320914055995 59.79855476528759
228.19156578934258 193.3669709104223 41.16280409819097
224.56449865143784 195.31847854655453 64.035550502759
222.39039146254862 200.27971095511245 62.235155701344375
222.5207025445889 184.8463196553507 52.10066014265336
217.92121570874633 201.73528797370003 48.625892043210385
226.94667945528158 206.14737061177715 57.02156125518251
219.32943690650941 192.74511239585135 62.65050352135384
222.86703335378067 189.42730496803887 44.20904241635165
216.65723687946127 195.73580562195798 62.59422665300764
227.7558721139376 199.43340675896172 43.1366201050484
222.06920726263218 191.51165788079552 43.708966128273204
226.71952990736048 197.4009083834063 64.0487900735979
220.62841704404042 189.19059609880648 62.08564861189845
214.9269842580301 193.57373021588216 50.21100377777342
217.1389194911413 193.50104968030035 62.257208273095635
225.09775069429213 185.4249460591318 46.408222366054545
220.12855896079327 196.927129118719 62.92599815639787
231.65882640651594 204.84204247042442 58.27347313289765
221.8525526608489 188.33089262478023 45.773510721882026
229.19254421348964 192.45237034941331 64.97185780624831
217.97385517200368 187.48919568020182 57.65030956475884
224.27708945231268 206.041736265138 53.99900286300108
236.32423100846586 197.14600798177122 63.873346563415495
224.2827450338475 196.0235831801084 42.83590702604425
216.07910800050763 193.97574980192383 48.24154312779759
214.13340662547336 198.4911395425467 59.71351916447077
222.8331203194406 188.49340745455495 62.3763310688725
223.33262604189332 193.6443638021338 42.64448446622893
221.94375947523392 202.43603062020253 60.44822485094449
216.5530475374611 190.34603935974422 49.656904734181204
213.76868008587223 194.52476904993193 54.277578664796216
217.9477541910663 191.80342047741172 46.57135548157876
215.8313522957458 189.24821787298526 56.178497494386974
215.1608863571763 189.87201560341413 54.54281521517274
214.00356602253288 194.14708523019792 52.1808366489055
214.45149956938312 192.47932424564362 51.81499141504008
219.46701715943695 186.62600306637833 52.12040591428952
221.7813550807289 203.1474138466208 47.37311207115579
225.58297499911137 197.98132426184975 42.73376340879125
227.0942068490197 183.6300244177969 47.45660876728279
234.48390016913086 199.74036580718283 43.294518699812706
224.42951992134908 201.97753057025471 61.67697761699909
223.2824125101947 198.1722890180219 43.881711718887026
235.67901446010805 203.6132767214023 59.242733888270415
229.03129097567876 197.2446486023908 41.982116751217504
225.22180936787677 200.17990766088872 44.157666374483036
218.5175549989466 196.17771496362548 45.83737897957619
224.36411909860345 190.6427931562547 42.761876774344856
219.92939730528886 197.79499867698001 45.412164016581976
221.31617221304018 197.45511484384886 44.29743526657113
217.50163565472414 194.00887701165402 46.35335241835812
218.16979600236715 203.24054921086505 50.76563958481341
214.6362061685134 190.78545901588225 52.710881718544535
231.92879938068918 205.59250152271844 53.451288203767064
254.134797866458 187.68043072039524 47.833753561357256
217.44825489382333 188.46178800320783 50.21856793046932
251.59359508293738 179.2270682528499 47.36192692708326
250.93011567218886 181.72991351212346 44.627490016021966
252.67318778343576 187.7273286880838 45.1368208873898
226.22364495521657 206.29919678798507 51.83307843712671
239.9541968188357 204.48478576499525 53.71329393739717
224.93288503112512 194.6265892713913 42.224324964879656
245.40694685143336 198.5628570221807 60.21419417269346
254.2275153617824 180.44564822355687 50.69994565585263
243.11163131742268 201.4115320796272 58.68916321130229
229.75152650110934 187.59006391437723 64.00360691826872
225.35156006707695 205.7143916918614 58.42257543442769
248.92290287221138 176.42085754561188 51.72832251522555
239.0868128461391 202.68048376851544 47.950653662025175
225.383462613884 206.4487462597915 55.63637015478718
231.210291907786 192.78649653902198 65.12845160877625
233.74276144193314 191.7318754416955 40.88631516123597
230.05491767120083 193.05020566319388 40.91175450184144
237.03621709576248 204.80272394544025 50.53036266952827
236.80156544246532 204.56735623920656 56.822203445050135
231.61626067212785 198.64444637195925 64.54916099787586
217.5620747651759 204.21491069179314 54.53833475306047
247.3346899879402 195.63986022341274 60.63180856863093
230.73334769598398 204.70463529722198 47.68398504969188
233.84642342592463 203.5547280068424 46.75973804301411
227.7437499240941 206.41496994697164 53.19618438907074
226.57342540354645 203.48601348525017 46.44784423049951
247.05178116455622 199.1930708480548 55.09646680981006
213.5386115381047 199.24755415243803 55.208654005320746
221.64822673416484 201.24350645203128 45.86390460133669
233.98490392060867 188.22625001725538 41.48334360359443
244.91674984931325 195.37775108238648 62.141887333118255
233.97602970258896 204.9609913078628 50.22072646761656
240.66182353745629 200.80840346946306 46.728974793413684
250.9911968447722 177.06431229464638 53.567276763976224
229.47758137123782 202.8859204995643 45.406262033688705
229.13221650427533 203.6421128568079 60.720149766127285
224.31518008516994 188.91253301254386 43.8184798458817
250.31119794937592 184.1352749749176 59.901954856977426
242.63609875917246 202.08232864259674 50.82274778800009
253.8234939732861 181.1385078113866 47.87295182631912
248.21153633170252 196.29155821855133 49.27051697011373
232.11967542087285 202.1402560566792 62.47561824594213
243.49647114756618 188.22863358702233 63.92177012895008
215.59374098195988 189.15520483629584 53.04864665252902
237.74660650333146 203.16146399219133 47.609336021289195
248.92416625989756 196.79952269892362 52.721076220949314
246.07775005012164 191.81561086378966 42.50572064258427
226.01755568739776 205.55310582361412 49.876638889230854
242.75681355454793 176.3726046871287 50.39165160444128
236.85760429432304 192.50578941919392 64.86234999982446
233.95207497513618 205.6387624271164 53.944924591391135
217.3026724044942 199.78686275149803 61.410739391058435
233.64813978403743 204.3285203973248 58.78086051984232
238.56142193520174 199.96885390461156 44.97076186412533
246.6723692061372 176.01972172750175 49.90043906085453
237.57829273958495 202.73196339425593 59.8630366285411
221.69505185142674 204.0424871580351 57.94619692835349
239.4699731222302 191.62158143185874 64.50936952746758
223.4918271245217 184.03778906109306 54.63697289844165
254.84793876037452 186.7231198552748 48.82193668989811
253.40454890960473 184.62399683224837 45.371653885251824
242.6356170837243 201.21947954680292 48.777461328944
237.79587075878723 196.84242731450283 42.55900107513785
252.43658280632252 178.0186664371446 49.98422201766673
249.17695504558668 195.55258308178438 58.47621455007648
244.84341133539667 200.74409870126513 51.43505874635364
226.5334773260254 205.03011844656453 59.27067765203343
252.48087718786178 183.3723448035964 58.1145692152151
213.80144525751444 195.87498866915365 59.417404536555
251.68791056294916 192.81481677083696 58.275028107800225
250.77818389769675 182.54136186712344 58.849232360335854
251.4532406073113 186.65546083609883 60.052113785676184
253.62131892458422 190.0272350406152 50.87893726851842
247.6579770741309 190.4052292669319 63.391604006431294
231.31807243779193 203.34642006031024 46.294111770281134
251.5028313029854 192.8972514788364 48.732030504022234
241.31078086140855 202.4731168317519 58.11708003666654
240.30456758333324 200.03502285960963 61.5097259195737
255.34622329971313 185.47002108882094 52.532018714207474
243.38877428153225 192.1322999886288 64.02845521470432
247.98737982381056 197.59805404338647 54.281593793631934
252.29123192334947 177.80274693672482 53.45444054745171
250.76447767432344 194.59093867726685 55.608734143703884
229.63899285394507 205.7357802826621 56.88588319076367
216.74597023385303 203.21105032921605 55.471398012178845
252.65748024285267 191.97511371781496 54.56402767199685
227.13581146968139 203.01462584436112 61.020127219582626
214.02228753827316 192.77945737000127 55.43301098550687
221.8974920206956 185.13025785780556 56.60892804275922
243.882160926206 198.51672305591694 60.97097382103269
252.4654768325465 192.6329906548115 51.588432373435445
213.94295824030428 197.89171769335553 51.42095015547267
245.78530319554827 200.40034608455517 55.84966431702309
250.14221571707475 192.75254005049533 46.14672502932586
245.38186246641203 188.75405317430588 63.70866315749522
246.16908594140503 199.11268745820945 50.49285487070168
255.09478898293818 184.73516742343475 48.986795363492384
251.138137398287 188.03349880920558 60.82006314368033
252.31228247829736 179.49605128722803 56.549399535887744
249.24133726160719 176.73322377154835 55.723477730785454
214.81756518914406 196.92542905731824 61.58642164009324
253.37093149786247 186.22802666022687 57.97896908063092
218.40680059883098 186.97761581209153 55.49797489048936
235.80134654129756 199.67598217550358 62.93199312428014
228.66931676418503 204.1607106743136 47.13102695790746
226.06970392234248 201.23942149959748 62.17121636283241
250.82652866927998 194.91510445883878 52.23171496272528
242.60463963285667 203.25981207910857 52.880775773950276
222.6917967270572 185.35550841519313 49.54836106067733
220.68888243157082 198.99859138284228 62.93267712617685
235.3438918413805 205.17812808683786 51.702479598324864
252.87227810425918 190.3295021571611 48.028019368741695
255.58319048689867 184.03342251981493 51.4318990030115
230.2065915975598 205.2851531368882 49.42858854629797
237.44976587056865 195.39399422459275 64.19219853092267
250.0991232503817 191.35632420862194 44.83511975028391
238.94687392944206 204.70892891159025 55.38408056107394
254.37160059739375 182.2259942425127 55.21207848585949
236.35599798328857 199.04999708610535 43.4086196130476
243.9268452034004 202.22801859585127 56.924573441224574
250.8599348518628 190.39567434797522 61.21403940875925
250.87131075554666 192.79888607286776 59.95688293338291
247.85079280301125 184.65357855242368 61.45512494845928
216.89012430329646 187.94686651626546 56.34278635771991
229.72475909194586 200.39825305158084 63.158436621160135
253.07285856639814 189.15704881732313 57.41715657668913
223.53181270582886 184.0086097697222 56.67210755339238
248.8222732861638 194.60016354583897 60.09452596348266
243.04126159796266 190.35580494104008 41.84927241220635
249.4533686687036 190.4708778961131 62.711931245468136
242.64659541314296 185.75389062138126 41.50851387142298
247.21368831625205 175.7357921762586 53.92043453065352
252.66700515484428 187.86121199432574 58.96647538826429
226.5860459263155 206.50583584492517 54.38846155950119
252.70494349891527 191.481582468254 49.79774971358674
251.7342221929984 193.5072795558029 53.40782813099805
246.64153169447113 198.42301287258883 59.47750139812618
250.0201024961479 194.20261754932042 47.73827298574517
238.1939593426159 204.92798411125588 52.40928461166321
251.9016059208447 192.67382278077628 56.311515014302174
213.65503599683825 194.7494586732577 56.82000110751453
239.9020999573912 194.02945857662647 42.337279126795316
250.92006572627642 177.2218772588386 51.49117858693086
250.56754617666587 194.3925245411704 57.9762182849046
221.49249983228947 194.51623323411656 63.42750803596915
246.83660769379412 194.53886423178722 44.946768481209006
254.21704906871037 183.01983830528843 46.76077041351553
233.24090267075687 182.7059630620945 61.4342674517398
250.49575040531354 179.080187925265 46.265307705167864
252.7585460664731 189.16116280111592 46.41698535480945
224.65077582523446 188.70115924004054 63.11775101462369
236.75355059598647 184.17270182130173 62.66159550221616
242.08615215722162 198.6260357804978 45.789582323655964
239.35988904949872 201.710903564541 60.463128681228945
229.81301927788434 184.1501629316887 62.511082441200664
241.49216275201746 181.62996849393835 61.28240508317116
218.19217328150006 196.88138526765644 63.0220953970807
244.6256420505055 194.21405286624278 43.26342783663462
249.63918447219044 195.87747198414084 51.355498480931104
244.10787097052147 198.96053615872918 47.60020803974521
222.7085160705488 197.57775933175722 63.178809799109466
220.25216447253928 186.04561724514687 55.50004914107708
255.06175168170506 186.51455174462478 50.921205263088446
240.21277905947576 177.72944563089382 49.27656584680895
246.44717739218873 178.77049033885342 59.08962966990901
230.51657059749053 203.8079163682869 60.17418161394486
243.90003460677997 178.6293598108052 44.68431009854328
247.85758711251617 179.55607817736347 44.49509669977199
248.54518991758317 188.72269589757227 42.6930370620843
220.84778976420512 187.3699824290293 61.04418978386447
244.37164191193116 176.6677749059845 48.17294588074698
241.46951053095705 192.18937088393335 41.99113471110159
241.72572657717052 203.7304726680376 55.06140917477067
225.70468018377812 193.05723148562453 41.94649112853815
239.71823511765828 196.4506275231097 42.97344297449263
251.57022314125456 191.6683735421813 47.063594683403906
253.37602307955007 190.44889637586434 55.79220529636149
235.7006746359581 204.25253790677849 48.813079245115794
246.2866036154513 193.39586008476937 43.557846459485184
247.10639346143046 197.8158749310499 49.819672034515264
235.96754589966525 189.71576023510036 64.54601433520622
240.3692292166429 177.69661508823646 57.641802294001785
239.17698635216524 182.99481877606033 62.20877955289322
219.7905640721759 203.42820872885304 48.819574796969555
254.81003214532848 181.94279849413812 49.559047218142226
234.78958326064816 202.5920678572917 61.020692986960306
214.3866268607223 200.17164674240755 57.65057847303362
236.005315747545 182.868217834099 43.77944720318528
247.24202725243157 189.30797822626116 41.996340172020766
228.87428062819873 195.43204102791242 65.02569776479511
246.91820385047015 184.15601450755048 42.575783333358956
242.37888228035158 176.68936630979627 54.90480821908393
234.27240069376418 179.90833932745582 51.05831363855067
234.28096569220494 205.02874967235195 56.707813196538204
218.13250667334142 187.38704318178304 51.622304718271664
213.493816472093 197.57104714043265 57.335812964898146
248.95137953491897 192.3603804083573 62.03426358956524
237.93749886503775 181.11950061679926 44.790792801418704
242.06051177226476 177.87582061423655 46.6785896607485
237.90854078102325 189.19266871857178 41.55237597985593
220.89049478953808 186.037810182993 50.92875104575448
240.03662987302172 197.9896260460771 44.08457140297457
233.72231435052703 179.786498710848 54.91988159949006
215.22330817868664 191.39973532021668 50.69505004664376
237.10480596702376 179.01203980612914 58.025091352222255
243.63218676184272 184.154835025281 62.19215084976909
221.39039631375897 185.28357362507114 54.2287054317252
250.70928780516147 178.0073313643511 48.309724664840125
248.5491203448663 176.54307969836347 49.832723955095695
234.1041463691078 196.06480190462213 64.6468313876796
250.89537773322834 188.8747917503318 44.02131703365392
229.2239184430864 189.47235253565086 64.32198473395235
252.13294844599636 183.15026772510967 44.518904533990714
215.2321234401144 194.47439591080575 61.10300569539349
240.8684136748405 203.15230986158593 50.14654932262287
219.22874286397575 187.13189943346094 59.375194663874346
238.46685200838814 188.91837105722348 64.48630430900319
236.5710045309549 201.72316845191725 61.37111408838787
224.2858970070687 205.25631598754356 50.18166176098194
215.98428997502052 191.9924139790925 60.52119306592786
243.90582524740967 197.87211569023495 45.94564266102412
246.46932280582354 176.73926056085307 47.95833143737352
223.6111873203544 192.8052531435898 63.67593072638823
234.8753604920018 183.5642058966778 62.231824039368256
233.92817861517068 185.89936119805927 42.243096315469884
231.83044618172053 183.70257141070988 62.36616622427092
240.02156822502948 177.56123117278804 55.95911892411629
245.9105549031499 178.89370531668584 44.4929054160047
241.94751697060082 181.31914109840403 43.334825091330615
246.5183425586924 187.2767344227015 41.90225386464027
252.1510232420494 180.62257314520372 46.39776788371861
219.70747931393595 186.27859451088588 53.884400683711114
220.8624762847413 187.74608603683424 47.2960859773578
246.02382020429545 183.49594694417127 61.38715734103857
237.8396349301281 182.51480516677955 43.70120274223809
219.2886224473142 190.61276763867008 61.92902592121222
218.0829328215716 187.1248485972656 53.3072709176378
241.18414538582277 183.37147752447234 62.21256036270096
243.3571193881131 181.95559756889048 61.16855120803633
213.3894632542791 196.705900538401 54.964318284486964
241.7736887551691 197.47672695127446 44.452023589143494
237.7113530236075 186.4721591763794 63.490221832062524
254.0860968758772 188.84025912043518 49.16519367572149
227.70944793604937 205.51405057422318 49.647601941992
245.05017926678602 185.05156482336292 62.330061399449576
243.91384314227142 178.93783841769425 59.19039185811817
244.29877813338751 192.58141989292696 42.13466947715775
219.83211474257723 186.44464809854367 57.28716241958026
240.35339789896213 199.3972650126851 45.3574046906573
238.95230704860012 178.39474083351158 57.70690676328867
221.0990875675439 190.15952630915882 45.059881397019204
244.3373489173255 185.1296591137049 41.827445628429736
229.85285412680292 181.2157620657836 55.53843254816071
238.24497891901945 179.8344926301046 45.85376105518665
214.12346571785474 195.71851133545945 50.71815601182473
235.19128419065765 179.4885685945526 57.01174612100998
232.5594087893973 180.3282161727442 52.78221112995557
248.26623346727047 180.75633596136507 59.130760786620726
246.23754603129686 177.60454649794102 46.062245912135594
233.6008409490873 198.5921248485649 64.01403955615979
253.40260969459143 178.94905417327647 51.70096088508259
224.21235645354247 205.8735076284502 52.0009677320627
239.5428231649721 181.3548640124469 61.154524478738615
251.27791113674968 193.97049497123126 50.51357446759017
240.10142463605447 178.50464951205126 47.128579718535846
242.1602446425235 178.53036708219093 59.20938957736404
214.96107248517401 201.68774421693033 55.336524577334394
227.710638062754 193.788800596919 65.05455095585029
224.2133469435592 190.50375148196454 63.42067933156044
253.9209445757452 187.51550349884835 56.308873533575316
242.28491693464522 177.40741528420085 57.55019598735811
221.27390175572057 185.88474873470298 59.095295722761406
243.39884124034018 196.5440981261471 44.464472511121585
238.59504037833858 184.80883653920904 62.8617065125276
245.8254620881884 197.82351522324163 48.14752863464738
241.80929319739548 187.84972579232087 64.0505690878985
254.24102306617812 188.72498779084503 51.888654323030764
252.67347554530517 181.6324232137902 56.94391630986674
218.7685310591368 198.61438726141571 62.51812140094258
230.9408071045551 181.26148057826552 50.0874406410882
239.24762090144156 177.76673524404728 50.9733407652984
216.32631541951125 190.13440474707338 59.09058820867429
248.34668609075513 178.19893473005953 46.08742638052329
231.4784029626814 188.05245801878567 64.18637755838287
237.61639388625503 178.35292418942922 56.3219467710682
230.29845011597 185.81739722349326 63.43559320375639
245.53751396648607 180.9313566879237 60.029065562491446
245.36196802465955 177.07592122685537 57.23065471332707
249.96171753076075 195.74018005848393 53.73871015327996
246.30313707030967 199.55617270163987 53.2076757328576
227.55327215671164 183.2861695173589 60.95907023475091
243.72641086579227 186.33684650646472 63.132140782069364
235.9077594025602 180.15435175467127 59.160385051575794
221.49500346573896 199.14922225814718 45.004239187850494
233.9619028986895 201.37096516547095 62.53129171650223
241.8593165430355 179.9825749420908 60.40387992461173
217.5742161583294 190.2200775113984 60.715781349793005
236.88656593596554 181.19033589902796 60.74619895031828
249.54064732827663 183.0763207894163 43.53139802555977
239.96146333024228 179.53295652857676 45.5899787124598
235.1908661369231 201.16924460830535 44.61154522392261
249.10282868128232 196.17040352822883 56.59813821641417
216.44720218858677 188.69411801876583 57.81358455795318
221.7200909673329 204.92245628634842 55.07685809315682
244.14581740915736 200.05146954794745 49.17998839966169
249.08520948028925 188.4962383543811 62.2804521893079
238.16831207041434 178.08556211027005 54.37563441659123
249.16246053932227 176.4480371864082 53.69650077924268
216.52602784577624 188.1845610109476 54.465463890352325
217.67212101845644 188.64660539886793 59.33405724610376
254.7111599861548 181.56207502060568 52.527918219375486
230.9935699695622 196.7823058801292 41.539977730462866
247.843348326826 196.61667913109818 59.09429621178516
235.96746085742447 202.39339355536768 46.10596985431794
235.80024718720847 179.0826431365675 51.590306725268036
252.21652642870566 190.7486186312672 58.56155513973393
225.56940984112043 183.46219546048883 58.77471003326551
249.94097308935733 195.24282689538353 49.65034076936903
222.23309443458277 205.1753386159146 52.09705049542463
241.91243920668384 183.9467426991637 42.19567105982475
242.4254026928213 184.88243742085388 62.69611782337467
251.02636344616678 177.86892172658682 55.50729802566751
227.43934892640277 202.2457379424233 44.84294020896998
254.64280432900503 185.8194851854987 55.27495157690893
223.77692254730894 185.3178982515583 48.04835970747989
228.82151792797174 204.79621045727228 59.1648678309917
237.2915223596156 178.35166771459856 51.11993996418093
237.37596355399347 182.81994766478616 62.00322013741794
228.28993895356535 181.7743167807419 56.25638970180904
230.95650609639688 180.84212907034956 53.34271290465421
220.08374838564777 204.66164713412118 50.72703556493406
235.2520672340007 195.39203714980368 41.705053913405024
226.75871192515834 194.90397225833928 64.70343648917992
251.77916405981992 189.2774145832291 59.93154043529826
214.2237165359229 192.67917482246222 53.48875425675521
215.00761257501387 199.3547760578957 50.33532927626375
247.1402430659513 182.07048866211804 60.308140916755896
219.05226375136206 188.72030118749737 60.94006624288147
228.42947889649395 195.35972068280952 41.342807037657806
240.49961216755648 178.44405150056699 59.122742496798814
250.81059190941764 184.6030712093348 43.674839100883105
247.26866380927308 198.5164664300245 57.07573688637391
247.12022667665582 181.26919794200705 43.64949120689744
228.21892398445624 181.73862022056477 51.83544066174467
213.53335059289097 196.152760032395 52.78360414349314
232.50256495924302 200.46923675657527 43.44816017463907
214.7104609630319 200.13241474437447 52.722492663038494
234.9028902998764 180.7344652872554 46.89623280489997
232.2956224713419 180.67357833116893 50.449648323927484
236.3784397639151 184.6635194683266 42.89139044508784
247.2114657099496 195.57212933277904 46.57381537976322
235.86877187164419 182.2343225063201 61.44140647681545
229.86141768604617 190.95790737859704 40.86052833805031
236.30738158612897 205.33180274617885 54.48970766431742
243.514508257313 196.41630602529958 62.288208632175994
229.69910009044727 199.1650665195416 42.78047451376594
240.78849772214025 203.93813722661028 52.058096067931515
253.26223928552383 179.63716863445177 49.0166935799044
215.14037363527254 197.34877954526084 49.5258490014195
244.13240793827387 177.68401782142394 46.38909589549335
215.64850306814805 190.0867776334992 57.54924185915238
225.39442219915568 186.613043299284 44.69232051871616
216.79194622386999 197.89384696825874 62.31188030728189
231.37271129390706 180.74195159142448 54.921177843394034
254.05321281829083 186.33051871192816 46.6780484081773
254.75343122220963 186.80401427073116 53.59812345018304
235.08438163266229 191.47628888171883 64.97336926100687
251.85510818436723 185.12434575921955 58.98918983192511
225.7365528621541 183.9379731576762 60.729704778440535
229.99232703879315 181.81016429259313 59.07980239490441
215.02608063286866 191.43750156060574 58.35774283756815
236.1960855686016 185.6845232108904 63.3448109723479
238.90052099018527 196.53168832556366 63.57295475575484
233.4406758101361 186.0137342361385 63.56527465604768
216.6966690256691 199.26179117777676 48.56211300873491
214.4884434707132 193.4628341528202 58.97027877965858
253.30338446993446 191.06299774892688 52.74282920864955
253.86833006178975 184.49003336996643 56.81828175188594
245.88021076857618 196.84689101311267 61.04670471586043
241.37295687614102 192.3583296673116 64.02594182077081
242.4139240445985 177.15707678649906 48.59316461524544
217.6003525049241 189.51231967542137 48.599643768966054
233.78565468546336 197.98426440052222 42.26732695042097
245.0760726063909 175.85812374989055 54.338293442359344
245.37915539424193 180.54199747611403 43.5246309914241
243.37604646454645 187.740581753244 41.664724480015494
239.06009342570567 184.7113200149291 42.48311894349322
236.73899267713918 178.66518003598145 52.935690076336456
219.74588377397592 201.756268679201 47.10308731946698
245.53687160901984 190.05303071685393 41.79618574569917
224.35448233205477 204.22931634005226 59.613370317643536
246.7656080013101 186.36468006223797 62.31999114376398
238.18681039076847 178.58802048874867 49.00302033325428
238.3248903479605 177.96066765026063 52.53660665932374
238.44089012560266 191.7828935797766 41.844345508604114
240.1549114388154 189.82543146076998 64.41689543144618
226.81064303946417 185.72196163690805 44.38704874374088
226.48491204323523 189.40276952269554 63.66403673505404
246.5564156329186 194.18630033193682 62.05685011938609
214.26432576455895 192.63904539493754 57.19762049347087
245.34240706306758 191.7863484665246 63.69666233118577
232.68809136578167 180.3937485220276 56.90356847706282
213.61046066401292 198.06988701360459 53.38055551843812
231.40716406915675 182.38199628587944 46.92657363893529
235.51924761040263 190.5432383271891 41.42827853167874
242.57129897532403 194.94716232518024 43.160661299721646
231.91606600095162 190.93588107832255 64.73201017755653
247.2762046638618 188.44736975919656 63.10413825371284
244.05834382408813 201.78626536479658 53.75011648375672
231.37512738312523 185.07436540830076 43.079614308265114
235.78604674268013 197.299746129629 42.50399980482577
248.6958707026121 183.21507625445093 60.530246412569255
229.6268854766025 198.55545655091174 64.30224208823549
226.55660301529466 182.1617951304677 51.9081672295058
227.55900982101423 186.71804064380447 42.99500593580247
224.8517381412638 184.23263086330073 49.15432749766809
232.81554139613894 203.15543261570068 60.57156677270766
216.6534404714059 202.18953078522438 57.80787227123391
228.21384110382647 182.58470486439012 48.59810538154424
239.62236673623096 180.67924712945037 44.277094806208424
229.13357446733426 206.18584049686982 51.93238087725762
216.64274539735703 196.36613870135255 47.6422425561158
227.19267837579318 197.60811269980175 42.359161733679194
249.72804762012478 185.77659876874785 60.955337002939444
230.40559255630475 201.07331364223657 44.0464328895414
238.20250253699646 198.47594471593072 43.73512168349557
238.79110759476578 201.43765352986316 46.37817176262797
238.37852555155624 179.6738990796742 59.502795445785225
233.97546931679378 183.45178012014776 44.0070305191803
248.56387808062217 177.27934038872556 47.99364072594543
228.91183908076496 206.17377578259027 54.57614741774642
229.3920239545126 181.27317444006152 53.92398855777128
232.93651886625733 181.08573040758955 59.75928534432607
247.52989018708814 175.93531113331022 55.704655674893175
214.61342583647328 190.91518262287852 56.30319171121488
221.61464625799857 191.25650642574047 62.84659254759532
240.75530468378312 201.92603233345338 48.43992331476364
224.94348029889713 199.55538408811734 63.0362535945851
232.62571246908942 204.81597968723142 48.597912832331005
234.2716210524672 188.6980184841333 64.49525434011892
240.3198199049601 177.24766318254882 53.1309283053198
227.75550838746798 200.31866659745867 62.77229033523147
243.01056158451115 190.13358123877055 64.23195727646491
236.83333043899043 188.08236587470034 64.01306671985769
239.24366880953355 187.31685152237813 63.935430988612794
247.80324889248774 191.01811894840588 43.17634701334473
243.74485293728256 176.53334239040015 56.08177482158527
233.80171391058335 180.56392744166646 58.71488981280439
232.50691132270398 190.09337120301163 41.01289174757589
248.4652625158934 177.9840226612658 57.32642825869672
218.3439534336987 200.23430460562537 47.244500426665105
240.5632379413611 189.2508573226197 41.67522695347499
244.5154921854983 182.23837176975152 42.71003799675427
231.66431265931243 196.51782764755444 65.08995279319417
255.05276296397287 184.33097750929647 54.009627849878896
229.00342289007318 181.68808454201672 57.865097509988544
241.23318802215704 198.1813594474463 62.27125474804166
227.78758453169652 190.9424827236497 64.31458673803976
224.69116055061838 197.50926314954708 63.7785346145144
236.00432780950928 178.92390564746978 54.79502631005017
223.73820657079108 184.43547587696787 50.71203050708843
251.4338201456237 190.39677429951934 45.43831102523707
231.91990930376303 181.11054984083947 58.6916932170018
237.68074522676133 190.6975549821479 64.58896644157554
244.88447687968238 199.9489003082356 58.79389465384479
238.22316774040246 179.12801568882762 47.34643621716954
227.5374976684532 182.56839314735473 58.96649990808333
226.6694424634164 184.35811625290353 45.64992118282311
230.19726313672496 186.44391573014934 42.312382333560976
215.55773109965142 198.88506801051037 61.227883706363215
248.38521968206442 193.29215000219986 45.2707465112974
249.65657958482888 180.40583392728104 44.72743965579959
230.7657469610742 194.17114736431458 65.35090157910986
242.983627170497 176.22488267746732 52.26515301429528
228.5318989168773 184.02585184046671 45.20582855147697
228.07394460740068 187.16988031892515 63.62247338741135
234.83408812984226 179.43042209341436 53.02492156638477
215.94750730924196 189.65089415737668 51.39463352255316
217.5732524037736 201.5650104408514 60.23874416856792
231.1720393698555 183.4363944321472 45.33050536055215
230.06834201865323 202.25141079542706 61.95563906133713
230.51843134348152 181.0703426701367 51.72517000477825
229.44135568468917 182.97732939156032 61.10105778128448
242.0056212497341 200.33251763701102 60.13977638566465
216.78661990224938 192.52888366901283 47.533793215096004
224.30358340015613 185.16524424291583 60.832313110779175
240.04175208568614 182.567316631779 43.066266450077016
234.09519914639193 180.50224363572804 48.65680544794564
224.14028647719135 205.55498097325398 56.88124901952458
254.07276956615414 188.96219030977161 54.0813845812924
219.69415617875907 200.73259156569756 61.409517003896845
216.49947870864398 202.91391046888577 53.112018476775745
247.17421722272948 192.28258770094874 62.95618016707691
241.9098044386865 179.16335398841426 45.13052654317786
236.49325315738616 179.86255949383596 47.52381612479472
234.40296097390788 181.61475044606544 60.560727000477975
231.64408268321918 187.4362806383772 41.62183374383178
227.0481844058323 190.57916701631132 41.64654709428285
240.02439385150905 179.68057036183552 60.27619896770112
226.83381316662192 182.39898985197865 49.97202781336678
233.27713905837183 181.84183734548427 46.47200504196619
245.56070981107334 196.74997862297428 46.3153278779064
237.60499543293372 185.94119396943532 42.24874616233276
235.95873079969618 179.24458663718474 49.790526055022724
233.39587830399833 201.8020189701087 44.821327291440625
238.32701932230793 199.2352785537699 62.1980954160279
238.84616708069498 203.85760575523702 49.62617829191728
218.92756665791018 203.8757789243234 56.23841843383828
230.47266640449723 181.369764278032 57.01616354730833
230.70702904633828 189.05756635959082 41.111583342562945
233.07156551728337 195.94799030042657 41.630802278334755
243.66244733826605 180.45828697686036 60.1738025452755
225.09793398025164 183.0724771053216 54.267839638710065
232.19948147134986 205.50038455781942 51.764673727810155
240.21083620634516 203.72472423941173 56.746412500536515
237.2910203073779 194.7442035445915 41.99598160404187
219.26606027192872 187.18165204667292 50.32863279321445
232.95341580972826 193.7359305836163 65.01316272802538
249.41195767916744 190.08531319229303 43.44965564342893
219.38023391785333 202.59237439146418 59.08475824535171
253.45019749186855 179.66342483030883 54.739929277001174
241.02309391049505 186.396816546176 41.75269277010106
232.0324667783787 192.89545488290082 40.959476025363884
218.11304735099296 198.3371718246843 46.5403130476289
243.8956303285684 179.99586316019767 43.76006734127748
244.65390864449822 176.1314198846398 50.132494594737445
229.97028888952235 184.33853585930123 44.05649958647047
241.28011043830273 176.98584818128202 50.763365616563796
238.7322503478905 187.1252347289509 41.90229267083886
231.55171933387595 181.52266861481397 48.493387618654445
231.73324715579562 198.70053068006698 42.3210475220826
229.38280968886917 181.79661927147635 49.69311603375007
250.70161910951302 179.92320218560874 57.58545337790723
230.232512588023 194.96968996498796 41.20331651715752
236.78818102594076 200.32099503079897 44.65481345282761
252.10409751427508 186.00805266176044 44.34901608284508
246.93637167585644 175.75358962324086 51.93596064717097
229.58602552612948 182.65301787353917 47.332379526709566
235.18559580745836 187.08430471810036 63.91414425242041
242.36525604666443 199.89530335931974 47.2063355543818
231.93108714317341 182.06593779632297 60.482541741458995
230.52410089290584 205.9037490146141 53.36476594566396
247.7646591462216 197.5864316253727 51.587574537315156
219.1871888083536 204.51223850224346 53.20459161909228
243.7755842575675 193.97541661093925 63.18886044330667
245.17484359021086 195.64047242304443 44.607406958772124
236.06416186561808 181.4839141258953 45.344312142265224
235.9409118916393 194.30320817631784 64.82241979320091
227.92832892027758 184.7021812169249 62.33514113858807
241.27317513341126 195.23897923971307 63.48693889575722
236.28997152640196 187.32540821695562 41.80754823762466
238.62320263079658 193.58492568010612 64.3263454493417
249.36849407235874 186.11716973775862 42.99503291773994
236.5072504828672 192.61637633919426 41.640145690624344
228.94506660118768 185.5409871460838 43.15255044455663
241.15254832313053 185.79149332101676 63.04571209569875
234.80093195848931 193.4318182080945 41.25458190693496
238.59592610705414 203.4845880660824 58.14460951069493
244.8793308792235 175.7637807318444 52.15873737482192
231.62079709471655 205.65174355668626 55.11891035500437
POLYGONS 1308 5232
3 404 73 139
3 404 72 73
3 466 530 456
3 456 530 72
3 73 72 530
3 495 183 530
3 315 471 466
3 530 466 495
3 315 377 392
3 392 377 405
3 471 309 164
3 405 377 398
3 398 377 456
3 405 311 433
3 311 343 367
3 377 315 466
3 311 60 343
3 236 183 495
3 139 73 92
3 456 377 466
3 405 433 392
3 236 471 164
3 15 302 327
3 302 257 327
3 343 198 257
3 343 60 198
3 198 60 219
3 219 60 398
3 343 184 367
3 343 257 184
3 184 257 302
3 315 54 309
3 367 265 311
3 311 265 433
3 35 315 392
3 16 183 430
3 72 219 398
3 433 331 392
3 331 35 392
3 433 52 331
3 52 531 331
3 466 471 495
3 471 236 495
3 331 531 46
3 265 52 433
3 265 66 52
3 31 46 240
3 309 54 48
3 54 31 48
3 35 54 315
3 367 184 36
3 331 46 35
3 35 46 54
3 56 31 240
3 66 531 52
3 66 30 28
3 265 30 66
3 46 531 240
3 36 30 367
3 367 30 265
3 31 54 46
3 471 315 309
3 92 73 16
3 124 10 14
3 23 10 32
3 456 72 398
3 328 22 33
3 299 92 75
3 124 14 389
3 546 619 470
3 389 9 124
3 49 78 85
3 19 11 2
3 25 0 71
3 477 69 0
3 75 92 430
3 573 92 299
3 70 74 430
3 573 139 92
3 90 580 64
3 88 389 89
3 5 580 0
3 5 64 580
3 14 10 85
3 64 517 90
3 90 86 4
3 86 19 4
3 11 89 82
3 11 19 89
3 4 38 90
3 88 19 86
3 82 85 78
3 82 14 85
3 78 1 63
3 19 2 4
3 580 71 0
3 90 517 86
3 139 6 404
3 69 299 5
3 11 82 63
3 63 82 78
3 89 389 82
3 389 14 82
3 89 19 88
3 8 454 517
3 87 47 50
3 2 38 4
3 86 619 88
3 67 87 50
3 50 2 67
3 76 296 15
3 71 38 18
3 2 29 38
3 33 58 328
3 328 58 13
3 7 58 47
3 2 50 29
3 29 50 346
3 55 13 7
3 18 33 25
3 33 346 58
3 58 346 47
3 25 71 18
3 50 47 346
3 154 43 3
3 346 18 29
3 95 22 612
3 58 7 13
3 43 296 204
3 296 26 204
3 63 67 11
3 11 67 2
3 328 13 26
3 69 573 299
3 71 90 38
3 26 22 328
3 18 346 33
3 33 22 25
3 26 13 204
3 29 18 38
3 477 22 95
3 0 25 477
3 90 71 580
3 0 69 5
3 405 60 311
3 405 398 60
3 290 6 95
3 477 25 22
3 183 16 530
3 290 612 76
3 95 612 290
3 612 22 26
3 69 477 95
3 573 69 95
3 530 16 73
3 152 615 68
3 81 486 68
3 486 152 68
3 442 362 587
3 27 77 279
3 27 32 77
3 458 196 48
3 65 164 196
3 68 615 586
3 603 513 615
3 615 513 574
3 314 23 32
3 291 282 123
3 53 74 350
3 282 65 39
3 533 81 42
3 44 546 470
3 44 484 546
3 56 240 256
3 256 240 41
3 147 574 39
3 574 513 39
3 164 65 291
3 586 615 574
3 147 39 565
3 586 42 68
3 42 81 68
3 56 252 31
3 56 374 252
3 252 374 458
3 374 586 147
3 147 458 374
3 147 565 458
3 513 282 39
3 85 10 418
3 147 586 574
3 584 152 486
3 31 252 48
3 48 252 458
3 124 77 10
3 77 32 10
3 27 314 32
3 586 205 42
3 205 374 56
3 48 196 309
3 309 196 164
3 586 374 205
3 458 565 196
3 196 565 65
3 65 565 39
3 187 498 442
3 291 236 164
3 442 498 123
3 282 291 65
3 66 364 531
3 42 256 533
3 187 454 350
3 470 12 44
3 12 91 44
3 350 8 53
3 517 64 8
3 533 554 51
3 51 554 41
3 533 256 554
3 554 256 41
3 517 454 470
3 279 426 27
3 426 414 27
3 44 279 484
3 44 91 279
3 639 399 414
3 414 399 61
3 399 584 61
3 42 205 256
3 256 205 56
3 51 537 533
3 576 182 537
3 81 182 486
3 335 440 70
3 70 440 74
3 124 484 77
3 124 9 484
3 389 88 9
3 88 619 9
3 53 75 74
3 454 8 350
3 587 639 91
3 414 426 639
3 639 426 91
3 12 587 91
3 91 426 279
3 584 399 152
3 603 152 399
3 399 639 603
3 12 442 587
3 484 9 546
3 9 619 546
3 85 418 49
3 414 314 27
3 123 362 442
3 123 282 362
3 279 77 484
3 152 603 615
3 442 12 431
3 431 187 442
3 123 335 291
3 335 498 440
3 187 431 454
3 187 350 440
3 440 350 74
3 431 470 454
3 86 517 619
3 75 430 74
3 187 440 498
3 362 282 513
3 53 8 64
3 53 64 5
3 431 12 470
3 619 517 470
3 183 70 430
3 183 236 70
3 335 123 498
3 291 335 236
3 236 335 70
3 92 16 430
3 299 75 53
3 53 5 299
3 573 6 139
3 6 332 404
3 332 6 290
3 72 404 219
3 290 76 332
3 76 612 296
3 296 612 26
3 332 327 198
3 198 327 257
3 184 302 154
3 302 43 154
3 332 76 327
3 76 15 327
3 302 15 43
3 15 296 43
3 573 95 6
3 404 332 198
3 404 198 219
3 154 608 34
3 34 608 21
3 154 3 608
3 608 3 21
3 511 595 3
3 520 49 418
3 80 478 626
3 626 478 606
3 80 506 478
3 478 506 606
3 601 468 552
3 468 645 552
3 578 465 636
3 578 562 465
3 28 464 644
3 462 502 535
3 20 457 7
3 7 457 55
3 20 492 457
3 457 492 55
3 606 618 629
3 606 652 618
3 627 439 595
3 439 527 21
3 84 434 1
3 1 434 40
3 84 629 434
3 434 629 40
3 37 428 41
3 41 428 51
3 428 285 51
3 611 427 506
3 506 427 606
3 611 652 427
3 427 652 606
3 21 424 34
3 34 424 562
3 595 511 79
3 79 511 55
3 459 497 604
3 650 570 492
3 55 420 13
3 13 420 204
3 55 511 420
3 420 511 204
3 613 502 462
3 462 643 613
3 49 451 84
3 84 451 626
3 49 520 451
3 451 520 626
3 626 441 80
3 80 441 600
3 626 520 441
3 441 520 600
3 67 269 87
3 269 1 40
3 583 625 596
3 1 518 84
3 84 518 49
3 1 78 518
3 518 78 49
3 59 307 502
3 285 508 51
3 508 537 51
3 633 625 627
3 527 424 21
3 492 563 55
3 55 563 79
3 492 570 563
3 563 570 79
3 624 598 646
3 646 598 445
3 624 482 598
3 598 482 445
3 84 407 629
3 629 407 606
3 84 626 407
3 407 626 606
3 644 386 578
3 578 386 562
3 644 464 386
3 386 464 562
3 640 450 645
3 645 450 552
3 583 444 625
3 364 493 37
3 497 558 604
3 497 543 558
3 402 489 536
3 422 376 489
3 388 591 543
3 497 351 543
3 351 388 543
3 642 349 590
3 604 348 459
3 459 348 527
3 604 424 348
3 348 424 527
3 351 555 380
3 341 366 383
3 467 337 539
3 539 337 540
3 467 369 337
3 337 369 540
3 482 330 445
3 329 334 382
3 575 633 570
3 570 633 79
3 548 324 415
3 324 589 515
3 500 649 490
3 490 649 611
3 500 652 649
3 649 652 611
3 536 322 402
3 288 572 352
3 572 483 555
3 369 651 540
3 369 333 651
3 625 499 596
3 596 499 575
3 625 633 499
3 499 633 575
3 402 483 489
3 489 483 422
3 624 617 482
3 617 415 482
3 17 510 20
3 20 510 492
3 17 650 510
3 510 650 492
3 583 443 590
3 590 443 642
3 583 596 443
3 443 596 642
3 422 410 599
3 599 410 288
3 422 483 410
3 380 555 402
3 555 483 402
3 538 190 496
3 387 487 190
3 515 395 349
3 349 395 360
3 515 589 395
3 395 589 360
3 625 375 627
3 627 375 577
3 625 444 375
3 375 444 577
3 469 319 467
3 531 318 240
3 240 318 41
3 531 364 318
3 23 339 200
3 99 516 339
3 79 514 595
3 595 514 627
3 79 633 514
3 514 633 627
3 62 305 643
3 643 305 613
3 305 549 613
3 334 301 333
3 334 329 301
3 345 300 380
3 345 523 300
3 300 523 388
3 87 593 20
3 593 17 20
3 644 571 28
3 28 571 493
3 571 307 493
3 360 561 349
3 349 561 590
3 360 488 561
3 561 488 590
3 288 352 444
3 444 352 577
3 36 581 30
3 30 581 28
3 36 464 581
3 581 464 28
3 497 459 298
3 298 459 352
3 583 288 444
3 583 599 288
3 465 604 558
3 558 636 465
3 496 494 640
3 493 553 37
3 37 553 59
3 493 307 553
3 553 307 59
3 575 524 596
3 524 642 596
3 469 634 535
3 535 634 539
3 469 467 634
3 634 467 539
3 575 622 505
3 505 622 650
3 575 570 622
3 622 570 650
3 485 325 481
3 435 523 345
3 464 412 562
3 562 412 34
3 464 36 412
3 412 36 34
3 378 354 323
3 323 354 455
3 378 317 354
3 354 317 455
3 490 295 500
3 490 547 295
3 295 547 624
3 642 293 349
3 349 293 515
3 642 330 293
3 293 330 515
3 366 322 287
3 287 322 536
3 648 286 325
3 286 438 548
3 646 125 500
3 592 544 125
3 125 544 500
3 360 259 488
3 488 259 376
3 360 476 259
3 505 524 575
3 62 468 601
3 17 605 592
3 592 605 544
3 17 448 605
3 605 448 544
3 645 475 640
3 491 538 475
3 527 439 577
3 577 439 627
3 59 568 285
3 285 568 549
3 568 613 549
3 497 298 351
3 351 298 555
3 562 551 465
3 465 551 604
3 562 424 551
3 551 424 604
3 479 529 383
3 529 545 383
3 287 542 366
3 366 542 383
3 287 479 542
3 542 479 383
3 468 647 645
3 577 425 527
3 527 425 459
3 577 352 425
3 425 352 459
3 523 393 388
3 393 591 388
3 636 321 578
3 469 381 321
3 445 320 646
3 505 592 320
3 539 312 559
3 559 312 491
3 539 540 312
3 312 540 491
3 642 283 330
3 330 283 445
3 642 524 283
3 283 524 445
3 287 536 569
3 569 479 287
3 523 594 358
3 358 594 391
3 523 435 594
3 594 435 391
3 555 298 572
3 572 298 352
3 402 322 380
3 380 322 345
3 540 651 371
3 371 651 387
3 358 278 423
3 423 278 369
3 358 333 278
3 278 333 369
3 502 379 535
3 502 307 379
3 455 294 589
3 589 294 360
3 455 476 294
3 294 476 360
3 415 582 482
3 415 324 582
3 582 324 515
3 288 410 572
3 572 410 483
3 559 276 539
3 539 276 535
3 559 462 276
3 276 462 535
3 423 393 358
3 358 393 523
3 541 274 566
3 548 620 324
3 324 620 589
3 595 509 3
3 3 509 21
3 595 439 509
3 509 439 21
3 500 295 646
3 646 295 624
3 507 432 353
3 353 432 382
3 507 329 432
3 432 329 382
3 592 564 17
3 17 564 650
3 592 505 564
3 564 505 650
3 376 422 488
3 422 599 488
3 648 306 631
3 204 556 43
3 43 556 3
3 204 511 556
3 556 511 3
3 482 582 330
3 330 582 515
3 590 599 583
3 590 488 599
3 380 300 351
3 351 300 388
3 543 528 558
3 558 528 636
3 543 591 528
3 528 591 636
3 479 654 632
3 632 654 621
3 479 569 654
3 654 569 621
3 540 371 491
3 491 371 538
3 17 593 448
3 448 593 40
3 536 623 569
3 505 320 524
3 524 320 445
3 333 416 651
3 651 416 387
3 333 301 416
3 416 301 387
3 519 401 487
3 641 597 446
3 446 597 370
3 641 316 597
3 597 316 370
3 489 376 536
3 376 623 536
3 415 347 548
3 347 481 325
3 387 340 487
3 487 340 329
3 387 301 340
3 340 301 329
3 423 447 393
3 393 447 591
3 423 319 447
3 447 319 591
3 481 617 547
3 547 617 624
3 366 277 322
3 322 277 345
3 366 435 277
3 277 435 345
3 323 480 438
3 438 480 548
3 323 620 480
3 480 620 548
3 549 508 285
3 567 438 394
3 501 270 336
3 62 355 305
3 305 355 549
3 653 114 83
3 449 289 114
3 114 289 83
3 490 267 547
3 501 342 267
3 455 266 476
3 476 266 621
3 455 317 266
3 266 317 621
3 648 264 306
3 648 325 264
3 438 263 323
3 323 263 378
3 438 567 263
3 263 567 378
3 589 262 455
3 455 262 323
3 589 620 262
3 262 620 323
3 353 166 507
3 382 260 353
3 383 545 260
3 260 545 353
3 469 321 319
3 476 623 259
3 259 623 376
3 635 255 316
3 316 255 370
3 635 400 255
3 255 400 370
3 545 628 353
3 545 417 628
3 406 616 356
3 382 607 341
3 341 607 391
3 382 334 607
3 607 334 391
3 316 368 336
3 336 368 501
3 316 641 368
3 368 641 501
3 641 253 501
3 501 253 342
3 641 274 253
3 253 274 342
3 334 251 391
3 391 251 358
3 334 333 251
3 251 333 358
3 303 525 378
3 378 525 317
3 303 304 525
3 525 304 317
3 391 361 341
3 341 361 366
3 391 435 361
3 361 435 366
3 134 310 452
3 452 310 602
3 134 532 310
3 310 532 602
3 544 448 618
3 578 250 644
3 644 250 381
3 578 321 250
3 250 321 381
3 635 248 344
3 344 248 336
3 635 316 248
3 248 316 336
3 467 247 369
3 369 247 423
3 467 319 247
3 247 319 423
3 381 571 644
3 550 419 473
3 473 419 365
3 550 461 419
3 419 461 365
3 319 243 591
3 591 243 636
3 319 321 243
3 243 321 636
3 242 326 308
3 286 548 347
3 347 325 286
3 601 249 313
3 378 244 303
3 378 567 244
3 244 567 326
3 566 241 446
3 446 241 641
3 566 274 241
3 241 274 641
3 238 304 303
3 383 260 341
3 341 260 382
3 602 234 452
3 461 585 365
3 472 272 585
3 585 272 365
3 648 394 286
3 286 394 438
3 390 281 512
3 512 281 83
3 390 313 281
3 281 313 83
3 493 246 28
3 28 246 66
3 493 364 246
3 246 364 66
3 501 237 270
3 501 267 237
3 237 267 490
3 272 235 411
3 446 233 566
3 437 232 408
3 408 232 474
3 437 560 232
3 61 229 99
3 45 526 229
3 403 227 632
3 632 227 479
3 403 529 227
3 227 529 479
3 647 475 645
3 370 136 446
3 638 254 136
3 547 224 481
3 547 267 224
3 224 267 342
3 292 223 494
3 535 379 469
3 469 379 381
3 411 221 272
3 272 221 365
3 411 228 221
3 221 228 365
3 154 222 184
3 184 222 36
3 154 34 222
3 222 34 36
3 653 249 172
3 172 249 579
3 507 218 329
3 329 218 487
3 507 519 218
3 218 519 487
3 481 226 617
3 617 226 415
3 481 347 226
3 226 347 415
3 504 268 215
3 217 292 216
3 216 411 217
3 630 214 80
3 80 214 506
3 630 521 214
3 214 521 506
3 373 213 473
3 473 213 550
3 373 616 213
3 223 292 217
3 217 239 223
3 437 408 397
3 566 211 541
3 643 210 62
3 62 210 468
3 643 647 210
3 210 647 468
3 516 209 339
3 339 209 200
3 289 655 57
3 338 207 230
3 230 207 271
3 338 245 207
3 207 245 271
3 268 203 452
3 452 203 134
3 268 504 203
3 203 504 134
3 384 202 254
3 254 202 359
3 384 231 202
3 202 231 359
3 533 201 81
3 81 201 182
3 533 537 201
3 201 537 182
3 313 199 601
3 601 199 62
3 313 390 199
3 365 197 473
3 473 197 463
3 365 228 197
3 197 228 463
3 545 195 417
3 417 195 403
3 545 529 195
3 195 529 403
3 373 194 616
3 616 194 417
3 373 628 194
3 194 628 417
3 550 406 208
3 208 406 280
3 216 401 193
3 193 401 519
3 280 242 192
3 192 242 460
3 522 630 409
3 409 396 600
3 600 396 80
3 409 630 396
3 396 630 80
3 600 119 409
3 534 273 119
3 119 273 409
3 504 188 385
3 188 560 437
3 24 355 390
3 472 186 231
3 231 186 359
3 472 230 186
3 186 230 359
3 560 579 185
3 185 579 552
3 215 560 188
3 188 504 215
3 461 258 372
3 372 258 338
3 231 181 472
3 472 181 272
3 231 235 181
3 181 235 272
3 603 180 513
3 587 362 180
3 180 362 513
3 526 179 655
3 655 179 57
3 179 421 57
3 400 191 370
3 385 638 191
3 235 178 239
3 235 231 178
3 178 231 384
3 417 177 616
3 616 177 356
3 177 238 356
3 385 176 638
3 437 397 176
3 308 436 631
3 631 436 648
3 308 394 436
3 436 394 648
3 640 175 496
3 496 175 538
3 640 475 175
3 175 475 538
3 336 297 344
3 344 297 521
3 336 270 297
3 297 270 521
3 550 174 461
3 461 174 258
3 550 208 174
3 174 208 258
3 579 173 552
3 552 173 601
3 579 249 173
3 173 249 601
3 172 215 268
3 359 171 233
3 233 171 271
3 359 230 171
3 171 230 271
3 537 220 576
3 576 220 24
3 537 508 220
3 220 508 24
3 520 170 600
3 496 190 169
3 472 168 230
3 230 168 338
3 472 372 168
3 168 372 338
3 228 167 463
3 463 167 519
3 228 193 167
3 167 193 519
3 353 628 166
3 166 628 373
3 206 449 234
3 235 165 411
3 411 165 217
3 235 239 165
3 165 239 217
3 585 461 372
3 372 472 585
3 550 213 406
3 406 213 616
3 463 163 473
3 473 163 373
3 463 166 163
3 163 166 373
3 182 162 486
3 182 421 162
3 162 421 45
3 57 261 512
3 512 261 576
3 57 421 261
3 504 161 134
3 134 161 400
3 504 385 161
3 408 160 397
3 397 160 239
3 408 223 160
3 160 223 239
3 303 159 238
3 238 159 356
3 303 453 159
3 159 453 356
3 270 237 611
3 611 237 490
3 134 157 532
3 532 157 635
3 134 400 157
3 157 400 635
3 460 156 631
3 631 156 308
3 460 242 156
3 156 242 308
3 258 155 338
3 258 192 155
3 155 192 460
3 491 153 559
3 559 153 647
3 491 475 153
3 153 475 647
3 208 280 192
3 192 258 208
3 384 176 397
3 313 151 83
3 83 151 653
3 313 249 151
3 151 249 653
3 317 150 621
3 621 150 632
3 317 304 150
3 150 304 632
3 630 149 521
3 521 149 344
3 630 522 149
3 149 522 344
3 83 148 512
3 512 148 57
3 83 289 148
3 148 289 57
3 191 400 161
3 161 385 191
3 521 158 506
3 506 158 611
3 521 270 158
3 158 270 611
3 289 146 655
3 146 206 609
3 559 145 462
3 462 145 643
3 559 647 145
3 145 647 643
3 621 144 476
3 476 144 623
3 621 569 144
3 144 569 623
3 99 143 314
3 314 143 23
3 99 339 143
3 143 339 23
3 342 142 485
3 485 142 541
3 342 274 142
3 142 274 541
3 638 141 254
3 254 141 384
3 638 176 141
3 141 176 384
3 239 178 397
3 397 178 384
3 538 138 190
3 190 138 387
3 538 371 138
3 138 371 387
3 24 137 576
3 576 137 512
3 24 390 137
3 137 390 512
3 136 233 446
3 602 140 273
3 273 140 409
3 140 522 409
3 280 135 242
3 242 135 326
3 280 453 135
3 135 453 326
3 292 225 216
3 216 225 401
3 292 169 225
3 225 169 401
3 507 133 519
3 519 133 463
3 507 166 133
3 133 166 463
3 534 209 609
3 609 209 516
3 576 131 182
3 182 131 421
3 576 261 131
3 131 261 421
3 87 132 47
3 47 132 7
3 87 20 132
3 132 20 7
3 485 481 224
3 224 342 485
3 200 130 418
3 418 130 520
3 200 170 130
3 130 170 520
3 306 557 245
3 245 557 271
3 306 211 557
3 557 211 271
3 216 429 411
3 411 429 228
3 216 193 429
3 429 193 228
3 238 129 403
3 403 129 417
3 238 177 129
3 129 177 417
3 62 199 355
3 355 199 390
3 344 128 635
3 635 128 532
3 344 522 128
3 128 522 532
3 609 127 534
3 534 127 273
3 609 206 127
3 127 206 273
3 640 126 450
3 450 126 474
3 640 494 126
3 126 494 474
3 496 588 494
3 494 588 292
3 496 169 588
3 588 169 292
3 646 320 125
3 125 320 592
3 437 122 188
3 188 122 385
3 437 176 122
3 122 176 385
3 23 121 10
3 10 121 418
3 23 200 121
3 121 200 418
3 600 170 119
3 119 170 534
3 206 146 449
3 146 289 449
3 534 118 209
3 209 118 200
3 534 170 118
3 118 170 200
3 494 117 474
3 474 117 408
3 494 223 117
3 117 223 408
3 450 474 185
3 185 552 450
3 449 212 234
3 314 357 99
3 99 357 61
3 314 414 357
3 357 414 61
3 541 284 485
3 485 284 325
3 541 264 284
3 284 264 325
3 271 189 233
3 233 189 566
3 271 211 189
3 189 211 566
3 587 116 639
3 639 116 603
3 587 180 116
3 116 180 603
3 549 115 508
3 508 115 24
3 549 355 115
3 115 355 24
3 41 318 37
3 37 318 364
3 99 120 516
3 516 120 526
3 99 229 120
3 120 229 526
3 401 503 487
3 487 503 190
3 401 169 503
3 503 169 190
3 268 610 172
3 172 610 653
3 268 212 610
3 610 212 653
3 233 413 359
3 359 413 254
3 233 136 413
3 413 136 254
3 653 212 114
3 114 212 449
3 273 113 602
3 602 113 234
3 273 206 113
3 113 206 234
3 629 112 40
3 40 112 448
3 629 618 112
3 112 618 448
3 40 593 269
3 269 593 87
3 544 111 500
3 500 111 652
3 544 618 111
3 111 618 652
3 655 637 526
3 526 637 516
3 637 609 516
3 285 363 59
3 59 363 37
3 285 428 363
3 363 428 37
3 613 110 502
3 502 110 59
3 613 568 110
3 110 568 59
3 421 179 45
3 45 179 526
3 522 108 532
3 532 108 602
3 522 140 108
3 108 140 602
3 304 107 632
3 632 107 403
3 304 238 107
3 107 238 403
3 486 106 584
3 584 106 45
3 486 162 106
3 106 162 45
3 370 275 136
3 136 275 638
3 370 191 275
3 275 191 638
3 307 105 379
3 379 105 381
3 307 571 105
3 105 571 381
3 45 109 584
3 584 109 61
3 45 229 109
3 109 229 61
3 215 104 560
3 560 104 579
3 215 172 104
3 104 172 579
3 356 103 406
3 406 103 280
3 356 453 103
3 103 453 280
3 560 102 232
3 232 102 474
3 560 185 102
3 102 185 474
3 1 101 63
3 63 101 67
3 1 269 101
3 101 269 67
3 452 100 268
3 268 100 212
3 452 234 100
3 100 234 212
3 245 98 306
3 306 98 631
3 245 460 98
3 98 460 631
3 541 614 264
3 264 614 306
3 541 211 614
3 614 211 306
3 567 97 326
3 326 97 308
3 567 394 97
3 97 394 308
3 326 96 244
3 244 96 303
3 326 453 96
3 96 453 303
3 338 94 245
3 245 94 460
3 338 155 94
3 94 155 460
3 609 93 146
3 146 93 655
3 609 637 93
3 93 637 655
