# vtk DataFile Version 3.0
A great-looking cell
ASCII
DATASET POLYDATA
POINTS 558 double
346.7707683921859 201.08639537410735 80.75939213165523
349.1681408433148 201.84304377161095 79.63239482919586
353.77336100949395 203.43435068137333 78.44269018516675
352.05355947373243 205.07678241608804 78.23325433930262
344.79682175032457 202.84263472381417 81.35476947763293
346.99125617114726 204.11242510421346 79.95728446232563
349.672566404082 204.56132503950275 78.89621526367779
348.0012955027611 206.85529093200438 79.22229931757818
350.42927737890096 206.89552517610437 77.99560755179513
347.95035699172513 197.52426983703592 82.9955952442922
351.50003448732843 199.96060513548863 79.77208750561296
355.3106645838304 201.72283575351958 79.0531194499901
353.2624324253988 201.41246409680537 78.97257947135792
356.028165183705 203.93546286370645 78.3699559904623
342.8158593424968 206.3158543558254 82.83879139958157
342.95390830289085 204.098260824339 82.19651254151547
344.82343123244834 205.7001532533233 81.21466573949215
355.459609122436 210.25519748482506 78.90864981753974
351.7170934463431 208.85995213595436 78.35355068997295
345.925945375327 207.88890134809876 80.3053654273051
349.5616021954581 208.96243778143088 78.85710089228618
349.14831026424116 210.60684670114009 79.77711208904061
350.9031943767681 210.67558512418464 79.36893821221587
347.654228672863 209.41946666508812 79.82414492255565
344.4302714886091 196.8100344443487 88.868799245726
344.21254851261114 199.04460677971915 84.02850196386083
345.63837557741596 196.115218361596 87.77425218806948
345.71245246496795 197.98142568328777 83.51315418465218
345.92319551433866 196.65941801943958 85.48012544465465
348.1108549984142 196.24463395227272 84.81515229335844
343.20346219293043 200.49441057540517 84.13105489965045
350.3286998746433 197.49631866838297 82.71269289724162
350.19305118474466 196.4396676398611 84.75333580420386
352.7887911423775 198.2085202654505 81.78975385102038
342.07862109061165 202.35104792347587 84.56679420179526
357.2833228050985 196.57842276012664 85.37118600272858
355.1904052233219 198.688911356586 81.73775873595758
357.2006448052123 198.04284738672519 82.63844304065623
359.3316995478879 198.68144362222264 81.28189838895442
356.91067419738215 199.89710245615547 80.38753426476863
341.768307888309 204.53453390413657 84.01415573114852
357.6646731268948 202.21682574063237 78.91056021541563
342.0882863340765 206.4297467101119 84.59239680828689
358.6199752366182 207.09399420492335 78.61302630977865
357.07898876037973 212.00106941785515 79.88577245000874
354.5529868790281 212.41451504269637 79.98582690570751
349.87654790739873 212.23881924478334 80.5020227685431
352.1017678516427 212.52103784409178 80.18652838943848
350.8854015390576 214.06483614734788 81.80849101120153
344.27668621044825 208.50441688969005 82.35147658746459
346.0478935347995 210.23772606672463 81.30192616805692
347.9139812052298 211.47919469946578 80.82009547623592
346.73761666616866 212.27569062581577 82.50521553514719
348.63894493091294 213.3377584810027 82.05427389973052
349.46611536818926 195.51201961452523 86.58625222848092
351.6969192916339 195.76218310705983 86.42924464637181
354.42618751015397 195.9083156681353 86.226697393698
358.1242421286166 196.0738137627005 88.27901701302608
342.13391863615396 200.52989215600624 85.81286313627787
341.08606152619535 203.64718500842721 85.60162267313544
360.4375175390472 196.24473942103367 86.31863473206457
361.2742505351523 198.09202798157168 82.15908111249276
341.4809413811589 205.51827769941806 86.15639779533794
341.3756241353981 207.0281419415838 87.37185000981991
342.000130732422 207.5931545369287 85.94432166169057
359.65635439001284 214.92262678973535 83.08031206365064
355.0182833051212 216.0906841431823 83.3512840467367
353.5951646828952 217.66821960681526 85.32329192331065
352.11976376187675 215.9606486143949 83.43813471003568
342.68389605483026 209.53458114627244 85.76617822301955
342.63576718747623 208.1390534162409 84.12864809516915
343.49064963878465 209.8934660973696 84.09955959469552
349.329276594186 215.34662708393319 83.78951969904084
347.11948592254964 215.45973061748307 85.36938025317019
347.40989308183816 214.06332049254289 83.49036645544126
344.9086131564027 211.0613577919581 83.27127005023839
345.87755543887107 213.09918516701913 84.49892273829991
342.63124283832434 199.27631404447038 87.31811386106679
348.64688599322835 195.04284960267205 88.21985119236965
350.669165382809 195.18879637798688 88.79840165035688
352.95748536296145 195.6128062703603 88.24812533501242
355.2747077192252 195.65461179329938 89.15690526649811
357.46728538801614 195.9254371273869 91.17065195484005
359.6116783608548 195.98925957219703 92.9458080054084
341.0579076622751 202.02526362332586 88.70250102387945
340.97697066190466 203.82078788229518 87.40228582888683
364.2711645643214 196.09225468326798 93.88080491193652
363.4787516657593 196.47832267322477 86.3094702210731
360.89526460527634 217.61299261431458 87.96846109667338
341.09638782840665 205.60180281677052 88.21912889862423
362.40621460772326 216.2196182370956 89.22593318266445
360.0588460149274 218.66237656949332 90.14757885335244
357.6822729918018 219.29689122082993 88.97513754190757
355.13385866879804 219.30119466096386 88.20497025038173
349.0160850948176 220.1826735248483 91.60991966155781
352.2611505758778 218.92075572908212 87.79083673171603
342.1341068301152 208.802804531667 87.78861112915787
342.6289494369633 210.82738958330543 87.27658449691849
344.58662672324397 215.0212900587693 89.30377593405706
346.1816142913059 216.23287687267398 87.78793990933218
347.07304116419385 217.88014737917388 89.47227034479229
348.48361049685974 217.22462369085585 87.16273384847254
343.9380231576661 211.66362306834623 85.61645277852284
345.0564671875101 214.13475787027826 86.68918518049067
350.3795882359229 195.26748256834546 91.49791632697045
352.7290777532473 195.38562273404204 90.59829620713431
344.16208341682955 196.61302827371406 92.96922485593481
354.8109492523151 195.92560173006754 92.3211325681203
345.88471017209616 195.73096396855723 96.71946533735887
342.76036061997064 199.02695148761862 95.54033039948368
342.10710528377643 199.72420847742706 92.31462870246716
343.9782161838303 197.44662778714292 86.94879082127916
346.8868159998484 196.98515640216556 84.1236993124609
357.01147177516714 196.2582620516053 94.05880814187815
356.66750016869355 197.46598995082942 96.65035474895244
341.99767304936415 200.09800440820965 89.034564207334
359.03509821077233 198.87850695761924 97.95900779733932
359.18099493014813 196.85705219862064 95.62814627079727
340.88408522856275 204.05974153883167 89.33539306023111
342.15756615755134 199.33186875064501 90.60446822910738
357.09055852047277 204.17944515470847 99.00105162553851
347.3962432013231 195.49375325553262 86.86945945444143
364.38042059121574 199.29315834961764 98.44722935927985
362.7740358327221 213.9366238489168 98.06894571914154
340.75929826423857 205.86995556777103 90.11364169392373
341.495001495466 207.57288184660632 90.89878455549204
341.34733660887525 207.3148889181365 89.00230529941102
348.01645022279797 195.03288587895605 94.02573691671
343.34865772125306 199.03448533351093 85.48882758529491
354.7999416421753 222.41294117923619 95.83845723288938
346.7743111871883 199.0921373596795 82.00869343202977
342.28094429905536 209.4334993459517 91.372595147395
345.2652401678228 195.73764915361951 91.48678877627043
344.15468386231123 196.7795168273783 90.64500536645443
342.92129130161203 198.4635042944519 93.63884560233483
343.82727401943447 216.606028468169 95.56231939489442
350.3782511338653 216.73061795250575 98.99430940119237
346.6127204580998 219.90153435999807 94.09955011469377
355.9597448795156 221.4263395503788 93.40655065995857
342.00376638420306 208.74807628994202 89.70191790596466
342.90561028155213 211.22908719409082 91.54668183341907
342.6364047453016 210.67452695587917 89.46962527611039
346.2479024742816 195.202502561856 93.1619627280066
343.87702721973284 214.94513128524446 91.8976214819961
344.0980115642428 216.8740296047866 93.41245049221118
345.20456725071983 217.13516159048646 91.08670238030336
346.792616169894 219.2979453170852 91.64299708289731
343.40570010902997 212.9022490847472 90.50987391747888
343.6956673103416 212.54782054464067 88.1362411460839
346.79757267027304 195.14770481195612 90.93720225445418
343.05208545171234 198.13359211220654 91.57652432225578
340.7351565257934 204.28622933788503 91.19570352943158
347.6076001630888 195.74495459887027 97.17650644433313
372.0396465913258 198.45978532999393 83.67613049866685
374.8779216617432 203.87100702993612 85.91601831436203
368.5296796474638 198.56636002274192 80.88971347145184
372.63467137036076 198.45076312367297 96.53168139610793
373.45101475469966 204.71610665177624 81.86981609396238
374.44693839585864 200.05099910471597 87.17312788482701
371.83821204780327 201.2078226860697 98.85982156929528
374.5197912133959 206.4995742243907 89.93490770539492
374.42765458114155 206.9173493583438 88.26821844176301
346.0653903254189 196.83550440006468 98.33395775935955
374.6384215655287 206.01669189997313 91.93259263408665
372.4128902197468 201.13762413375426 80.41177619846479
348.6517603649826 194.93019647232032 90.10292111951325
344.9933116956435 195.81659026728198 95.08349772772108
373.8306225034924 199.03425087165198 92.81208069838927
358.05637532233493 220.04534282906263 91.78157527652313
347.0695821380494 195.30506390806343 88.92757905821144
370.1318776625283 196.86865160937847 93.23147001889363
367.4782731665817 197.12417200577008 96.72389756867699
360.3759113631367 205.28286940790568 78.63932094718012
351.00095855184713 221.26662154629526 92.84080237092154
365.8822874088594 204.4126017978802 98.95349231434909
344.4927885429361 197.86812772191197 84.98990323308705
363.7787950926278 204.33855285742672 78.06032749188596
350.8356840992679 195.6675491541427 95.50301803635422
370.9736299532159 207.47621790792311 81.59449591872506
359.0501844737094 220.31442078635132 96.5097659427142
352.1284746155463 196.30657784862206 97.32059731086379
352.16405760442086 195.65748459248215 93.5107150262981
347.83607358313077 216.02980687653096 99.02736894681532
367.394933370038 209.52811818318358 82.11299973202446
366.71356874255844 211.165540300328 92.93701711677068
362.66289579878384 214.2405437362167 85.31177606183158
354.30662264891185 195.96497095113722 95.47506659430043
366.3234665564463 205.295671588834 77.54061810835876
360.1211870783505 209.05253603274593 79.30096357052574
354.29646669529853 197.65544313863052 97.9276901663618
367.18210559080745 202.87185600597002 77.92897151197334
355.6752274640451 220.39212698923316 90.66326921097665
353.58669400036183 199.97578589186992 98.99846328027347
362.507545001254 215.76845180214454 97.7955246199562
359.5230587385793 200.72441237688497 79.7163688614185
363.8219430188271 202.35029278959507 78.30991666398782
349.45317077843475 218.95769322191944 89.11774409035587
343.8108718153455 213.57513003258902 96.67517829107932
356.13311640375747 199.50436088908586 98.59539082366071
358.37719277927386 217.85531346094103 86.75222922356072
366.1080526620825 212.3062693307432 89.96626970014161
341.5758966182192 200.67386599828248 87.44759617949573
365.70150476383884 203.75482001418806 77.89420197582515
340.84049277630857 202.6908029581212 92.02692186514736
361.6328465120145 210.53993269920102 80.30389232682353
365.7975249552264 210.2030955558019 82.64129076934066
364.2287031598213 210.93495997464666 82.26733453131298
358.238532871949 204.5522339322922 78.36962048306854
355.16533039756087 202.38615961021787 98.9569873940018
356.1786934459826 207.917507595848 78.43778990254062
340.7379882041608 204.25942262007936 93.11729842149276
361.0421294262766 213.42588621816566 98.97250085251177
364.01930804999495 213.76720339712136 94.4229066199849
354.971088819968 219.66813934731837 98.9064534660208
360.91268119797365 212.410594547369 80.9513900959942
343.6417192913867 197.3599237599736 95.17550955557218
359.11166980232696 203.2801077071764 98.98798910839105
354.25913028031533 222.40638805471227 93.7615675157206
348.5974480172675 220.6183659243774 97.11776728440024
350.1809998673117 209.31702972462796 99.04633163505692
351.79794994513037 206.85579677220522 99.08284906866919
362.3015134582757 208.414457274376 79.46957922062788
365.50705509691915 197.8988873849429 82.2064700533929
354.0690036799503 208.3972462368023 99.08962073526835
355.6392104058078 206.23520477562718 99.0298138627878
340.7943893410604 206.09163299731287 92.18746111716388
356.1222183744463 214.14805565860735 81.31985223605017
367.7653315228113 210.80712931898844 85.36877494643385
361.1827268734915 203.82630177057771 98.98649284971391
361.7691891547441 201.57046130942098 79.22889657916205
342.45892778257667 208.28167257732395 95.46708822352404
368.9207130100559 202.0936235932143 78.44725770978786
368.0312215629452 209.99946935287792 83.77446423398784
363.62949393178275 198.21928891671342 81.7291592230123
373.2512471883987 202.77303661834642 81.26700924571445
361.9440645908563 199.17947048465803 98.21932369982159
364.35926705311346 211.84187277986484 83.62563927278967
369.2420788746604 206.89323998049014 79.51784568985842
353.93065765970465 208.52426683572284 78.1296754504262
346.4462829826622 210.14086738293014 99.05387726290066
348.1897816824554 209.71035847943307 99.01674695826169
374.30896350541747 203.8478223022356 83.31788491087283
348.49875046530167 211.58673374081727 99.0813530893076
354.8760834977523 212.12488357776255 99.06677779679883
371.37278753637673 197.1040138142912 88.93232104429968
345.5118630683834 214.32434725325587 98.71997988966855
373.2810991266928 198.92434784194904 84.94953090045453
363.8889129481951 204.67544746039212 98.99769932018552
371.4063052122963 202.58097611455108 79.598531743059
342.86698603920775 210.37337273769018 93.60839434703605
344.606612262136 211.7703407408853 98.44602335583113
361.66845437057043 217.45007982880955 97.27157358232772
374.0655026031219 203.81093045183877 97.15624124242102
368.04792820710736 196.77914558429134 86.97636433618781
359.9780800608689 195.93455219388795 90.22403028575246
357.8186759609899 201.55489970024132 98.97607615258839
363.6698611028642 197.351608263987 96.54975381892152
347.63517129312527 213.6750408598294 98.94958632168078
365.99557641234367 196.16086148094797 93.33817608982189
370.2298611887602 207.809859173456 97.25157054373508
372.21986072989154 204.7963217358021 97.5213438547582
343.2968821061742 212.76179645155182 92.7963967033664
371.25960852000003 197.4557493406387 85.13158795285251
343.40959639907294 214.67628752743235 94.44687403726265
363.82564676944116 200.1880688651918 79.68336028952957
368.93537551821294 208.76306997098527 81.7757362610186
368.2198940023669 201.5359940239736 98.9753283324032
361.0304305258846 213.50964838232062 82.65917761951309
374.67453355202514 200.12952622583197 90.0029755065278
373.7349472175525 206.64242639295588 93.81890791172077
372.4656366198196 207.9688037246203 84.94412808226703
366.178282998325 211.27770976583884 85.01554606021155
373.6690216470482 199.68974748480662 95.59092437928464
367.785182068107 196.53439559767213 92.86666641097436
375.4434728522649 202.41723272816597 88.35548670298327
369.253172823177 210.16701824262492 85.82079490701074
373.41459459264917 202.32057080665027 98.30478288580697
370.9896846675496 198.02440229169466 97.28615961429314
364.4980682536775 213.51682323983692 92.43056286356355
366.15445341445326 211.98363708162793 91.61578623097371
366.65033873922647 206.7100816204681 78.4804771765395
373.30240940605427 207.79437671305686 91.55688841494029
370.56749078203296 208.62530867282229 95.42945413205136
372.67000296685535 197.75800903568083 87.45195828169577
369.88392419040196 196.77190820503975 90.5970274018542
375.1995382346154 201.70303498127137 92.49381712498484
371.89772534244884 197.76031694431722 94.79764823938706
374.5544404289322 201.3737087899233 84.56993941064262
362.7324237098483 213.29480093433307 84.0075046408239
355.92026741681366 208.04228960521658 99.12259937230306
366.7919088920451 196.95210327283624 84.48248305273827
371.43781008217405 209.5799756424978 88.71566233370241
374.05206565962277 205.05086813691747 95.80684204579289
373.71080613574907 206.72112244664342 86.30687769909619
352.36107340887133 195.8529134142387 95.46147991497976
374.9980508865119 204.38111517038146 93.47233402658809
371.9853945370866 205.24895487777076 80.45344798268012
375.18988387484546 205.21972055589387 88.17212829930841
366.1078780990831 197.8679047813031 97.52612986226463
370.2496761420372 198.1860739827931 82.72515893422005
343.2551982452114 212.42752827683282 94.78782168416828
363.8397116204768 214.2301241892167 88.59576787859154
369.95794994190794 196.65071887339056 87.54086692564604
368.40475885155473 209.1396977387858 96.05870827686985
369.883919171219 205.90091175498972 98.68066220671753
370.58435162279267 202.9074221036638 98.9963090596113
366.13338062470507 198.90505352568744 80.57651963392064
366.21668826543686 201.2489223813047 78.55044547663856
342.1873284365647 203.1758840188653 83.2119309108237
367.80640466778857 204.61486493783255 78.10574552673474
363.64005260362376 215.09285079237972 90.88739767680109
368.5577957859433 197.09041635851378 85.11038396025432
364.0684935724677 209.92065674867118 80.72620568100244
362.64566040436944 209.52240173098212 98.9265981097083
370.780068517966 208.84549227691232 83.85366055293146
364.9751052876153 200.78391883814277 98.94047661841552
366.09957648090733 206.31186864995496 98.98799699529748
369.6332900742603 209.7182049610112 93.74400433326025
370.8839910015118 209.6471572822884 90.91731002458185
371.6372290717241 209.07797617950862 86.6566595424385
368.0396434411653 208.10055439518766 98.53785111126318
372.9207031682797 200.0270930571877 82.29827691656719
365.0225242388223 197.19212850185392 83.9383738251776
367.32793613008846 210.3470243647675 94.10992483077162
355.0617860500095 221.52391536740507 97.80095256197862
362.2399770253826 197.27113506411013 84.00620680238754
368.4356657245875 198.15191780168584 98.07891869588543
364.7887872488093 211.27964853536116 95.97597326316992
366.6797434038577 208.6019689602423 80.56615414170743
369.5971933629311 210.29509160974317 88.42181481718711
371.9496970208458 208.56495245623034 93.6794015115431
345.4756363876224 195.8252165092534 89.75110878193416
343.1904148299011 198.2472822206632 89.28222629245543
364.75239398021915 196.1607819703273 88.60465269979632
346.9149177251765 195.35461837079004 95.3094726127873
362.12810796265757 195.9149205192915 88.79659156651029
355.39241516866866 204.385368886254 99.00886204200867
366.9838402881669 209.01769174572607 97.14926482494528
348.81311012778787 195.48152931284554 95.52428708879158
372.6841700400431 199.82179024470915 97.85773767631154
367.4417485996259 196.3808711085908 88.87929178988489
350.4500625119144 197.44802888717373 99.00511656255128
366.5817782887095 199.84907946772432 98.96719172826519
374.0241918602599 200.85899189631448 97.03376938966466
374.7739368406988 202.26724338246035 95.64766044201049
352.38014195784604 198.0875134479117 98.96275316540228
365.6398624459525 212.43008197459875 88.31297595273065
367.3309492114875 211.092940965804 87.03146048551397
365.9486877759002 209.97462918093404 96.01268748426612
367.77064384143165 204.23488817311028 98.95015977392276
366.30036721292845 196.60023076853545 86.30873387908832
363.66001782386394 207.58110253883868 98.80088054549073
368.1544972094771 210.66988295099955 91.88634215330264
369.03752409063594 197.08775391239408 95.50404062934494
372.93481042141445 206.4319560128207 83.26634675568945
364.8803990870529 205.7593958199772 77.91758902139283
362.40506239913776 195.78328033469376 91.71686870458625
366.32579634894125 196.83946705917523 95.20761353166796
367.34391559815447 211.1938071110262 89.63745634589752
372.1035934477957 206.95451653557234 95.94117733540408
365.7851430134611 202.43885706516917 99.1631293341489
372.74983198623914 197.90457608132778 90.12190430840552
359.69049377358687 207.1583924546157 99.09397948043173
367.2619578871156 197.68663640679563 82.78869455905912
365.30182972961643 211.7495932807789 94.16878989045104
370.2503215829997 200.01540660358322 98.96429719993692
352.4883939613339 202.37356690728845 99.02720899327393
363.9852108858375 210.62627662533495 97.4337322914476
365.0622973334153 213.34324328482165 90.30036188583401
365.52228393248333 208.6839744903991 97.89143932920602
362.359161565019 215.39964512091777 86.76071252684613
362.7348065289092 211.81898919749494 82.04202794765925
354.5048655371551 214.56033317433008 99.0531802950334
340.8297411200506 202.69842086213063 93.597903610385
357.41662363388286 205.9050460339207 99.05512154187502
340.97830572352194 203.7219668338257 94.99833151498885
357.2196856117277 221.0889519510622 97.35653613865308
363.9364512433596 209.0946452121699 98.23509460599176
358.36176235341037 209.96588148844816 99.08958251989696
346.7212318513779 205.10225206719696 99.05998247479866
360.4120101015438 208.8628567979978 99.16110390491681
343.4068191691653 198.13981091065253 96.76959001961689
349.33561341731354 205.32520723466203 99.04830298100555
350.1052521586074 202.6884411294987 98.9908142117008
351.47805226594994 204.39671777008712 99.0193338426357
353.6727416895892 204.7414701729132 99.01652190474879
356.49979401979397 214.1795704222883 99.04559171631237
360.43464339545926 219.33053106792838 95.69921305129856
361.09586570093023 197.68939072325938 96.63294283042009
341.34752085075576 206.0465747097553 94.58965527370083
365.8621437339365 212.01581562037228 86.58695595564994
357.61697125955914 215.37145905270026 83.02946773748603
362.4095270162641 211.74046848799358 98.99134072168839
342.8720603357111 207.26414558275505 97.51251597845697
355.77678120805376 218.2777833611457 86.18495242833355
353.49122631508385 221.33866682406665 92.114164906877
363.2090745416935 201.6206645679224 99.00274161674817
361.21658917724386 214.99132232191243 84.55912136165324
344.13083393895124 209.22964306310087 98.43083666832216
357.45660097958046 211.9570208635769 99.09932393472097
347.64669955982055 207.78672776770787 98.95927943725323
360.37646465512154 201.3222305755058 99.01168099864111
353.0394210143607 221.37453209381619 97.75171078187186
351.39382125199336 215.1475840586004 99.01858774942305
357.8660802406046 209.70123073038803 78.85510044344684
358.8766933384783 213.50085334989558 81.41723507187699
361.4397019393578 217.53393918026774 89.69823623645115
359.0775523473081 216.2312680323584 84.6122865919147
353.0981499449376 210.6565591653292 78.92628261194686
352.95822997341565 216.21794104289293 98.98350635634574
357.8348759057182 207.68332134086398 99.05363354764265
359.9865856670495 211.51008651629024 99.13490351641208
373.01501925738506 208.22914723387754 88.89690145566784
362.0351399801122 203.76407938014952 78.52674408494838
357.4559976792226 215.4777116949127 99.06152280655668
350.7199643550791 211.83315946533645 99.07781031336799
363.86839856731837 212.70340635006468 96.24500290705302
358.8808592689085 214.16221466568317 99.0346736980492
355.79424159819445 216.73078853860554 99.04675282647123
346.14557843461046 219.70330159902514 96.646458278232
375.42712037050273 204.09875478182477 90.69923957170812
358.4330143282581 220.7659091364907 94.67387214200994
361.4233239696268 206.5366888423126 98.98030029735719
364.21469151851016 213.11029088910757 86.02058158964061
353.7818340071213 206.5594604716663 99.09524057552068
349.83769827405723 214.08176160410233 98.99982170050541
346.50910960250343 212.31007275878983 99.03136952493692
352.53608386532466 222.1593382595366 94.40818525126674
354.17502220427775 218.80174087736637 86.74083007190742
359.1041586897841 205.51067975786412 98.98969278406379
361.9194288872648 217.1188053323567 91.52919585539848
352.69873478987574 210.60362940100327 98.94520297638086
363.3268332250531 212.27480873254822 97.72455479686812
345.7313956452409 208.5150963160611 99.0809901695436
356.1355882972917 209.7728899423197 99.09171357802944
352.4205306525106 213.51937486018622 99.0119764609183
349.73567457166786 207.32529376726114 98.97293313722457
358.6718815329975 216.8490010950233 99.03380294155136
361.35696531647653 210.41522221363718 99.20514095777051
356.7237279973819 221.71673783324664 95.30430781435021
354.8808545057731 197.3760215625715 83.66956103500927
351.43436909446416 220.31465755799107 90.46191766272247
361.95664313449214 217.43661150423796 94.46591648459842
375.5172649752956 202.01991734637792 90.3922659161708
347.3324317413071 218.65649470092694 98.68248466177832
344.34755168015516 198.57750623900657 98.45166986496925
374.15432205437276 201.91108825564257 82.66441604868352
360.16406776192224 196.06360260783987 88.4111495136016
362.0375502046483 208.12885086884492 98.98799107470914
348.2531477008959 197.0406619131254 98.85451799586232
369.00981989110244 210.5053912595929 90.21924427387522
350.8827406750098 198.44527484047728 81.09052246813188
348.9301149840018 199.06571805523726 80.89897014721778
343.6791478147967 215.18499737726668 96.03442343103637
361.0733923021434 215.68285627500512 99.0016203858383
363.4172941960099 215.53550713257445 93.29935005321643
350.6602521341775 217.1975688891679 85.7012392384702
360.26953713390697 219.05801129989922 93.01732384476232
359.46304669460284 211.30914464969064 79.91345968725706
341.905068400747 200.62069433123952 96.0805503562136
341.1554719755865 202.07762523080964 86.5039656865775
343.184277267914 202.10451935949882 82.82712556295127
341.0163328147015 201.17300760427378 92.9915781884827
345.4637499892756 217.02711181663304 98.8951692097536
360.57075024692995 217.5951334259511 99.00356411686941
354.46080132675587 205.97597541994367 78.17229269637825
345.1151146298629 200.38100444005062 99.0071585950446
356.2787198626941 196.0428813137684 87.26056268712752
345.4986648748745 218.80918156372732 98.25705187930981
346.81880460378255 199.13649673173373 98.9566317687057
360.8083176433342 207.1828617499256 78.919463288792
348.9943997507326 198.9139679609168 98.97017659415954
342.88560815859125 199.63345658379615 97.29898975630748
345.6668174437672 216.66057353765743 89.35968791856381
374.69978707595874 200.5149106661876 94.19299654820313
346.28679714530176 206.12089704024473 79.92135365589326
348.78817722559717 216.5651506367327 85.33622234950806
344.7681175732549 218.53505121815869 94.93595150147372
356.70147980693775 205.89534910057992 78.39730388768712
368.12034484788654 199.87585875923148 79.33584552275993
344.646767314101 217.920449784918 97.04809327850523
342.0019266076708 200.12563848918532 94.2271731685006
350.7356980812795 221.9717022202169 94.35556648410595
374.20621349018705 205.3418005697193 84.6334502334197
363.6824779726944 196.02087118752942 90.10266965751468
342.0778182020788 201.15795509314324 97.741713667855
355.323201965086 217.3525095222839 84.8169717738854
349.77205137195045 195.23405602237884 93.73160274224543
364.5402427292138 207.65315882542276 79.17681430018058
367.64436359302107 196.4107655733318 90.90315217526344
344.42354397511036 196.75967837153073 96.95003813619368
341.9698996261483 206.69648609197827 96.16736420930728
352.1822173238096 208.7936521306864 99.02979602816184
373.8818499291239 198.74899346451616 88.67834368122503
349.7082301073424 196.04119017342109 97.3487479411326
367.96294408886706 206.15773414561008 98.99583307106249
375.09661766027153 201.87885244605212 86.45088745620014
346.5033583288106 201.4846708969761 99.11121470982043
348.9247690862458 221.06302403804878 94.29620746747888
348.316654494722 194.97437783993178 92.24871958807682
344.85502015043875 200.29837957188434 82.53046827561002
348.535166323958 200.89391108937573 98.96657064280826
348.78836092293017 217.6336871138209 98.95550784209378
361.69165150889876 196.34514886330587 94.66922718966674
340.90210589511906 202.80287756418474 90.41937726293847
350.93188719263884 200.05513999579864 99.02621463681747
341.733066712844 208.02388828652627 93.03892697796212
363.02535875789715 215.29991736499784 95.9693037678385
350.82514761054915 220.64489338181232 98.09260871399685
352.7977024042051 222.18159713510474 96.09366131250746
341.2384842241434 201.02818704478213 90.85752944596587
341.1981046563818 201.75234237650946 94.79330106680298
348.04013365853996 219.17294273815926 90.41218419726508
345.33148839081605 218.50259435127444 92.97392206282072
352.39364316013695 196.78433307203443 84.22203730301355
341.33113464754484 202.50537856498948 96.70039506741655
359.61043231566384 219.25388491420284 98.1487097084521
344.1138369372685 215.81492362778454 97.3779655550632
371.81249805878645 197.43302677892413 92.31395397381398
342.3717682061047 203.02270456394461 98.9343428701537
350.9428269908133 221.83801407425062 96.13648701061204
353.9903743722792 217.8882731580486 98.97886454386943
354.17180027554434 199.9001456177742 80.19235650821464
344.5797252266184 204.31476555112226 98.9905168187372
353.59589434075184 220.20514892553976 89.7746532422949
359.9301365308161 203.0201375629742 78.90587443586054
351.54101231297875 202.6719279251401 78.82268239652035
346.06334405028514 203.23194258809676 99.06911584521202
344.64811866691025 202.17560337556597 98.99592218447015
356.751794850904 218.74471164484783 87.49990591975644
361.5536425498545 199.5504867091255 80.59810312627691
347.8724531604069 203.12071507710405 98.94779285731221
353.4566989461272 214.29689044999924 81.58008702177094
343.3504719416916 210.67501068712895 96.37636332272528
347.76228202300877 220.284821142149 92.86416144711531
347.4240514889736 220.65504231500734 95.55815555667985
343.31353979892054 200.64343420552007 98.93811440382233
343.0665674196064 208.90324896127217 97.00551464284528
349.6273021216924 219.07156000488214 98.96728743787439
341.55258751666514 205.05202736844285 96.99357185458503
362.6523958163005 206.09201190784853 78.52712420223381
370.53024302236327 200.09254353888412 80.23348592922531
359.6229255817767 197.22247037690641 83.5032091184704
342.8345868006043 205.5076175188309 98.96109111571221
350.22928497219044 218.03292846774244 87.47590104497513
371.2904130505337 206.50601472617922 97.5516989754216
352.24687891121783 218.86609859424112 98.9164342633042
344.8764361504301 206.84105348610424 98.96901086967858
368.3736442920118 199.83426896026864 98.93316363421897
349.1481645960921 196.7487780457685 83.71118099388539
359.34266739044085 218.59874365667093 88.35717484878963
354.4320340376733 210.22143407904042 99.11089601422988
370.0869811374689 204.37173512126157 78.78470610320488
365.4889356417646 196.16064935991923 91.28386747191851
352.52069335794187 207.07288207555746 77.90633813470684
356.87968841825136 216.9405045762613 84.73459673103488
357.31315756397095 218.8619119317189 98.90722445967333
360.45067315525085 216.53750378670804 86.05198267973358
POLYGONS 1112 4448
3 5 1 0
3 526 10 1
3 1 6 526
3 3 2 526
3 16 5 4
3 7 8 6
3 12 11 522
3 465 13 2
3 14 16 15
3 4 15 16
3 8 7 20
3 8 20 18
3 49 16 14
3 19 16 49
3 7 19 23
3 21 22 20
3 7 23 20
3 20 23 21
3 408 18 22
3 20 22 18
3 30 58 34
3 30 34 461
3 36 440 33
3 11 13 41
3 11 41 39
3 15 40 14
3 40 42 14
3 226 44 45
3 70 49 14
3 70 14 42
3 22 21 46
3 48 532 47
3 47 46 48
3 226 45 532
3 47 532 45
3 49 75 50
3 49 50 19
3 51 52 53
3 19 50 23
3 51 23 50
3 51 50 52
3 51 53 46
3 51 46 21
3 21 23 51
3 48 46 53
3 52 50 75
3 32 55 54
3 514 56 55
3 514 55 32
3 514 440 56
3 440 35 56
3 37 542 35
3 40 62 42
3 63 64 62
3 42 62 64
3 42 64 70
3 66 68 67
3 226 532 66
3 69 70 64
3 102 71 69
3 70 69 71
3 49 70 71
3 49 71 75
3 53 52 74
3 72 53 74
3 72 74 73
3 72 68 48
3 48 53 72
3 102 75 71
3 73 74 76
3 52 76 74
3 78 169 121
3 121 54 78
3 55 80 79
3 55 56 80
3 81 80 56
3 57 82 81
3 254 83 82
3 57 254 82
3 85 118 89
3 85 89 62
3 62 89 63
3 63 89 126
3 63 126 96
3 63 96 64
3 64 96 69
3 69 96 97
3 69 97 102
3 100 101 99
3 99 101 73
3 148 102 97
3 98 99 103
3 98 103 148
3 102 148 103
3 102 103 76
3 103 99 73
3 73 76 103
3 105 181 104
3 79 105 104
3 79 80 105
3 105 107 181
3 105 80 81
3 105 81 107
3 82 113 107
3 81 82 107
3 82 83 113
3 117 114 113
3 83 117 113
3 124 89 118
3 124 118 151
3 125 126 124
3 89 124 126
3 126 125 139
3 126 139 96
3 140 141 131
3 139 125 131
3 139 131 141
3 96 139 141
3 96 141 97
3 145 143 144
3 145 98 143
3 145 146 100
3 147 148 141
3 147 141 140
3 97 141 148
3 143 98 147
3 148 147 98
3 186 189 180
3 107 186 181
3 107 113 186
3 186 113 114
3 186 114 189
3 198 208 192
3 198 192 189
3 373 203 462
3 210 203 373
3 203 210 151
3 151 210 225
3 151 225 124
3 506 389 230
3 242 239 240
3 219 242 240
3 249 230 533
3 263 144 143
3 263 143 261
3 135 144 263
3 140 261 147
3 143 147 261
3 180 345 341
3 180 189 345
3 345 189 192
3 192 505 345
3 366 383 505
3 366 505 192
3 366 192 208
3 515 375 511
3 373 511 375
3 210 373 375
3 382 379 531
3 383 384 382
3 383 382 531
3 382 384 220
3 383 366 384
3 385 384 366
3 220 384 385
3 385 366 208
3 539 389 375
3 539 375 515
3 210 375 389
3 543 393 539
3 379 382 400
3 379 400 547
3 400 240 239
3 219 240 400
3 533 398 250
3 239 250 398
3 527 531 379
3 501 505 383
3 383 531 501
3 523 527 379
3 379 547 523
3 469 466 445
3 341 471 449
3 471 469 449
3 341 505 471
3 341 345 505
3 528 536 466
3 469 497 466
3 497 528 466
3 471 501 469
3 501 497 469
3 505 501 471
3 536 519 485
3 519 515 485
3 523 519 528
3 528 519 536
3 497 527 528
3 527 523 528
3 501 531 497
3 531 527 497
3 543 539 519
3 519 539 515
3 547 543 523
3 523 543 519
3 29 32 54
3 54 121 29
3 389 506 225
3 225 210 389
3 249 261 140
3 140 131 249
3 547 398 393
3 393 543 547
3 33 10 522
3 522 36 33
3 22 46 47
3 47 408 22
3 76 52 75
3 75 102 76
3 131 125 506
3 59 85 62
3 225 506 125
3 125 124 225
3 26 121 169
3 2 12 526
3 526 12 10
3 11 39 522
3 522 39 36
3 30 25 128
3 0 1 452
3 6 1 5
3 5 7 6
3 465 2 3
3 249 506 230
3 249 131 506
3 398 537 393
3 393 537 230
3 398 533 537
3 537 533 230
3 393 491 539
3 539 491 389
3 393 230 491
3 491 230 389
3 4 461 15
3 3 526 6
3 6 8 3
3 10 12 522
3 11 2 13
3 11 12 2
3 514 32 31
3 55 79 54
3 54 79 78
3 452 31 9
3 4 500 461
3 25 500 27
3 4 0 500
3 10 452 1
3 219 436 220
3 220 436 382
3 219 400 436
3 436 400 382
3 400 433 547
3 547 433 398
3 400 239 433
3 433 239 398
3 5 0 4
3 431 243 435
3 242 425 257
3 223 424 224
3 224 424 385
3 223 220 424
3 424 220 385
3 435 415 431
3 435 425 415
3 415 425 242
3 243 551 434
3 434 551 223
3 243 431 551
3 551 431 223
3 47 45 408
3 408 45 17
3 91 406 88
3 88 406 90
3 91 430 406
3 406 430 90
3 435 403 425
3 425 403 136
3 435 409 403
3 403 409 136
3 235 401 116
3 434 399 243
3 399 411 417
3 465 478 13
3 478 207 13
3 555 407 391
3 391 407 65
3 116 388 235
3 117 503 388
3 407 397 65
3 243 399 386
3 386 399 417
3 136 182 425
3 425 182 257
3 411 211 417
3 411 392 211
3 211 392 123
3 418 414 437
3 437 414 417
3 418 386 414
3 414 386 417
3 92 168 91
3 138 421 168
3 3 554 465
3 3 8 554
3 554 8 18
3 410 378 434
3 411 399 378
3 378 399 434
3 503 117 83
3 429 374 120
3 120 374 224
3 429 410 374
3 374 410 224
3 243 372 435
3 418 409 372
3 372 409 435
3 90 370 88
3 422 362 429
3 429 362 410
3 422 380 362
3 362 380 410
3 369 348 367
3 325 87 60
3 120 336 208
3 208 336 385
3 120 224 336
3 336 224 385
3 87 333 335
3 87 350 333
3 329 347 358
3 335 60 87
3 367 327 416
3 416 327 364
3 367 348 327
3 327 348 364
3 346 358 347
3 60 542 325
3 325 542 61
3 348 323 364
3 322 350 87
3 357 273 353
3 323 317 352
3 351 316 369
3 122 315 396
3 396 315 360
3 122 342 315
3 315 342 360
3 318 352 317
3 317 330 318
3 392 313 367
3 342 266 360
3 360 266 349
3 322 87 325
3 349 305 304
3 323 303 317
3 368 346 301
3 301 346 423
3 299 311 363
3 303 323 348
3 122 298 342
3 298 326 342
3 412 293 319
3 329 291 319
3 319 291 412
3 329 318 291
3 291 318 412
3 311 290 363
3 363 290 322
3 311 350 290
3 290 350 322
3 224 289 223
3 223 289 434
3 224 410 289
3 289 410 434
3 340 302 284
3 317 282 330
3 330 282 359
3 317 303 282
3 503 356 86
3 356 553 86
3 330 281 318
3 318 281 412
3 320 337 369
3 369 337 348
3 320 303 337
3 337 303 348
3 312 205 328
3 160 412 281
3 365 277 339
3 365 326 277
3 277 326 353
3 319 275 329
3 329 275 347
3 319 314 275
3 420 274 297
3 319 270 314
3 314 270 354
3 319 293 270
3 270 293 354
3 269 281 330
3 285 295 344
3 344 295 292
3 369 316 320
3 365 305 266
3 266 305 349
3 292 269 359
3 359 269 330
3 277 353 286
3 311 262 302
3 311 299 262
3 292 359 260
3 304 259 320
3 259 303 320
3 553 258 86
3 86 258 357
3 553 273 258
3 258 273 357
3 304 305 260
3 302 262 283
3 283 262 246
3 282 303 259
3 259 359 282
3 116 255 198
3 116 401 255
3 411 378 380
3 380 378 410
3 311 253 350
3 350 253 340
3 311 302 253
3 253 302 340
3 360 247 396
3 247 351 422
3 260 305 276
3 279 352 358
3 321 287 246
3 302 244 284
3 284 244 361
3 302 283 244
3 244 283 361
3 296 178 354
3 354 178 314
3 178 265 314
3 299 541 321
3 392 432 123
3 123 432 416
3 392 367 432
3 432 367 416
3 235 256 122
3 86 357 256
3 57 35 60
3 60 35 542
3 553 333 340
3 340 333 350
3 328 237 280
3 280 237 309
3 386 418 372
3 372 243 386
3 237 328 265
3 455 310 430
3 430 310 90
3 367 377 369
3 369 377 351
3 367 313 377
3 377 313 351
3 248 552 296
3 309 237 552
3 552 237 296
3 423 236 288
3 423 271 236
3 396 235 122
3 396 401 235
3 234 248 296
3 325 233 322
3 264 306 233
3 314 232 275
3 314 265 232
3 352 450 358
3 358 450 329
3 352 318 450
3 450 318 329
3 233 325 61
3 278 364 279
3 279 368 278
3 429 228 422
3 228 401 396
3 347 227 271
3 271 227 232
3 347 275 227
3 227 275 232
3 391 405 226
3 226 405 44
3 236 371 288
3 371 267 288
3 416 507 123
3 417 454 437
3 322 222 363
3 363 222 306
3 322 233 222
3 222 233 306
3 138 217 129
3 129 217 427
3 138 395 217
3 217 395 427
3 391 65 405
3 65 267 405
3 68 532 48
3 68 66 532
3 33 514 31
3 33 440 514
3 267 214 405
3 267 371 214
3 214 371 204
3 541 231 248
3 66 391 226
3 66 555 391
3 36 37 440
3 440 37 35
3 13 207 41
3 207 525 41
3 120 216 429
3 120 255 216
3 216 255 401
3 68 456 67
3 67 456 95
3 355 488 280
3 488 221 312
3 38 542 37
3 38 61 542
3 264 530 229
3 61 38 530
3 458 44 405
3 380 438 411
3 411 438 392
3 380 313 438
3 438 313 392
3 313 448 351
3 351 448 422
3 313 380 448
3 448 380 422
3 351 247 316
3 430 442 455
3 442 387 251
3 335 356 254
3 368 310 278
3 278 310 455
3 455 212 278
3 455 507 212
3 212 507 416
3 525 413 229
3 413 195 229
3 91 457 430
3 457 421 387
3 422 228 247
3 247 228 396
3 129 439 138
3 138 439 421
3 129 376 439
3 439 376 421
3 123 454 211
3 211 454 417
3 256 235 388
3 404 209 17
3 43 207 478
3 43 172 207
3 236 206 371
3 371 206 312
3 236 205 206
3 206 205 312
3 257 426 242
3 242 426 239
3 426 250 239
3 387 516 251
3 223 492 220
3 220 492 219
3 223 431 492
3 492 431 219
3 236 271 205
3 205 271 232
3 371 312 204
3 204 312 221
3 307 195 202
3 368 200 346
3 346 200 358
3 368 279 200
3 200 279 358
3 198 255 208
3 208 255 120
3 271 390 347
3 347 390 346
3 271 423 390
3 390 423 346
3 370 90 301
3 301 423 370
3 67 486 66
3 66 486 555
3 67 394 486
3 486 394 555
3 250 245 197
3 431 415 219
3 219 415 242
3 264 195 307
3 264 229 195
3 228 429 216
3 216 401 228
3 41 194 39
3 39 194 38
3 251 193 507
3 507 193 123
3 251 454 193
3 193 454 123
3 38 37 39
3 37 36 39
3 530 38 194
3 194 229 530
3 93 191 92
3 191 395 138
3 44 458 404
3 204 188 458
3 88 557 199
3 199 557 407
3 557 397 407
3 278 212 364
3 212 416 364
3 307 190 231
3 231 190 309
3 307 202 190
3 190 202 309
3 309 187 280
3 280 187 355
3 309 202 187
3 187 202 355
3 397 185 288
3 288 185 423
3 397 370 185
3 185 370 423
3 352 184 323
3 323 184 364
3 352 279 184
3 184 279 364
3 280 488 328
3 328 488 312
3 298 122 256
3 256 357 298
3 540 470 221
3 232 183 205
3 205 183 328
3 232 265 183
3 183 265 328
3 250 426 245
3 245 426 257
3 182 245 257
3 455 442 507
3 507 442 251
3 296 237 178
3 178 237 265
3 17 209 238
3 238 209 465
3 477 419 137
3 145 473 98
3 98 473 99
3 145 100 473
3 473 100 99
3 204 458 214
3 214 458 405
3 444 218 419
3 196 101 100
3 458 188 404
3 404 17 44
3 44 17 45
3 72 456 68
3 413 176 195
3 355 202 176
3 176 202 195
3 17 238 408
3 408 238 18
3 264 307 306
3 92 529 93
3 93 529 394
3 92 199 529
3 529 199 394
3 61 530 233
3 233 530 264
3 288 267 397
3 397 267 65
3 93 428 95
3 95 428 67
3 93 394 428
3 428 394 67
3 250 197 533
3 441 95 196
3 196 94 441
3 316 174 349
3 349 174 360
3 316 247 174
3 174 247 360
3 395 173 427
3 395 441 173
3 173 441 94
3 470 540 172
3 172 540 413
3 114 117 116
3 117 388 116
3 209 404 43
3 404 188 43
3 189 114 198
3 114 116 198
3 86 256 503
3 503 256 388
3 254 356 83
3 83 356 503
3 320 495 304
3 304 495 349
3 320 316 495
3 495 316 349
3 355 540 488
3 488 540 221
3 209 478 465
3 209 43 478
3 101 476 73
3 73 476 72
3 101 456 476
3 476 456 72
3 229 194 525
3 525 194 41
3 43 470 172
3 43 188 470
3 207 172 525
3 172 413 525
3 355 176 540
3 540 176 413
3 18 238 554
3 554 238 465
3 470 188 221
3 221 188 204
3 199 550 88
3 88 550 91
3 199 92 550
3 550 92 91
3 397 557 370
3 370 557 88
3 394 199 555
3 555 199 407
3 437 556 418
3 376 213 556
3 556 213 418
3 90 310 301
3 301 310 368
3 365 548 326
3 326 548 342
3 365 266 548
3 548 266 342
3 516 376 556
3 556 437 516
3 409 546 136
3 546 213 402
3 430 457 442
3 442 457 387
3 251 464 454
3 454 464 437
3 251 516 464
3 464 516 437
3 129 324 376
3 376 324 213
3 129 402 324
3 324 402 213
3 376 179 421
3 421 179 387
3 376 516 179
3 179 516 387
3 421 457 168
3 168 457 91
3 218 535 419
3 419 535 137
3 218 498 535
3 535 498 137
3 245 182 463
3 144 135 477
3 463 182 444
3 304 545 259
3 259 545 359
3 304 260 545
3 545 260 359
3 92 191 168
3 168 191 138
3 135 480 477
3 477 480 419
3 444 538 218
3 136 546 538
3 137 534 146
3 146 534 94
3 137 498 534
3 534 498 94
3 213 521 418
3 418 521 409
3 213 546 521
3 521 546 409
3 218 520 498
3 245 517 197
3 245 463 517
3 395 524 441
3 395 191 524
3 524 191 93
3 145 513 146
3 146 513 137
3 513 477 137
3 94 512 146
3 146 512 100
3 94 196 512
3 512 196 100
3 462 203 510
3 427 509 129
3 129 509 402
3 427 520 509
3 509 520 402
3 402 508 546
3 218 538 508
3 508 538 546
3 218 508 520
3 520 508 402
3 177 494 338
3 341 449 494
3 152 494 449
3 338 487 177
3 466 536 445
3 445 536 472
3 485 472 536
3 134 109 481
3 511 462 481
3 481 459 511
3 459 472 485
3 373 462 511
3 110 462 510
3 481 110 134
3 481 462 110
3 510 203 504
3 134 106 215
3 149 331 169
3 111 77 128
3 260 252 292
3 292 252 344
3 260 276 252
3 252 276 344
3 115 510 84
3 510 504 84
3 215 109 134
3 215 106 166
3 77 115 201
3 341 494 180
3 180 494 177
3 111 332 77
3 77 332 115
3 128 175 111
3 128 25 175
3 24 111 26
3 326 171 353
3 353 171 357
3 326 298 171
3 171 298 357
3 353 170 286
3 353 273 170
3 170 273 284
3 165 169 78
3 165 149 169
3 106 142 166
3 150 106 134
3 110 119 150
3 152 108 334
3 490 166 108
3 361 268 167
3 167 268 285
3 248 164 541
3 541 164 321
3 248 234 164
3 164 234 321
3 163 295 420
3 420 295 285
3 281 163 160
3 281 269 163
3 449 162 152
3 445 490 162
3 160 161 412
3 412 161 293
3 160 297 161
3 161 297 293
3 334 127 338
3 127 142 499
3 420 160 163
3 420 297 160
3 276 159 339
3 339 159 365
3 276 305 159
3 159 305 365
3 246 158 283
3 274 268 158
3 354 157 296
3 296 157 234
3 354 241 157
3 157 241 234
3 339 156 272
3 272 156 286
3 339 277 156
3 156 277 286
3 34 59 40
3 40 59 62
3 306 155 363
3 541 299 155
3 155 299 363
3 274 154 297
3 287 241 154
3 25 30 500
3 500 30 461
3 106 150 133
3 133 150 332
3 332 24 133
3 292 295 269
3 269 295 163
3 299 153 262
3 262 153 246
3 299 321 153
3 153 321 246
3 338 152 334
3 338 494 152
3 472 381 445
3 445 381 490
3 215 381 109
3 109 381 472
3 339 343 276
3 276 343 344
3 339 272 343
3 343 272 344
3 166 334 108
3 118 504 151
3 151 504 203
3 286 167 272
3 142 127 334
3 297 154 293
3 133 331 132
3 104 165 79
3 79 165 78
3 499 142 149
3 115 119 510
3 166 142 334
3 110 510 119
3 110 150 134
3 177 487 181
3 181 487 104
3 381 215 490
3 490 215 166
3 59 460 85
3 85 460 84
3 58 128 77
3 499 487 127
3 127 487 338
3 500 130 27
3 27 130 9
3 500 0 130
3 169 331 26
3 26 331 24
3 28 121 26
3 28 29 121
3 149 142 132
3 26 111 28
3 142 106 132
3 58 460 34
3 34 460 59
3 487 499 104
3 104 499 165
3 460 201 84
3 84 201 115
3 149 132 331
3 332 119 115
3 332 150 119
3 77 201 58
3 58 201 460
3 84 118 85
3 84 504 118
3 28 175 27
3 27 175 25
3 30 128 58
3 165 499 149
3 27 112 28
3 28 112 29
3 27 9 112
3 112 9 29
3 132 106 133
3 28 111 175
3 445 162 469
3 469 162 449
3 111 24 332
3 511 459 515
3 515 459 485
3 152 162 108
3 108 162 490
3 32 549 31
3 31 549 9
3 32 29 549
3 549 29 9
3 472 459 109
3 109 459 481
3 24 331 133
3 9 130 452
3 452 130 0
3 498 173 94
3 40 308 34
3 34 308 461
3 40 15 308
3 308 15 461
3 533 300 249
3 533 197 300
3 300 197 263
3 181 294 177
3 177 294 180
3 181 186 294
3 294 186 180
3 268 443 285
3 285 443 420
3 268 274 443
3 443 274 420
3 135 517 480
3 480 517 463
3 419 468 444
3 444 468 463
3 419 480 468
3 468 480 463
3 287 158 246
3 60 447 57
3 57 447 254
3 60 335 447
3 447 335 254
3 234 446 321
3 321 446 287
3 234 241 446
3 446 241 287
3 477 513 144
3 144 513 145
3 101 544 456
3 456 544 95
3 101 196 544
3 544 196 95
3 261 249 300
3 300 263 261
3 293 483 354
3 354 483 241
3 293 154 483
3 483 154 241
3 427 482 520
3 520 482 498
3 427 173 482
3 482 173 498
3 197 453 263
3 263 453 135
3 197 517 453
3 453 517 135
3 136 502 182
3 182 502 444
3 136 538 502
3 502 538 444
3 441 524 95
3 95 524 93
3 56 467 81
3 81 467 57
3 56 35 467
3 467 35 57
3 31 451 33
3 33 451 10
3 31 452 451
3 451 452 10
3 7 475 19
3 19 475 16
3 7 5 475
3 475 5 16
3 274 496 154
3 154 496 287
3 274 158 496
3 496 158 287
3 541 479 231
3 541 155 479
3 479 155 306
3 248 231 552
3 552 231 309
3 231 479 307
3 307 479 306
3 361 518 284
3 286 170 518
3 518 170 284
3 283 493 361
3 361 493 268
3 283 158 493
3 493 158 268
3 286 518 167
3 167 518 361
3 340 489 553
3 553 489 273
3 340 284 489
3 489 284 273
3 553 484 333
3 333 484 335
3 553 356 484
3 484 356 335
3 272 474 344
3 344 474 285
3 272 167 474
3 474 167 285
