# vtk DataFile Version 3.0
A great-looking cell
ASCII
DATASET POLYDATA
POINTS 760 double
260.3191813617047 210.52892001611713 45.496602882761565
259.76683250134545 209.83394727344654 41.7854050733512
261.4207486271216 208.46002682170882 41.67011520430394
262.5845908223674 207.67378731959928 43.55690127907609
260.9636332660321 209.44130549097716 43.64335801391879
272.0612498222437 189.9360426671062 46.84525666198784
257.3918981899745 208.90228353779332 62.3551157198521
248.0126006041874 212.224254284139 50.38613288721649
253.7928471165385 203.8020738197894 64.96480915994746
247.66454074007166 212.13212911600888 47.081265487889624
250.7521213866755 213.68958564259603 49.08359946901229
258.4202661029025 197.19146883099594 33.44488163700369
261.82516539372847 205.744611413223 38.50068169488562
254.85085971043887 201.09418138537546 65.9446838750287
251.03750094091444 211.91062062739488 56.55835195617862
262.5645003902872 197.63551805787696 36.30807084273165
263.65634343689857 195.29393244254516 37.56553359532886
265.38313815422674 203.5904186255875 64.34116498191709
247.38335462564208 210.3587295705067 54.49449026652219
243.5924956906872 205.6892830461005 55.98207215585083
250.00335912157993 203.88319978092292 62.27339742847099
252.29873636623572 188.7097303436895 42.67265143637563
262.66848559938853 209.27647806447607 48.08711411960721
248.78514711064133 211.82904836385478 43.43074660262716
259.0660722775847 204.39058122943848 66.1190156408538
243.41273782334608 209.05804206293044 52.56503510787882
256.00715165979324 209.69719067497593 61.92253478394841
247.37844181378256 211.30241785236015 51.77290585661504
244.61380082295398 200.6810769703212 57.50375196159268
251.15932620695295 209.13092187822005 60.72405095614734
247.38586367224997 207.22106328210404 58.44963579431105
241.36747395294634 209.5594967424289 50.34516166878519
260.5294256655663 187.83324294146735 46.60564696412573
251.77901209744178 199.23678319365317 64.54479021087735
245.8146935590949 198.55222690270892 58.86960904833272
246.96138354297548 189.56513280487428 53.96293589058022
256.7130631150796 190.82415234781774 61.84884343941322
257.976246618418 206.10657010174907 35.13867590290864
260.0702383245744 208.86376229112568 61.37619653955751
252.29489993072568 214.04272307397014 48.49431943095081
250.0422421898294 210.7018850045812 37.62311904868581
256.2102725668396 208.02628359333514 34.87102578270783
254.64717648170105 192.89414859394284 34.66331635382836
265.1209690007796 196.33015676767883 65.90789938843558
242.40795036047655 195.0544218895922 48.73207862713045
241.4277919748235 204.11983267292547 54.81137078723708
248.96964562313858 200.36015771955454 62.08075451363173
251.41587208892065 213.71193256055884 47.277249998100764
255.85481285460355 203.29097237534995 65.89421921695188
246.78609620179898 211.6833700649117 44.74099839812399
245.67227644938032 209.64331367542007 53.722095112027844
249.9095857874457 212.48950392227448 53.70900995248178
242.42741008142926 195.37875980133197 38.746709130631444
250.66448601289807 212.08131121652468 42.161919322166284
257.1202596304903 199.60475497292657 66.52002905460357
258.6509007899029 209.40971987088133 61.525982032137655
245.57862930209285 205.90269494704995 57.49958468656358
262.00281975567356 195.80322662459807 36.4275120155167
255.6289382415467 208.0964497300759 63.006646798209864
261.7566224619012 208.11230171123646 61.16609691896288
246.9250110758671 205.13541215013973 59.314786694311046
250.6269679261035 213.3036176195315 52.21850491201905
253.88156378013713 213.18313075096046 56.27039817528204
248.37225793062407 211.35035041562347 53.386479901202804
259.3090905453943 210.77000431309546 43.68499601831383
255.61338897102243 193.06078336706352 63.43223927778946
253.37645501936012 207.61282549099985 62.7263459063136
269.4037520986649 196.8805387771434 61.945677516075285
267.9326887279101 201.46015046600988 62.007433709937395
247.87198443312835 209.79115443721628 56.13706365908091
248.91754061279238 212.61756738202692 48.90469602489107
254.23418068092687 212.5839699550925 57.87800315268198
252.21202141793685 212.96005646030858 55.65957553038779
257.3505910297529 210.2005724714039 60.93889676667779
260.6468087347688 207.53822091499785 62.67082233673761
257.1649017242876 205.28178991670848 65.1589129852586
260.0784700688862 208.65779194418536 39.86101323667658
247.43443842458726 194.5581269474528 60.04063573308852
260.290861286942 207.13273773557728 38.07580432811392
268.9351024968327 201.10029046791146 53.3980834136382
250.8510999835855 212.42582212031778 55.05681924359987
267.9158490270441 203.04013649577118 52.76985998361744
261.49486520869044 204.35406020942813 36.97559220934775
265.35519086990996 195.20372601023743 38.772312281516996
262.49343011998184 206.96984223256337 41.61800719531539
236.18836944414647 199.8934219280735 47.56737450766786
264.5168577418864 203.26736761301515 40.026646987425615
265.2883203524851 205.08132634077518 43.57191715603314
235.3891124713426 203.58379811588924 40.83415475408842
264.00468972566324 206.46354678384571 44.11045998182055
255.04679031326236 205.3679570602948 64.87924506002285
243.72925923237213 210.81994406159615 48.090578269111624
263.50493953232416 208.1903759729009 46.98501063828858
264.65862191840887 207.05968457403662 46.90536371462745
252.49368345509455 214.02537042167654 50.03776894915752
257.83816205790805 199.7796869514842 32.26255145783731
260.7490171661738 210.07413732145952 58.527124955549034
263.58332037693 209.00361260733231 54.31460951747094
259.9562433016648 212.0025423848457 54.22570000016581
255.91889960559902 212.90641294788674 57.141322158249075
239.19312964286874 198.72908273328295 37.95105299141369
261.5096843200095 204.08082186665953 66.04377856886754
245.86862709839215 211.1678106098522 47.9144008396361
262.4393611902889 206.56029651857978 62.604444694345894
244.55464110775932 208.0487371840025 55.02326255716881
270.26252120810125 199.07677413923992 52.63616456048205
259.4516690345533 206.90567860469707 63.53045026421892
263.6309165377861 208.533321567103 56.59973507554855
270.33280191833853 186.62200899959402 53.36642804536805
267.3632837781322 201.34848046234555 42.62983960550633
257.6644905066648 207.0888897905305 63.583274142020976
255.17843586911727 188.94219852796135 43.12329170423615
246.33703071183123 208.12155416802423 56.70858647884103
266.92051835201346 203.01840094697047 62.02660536457213
258.13144408110617 212.02253762669926 56.950160460409386
263.86445400446195 202.33188638534412 66.5971953597195
251.20381543214629 213.70132018048136 50.8320294278976
258.1427127617215 196.63741267954393 66.09005608293845
240.04547922268534 209.32512138314993 40.19390202091887
270.2417151111629 188.56378333000777 46.279755753107516
258.4944195529661 213.14137549658463 53.76243582253896
251.9454411858566 196.744441297114 30.111721123583095
243.96882242964884 192.05497286964982 42.05929165115667
260.6209553521873 187.59989786438567 59.406321246672775
259.1241844623071 193.09405463297026 64.9877305309102
248.44336395375578 191.0794796945405 36.00908342500674
249.77179745840036 188.181618581633 46.05773830546104
245.79382575547353 189.50287111438206 46.002797413205265
244.94425908297023 210.54724907872426 40.07554977377404
267.10819315054727 203.69495112336494 59.73922737213453
257.1889274057482 213.03107311646593 55.24542317892291
248.94318986020522 204.36746581856082 29.762133417838054
264.9632673729061 205.9770222938736 60.44700806656943
243.66486673322638 192.49684039007252 45.834155518338186
268.9550121678564 201.13849006824185 56.740020921412665
241.82950824052415 205.0034845487133 34.05987037588444
260.91759032013687 205.89069132523633 64.19123345314581
257.0347674995022 197.9809190252022 32.0403411653334
265.96196833656455 199.103046301407 65.95701830513663
242.79844550045746 195.90089688750376 36.807663119085156
236.10764180974635 204.2135350245711 39.113937865891444
258.41362845597746 208.51831168982227 38.08662961412967
259.53928566409024 205.87313962112404 36.188526878392594
264.8238163338343 207.8357248070934 54.9533275104892
235.82700645601534 205.591333786468 41.404768407277565
238.14866014027743 202.0267819736705 51.76163356902244
255.4925196288476 202.82880766466062 30.61942444287126
264.44380541897806 207.8094343481136 50.963619909211594
257.6758438749625 207.67203129856264 35.975322882844786
235.92046783682483 201.61295252915488 40.30879701200663
265.77163333241674 205.7204346300514 57.63337070236411
256.4203709680903 200.26995072146516 30.870768670022585
264.59104819865456 205.5136743967791 62.40653383422935
258.01938249195416 188.02222449538777 52.05698169127339
265.0946249095968 200.75018246938077 66.92261048941565
237.91637908784705 200.87993744212085 37.531730785255505
265.9516944930592 206.2260895387913 51.694026329749455
267.29839219661227 204.39765179112598 51.20624294168567
234.77891072664326 201.5891470392714 43.97512933894484
268.5587675249786 199.65109197348298 61.57057248540719
256.52670392938256 209.98901035488345 38.38055971316743
262.71066576492876 193.41813181355724 37.952908913815236
256.68151439644606 206.57702565468674 33.91425840869983
265.2113364769033 206.7657936913358 56.37163932682952
258.40081729251085 204.60882776381635 34.06787063008673
263.047458017745 199.5481739525425 36.5231781881829
253.21999746290777 198.33577248629206 29.6797448809249
266.9012899374917 204.4399068011293 57.83019111928875
239.2546162703908 197.989539293497 50.68297780916551
265.8431947322508 201.4843204628482 40.56258835143231
261.5401293845209 193.0373160987194 65.71051109371122
242.08015057651022 206.94385870342745 54.16611661574535
268.49382897486714 202.33776106623634 55.28923791303777
267.5683953767097 202.81210842575348 46.2614266385641
266.4315970485711 204.883150011108 45.527128478146096
237.69271122968937 207.94162894746026 49.277574354014234
265.8985653726716 205.28276517765087 59.22806026352478
269.3150684106332 199.72124910352673 58.474212036359205
234.87616910953955 201.17108909847627 46.67709032288073
238.09157490281711 208.77934929695698 42.175146618671086
240.84549801520936 208.10765798831392 52.45802271534534
265.8373267108641 204.32235148388162 62.52801061853151
239.67538566327707 209.9299164569261 44.30627693524043
238.13017909569544 197.92225194452618 46.62964362911339
251.1614677811033 207.54017359252958 31.92788222287799
236.9098957295008 201.44571454051368 50.20220343149232
238.88479019484694 197.38621175569878 44.91431139379251
236.90598317832374 205.98384435854837 39.646095032642165
264.11936643622795 197.15200693501774 37.35173402555065
265.7179982943619 205.9277153503678 46.71927275220083
271.3108614254615 197.2733535010462 46.07003872188481
246.642438009424 199.97818896346473 30.3085699458395
236.82412086127505 207.19943831910456 42.17404228425187
248.0831098484635 196.33171373896334 31.158295053253777
235.4155619324803 205.68140566391386 45.656989106672484
267.25053769792436 204.2777607087418 54.61862869449038
240.51479943923803 197.01025059743912 39.16789623541013
238.61684391628398 206.19055916673676 37.061252626088965
266.79537093618666 188.99616238236092 44.019484069833446
235.74844066942626 200.7903623976652 42.28494515888189
257.4829718055334 188.1222715814911 50.1723006757334
258.159639916099 202.2760588459007 66.91749931079778
263.34192904960474 209.0446730159183 52.26155457212548
262.11596187617675 189.85720539733236 42.07021889771171
271.7228135378889 196.19699091834548 57.6489184339633
264.8132775571227 207.8133199347205 53.06909846533058
271.4610313834204 193.30688618045298 59.70073139946808
263.55126176780703 207.08232073898836 60.776106586650165
246.89200888804785 209.7345556179246 36.106809188727134
261.1130493301998 210.91900620037217 54.487000300858895
265.68077777380825 189.4770567435787 62.33050390581707
271.60826556940833 187.54707399707567 52.50067154819286
245.3278002073749 195.42638024408507 33.94634749182392
268.3206747698652 187.96197779894885 46.14823190222007
252.8698512400626 201.77416963036342 64.94344157812995
246.9167713833951 210.54771321822466 53.038881374558116
247.2994242011274 211.94558912718327 48.8676165217414
255.98262398245745 188.3178926618109 46.97334903860113
242.2963148371542 210.42479851976114 42.276522116864285
241.8428121057138 199.1710713489784 35.10061633243813
243.75706624316763 192.47795328447626 47.98979414917383
251.0557200432468 195.54838369295385 63.202787686169906
268.9863654878997 186.6623331812949 49.536008474591505
246.16297840484114 211.15898104272728 49.99737286932461
271.4731838909707 188.18832362306003 57.27763055260838
250.19154988174225 189.37436940053175 39.020520888968576
248.81319497120896 208.2022372082874 59.24085741778281
272.0053801397327 188.1586491859577 54.088674784028115
236.99055165562123 199.0669713632542 41.672139292332176
254.66010141519408 205.452745182727 31.245367869259265
266.8911290430012 204.84707814996784 52.90674480659293
261.77023798696723 186.70230142844284 48.827975957087894
249.4341319393112 187.86662581012425 50.44131672102213
259.9886324806573 201.03606725285948 34.224522986911104
254.39772531916503 209.3557665457502 61.77793305018011
258.8504421406837 211.76321703781917 45.34075372870352
253.52817784447973 210.36274070158578 60.697539288765896
248.9751461297178 209.253353457518 34.46486066907586
272.926699421538 195.24355589645774 53.93386987605155
263.0696190488946 209.1617302329285 50.17291833735046
254.2943975366353 188.27470065712433 47.97117769816275
258.2397253176193 209.88250477335654 40.125211586906275
271.6292489937783 190.6888530255854 59.69144069238846
273.1390813765859 190.58387221677833 56.902352453036144
273.2883986484644 191.18547864558846 49.572709704412745
239.354940339808 202.59859045023694 53.32032162270406
268.95940547688195 185.95376017392124 54.996427720332456
243.99482340263717 210.2530054785232 50.12949264752416
255.04498584767433 188.46760549819274 45.51076675925012
240.77137047136685 206.03603205834233 35.32572696676261
269.36456794885396 186.15529650433191 52.00872064463677
268.00823401967676 186.12109165297892 50.91802241929532
260.88712942534517 198.2677038442417 35.09840530723383
255.32557966283292 210.71635865217945 60.40329564863299
244.37075940046915 208.20127795840963 34.51828521000826
273.40104809030674 190.36552893822403 54.55195334619414
259.39662094187617 199.0249030400597 33.587089643034574
270.7334838506532 187.176120146108 55.96838016057275
271.8281328852242 189.5702524025958 58.284939866371566
243.55829149063604 209.75219579557788 38.152840216493836
250.01892844015842 206.1454909306767 30.809902514616308
270.41815217461584 198.74876873052563 46.777743333915296
259.8846228218667 187.28233471130375 51.70861034164922
256.47396910454677 190.57552982315312 39.16467314391103
259.70124987457797 211.78413219931463 46.981240403401955
251.99712311502333 193.87704235516878 32.88861095967014
260.49359121994024 189.77789994971172 63.68715879673501
242.95486312526057 195.27907607643647 51.48762831694487
242.49476156329004 201.60513958545047 55.676726847048485
249.29149986844678 193.12929555090267 61.10572678658893
266.8909510299929 199.71700907403044 40.7351089990758
259.3186805654894 188.56965304692753 44.84925044334266
246.66281815461267 193.0460126818719 34.841643089486524
251.9340462076953 191.7469318172843 34.91580272136546
260.9036445986456 211.23954450225395 52.833514428291934
262.7092542847215 194.48052163811326 65.98670843853596
251.9656569877041 208.37112232589763 33.182545738266626
237.9614984122405 208.8290608856338 44.0750349647022
271.00518463757317 197.65694139021466 56.457168130658594
258.97347505049436 208.15139049198953 62.511247380365326
255.6464324969111 191.90575886752706 36.140212138440845
244.75547531748018 190.76952409348564 42.49915550350185
257.9123758698709 192.10491798283454 37.625067911664296
247.04997421020983 204.96951694638003 30.684430848799497
264.5458957453479 206.92016912659142 58.60378103875921
266.8201470061096 193.24145880099397 63.628121338289596
247.72127396124134 207.12131036359992 32.06624379100192
260.990949317143 191.6723052851912 39.26624308346248
268.15020691776033 201.74402626681479 60.30430550533112
242.83494247092173 206.49481313002093 34.08318332672937
241.04447421375568 197.7098568826249 51.84493575055778
240.35973528338195 207.41062101399856 36.63520510139238
242.49773344595252 194.2161137904018 45.84036140842052
250.189893517807 209.59188150577123 59.13899276695392
247.76926094858408 192.46952662430763 59.58884065157133
244.01061679423472 193.33619239692894 38.9517797056159
259.3464461729999 187.50240446373743 49.58820670427691
272.02000623841724 194.65567243055455 58.653511133161196
261.4524254157614 186.97299554265717 56.900059590631805
257.46529132303715 213.43291403034348 49.68530386449957
272.5825506543189 189.20997012608242 51.879578387522585
242.76075332109883 201.12456399078883 33.43257026421152
255.17825573395905 213.42478211084588 54.770856894310256
273.4229234056289 194.02715543477007 48.674566331763025
260.2517124899632 190.24209346414995 41.29963669381692
253.75855547652017 203.90253234173775 30.379103178621033
245.17300173742447 209.41338415831822 36.473856101188204
258.2702468088009 190.16669953331663 41.17324212111038
244.162700212375 193.57297918056904 53.37413317548933
248.43722995239563 209.98959211821278 35.81870490325881
270.0595421982168 197.0186428305646 42.3048904022891
241.90590161396872 209.40614303369335 38.09426291189373
245.00958222211221 192.60068887315475 54.49252770506122
268.5852007132073 198.56154967312918 42.16403275514848
244.34883215768554 203.56157251399387 57.25769516187475
255.40117498887605 188.2762262094347 53.396170361131674
250.66742092844066 200.2189835615007 29.079393063403675
250.2221153791561 191.04286742512477 35.2350653588651
250.26036119398532 195.62113393052502 30.818481536884267
267.5916632964862 201.94792108202665 44.49109355387667
242.29376578085993 208.35249892108627 36.31209673134645
266.488478840287 185.39588656230995 55.17002419020375
271.17495172776995 192.25854486800708 43.25081856026262
264.4367722446421 197.9977479921516 66.92869158066452
269.5339014400734 193.4494931579637 41.57601114603487
234.57060270780156 203.01712063417165 45.51917036205671
273.353585653882 192.58659000814728 56.03599513347249
246.25523555103942 195.01547112240272 58.97605420537821
255.77235324481612 209.20060344955644 36.106907840365004
256.4436754262866 190.00299577859352 40.872875137534635
264.2750863860551 186.0218188437988 49.67385751831863
264.69548847582155 185.40417243446535 54.18531867470675
252.67089151798626 201.8473784818083 29.26552456765237
265.5785503958798 185.41599692948907 52.26407096094579
268.96287897185823 200.95237969537 47.94876427044073
251.88828547176414 203.8502265792634 63.93580011272069
256.4976372563762 211.0761274880046 40.67775058048282
247.46485102779084 196.06683444005807 60.77887309691535
261.9351489559949 210.2527184497489 51.527920745298196
243.77745203540798 196.09006706752047 54.334505432863594
256.5953652757505 201.79145679836284 31.299262823302666
251.03411433606797 189.94799988038517 37.010321969022776
272.2925500535834 192.12838287588494 58.49611564652512
260.62996139056736 211.54729140135558 50.894191084043634
267.53359584732345 195.32717552994689 63.95834402284921
250.88802581917264 203.54646654721793 29.37885980618727
254.41139675501864 208.22139602277545 33.85995221070588
252.96770826516217 206.6259297257889 31.476149794620163
248.76419467885398 211.4485285737124 40.14864212109428
270.4543358222462 197.6778158916493 44.284648930099635
240.93995176955954 195.95951594929096 41.22818425487567
247.50817616691916 203.79023423632893 59.97800824390041
263.6743403708341 199.71717014188732 67.57237805187573
257.81529705081107 211.85781273736794 43.873705168385804
252.20691491951783 188.0046367343722 48.04397503981715
263.1416142227552 205.08956657364195 64.3106027315785
270.6318940415729 198.33956839149656 54.55060698335844
255.8245857237429 198.6332777522098 30.847892436904992
257.7291298588972 194.04996497148872 65.05106947294956
246.2770961782703 193.44261838473017 58.05780978137933
258.0632613793407 210.9841454671798 42.08921903536079
266.2646809796912 185.76165957178253 50.26015168937325
263.14191600483247 186.044827659052 53.461003744527865
266.2973197880609 189.81536888874507 42.31532749170795
254.81613783339117 212.03466317420603 41.6026393720578
258.31389497429166 191.0450986473998 39.26621390534327
245.64644230138936 204.3810749873513 58.41165716095677
260.1695710620263 205.19342215376074 65.41093005851178
255.11709081824498 212.7873778843093 43.62582240439378
264.14706162203663 189.39697002666418 42.837986026152585
252.8148064636231 211.8255649375298 40.633513109768835
253.27983316259255 205.6893941580362 64.02184575605405
247.03284988952933 210.45790739133764 38.027601946951116
248.63151582978202 204.68399511592565 60.55159563718814
247.00788834038968 208.72793771345613 34.260503414450866
244.46184178737863 190.79108308294843 45.66376025877592
247.53349701116582 188.58038136679698 51.860770203226565
244.55273192071655 200.14697079565147 31.782638937045625
238.39050851487164 203.22338408254524 36.52945046701209
246.20171878300405 190.57071725603615 39.3458601080148
269.58981338695656 199.88043549349945 55.357733436589
266.49992241193655 205.37721096550854 49.62895043129828
247.70070391266495 197.91067557214544 61.00338153943572
249.26462110743097 211.36715866301543 55.29801890011483
246.5449905303474 196.32598684888742 59.65962970844914
267.6360000385123 189.8414074193319 61.60325758334547
257.74672445609644 188.1614483406828 55.011997026386055
268.19055128552776 185.65702296353032 53.098172331607316
245.62202634215623 210.27377796606442 51.849000806872475
239.6180466349022 196.82920560154318 43.38699229769789
239.9059103327755 209.84837883087337 42.22882854007333
249.53080242358044 190.96941779025826 59.68116780049679
258.96329697189765 200.45104361328168 67.3364224923496
270.39047491597483 199.00553820667776 49.53898762075696
265.34047922560393 199.57799184167152 38.687723329097025
256.459314480608 201.58243409160613 66.42265518543007
269.9706212673355 189.6673029559945 44.54281556136054
266.74869740054197 203.2754522031596 44.07276279545835
259.19139382714786 210.9861104341852 58.20702254272333
261.7146252502286 186.45093954860067 51.259957837256444
256.47874111243584 211.9024405699517 42.672496601094565
267.6101017305427 203.22417831455476 49.24098537945743
254.29071812529165 202.52169751326994 65.51421303659593
265.37075353401883 206.77022807425124 49.84492593169565
270.2328822478578 187.91149239285068 58.20751558599075
272.0939382192362 197.30235572535878 50.924318642692995
268.82340691056817 201.33889643425587 50.941111600716816
260.9343491761339 209.28058145245294 60.07966963043219
242.56070945655713 198.5831154789235 54.49645720786393
260.3930883252707 211.22592829598042 56.390635508354585
269.0330584522942 194.83926804179904 62.31977786026372
260.37371315880296 203.6208716649864 34.99433964924393
246.63940349924047 189.80329956042365 41.11003223265843
251.6681617678407 213.15961418953276 53.84204971138795
247.15312211836317 200.46292701463793 60.145300348506396
259.4178679235274 194.96183236502995 35.49881518820929
259.6043684183123 212.46889799262445 52.31165585733594
256.2663520345048 197.650923300713 65.8739997337175
253.47308033105077 211.58153248097815 59.23556018103773
246.21298447110317 202.68113891567984 59.13914805528852
251.4613953915104 211.25317502016821 58.36705225129637
253.2754058363708 200.16815936589757 65.72358426312503
253.32830310215277 194.43111550304053 63.68293984112234
237.042665284253 200.01814540702279 39.79560242403794
257.1546412342097 208.94318469679644 37.078439375365136
255.80259313455073 188.46675016432883 55.22924513229384
253.9505828877367 188.3024121130235 55.708539453970175
271.9618664809901 194.06601054234412 44.148095216259826
273.8417133099518 193.06085275233363 50.57513675358036
271.6448667741889 191.10084793888356 44.98743237177522
256.5582271171059 212.58425442421583 44.19322322264615
254.06565310472607 190.15057602036794 59.965000800625944
245.92930434171103 191.51033518938578 55.73365989793106
261.5917646397885 188.0244427130877 61.509052409524664
247.6717289245178 188.71634341161982 46.44863772871082
263.3943683060704 188.0049342552257 61.21982371710399
264.8503815360141 192.44878704842517 39.23598441401061
264.2877509441088 207.92135233411574 48.72465906998148
272.31555831881127 188.85774238644316 56.22424832397116
265.65153689044126 206.4281521728659 48.22111308735285
235.7904169162972 203.78156335555934 49.92225381183684
242.82267704791573 203.78273631390735 56.09616279095316
263.3417829497826 186.13848802679124 57.724103229409174
258.7006018638121 188.30914611380405 57.77367762822905
248.1836402771692 188.36325490603699 53.42186934456035
267.33518919208666 201.0876396164115 63.890779054607975
260.32596509912804 196.3229254383129 67.04450401309317
272.00732183711375 196.6764792020636 47.98205046422597
273.19023389981527 194.84136216360633 51.77670278089626
256.83434374328726 194.6912556569345 33.83436407518513
266.4089782737938 205.189241005215 56.16456678784427
251.40696155637096 207.77538188186767 61.79707860960843
235.10951395592105 202.2647512256947 48.186155000355896
238.09577494771295 198.84822213612364 49.37767555009598
241.17792544531082 200.98186776194285 34.54099539529376
239.36925121202734 209.6600339766162 46.137091205583
262.24321833398864 210.17448055881468 53.487708346195745
257.52654612041033 203.89113796471815 66.16653573378288
252.29402308547137 188.02944824244514 50.38555328199004
265.5285408580514 186.08243705892448 58.23579661272727
249.5023740886453 189.19694598798162 41.06112347579317
268.2278389658064 191.04567450122238 42.21329015998302
263.05054389258464 204.09054873938493 38.4382345563438
236.4685211182269 202.4782618094012 38.63193997823313
254.46589212612542 198.6019044309743 65.56010753104204
239.78110135137393 200.6310324490694 35.85352134671968
242.67104550096855 210.16710615149054 49.06214773505828
247.05132140072848 211.3812219065831 41.898248970313524
254.13794038408784 189.52363100108167 41.082499796623665
253.25053123487845 196.0205547246907 31.17314123155092
243.29231418365336 196.7086760043852 35.078511528359215
245.48471026886412 190.0483482306226 47.91374099172621
244.58225912055752 196.0196390087014 56.052149492501805
261.4295192576072 195.3682807239155 66.98041273527316
238.88645663681567 207.7195041340927 50.908934153300635
240.94854167523465 203.22332577382167 34.76271316856092
237.07151514659893 204.4828213904657 38.0118616409602
263.700604739389 185.5244793527162 55.884496693633
253.99546823182575 188.17671205185695 51.915111859604366
250.89806570876186 197.67167693503694 29.64756002782833
253.15419402473188 212.67040325447795 42.88408602810146
249.65317569896584 208.27559110602354 32.979613703989855
247.5328973246413 188.67832450914685 49.21555181888031
252.09182623012154 188.21226934639438 45.80773970393305
236.71928410937122 199.06113027259934 45.80089559264587
242.79626876574443 193.94708984396257 43.71163852013889
267.8964081692494 203.00483643537746 51.041106809012106
265.91569810272415 204.67303189704012 61.074609836372986
251.90274468151026 190.8067292882691 60.52651764686478
269.9518070505144 187.81476899590805 48.17119578204756
244.56154152350328 190.64780446785892 43.979110191918366
258.34798160725995 189.9573592843807 62.91359060729862
268.44434217539293 186.39086908176822 57.16021295347474
249.46065097451623 192.28361482730233 33.63982867377397
271.94114949245096 195.6548610227985 45.34457816394675
273.73880841098344 192.19404332901482 54.28556413192317
248.56710739912054 198.02468144146587 29.993251115476788
244.31839422408424 197.94381317198128 56.4210375141637
252.6583047004339 189.59379829695823 59.08956677660868
235.4334784203535 200.32232822148023 45.09057739183501
262.88114926214513 191.8853461160234 64.59070243825923
256.1127243278249 188.70670081219458 56.86362462215905
257.28357701673104 192.90897836242334 36.029376657254126
265.18973278048355 193.7268824081514 64.63684579319194
243.33549776911582 203.98496911172035 32.772671395792784
255.13503132030016 206.4122843204786 32.29321532320408
247.66078668171596 194.48959439388244 32.192833578497094
240.31394143599877 196.2590465163273 45.783352463307125
270.69006361429297 191.95054468654868 60.52434762944855
249.30935010476963 188.5242760985303 44.02893347879797
244.72057186705192 191.55629978685104 40.37479216507514
262.16314843106807 209.97109457643944 55.43138561980126
261.34337182604327 210.73552776926434 47.38027808106678
251.99228843359404 205.2739956263077 30.09743245547648
244.43177701912205 210.78201348128096 43.016907917816475
246.16755101742595 189.7068702134936 52.44129548234361
251.58866177102828 205.9729398568118 62.88522869519551
247.57390151091204 189.761882619665 56.07081889980343
254.63930843901187 210.5139716987975 37.468038298406746
263.79545660503527 201.95771946598234 37.940259358394314
260.75162845005383 205.75770170489477 37.48487809375587
273.69364485733445 192.05037076943333 52.37752355633024
271.9471589591261 196.908602570591 53.77707366290387
248.97497948770499 212.38448022371026 52.0324144812355
248.74636132498387 188.43538112897312 54.935167660778355
268.9585529361573 195.84850067421038 40.85396662447931
253.26388628821056 209.92302245859247 35.84221731798015
248.12562257839133 189.84752513228224 38.583665028032925
244.97678066295867 206.9820400718316 56.32468496540948
252.15135780609882 189.36515959092026 39.64405667032448
270.78352298704516 195.18908040768525 42.95647657580799
252.8055156384429 196.7655098830297 64.54123187433599
238.94286684663717 200.0458597131108 51.695124778686576
246.25924954004967 211.41027213545604 46.42493606472694
252.80889368251113 187.96363922759136 53.26286087120316
250.18452728001824 212.5061597453252 44.23305692197987
249.85724959197984 193.81718281741874 32.09674557882818
270.61067728559743 196.90048029391875 59.24569543678683
252.6753401809633 212.43194867196001 57.4321948062311
259.20301666115716 212.72403769937947 50.30249176960355
262.02882475653456 202.0450561094772 36.0137257145595
244.5637549753919 210.92578105940672 45.94896057369894
250.96860631641772 211.60490860805572 39.68491021339435
249.70444691298428 210.5296718819023 57.22430610694924
251.5833466139567 192.78065383420696 62.45491548006162
244.1487865662103 192.48221048474437 50.8288931275361
244.87877717399664 194.12264320097745 55.734651512773446
253.71297449933402 213.42985730118 45.19911284923624
265.79946683851773 191.41762699061536 63.18355563348345
251.7545748619682 212.99636026494306 44.34296879333747
241.8393891078776 210.32469553355585 44.781433436471126
245.1718775217316 206.54273178547527 32.55305409190245
245.0048082585586 204.63973743386515 31.44744127407378
250.69247371720311 213.10555788459357 45.749470125730944
243.6772380137201 192.31823738203758 43.883473985846706
263.3506322169869 186.77518588529594 47.215526200901095
249.62196944654514 213.25829770589974 50.614118729290645
254.68090821671828 197.16435570675083 30.608779286851224
237.22208561592382 203.98677217465672 51.9544806378672
270.1538847950473 189.5469156295869 60.21574580939191
245.383733347145 195.89800009113273 57.748491049593596
254.18724046278317 189.25163158143368 58.06500955996816
266.8538238217986 197.38737133299165 39.927687389941745
250.50784432418837 191.8186689544007 61.05196303151699
248.21558774868586 202.24543446746077 29.832707164873636
259.8603565061599 198.59556088810882 67.44943825401073
270.48452295291804 194.48649777103873 60.867164476727936
247.8211429725102 188.87376765639638 42.45921549755778
241.46473356049853 197.34432877825307 37.003687192785584
254.64458675575665 211.05705918929507 39.488416513611355
248.95903839060028 212.4600908083491 45.41504762033585
252.65191636022325 209.21957935834936 34.35960214872051
263.57210488014255 207.3742566130616 45.489027835150054
253.04796241867766 213.84409372008548 47.15906619054426
272.8611414699371 194.96638647467006 46.8465972782869
241.7523729559016 196.3154862841819 50.19107871439424
252.08136940920375 188.69936743290125 57.55210629985801
237.9347764847011 206.03434402088 51.62296146648481
245.5849027101392 190.05920049212955 50.69124795594289
268.5181960511671 192.70715938576438 62.324718728394444
240.33107280776912 196.9899410247792 48.80826349830271
239.10262307237383 209.17057296185416 48.6758710809345
252.58963803782518 210.97085723438892 38.15303134625126
263.2527155274104 188.07898567205575 45.1279756671968
243.50771549535847 199.71674692233842 56.006132077680434
259.2589344436291 210.17701695578108 60.021472560812605
258.8757556422081 212.41363998496104 55.38205566818333
259.93437538310576 203.1355513500696 66.91391261255522
237.3720477923957 198.46364461615875 43.83676040737804
251.04480969397042 189.52599944136446 59.07401495779648
255.4948658970812 188.2925181436653 50.619204446196406
253.78678422161255 214.09314977357013 48.7987019042567
265.55863735038713 187.42181017698604 46.07559450418331
236.30714231372582 207.02731510261745 44.446559259589016
254.58608809749438 194.63829552192897 32.74626244975361
249.91737872976546 197.96491016877044 62.91965296917003
249.5191654161608 202.09580882469376 62.12913761690811
253.96467590192245 191.0107407631289 36.66809957930794
257.44897585329005 212.70098844628177 45.45627282800974
248.82561280237505 211.67040601018795 41.91452740695692
245.87589704442 191.7835835378394 37.67602447415301
235.16173731438846 205.1418824591306 43.26624405383882
257.0294324488118 213.58938420568114 47.35807521526718
262.4687847915889 197.13844323615973 67.2870408759213
244.9813092311456 210.71852766302928 49.011221293783635
246.37103533969236 209.17825474227698 55.1946845263786
240.47748416587504 198.87343279683517 36.36843084736239
242.97577697751845 193.69295103538528 41.55475786807851
265.0817192476024 186.4396916463428 47.772837727492444
256.15980667335964 213.95628990733772 51.20245815828857
242.92599270369595 210.54983624328946 46.62809312949943
268.0401162864694 187.60923357770002 59.674027940209236
254.109819457227 191.55778279508644 61.718363617360446
251.27753506699466 197.34283733573554 63.96457655530415
252.13973400917982 213.44976850280077 45.95944723397438
243.68588375809705 198.48086179816326 33.30840838472241
260.9674713969026 201.29530731291976 67.39300696283131
251.68466358364154 210.32890155434077 36.65645245221149
258.9300024379404 189.06905472431416 60.969687999528
267.8154624957559 198.23238127444452 63.89247380977942
271.86462372593246 188.89974404878714 49.421465518568326
266.1405907410094 201.6924542175004 66.08181672294553
269.49438488671393 198.29764893037196 60.31579319510247
250.11731597487835 188.02647930591317 48.03968047897893
265.5551670167868 197.3216395751471 38.565812121645756
265.71493329706334 203.19578391790228 42.108946385892104
256.32322760570406 191.43800143254046 37.716881151636194
272.5366393803869 195.1514582602058 56.02629480296257
267.3508653286157 193.34093147357535 40.134308370662545
261.69892986451174 210.52342797569332 49.4855963699626
244.56973382542765 191.15799950966925 49.36218192595735
264.55351793118564 204.68491594255886 41.68913462124642
256.62652259746045 213.65715853536344 53.254057760798695
267.5744354992599 203.8411526554874 56.34871187004931
255.27920699520755 212.08181678762477 58.907015271732696
260.0940574758704 194.26341449421273 66.12356521229901
256.26513948148283 189.4817890458669 59.47997035694065
243.40681121865364 210.53740776800868 41.34155499511439
258.543509668816 212.84014165228757 46.587931497122305
266.0491911767781 206.2473388397246 54.261608538944735
250.03866138030227 194.1673871532994 62.373473751606575
263.2345321504617 205.53031588871548 40.337899519455526
273.46213309981056 193.74634736454766 54.09191597844506
258.24597017162574 191.73262939320543 64.02190964613455
259.3258034769185 202.9597431702915 33.939052358140486
256.30869256405055 204.36868622515695 31.848396512890123
259.69892218809 192.8554724836798 37.43304993871574
239.44319009473588 205.78174569741157 53.06959892624554
262.14786697575687 186.34544337863423 55.04227032037249
258.7727077732833 212.82308289185855 48.2911942119469
268.2479981833257 202.51795974814715 57.838822197692274
249.72937917191854 213.01942531391416 47.261006149002384
260.2270309658759 211.71219070191057 48.88677041448704
262.9010440024506 192.031833057263 39.1591205446082
262.84207667843873 203.26183827996815 37.13247629971184
262.49705614252554 208.62362876457908 59.03498375168736
254.69597380532338 200.98449591068828 30.08936368037965
245.994109824193 197.36071490127725 31.85187711356528
272.63264273854656 192.96997922768807 45.81232766147574
265.3362261161294 187.9009541623263 60.99737259539829
255.92306852439017 196.45872757631045 31.893549396940106
254.86487321351046 213.90782639135094 47.166285614417845
261.04979492488434 194.1489626046368 36.70920806099377
245.1914971161621 202.57627653179412 30.706397771485296
252.98904266245896 190.0662128682923 38.04519570242893
248.21932645461527 202.5922786101675 60.97160824881228
266.6960877441652 204.85584302812717 47.59334042631919
255.46143602221844 195.86595871027308 64.93637536506735
241.5562398224611 195.18341545214648 43.5821270974676
270.4051413633812 187.28977410589414 50.94269169285585
266.6999440251734 197.22261160542647 65.03431486910866
262.1912774253892 209.0997407182843 45.779789664734906
253.60742220344258 192.7687727847596 63.074373409701046
250.0522010082231 206.16482043020753 61.34697344695006
247.4947149900788 190.98262846021152 57.95062534376102
252.83695848786965 200.32384174504983 29.421208953646588
257.9818385367415 213.3945945548571 51.76359693008342
238.69349723345636 197.85983810677948 40.969359098491275
257.62479181591436 188.44654513023417 45.97134477979736
263.6514105195578 185.89895266354517 51.66099618893778
240.12737718420487 208.51514500857922 38.31992919014318
248.5552243031645 206.64158545345387 59.99645428464187
254.5942124706373 206.8647750905337 63.98291385384021
248.32503701806382 208.9938003928265 57.83761916944616
263.6384438332156 189.3500539717488 62.67736334417687
245.1391466138362 210.24259361946764 38.11903876831648
243.35061816618654 193.84416306225685 49.74567126549955
253.65511722706586 188.56269077063942 44.27619111548878
243.67795268501598 201.91585248748106 31.906056167763126
250.09296574065053 207.91387814563473 60.333435766020706
262.9957075945824 190.97606071704197 40.58479124360554
261.72770860305906 199.1557527244119 68.11985507961832
239.61723177652803 204.69524108229703 35.82648226377552
264.9312794655872 188.3981629632252 44.47469524899649
267.30172660816595 195.45445395858764 39.62040370197414
250.6490316660196 201.59160523484923 63.440004915579586
253.32944060279306 213.73390456422354 54.260999605192296
259.6048143382063 187.6820324823329 55.89789115921436
254.6838550668255 190.16300877164534 38.97874538818963
244.47627989864864 196.9007911995734 33.44959050659395
235.29851518672265 204.9493869102239 47.85156086041861
257.2792032658635 211.47157075714796 59.0469074635923
256.0110113177067 206.5496239988491 64.10451760845886
258.21693493584945 202.45805390915214 32.79412268463095
263.7829332392936 206.15936279536515 42.450582600858034
242.5788803666555 196.91157502397417 53.039524052471805
262.9898606963274 186.9515009913147 59.555969045226014
252.61401525639917 213.9228564587136 52.07926607632473
259.0737146735316 205.80934914973392 64.68387629743484
236.816148089618 206.19102894496982 49.96244623927017
246.95781331908248 210.93899370018772 40.04506016119731
260.3978631805157 192.29495815982943 64.84890125985649
251.93493463062944 210.49048754156675 60.16216457628535
261.08799327025025 188.94407849380696 43.67569457568124
267.0794898204458 186.64628704135967 48.51623466549742
238.32860219812477 207.44516561769512 38.729866038390206
249.52942670007437 189.19606792115243 57.37789237468058
240.75434843313047 200.3686845074063 53.72257655081925
261.587291222111 200.2019562991457 35.33484292119307
244.14193613441915 194.33034999832134 36.45683242373596
254.26546083791263 214.07730152645433 50.66514017466172
273.19472233448204 191.96427487368283 47.62465104086046
272.9356517487777 193.7144033180976 57.43613642126736
263.6725893466044 204.1141574715206 65.6828253207339
254.70862974540327 214.01491926813384 52.683232801519566
264.9666717538207 201.619277558219 39.25971248510719
259.02772679860175 207.3676460826371 37.04021374895879
252.55544447912905 209.32542660207767 61.58813671933143
241.43439466570763 195.67351044863148 47.27739276250978
268.8119079270589 200.37944996079815 44.91137486926927
255.31797905198144 190.6319793755218 60.65827136020356
248.40432085577737 200.08146964875644 29.46892038136786
258.626817491926 188.04905224066803 47.66722679361599
250.18636140724664 199.7956857882622 63.40642107255332
261.86056953158226 209.66911417038298 57.19649752461004
234.88370388222359 202.79956502976486 43.13479470063535
264.9993252081008 206.20371584106718 45.36801300380407
260.186307780606 196.5729439970026 35.16113147699967
260.49903810129194 187.21232861458122 53.914031112869786
265.74648584421817 190.9256383843948 40.961713589887154
241.59010285339417 209.99435548789432 47.671513102214156
256.4710155114876 188.89127260443792 44.48231118933048
269.467742000977 190.8801613982808 61.52340226032504
250.83627731317713 209.66345961208702 35.0320825945218
258.0769929963376 189.3097921590223 43.201503682389266
255.81600031741604 213.28944260896435 45.469101926963425
245.80532559181037 200.61550375591756 59.04257234010552
241.02041237497096 202.1790738322469 54.36501709235424
241.98600357811142 209.97465875929484 40.041944722409326
249.9887263884656 187.82243345543733 52.81654665045534
236.99968522158161 207.6559530351629 47.05838468453457
256.9746933867376 188.12797269486805 48.426815814681326
272.9814867667632 195.8692006607961 49.80967675996514
238.31387386842772 208.48230529046455 40.35364216517039
245.32003595016144 191.29640001027676 53.09096341875936
246.2228455364514 189.42371901052417 43.983581917103876
248.79992459441573 195.57134254213668 61.85426599848125
255.6393197716806 214.03482200353267 49.148506881363836
261.73662673640194 207.24792950053808 39.91310087364721
251.15533757804167 188.00358655180895 55.35854853626912
POLYGONS 1516 6064
3 4 0 671
3 4 64 0
3 1 4 2
3 4 3 2
3 64 4 1
3 1 2 76
3 758 78 76
3 2 84 758
3 2 3 84
3 84 3 704
3 3 572 89
3 92 437 93
3 64 235 0
3 0 235 264
3 76 241 1
3 64 1 360
3 64 353 235
3 439 93 437
3 598 235 353
3 368 547 745
3 430 598 353
3 430 368 745
3 539 416 343
3 241 360 1
3 368 430 400
3 400 364 368
3 360 400 353
3 602 745 661
3 649 638 602
3 602 638 598
3 299 649 602
3 336 400 360
3 360 241 336
3 430 353 400
3 602 598 745
3 745 598 430
3 758 76 2
3 638 264 235
3 381 403 156
3 274 343 416
3 299 757 609
3 299 602 757
3 757 602 661
3 353 64 360
3 598 638 235
3 209 274 98
3 299 539 649
3 264 638 649
3 512 264 652
3 84 704 641
3 86 641 631
3 631 641 704
3 512 671 0
3 671 92 572
3 89 736 87
3 416 539 676
3 676 539 299
3 239 22 629
3 652 649 539
3 652 264 649
3 343 652 539
3 93 572 92
3 437 239 147
3 239 202 147
3 381 666 439
3 173 397 174
3 671 22 92
3 512 0 264
3 437 22 239
3 22 512 629
3 343 274 338
3 629 343 338
3 93 439 189
3 437 92 22
3 22 671 512
3 512 652 629
3 629 652 343
3 437 147 403
3 666 381 401
3 381 157 401
3 156 157 381
3 172 134 380
3 380 134 177
3 172 650 134
3 134 650 177
3 207 132 284
3 207 152 132
3 172 633 650
3 650 633 167
3 633 450 167
3 205 639 156
3 174 666 173
3 666 401 173
3 96 655 734
3 174 736 189
3 189 736 93
3 724 632 609
3 407 59 655
3 632 120 676
3 394 188 165
3 163 284 150
3 150 284 176
3 284 655 207
3 655 59 207
3 177 288 159
3 177 650 288
3 86 625 169
3 87 397 625
3 632 130 120
3 511 409 734
3 734 409 96
3 59 38 74
3 585 55 38
3 629 338 239
3 114 586 130
3 143 107 163
3 143 97 107
3 73 55 585
3 284 132 176
3 163 150 450
3 150 167 450
3 205 156 147
3 147 156 403
3 167 129 650
3 650 129 288
3 150 176 167
3 176 129 167
3 114 130 99
3 103 152 207
3 152 487 132
3 132 487 176
3 487 129 176
3 129 113 288
3 456 511 97
3 701 114 99
3 107 511 734
3 98 120 586
3 586 120 130
3 202 239 338
3 97 143 205
3 416 98 274
3 416 120 98
3 585 407 96
3 96 407 655
3 409 398 96
3 338 456 202
3 202 456 97
3 114 409 586
3 586 409 98
3 701 398 114
3 439 437 403
3 302 632 724
3 381 439 403
3 676 120 416
3 450 195 639
3 279 106 74
3 284 163 107
3 736 174 87
3 174 397 87
3 205 147 202
3 195 172 81
3 97 205 202
3 98 409 209
3 284 107 655
3 157 486 401
3 401 486 406
3 157 81 486
3 486 81 406
3 401 334 173
3 173 334 729
3 401 406 334
3 380 79 172
3 406 81 79
3 79 81 172
3 136 74 106
3 136 103 74
3 143 639 205
3 288 68 159
3 159 68 445
3 288 113 68
3 68 113 445
3 631 87 625
3 625 86 631
3 274 456 338
3 274 209 456
3 397 109 625
3 625 109 169
3 701 585 398
3 398 585 96
3 72 538 62
3 409 114 398
3 74 103 59
3 59 103 207
3 6 58 110
3 585 38 407
3 407 38 59
3 172 195 633
3 633 195 450
3 106 279 110
3 110 279 6
3 156 230 157
3 195 81 230
3 230 81 157
3 209 409 511
3 6 279 55
3 585 701 73
3 349 313 729
3 313 109 729
3 107 97 511
3 87 704 89
3 87 631 704
3 93 736 572
3 572 736 89
3 209 511 456
3 189 666 174
3 189 439 666
3 4 671 3
3 3 671 572
3 75 702 90
3 110 708 106
3 3 89 704
3 368 480 547
3 480 549 547
3 538 418 71
3 720 591 94
3 701 634 253
3 99 71 634
3 90 48 75
3 553 651 47
3 47 651 10
3 58 234 66
3 66 234 727
3 328 41 346
3 346 41 162
3 328 148 41
3 41 148 162
3 47 39 573
3 632 302 130
3 302 99 130
3 61 707 116
3 55 279 38
3 38 279 74
3 549 614 547
3 547 614 573
3 614 47 573
3 116 556 61
3 370 480 364
3 364 480 368
3 26 73 253
3 253 73 701
3 547 661 745
3 547 573 661
3 702 110 58
3 58 26 234
3 414 665 419
3 414 46 665
3 171 104 25
3 25 104 50
3 106 708 136
3 655 107 734
3 56 19 314
3 19 104 171
3 268 28 314
3 28 419 314
3 113 17 445
3 188 15 165
3 165 15 252
3 188 57 15
3 15 57 252
3 148 37 162
3 162 37 164
3 148 142 37
3 37 142 164
3 72 14 538
3 14 383 543
3 91 102 541
3 234 236 727
3 253 418 236
3 519 394 165
3 758 12 78
3 91 610 740
3 740 610 550
3 91 541 610
3 610 541 550
3 49 23 467
3 591 39 94
3 161 16 83
3 83 16 188
3 161 57 16
3 16 57 188
3 651 70 10
3 24 708 75
3 8 48 90
3 171 647 45
3 26 6 73
3 26 58 6
3 6 55 73
3 609 757 720
3 720 757 591
3 757 661 591
3 177 278 380
3 177 537 278
3 406 79 105
3 105 79 380
3 370 53 480
3 480 53 549
3 62 71 99
3 467 514 49
3 550 541 514
3 514 541 49
3 71 418 634
3 634 418 253
3 523 63 51
3 61 523 51
3 61 556 523
3 116 94 10
3 373 20 673
3 673 20 516
3 70 7 556
3 556 7 523
3 683 543 69
3 7 223 27
3 195 230 639
3 639 230 156
3 61 51 413
3 348 40 372
3 116 10 556
3 556 10 70
3 720 724 609
3 27 215 63
3 50 18 215
3 215 18 63
3 18 383 63
3 72 413 80
3 80 413 51
3 62 696 72
3 696 413 72
3 14 72 80
3 80 383 14
3 63 383 51
3 99 634 701
3 165 540 519
3 639 163 450
3 639 143 163
3 609 632 676
3 712 29 727
3 78 520 142
3 142 520 82
3 78 12 520
3 520 12 82
3 419 366 314
3 314 366 56
3 419 60 366
3 366 60 56
3 138 619 445
3 445 619 159
3 619 67 159
3 676 299 609
3 71 62 538
3 86 462 641
3 82 12 462
3 462 12 641
3 543 383 69
3 69 383 18
3 54 117 565
3 45 19 171
3 689 681 673
3 616 115 101
3 75 110 702
3 75 708 110
3 673 681 373
3 214 695 33
3 566 537 67
3 487 113 129
3 148 424 141
3 141 424 160
3 148 328 424
3 424 328 160
3 160 241 141
3 241 76 141
3 516 451 673
3 128 514 467
3 553 570 651
3 49 9 570
3 160 569 336
3 420 293 712
3 543 420 14
3 14 420 538
3 159 622 177
3 177 622 537
3 159 67 622
3 622 67 537
3 101 587 616
3 616 587 201
3 101 24 587
3 587 24 201
3 201 457 48
3 48 457 75
3 201 24 457
3 457 24 75
3 562 624 394
3 394 624 188
3 562 83 624
3 624 83 188
3 51 383 80
3 18 605 69
3 18 50 605
3 605 50 104
3 223 388 27
3 50 215 388
3 388 215 27
3 223 604 247
3 247 604 91
3 223 102 604
3 604 102 91
3 169 270 394
3 394 270 562
3 169 109 270
3 236 712 727
3 293 226 689
3 226 683 30
3 70 216 7
3 70 9 216
3 216 9 102
3 113 181 17
3 17 181 152
3 113 487 181
3 181 487 152
3 78 141 76
3 414 34 382
3 519 462 86
3 109 319 729
3 729 319 173
3 109 397 319
3 319 397 173
3 420 712 418
3 393 406 105
3 414 382 46
3 641 758 84
3 641 12 758
3 112 69 605
3 605 104 112
3 247 388 223
3 689 29 293
3 293 29 712
3 31 25 247
3 65 612 36
3 544 488 612
3 756 77 269
3 46 382 595
3 595 382 756
3 595 756 221
3 60 30 56
3 30 112 56
3 63 523 27
3 523 7 27
3 545 578 754
3 541 533 49
3 49 533 9
3 541 102 533
3 533 102 9
3 673 451 689
3 689 451 29
3 7 216 223
3 223 216 102
3 253 234 26
3 253 236 234
3 169 725 86
3 86 725 519
3 169 394 725
3 725 394 519
3 23 49 570
3 233 718 252
3 252 718 165
3 233 540 718
3 718 540 165
3 467 710 128
3 128 710 372
3 467 348 710
3 710 348 372
3 683 293 543
3 50 388 25
3 25 388 247
3 69 112 683
3 683 112 30
3 371 8 90
3 36 643 65
3 91 466 247
3 247 466 31
3 91 740 466
3 466 740 31
3 82 654 540
3 540 654 519
3 82 462 654
3 654 462 519
3 544 563 488
3 488 563 391
3 544 269 563
3 563 269 391
3 266 618 433
3 432 754 35
3 565 392 54
3 54 392 201
3 565 616 392
3 392 616 201
3 34 384 382
3 34 560 384
3 359 560 546
3 8 335 214
3 20 695 335
3 335 695 214
3 344 67 619
3 471 630 220
3 220 630 545
3 471 578 630
3 630 578 545
3 545 308 267
3 267 308 339
3 308 546 339
3 545 686 220
3 220 686 44
3 545 267 686
3 686 267 44
3 36 636 618
3 618 636 443
3 636 501 443
3 77 294 269
3 269 294 391
3 294 674 391
3 292 220 44
3 252 256 233
3 233 256 95
3 252 11 256
3 256 11 95
3 240 483 248
3 58 682 702
3 702 682 90
3 682 371 90
3 344 670 43
3 43 670 138
3 344 619 670
3 670 619 138
3 164 645 162
3 667 422 65
3 422 221 544
3 432 674 359
3 359 546 432
3 689 226 681
3 681 226 30
3 101 355 136
3 17 152 355
3 643 358 65
3 635 117 358
3 665 20 373
3 349 494 530
3 708 367 136
3 136 367 101
3 708 24 367
3 367 24 101
3 66 516 371
3 66 451 516
3 497 560 34
3 350 52 607
3 382 337 756
3 756 337 77
3 382 384 337
3 337 384 77
3 406 393 334
3 560 327 384
3 384 327 77
3 560 359 327
3 327 359 77
3 20 335 516
3 293 420 543
3 348 542 40
3 370 582 542
3 542 582 40
3 464 54 13
3 28 497 34
3 266 491 618
3 618 491 36
3 266 643 491
3 491 643 36
3 226 293 683
3 54 417 117
3 117 417 667
3 54 464 417
3 417 464 667
3 328 518 160
3 582 569 518
3 518 569 160
3 749 444 376
3 376 444 35
3 749 524 444
3 444 524 35
3 136 355 103
3 103 355 152
3 240 354 483
3 483 354 623
3 240 458 354
3 354 458 623
3 616 352 115
3 667 464 531
3 531 464 33
3 560 472 546
3 546 472 339
3 560 497 472
3 472 497 339
3 707 94 116
3 635 446 117
3 117 446 565
3 446 603 565
3 141 726 148
3 148 726 142
3 141 78 726
3 726 78 142
3 17 723 115
3 115 723 101
3 17 355 723
3 723 355 101
3 315 590 153
3 590 458 240
3 749 232 458
3 458 232 623
3 749 376 232
3 53 599 23
3 23 599 467
3 53 348 599
3 599 348 467
3 346 526 328
3 48 402 13
3 13 402 214
3 48 8 402
3 402 8 214
3 471 482 578
3 482 376 578
3 364 569 370
3 370 569 582
3 220 375 471
3 162 505 346
3 346 505 347
3 162 645 505
3 516 335 371
3 371 335 8
3 35 517 432
3 432 517 674
3 35 524 517
3 371 682 66
3 66 682 58
3 95 703 233
3 645 164 703
3 756 640 221
3 221 640 544
3 756 269 640
3 640 269 544
3 754 308 545
3 370 542 53
3 53 542 348
3 53 535 549
3 549 535 553
3 53 23 535
3 314 441 268
3 268 441 45
3 314 19 441
3 441 19 45
3 82 411 142
3 142 411 164
3 82 540 411
3 166 656 357
3 313 525 562
3 497 408 339
3 61 413 707
3 707 413 696
3 46 733 695
3 695 733 33
3 46 595 733
3 733 595 33
3 674 716 391
3 336 241 160
3 65 358 667
3 667 358 117
3 749 759 524
3 674 294 359
3 359 294 77
3 517 524 716
3 716 674 517
3 339 705 267
3 267 705 290
3 339 408 705
3 705 408 290
3 573 591 661
3 573 39 591
3 268 584 28
3 28 584 497
3 268 408 584
3 584 408 497
3 47 10 39
3 10 94 39
3 28 746 419
3 419 746 414
3 28 34 746
3 746 34 414
3 47 614 553
3 553 614 549
3 419 351 60
3 60 351 373
3 419 665 351
3 351 665 373
3 738 399 362
3 400 336 364
3 336 569 364
3 391 589 488
3 391 716 589
3 589 716 576
3 298 123 443
3 443 123 618
3 123 433 618
3 153 386 315
3 153 738 386
3 501 386 443
3 612 488 431
3 433 684 266
3 548 500 684
3 684 500 266
3 233 411 540
3 29 451 727
3 727 451 66
3 603 275 43
3 328 526 518
3 518 526 582
3 422 667 531
3 531 221 422
3 712 236 418
3 550 455 740
3 277 750 455
3 56 528 19
3 19 528 104
3 56 112 528
3 528 112 104
3 464 421 33
3 33 421 214
3 464 13 421
3 421 13 214
3 221 613 595
3 595 613 33
3 221 531 613
3 613 531 33
3 558 245 647
3 647 245 45
3 115 621 17
3 17 621 445
3 621 138 445
3 290 575 267
3 267 575 44
3 290 580 575
3 575 580 44
3 501 561 426
3 268 717 408
3 717 290 408
3 488 498 431
3 488 589 498
3 498 589 576
3 420 418 538
3 201 395 54
3 54 395 13
3 201 48 395
3 395 48 13
3 65 672 612
3 612 672 544
3 65 422 672
3 672 422 544
3 70 651 9
3 651 570 9
3 62 99 302
3 111 329 744
3 628 324 461
3 628 525 324
3 324 525 530
3 138 323 43
3 43 323 603
3 138 352 323
3 323 352 603
3 483 509 21
3 509 434 755
3 548 385 579
3 21 468 111
3 21 529 468
3 468 529 698
3 524 759 716
3 716 759 576
3 36 730 636
3 636 730 431
3 36 612 730
3 730 612 431
3 266 711 643
3 266 500 711
3 458 534 749
3 315 426 534
3 443 697 298
3 298 697 738
3 443 386 697
3 697 386 738
3 678 741 744
3 744 741 111
3 678 248 741
3 741 248 111
3 111 687 21
3 21 687 483
3 111 248 687
3 687 248 483
3 60 681 30
3 60 373 681
3 43 503 344
3 503 500 548
3 21 460 529
3 344 410 67
3 67 410 566
3 344 579 410
3 410 579 566
3 315 425 426
3 426 425 501
3 315 386 425
3 425 386 501
3 461 739 628
3 739 369 690
3 553 535 570
3 570 535 23
3 20 596 695
3 695 596 46
3 20 665 596
3 596 665 46
3 426 576 759
3 426 561 576
3 492 611 459
3 611 659 459
3 749 534 759
3 759 534 426
3 623 482 434
3 434 482 471
3 579 508 566
3 522 405 105
3 522 448 405
3 659 706 459
3 578 515 754
3 754 515 35
3 578 376 515
3 515 376 35
3 459 321 492
3 459 477 321
3 385 659 611
3 611 559 385
3 546 312 432
3 432 312 754
3 546 308 312
3 312 308 754
3 387 321 333
3 431 561 636
3 636 561 501
3 431 498 561
3 561 498 576
3 362 648 738
3 738 648 298
3 362 477 648
3 648 477 298
3 698 597 626
3 628 436 83
3 83 436 161
3 590 240 751
3 32 583 555
3 32 713 583
3 583 713 369
3 315 478 590
3 590 478 458
3 315 534 478
3 478 534 458
3 696 62 302
3 372 40 309
3 309 40 743
3 304 713 744
3 333 331 362
3 362 331 477
3 333 321 331
3 331 321 477
3 525 310 530
3 530 310 349
3 525 313 310
3 310 313 349
3 461 322 396
3 707 724 720
3 720 94 707
3 696 302 724
3 566 297 537
3 714 608 592
3 592 608 555
3 714 330 608
3 608 330 555
3 707 696 724
3 507 728 580
3 580 728 44
3 507 292 728
3 728 292 44
3 600 295 719
3 719 295 52
3 600 510 295
3 161 287 646
3 646 287 365
3 287 304 365
3 344 285 579
3 579 285 548
3 344 503 285
3 285 503 548
3 645 703 340
3 340 703 95
3 663 283 564
3 365 282 646
3 646 282 502
3 365 626 282
3 282 626 502
3 502 280 42
3 42 280 597
3 502 626 280
3 280 626 597
3 278 627 522
3 347 276 346
3 276 481 743
3 346 571 526
3 526 571 743
3 346 276 571
3 571 276 743
3 105 405 393
3 405 447 393
3 500 503 275
3 275 503 43
3 502 415 646
3 719 272 600
3 272 506 493
3 529 664 698
3 698 664 597
3 529 341 664
3 664 341 597
3 713 271 744
3 744 271 678
3 713 32 271
3 271 32 678
3 755 281 412
3 281 510 412
3 698 263 329
3 329 263 365
3 698 626 263
3 263 626 365
3 744 307 304
3 304 307 365
3 744 329 307
3 307 329 365
3 729 261 349
3 729 334 261
3 261 334 393
3 504 289 551
3 42 273 265
3 265 273 493
3 42 597 273
3 448 642 521
3 627 326 642
3 42 449 502
3 449 660 11
3 164 644 703
3 703 644 233
3 164 411 644
3 644 411 233
3 657 191 496
3 663 564 191
3 481 286 374
3 374 286 551
3 286 283 551
3 627 722 326
3 326 722 342
3 627 297 722
3 722 297 342
3 320 259 306
3 259 748 128
3 460 21 509
3 551 254 374
3 374 254 306
3 551 289 254
3 251 387 333
3 492 404 611
3 611 404 559
3 404 258 559
3 526 617 582
3 582 617 40
3 526 743 617
3 617 743 40
3 387 246 321
3 321 246 492
3 246 257 492
3 300 521 255
3 521 300 244
3 714 361 330
3 330 361 333
3 714 251 361
3 361 251 333
3 289 249 320
3 342 243 326
3 342 258 243
3 243 258 438
3 559 242 508
3 508 242 342
3 559 258 242
3 242 258 342
3 627 238 522
3 522 238 448
3 627 642 238
3 238 642 448
3 374 237 481
3 481 237 743
3 374 309 237
3 237 309 743
3 326 495 642
3 642 495 521
3 326 255 495
3 495 255 521
3 492 257 404
3 387 250 108
3 108 250 669
3 387 251 250
3 250 251 669
3 645 229 505
3 505 229 347
3 645 305 229
3 229 305 347
3 301 475 504
3 399 231 330
3 330 231 555
3 399 296 231
3 257 246 108
3 108 246 387
3 324 530 322
3 322 461 324
3 227 255 438
3 255 227 300
3 108 227 257
3 227 438 257
3 258 224 438
3 438 224 257
3 258 404 224
3 224 404 257
3 669 222 489
3 489 222 714
3 669 251 222
3 222 251 714
3 326 243 255
3 255 243 438
3 592 213 714
3 213 489 714
3 506 212 657
3 719 470 212
3 300 211 669
3 669 211 108
3 300 227 211
3 211 227 108
3 559 742 385
3 385 742 579
3 559 508 742
3 742 508 579
3 5 620 489
3 489 620 669
3 620 300 669
3 396 429 5
3 5 429 658
3 396 322 429
3 429 322 658
3 659 210 684
3 684 210 548
3 659 385 210
3 210 385 548
3 372 208 306
3 306 208 374
3 372 309 208
3 208 309 374
3 244 300 620
3 620 5 244
3 525 694 562
3 562 694 83
3 525 628 694
3 694 628 83
3 448 752 405
3 405 752 447
3 448 303 752
3 752 303 447
3 303 721 658
3 658 721 5
3 303 244 721
3 721 244 5
3 362 679 333
3 333 679 330
3 362 399 679
3 679 399 330
3 562 270 313
3 313 270 109
3 507 668 292
3 668 350 607
3 153 262 738
3 738 262 399
3 153 296 262
3 262 296 399
3 342 206 508
3 508 206 566
3 342 297 206
3 206 297 566
3 627 204 297
3 297 204 537
3 627 278 204
3 204 278 537
3 506 536 493
3 493 536 265
3 506 318 536
3 536 318 265
3 219 470 568
3 713 203 369
3 369 203 690
3 713 304 203
3 203 304 690
3 555 583 592
3 433 435 684
3 684 435 659
3 433 706 435
3 435 706 659
3 678 217 248
3 248 217 240
3 678 751 217
3 217 751 240
3 341 273 597
3 350 389 677
3 350 668 389
3 389 668 507
3 751 200 590
3 590 200 153
3 751 296 200
3 200 296 153
3 740 455 581
3 581 455 750
3 564 345 316
3 396 198 461
3 100 196 677
3 677 196 350
3 100 568 196
3 555 231 32
3 231 296 32
3 496 193 657
3 657 193 506
3 496 318 193
3 193 318 506
3 475 465 378
3 514 218 550
3 748 390 218
3 218 390 550
3 85 185 452
3 347 184 276
3 276 184 481
3 347 260 184
3 184 260 481
3 192 753 187
3 588 677 389
3 580 183 507
3 550 182 455
3 455 182 277
3 550 390 182
3 182 390 277
3 306 254 320
3 320 254 289
3 753 179 390
3 390 179 277
3 753 192 179
3 179 192 277
3 245 532 717
3 717 532 290
3 452 700 325
3 470 219 615
3 615 219 301
3 709 750 700
3 277 593 750
3 277 192 593
3 593 192 601
3 474 577 647
3 647 577 558
3 474 709 577
3 577 709 558
3 499 199 588
3 85 183 453
3 453 183 580
3 740 581 31
3 31 581 474
3 85 484 183
3 183 484 588
3 85 499 484
3 484 499 588
3 748 637 128
3 128 637 514
3 748 218 637
3 637 218 514
3 166 479 316
3 316 479 496
3 479 318 496
3 750 194 700
3 750 593 194
3 194 593 601
3 171 180 647
3 31 474 180
3 180 474 647
3 325 178 452
3 452 178 85
3 325 499 178
3 178 499 85
3 750 175 581
3 581 175 474
3 750 709 175
3 175 709 474
3 185 85 453
3 453 532 185
3 635 170 275
3 275 170 500
3 635 711 170
3 170 711 500
3 532 168 290
3 290 168 580
3 532 453 168
3 168 453 580
3 88 735 601
3 601 735 325
3 88 199 735
3 677 423 100
3 199 228 588
3 588 228 677
3 199 423 228
3 228 423 677
3 325 158 499
3 499 158 199
3 325 735 158
3 158 735 199
3 709 440 558
3 709 700 440
3 440 700 452
3 378 155 463
3 378 465 155
3 155 465 100
3 138 154 352
3 352 154 115
3 138 621 154
3 154 621 115
3 111 468 329
3 329 468 698
3 463 149 88
3 88 149 199
3 463 423 149
3 149 423 199
3 645 146 305
3 305 146 656
3 645 340 146
3 146 340 656
3 558 145 245
3 245 145 532
3 558 185 145
3 145 185 532
3 192 144 601
3 601 144 88
3 192 187 144
3 144 187 88
3 304 287 690
3 463 476 378
3 187 197 476
3 476 197 378
3 100 606 568
3 568 606 219
3 100 465 606
3 606 465 219
3 700 194 325
3 325 194 601
3 32 732 678
3 678 732 751
3 32 296 732
3 732 296 751
3 656 332 305
3 316 345 332
3 332 345 305
3 187 140 88
3 88 140 463
3 187 476 140
3 140 476 463
3 656 151 357
3 357 151 95
3 656 340 151
3 151 340 95
3 52 139 719
3 719 139 470
3 52 568 139
3 139 568 470
3 660 137 11
3 11 137 95
3 660 357 137
3 137 357 95
3 475 135 504
3 504 135 289
3 475 249 135
3 135 249 289
3 554 133 292
3 292 133 220
3 554 375 133
3 133 375 220
3 260 131 283
3 283 131 564
3 260 345 131
3 131 345 564
3 306 685 372
3 372 685 128
3 306 259 685
3 685 259 128
3 502 449 415
3 415 449 11
3 663 552 283
3 283 552 551
3 663 504 552
3 552 504 551
3 265 318 469
3 412 527 460
3 320 311 259
3 259 311 748
3 320 680 311
3 311 680 748
3 481 260 286
3 286 260 283
3 305 513 347
3 347 513 260
3 305 345 513
3 513 345 260
3 197 291 249
3 249 291 320
3 197 680 291
3 291 680 320
3 558 440 185
3 185 440 452
3 507 186 389
3 389 186 588
3 507 183 186
3 186 183 588
3 471 127 434
3 434 127 755
3 471 375 127
3 127 375 755
3 434 126 623
3 623 126 483
3 434 509 126
3 126 509 483
3 341 527 125
3 125 527 600
3 272 493 125
3 125 600 272
3 447 261 393
3 447 574 494
3 494 574 658
3 447 303 574
3 574 303 658
3 265 594 42
3 265 469 594
3 594 469 660
3 554 490 375
3 375 490 755
3 554 281 490
3 490 281 755
3 521 428 448
3 448 428 303
3 521 244 428
3 428 244 303
3 460 567 412
3 412 567 755
3 460 509 567
3 567 509 755
3 643 124 358
3 358 124 635
3 643 711 124
3 124 711 635
3 298 706 123
3 123 706 433
3 213 592 198
3 198 396 213
3 657 377 191
3 657 615 377
3 377 615 301
3 719 212 272
3 272 212 506
3 565 691 616
3 616 691 352
3 565 603 691
3 691 603 352
3 380 356 105
3 105 356 522
3 380 278 356
3 356 278 522
3 600 379 510
3 510 379 412
3 600 527 379
3 379 527 412
3 376 482 232
3 232 482 623
3 245 747 45
3 45 747 268
3 245 717 747
3 747 717 268
3 292 485 554
3 554 485 607
3 292 668 485
3 485 668 607
3 510 122 607
3 607 122 554
3 510 281 122
3 122 281 554
3 496 731 316
3 316 731 564
3 496 191 731
3 731 191 564
3 316 675 166
3 166 675 656
3 316 332 675
3 675 332 656
3 219 454 301
3 301 454 475
3 219 465 454
3 454 465 475
3 660 557 357
3 357 557 166
3 660 469 557
3 557 469 166
3 658 427 494
3 494 427 530
3 658 322 427
3 427 322 530
3 529 225 341
3 341 225 527
3 529 460 225
3 225 460 527
3 31 180 25
3 25 180 171
3 461 363 739
3 739 363 369
3 461 198 363
3 363 198 369
3 341 317 273
3 273 317 493
3 341 125 317
3 317 125 493
3 349 190 494
3 494 190 447
3 349 261 190
3 190 261 447
3 470 699 212
3 212 699 657
3 470 615 699
3 699 615 657
3 166 121 479
3 479 121 318
3 166 469 121
3 121 469 318
3 489 119 5
3 5 119 396
3 489 213 119
3 119 213 396
3 739 690 436
3 436 628 739
3 477 442 298
3 298 442 706
3 477 459 442
3 442 459 706
3 748 118 390
3 390 118 753
3 748 680 118
3 118 680 753
3 635 473 446
3 446 473 603
3 635 275 473
3 473 275 603
3 191 377 663
3 350 196 52
3 52 196 568
3 369 693 583
3 583 693 592
3 369 198 693
3 693 198 592
3 52 295 607
3 607 295 510
3 463 155 423
3 423 155 100
3 42 594 449
3 449 594 660
3 378 692 475
3 475 692 249
3 378 197 692
3 692 197 249
3 753 715 187
3 187 715 197
3 753 680 715
3 715 680 197
3 663 688 504
3 504 688 301
3 663 377 688
3 688 377 301
3 646 662 161
3 161 662 57
3 646 415 662
3 662 415 57
3 415 737 57
3 57 737 252
3 415 11 737
3 737 11 252
3 690 653 436
3 436 653 161
3 690 287 653
3 653 287 161
