# vtk DataFile Version 3.0
A great-looking cell
ASCII
DATASET POLYDATA
POINTS 629 double
339.08905762721963 199.46465987144148 69.44070201489085
341.7513013750689 199.62416200169514 69.43309053113133
341.20608790279226 197.32841225808983 70.05713086454354
343.6686869909996 198.599930199848 70.36774679657633
336.1986276184148 200.48088559851726 69.90560260387332
336.1222090273877 203.421125260845 70.35717286028107
338.3986578314757 202.2022878764433 69.39501861481284
340.95317681354317 201.88150675000446 69.14557190787319
343.4654151080503 201.2063674835073 69.99241448917532
345.68674331549283 201.53334065274558 71.49891687814298
338.64170863452233 204.49947404932544 70.0584310289884
341.317866047199 204.43727352654872 69.81967891649747
344.08011133314324 203.8415332798202 70.71221251789464
346.36470694261516 203.81906832393554 72.31947143642238
339.84714751167644 206.70891563662693 71.10878207248857
342.93307175777176 206.76306711781325 71.38375655446654
332.8318578563911 199.0701918423102 72.13697335308092
335.2590922420125 198.04941010284512 70.48307666842528
335.3766346506631 195.45879022338002 71.48946895026143
338.1352389194007 196.57589138796828 70.40859467212199
339.4883701673424 194.27886786443807 71.89684514339815
342.1931338725247 195.3670655480505 71.48670578164902
341.9262306526705 193.40887139812486 73.39418764657844
344.1815404392383 194.60762887852383 73.13547677848402
344.6177317271457 196.70407494662018 71.9606601905457
345.84104958693314 199.02642361096784 71.64525910541147
347.065358267064 197.40123939096694 73.90268593013917
332.30096327508863 204.42294850061884 74.50508182573262
333.7626445318465 201.8145982390391 71.2580094231785
349.4098519877415 201.02029344619916 75.40693961339741
347.65163641058 200.4796259840424 73.15282571806692
334.5099836689172 206.45949634851544 73.99069034163799
334.2522885216933 204.35646752267914 72.29452876773655
349.16502339615465 205.20743795908663 75.99047006479505
348.3437887033522 203.2051269630102 73.89025873001842
336.19061662084613 208.36838787633585 73.6980706085476
336.7411335652148 206.1804654957777 71.82007517375786
338.38382450228784 208.59742663026287 72.54767402812318
341.2102082502259 209.2760593743024 72.03781048064398
345.19605299607724 208.13356705542174 72.84946034627731
347.0545610747302 206.08164495720942 73.9112907224389
337.4789996577491 209.8410091771905 74.02446700385222
339.287944590179 210.57141595783312 73.63443926811419
341.32940841548134 211.0848630479582 73.63761258994168
343.5875876218382 210.4576436257591 73.29400431608285
345.8358969685596 209.82569567465958 74.99662752277509
344.3436791589416 211.53155306526546 75.17864651180902
342.4559628572748 212.06278744418537 74.95725710349227
327.1945392819147 190.32654277488317 80.41873577047679
328.15402414378445 199.68275429382967 78.74936312987933
328.793070488187 198.40003102598828 76.49940835496685
332.2047350767521 192.49943974078698 74.55025002167255
333.4031494715926 190.06971935602584 75.93665622828576
335.20958182448726 191.4880532406663 74.25338778767514
337.41703785765424 190.35151000653812 75.40206370885909
339.3536657784136 192.03036261490618 74.1273510878029
340.0711312858708 190.23206032949258 76.37392823330407
342.17310240708997 191.75191751336604 75.59686045726282
343.83379429850504 193.28397196843866 74.82371663053452
344.6864559499959 192.4372306569259 77.15256774389877
345.963480244089 194.61800743004852 75.09638011263166
347.3208541817358 194.19120746397735 78.03904464222518
347.94800933130597 195.9980833284934 76.20226074663148
349.3722293251804 196.31653220169042 78.37257500936705
328.8183092597639 202.04664307927956 78.36107076426478
332.82912562166445 196.1231148537713 72.95409721520146
349.2448285654667 198.20788137035146 76.21811702914091
351.0239139092403 198.15258384151906 79.90467685687365
329.9276260547504 203.9850108624253 79.10157914604738
330.537863572197 203.66674136590842 76.75579622537208
351.76980594108755 200.76803027987748 80.41135182267384
350.89500217773104 200.09141734826636 77.84555453429643
330.9258595766304 205.50081855902442 78.54609205490874
332.10774394379115 206.79651831985618 77.9402480812331
331.757082564079 205.4508094658213 76.76341601590457
333.05643740953616 206.77803673779886 76.1213456426231
351.4601096420274 203.69218950352743 80.13404155322387
350.4676492805619 202.9798010945109 77.37820305806686
333.54502225916445 208.5622031738435 78.2182694460087
334.713539296477 208.52159132946625 75.65431411034854
347.90788267503666 208.10837173218795 76.25759737074804
350.911752054709 206.60770748679843 80.74974285175651
350.31346062138675 205.64829300963547 78.34703847164721
335.46074386476624 210.6263138458944 77.16755010738532
336.20260622729205 209.84554159269882 75.14221068182353
337.7061113276295 211.3458737461247 75.61511416379736
347.9656287575817 209.8250027511027 78.18626362995805
349.40360381250485 208.17562196182953 78.94387492659453
346.9630871047457 210.30330030694762 76.83426499419505
336.99328784228794 212.21384500867507 77.5949620239974
339.0118660191395 213.2062722489542 77.32823289578745
340.1567973460531 212.1225744433487 75.1595595290672
341.47341925225567 213.25434156027322 76.67090313775165
343.6323901830196 212.6928065841609 76.66409655460787
345.4637752849316 211.53803250051686 76.74380006342783
344.73106258871354 212.69487885853673 78.58780008713342
346.6124235992382 211.35970908203672 78.60077856057235
340.8066947434075 214.08540272360483 78.37642750410717
342.6890585730339 213.60293345006264 78.47194009436267
325.7484755757555 188.47564811636656 83.04649882413523
327.2622412785329 187.1781303979448 81.86369053931989
327.3162425588371 185.74902285637495 83.5027985022559
329.1069820549486 186.33592752824018 80.88961194297943
329.6705403743593 185.2514990994971 82.9335608558901
331.0682309945652 185.92945947573682 81.28712547198917
332.5647751171919 185.0895410882818 83.07198222132013
328.335773641133 188.48501292206015 79.91713167182812
330.9924262479417 187.41399196527146 79.32333417192531
333.0059663874931 186.16684753621777 80.61793769657966
335.1423333640277 185.63773674844882 81.96681700505246
326.12325526789516 190.8776192402247 82.40914491587885
326.07703287392746 193.25819473862705 82.53939789935596
326.7103757207142 192.43355781075846 80.39703639451871
328.5918282624288 190.89599195051022 78.40378909034223
333.19717824523775 187.94258886718185 77.72653690614769
337.4973573482268 186.49885787627076 81.16343258816836
335.2209484866 186.6363112808638 79.25026616516924
326.7074991030082 195.271501240724 81.26823865462244
329.763871526857 192.87144890896175 76.4015311028623
340.0079341226505 189.1083352811691 78.30505784649336
340.75548051889774 188.18829276806542 80.43068237562863
343.0713395259442 189.0649930993487 81.04571462158944
326.7199039289312 197.68019141316802 81.24850095126327
327.69297831708656 197.11992873939795 79.0289593034587
335.93012207997293 188.71679066007698 77.03188738524312
338.3438325522223 189.21259369589728 77.22291320493406
342.5797432327692 190.20530937851981 78.46524312636171
346.1765811012676 192.0359727144662 79.46962550320885
344.818645235378 190.2917873342835 80.38154636405642
348.33437325382505 193.24335576911034 80.78853607489488
346.89252094349973 191.14611682520518 82.05935683276873
349.5444902212313 193.428529714055 83.56075228213378
350.9500337015398 195.53710759826615 83.45295879194283
350.25345013161495 195.43550975769676 81.07603066474232
327.5512240286707 198.98719037825904 80.52538234502
328.03263554671514 201.1014139280479 81.0247642175552
351.85331529441237 196.6870584152853 85.13535683742504
351.66531618257227 197.6673435588553 82.55994679967924
352.56745842988494 198.97139511228585 84.54744788552205
329.10650475193927 203.40859111557396 81.08689455963
352.61170591608845 201.2951881942252 84.52592974976433
352.30507108111146 200.03153756815982 82.60850981590237
330.63267184367527 206.45621699036778 83.18754137549901
330.0855520982979 205.40347291540553 80.68092936842957
352.5208937018359 203.40427347775375 84.47729338558982
352.3520572280045 202.43805733242198 82.47472003468594
332.4013051747208 208.68571556702966 82.61312639378424
331.77236232830876 207.28671135459814 80.24774876049553
333.17560825307396 209.24438849226368 80.6334452983683
351.78169247334534 205.21959613178822 83.04948851369461
333.9054316645597 210.7874032399571 82.40517365280105
334.59529654998295 210.66267565352035 79.75668306980198
350.8712821631871 207.42261020657338 82.82421084060088
350.34586198762463 208.87367565730443 83.62028956784944
350.0349141129415 208.84881545281894 81.6049608219769
335.7016079158199 212.7017672773884 81.17708033670603
335.8989094622384 212.0094071736011 78.94483069497397
337.30587518861086 213.3482763011941 79.24803206121807
345.92127618164926 212.6534393861055 80.82042865077824
348.1379087546908 210.57727587852804 80.60050915746429
347.35746944958686 212.18396073475992 82.92798160726052
349.19486288076143 210.5224520336114 83.24560605010589
337.77870503615475 214.27578687671812 81.35393316292522
339.8629465578106 214.988209061715 81.62512026798922
339.3577742652482 214.16578108821838 79.68042434905907
341.53725291731524 214.52409392881944 80.32981387223809
343.79507127945266 213.87942274619954 80.35756610899794
342.8626301560663 214.96993940503367 82.25306746507411
344.63711576259817 213.96076721102156 81.97793049661976
345.8209478932166 213.43821888198696 82.81695639102314
341.30768422331016 215.23784935155544 81.78988645556102
326.85161290782196 185.47557450802756 85.72051691831263
327.858193687323 184.3618609708448 86.7007721747276
325.5454402649388 186.66260026227056 86.93608515095575
325.0582470670529 188.72630952837625 86.2199558779833
325.8166763462525 187.11988836443072 84.6730051120199
328.639229207119 184.62107572530377 85.07117895066096
330.9450220780533 184.6215043712501 85.21923099798313
329.6214974300096 184.45856418769972 87.00540665979878
332.0963470507861 184.22217088446027 87.87486656708076
334.6278813314818 184.82777541467388 86.97013672324047
333.06275538546817 184.61956801040265 85.50697759598826
325.447050733761 190.0422770082444 84.59114590968645
335.00123072311493 185.01010642237264 84.52960295002654
325.84668436326086 192.56244199628532 84.8720815099804
337.05826955099 185.18142667021897 86.2521925005605
337.38689246096294 185.73379920614144 83.6269847569487
326.31600672483177 194.85554316132104 86.46481023575954
326.34493835535704 194.99532796618362 84.00068704446782
339.70698859095376 186.82601058525321 82.64636415005897
339.6431148121657 186.1889802091262 85.46694149081507
342.2313561122498 187.81750119247923 83.08155793824861
342.3504393183091 187.1572125474516 85.96325893868759
344.7347573617941 189.13241117121254 83.01885118473723
347.0121791644894 189.97618190388675 84.83650094458359
348.30697483398757 191.48048529581402 83.72131237862386
349.1374551854621 191.34743458199335 85.85297887884525
326.53884981349574 196.7550630268402 85.49176300815866
326.53472588419436 197.27367412699948 83.37109449245713
344.8142169655501 188.5777717808012 85.73801259523783
350.32643448771125 193.35826457908968 85.91758420086249
351.5551063901195 194.8830648758251 87.02844790431884
350.9220468179968 194.7236015637962 84.99880951027697
327.2618484352398 199.31251339650413 85.67198883408528
327.27208403123615 199.31947754920915 82.57378626155288
328.0687895175323 201.3630225876317 83.60205110486623
352.31795064085964 196.9171291743642 87.14401820096249
352.9543185041047 198.59722124193868 88.23560846843188
352.62250395228307 198.24323431272677 86.28195079277602
328.47894652797066 202.0378063836545 86.04016644297052
329.64893990840216 204.0457113158229 86.98037510475797
329.2815807834196 203.76282750338746 83.86631380791295
353.01517747983354 201.07612280453148 88.46707360696087
352.8995541135353 200.15578117269308 86.43308382789616
330.8847211453461 206.03521323076507 87.20784616932995
330.30075132506437 205.43580031455414 85.36801293985269
331.16450355296087 206.82304857609108 85.56312820950956
352.8181762193651 203.06713580911114 88.8499400143787
352.64153072499903 202.71845388316626 86.65735922452717
332.1825577461313 207.7089994829612 87.06021037100412
331.9991592230863 208.37595253860505 84.93171597306238
352.0433752133757 205.08097821495326 85.76726562920298
352.2095596458436 204.8398202423725 88.11167848884115
351.2067933633716 207.49109571402107 85.06707865822094
333.58639209950155 209.970513858772 86.72430330151444
333.1974827697483 209.78295910214814 84.2763422951849
334.08564759587495 211.13230468483107 84.68085442050386
351.5785231365421 206.66508211327158 87.24030494657677
350.4071381552725 208.67810267356106 87.62828879505012
349.87028230465336 209.7300885016745 85.38383140801461
335.0374443646362 212.22286263794447 86.12596493991309
335.1371663012847 212.64096061594702 83.81673584236319
349.075279721505 210.4206635313215 87.14483599312466
348.02801317049324 211.6194691067909 85.52938171399316
336.60856295532153 214.13478006662837 85.46448726763957
336.60316053517175 213.96586894992342 83.0739473122123
338.47008931677533 215.27187821549356 85.97111060115569
338.5384282587374 215.11778262707605 83.6965815284238
346.2297670258616 213.37052734324712 84.7159568667387
344.4210657955283 214.27916307982693 86.11069848602106
344.472186542529 214.29784675217738 83.76819863679962
340.362992369633 215.44502204999708 85.41575346333079
340.9168992337573 215.39692099567583 83.23999654141635
342.56382783496247 215.10579296918826 84.72910502491767
325.17097859724055 186.06615211900936 89.24147376368167
326.75636873918796 185.23235363764408 87.7683679905051
326.86724411312815 184.61248468300363 89.72115589871292
328.7800849430408 184.1311724949401 90.20667600346243
328.23601004801765 184.1950666507509 88.33505992573573
329.94883809098104 184.14381371475523 88.79785624896145
331.01730733105677 183.88045941683566 90.61257449864718
324.5439457274615 187.69539979660402 89.95893422638079
324.18849689860707 189.13043258416593 89.72675865145455
324.7679838411237 188.00818307789714 88.34380131188988
333.1635659978528 183.92102484527277 90.16107292021117
335.27305360449816 184.36740767247466 91.02685702125909
334.32249937762043 184.33561189777353 88.92216074907533
324.4764148834057 190.8225160248902 89.83197421486953
324.60398812026574 189.87137995253354 88.14107508979127
337.61390449370265 185.01666972888663 90.56160232558209
336.3447088336227 184.81865261745486 88.6770473614118
325.4156035585069 192.73746791149432 90.02768265361793
324.94056728688645 191.50418152379922 88.40502742855807
325.6161723830558 192.91599500659643 87.54674897275683
339.00170408393853 185.7600886227428 88.41040807986565
339.8220444968148 186.03902257377058 91.57070935566027
341.75500900872277 186.71575258840488 89.11550873505547
326.270620935824 194.53858742109398 91.12311484459678
326.2989137794607 194.77158716189325 88.95900316378882
344.31744631489715 187.8926984554076 88.53953733883728
346.8414113165677 189.1401139624438 87.73496968390289
347.7324800996221 189.16444628819397 90.82785912489615
350.1283095356632 191.0616292985829 90.35756092562424
349.076509836002 190.26048635360675 88.30418756830205
326.65083757382973 196.55937046420155 90.68052218058314
326.7634750363595 197.23976887904317 87.92985744854798
350.84400515272847 192.31865901115506 88.00198830738665
351.3221595622273 192.82599090102138 90.15477952563879
352.24809677327187 194.54216739615416 91.08014625843245
351.67173933147654 194.16940422818473 89.06655807369191
326.9866648529097 199.21302653118914 90.2195009022611
328.2188020319445 201.28882420199352 90.77248795505442
352.5061578824188 196.19197470138542 89.0766437667986
352.8392311042404 196.5941893285791 91.05467509783804
353.0940536228222 198.40413646839067 92.16562316283583
353.10996728636457 197.901470654162 90.13702045469017
327.9094190970283 201.06474622662702 88.3236430001588
329.4281153085545 203.2327796681388 89.74310248078531
352.87372603381885 200.91368585441836 92.18702721494333
352.91807021334284 199.8183544082787 90.25758678107672
331.07825540512005 205.12512091965436 90.8156656027546
330.7344138404007 204.9561783031296 88.79102801358785
352.4344613464 202.84332952676343 92.05230860242062
352.6818008784209 202.00786018328506 90.38790003863917
331.88211024520734 206.85294022757967 89.3371379419776
351.99694703570907 204.3023546226516 90.53314480327249
351.1607744825536 206.81642151169962 89.5680276141961
333.15007908968363 208.52394734906736 88.66368499123323
334.17726556215126 210.077151981665 89.54366600574012
351.20729519013423 206.11907298673336 91.79943260316826
350.3311783426229 208.10186841082066 91.76189549630129
350.09299675464297 208.84017895241473 89.85828109685471
335.3737930911481 211.70802798081888 90.79194010882475
335.0318271509823 211.88170551821202 88.43984827644049
349.07841992434874 210.23810223936678 89.04272385983649
347.9057883476818 211.63322144075968 90.25759799119557
347.89814966540604 211.7240661129404 88.11019861357026
336.5799877471434 213.5118706060612 89.754187804377
336.09039552360156 213.39420770774245 87.56622982666333
337.9564270978906 214.66102370978498 89.76815287186169
337.72200356950054 214.77551083386422 87.95677595814645
342.4956643443266 214.4882888387667 90.42762045501999
344.57928717550845 214.08556038566007 88.75319368080484
346.49432073688604 212.83170993276934 89.50507932762324
346.4078316298169 213.17363307680108 87.13595139702839
339.653994766715 215.4968105827666 87.328951385861
341.9876319685287 214.90042759981162 87.48746871989162
327.38750482485864 184.2844014531396 91.67533011610573
326.1804513477107 184.7558909926578 93.20279601348265
325.72896408900385 185.30911623895068 91.32329340890011
327.8907579772126 184.01856194419756 93.55259842060205
329.2677172323762 183.87757680372752 92.13205389647968
329.69600743076 183.81064868840292 94.0294348617655
331.70020900449873 184.11231808857607 94.61785101472462
330.91787221089163 184.04057318633724 92.75955837465908
324.6731052680369 186.83866740869124 91.25469692929703
324.7610549255756 185.99820800810875 92.94276956145795
324.4637289625129 187.78290680788393 92.84445543892757
332.95098963502636 184.22067379577413 92.40828689714101
333.6538048004116 184.54601894810912 94.40789153739179
335.4770086660513 185.28201725559728 95.29284365778881
334.9455330859706 184.57422382561163 93.278295400272
324.19891983660176 188.4909184100863 91.29476525342308
324.2050261477978 189.67745033351449 92.89951399843908
323.9907808974123 189.9681881486175 91.09854526485597
325.32002502797735 191.34871001710397 93.93737497093572
324.79922711327407 191.31911440355364 91.7392553422955
337.25450154901256 185.04780331278113 93.13846677464561
325.7273976693458 193.18401193988123 92.62043697362581
326.82505403687475 195.58403632641838 93.36657856476803
342.3404021530844 187.1917083776704 91.82522296372906
339.5020145573012 186.4495358183135 94.7455523549223
342.19634804419763 187.2990853135027 94.30395322400082
344.83548955229617 188.06629802648044 91.41231822292296
347.70682602952536 189.50652905117022 93.98509733014382
349.9777814776837 191.14188475562526 94.82182062446175
349.4918439452685 190.4680405712701 92.47731598232579
327.69331654726653 197.96739670975876 94.88518155311509
327.8298865494919 195.65095258093234 96.37789761297918
351.29535004591594 192.242002986496 92.35736945138952
351.82036379872096 192.86760105475693 94.5917178968396
352.7113834121 195.02357521905702 95.30093891289452
352.50280992948075 194.01926239918163 93.19858463723529
327.1230236203858 197.9398860225661 92.47321280036881
328.70345964315663 200.13834632177384 96.05082460229454
327.92222548489474 200.26325311311237 93.13298593120061
352.7628009080933 196.0370233082207 92.88373097189348
353.2386207725036 197.6125781581694 94.58960012769631
352.8271781311397 199.2444145124831 96.15673012416353
329.18960102981384 202.11666502532796 94.79991936388816
329.03037729082416 202.56153329444456 92.43193469133288
352.635848658052 201.0035567729882 95.67064706160421
352.9230698399678 199.933502960972 94.1438858999642
330.2963043340245 203.7328709099906 93.99306863319967
330.12370385864233 204.09350074450302 92.03804993156872
331.5892098198653 205.07717621372146 93.10102662315072
351.8416473600171 202.46922588991617 96.42292076377052
352.3584217512825 202.3304595253402 94.132539088941
333.0756951657638 206.58246181927612 94.39089011938722
332.49477311004154 206.71456962317785 91.9104790027622
351.7998960037171 204.52157976467942 93.01738198447234
350.6980384315361 206.82227462309947 94.11929332609738
333.8130225027348 208.37103282589152 93.10515744732257
333.4170640653505 208.3736890577359 90.72946850530323
334.9517118610323 209.92071423382725 93.92442928776052
334.5223903827504 210.02995675812173 91.88291886379703
349.03588681574814 209.5079087662847 93.89162418226081
335.6210196502165 211.6345293677611 93.13994385342986
337.5426566768763 213.0623761637916 94.08778578035738
345.6096073961646 212.77031554743954 94.58177787082629
347.36827453468516 211.13330695297518 94.81312515784666
347.3405291975965 211.664055450633 92.51860129549006
349.0085042939547 210.03597080212407 91.23084373666187
336.4812569469551 213.0360166844944 91.93725044253262
339.31646088956853 214.43000130357282 93.70364417063195
338.1334856295851 214.47488960245138 91.65485176303973
342.7590777340216 214.13704686097122 92.87661333301756
344.1650629707818 213.67815796665903 93.64600657655018
345.13609688396417 213.4856734382861 91.69803028118447
346.82273939838876 212.54502710911615 91.02285347600429
340.614469672666 214.72196218740459 92.0849927139549
339.7925664972267 215.10312778426191 89.57845204006674
328.36258437087963 183.87272625412047 95.30124287298719
327.2956407744209 184.01744123275716 96.43367914723727
326.66982078467015 184.28496299268596 95.01051573945152
328.703307077428 183.8466646840163 96.95409920478437
330.0230143910428 183.8969695215624 95.81170625439711
330.24986565077955 184.03107395696378 97.46179546444738
331.7933791734967 184.3935258859856 97.93397439353187
331.4097127203687 184.11914112488626 96.45922372478738
325.1726280296869 185.41215024192576 94.78734498727367
325.795334067764 184.90941858169597 96.82388641184781
333.15165491112293 184.72139741483772 96.40095764347734
333.00956175643995 185.37948013924114 98.2287711393425
334.61349439586905 186.14243352814995 97.58260694081825
324.31338897317045 187.02836371272565 94.46067504207898
324.0840214702724 188.2598674973412 95.78013652931959
337.17179984221735 186.66331390892645 96.94397009727291
324.0808127457326 188.52563180230814 94.18320782431704
324.84037054706965 189.558244222306 96.85633174314113
324.60251821226524 189.79272156662847 94.973715463643
325.62013955230003 190.66442839176932 97.79170216054851
325.6069129926467 191.0926896415848 96.0968253109555
328.3981329915974 191.7222051986127 98.98902821125361
330.1503191520983 192.9293983010512 99.04828362202949
332.6144066510637 191.8945465512285 99.03718638122136
326.72295235966925 191.92255946151275 97.61519440527498
326.60510349203054 193.1891631881512 95.39133661289182
328.194741099286 193.5082431092704 97.74336700409027
331.7820318019645 194.00470030609208 99.0110743094504
338.16312614736205 190.01295913746114 98.97145957507789
341.1727099729989 190.0445972868897 98.93886402691923
344.8495262881194 188.4083984380649 94.47542204781543
346.56671250926996 191.65122638413754 98.78933222135527
346.60171424720465 189.6179596034777 96.6956363276781
348.81774734563294 193.21863238303797 98.92998446704402
348.8706522482993 191.0759882444835 97.3289080434947
328.96695609445965 197.92219131981432 97.50213302477708
332.2387935123409 195.61387877392082 98.99694138322413
338.02660753427307 192.8989600109938 98.99334130374496
344.1112215892832 190.1544072514813 98.44400144421579
350.9672099366402 193.13904176412115 96.96733551162588
350.5016503367436 194.96245264274845 98.94922875292534
351.5973310730422 196.9408602861369 98.83775552769099
352.0629819579946 195.2852232492671 97.5801900536326
330.11994049750666 201.85749683817167 96.93045318409996
352.6059250920519 197.15440437320993 96.81285012717275
351.8418823811345 198.88039208016443 97.96344735967529
350.8590940407231 200.54238746349495 98.92416955344125
331.6480727205499 203.27928381513794 97.31834927023885
352.2266939242401 200.77444627517053 97.37915845805826
330.36356650419407 203.3917907872817 95.87640146433915
332.8536949712673 204.57153411554197 97.56944606209876
331.96052561157234 204.685513714193 95.59315563856353
351.28516202840683 202.1018893561674 98.04942567666153
333.72259868111274 206.32877715352294 96.97092576010142
334.9220883362112 207.71438395740586 97.56427862482246
348.4480948657409 207.64813341660965 98.07724112905852
349.4026643369332 205.61552444524182 98.47037311462863
350.3592900061799 206.28174853918813 96.78315423907931
351.29194900794005 204.40318851582836 95.37824137002782
334.5997003358062 208.51747510512112 95.73361050827863
336.3536666875224 210.9828943938174 95.69636179372417
339.0748468457367 210.8064184048408 97.4608174830149
345.88754925431397 210.1714726642167 97.80298754121624
347.1734537106115 209.11074613804797 98.20314178310281
347.94397592728006 209.8224768191682 96.5970003092296
349.4818968695715 208.14165728467015 95.96511009193655
339.8508797455001 213.3737681822808 95.7979423678987
344.4060300030051 211.95082412918947 96.94797106473706
346.407181068823 211.3979226591288 96.30878056647286
341.11342861891086 214.31019972791495 94.04173670749529
342.88194239237976 213.51906295112954 95.2366076886828
329.0175037658982 184.39584411363526 98.47496735232768
327.3321133963429 184.19156118478935 97.99776462146647
330.4628529913105 184.609683757852 98.83310608149847
331.5247399806611 185.7660874545447 99.00106666641399
333.0562924583396 187.0397937468211 98.99075850494765
330.9735496159441 187.56673163783296 99.0635974040621
332.38841024149696 189.34137925599165 98.99511140267124
324.5490236737046 186.5257307295108 96.27041976169095
324.41877748263425 187.89718511203674 97.65972360068197
325.48343191574963 189.2333361335696 98.61135129377294
330.4346555939721 190.8088091473712 99.02835496829665
328.72083805308984 189.8071615315398 99.0131046243165
330.3185462577701 189.11006503219153 98.99601493023034
326.8843265223458 190.47156962831332 98.92927372277055
340.97535579795846 192.82041317300167 99.09346474308308
346.463244561309 194.2697781842795 98.97907636157716
331.5044844716073 197.79602736434973 98.9972910956256
334.09773484246455 194.13034056471005 99.03695673363762
333.99501486843377 196.68068943192432 99.07462363964625
336.52994527999306 195.4937953857685 98.98070902233995
339.4328985540144 195.30831547527913 99.01903302687502
342.10044677207435 195.4182208888696 99.04837449765236
343.9132655057459 193.08876130732034 99.01802296048439
344.59156649694916 195.81567387210424 99.08627686890834
348.3162977210058 195.55940914619293 98.98406575004705
349.676767199964 196.77753286364998 98.94553411844328
333.72243830006465 198.8774311443122 98.99941239062206
332.12856171490756 199.83689527578258 98.97170493665871
350.08475822692117 198.57142150223527 99.00487881268218
331.78149921665215 201.5383810967703 98.38326677566769
333.4164905859933 203.11357194222919 98.941016685379
349.8025356045373 202.376216633813 98.98974029754727
334.1206639573305 205.0207255957816 98.55286487462227
335.76080062437126 206.35811318575796 98.6457167441645
344.567475194674 205.46266813114934 99.01663603599032
347.22753902075135 205.29864518850232 98.93453280357575
347.70679006384455 202.81925571236906 98.96521478272604
349.08883507356126 204.080582595631 98.97822668835019
350.8461216581405 204.05833742650796 97.8503132017408
336.61370066790823 208.87840988587533 97.91114885059152
340.58112005926523 208.82045217435584 98.97902296798748
343.2463470625478 210.01935131425515 98.69922930127774
345.7086850525568 207.95258568642504 99.037093148645
326.194090595678 185.4027480760856 98.97044939151358
327.6219222378053 186.8004566564794 99.07397571122851
329.51211800381606 186.05582775417147 99.0682446386812
325.818154679906 187.37473121175233 98.93176144973792
327.2558606500746 188.632989915304 98.94037258646294
329.0721118217106 188.00511093003686 99.05561877910512
346.55541645772473 196.27209644043685 98.95912476028278
338.2745244517132 197.69949810345184 98.97147099349621
340.67535109922153 197.4810634042012 99.01271262838144
342.9952838472274 197.96114341490488 98.99892095267347
345.5114855180439 197.86796146176908 99.05735181688873
347.86866507765257 197.8527665814802 98.95080966681606
347.98265203323405 190.2288922912725 86.74321699481926
348.9562859921872 194.69518580406717 79.46101824112732
348.36180125163804 192.26228067433877 82.50760408011323
339.1377179479715 187.0919976561841 80.71857298592275
335.21327750734036 199.9531799060136 98.99778536911926
341.10832679688457 186.71099488105443 84.21864531555467
329.57640864420125 196.8055878710128 75.34878366268734
332.3165525887627 194.3022617456796 73.56844632689446
337.3249160389194 200.11107041882374 98.95354443308806
328.8408129328149 202.61072320995282 87.77536282986449
331.20102801784344 202.68158097849715 75.06998652156176
329.7156523076781 204.78692177735374 82.21187418768169
339.8087712915112 199.63451048134317 98.98369353647715
346.2692422368691 188.81924751510346 92.67555057480897
351.4456171421526 201.90642034337708 78.8388722638802
349.45193670239587 206.90922649831003 77.25185342725116
342.12378533275705 200.4270965675413 99.00164478520217
345.94106745385784 188.60037577717839 89.62452888565328
341.12091666236824 187.14227266771266 95.98104430335532
344.5879960432283 191.23153270033805 78.84447396096242
344.54776766236773 199.82985150421226 99.01183101047278
348.4195318106636 190.11911122138594 95.76125062865142
344.6475712113984 188.8139074531547 96.75582955780864
335.495627684334 190.06559074235523 75.57194915476687
346.5063302275822 199.45531268600158 98.96821506945932
350.22630152964246 198.12677261409274 78.05071805683195
334.4643331357476 199.84290847884822 70.87773671451934
337.23621198127 191.7487127156735 74.11792418124284
337.11120751256425 198.56158959991535 69.74222849997837
337.4658309784221 194.7954746822412 71.53363272588444
343.59974778749995 188.0694084989835 84.42822880318133
342.55384979981386 191.51933053717417 98.95442847334051
346.6869854218508 208.13690980456226 74.36440342730899
331.11686379975123 199.97199133675133 73.63686279141335
335.5143319549456 201.75379645149462 99.00972356902248
337.44648141632246 185.59334582906453 95.15041300669908
328.92272945274146 195.71255797423711 76.6589053377754
347.15314443524386 202.26850523387463 72.55951155742525
337.83006288626245 202.55846168668307 99.0416398106543
336.03636040330105 193.54169735324768 99.05106924888756
328.52840384945085 202.45425557030785 82.39934301425411
329.8669651814325 190.94615874456636 76.80130039508884
340.0708031868196 201.82159245629424 98.95689927765623
327.0909589695411 199.24962849877716 88.02882807466172
338.6185502060307 209.00275749499886 98.63781244622379
340.72940257170455 186.36234813435743 87.23332308147222
333.9568558380896 190.35663991911625 98.98475732784712
337.7047116121118 187.95568099926706 98.55206123004206
339.58505847368855 191.44719959189945 98.94697847043156
330.60030264315685 195.10511215430938 74.49683400581043
344.0157024700551 201.94174243065794 98.94820477954018
331.1458571468914 191.094405509402 76.06351525167672
342.60804526330946 188.3525047717391 96.74993784347626
334.0866017765628 193.77216283828457 73.1264004162386
346.1251391346273 201.31732054596972 99.00669568905546
336.89376672052833 193.32362381421697 72.89368367706969
343.5258389864382 187.8247201473882 93.00331724345669
333.068070589849 186.857470079891 79.10661111303699
348.41966954121057 200.41230546305377 98.97965172647108
338.0315996085917 212.29421554636266 96.00585961716705
326.2981092933946 186.97302889788708 83.13066893033155
340.27910294748324 195.71900478864646 70.72065138603737
343.3659185956685 208.8350402357809 71.99862833448955
328.87622004077156 200.27889162785445 77.2578689828278
335.68895743450815 203.95159552342136 98.98388710968734
343.10490710697104 196.77399786671458 70.5796438828848
344.8244726967973 200.07274795913605 70.63589482877437
326.64712849495595 189.0005420241884 81.30942599353405
337.53583534254756 204.8525289258765 99.04766981813593
328.13112793883215 185.73202450537886 82.04632927817379
345.5857061610621 195.72519968079447 73.40160611108651
333.8470483033278 197.06324827001663 71.46743457026892
339.8757745167867 204.37891434537414 99.01220065288878
327.87815579696075 194.04626800041476 78.58178285163444
349.448449689488 203.11445807671285 75.61667189017331
351.78660118716715 199.1353205280401 81.34976791225967
342.3149559534847 205.04838142058213 98.99609248207574
330.10957870005916 200.89263824718878 75.57800578208989
338.18807354173225 187.78056279704427 79.0632300255254
348.54409137090306 199.20085603380855 74.52283207510543
343.6986913110901 203.7575779937515 99.07943015289976
342.0156839720255 202.89310578283556 99.00983294522753
339.7042830405811 187.88563002047115 97.46981162807576
325.2314525930395 190.94212182011532 86.61716998895922
345.55688291414333 203.43003352075672 99.02070446379719
325.35501779829013 188.57116060850487 84.58746393270832
341.75427181025174 211.967188697342 97.37667405924027
331.77652105229225 201.7876650950503 73.36690857243464
345.2605880415184 205.79492493262683 72.0439568053622
338.7593227812921 201.0364929019906 99.05121227337474
341.0868417953685 210.64002929134978 98.54728442352967
333.6286093311093 200.8586368082468 99.00993505710264
338.52642207140127 206.98899439976918 98.92152982724807
341.0075616507029 186.6473020648444 93.1294927522961
329.6323718824539 189.0098737417573 78.64891465206128
330.6342405904996 198.04579295988307 74.18342854757068
340.8325216053053 206.50576706380195 99.12628554531625
341.40227213394576 198.87757431055064 99.09652721935849
335.4662166030497 191.62945258907365 98.97477817790359
335.8462128124169 198.1401979168645 99.05504469682351
342.8767886101182 207.2999280985236 98.99925585243666
332.8364216860444 203.19896169705945 72.69185472449921
329.7985758061349 195.42864242145544 98.78189038421196
330.39913894522175 199.90634577335223 97.98228750743434
324.96921571138125 186.2493369104704 97.93914224355898
335.3579222551233 188.52867245996183 98.91088788591267
327.9292956471514 185.26771302104473 99.01379442673539
330.89281786782504 189.50816011513737 77.40515327830943
342.52202089349254 202.87185749590276 69.7379258107396
339.7945603805582 203.3657291187688 69.19222198843367
343.3893919924556 187.29925469334424 90.23561316934763
POLYGONS 1254 5016
3 1 2 0
3 1 3 2
3 6 4 5
3 8 3 1
3 10 6 5
3 12 13 9
3 12 9 8
3 14 11 10
3 15 12 11
3 15 11 14
3 19 18 17
3 21 22 20
3 2 19 0
3 4 28 5
3 30 26 25
3 25 9 30
3 31 32 27
3 32 31 36
3 32 36 5
3 5 36 10
3 34 29 30
3 35 36 31
3 36 35 37
3 14 10 36
3 14 36 37
3 14 37 38
3 14 38 15
3 33 34 40
3 13 40 34
3 41 37 35
3 42 38 37
3 42 37 41
3 43 38 42
3 44 45 39
3 46 45 44
3 47 44 43
3 46 44 47
3 50 123 49
3 53 52 51
3 55 56 54
3 58 59 57
3 58 57 22
3 60 61 59
3 60 59 58
3 62 63 61
3 62 61 60
3 22 55 20
3 23 58 22
3 60 58 23
3 62 60 26
3 66 62 26
3 66 63 62
3 71 70 67
3 66 29 71
3 72 69 68
3 73 74 72
3 74 73 75
3 74 75 27
3 27 75 31
3 29 77 71
3 78 75 73
3 31 79 35
3 82 81 76
3 82 76 77
3 33 82 77
3 83 84 79
3 83 79 78
3 35 79 84
3 35 84 41
3 84 83 85
3 84 85 41
3 41 85 42
3 42 85 91
3 42 91 43
3 45 46 94
3 45 88 80
3 86 87 80
3 86 80 88
3 45 94 88
3 81 82 87
3 89 85 83
3 90 91 85
3 90 85 89
3 91 90 92
3 47 43 91
3 47 91 92
3 47 92 93
3 95 96 94
3 46 47 93
3 46 93 94
3 94 93 95
3 86 88 96
3 94 96 88
3 97 92 90
3 98 93 92
3 98 92 97
3 95 93 98
3 104 105 103
3 104 103 102
3 102 100 106
3 107 102 106
3 108 109 105
3 108 105 104
3 110 111 112
3 110 112 48
3 116 115 109
3 116 109 108
3 117 112 111
3 114 124 116
3 119 120 596
3 123 134 49
3 125 596 124
3 124 54 125
3 56 119 125
3 54 56 125
3 126 119 56
3 56 57 126
3 126 128 121
3 57 59 126
3 130 128 127
3 129 130 127
3 59 61 127
3 127 61 129
3 133 131 129
3 132 131 133
3 204 134 122
3 134 204 135
3 49 134 135
3 49 135 64
3 137 136 132
3 137 132 133
3 138 136 137
3 64 135 139
3 64 139 68
3 141 140 138
3 141 138 137
3 68 139 143
3 68 143 72
3 143 142 147
3 72 143 147
3 72 147 73
3 145 144 140
3 145 140 141
3 70 76 145
3 70 145 141
3 146 147 142
3 73 147 78
3 147 146 148
3 147 148 78
3 144 145 149
3 76 149 145
3 150 148 146
3 78 151 83
3 87 86 159
3 154 152 81
3 153 152 154
3 155 156 151
3 155 151 150
3 83 151 156
3 83 156 89
3 156 155 157
3 156 157 89
3 89 157 90
3 96 95 158
3 160 161 159
3 159 158 160
3 153 154 161
3 159 161 154
3 162 157 155
3 163 164 162
3 90 164 97
3 164 163 165
3 164 165 97
3 166 167 168
3 97 165 98
3 166 98 165
3 166 165 167
3 166 168 158
3 166 158 95
3 169 158 168
3 95 98 166
3 160 158 169
3 170 165 163
3 167 165 170
3 176 172 171
3 175 173 174
3 176 178 172
3 177 178 176
3 101 103 176
3 176 103 177
3 179 178 177
3 181 179 177
3 103 105 177
3 177 105 181
3 180 179 181
3 99 182 110
3 183 185 180
3 183 180 181
3 105 183 181
3 105 109 183
3 263 184 601
3 110 184 111
3 186 185 183
3 109 186 183
3 109 115 186
3 190 185 186
3 187 188 184
3 187 184 263
3 111 184 188
3 111 188 117
3 189 190 186
3 189 120 191
3 120 121 191
3 191 121 193
3 195 196 194
3 197 198 188
3 197 188 187
3 117 188 198
3 117 198 122
3 121 128 193
3 193 128 130
3 131 200 196
3 131 196 195
3 201 200 202
3 131 202 200
3 131 132 202
3 203 204 198
3 203 198 197
3 122 198 204
3 204 203 205
3 204 205 135
3 136 206 201
3 136 201 202
3 132 136 202
3 207 206 208
3 136 208 206
3 136 138 208
3 209 205 203
3 210 211 209
3 213 212 207
3 213 207 208
3 138 213 208
3 138 140 213
3 211 215 142
3 215 214 216
3 142 215 216
3 218 217 212
3 218 212 213
3 140 218 213
3 140 144 218
3 219 220 216
3 219 216 214
3 142 216 220
3 142 220 146
3 221 227 222
3 149 152 223
3 221 149 223
3 221 223 227
3 217 218 222
3 221 222 218
3 221 218 144
3 144 149 221
3 224 225 220
3 224 220 219
3 146 220 225
3 146 225 150
3 225 224 226
3 150 225 226
3 228 227 223
3 223 152 153
3 223 153 229
3 223 229 228
3 230 231 226
3 230 226 224
3 150 226 231
3 150 231 155
3 229 233 232
3 161 160 233
3 229 161 233
3 228 229 232
3 153 161 229
3 234 235 231
3 234 231 230
3 155 231 235
3 155 235 162
3 236 237 234
3 235 234 237
3 162 235 237
3 162 237 163
3 238 239 314
3 168 167 240
3 168 240 169
3 238 169 240
3 238 240 239
3 238 314 233
3 238 233 160
3 160 169 238
3 241 242 237
3 241 237 236
3 163 237 242
3 163 242 170
3 167 170 242
3 239 240 243
3 167 243 240
3 245 246 244
3 248 247 246
3 248 246 245
3 172 245 171
3 245 172 248
3 249 250 247
3 249 247 248
3 253 251 252
3 173 253 174
3 173 171 245
3 249 248 178
3 172 178 248
3 179 254 250
3 179 250 249
3 249 178 179
3 255 254 256
3 179 256 254
3 179 180 256
3 258 253 252
3 258 252 257
3 258 174 253
3 260 259 255
3 260 255 256
3 180 260 256
3 180 185 260
3 261 262 257
3 262 261 263
3 601 262 263
3 264 265 259
3 264 259 260
3 185 264 260
3 340 265 266
3 264 266 265
3 264 185 190
3 263 268 187
3 270 269 199
3 273 272 271
3 273 271 270
3 274 275 268
3 274 268 267
3 187 268 275
3 187 275 197
3 199 194 270
3 276 277 272
3 276 272 273
3 196 276 273
3 196 200 276
3 278 277 279
3 276 279 277
3 276 200 201
3 276 201 279
3 280 275 274
3 282 283 278
3 282 278 279
3 201 282 279
3 201 206 282
3 284 283 285
3 282 285 283
3 282 206 207
3 282 207 285
3 203 286 209
3 286 280 281
3 286 281 287
3 289 288 284
3 289 284 285
3 207 289 285
3 207 212 289
3 290 291 287
3 210 287 291
3 210 291 214
3 291 290 294
3 214 291 294
3 293 292 288
3 293 288 289
3 212 293 289
3 212 217 293
3 214 294 219
3 222 227 296
3 295 222 296
3 295 296 299
3 292 293 295
3 295 293 217
3 217 222 295
3 373 297 294
3 219 294 297
3 219 297 224
3 375 298 373
3 297 373 298
3 224 297 298
3 300 299 296
3 296 227 228
3 296 228 301
3 296 301 300
3 302 303 298
3 302 298 375
3 224 298 303
3 224 303 230
3 304 305 382
3 232 233 306
3 304 232 306
3 304 306 305
3 300 301 382
3 304 382 301
3 304 301 228
3 228 232 304
3 307 308 303
3 307 303 302
3 230 303 308
3 230 308 234
3 309 310 307
3 308 307 310
3 234 308 310
3 234 310 236
3 313 314 312
3 312 314 239
3 305 306 313
3 314 313 306
3 314 306 233
3 391 315 310
3 391 310 309
3 236 310 315
3 236 315 241
3 311 312 316
3 311 316 391
3 315 391 316
3 241 315 316
3 241 316 243
3 316 312 239
3 239 243 316
3 317 320 318
3 246 319 244
3 321 322 320
3 321 320 317
3 246 247 317
3 317 247 321
3 324 323 322
3 324 322 321
3 247 250 321
3 321 250 324
3 325 326 327
3 251 332 252
3 318 326 319
3 244 325 251
3 328 329 323
3 328 323 324
3 250 328 324
3 250 254 328
3 330 329 331
3 328 331 329
3 328 254 255
3 328 255 331
3 333 332 327
3 252 332 334
3 252 334 257
3 332 333 334
3 330 331 337
3 337 331 255
3 255 259 337
3 335 336 333
3 334 333 336
3 257 334 336
3 257 336 261
3 336 335 338
3 261 336 338
3 259 265 337
3 341 337 265
3 417 338 335
3 261 338 267
3 348 339 417
3 338 417 339
3 267 338 339
3 346 345 344
3 348 347 339
3 267 339 274
3 424 422 344
3 349 350 345
3 349 345 346
3 272 349 346
3 272 277 349
3 351 350 352
3 349 352 350
3 349 277 278
3 349 278 352
3 347 353 339
3 274 339 353
3 274 353 280
3 354 355 347
3 353 347 355
3 280 353 355
3 280 355 281
3 356 357 351
3 356 351 352
3 278 356 352
3 278 283 356
3 356 283 284
3 356 284 357
3 359 360 355
3 359 355 354
3 281 355 360
3 281 360 287
3 362 361 358
3 362 358 357
3 284 362 357
3 284 288 362
3 363 364 360
3 363 360 359
3 287 360 364
3 287 364 290
3 443 365 363
3 364 363 365
3 290 364 365
3 367 366 361
3 367 361 362
3 288 367 362
3 288 292 367
3 368 369 365
3 368 365 443
3 290 365 369
3 290 369 294
3 370 371 450
3 370 295 299
3 370 299 371
3 366 367 450
3 370 450 367
3 370 367 292
3 292 295 370
3 372 373 369
3 372 369 368
3 294 369 373
3 374 375 372
3 373 372 375
3 377 375 374
3 375 377 302
3 381 379 380
3 380 376 381
3 382 381 376
3 381 382 305
3 382 376 300
3 302 377 383
3 302 383 307
3 384 385 378
3 383 377 378
3 383 378 385
3 307 383 385
3 307 385 309
3 388 386 387
3 388 312 311
3 388 311 386
3 379 381 388
3 379 388 387
3 389 388 381
3 312 388 313
3 388 389 313
3 389 381 305
3 305 313 389
3 390 391 385
3 390 385 384
3 309 385 391
3 386 311 390
3 391 390 311
3 392 395 393
3 320 394 318
3 396 397 395
3 396 395 392
3 320 322 392
3 392 322 396
3 399 398 397
3 399 397 396
3 322 323 396
3 396 323 399
3 400 401 470
3 326 405 327
3 393 401 394
3 318 400 326
3 402 403 398
3 402 398 399
3 323 402 399
3 323 329 402
3 402 404 403
3 402 329 330
3 402 330 404
3 406 405 470
3 327 405 408
3 327 408 333
3 405 406 408
3 407 623 404
3 407 404 330
3 409 410 406
3 408 406 410
3 333 408 410
3 333 410 335
3 411 412 409
3 410 409 412
3 335 410 412
3 416 417 412
3 416 412 411
3 335 412 417
3 413 414 418
3 413 418 416
3 417 416 418
3 417 418 348
3 419 414 415
3 426 425 423
3 348 427 347
3 419 480 428
3 423 430 424
3 431 432 425
3 431 425 426
3 345 431 426
3 345 350 431
3 433 432 434
3 431 434 432
3 431 350 351
3 431 351 434
3 347 427 354
3 436 437 433
3 436 433 434
3 351 436 434
3 351 357 436
3 436 357 358
3 436 358 437
3 354 435 359
3 359 435 441
3 435 439 441
3 440 444 438
3 440 438 437
3 358 440 437
3 358 361 440
3 359 441 363
3 442 443 439
3 441 439 443
3 363 441 443
3 366 444 440
3 361 366 440
3 445 443 442
3 443 445 368
3 449 447 448
3 501 450 449
3 501 449 448
3 449 450 371
3 444 366 501
3 450 501 366
3 368 445 451
3 368 451 372
3 451 445 446
3 452 502 453
3 456 454 455
3 447 456 455
3 456 376 380
3 456 457 376
3 457 449 371
3 371 376 457
3 374 452 377
3 458 453 604
3 454 456 460
3 454 460 459
3 460 380 379
3 460 379 459
3 460 456 380
3 462 387 386
3 462 386 461
3 462 459 379
3 379 387 462
3 384 461 390
3 386 390 461
3 463 508 624
3 395 464 393
3 465 508 463
3 395 397 463
3 463 397 465
3 466 508 465
3 397 398 465
3 465 398 466
3 624 506 464
3 398 403 466
3 466 403 467
3 403 404 467
3 468 466 467
3 467 623 469
3 467 469 468
3 404 623 467
3 509 471 622
3 470 622 471
3 406 470 471
3 406 471 409
3 510 472 509
3 471 509 472
3 409 471 472
3 409 472 411
3 473 474 475
3 473 414 413
3 473 413 474
3 468 469 475
3 473 475 469
3 473 469 415
3 415 414 473
3 510 476 472
3 411 472 476
3 411 476 416
3 413 416 476
3 425 478 423
3 480 482 481
3 429 483 482
3 484 483 477
3 477 485 484
3 485 486 484
3 423 485 430
3 425 432 487
3 432 488 487
3 432 433 488
3 489 490 479
3 479 490 621
3 479 481 489
3 433 491 488
3 433 437 491
3 491 437 438
3 435 621 492
3 435 492 439
3 438 576 491
3 552 493 609
3 492 609 493
3 439 492 493
3 439 493 442
3 494 499 576
3 494 576 438
3 494 438 444
3 582 495 493
3 582 493 552
3 442 493 495
3 442 495 445
3 586 496 582
3 495 582 496
3 445 495 496
3 445 496 446
3 498 497 602
3 499 500 498
3 499 498 602
3 498 448 447
3 498 500 448
3 499 494 500
3 501 500 494
3 448 500 501
3 501 494 444
3 610 502 496
3 610 496 586
3 446 496 502
3 614 503 610
3 497 498 505
3 497 505 618
3 504 618 505
3 505 455 454
3 505 454 504
3 505 498 447
3 447 455 505
3 604 504 459
3 454 459 504
3 506 622 401
3 511 475 474
3 468 475 511
3 487 512 478
3 482 617 481
3 486 478 512
3 487 488 517
3 489 609 490
3 489 481 617
3 598 602 497
3 0 4 6
3 7 1 0
3 0 6 7
3 32 5 28
3 38 43 44
3 64 68 69
3 69 72 74
3 74 27 69
3 75 78 79
3 79 31 75
3 80 33 40
3 48 112 113
3 113 106 48
3 117 122 123
3 123 122 134
3 125 119 596
3 148 150 151
3 151 78 148
3 149 76 81
3 81 152 149
3 87 159 154
3 154 81 87
3 157 162 164
3 164 90 157
3 171 173 175
3 182 601 184
3 184 110 182
3 130 195 194
3 205 209 211
3 244 251 253
3 173 245 244
3 244 253 173
3 258 257 262
3 262 601 258
3 317 318 319
3 319 246 317
3 325 327 332
3 332 251 325
3 325 244 319
3 319 326 325
3 392 393 394
3 394 320 392
3 400 470 405
3 405 326 400
3 400 318 394
3 394 401 400
3 426 423 424
3 447 449 457
3 457 456 447
3 462 461 458
3 463 624 464
3 464 395 463
3 401 393 464
3 464 506 401
3 478 425 487
3 428 480 481
3 481 479 428
3 485 423 478
3 478 486 485
3 468 511 508
3 508 466 468
3 510 511 474
3 482 483 513
3 513 617 482
3 483 484 514
3 514 513 483
3 484 486 515
3 515 514 484
3 486 512 516
3 516 515 486
3 517 488 491
3 489 617 522
3 522 609 489
3 572 576 499
3 499 602 572
3 594 598 497
3 497 618 594
3 8 1 7
3 11 627 10
3 10 627 6
3 11 7 627
3 627 7 6
3 12 626 11
3 11 626 7
3 12 8 626
3 626 8 7
3 108 104 107
3 107 104 102
3 507 624 508
3 507 506 624
3 509 622 506
3 510 509 507
3 507 509 506
3 508 511 507
3 511 510 507
3 516 512 517
3 512 487 517
3 526 617 513
3 526 522 617
3 514 530 513
3 530 526 513
3 534 615 515
3 515 615 514
3 534 530 615
3 615 530 514
3 516 538 515
3 538 534 515
3 517 542 516
3 542 538 516
3 517 576 542
3 517 491 576
3 552 609 522
3 556 552 526
3 526 552 522
3 560 607 530
3 530 607 526
3 560 556 607
3 607 556 526
3 599 560 534
3 534 560 530
3 538 568 534
3 568 599 534
3 542 572 538
3 572 568 538
3 576 572 542
3 586 582 556
3 556 582 552
3 560 590 556
3 590 586 556
3 594 590 599
3 599 590 560
3 568 598 599
3 598 594 599
3 572 602 568
3 602 598 568
3 614 610 590
3 590 610 586
3 618 614 594
3 594 614 590
3 23 22 21
3 21 24 23
3 24 25 26
3 57 56 55
3 55 22 57
3 193 130 194
3 194 199 193
3 502 452 451
3 451 446 502
3 458 461 384
3 384 378 458
3 401 622 470
3 474 413 476
3 476 510 474
3 490 609 492
3 492 621 490
3 618 504 503
3 503 614 618
3 133 63 67
3 67 137 133
3 189 186 115
3 271 272 346
3 346 344 271
3 116 596 115
3 116 124 596
3 121 120 126
3 120 119 126
3 203 197 275
3 477 483 429
3 96 158 159
3 159 86 96
3 243 167 242
3 242 241 243
3 378 377 452
3 348 620 427
3 419 428 620
3 215 211 210
3 210 214 215
3 451 452 374
3 374 372 451
3 192 199 269
3 269 266 192
3 25 24 3
3 176 171 101
3 101 171 175
3 182 603 174
3 174 603 175
3 182 99 603
3 603 99 175
3 268 263 261
3 261 267 268
3 174 601 182
3 174 258 601
3 29 597 30
3 30 597 26
3 29 66 597
3 597 66 26
3 595 64 69
3 70 593 67
3 67 593 137
3 70 141 593
3 593 141 137
3 479 427 620
3 620 428 479
3 123 591 117
3 591 112 117
3 23 588 60
3 60 588 26
3 23 24 588
3 588 24 26
3 620 348 418
3 52 124 114
3 427 621 354
3 354 621 435
3 459 462 604
3 604 462 458
3 621 427 479
3 113 112 591
3 591 118 113
3 18 589 17
3 17 589 16
3 18 65 589
3 589 65 16
3 101 587 103
3 103 587 102
3 101 100 587
3 587 100 102
3 110 585 99
3 110 48 585
3 585 48 106
3 9 584 8
3 8 584 3
3 9 25 584
3 584 25 3
3 3 583 2
3 2 583 21
3 3 24 583
3 583 24 21
3 64 581 49
3 49 581 50
3 64 595 581
3 581 595 50
3 38 580 15
3 15 580 39
3 38 44 580
3 580 44 39
3 414 419 620
3 620 418 414
3 19 579 20
3 20 579 21
3 19 2 579
3 579 2 21
3 101 578 100
3 100 578 99
3 101 175 578
3 578 175 99
3 99 585 100
3 100 585 106
3 114 575 107
3 107 575 108
3 114 116 575
3 575 116 108
3 342 574 422
3 422 574 343
3 342 340 574
3 574 340 343
3 340 628 343
3 343 628 269
3 340 266 628
3 628 266 269
3 625 52 114
3 299 300 371
3 371 300 376
3 600 407 341
3 33 592 34
3 34 592 29
3 33 77 592
3 592 77 29
3 458 577 453
3 453 577 452
3 458 378 577
3 577 378 452
3 419 415 480
3 504 608 503
3 503 608 453
3 504 604 608
3 608 604 453
3 421 420 600
3 123 554 591
3 591 554 118
3 123 50 554
3 107 625 114
3 573 20 55
3 113 612 106
3 106 612 107
3 113 625 612
3 612 625 107
3 429 616 420
3 480 415 616
3 51 571 53
3 65 18 571
3 421 570 430
3 570 342 422
3 52 569 51
3 51 569 118
3 52 625 569
3 51 118 567
3 421 566 420
3 420 566 429
3 421 477 566
3 566 477 429
3 420 616 623
3 65 613 16
3 613 50 595
3 420 565 600
3 600 565 407
3 420 623 565
3 565 623 407
3 16 605 28
3 623 564 469
3 469 564 415
3 623 616 564
3 564 616 415
3 190 563 264
3 264 563 266
3 190 192 563
3 563 192 266
3 503 562 610
3 610 562 502
3 503 453 562
3 562 453 502
3 203 561 286
3 286 561 280
3 203 275 561
3 561 275 280
3 613 65 567
3 118 559 113
3 113 559 625
3 118 569 559
3 559 569 625
3 135 558 139
3 139 558 211
3 135 205 558
3 558 205 211
3 28 619 32
3 32 619 27
3 28 605 619
3 619 605 27
3 480 557 482
3 482 557 429
3 480 616 557
3 557 616 429
3 34 555 13
3 13 555 9
3 34 30 555
3 555 30 9
3 554 567 118
3 15 606 12
3 12 606 13
3 15 39 606
3 407 553 341
3 341 553 337
3 407 330 553
3 553 330 337
3 340 611 265
3 265 611 341
3 340 342 611
3 611 342 341
3 16 551 605
3 605 551 595
3 16 613 551
3 551 613 595
3 45 550 39
3 39 550 40
3 45 80 550
3 550 80 40
3 430 549 421
3 421 549 477
3 430 485 549
3 549 485 477
3 600 570 421
3 192 548 199
3 199 548 193
3 192 191 548
3 548 191 193
3 20 547 19
3 19 547 18
3 20 573 547
3 547 573 18
3 19 546 0
3 0 546 4
3 19 17 546
3 546 17 4
3 53 545 54
3 54 545 55
3 53 573 545
3 545 573 55
3 28 544 16
3 16 544 17
3 28 4 544
3 544 4 17
3 66 543 63
3 63 543 67
3 66 71 543
3 543 71 67
3 54 541 53
3 53 541 52
3 54 124 541
3 541 124 52
3 430 540 424
3 424 540 422
3 430 570 540
3 540 570 422
3 345 539 344
3 344 539 424
3 345 426 539
3 539 426 424
3 126 537 128
3 128 537 127
3 126 59 537
3 537 59 127
3 342 536 341
3 341 536 600
3 342 570 536
3 536 570 600
3 271 535 270
3 270 535 269
3 271 343 535
3 535 343 269
3 80 533 33
3 33 533 82
3 80 87 533
3 533 87 82
3 53 571 573
3 573 571 18
3 344 531 271
3 271 531 343
3 344 422 531
3 531 422 343
3 139 529 143
3 143 529 142
3 139 211 529
3 529 211 142
3 605 528 27
3 27 528 69
3 605 595 528
3 528 595 69
3 13 606 40
3 40 606 39
3 287 527 286
3 286 527 209
3 287 210 527
3 527 210 209
3 70 532 76
3 76 532 77
3 70 71 532
3 532 71 77
3 51 525 571
3 571 525 65
3 51 567 525
3 525 567 65
3 567 524 613
3 613 524 50
3 567 554 524
3 524 554 50
3 190 523 192
3 192 523 191
3 190 189 523
3 523 189 191
3 189 521 120
3 120 521 596
3 189 115 521
3 521 115 596
3 131 520 129
3 129 520 130
3 131 195 520
3 520 195 130
3 63 519 61
3 61 519 129
3 63 133 519
3 519 133 129
3 196 518 194
3 194 518 270
3 196 273 518
3 518 273 270
