# vtk DataFile Version 3.0
A great-looking cell
ASCII
DATASET POLYDATA
POINTS 575 double
242.7185123654088 129.74825618410603 59.141751616507875
245.16861743880378 131.48035844994885 54.60968806398858
244.85654548850792 129.10734100716292 53.806843134337726
243.42550202652492 128.52063951039926 55.76125128574982
242.22387504988237 127.6311381517097 59.22440046984288
242.56700761283466 126.3578258824366 56.9359844554176
246.53491686360329 132.4645803063277 53.943332836463554
246.2920481842306 130.88946273162372 52.8303744605546
246.48477236834935 128.54912468228258 51.6954323385306
242.26650297210315 128.8974422654399 61.09342871315106
244.31791681833823 123.33035497661915 54.774318614185894
244.1059369348295 126.23482596042548 54.1378372626846
241.75713262045454 126.9579612635717 61.045899740524185
241.82716314493456 125.13776730460378 59.67630684784748
247.22734658230146 137.76865055109735 64.17102547908084
259.9535657369893 121.23904947913303 55.82677065551415
249.05065017497697 125.62011000531223 50.28844006374283
246.25467170815105 119.19932549615514 55.86172045400989
244.2371280386448 120.9892137268112 56.936558172030935
241.49617708685727 125.24665056618325 62.40267064848938
241.820702467518 127.69410536983686 62.9858953421739
242.96995977064236 132.78646593102002 69.40773454695704
242.59355830451497 129.89723276546886 63.15307120606696
244.77797078537222 137.69172962985252 67.4072364908575
245.85341380299198 138.41579978412062 74.87909519009926
252.55907511158594 115.94010318953883 78.12996254797953
248.30764273903605 138.77659285678257 74.77934547858375
244.7317566030432 116.58491983008645 63.817198379737256
246.81307020832088 117.00745100866895 57.14790498702601
243.45699979410864 120.0253110457665 59.83097132003273
243.10875453159267 131.9259958977843 67.15146113013287
242.59351065026024 129.9585505807296 67.09651246149093
242.856248761205 130.8256507549046 70.4587268580459
242.52382417847952 128.75584693504072 71.43515375202367
242.81824427493905 128.947240840595 73.88536594819418
241.97396546096098 125.4498619451624 70.91153561859862
242.3542119399975 124.65976432144735 73.31246075525307
242.31240507395594 121.25874185218885 67.95753825556675
241.9343672611889 122.61713098782126 62.84102100069846
248.55879859429047 113.48001063800858 67.84702887164656
252.86030682099928 132.74957639266066 83.8049479392653
256.63564481811846 118.51703046178412 80.17984194851623
253.46829228267757 113.21109812523397 63.462324357139224
251.3087789057648 116.92589001934019 79.33285101444257
245.59806907278303 117.23491473977913 74.60512096927398
257.9789004158909 114.7980033215574 75.57202230286973
243.1398030920475 127.5061327696013 79.62571097542296
260.68324200792136 118.74169263411076 76.97489380684071
245.1762257147775 130.29498370846994 82.35075245344386
241.67554376079835 124.33110996164007 64.04192721125837
259.4853848495623 126.9602892933776 79.62064153050711
246.46590216375134 130.49460723103 83.49035797039778
246.65602897571208 114.56576455625496 72.20884012316876
257.5357364201814 131.96534846871728 58.30105701088707
259.27051974310535 131.11598948690215 62.015263678606686
256.09459198229445 134.88009009239838 74.96643460620268
258.7464798595982 131.28289473306938 60.28796173087595
257.06197146923324 134.79393671587104 71.30412095296847
263.8026473389624 118.68334101059293 67.4691595307034
261.6914886797416 124.78985642347378 58.858466733828465
260.06731776863325 120.53964773595331 79.00855007159821
258.47600253270093 132.99524179302938 68.88797017137419
261.7485081796632 125.67212190525349 60.26728670529061
258.9577468604804 130.28174341373446 59.14692239917101
259.8138597332833 128.0273056604491 76.00288615947174
242.18302345646848 127.78903360216641 67.35586808979349
260.96431948406274 128.1765897889142 65.67530848734486
242.80964043240448 130.97638018922794 68.6451850913615
249.02296937249164 134.22500291415332 82.98727935302915
255.76394831993034 131.91573929566107 54.87990230792627
263.14042108018094 122.79119541808471 67.84402956368838
256.52700881689094 135.41990140573367 66.28683316397031
253.82245387451883 133.48902728752478 54.877378559998796
255.1348078159232 136.1507941484067 66.37280990519746
252.3674400596734 134.7155935590623 56.07719312972952
257.9316946344168 132.7666996381599 75.60179909350789
253.73232499462708 126.1947459315796 50.51208877433909
258.8186191333551 132.33697723779957 63.308211692070245
242.3330150887346 129.3200720571619 69.11704727853632
253.80158646578093 136.62580801303505 65.15423002426559
247.84282733017298 132.32289404747698 52.83532289619281
251.1242684623551 127.65593415605552 49.85885598035351
241.9429754718482 125.25230180905437 68.0238480973145
256.3500764095309 134.61331330073153 61.081846023419295
254.65267583054228 136.17860815821462 63.403942920212664
253.0739172547571 137.0185504890789 69.87113708010504
245.93237443416288 116.59562095937999 59.896378212660984
251.65964362225415 137.22018817968913 62.672269153108275
255.30209523840938 134.8623619361075 59.279503887110785
260.5599382371525 125.77700434296014 77.09708974470153
257.7043414573478 134.4343779276948 66.08439173680425
252.19011034804518 137.26757501505205 66.54426231375544
259.23185870343644 114.2283790860232 73.24062090692159
251.72449104054888 134.11712502721173 54.33366124182119
253.45177003017372 135.74144162004097 59.13456893671197
244.50429143359565 137.1385429764086 76.78038552759145
242.27847374967476 128.73860577739913 65.141764495497
256.0040545784294 120.86526199401041 52.800978372352866
255.0681274665513 131.2945079929953 83.5920586633014
251.950003649041 137.25157544681392 64.42700289071598
256.89544219094586 115.28126797230955 58.62033573033465
249.34231833977188 115.23950408610291 75.8689283574966
247.62188237199507 134.8437023599609 82.38064775143454
252.23329959875662 136.6374063036258 60.89824983108773
258.51805824524604 133.16525238895804 66.83353099386048
252.30464805644976 137.42143521469708 68.37330312538698
255.74285995563184 135.78151539028406 67.99460973919899
260.23952064042794 129.7964272756065 64.63832181290422
245.40527123115234 115.65021453882679 70.95547397590576
257.5341517910106 128.59353785291395 82.43191353869976
246.49461847102765 118.30151993597362 77.0000334328843
251.56491074976208 136.05120859763267 58.85703637431751
255.57185781949818 135.85635861103546 64.76692028222254
250.99276708643617 135.4093544975783 57.11185069166202
250.5972356510406 136.78433691732673 60.00227821807239
242.82926573882506 127.15182790193693 78.00855018746661
256.87074792746677 133.81537640822967 59.4424038442336
254.34856948241355 131.92393668047117 53.081876925751224
257.2453786331505 123.93684876869428 52.59039317969572
243.61432410085766 131.04319079518885 77.88102909796284
243.61940202772047 136.1651799738912 70.38018776953577
249.11077657287973 134.97470210856585 56.244662483918354
247.51353217779382 138.28583974059623 65.85493661655957
262.87287822450753 116.6596708839787 69.57613977973622
263.76157486795614 120.96395888119042 66.09547362162485
250.8665918324588 138.0700536271819 67.90252435076658
247.65612208916716 138.88996960028948 69.48236330931374
262.41871899650414 123.78395563309137 70.39670168592497
244.6235252981581 132.97757256077418 58.58385141268238
252.53237504982238 132.9097302245652 52.9307189856729
262.5475360849621 124.48103082222511 62.49239907402712
249.5574994144029 132.22645339436485 51.87196370238763
250.52663964463687 113.39883751846486 63.41831861923766
258.0210706053971 133.1460575374202 73.6714737721551
257.7877487624461 134.15352906512362 70.07154441727542
244.36034472969564 137.32189448846935 69.39315075076297
259.7908316389267 129.62966505666566 60.73784648057869
259.0737394161768 127.97570174391736 56.85771244813572
243.54273610481988 134.78108230422006 73.96240574754398
255.03121189203338 112.84142438438637 71.22911907769125
253.25898823903694 112.70411680547807 66.22742563056055
243.6664213677375 130.63411800176752 79.55249361252788
248.41310104439594 116.38760153399181 77.20751232286861
244.1106943890739 135.50661840174536 78.23139595034519
247.69510602753314 122.681024323146 83.69225112382146
242.0257617781196 123.30786645775967 67.81333159127499
257.9010853837778 133.63901892660112 71.83467446250698
258.17036377236224 117.10114090863509 56.81517669099099
258.57730323818396 130.88681146321534 76.60688059775231
250.8088289834862 134.75392631816874 55.5858110704045
254.42555222209091 112.50289781842896 68.78300177439762
263.170238805433 118.88298568538427 71.74327095228183
251.98812521673207 137.12339934668998 73.3498461731278
263.2325600045445 122.28848030662616 69.89289490347
263.7563221804386 120.7835129781974 67.72064303642169
253.2779147752064 119.53927389535416 52.714982677954374
244.26373068334638 134.1252466148416 79.46062195362138
242.91540502863677 129.07011782746218 75.4141245200781
242.14892974217267 127.3004497658815 69.68164162833958
245.7023250898345 137.0945369957855 63.96915378134237
243.71736690059672 120.40152330153138 74.46452832501157
258.3026012286008 129.87404500087783 57.53607238655658
249.58296202151126 138.05194201519515 77.97682154561853
242.7074026143043 123.62787780978557 74.45689819698111
242.41575696715418 123.50354309758909 71.53637077949688
258.7268111436781 131.86220080459174 72.16906688821078
248.6228906716619 137.5567839937013 62.551294157835684
262.57033240087605 118.91119950247386 74.76174070298974
242.3077144072933 120.89265565535254 65.231389165468
245.13345117991582 136.95184020231906 78.65418788176912
259.37106468198647 131.54215972207794 67.83675769587224
251.03848306418715 115.50642231168014 76.98723590192415
261.3253430595318 125.02826372045324 75.21239810186613
243.72061237139158 135.1806826684205 76.16748516541331
245.38752399114412 135.81678526891181 62.33203797897779
243.100401115462 132.30022504274362 71.49794031930873
255.19222413527916 118.34924660975364 54.5930541937166
242.1916858871847 127.1231967451516 71.25242354790817
255.60101385747043 125.01107332691132 51.41993982643318
242.52313369060167 119.84594847162282 66.66643867981196
242.9811807975214 120.14897124441465 72.35540399449667
251.72774778907456 136.15687967849766 79.39150317219267
248.205298513364 138.99648806569152 71.97365265439909
256.11118569334053 132.94549400554592 81.88448913844572
243.17560894517433 126.00243019896118 79.9111924831447
246.4965899926374 135.2775172858651 81.48118604561822
262.42829619067396 124.53711177218328 68.83595421389488
247.4767888168325 119.98533531396238 80.41680714320908
260.6172811332423 128.05392005117264 70.62323948342163
251.25824179352165 128.30005795236653 86.06985381360553
253.97807603990773 115.01789520205196 58.01296355267245
262.740578574534 123.91178321410915 65.2475347998534
246.14989199850274 128.70332714383716 83.92900286971977
246.8108538619864 136.99412075999092 62.441262203493025
244.613268522515 135.89135652874572 64.31915928237855
244.29190018513629 116.76383253508894 65.89165985077649
245.98780428402947 138.09349901443102 65.62120736803594
250.39342730711505 113.030504528844 71.53825290697509
256.80865117474593 130.06472959580614 54.35457709322927
244.1010087826995 135.96073968376396 66.26209817208958
246.20783303458882 114.63392919144319 68.39160313516143
247.59798152675026 128.603008790508 85.00762001132769
257.3953944163168 134.5444233962482 67.9910535790871
249.2161658447466 114.17157046851868 60.96123630776324
244.90470488409173 137.05788829756455 65.46143246211692
251.31152619504115 132.31181791666356 51.62896611935895
256.0788547706325 113.56046342511581 73.77858873649119
249.5237736527045 136.12158169072208 58.50992211626121
250.07093219294725 116.59834965805705 78.03953303203355
252.1814752062058 137.3843128321434 71.42926842934715
245.17406112376844 131.73509942768064 81.87672392790984
252.73591965310592 117.43635343092471 80.28721269128741
250.43641823044726 137.23536812431914 61.660089036357064
256.32796325990546 126.1696684620798 83.78041974773154
242.56312134817625 127.28080023714296 75.51103317610968
260.3657246543385 125.24324927061159 79.07393000783935
244.43382129919854 118.10414637863344 59.746353663212666
241.95106110808305 123.39338596273134 65.83809277705585
244.70317227130445 125.34684626730235 81.90710571666744
245.34589506049974 118.76365889850068 75.6704162264967
242.91847864806883 119.00134828898165 67.76964979887644
242.47673352604474 125.93848111603859 74.35362898850066
258.2564622118796 133.45170122375166 64.806402529536
244.1150107826642 122.81101551731922 77.83585676751203
245.15463099352795 116.33735904815812 61.8104251204072
260.11485861606434 129.77769780411538 66.75993515756585
245.02518954650964 128.79329388737017 82.79063520416668
245.0228726048695 135.66302517198656 80.05295802062408
255.42092143208453 135.0562194452785 76.65214233743502
255.5440858831554 121.59890489349358 82.67913006656508
253.12137911565412 114.30878512170419 59.65652906032964
261.79913546241556 116.14568455032953 63.47663459426813
243.1963343507243 119.09029982908764 70.09154058473669
246.3441626191 123.1769324572356 82.35287724026666
247.724514596025 124.67346550470958 84.30171446150776
254.13810259317117 113.66167250689655 75.01139828007389
252.50751876585053 123.3685169597703 84.64289471835501
261.90107209298594 125.11400715665086 71.41412312662852
242.28610765334318 126.90594777401074 72.96915430429787
242.6978174720776 122.34323690697472 73.24612560323094
253.0310446801534 113.02234113074547 73.28144805890084
243.26116109817693 124.95812203171941 77.82646760821613
246.05267596858928 115.65475382070942 73.71376858291016
257.0499059078567 132.8696750909105 79.92812951433537
245.63403575042264 115.3223339526912 66.01067838939396
242.22556563751615 122.49126234726339 60.04488530774003
260.51944022203963 126.20413581157369 58.1049932322996
259.62097462302506 124.60789107555823 80.61665245333279
263.6756675671605 120.57818510100013 69.4715719831477
261.9611324869233 126.4068598997772 64.69639443350965
250.42355953179037 120.30544436485076 82.74878198836763
255.42976741578246 116.94914568546415 79.14121288670032
256.97861574618366 127.3895054407835 83.23129014707624
261.6648617969922 125.88064602302568 69.80684186624661
257.20580673037983 130.90745209322915 81.63909957092433
253.8703011059376 136.6611488536323 67.72343228215085
255.518557235646 128.46369680189125 83.90320395138333
263.6333209833923 119.06718059899865 64.41048091586435
254.13759348669058 126.15157239751382 85.1120906438044
245.90273916862924 119.80653986939589 78.08619999043256
242.09754192929742 123.37764181223191 69.50090927925042
247.6306830055594 137.20114734164906 61.031520149082205
258.1082252029386 126.1285504568634 54.12187943485305
261.70650389853455 115.49105843878424 65.20370389050976
262.8102771870537 117.5214062370516 73.27984343664234
242.55176645266107 121.60082136660753 70.7793664646103
262.966945345417 122.70742656742291 61.65370253580832
259.25947045912204 130.30711768306873 73.2536552631984
252.54533274191243 130.63743069425757 85.08986245872669
263.10438579146177 121.75106659904776 71.7979102365892
245.14750068493234 127.4543851761612 52.62029289820753
250.69696060087935 136.27112555002185 80.65010225849447
243.46400838706813 134.1394087695216 67.2497385056922
243.97938494698988 136.81551787388753 74.59876115959196
257.1618545270193 133.909631910107 74.75243553240885
258.34162572833293 121.8034582912489 53.993896816157175
257.87228964430847 129.10447025554126 55.680331873662304
259.4776883131157 124.00397312721462 55.02196498879945
246.64960782296453 122.81750827977426 52.65551426060831
254.1433112108516 121.22059815482498 51.89052854280186
250.8600039814178 121.98917747197102 51.00649242997498
262.06451194866133 125.47534502321166 67.25025023802112
261.1918600653987 116.54717949120314 61.00040401574157
263.38916973522515 122.43005870019464 65.6784939718404
250.5048244216011 138.20718462563366 72.00663846559627
243.8041896022794 127.72533646609563 81.14701862425191
256.84825763278013 117.67192660131408 55.51261685600579
259.78619431643705 118.91270041759766 56.63110512353335
246.6618614725365 137.288007630594 80.00527009496876
260.75017605189487 127.65023468981026 60.29667903620816
247.0853461729928 116.85790863785779 75.88672803242997
242.8984652766865 119.83045854087358 62.7886469203658
248.45171951711134 116.32961550879075 56.63018370537748
245.67409412496295 135.1439877287717 60.66368576311053
254.86493742507918 118.99920197211284 81.50885049348153
263.0375778928649 116.64822235661075 67.45057762821097
244.1089441791767 117.2908629718439 70.55339822759098
242.93807157802078 129.1242435512078 76.9181618047864
244.7595123181072 131.94375500124144 56.87203672854432
252.5370743189701 135.39750376508772 57.631040659239375
244.24428678029173 116.94657089045148 68.17401751903162
257.67057483871076 123.37631004490953 82.16547658972803
262.3987040279667 116.79643198503813 72.0232895557551
243.18985493866444 129.098321227314 79.24894004439948
260.0786031578515 114.62135610269851 64.72519582687917
257.6249629907009 120.40635896621366 80.861468949078
247.49539824123343 138.4472740383058 78.83415124575716
248.8434462305474 138.56833380982152 67.25654830798294
246.3477482095865 136.43140593543626 60.73188457062007
246.03027181264656 124.9150122820672 83.28086156018111
243.12137914571494 134.77796175615532 69.35563766192237
245.95806260223338 126.80854059176198 83.86480429017973
247.92213767317324 133.68172413274715 54.54179837753266
252.2114617694231 119.01262851820167 81.84140731116227
247.0271617460814 114.24678697049616 66.77471614408572
245.73082065916395 138.4723595749652 69.69562355937504
247.37361416850342 115.00258776458381 60.298558522992586
248.27455596932276 138.51534261071046 77.3790981833201
255.3140156240839 133.29292773311764 56.25012282931191
246.6990495859512 138.56472865391683 67.51815951938627
255.75304464205627 130.80376482494597 53.20145710001348
246.20385362246537 125.75754753996533 51.753937392841756
242.692177447141 126.05042986023017 76.77051465038733
258.49189478839656 127.57958402753503 55.237969522043535
243.34653348490312 122.67664335105616 75.58987094953963
251.8386474926752 136.91165468582957 75.9441509834649
243.60290312276067 132.13045430945556 76.60765204427385
245.46662301308172 121.94139535818071 79.97172785314417
243.8335500803085 133.3486090770737 77.69232038336905
257.1448391989009 112.82422253823383 67.87535821938211
253.20351354156148 129.17913554238325 50.37730233034986
261.6776124260235 126.94673733044435 62.17720066447001
262.95990328082627 116.73854626255576 65.52484669861497
247.73673086664968 120.08769584195136 53.57588853668535
261.33461127429695 115.22032782010484 69.34805553878591
243.2092880389562 130.8921966103344 75.30183396247007
251.55293686278281 134.703387479642 82.68670185755471
246.7984117777098 133.25706432240423 82.64768421093706
255.45906661619554 123.90777263833834 83.85029891122987
262.9424367588651 120.85672723006704 60.73607171887626
256.06553915073533 112.82677324884753 69.71510085061568
243.6330768889379 133.4104334231696 63.77274862366162
243.80514809554984 136.30546668194444 72.46676093106925
243.72782092976385 131.53770505130686 58.83722954727645
242.391814673295 121.13556649265499 61.330380770479515
243.9547034620198 133.00112999891257 60.19182253220177
244.19845020465453 134.57585768415143 63.105205035054176
256.8397443617834 134.63849457185685 73.12799661794975
260.79044066475495 123.33827215297242 78.57751186009499
259.5746755002191 127.37784372343641 77.65096516669936
251.6424768378811 123.73466308558388 50.26630386420906
251.68563551987899 125.92254977368658 85.78423498651138
259.08800699683906 129.38599478749032 76.39310274388545
249.60771892536215 130.2840974006966 85.35408488171777
258.6179597439063 131.45797921237215 74.3881014497169
255.01342708744613 113.99990328938725 60.823879337311794
261.53830713271793 120.23949211638546 58.07757749652987
259.04405570244165 115.18258547565314 60.15689641453277
261.89589558828663 124.22524911161744 73.23195893970724
259.9303498439437 129.76622677387255 69.0948686458464
263.7710086637119 118.62364682706746 69.62418947288806
257.92344304782085 132.74849709148532 60.97608243291743
248.89732698533456 119.79788055029341 81.69309722146156
245.97446893110023 138.80060155719065 72.16860546837454
242.7576011490358 124.86977738164397 75.59137516538004
247.83984904785012 117.9303890086721 78.24337556656963
257.14127855739235 130.85740403269983 56.156586037778574
244.24902925292986 130.07997503964762 81.02187237281777
250.36604196046517 137.70003987574424 63.600796958161176
261.4798336733867 115.27418751092789 67.24304414677168
243.62177555017158 133.14951651908947 62.11893088402188
248.7922143451006 128.34612177896364 50.68890160265894
259.4642378417331 131.6815712277096 65.39766220875256
249.08816520196817 137.1879039351347 60.418993326021734
257.48759523533295 133.8621982323876 62.75788349852779
259.54536909765363 130.9215297235015 63.63192086308706
259.1209287151008 131.52501030486516 70.00196159762132
261.4088299754501 126.9223299970789 66.38011419686133
247.72220033304666 136.349761519831 59.562835447406634
243.8289176351539 134.50504240882594 64.98130117569657
260.9199075418187 128.25926429783593 63.63322995796284
261.63013247746443 121.13542886992353 76.73669004836829
249.44153495067366 113.02664107998969 69.67060210321488
253.18727964776966 116.51385586679571 55.60148261825942
256.9323046048042 134.7327246737558 64.59159284697326
254.30342172203441 129.78640962795265 84.729579361672
250.12832492182602 124.55620982175026 85.06323794385598
259.59296298597144 128.62995556013138 58.776062898717456
258.45261292879945 132.86742364297757 70.59677236422176
256.3618940295736 126.7530149305319 52.173636974436924
248.2180567444425 114.20853173900711 73.36669332208211
259.606871138073 113.81131283881231 71.22914131852338
248.51052167575273 113.90778858757457 62.88108528994264
258.08719265713205 113.42692600581628 65.40104782681503
254.36997922470673 135.1364797911469 78.40034472792739
263.43799234857073 121.8535251691968 63.57312022646038
250.0129734933105 118.25797546646496 80.51965024219565
262.19076231829666 122.01637724158823 58.98623692834304
243.62570403859408 133.18634559616376 75.52245202172931
260.7934267646559 128.53584277665226 61.89112201849247
246.86724668482432 138.92753795895223 70.82365287728344
249.62200148059497 138.57796742138962 69.7423458629355
259.75160956791507 114.03749489111894 69.2643270257628
258.10469013558327 126.23389493510818 82.22203495894645
247.60097195379834 127.07903273474408 51.04264191327517
244.7007088216615 134.27764299507703 61.335699853052304
252.84150519476933 112.60190377344779 70.7278288061388
254.8503095562009 135.63549916824266 75.24488550309272
250.2325912290619 120.28427726358308 52.10415564358723
256.9653046766831 124.90437279014058 83.10585278918154
249.32082980826058 128.4929630476425 85.87344490219209
248.49717933000096 117.74900981939795 55.13885696283149
247.19767554181507 134.45636160145784 56.23425003508454
247.47601816147113 115.18443991406488 74.94197353501038
244.52493273496856 137.63067033369651 71.19835627832066
258.817248092174 115.8365316399254 58.25443158526676
261.56617540443403 123.57289893401378 75.90755969807262
262.7638456293394 118.25446911744459 62.19425308228079
243.43861908262969 132.79149326618625 65.29738396837095
260.05825251553733 128.4025554061228 73.2784610964071
256.4487225353224 132.35669252268667 56.72369546323568
250.5691674597027 113.00516099249546 65.9629998810715
243.54181401412697 118.09680317904528 63.37925124816462
261.28018709543835 123.41978326130537 57.503357019234095
260.04875280855447 115.09484015598983 62.35793957861109
252.8995301469731 131.33187779718412 51.497798799867844
257.3084606656495 128.13617204175793 54.038664420476
257.60667196721243 114.08518616556901 62.733114206027636
244.13996893652242 117.84861238998677 61.533435771109275
260.1100863874081 129.7291626467237 62.75556992656251
245.7327911691983 121.21555711701296 54.66786886774271
254.46754381236605 135.7800621438105 61.36003407087736
255.7823569263023 113.01002388789833 65.05917762305556
249.38767892330313 138.63871160182708 73.28789605397482
248.24076854224418 121.28383802115138 52.03432931559052
246.6536401076636 114.92723177645317 62.29436537789193
250.65108331874478 132.5761103564322 84.26284480372388
256.1601813354901 133.83536546124682 57.70228303441719
255.3453334888702 134.3705987802049 80.34302645214356
250.60413967561547 113.8207295840482 74.04445131600923
255.91354562671606 135.18726776911126 62.97295257970126
253.05267781973228 120.93532118170414 83.16846925473519
257.61384821719037 113.25251341287169 70.93823948855673
247.5771870553363 135.33326815934063 57.82767213163564
244.90369279463542 123.4683562745186 81.1940290863521
259.1264121324179 129.7083562787528 74.97781429002002
261.32871709341174 116.26537132005872 74.08032844214016
258.99971219299175 128.95562173296508 77.97168091423814
250.4567832968157 116.17897412768907 56.449155180734934
254.77538744726945 136.11674266322947 69.82969490233504
252.25200234911202 114.48450930191304 75.75503656811418
249.0884411110674 122.72873258893561 51.06879195523786
250.67696505210287 130.38005475121932 50.67426898734062
255.78071100381302 135.6654963817996 71.62436443351444
247.05265632414608 139.01562265751053 73.4849936037529
254.20123590101997 122.36388487344676 83.75961676615341
261.2998370257756 126.4067796547102 72.17156458722111
257.2233471548588 114.27888371507326 60.46201862960954
252.2391384630935 115.42052557301737 57.09354279178158
245.09240872202338 121.43361014531294 78.09896496184389
258.150474292106 130.9738446919331 79.09213473417621
253.55384697149154 136.2480374857208 74.4388008511175
251.41746475416292 125.76839122397514 49.816574396282924
252.10835713018167 113.56596000368778 61.069754374487275
249.9379714964162 135.34189641092732 81.98887061552828
260.73787286940154 126.28178057071888 74.48930494418671
246.04404238352018 115.00830567006848 64.2296539876698
249.2965042418448 118.78088274977358 53.44703258063253
256.04367076437876 129.07792897802508 52.777887384512795
259.7283768432054 130.04381781607228 71.41974680054541
261.30371281808607 117.46087057158641 75.73954348500688
250.31847751355585 137.94860783921035 74.31299950610628
254.91021735526854 128.31521959265473 51.405287642997656
242.80069573230867 128.51597678343157 57.63216230153914
256.4891638941401 129.8815028069261 83.0929190931711
256.5305493407281 135.34155579476075 69.79942457200939
263.6171157778969 119.96065518186523 62.60009157543501
251.3379463861993 114.66152685902607 58.7229384117337
263.20680197727165 120.33027128993719 73.23353019746615
256.23986528970846 134.1911162702489 78.27723536601033
243.17708228633919 132.73729830719768 73.42984820615068
247.51938165416902 124.10357623357862 51.04914505635455
245.91615456237727 133.9555439855808 57.6632387705059
251.96434689783285 112.90706710027908 64.7454079665276
246.25420149078394 135.38819178003519 59.22017215890718
244.64970720166113 137.77556219284853 73.08223834886783
259.3897845347576 126.19040185575008 55.944509902305455
253.15874714700456 136.70621446536168 62.95651948902725
254.30671936344652 134.13410220438882 82.63085077297453
247.140928161775 138.75208537391322 76.19780569958296
249.08323426971714 133.42947050980754 53.08847962497847
247.9300015230622 130.3895922817763 84.61289375193921
248.4806535185469 135.96861714657533 81.40350497300913
245.07405559723023 124.45730232892848 53.10657858747759
262.7803699195502 121.76548252476292 74.42710627055271
253.22656323151674 118.01673872134879 54.16443189917713
251.34344026171493 112.72539475514905 68.67921579695178
259.4623702176837 122.35674295333133 80.55281426152871
243.12599433860072 121.72077577010707 58.5219228547655
257.96543969545036 119.24429768558932 54.870228945906796
242.96267269149112 130.76167324710525 72.67308213073714
252.81954354628033 127.15352423528769 86.21656353673333
262.95607928611497 117.43524302879283 63.82320316632947
242.7485284133675 123.45752103158927 57.37097551586745
243.85713739201535 136.04605489508435 68.3335046650405
249.92130433368834 138.03086083391727 76.47730314163582
243.16067694719882 118.41281475209274 65.51023790968567
249.85220292274474 134.36635970981243 54.28223669756649
255.78914031857553 116.43105782008381 56.3386513233494
248.40247520969137 131.88516087200068 83.92920686622719
252.49192123884654 121.58237183349452 51.38344619527939
243.19361461020995 124.8131322348636 55.66271721714245
243.31769576678926 123.81805896452839 76.73203044740299
258.298272193889 118.16412457534886 78.6840952992253
255.16710479060578 112.72729524231221 66.9864239233912
244.65471853268576 127.14652954806124 82.60250929770883
244.35470421895073 130.24588753347848 55.66439041386117
248.43805505028305 115.51883203145947 58.50648473293826
247.63544068886858 126.6951638590356 84.66944189789479
248.10826561850135 130.61380738758552 51.394974152029604
243.14010938932927 131.1801217424314 61.12484582909995
256.87787756797974 134.05439310315091 76.3568302828294
244.5876366733103 120.98895985624978 76.62255978216903
244.45078482979108 117.97575087943775 72.83212088848154
254.19547384855343 134.61980426795176 57.20406418296627
246.27494176672258 138.24939422777905 77.6265955377902
261.0893914209776 115.11911893728958 71.29118705417523
246.14294119368634 133.11010472879533 55.577012356276796
245.03767722156496 118.55077868349404 58.147660650239274
243.2734631176443 131.8831805196945 63.43726313102506
254.63880862363416 130.18817551864808 51.91252116715914
249.27059301449168 126.70135311496011 85.46455391865776
255.15635437438442 114.77221640348121 76.61102848121173
248.85397183543176 138.13962548267492 64.8129037106598
253.7844519508942 135.89074201540816 76.4941952230382
258.49529967089086 127.74456637554836 81.23400425640746
243.5588999731847 130.1315608596047 57.28346462251549
241.7380597475376 126.08675618291457 65.11464625357499
242.78673447418944 130.90925756677407 65.20158750283365
246.75114329150995 121.52194756977953 81.3848209513948
248.95257556568697 137.72623887215818 79.46149398903164
262.4210840228018 123.4861579971181 59.98687812330037
241.65707514523191 123.83951344006495 61.20727098089404
253.78904726817882 136.46435898748726 72.01619956717542
260.8729732994775 127.69101095934161 67.93518634629177
257.65260521048697 132.73669675389198 77.69054707583184
251.14552022812612 117.78191301452514 53.88160980222274
244.15010424657564 132.13931481361374 79.84791521251603
250.52575740306594 137.89963013522873 65.73646504537732
245.31164971846582 134.01961935784618 59.6446636194454
259.7432656785195 116.44733381883339 76.46591374045981
251.40658440457392 137.75598677362706 69.88176122795143
260.44643100610114 117.18669881273105 58.41607899182343
247.88495954406946 113.98420533880748 64.91634454066937
245.25721285578837 133.72934304828277 80.95865938059457
253.6231166041638 128.49333261429922 85.56840261192384
243.24418691943885 134.3006676446047 71.5115348865556
259.79626124754344 115.1204026954044 75.02692454212402
252.5233062977011 135.99079195942042 78.15261157840068
255.1679051415277 135.62509388603502 73.57674369106878
254.6070012221055 123.10284534580164 51.0884116079406
249.6092545970002 122.41008272749741 84.27003583140333
262.1081844291952 118.46293681624883 59.91163641848487
247.73080886472732 113.86537335343235 70.58728588415126
248.08245488602944 121.2960172931288 82.48548662664042
253.08085304940235 135.63713867141325 80.46073218948997
257.4148401979453 116.02842497774112 77.48953984885654
259.42016489501555 113.81832340930247 66.8864574757785
250.6872083226058 133.38817237695724 52.88968335284885
244.16499480106597 124.03930695739905 79.82079017261717
251.4061447982835 121.63365403815875 83.89301339299911
255.50603247399468 113.38956674881852 62.96805517168998
258.44921045619316 129.0774531005378 80.39274130950228
250.74791142004867 137.02563701416494 78.30638986260932
260.44415938279735 125.0685863870301 56.47719715323384
POLYGONS 1146 4584
3 473 0 536
3 0 343 536
3 0 473 4
3 0 9 520
3 1 7 2
3 8 2 7
3 2 11 3
3 3 11 5
3 4 12 9
3 4 5 13
3 4 13 12
3 9 20 22
3 520 9 22
3 9 12 20
3 19 20 12
3 13 19 12
3 96 538 22
3 22 20 96
3 96 31 538
3 30 538 31
3 96 65 31
3 32 78 33
3 33 78 158
3 35 158 82
3 20 19 537
3 78 65 158
3 96 537 65
3 158 65 82
3 96 20 537
3 5 4 473
3 7 1 6
3 78 32 67
3 67 30 31
3 31 78 67
3 78 31 65
3 537 82 65
3 516 3 536
3 0 4 9
3 5 473 3
3 538 529 22
3 21 32 175
3 175 32 500
3 418 538 30
3 1 516 298
3 2 516 1
3 2 3 516
3 529 520 22
3 536 3 473
3 529 370 520
3 343 128 298
3 30 67 21
3 21 67 32
3 30 272 418
3 343 298 536
3 418 529 538
3 527 312 6
3 516 536 298
3 343 0 520
3 345 128 343
3 529 341 370
3 272 30 21
3 298 527 1
3 1 527 6
3 418 341 529
3 343 520 345
3 520 370 345
3 405 345 370
3 379 346 341
3 418 379 341
3 21 310 272
3 204 196 159
3 159 194 204
3 379 418 272
3 500 480 175
3 175 480 556
3 319 196 23
3 23 196 204
3 194 174 346
3 346 174 405
3 341 346 370
3 293 405 174
3 379 272 199
3 346 379 194
3 293 549 405
3 194 379 199
3 549 293 484
3 484 482 549
3 128 482 298
3 298 482 527
3 345 405 549
3 363 485 24
3 319 122 196
3 196 122 14
3 319 307 122
3 556 21 175
3 273 485 342
3 556 342 120
3 342 414 120
3 342 485 414
3 549 128 345
3 120 310 556
3 310 21 556
3 128 549 482
3 346 405 370
3 6 80 7
3 272 310 504
3 261 308 193
3 261 378 308
3 199 204 194
3 194 159 174
3 261 166 373
3 199 272 504
3 121 507 312
3 484 293 308
3 293 174 308
3 199 23 204
3 482 484 443
3 199 504 23
3 504 135 23
3 196 14 159
3 159 14 193
3 482 443 412
3 443 378 207
3 261 373 378
3 378 373 207
3 319 126 307
3 319 315 126
3 363 315 414
3 414 315 135
3 307 533 122
3 122 533 14
3 207 121 443
3 414 135 120
3 120 135 504
3 182 454 26
3 26 454 24
3 182 363 454
3 454 363 24
3 312 412 121
3 319 23 315
3 315 23 135
3 490 312 507
3 482 412 527
3 527 412 312
3 378 484 308
3 378 443 484
3 159 193 174
3 174 193 308
3 504 310 120
3 149 93 507
3 261 193 166
3 193 14 166
3 363 414 485
3 166 212 373
3 166 368 212
3 212 368 87
3 533 548 368
3 373 114 207
3 373 212 114
3 207 114 111
3 111 114 103
3 114 212 103
3 103 212 87
3 121 207 113
3 103 487 431
3 368 99 87
3 368 548 99
3 299 111 94
3 94 111 103
3 113 207 111
3 111 299 113
3 94 103 431
3 548 91 99
3 105 255 91
3 14 533 166
3 533 368 166
3 209 551 284
3 551 105 125
3 487 87 99
3 487 103 87
3 255 105 85
3 431 487 84
3 431 88 94
3 88 524 94
3 79 487 99
3 91 255 79
3 79 99 91
3 83 440 374
3 374 440 384
3 116 88 83
3 83 88 431
3 449 475 106
3 440 84 112
3 113 299 74
3 106 73 255
3 112 79 73
3 73 79 255
3 105 91 125
3 125 91 548
3 284 401 182
3 401 125 307
3 125 548 307
3 307 548 533
3 94 524 299
3 524 74 299
3 73 106 71
3 71 112 73
3 121 412 443
3 72 93 74
3 121 113 149
3 76 81 330
3 74 93 149
3 149 113 74
3 6 312 80
3 449 85 543
3 543 85 209
3 7 519 8
3 131 452 519
3 126 182 401
3 401 307 126
3 475 134 202
3 26 433 182
3 182 433 284
3 26 471 433
3 433 471 284
3 76 560 350
3 118 97 560
3 104 170 372
3 423 356 15
3 202 61 104
3 376 170 61
3 61 170 104
3 374 77 361
3 568 205 131
3 34 335 500
3 277 423 15
3 77 222 372
3 372 222 104
3 107 375 372
3 372 375 77
3 107 429 375
3 376 359 170
3 471 325 152
3 152 325 461
3 530 472 330
3 330 472 76
3 472 389 76
3 425 330 452
3 330 81 452
3 118 389 262
3 182 400 363
3 363 400 315
3 182 126 400
3 400 126 315
3 253 281 544
3 81 371 452
3 81 16 371
3 127 237 358
3 358 237 456
3 127 253 237
3 237 253 456
3 452 205 425
3 452 131 205
3 125 401 551
3 551 401 284
3 359 188 544
3 456 253 188
3 188 253 544
3 90 222 384
3 384 222 374
3 376 469 359
3 112 384 440
3 112 71 384
3 121 149 507
3 209 85 551
3 551 85 105
3 366 420 53
3 366 69 420
3 131 519 80
3 80 519 7
3 312 490 80
3 490 131 80
3 384 71 90
3 90 71 202
3 85 449 255
3 255 449 106
3 541 397 423
3 423 397 356
3 541 339 397
3 397 339 356
3 281 191 249
3 395 130 191
3 191 130 249
3 320 468 530
3 331 130 62
3 62 130 541
3 202 134 61
3 429 399 136
3 429 380 399
3 399 380 331
3 469 376 165
3 202 104 90
3 104 222 90
3 62 289 331
3 170 359 225
3 225 359 544
3 423 59 541
3 541 59 62
3 423 246 59
3 59 246 62
3 146 134 57
3 387 289 246
3 246 289 62
3 395 266 130
3 130 266 541
3 395 339 266
3 266 339 541
3 136 56 54
3 136 63 56
3 66 249 380
3 461 325 534
3 53 116 361
3 118 275 97
3 118 277 275
3 275 277 15
3 136 387 63
3 136 289 387
3 70 191 281
3 331 289 399
3 399 289 136
3 129 72 117
3 72 69 117
3 359 469 188
3 137 276 161
3 276 366 161
3 449 453 475
3 453 559 347
3 445 64 419
3 161 387 137
3 161 63 387
3 148 460 447
3 75 354 133
3 66 107 225
3 225 544 66
3 72 129 93
3 246 137 387
3 246 486 137
3 559 55 347
3 55 274 347
3 77 54 361
3 77 375 54
3 440 431 84
3 440 83 431
3 83 361 116
3 83 374 361
3 170 225 372
3 372 225 107
3 56 63 53
3 53 63 161
3 568 129 205
3 568 131 490
3 281 377 544
3 544 377 66
3 281 249 377
3 377 249 66
3 75 148 354
3 354 148 445
3 130 331 249
3 331 380 249
3 118 262 277
3 277 262 486
3 161 366 53
3 117 425 129
3 129 425 205
3 389 426 262
3 389 468 426
3 93 129 568
3 107 380 429
3 107 66 380
3 246 574 486
3 486 574 277
3 246 423 574
3 574 423 277
3 426 323 262
3 262 323 486
3 323 137 486
3 461 559 543
3 56 53 361
3 93 568 507
3 507 568 490
3 81 462 16
3 16 462 350
3 81 76 462
3 462 76 350
3 361 54 56
3 136 54 429
3 54 375 429
3 452 371 519
3 519 371 8
3 425 117 530
3 117 320 530
3 366 198 69
3 69 198 320
3 10 430 18
3 18 430 17
3 10 278 430
3 475 57 134
3 437 53 420
3 461 407 559
3 228 55 407
3 407 55 559
3 469 419 188
3 188 419 456
3 475 202 106
3 202 71 106
3 376 388 165
3 376 61 388
3 388 61 134
3 165 388 146
3 146 388 134
3 146 57 347
3 274 55 521
3 521 55 228
3 209 152 543
3 543 152 461
3 426 198 276
3 276 198 366
3 112 84 79
3 79 84 487
3 75 274 521
3 75 133 274
3 438 394 565
3 565 394 558
3 453 347 57
3 57 475 453
3 471 505 325
3 505 573 325
3 471 152 284
3 284 152 209
3 133 146 347
3 347 274 133
3 69 318 420
3 420 318 437
3 318 524 437
3 165 267 469
3 165 354 267
3 267 354 445
3 75 545 148
3 148 545 460
3 456 465 358
3 465 64 89
3 72 74 524
3 450 532 25
3 98 474 254
3 254 474 109
3 98 256 474
3 474 256 109
3 148 352 445
3 445 352 64
3 148 447 352
3 352 447 64
3 534 228 407
3 407 461 534
3 460 572 447
3 572 50 447
3 558 394 534
3 534 394 228
3 358 269 127
3 460 243 254
3 117 69 320
3 271 336 565
3 469 267 419
3 419 267 445
3 330 425 530
3 325 558 534
3 325 573 558
3 447 349 64
3 64 349 89
3 447 50 349
3 349 50 89
3 301 247 403
3 403 247 50
3 317 505 26
3 26 505 471
3 146 133 165
3 165 133 354
3 565 488 438
3 565 336 488
3 88 437 524
3 88 116 437
3 68 436 336
3 72 318 69
3 479 545 521
3 521 545 75
3 530 468 472
3 472 468 389
3 437 116 53
3 449 543 453
3 453 543 559
3 524 318 72
3 374 222 77
3 394 479 228
3 228 479 521
3 426 468 198
3 468 320 198
3 545 479 243
3 243 460 545
3 137 323 276
3 276 323 426
3 438 479 394
3 438 243 479
3 119 547 328
3 95 525 24
3 82 260 35
3 37 265 260
3 492 540 288
3 492 271 540
3 108 242 523
3 89 348 416
3 416 348 381
3 36 238 35
3 238 214 34
3 33 238 34
3 37 232 265
3 119 297 303
3 119 335 297
3 569 241 223
3 336 464 68
3 68 464 492
3 336 271 464
3 464 271 492
3 214 221 364
3 364 221 36
3 214 238 221
3 221 238 36
3 50 535 403
3 403 535 109
3 50 572 535
3 535 572 109
3 537 217 82
3 327 569 223
3 256 258 213
3 213 258 338
3 51 337 210
3 210 337 554
3 396 365 208
3 311 309 234
3 234 309 233
3 311 218 309
3 309 218 233
3 351 236 258
3 258 236 338
3 532 251 25
3 92 206 442
3 68 337 509
3 509 337 51
3 101 439 450
3 450 439 240
3 101 390 439
3 564 250 561
3 108 200 563
3 108 300 200
3 200 300 244
3 197 390 563
3 338 229 301
3 441 294 229
3 50 215 89
3 89 215 348
3 50 247 215
3 215 247 348
3 244 195 27
3 27 195 506
3 244 300 195
3 195 300 506
3 573 540 271
3 100 355 190
3 365 187 259
3 187 327 259
3 353 189 268
3 226 367 285
3 367 303 285
3 290 413 101
3 101 413 390
3 290 242 413
3 413 242 390
3 64 465 419
3 419 465 456
3 256 252 109
3 109 252 403
3 256 213 252
3 252 213 403
3 303 297 115
3 115 297 214
3 127 186 253
3 253 186 281
3 127 70 186
3 186 70 281
3 288 185 492
3 554 337 185
3 115 241 184
3 184 241 569
3 403 409 301
3 301 409 338
3 403 213 409
3 409 213 338
3 268 436 353
3 288 306 525
3 525 306 317
3 288 540 306
3 306 540 317
3 51 192 201
3 201 192 311
3 51 226 192
3 192 226 311
3 254 183 98
3 438 488 183
3 183 488 98
3 573 181 558
3 558 181 565
3 573 271 181
3 181 271 565
3 351 189 531
3 500 335 480
3 480 335 398
3 119 326 335
3 335 326 398
3 119 328 326
3 326 328 398
3 265 180 239
3 265 232 180
3 180 232 523
3 35 177 158
3 158 177 33
3 35 238 177
3 177 238 33
3 328 173 398
3 95 273 173
3 89 172 465
3 465 172 358
3 89 416 172
3 172 416 358
3 25 171 450
3 450 171 101
3 25 208 171
3 171 208 101
3 95 169 525
3 525 169 288
3 169 227 288
3 240 235 450
3 450 235 532
3 240 206 235
3 235 206 532
3 358 494 269
3 358 416 494
3 494 416 381
3 35 164 36
3 35 260 164
3 164 260 265
3 364 163 324
3 324 163 239
3 364 36 163
3 163 36 239
3 219 160 523
3 239 180 160
3 160 180 523
3 300 220 506
3 300 232 220
3 220 232 37
3 214 157 34
3 34 157 335
3 214 297 157
3 157 297 335
3 554 156 547
3 547 156 328
3 554 227 156
3 301 497 247
3 247 497 348
3 301 305 497
3 554 185 227
3 227 185 288
3 127 153 70
3 70 153 248
3 127 269 153
3 153 269 248
3 269 151 248
3 82 145 260
3 260 145 37
3 82 217 145
3 145 217 37
3 561 144 564
3 564 144 233
3 561 234 144
3 144 234 233
3 95 173 143
3 143 173 328
3 101 142 290
3 290 142 365
3 101 208 142
3 142 208 365
3 119 141 547
3 547 141 367
3 119 303 141
3 141 303 367
3 240 139 206
3 206 139 442
3 398 138 480
3 398 173 138
3 138 173 273
3 485 273 24
3 273 95 24
3 395 124 257
3 124 58 257
3 259 110 365
3 365 110 290
3 259 219 110
3 110 219 290
3 324 522 223
3 522 219 259
3 348 60 381
3 60 305 513
3 390 52 563
3 563 52 108
3 390 242 52
3 52 242 108
3 381 167 494
3 36 164 239
3 239 164 265
3 109 572 254
3 254 572 460
3 38 49 19
3 19 49 537
3 38 217 49
3 49 217 537
3 51 48 226
3 226 48 367
3 51 210 48
3 48 210 367
3 211 25 251
3 251 294 211
3 550 47 513
3 47 167 381
3 115 46 303
3 303 46 285
3 115 184 46
3 46 184 285
3 206 45 532
3 206 92 45
3 60 513 47
3 47 381 60
3 396 187 365
3 290 44 242
3 242 44 523
3 290 219 44
3 44 219 523
3 239 160 324
3 367 210 547
3 547 210 554
3 396 43 211
3 211 43 25
3 396 208 43
3 43 208 25
3 169 95 143
3 143 227 169
3 329 402 442
3 156 227 143
3 143 328 156
3 38 168 217
3 168 37 217
3 28 528 17
3 17 528 18
3 528 29 18
3 513 41 251
3 251 41 294
3 513 305 41
3 41 305 294
3 336 40 488
3 488 40 98
3 336 436 40
3 324 160 522
3 522 160 219
3 285 184 218
3 218 184 569
3 513 566 550
3 513 251 566
3 566 251 532
3 364 322 214
3 214 322 115
3 364 241 322
3 322 241 115
3 350 451 16
3 33 500 32
3 33 34 500
3 26 489 317
3 317 489 525
3 26 24 489
3 489 24 525
3 353 491 201
3 201 491 51
3 353 509 491
3 491 509 51
3 441 313 294
3 294 313 211
3 441 250 313
3 301 229 305
3 305 229 294
3 285 515 226
3 226 515 311
3 285 218 515
3 515 218 311
3 317 162 505
3 505 162 573
3 317 540 162
3 162 540 573
3 492 102 68
3 68 102 337
3 492 185 102
3 102 185 337
3 438 183 243
3 243 183 254
3 324 512 364
3 364 512 241
3 324 223 512
3 512 223 241
3 18 503 10
3 503 245 13
3 305 60 497
3 497 60 348
3 223 459 327
3 327 459 259
3 223 522 459
3 459 522 259
3 327 539 233
3 233 539 564
3 327 187 539
3 539 187 564
3 569 444 218
3 218 444 233
3 569 327 444
3 444 327 233
3 342 138 273
3 564 362 250
3 250 362 396
3 564 187 362
3 362 187 396
3 257 58 332
3 70 283 191
3 191 283 395
3 70 124 283
3 283 124 395
3 176 155 97
3 155 546 408
3 58 154 248
3 248 154 70
3 58 124 154
3 154 124 70
3 269 478 151
3 151 478 167
3 269 494 478
3 478 494 167
3 150 496 140
3 197 439 390
3 197 240 439
3 480 138 556
3 556 138 342
3 526 446 92
3 448 546 383
3 561 570 236
3 236 570 441
3 561 250 570
3 570 250 441
3 510 155 408
3 353 436 509
3 509 436 68
3 98 40 268
3 268 40 436
3 256 555 258
3 268 189 555
3 97 499 176
3 211 313 396
3 396 313 250
3 510 350 560
3 203 517 477
3 517 86 28
3 257 476 395
3 395 476 339
3 257 417 476
3 476 417 339
3 245 542 13
3 13 542 19
3 245 38 542
3 542 38 19
3 5 503 13
3 506 168 291
3 291 168 38
3 132 203 463
3 463 203 477
3 355 457 427
3 427 457 357
3 355 100 457
3 457 100 357
3 441 455 236
3 236 455 338
3 441 229 455
3 455 229 338
3 100 508 147
3 508 383 176
3 29 428 291
3 357 424 427
3 231 304 424
3 424 304 427
3 140 496 421
3 421 496 39
3 258 501 351
3 351 501 189
3 258 555 501
3 501 555 189
3 140 514 150
3 150 514 329
3 140 432 514
3 514 432 329
3 100 415 357
3 357 415 552
3 100 147 415
3 415 147 552
3 17 411 28
3 546 448 411
3 432 140 42
3 197 406 240
3 197 496 406
3 406 496 150
3 561 386 234
3 351 531 386
3 386 531 234
3 132 463 42
3 42 463 355
3 268 385 98
3 98 385 256
3 268 555 385
3 385 555 256
3 39 382 563
3 563 382 197
3 39 496 382
3 382 496 197
3 448 477 517
3 563 200 39
3 45 550 566
3 566 532 45
3 333 411 17
3 16 481 321
3 321 481 278
3 16 451 481
3 481 451 278
3 132 421 553
3 553 421 39
3 546 495 383
3 383 495 176
3 546 155 495
3 495 155 176
3 351 386 236
3 236 386 561
3 190 383 508
3 508 100 190
3 477 458 190
3 190 458 383
3 477 448 458
3 458 448 383
3 408 434 451
3 451 434 278
3 408 333 434
3 434 333 278
3 16 404 371
3 371 404 8
3 16 321 404
3 404 321 8
3 245 344 38
3 38 344 291
3 245 29 344
3 344 29 291
3 203 316 517
3 517 316 86
3 203 435 316
3 316 435 86
3 28 86 528
3 531 518 234
3 234 518 311
3 531 201 518
3 518 201 311
3 321 493 11
3 11 493 10
3 321 278 493
3 493 278 10
3 201 410 353
3 353 410 189
3 201 531 410
3 410 531 189
3 278 333 430
3 430 333 17
3 139 240 406
3 406 150 139
3 329 567 402
3 402 567 369
3 567 304 369
3 442 391 92
3 92 391 526
3 442 402 391
3 391 402 526
3 442 340 329
3 329 340 150
3 442 139 340
3 340 139 150
3 526 334 123
3 123 334 369
3 526 402 334
3 334 402 369
3 39 314 553
3 553 314 244
3 39 200 314
3 314 200 244
3 151 302 123
3 123 302 526
3 302 446 526
3 232 296 523
3 523 296 108
3 232 300 296
3 296 300 108
3 369 295 123
3 123 295 58
3 369 332 295
3 295 332 58
3 448 292 411
3 411 292 28
3 448 517 292
3 292 517 28
3 356 287 15
3 147 499 287
3 287 499 15
3 92 557 45
3 45 557 550
3 92 446 557
3 557 446 550
3 147 286 499
3 499 286 176
3 147 508 286
3 286 508 176
3 248 360 58
3 58 360 123
3 248 151 360
3 360 151 123
3 231 282 417
3 231 424 282
3 282 424 357
3 546 467 408
3 408 467 333
3 546 411 467
3 467 411 333
3 257 502 417
3 417 502 231
3 257 332 502
3 502 332 231
3 339 562 356
3 356 562 552
3 339 417 562
3 350 280 451
3 451 280 408
3 350 510 280
3 280 510 408
3 552 282 357
3 550 470 47
3 47 470 167
3 550 446 470
3 470 446 167
3 553 392 132
3 132 392 203
3 553 435 392
3 392 435 203
3 510 279 155
3 155 279 97
3 510 560 279
3 279 560 97
3 10 511 11
3 11 511 5
3 10 503 511
3 511 503 5
3 432 393 329
3 304 567 393
3 393 567 329
3 147 287 552
3 552 287 356
3 8 270 2
3 2 270 11
3 8 321 270
3 270 321 11
3 446 264 167
3 167 264 151
3 446 302 264
3 264 302 151
3 140 483 42
3 42 483 132
3 140 421 483
3 483 421 132
3 427 571 355
3 355 571 42
3 427 432 571
3 571 432 42
3 231 263 304
3 304 263 369
3 231 332 263
3 263 332 369
3 355 230 190
3 190 230 477
3 355 463 230
3 230 463 477
3 86 224 428
3 428 224 27
3 86 435 224
3 224 435 27
3 15 499 275
3 275 499 97
3 417 282 562
3 562 282 552
3 245 498 29
3 29 498 18
3 245 503 498
3 498 503 18
3 29 216 428
3 428 216 86
3 29 528 216
3 216 528 86
3 304 393 427
3 393 432 427
3 389 178 76
3 76 178 560
3 389 118 178
3 178 118 560
3 435 466 27
3 27 466 244
3 435 553 466
3 466 553 244
3 291 422 506
3 506 422 27
3 291 428 422
3 422 428 27
3 37 179 220
3 220 179 506
3 37 168 179
3 179 168 506
