# vtk DataFile Version 3.0
A great-looking cell
ASCII
DATASET POLYDATA
POINTS 280 double
151.38340115103458 341.55030554144446 49.876015469860555
151.74961399228062 339.35347734346 50.49622226317212
149.41463350540312 340.6227890182088 49.6577138234211
146.74401802615355 339.6332859203823 49.23256996706733
147.28760096940096 342.4862119557311 49.6847817940513
149.93713561838803 343.0005609714335 49.9773463441538
153.12050990809666 341.4371663730201 50.800128078201176
153.90741794754868 343.27015595660754 51.71714149219229
152.12629172581637 343.3400141409291 50.4410297230334
149.23217265843968 337.6571441372665 49.57778699519393
153.85348387520278 339.7556493915288 51.51735037449573
154.92049342439242 341.36083470529826 52.04371960596312
150.70877094782983 344.86451969492776 50.9664389042318
152.7118861488394 345.0785654605075 51.676053038004106
151.33814328309234 336.95516621452316 51.114440330202484
153.33179844350474 337.76163646330673 52.12612232827479
154.45899695898487 336.72200624996157 54.51158819608969
143.98242060254378 340.022432297924 49.58968571930465
155.2718226512027 339.2657001280671 53.278839751405016
144.50956718992109 342.7309097170459 50.19905840565061
155.93722249741762 341.33002980162934 53.6412288861848
148.57154296765836 344.67964806661416 50.68029435061223
155.45306165792414 343.12465974887095 53.219382608521954
154.53634540351368 345.04286512604057 52.85146812569088
149.53918802021818 346.02636356648566 51.675301960254146
151.21178643591915 346.50263480994954 52.24383804375157
153.22524709531405 346.7733139627473 52.99420422617935
146.41128326849 336.85452368515286 49.45954363532405
146.85648132762384 334.6462676505312 51.06558316411189
149.56152518135553 335.1958444879591 51.258479402507135
152.13939090042933 335.3815193825287 53.11979056399161
156.77380642853382 339.2073523462269 57.01414711607981
156.35770562511004 340.39284941310524 55.20836848662551
156.82200129774702 341.6579323267345 57.25717301087408
144.2397427486213 344.5262916347448 51.88252444824545
156.37780186294796 342.5719212609346 55.08074229471014
145.6058041409592 346.0197166676471 52.988798249098025
146.27470605441047 344.60313584191 51.065592072938756
147.43088962659144 347.50668828029 54.22940936079787
147.76024577245397 346.204621291856 52.118885477130064
156.61277021560915 343.9323292803578 56.745591065157534
155.85137446653542 344.8828851432736 54.782928860161505
149.44366702305038 347.30850255796736 53.01035971767401
153.74765982820117 347.82233584723866 54.79747701391779
154.80356337029303 346.4777009468334 54.022389103259684
151.45735678415787 348.0698884808802 54.106594699949405
144.16344056598132 334.8976185503061 51.89422825221711
142.71071822255666 333.85680536116945 53.68317085154939
143.96767597710888 337.3194465275692 50.434039757861704
145.53567702911732 331.70776450133064 56.37504771898596
147.2887860937915 332.9340438544617 53.09232484431434
148.49683001117467 331.6064762666403 55.41768171930684
149.9411031447784 333.29143585308907 53.442670059965145
150.72963941186458 332.0033328964482 57.02169191061353
152.00098216161564 333.70784375020065 55.49533294673387
153.89643222918556 335.2596624471508 56.879056086899865
141.73960606943925 340.277938335393 51.11488962333041
140.84805314201162 338.08565304366624 54.10116462036328
155.92583387084176 338.44601866726197 55.297700409682086
140.2984465983902 340.99070059495193 53.57781291015033
142.12282542309782 343.0783965907313 51.845011901042525
157.08671361680064 342.01922419532985 59.4490938317659
141.05262965829723 343.62545975256717 54.308513999345614
156.9155912575586 343.8259087765217 60.071988145188065
156.92362705931833 343.3609805013986 58.39727081311098
143.31428634636512 345.093300200019 54.17427018864868
145.2994147839548 346.7910679174555 55.28443123271234
156.4814336866142 345.2639560712815 58.52726768796892
156.21265321140692 345.6855387643863 56.62009722434785
146.65235461012048 347.98571190479265 56.138870707608895
148.34283159932957 348.65013025045147 56.120801187566286
155.58858609590695 347.013702000098 57.61599339535517
155.25818069566532 346.8114245040036 55.69618199022127
152.5021697594336 348.8013663666116 56.17195575933354
154.23341006944577 348.09167886263106 56.751289854560525
145.34251400913968 331.18025761457733 59.46127029539007
140.70157903791443 332.97864135559 57.617080264415094
149.82819054671555 331.10833572754774 59.065921178521705
152.5103274691504 333.4976151300489 58.32933363372702
153.75869517652222 334.43237304393114 60.63705801034336
155.43154882192567 335.8150808710592 59.171139087435876
140.52693748551258 336.7090636657566 56.57434196677789
151.65940314335538 332.41357055838154 60.753451191881204
139.88712080830524 339.5684733822286 56.42818354832104
157.03246027325378 340.43096570113073 62.625949161562815
140.08775927326232 342.4829336615203 56.35254808081681
157.06967064728727 342.34054459195784 61.36512207213481
156.85080012392098 344.20534969794693 61.990547371666366
144.17162442596674 346.46756234610825 58.61431152353799
143.73299098664486 346.03160170836065 56.78521587809136
145.42195394319273 347.48665224573705 57.5952473477953
156.51222340748527 345.64382344566013 60.70832821177857
146.22183768032454 348.3974257322069 59.01611192919699
147.55983610243817 349.1025867544954 59.52451688463098
147.2102203044453 348.6026493376237 57.74914525517601
155.62790394722344 347.004879646421 59.59139452179299
154.4605623911082 348.2371822676372 58.65597417033649
151.5794097609027 349.52605515797075 57.92782523333614
153.25348255944328 349.0140294594056 57.79674887327942
146.36597924792846 330.95331362401197 62.37939408006122
141.32066242899305 331.8008487569024 60.30490348817267
149.33272944614342 330.9346912981732 61.735933398935394
156.63211929160005 337.83923830551333 62.67317319722557
156.07449830555515 337.31047731238334 64.91971669926292
140.44212936024024 334.5446173882734 61.722731530727366
157.03203167273855 339.0215172663526 60.75172065100476
140.28624587334497 335.3103495053321 58.93145413009477
140.37273379857544 337.4385946644112 62.27589559120752
156.7449380857133 339.16521233470866 64.32126014496134
140.1465691520358 338.132686786644 59.31642077644764
139.8262280512479 340.23394030587883 61.51965523816985
139.64403009738237 341.2385483635819 58.9113603368819
140.26871484287648 342.86232964465563 61.11353629182781
156.93468306495956 342.72717053858287 63.39035280865381
140.80800076231387 343.75561250630375 58.71984273844225
142.0982690359253 344.61868338744375 60.7871223472379
143.9038841190764 345.9891573200259 60.35635277842749
156.6036119600943 344.65552004738817 63.79702904842412
156.2778178215204 345.85647370190213 62.5614881253786
145.13032085577746 347.4274873946953 59.69957007766739
146.3079899629104 348.5074309090046 60.6260962951045
155.54825097304044 347.08993414201166 61.50875995124902
154.48022192516862 348.2391244995422 62.33599495009017
154.50991493993783 348.25218795593565 60.53968760798917
150.26677310326255 350.35653299863304 62.01500713640703
148.90852302622991 349.98301088480537 60.492901566201205
153.564634660541 349.1336695023334 61.446678707211596
144.127269611186 332.47948452722045 64.07594285530553
146.3005584898557 331.68252001996314 64.90517600441763
152.88486531560343 333.884830896272 63.13163079636069
154.75872338628096 335.44789732390245 64.01379853400182
154.48910437480927 336.28529292328807 66.37880801757609
141.9171708130641 334.40918389231695 64.67425355545728
141.27486467034657 337.18033690766333 65.07014647432909
140.17301717833428 339.7654398615801 64.17866559771268
140.94324059490415 342.1868323029997 65.31058443844896
156.81349600562842 341.1651921170033 65.16211872049699
139.96056631887143 342.0071092343529 63.22140589648501
142.35690458295153 343.7917752634551 65.47882486345584
141.59163417287505 343.9575773394773 63.35681516245056
156.6734497608743 343.50262447233234 65.34695029242556
143.49578235931708 345.07173463860244 64.66066311817761
143.55006185553776 345.4830176007505 62.50327597364414
144.67971472220023 346.3839013775427 63.93079266229216
156.10237653637898 345.3732545509781 65.38075715140513
156.04613707450164 346.0492988462788 64.01995681753803
145.98770273287928 347.8169509401308 64.19752701063771
145.20252469671203 347.19734552076136 61.96522037952624
146.8729380817516 348.48101894898826 66.21051729137541
153.00185069010038 349.3944752510916 65.03098996285972
154.35728229533436 348.2550038900319 64.15346633339391
155.30747763651982 346.9291365447632 64.99534144075459
155.38601004772147 347.11438494758755 63.27170459260752
151.65824092318022 350.2338257842791 63.61932071676022
153.27251876144632 349.30287053644776 63.04515069426592
152.9850501210642 334.69730563805973 65.57295930783796
155.44141042926742 337.90550773439986 66.7778029947517
147.25341305967987 334.09778966201986 67.34488490774625
151.66654123261588 333.39508226515466 64.9468148600122
150.24721464046547 335.0570662483826 68.0129757566169
156.36019462879503 339.2124148396281 66.09582381836958
145.44960568264375 333.51859902592787 66.17648765619815
143.2741902322581 337.4293540320765 67.2265710046789
156.35058332007532 340.6849017201662 67.09000235708696
143.7410846587607 340.1634611079971 68.28629553787809
141.48413999405977 339.83105344814595 66.7306071237032
142.87624095393903 342.52728099708446 67.21258157673303
156.53361108047545 342.4496273525171 67.10487896587715
144.5022283973609 344.3500719179975 68.05582855388914
143.62701476349966 344.4605192860548 66.37342581950398
145.71527926800087 346.0800590659539 69.04093732817371
145.13207391812108 346.32377854370753 66.31940158965251
156.1654683214121 344.48269702435783 67.12421776330255
146.38768799408493 347.7052608500466 68.00954411339659
147.95875396325062 349.1261347709064 68.22994495169995
154.14795145045832 347.670825938777 68.44935316200142
152.63820839946652 349.22006454483545 67.2592683937448
154.26290224744358 348.1056279007136 66.16201790936204
155.26134653930288 346.35976180725083 66.88517381239976
150.3446654058266 349.64233289906 67.99052708259681
151.0388176554698 349.9816128464477 65.7265042148123
152.276601076149 335.94294839704855 67.81781350181663
154.06180713287193 337.795295354544 68.10462273486856
145.78766737992188 335.7960958327023 67.90440280961232
147.72153899249193 337.43905886532616 69.28528914999357
148.332252136665 335.27727697312497 68.51129161195401
150.07444084647426 336.7434641859993 69.02651612125135
155.41402756434516 339.3937841639642 67.82263047454225
155.52280055625593 341.41420056391587 68.8005729265827
145.5315158613199 338.5183326457238 68.71027534093741
145.5146777778797 340.5209664142815 69.32134419800917
154.62064673798014 343.1894040516502 69.77670158329849
155.888365253253 343.4000854527624 68.56801913958425
144.81589679268356 342.2544034864725 68.84750084927515
145.81127067803507 343.9674381576484 69.89554709200047
155.07592063153643 345.29670987370906 69.05409817171567
146.97445158732677 345.57887686180874 71.1014238712005
148.62084712054738 347.03174879566217 71.66571208422074
150.98982945001242 346.97651294107465 71.51084294356494
149.474251962533 348.7599546881045 70.24551127143852
153.30821012168659 346.51290413049213 70.48920810144774
151.9911475244116 348.4843504287067 69.57314023226911
153.98506556103513 339.7097763537991 69.45041204346145
153.97568500443907 341.52476247020866 70.22336708891451
147.2808827813709 339.81315642284596 69.93918032515656
152.97305706451377 342.9247448487852 70.86040229035926
146.5539993476625 341.9361536804586 70.17935958407759
147.4291139868706 343.5124856902437 71.07590045880762
149.42913026383997 344.61977022411696 71.62635117404034
152.01066014592928 344.76161442998796 71.3432965034096
153.8658120362645 344.5693263179343 70.68068656762422
152.07958477786204 338.1650583857651 69.49519739739327
149.6698207366847 339.0050765356407 70.16330660584214
149.0113403627692 341.71696886117155 71.01010970391489
151.92648822484597 340.6668051025949 70.91218632656393
142.43062081712858 335.97308883176976 65.96087434308693
145.59917061397857 341.2775821220824 49.43274321731055
145.20078856674206 338.41661961981356 49.41529163698673
142.82386904739286 338.855988741585 50.617253120425794
140.8676867266551 339.23921487315135 52.481669177077855
150.50247640992436 332.3272153179349 55.182296792127396
148.5054582343101 333.67774737296423 51.9008655874618
151.09330103588098 342.90660078014133 71.40591445459658
140.93214509175937 335.8862345429172 63.466676622241124
143.04855129270413 331.45329402938177 58.09230154310047
141.98639348037963 337.95139294084777 51.82246582826527
141.01950711213078 336.3214305279774 54.78243837399922
140.16365851313063 333.5185623267511 59.67302215846693
148.1036162803818 335.82711875328437 49.93891007146511
145.25526394066935 335.7821346352908 50.50284786540318
140.44722863861642 334.8881908306763 57.07470745619441
145.75829827833542 333.67037867908755 52.31532383679525
141.23790085760865 334.6500876505361 55.39877393945066
141.94310628529647 335.9464685326846 53.21875882890107
143.7010892412581 331.529972920588 61.520768189144434
151.36909462861624 332.05689156401996 58.773604755317386
149.11981880312896 333.95137599829286 67.08348313297235
142.81880129903817 332.52846112930206 55.62388510392592
149.28317549583826 331.10884965207043 57.276397290673046
146.51963507020858 331.95018727600007 54.52214064150027
147.71298462707426 330.61427582820113 60.102840737336784
149.93765304832436 332.7377860166959 65.56652986927185
151.11215649336765 334.1697534661051 66.6112788036314
150.96717910709586 332.01332500256694 63.53420206164638
144.86705851945456 332.747108273941 53.722468085302
142.8164904649608 341.68325130152533 50.26128530441491
143.58216079750878 334.97317984646895 66.54015411625078
156.4986266773007 337.1776905291829 60.66645733081638
156.08271163806336 336.38197625501937 63.431259039912725
147.68443173417222 330.91537325429624 57.89173866689709
147.772494071808 332.5855097986402 66.18304105190491
142.88317882087696 336.4355915931796 51.69971722925001
141.94754168073752 332.52955467497065 62.74217450149934
148.38922229494602 349.8215072136792 62.3975186138102
140.37382454794445 336.36815788951554 60.559092142857054
148.7909474150924 349.82442301430063 66.1336136280182
147.60629495269444 349.35875315693454 64.2582396608181
153.184700451852 335.2165921626803 54.97512935064419
148.5682692633235 331.11440600780236 64.34165681863242
155.6147623603376 335.751827722794 61.865796357331234
154.27777719544628 334.85728909191914 62.41818649069935
153.00102111218226 349.34547168748435 59.684635742106295
147.5304108418368 349.3555087566053 61.0917673640293
150.8988869930145 350.12722619028006 59.92986015698523
157.12616911353183 340.7847832031358 60.638732561735644
149.5809145844509 350.2091957226445 64.05341108286441
146.76518716603056 348.7771384007658 62.432802856972216
157.09861834085385 340.10052926849636 58.98595535105995
153.89672783137152 334.76595833024487 58.76028466221969
149.22300885966897 349.5422052893478 58.19824816636047
150.41519536123613 348.93534429865446 56.14631399231984
149.39335790041278 348.28232753003675 54.630145881288215
143.52599902044952 333.4583949133606 65.71169494147588
152.23711286553115 350.08176833778657 61.60882908494221
147.21537296107377 347.69169241785875 69.97325369113433
141.73516303816814 344.6375130473952 56.466941503770784
142.7022243825105 345.311576218623 58.627110613394485
143.32857642699742 331.2789054657265 59.86000550758586
156.6879375527558 337.9699016773978 58.880467948656126
155.7032603119668 337.1167530085297 56.905325093393344
POLYGONS 556 2224
3 5 0 2
3 0 1 2
3 2 4 5
3 8 0 5
3 1 0 6
3 3 4 2
3 4 21 5
3 5 12 8
3 8 7 6
3 8 6 0
3 3 2 9
3 9 2 1
3 1 6 10
3 11 10 6
3 4 19 37
3 4 37 21
3 6 7 11
3 7 22 11
3 8 12 13
3 8 13 7
3 7 13 23
3 1 15 14
3 1 10 15
3 15 18 16
3 10 18 15
3 18 10 11
3 11 20 18
3 34 19 60
3 37 19 34
3 39 21 37
3 22 7 23
3 22 20 11
3 24 21 39
3 25 12 24
3 12 25 13
3 13 25 26
3 13 26 23
3 44 23 26
3 26 25 45
3 9 27 3
3 14 30 29
3 14 29 9
3 9 1 14
3 15 16 30
3 15 30 14
3 16 18 58
3 32 31 58
3 18 32 58
3 18 20 32
3 32 33 31
3 65 34 60
3 35 40 33
3 35 33 32
3 20 35 32
3 20 22 35
3 36 37 34
3 36 34 65
3 38 39 36
3 37 36 39
3 22 23 41
3 41 40 35
3 41 35 22
3 39 38 42
3 24 39 42
3 24 42 25
3 44 43 72
3 44 26 43
3 44 72 41
3 44 41 23
3 271 45 42
3 25 42 45
3 43 26 45
3 52 51 50
3 54 78 53
3 29 30 52
3 52 30 54
3 55 78 54
3 62 60 59
3 60 62 65
3 64 63 61
3 33 64 61
3 33 40 64
3 65 89 66
3 36 65 66
3 40 41 68
3 67 40 68
3 63 64 67
3 67 64 40
3 69 66 90
3 38 69 70
3 72 43 74
3 72 74 71
3 67 68 71
3 72 71 68
3 72 68 41
3 73 74 43
3 43 45 73
3 83 57 81
3 59 57 83
3 114 85 111
3 59 85 62
3 61 63 86
3 115 276 114
3 63 87 86
3 88 89 276
3 119 90 88
3 91 87 63
3 63 67 91
3 92 90 119
3 90 92 94
3 69 90 94
3 69 94 70
3 71 74 96
3 95 71 96
3 95 91 67
3 67 71 95
3 261 97 263
3 96 98 261
3 97 261 98
3 73 97 98
3 73 98 74
3 98 96 74
3 82 101 77
3 81 106 109
3 81 109 83
3 110 109 107
3 83 109 111
3 109 110 111
3 112 111 110
3 111 112 114
3 113 136 84
3 86 113 84
3 114 112 115
3 87 117 113
3 86 87 113
3 147 116 142
3 115 142 116
3 88 116 119
3 87 118 117
3 87 91 118
3 147 119 116
3 119 147 120
3 92 119 120
3 92 120 93
3 121 122 152
3 95 96 123
3 121 95 123
3 121 123 122
3 121 152 118
3 121 118 91
3 91 95 121
3 122 123 126
3 261 126 123
3 261 123 96
3 130 131 155
3 130 155 129
3 103 131 130
3 165 133 162
3 107 133 134
3 107 134 110
3 133 165 134
3 135 134 165
3 110 134 137
3 110 137 112
3 134 135 137
3 138 139 135
3 137 135 139
3 112 137 139
3 112 139 115
3 113 140 136
3 113 117 140
3 141 142 139
3 141 139 138
3 115 139 142
3 171 143 141
3 142 141 143
3 142 143 147
3 117 118 145
3 144 117 145
3 144 140 117
3 146 147 143
3 146 143 171
3 150 149 177
3 151 152 150
3 151 150 177
3 150 152 122
3 144 145 151
3 152 151 145
3 152 145 118
3 149 150 154
3 154 150 122
3 122 126 154
3 128 161 127
3 156 103 160
3 103 108 160
3 136 163 160
3 108 136 160
3 164 162 189
3 162 164 165
3 136 167 163
3 193 166 164
3 165 164 166
3 135 165 166
3 135 166 138
3 140 172 167
3 140 167 136
3 168 169 166
3 168 166 193
3 138 166 169
3 138 169 141
3 169 168 171
3 141 169 171
3 172 144 178
3 140 144 172
3 148 173 174
3 177 149 176
3 177 176 175
3 178 177 175
3 177 178 151
3 144 151 178
3 176 180 179
3 180 176 149
3 149 153 180
3 182 211 181
3 155 131 181
3 181 131 182
3 131 156 182
3 185 186 184
3 185 184 183
3 161 157 183
3 183 157 185
3 185 159 186
3 181 186 159
3 156 187 182
3 187 156 160
3 163 188 187
3 160 163 187
3 162 183 189
3 183 184 189
3 189 184 204
3 189 204 190
3 164 189 190
3 164 190 193
3 167 172 192
3 188 167 192
3 188 192 191
3 206 193 190
3 206 190 204
3 193 206 194
3 168 193 194
3 168 194 170
3 192 195 191
3 192 172 195
3 196 170 194
3 197 274 196
3 198 199 197
3 274 197 199
3 274 199 174
3 200 201 198
3 199 198 201
3 195 175 200
3 201 200 175
3 175 195 178
3 172 178 195
3 174 199 179
3 179 199 201
3 179 201 176
3 175 176 201
3 211 212 186
3 181 211 186
3 182 202 211
3 182 187 202
3 202 187 188
3 212 204 184
3 188 203 202
3 213 204 212
3 204 213 206
3 191 210 205
3 191 205 203
3 188 191 203
3 206 213 207
3 206 207 194
3 207 213 208
3 191 195 210
3 194 207 196
3 196 207 208
3 196 208 197
3 197 208 198
3 205 209 222
3 208 222 209
3 198 208 209
3 198 209 200
3 209 205 210
3 200 209 210
3 200 210 195
3 214 212 211
3 211 202 214
3 222 208 213
3 213 212 214
3 21 24 12
3 12 5 21
3 82 78 79
3 128 127 99
3 82 79 129
3 131 103 156
3 158 129 155
3 188 163 167
3 184 186 212
3 205 214 203
3 213 214 222
3 214 202 203
3 214 205 222
3 103 102 108
3 58 31 279
3 60 56 59
3 66 89 90
3 89 88 90
3 270 97 73
3 115 116 276
3 276 116 88
3 89 275 276
3 62 85 275
3 38 271 42
3 38 70 271
3 59 83 85
3 83 111 85
3 276 275 114
3 114 275 85
3 62 275 65
3 65 275 89
3 36 66 38
3 66 69 38
3 170 274 173
3 274 174 173
3 196 274 170
3 147 266 120
3 147 146 266
3 153 265 180
3 153 124 265
3 94 269 70
3 266 262 120
3 262 93 120
3 263 269 125
3 153 273 124
3 273 154 126
3 124 263 125
3 173 148 171
3 171 148 146
3 174 255 148
3 174 179 255
3 255 179 180
3 148 256 146
3 146 256 266
3 261 273 126
3 261 263 273
3 273 263 124
3 256 148 255
3 266 256 253
3 253 256 265
3 125 269 93
3 262 266 253
3 253 125 262
3 262 125 93
3 70 270 271
3 70 269 270
3 271 270 45
3 45 270 73
3 92 93 94
3 93 269 94
3 256 255 265
3 265 255 180
3 125 253 124
3 124 253 265
3 270 269 97
3 97 269 263
3 105 278 267
3 78 268 79
3 79 268 80
3 78 55 268
3 268 55 80
3 84 264 86
3 267 61 264
3 264 61 86
3 80 259 79
3 55 279 80
3 279 278 80
3 108 102 84
3 84 102 105
3 58 279 16
3 279 55 16
3 267 278 31
3 31 278 279
3 108 84 136
3 130 248 103
3 103 248 102
3 130 259 248
3 248 259 102
3 31 33 267
3 267 33 61
3 102 247 105
3 102 259 247
3 247 259 80
3 267 264 105
3 105 264 84
3 105 247 278
3 278 247 80
3 79 260 129
3 129 260 130
3 79 259 260
3 260 259 130
3 149 154 153
3 154 273 153
3 101 258 99
3 99 258 128
3 157 236 185
3 185 236 159
3 129 243 82
3 82 243 101
3 129 158 243
3 155 242 158
3 258 250 128
3 101 243 258
3 158 242 241
3 241 242 236
3 243 158 241
3 241 258 243
3 99 240 101
3 101 240 77
3 99 75 240
3 236 242 159
3 258 241 250
3 250 241 236
3 159 242 181
3 181 242 155
3 157 250 236
3 128 250 161
3 161 250 157
3 168 170 171
3 170 173 171
3 161 183 246
3 246 183 162
3 76 224 100
3 224 49 75
3 46 244 47
3 49 239 51
3 51 239 50
3 49 244 239
3 239 244 50
3 51 249 49
3 49 249 75
3 77 238 53
3 53 238 51
3 77 249 238
3 238 249 51
3 47 244 237
3 237 244 49
3 77 235 82
3 82 235 78
3 77 53 235
3 235 53 78
3 127 234 99
3 234 75 99
3 240 75 249
3 249 77 240
3 233 46 47
3 237 76 232
3 232 47 237
3 233 47 232
3 50 231 28
3 28 231 46
3 50 244 231
3 231 244 46
3 81 230 106
3 106 230 76
3 81 232 230
3 230 232 76
3 46 229 28
3 28 229 27
3 46 48 229
3 229 48 27
3 9 228 27
3 27 228 28
3 9 29 228
3 228 29 28
3 106 227 104
3 104 227 100
3 106 76 227
3 227 76 100
3 57 226 81
3 81 226 232
3 57 233 226
3 226 233 232
3 225 233 57
3 76 237 224
3 224 237 49
3 133 223 132
3 132 223 104
3 133 107 223
3 223 107 104
3 29 221 28
3 28 221 50
3 29 52 221
3 221 52 50
3 60 245 56
3 56 245 17
3 60 19 245
3 245 19 17
3 52 220 51
3 51 220 53
3 52 54 220
3 220 54 53
3 56 219 59
3 59 219 57
3 56 225 219
3 219 225 57
3 48 218 17
3 17 218 56
3 48 225 218
3 218 225 56
3 27 217 3
3 3 217 17
3 27 48 217
3 217 48 17
3 233 251 46
3 46 251 48
3 233 225 251
3 251 225 48
3 3 216 4
3 4 216 19
3 3 17 216
3 216 17 19
3 132 215 133
3 133 215 162
3 132 246 215
3 215 246 162
3 107 254 104
3 104 254 106
3 107 109 254
3 254 109 106
3 100 252 104
3 127 132 252
3 252 132 104
3 161 272 127
3 127 272 132
3 161 246 272
3 272 246 132
3 75 277 224
3 224 277 100
3 75 234 277
3 277 234 100
3 234 127 252
3 252 100 234
3 16 257 30
3 30 257 54
3 16 55 257
3 257 55 54
