# vtk DataFile Version 3.0
A great-looking cell
ASCII
DATASET POLYDATA
POINTS 472 double
293.11517732474493 131.64787184667424 48.7570215041997
293.261681967222 133.91809361996715 49.33749230619776
293.513316607632 133.50466859949236 47.27390902730409
294.0157581546905 134.99114517454333 48.21137631967258
292.5597721133056 130.48591909071192 50.708738024110744
292.75316954532 129.69162829091698 49.1113698832312
293.3720698481262 129.7873545185501 47.462875188795934
294.32261116915936 129.82738422461503 45.92737053039554
294.99215650119453 131.08691680454768 44.52176470921103
294.9188633554728 133.1952895328645 45.58278636824388
294.9323121281148 135.01564255793713 46.73561075797932
295.02857890091303 136.4030078318052 48.216754440628954
292.4633425798571 131.30180268947558 52.69976392946708
292.36936075891197 128.44106723684166 50.37889311934108
293.47951057358074 128.12914428827298 48.63191246171157
294.647891855887 128.25317085262168 46.850770928397026
295.93395484343034 129.06028366282968 45.323697835095906
297.2862357179974 130.4845072070234 44.20087630900758
296.7464391985952 132.74594000973295 44.33302813328028
298.2234696876226 133.8159567509902 45.18116947509435
296.5706752884966 134.66167014093685 45.45637562630878
298.4944565626047 135.38426499579117 46.291223629969586
296.5851882820561 136.43981337969436 46.74893057835669
296.8087783908098 137.29887956232668 48.709716290365115
293.0560863119781 126.36203716211512 49.92604708601304
297.4832580167643 124.21864078441881 44.536774875728256
296.27650615264497 126.54516213376937 45.81899623875516
299.04139891283666 126.17196918545451 42.9151507309201
297.9789980371019 128.1005370250065 44.460277327535174
302.4297723352546 130.90711427825195 43.70532878832932
302.49386233831575 132.72200984656945 46.354179463865975
300.0477458921524 133.64042748493972 46.20010948982687
298.67898916476753 136.94977866704605 49.67698144554096
295.3538379324765 137.0550198120262 50.100436855239245
293.0063023304253 124.71893833198055 51.69950369921313
295.5973524447602 123.68664539264287 47.10106722190797
303.6176133844863 127.19264422108117 39.817049229739084
306.08899610005017 131.07734101353785 55.676493023824186
310.2452564556823 135.61212592361946 50.593711908591516
302.90555386114676 133.38940106170824 48.55169145215412
293.7347759761831 135.8967745588942 49.68448580707152
297.91410343852095 120.34737689936567 58.729902222741266
297.0908415940964 115.84524527541896 55.46496095992609
306.8425944502839 125.9632067817312 58.51109669707024
300.791622974705 127.18453484225705 58.626987427162526
300.39509227732145 129.58916203808366 57.72589278646023
303.70116783668345 131.61986416943856 54.36793551901821
301.10995366438425 131.86203354683568 54.16106747741875
295.80708880584217 126.80337670998043 57.875315065172266
298.3331088759823 127.96433434474267 58.147625764740916
298.2160416705563 130.74786116049992 57.9764962339991
299.80390369043477 131.51776221131095 56.2271958299183
298.08365316624327 135.50654024042964 55.800943535923174
297.186187565624 136.71760074566933 53.87134117261382
297.05930415779244 137.42803073619794 50.4787003906352
296.1140039416003 137.10251598456898 51.988254948516534
293.97104311999027 136.68541892779615 51.71435263566391
303.2770475418259 129.1795872377419 41.45944157934982
314.47842695055397 114.4745252630636 55.118989509351444
312.97038949099124 118.62274453027524 57.46299820241144
311.97813865101887 109.57592516703649 49.917410086489134
313.73115154015557 112.69445899648721 53.54153457753121
317.8585864773704 117.47775442789043 55.28876066212778
302.0683932088675 111.11654164394946 48.72661915555039
307.1944719552255 109.15185232697173 42.786510855933344
321.299977193384 123.03467501429266 46.512508659285935
319.2578345194931 126.43199935277322 53.26201321793189
317.50163168695985 115.36042471820022 54.100434136106465
322.73015614390044 120.90411975916246 46.069829972131124
316.26110944448936 133.1297305910017 51.94776529073965
319.59228181096694 119.31214355106903 44.184119532810676
315.0931761275807 111.44274922481816 50.46796406033837
323.43820592939704 121.96869707409388 50.287142724761004
312.8278743644528 133.534618024633 45.89092132134734
311.78849913716266 109.78391671384364 43.13500883435533
321.2251229130359 119.20636801687522 45.964118575351804
307.3269035325372 108.39006126483683 47.3935282749263
307.5870851733166 111.06793262657817 53.71131273106352
320.8610658526701 117.86563587122976 48.10548951232673
318.25897709950925 115.88029320393959 45.39700667491855
316.0063727776461 112.80579477006236 50.994259675800826
293.9577340317602 128.33473731927702 56.76449041884351
310.33849409215765 133.61011304603034 55.156727205479854
318.20874504397744 125.24194323487185 43.07135395325694
298.75426635564065 114.78008331822606 49.78792152828502
307.2965023448245 120.2054476807661 38.10626320730444
302.7954621453855 125.45461468814655 39.49832555400315
317.00592452645344 129.06091610630634 54.67935836410124
294.24799524201495 118.6722029575139 53.8570384056162
321.6515642349387 123.1727994597683 48.99760369612793
305.82521934160707 111.37311084972579 54.62580247097305
306.17486958566235 113.39707643155316 56.31478068399621
295.97198298824514 129.45389055821548 57.98093979901308
321.6471979566885 122.13438355762237 52.592484863897454
305.5584170645601 110.0252790254555 41.34748727569272
314.27646919155353 117.72724154032925 56.50098191482516
310.6795541779261 124.33238070039037 59.503916632829196
323.4239139120374 118.89298754503237 47.57441763604309
322.3345741307645 119.05474084971158 52.89300364412307
318.57653134640805 127.69976227959914 46.819371864806875
308.3093944919914 109.01550516050449 51.6402120483365
296.8511564959644 121.25384143815427 45.77037374948959
310.74232241077516 129.40303607783918 57.34802974896287
315.84179053749 121.03240703514383 57.12570600637212
314.11314934825936 111.6840539318011 52.07916211439358
310.904499458536 113.5425613846652 55.864009545009175
294.22388208757894 132.95840923909532 56.74752487559086
295.9311460506362 134.5185384798092 56.930060063093116
300.76456082100856 113.03514849672104 54.656308676456796
308.64204526650656 108.3539196049207 45.461064373186204
317.54196703091236 114.08829673852631 49.05190081194212
319.60395043850986 126.63471301246132 51.64135658807649
314.96780737383796 134.35533515356352 48.94950993036138
304.0932631395048 110.58219850419381 52.6742407484386
296.0266803358793 135.62896202164382 55.11276465877366
319.1770291031404 116.86906303296499 52.78985173119161
307.0345703392608 108.76041767236475 49.88184108958165
310.07830836256915 135.09500545624505 48.641074838054564
320.69437347232605 117.97536491616125 50.76528193299516
320.7222371529503 121.23755335574846 44.77807986959957
294.1856575431595 134.43796844035452 54.89657304942697
295.02446346277185 136.2671911118075 53.60192479623025
315.74201807942734 115.70862273478912 55.65445752086245
315.51547340141656 113.57804715118598 53.700990622992705
298.4246757283968 123.97422654497124 42.742302366922175
298.66038253515717 118.6820705879522 43.21511099786343
303.1131856211771 110.34330315320062 47.54240064814739
319.6056107684529 123.86114208967749 55.612062867340654
320.9117978825432 124.54013505321585 50.7336139594581
314.63393061829856 134.4162172505194 53.558614089009495
305.2725490639773 124.24487666365648 59.15405617058114
313.96445089919 115.15686145087581 40.645346350851
314.77845302928677 119.86412320784252 40.45071737883664
317.6110540215738 129.73497469624795 50.92133963365831
301.09019305885073 112.03093398348678 49.682461398491576
315.7344616749996 124.5498243472229 58.57003115522287
303.7856489628846 124.83548209975046 59.3438761533972
303.1144040413099 111.99179005105846 54.843637401308776
299.3579532262545 128.1974526225703 43.381451102782655
299.58258190338415 113.57012948236186 51.104737528215786
303.0520729255024 110.6191919047171 50.12484953424871
308.97833272282656 125.73858286918994 58.41251548605941
309.2352262331562 119.59165652947796 58.60396507067993
308.88256912613684 109.55373673000223 41.18490073451411
312.3591605005838 116.4780923036586 39.38481954529401
317.5852479866418 122.02681973265196 56.722045092957266
320.1771403167508 124.7414581642241 53.29543894346453
319.74407385337156 123.58197879770495 44.29842847697354
312.6746032026624 123.00955840263475 39.25417794773395
315.3507927627999 111.74759924192959 45.71768106710511
311.9425483749019 116.9951331597038 57.59799067432001
303.7390378343897 115.12541242838584 39.20792308694736
302.8568753002984 119.84228171082783 39.5714270545742
318.9087106605164 127.65893264458444 49.508703834768404
317.1034288510748 127.48773412580711 55.602704062806595
304.3934369565187 118.87141424532291 58.712140036514676
311.5866572989155 119.53431580603142 58.40390997513845
308.42837672232196 116.75075891972084 58.172962002484645
292.9583545932242 134.75934972843166 51.272820180744766
301.6121028003536 112.0303182276127 52.30941944300585
318.2254538644502 117.40049021543224 43.48946219350492
309.72607462982427 117.71848984945191 58.36365414509092
315.42221754225784 122.38560321055675 58.15275738013981
312.9294646486273 122.28912882484902 59.21668011883152
317.18878794444464 127.88249819664091 44.24304270938936
298.6514607733864 121.63314228195958 43.107165315318184
315.033829880559 122.23685524210617 40.175803769615634
312.87816141340505 136.05923030709312 50.86605629887078
318.6016458083374 128.0563486028137 51.32504463175226
309.9446884871554 108.94610669477139 50.144284727707046
315.7317373388028 111.81111807231737 48.65821601635917
318.8668137671039 121.30416054806423 42.52057947762464
315.2518383179457 113.70425868534642 42.341333044003115
313.27016210840884 115.18716485845172 56.28371371142865
314.4620648447021 126.14014331208327 40.75681855294654
319.41405011166495 117.72741033741683 45.88240713220192
316.56334874431667 130.7852773967463 53.45987973747395
320.4342714826308 125.53598587721761 47.91530137735993
306.7490466925582 110.0391972020938 52.39586391181122
317.51349609479234 125.04023289895075 56.96875588068437
317.7091687954263 114.56880882835101 51.88447737902407
309.9396665465891 126.36481457210878 39.51809086440029
312.40025758127115 129.7437765730602 41.63854692340177
315.31482352088335 132.76222217339998 47.005061556486524
314.19297275664644 120.14667347041548 57.599347027459174
313.27117726206484 109.88317147280902 45.431730846408385
305.30255991518044 111.68334019383398 39.867452895300254
307.5975900459797 133.24561871230577 54.65938988310841
315.2390406667294 117.1492506352623 41.24585692138675
309.778887012929 115.30448266076829 58.08544487550982
304.0448443910628 130.180808611532 56.24841326334713
313.3746202203861 113.44128259826346 54.82135917950811
319.12275072365577 125.78848329596785 45.35189983247796
314.8549873808032 124.59089497793526 40.17714308137886
309.975473733741 115.27706739922249 39.077532797431466
307.29565056592423 118.22431764088904 58.76621422247715
305.5747541243891 132.8247632678778 54.01504421827862
292.26865145185207 129.18985997442127 52.41357096972486
304.44442328910554 133.01017560621565 52.64495614083631
307.85580135269845 123.41123273838596 58.78958525432573
309.8501344477257 123.4225415557871 38.74339763914931
305.26287050020903 117.17317811251618 39.08201480737016
300.892521229679 121.26791031252493 40.959748876551146
304.692072887657 124.65995885767153 39.0253644428509
313.9738023743688 127.6127679149707 41.54845977369458
316.05903317519466 117.57888080383442 55.969867225092045
310.21140979801385 131.31082405635667 42.23707608954754
311.99260599092577 111.92134924538998 53.68723649555991
310.6691476465775 112.78893448235702 39.732681500385546
317.4824647691927 129.76425064118334 48.00908289835796
299.80311606472804 113.9515874128761 43.7954510631957
307.82473052852464 130.08983139169283 41.61358550615276
315.67886094145643 129.60654859276215 56.12748786066836
311.2324543464625 127.01452993122271 58.28747002489326
311.9140237056967 135.36275583400104 53.201229875237985
299.13408398486007 115.33157609406628 58.05734006864587
298.7242567652281 115.25515473509876 45.5359553221222
317.0421692390005 123.51132448660185 41.42980910255259
316.3289332146802 119.42055253747981 56.35322283542833
306.2224860611195 126.81679555386776 39.435070712022906
292.9275894605083 129.79613095237056 55.635796443808914
312.73192470679476 125.74369061290922 40.11927604328745
309.41468399282707 120.5876164490978 38.06941384648788
314.9267823131942 129.84779905698792 43.151599214656315
307.9024835159068 134.4911023331067 49.061268175575755
306.30122516066035 127.53123188556049 58.30156938075839
312.19378123248737 120.08025170187878 39.25687567187545
309.9662519156305 134.2902259444632 46.71892113990906
297.7807574345797 116.04442476930633 48.43829177038663
313.7124874597731 110.42588932988322 49.79502242185841
305.4891432275451 121.55332772532836 59.21048909070134
318.06246196095435 128.0305102120378 53.20008039756076
294.12450240380224 130.7779738014119 56.96076864200185
309.97365440419685 121.5537604347809 59.47125900561449
298.04334100134406 123.2000325645369 58.28283930349631
303.08915100849345 122.9360864758083 59.48787113468675
305.97804088454006 133.635109113506 49.801044073252086
300.6588756656983 118.3555577044178 41.01820938998169
310.4080535952255 132.9946756891838 44.38677722250025
302.1549320940582 123.58279501409417 39.82450197476607
303.45446532453695 111.11063273341709 41.0685073896897
317.6093478680643 115.706341461706 43.97433266998547
302.8312174485684 128.5712320805615 57.604397878142635
318.95054928295195 116.15340287802603 50.25412587625778
310.03130670852573 128.92298459319727 40.87540921174151
312.6370934131677 131.74342146998467 43.52038902890491
317.0973752209782 119.04130823927761 41.90051793680023
305.3222358465601 130.73425593195086 42.59280102749685
301.32401361556504 133.6885218618058 47.94482810492656
313.6538241104166 121.30330190871318 39.81425287053131
293.68770219344884 123.31119884851086 53.86532885075074
316.924547007839 113.9622793468678 44.59837356711341
302.02563049035945 130.72247795537902 56.19357928187806
315.0458074018115 135.21185046961858 51.13783375397441
300.6602466013646 131.85322664794657 45.06159195173824
306.8497556622661 122.25197834403517 38.43852398124906
305.68801793109174 113.64968307970369 38.89266284014078
295.90865507243495 119.66585625838702 48.172515521360516
297.43172120569716 118.13981200753612 45.93165706164239
294.2171101867818 124.22813893145685 49.56191644116406
305.09863142899786 133.48092963636742 47.87083620632913
301.3879404401349 114.31107369862367 56.6794625465883
312.15408810378585 131.64773615701682 56.691122973348754
300.5078282410649 133.73404829252237 52.6365295028308
309.4087726009925 108.95716839024094 43.41747894788016
299.29565386819843 126.35345384073743 58.22749256758199
305.00000590356524 132.65716260183723 44.862269412929706
293.1290999259967 131.8744560552562 54.943135406827395
300.39103456043273 122.21195254690792 59.154281268986644
306.56444757925345 108.65115990426439 44.995377784685694
296.10252857632474 124.35833106535195 57.23619516055186
306.90364824645667 115.69863727446757 57.68067963544311
302.1459783102002 113.05231599138635 41.244096980966525
311.0379638812908 110.77518066982987 41.108025738732834
302.2828213868183 125.3701305677475 59.19860382737876
293.68731719623963 135.18897810703163 52.95504142682901
296.7158564726565 117.79649953146739 48.15818543138688
298.13987960675496 133.18967111496264 57.022547211665895
307.94034736680754 128.02905971182517 40.09930497665071
308.3596864226051 134.86974081095545 51.10986925215734
324.4510499932743 119.16188631042384 50.54522975093019
304.82740791407235 109.36137306924911 48.932505841659506
299.62445693347746 119.98594596962104 41.98803332682723
307.28789440975936 115.63791689897216 38.73680705032841
314.2015746638696 130.87916010263933 56.97152124352644
308.2133943908232 128.1768027812835 57.64210529824211
298.34038336973 136.6905090214925 47.74529925704418
324.46434368191325 120.69226480571682 48.58117924979352
303.69884179182446 113.00585798904872 39.81990485210911
316.043784315479 133.9252908098591 50.315409548535314
299.9364667037914 124.8588753796508 59.007947896113755
305.6602543555568 128.94718137789033 40.484423128686934
309.30385870909345 111.1458515109495 39.76602778704607
307.8229945780096 132.3541361544776 43.68495340635833
315.88165921619685 126.11990840346289 41.99600619127853
318.73104661388305 119.6803133489878 56.093392339846574
302.156167299414 111.54942542215255 42.05588794206668
300.7937142134147 114.12437700104759 42.305444774007015
307.19450338447956 109.76774383232907 41.24936474121504
304.14806164420185 133.30576056287768 50.43620991240649
306.21235196348454 119.81875975257066 59.04454849696195
309.4234458301243 110.52029952774105 52.947399268376316
308.86696523935075 116.6944381832502 38.34075764058445
314.5582324788134 123.55790283212755 59.30569746974454
296.3160715302936 118.85263812406681 56.395956610427085
297.5320938389053 117.14713501822537 57.64589162941595
309.07263176564 134.71322224763443 52.879850901997706
295.9142385397914 117.42811762557382 50.167216218761034
312.9926397164557 112.58135139066538 40.992031026151444
313.4478624719077 125.25812162591146 59.149828862890246
314.60489721065585 131.9208818153343 44.86126349516356
299.8871558836584 123.80344307887589 41.49063047517121
315.2080087013426 126.92043368789824 57.567222110205876
314.1472918370358 111.26710856651371 43.14189725114391
297.2872290555465 115.48871631123215 53.30938556149673
308.36495000728655 112.24648512097794 54.95184600407093
295.76486950601503 117.43277992628742 54.74660925690615
305.6924610833516 117.18491525997153 58.34593927179465
307.6599049313682 118.21994474909958 38.04967209697666
316.5722464336376 131.38509993626408 47.51513545666559
300.1743747963318 113.23327415318893 52.89563641931019
301.63949695909935 118.03414260362686 59.38453897213447
303.110606245168 117.13239627717098 58.81662569583793
320.18567943438205 121.41529206440364 54.9984619358857
292.8644334423654 133.4564291715694 53.0320466237591
312.5723615082628 110.99149259213425 41.99327997272551
302.99395819087476 110.64061919297762 43.23395778749984
307.1896538640181 129.805113512385 56.76059739867288
319.9859463570295 126.11050344512364 49.94787388119191
315.5325754168625 127.89643964705279 42.677796230563224
313.88821929127386 135.3617921778709 49.76901483016775
321.0713239179469 120.3583745675812 53.663356752720034
298.2942998813331 137.0794807094084 51.87661347643811
299.19198171916105 135.5894501975361 53.47743114872889
313.850255262178 116.69089746021498 40.14653601782115
292.69210559073593 132.61602805180584 50.94410813316986
294.00660042990125 131.50893075431125 46.5694897500562
299.5810771190848 135.31578215721072 51.02558773691992
304.6532096182402 112.36831660503132 55.95281848186536
317.6493997577998 129.11450646216184 46.10801723358185
313.3126773277478 127.11430782133645 58.28494335731084
312.3666598401413 134.96984349966297 48.53368930802913
316.4128676893686 130.50957664907475 45.74000002138739
294.56597694783704 126.20614760228585 47.9958696508384
312.0907715873958 114.38903240245206 39.72585729916634
294.82836584447426 121.14214094536979 55.066836686388356
294.7256548664121 121.84361476960744 48.98913849697809
317.01180476359815 117.26676744235273 42.07764031224844
294.8448365035789 117.95761123222351 51.91366339076608
321.78963571399004 122.8439257686676 50.61558096625708
320.5588552049993 123.08165067529156 54.20261821520362
302.5896083188205 127.0086160262563 58.678079589741316
307.5804663350987 125.09358153924202 38.764117701569845
301.28765218757866 111.81513754530921 47.53640702375478
309.5923120434311 108.50840434822949 47.54685682677613
316.59416300885454 123.49601628226242 57.64159327358162
318.5930483214562 123.45330729780711 42.702390550712174
320.24738180044403 124.54739215117283 45.96550250455207
308.47970435247805 108.51353684536757 48.762196778469125
298.96438555835977 117.86128038315923 59.183122943260166
300.20051341710393 119.7949267798323 59.40945853899952
303.8332438264233 121.99418068197284 38.50779808526838
294.6029556035874 119.80522378845356 51.00575026773894
297.8820832677787 125.58995016815987 58.25363531430235
292.5221853850075 130.0228986035775 54.07067103347978
294.88057641208974 123.21707389724077 55.896261166873586
306.58189293392917 112.23070418201428 39.27625457657954
305.5865079023085 129.0168724607941 57.50951725465845
314.31365444784024 110.23445080792231 47.522993736446615
308.1368589711711 113.03097803540274 39.079324027841835
301.9640065035034 111.13909682921877 45.4052110871762
315.938789972908 132.83428524011097 53.80044055218823
316.88358713152 113.0720792453379 46.93565705446088
322.5005663817254 118.10945480111592 49.58044145750357
301.30464618559836 112.37355410433348 43.329743826910054
301.848105303953 115.92491835668484 58.36815472072809
299.53030577356975 113.68214678164627 48.23740439995267
301.22518713048146 126.18645528921438 40.606464360739835
297.6870790044219 119.90145618912274 44.38349969901485
302.9001735606231 117.38870814046402 39.54051960810043
304.4556665586518 126.68482342116886 58.83953618050056
302.4344122794953 121.67199373717939 39.72035859266205
323.88180816508026 120.91495616120113 52.33706964257883
318.6298553031997 119.19423917252334 42.83159590226152
308.8513581982575 131.13380822783532 56.5272775977179
297.58908811900085 126.26998094740038 44.331423643843706
315.6076449230714 112.52808883170763 43.86104679992667
310.3130441990317 109.68044328042757 42.16585660989735
303.9984354525944 118.49899849289208 38.90212984240065
312.18285911096774 118.12805987105835 39.09599285956709
294.06203725087676 121.03738955940497 53.02783877542838
317.8238672577428 114.57464744743262 46.75066976548456
323.0557260135274 121.88835161618375 47.8693166193656
307.9378789277839 108.50173447416844 44.08799590952097
302.17031659045716 127.85324965399305 40.896219624031716
314.01413407182895 134.24277986192126 47.39806554245046
302.4258283721245 113.96123925256474 39.764221377417705
295.9522323347428 132.14866686661279 58.18080430930245
318.6838471129244 125.9786023041481 54.69655114949625
316.5849361968479 132.174293843628 49.47870812458289
316.6665607040144 121.17432329685023 41.11191545784075
305.4439246501376 115.41109689652502 38.63301998820073
300.3807303852294 116.55679195822509 59.24683053640937
322.6453081789927 118.09123932342327 51.08166052527009
314.8083791117669 132.21127235937874 55.40249092564924
313.71599786041185 135.59466375608602 52.32297931474637
305.0685721623002 109.64545448794043 50.87303308630461
304.93857537293695 109.36799057664724 43.49830682431261
308.42637500645674 113.98002903553862 56.643139479320006
312.0520117755397 109.2325921028935 47.992499767184
324.0597412679445 120.71956926133034 47.07330920827519
307.2574134796302 110.93071508067389 40.07445674312139
299.6187137970315 130.00293736247332 44.01250092015307
299.2627848283874 114.26642393613574 55.78346084923016
298.7184659106566 132.01978154975833 45.00974304954837
319.793953350285 117.11288121630837 49.22882733342842
308.8612324114726 133.80173869269748 44.95858981254587
311.60522194444377 115.08518316101996 57.22203879575436
316.9003604279604 115.6061577735978 42.43064992969439
313.52306518203335 118.05943177336924 39.775859052871326
310.20926565268513 111.89268105484524 54.513209986398294
307.92169631379903 126.60453718953791 39.390342952134084
300.40544352718604 113.01319775352233 45.63701955055174
306.58397293342057 133.88289869311222 51.84840022393475
292.6112574419047 127.87975606422704 54.50377230920509
295.7419858562499 121.60560741620662 47.4906079597292
302.259418447302 120.45752180143528 59.35741315125653
318.9818548841434 116.17455737124008 47.80972553385397
306.0794121302923 108.85407082399641 48.25265089769203
298.4756230021724 116.9860721803267 44.32012820341277
301.41957415720293 123.84664170308369 59.243712519019496
305.3234638342893 119.71761771629859 38.38468628986502
305.27314312095797 114.89401192887696 56.865153996478554
296.11447445909926 121.82270875691377 57.16398064414667
302.5163533941937 132.57402535360828 52.257929972171894
305.11734065156384 109.22292567004348 45.13410101096352
307.3508189315663 133.86196803809935 46.07700803045361
295.9987695732053 116.7785232742709 52.963946936447634
320.24931112469005 118.83723277544391 54.30264568538334
310.4518532903772 117.89599000363211 38.481512705773966
292.59617163767166 125.53180319658053 53.757607990781246
311.4180740414608 124.77567417502397 38.91358439507704
307.67633942880025 120.6930914316949 58.979407582869165
301.4459752947087 115.37224519333671 40.542955001182925
310.82828029814857 109.00547518348485 45.48105262286057
320.47482688710824 118.38168366040333 52.619933111649054
305.2087152899635 109.123883820579 46.78794503636782
297.63786010133657 115.39715586768689 51.30797339075238
303.83056429095524 120.91706724717741 59.43245421076606
311.87832335309395 110.46602255588115 51.45463433257613
316.71036876010396 131.44613467210263 51.444935408389284
298.80135900349444 114.3718739903461 53.50507096817868
302.8115904655068 115.01865290301383 57.355786384359526
297.3185976933412 118.48708955330743 58.308579524285754
301.4711563780276 133.7486317867744 50.156487986988694
311.84398811806693 127.72493863675736 40.63391746794688
300.91156351987206 128.45885161647504 42.27978153328046
304.21252940812593 116.12571653695738 57.74732967879389
315.530692152645 115.31735745518347 41.373841438595534
304.1842084185279 110.19322901228165 42.249869230731356
302.22297441113716 113.22293034519835 55.73578123330737
312.8983114170479 134.00565227640652 55.39776552626927
313.2723544072052 129.04521613418828 57.629463718014655
293.6214656161178 122.38456162075141 51.27292806801538
303.80836812493135 109.84496606504037 45.26116894987673
299.66147533905746 116.06550660546223 42.876178875446044
299.45326442771125 133.5565198319891 54.875315443093264
292.2491180592276 126.96063189006442 52.089340332780765
299.83246312324707 135.17771091460912 48.39886555085972
311.0493132563118 121.78056476988212 38.76689163055326
303.7384156819806 114.00023796526408 56.30211270137172
293.8525538940422 125.50443037805024 56.016087353980645
POLYGONS 940 3760
3 1 0 335
3 1 335 158
3 336 0 2
3 0 1 2
3 1 40 3
3 5 4 0
3 6 5 0
3 0 4 335
3 336 8 7
3 6 336 7
3 2 10 9
3 3 10 2
3 2 1 3
3 3 11 10
3 5 14 13
3 5 13 4
3 6 14 5
3 7 16 15
3 8 17 16
3 8 16 7
3 8 18 17
3 8 9 18
3 20 19 18
3 9 20 18
3 9 10 20
3 20 21 19
3 22 286 21
3 20 10 22
3 20 22 21
3 10 11 22
3 23 286 22
3 11 23 22
3 11 3 40
3 14 24 13
3 4 12 335
3 16 28 26
3 16 17 28
3 31 19 21
3 31 21 468
3 23 32 286
3 33 23 11
3 33 11 40
3 33 40 56
3 50 45 51
3 52 277 466
3 466 333 52
3 53 52 333
3 333 332 53
3 55 53 332
3 332 54 55
3 54 33 55
3 55 33 56
3 49 50 92
3 106 232 397
3 397 107 106
3 120 106 107
3 107 114 120
3 114 121 120
3 275 120 121
3 324 158 335
3 275 56 158
3 121 56 275
3 220 232 267
3 267 232 106
3 106 120 267
3 267 120 324
3 324 120 275
3 335 12 324
3 158 324 275
3 0 336 6
3 32 54 332
3 277 107 397
3 52 114 107
3 107 277 52
3 53 121 114
3 114 52 53
3 121 53 55
3 55 56 121
3 81 220 424
3 92 232 81
3 267 12 364
3 364 220 267
3 267 324 12
3 467 197 13
3 13 197 4
3 4 197 12
3 46 434 47
3 434 263 47
3 286 32 468
3 32 337 468
3 333 466 263
3 263 466 47
3 158 40 1
3 18 19 414
3 56 40 158
3 33 54 23
3 23 54 32
3 34 467 24
3 12 197 364
3 197 424 364
3 220 364 424
3 467 424 197
3 463 362 390
3 362 88 390
3 24 467 13
3 34 24 259
3 34 259 463
3 35 259 343
3 343 259 24
3 6 15 14
3 25 35 26
3 26 35 343
3 463 259 346
3 346 259 35
3 343 15 26
3 15 16 26
3 270 363 48
3 29 254 30
3 254 31 30
3 44 45 49
3 49 45 50
3 45 252 51
3 51 277 50
3 50 277 397
3 270 48 471
3 48 363 49
3 34 440 467
3 467 440 424
3 34 250 440
3 390 250 463
3 463 250 34
3 471 440 250
3 81 232 220
3 234 433 41
3 345 433 365
3 270 234 363
3 345 390 88
3 345 250 390
3 363 234 290
3 468 454 248
3 248 454 39
3 88 304 345
3 257 307 362
3 345 304 433
3 433 304 41
3 248 39 30
3 39 260 30
3 362 463 346
3 346 257 362
3 337 454 468
3 260 39 299
3 31 248 30
3 31 468 248
3 234 270 433
3 270 365 433
3 21 286 468
3 32 332 337
3 365 250 345
3 365 471 250
3 363 265 49
3 49 265 44
3 363 290 265
3 265 290 44
3 44 290 274
3 242 380 367
3 252 45 242
3 51 252 47
3 47 252 46
3 277 51 466
3 466 51 47
3 44 242 45
3 268 234 41
3 268 290 234
3 81 48 92
3 92 48 49
3 92 397 232
3 92 50 397
3 254 29 412
3 412 414 254
3 456 412 29
3 17 18 414
3 31 414 19
3 31 254 414
3 28 17 412
3 412 17 414
3 471 424 440
3 471 365 270
3 81 471 48
3 454 299 39
3 263 454 337
3 299 454 434
3 434 454 263
3 7 15 6
3 24 14 343
3 14 15 343
3 263 337 333
3 333 337 332
3 260 266 30
3 30 266 29
3 29 57 456
3 57 291 36
3 27 377 311
3 27 456 377
3 43 225 380
3 380 225 367
3 43 285 225
3 225 285 367
3 29 266 247
3 247 266 293
3 291 219 36
3 376 228 216
3 216 228 258
3 291 247 211
3 211 247 293
3 244 211 206
3 206 211 293
3 258 276 257
3 257 276 307
3 258 228 276
3 276 228 307
3 245 206 238
3 238 206 293
3 291 278 219
3 291 211 278
3 278 211 244
3 377 239 311
3 36 219 203
3 239 202 311
3 255 200 222
3 46 198 434
3 423 299 198
3 198 299 434
3 37 196 46
3 423 198 196
3 196 198 46
3 46 190 37
3 37 190 367
3 46 252 190
3 196 37 187
3 187 423 196
3 223 182 245
3 244 206 182
3 182 206 245
3 312 212 462
3 307 228 447
3 294 174 204
3 204 174 221
3 294 193 174
3 174 193 221
3 294 217 193
3 214 167 38
3 167 341 38
3 182 223 204
3 233 96 199
3 311 202 165
3 309 96 163
3 189 157 271
3 271 157 195
3 189 161 157
3 157 161 195
3 230 442 199
3 442 233 199
3 187 37 384
3 201 318 283
3 163 184 162
3 163 156 184
3 312 154 212
3 312 179 154
3 210 422 216
3 216 422 376
3 422 353 376
3 150 161 189
3 193 148 221
3 166 193 217
3 202 152 237
3 161 142 195
3 233 442 142
3 142 442 195
3 199 141 43
3 199 96 141
3 156 161 150
3 431 318 201
3 447 139 451
3 412 138 28
3 28 138 27
3 412 456 138
3 138 456 27
3 208 369 194
3 194 369 283
3 309 135 312
3 312 135 179
3 231 133 176
3 133 153 209
3 166 148 193
3 342 164 223
3 353 134 376
3 159 139 134
3 134 139 376
3 380 130 43
3 230 199 130
3 130 199 43
3 221 455 204
3 221 181 455
3 455 181 244
3 179 145 127
3 127 145 323
3 233 142 156
3 156 142 161
3 159 134 140
3 260 224 436
3 436 224 227
3 119 171 147
3 38 117 224
3 224 117 227
3 38 341 117
3 117 341 227
3 96 233 163
3 233 156 163
3 140 113 159
3 159 113 137
3 112 399 183
3 146 128 111
3 218 103 184
3 184 103 162
3 218 145 103
3 103 145 162
3 213 102 285
3 262 384 102
3 102 384 285
3 257 101 258
3 25 165 101
3 224 236 423
3 423 236 299
3 224 260 236
3 236 260 299
3 164 99 192
3 209 153 99
3 137 108 159
3 230 130 235
3 184 95 218
3 173 122 95
3 213 96 309
3 213 141 96
3 146 93 128
3 315 91 90
3 128 89 177
3 212 87 176
3 176 87 231
3 212 154 87
3 87 154 231
3 43 141 285
3 285 141 213
3 226 439 222
3 439 144 194
3 179 398 154
3 154 398 231
3 285 327 367
3 367 327 37
3 285 384 327
3 327 384 37
3 36 86 377
3 377 86 239
3 36 203 86
3 86 203 239
3 222 85 255
3 255 85 431
3 222 318 85
3 85 318 431
3 219 352 203
3 203 352 255
3 376 84 228
3 228 84 447
3 376 139 84
3 84 139 447
3 189 417 150
3 150 417 173
3 189 105 417
3 417 105 173
3 173 105 191
3 191 105 207
3 244 181 278
3 235 136 274
3 274 136 380
3 235 130 136
3 136 130 380
3 255 352 200
3 200 352 181
3 165 124 311
3 311 124 27
3 165 25 124
3 124 25 27
3 171 400 217
3 217 400 166
3 171 246 400
3 172 418 251
3 195 317 271
3 271 317 457
3 195 155 317
3 317 155 457
3 180 243 115
3 115 243 118
3 207 301 449
3 449 301 169
3 189 408 105
3 105 408 315
3 408 91 315
3 170 368 149
3 149 368 185
3 170 229 368
3 323 350 127
3 127 350 146
3 323 93 350
3 350 93 146
3 169 100 116
3 116 100 178
3 169 301 100
3 100 301 178
3 113 178 90
3 90 137 113
3 294 83 217
3 192 147 83
3 173 95 150
3 246 188 132
3 123 80 180
3 123 104 80
3 262 82 384
3 82 187 384
3 160 175 79
3 223 329 204
3 204 329 294
3 223 164 329
3 329 164 294
3 315 77 301
3 301 77 178
3 315 90 77
3 77 90 178
3 185 313 149
3 313 308 172
3 104 207 449
3 449 229 104
3 97 78 75
3 75 78 175
3 260 436 266
3 266 436 293
3 218 295 145
3 145 295 323
3 295 438 323
3 91 338 90
3 90 338 137
3 91 470 338
3 338 470 137
3 341 73 227
3 399 133 209
3 204 455 182
3 182 455 244
3 160 70 175
3 171 119 70
3 253 129 69
3 97 75 68
3 68 75 119
3 180 67 123
3 123 67 122
3 180 115 67
3 308 131 172
3 110 180 80
3 80 170 110
3 110 427 243
3 243 180 110
3 251 372 149
3 149 372 170
3 372 110 170
3 147 65 119
3 177 89 65
3 110 391 427
3 251 79 391
3 391 79 427
3 462 262 102
3 102 213 462
3 140 63 126
3 126 63 353
3 140 134 63
3 63 134 353
3 115 438 62
3 231 66 111
3 111 66 146
3 231 398 66
3 66 398 146
3 123 61 104
3 104 61 207
3 123 191 61
3 61 191 207
3 127 146 398
3 398 179 127
3 89 72 392
3 175 70 75
3 75 70 119
3 200 469 222
3 222 469 226
3 200 148 469
3 469 148 226
3 171 383 246
3 246 383 160
3 171 70 383
3 383 70 160
3 231 168 133
3 133 168 153
3 231 111 168
3 168 111 153
3 170 71 229
3 229 71 104
3 170 80 71
3 71 80 104
3 372 251 391
3 391 110 372
3 169 60 449
3 449 60 229
3 169 409 60
3 60 409 229
3 119 65 68
3 150 59 156
3 156 59 184
3 150 95 59
3 59 95 184
3 173 58 122
3 122 58 123
3 173 191 58
3 58 191 123
3 29 247 57
3 57 247 291
3 122 205 95
3 95 205 218
3 122 62 205
3 205 62 218
3 67 115 62
3 62 122 67
3 221 441 181
3 181 441 200
3 221 148 441
3 441 148 200
3 144 344 194
3 194 344 208
3 144 131 344
3 222 439 318
3 216 465 210
3 465 125 237
3 186 411 94
3 409 444 185
3 444 74 185
3 169 354 409
3 354 76 109
3 185 368 409
3 409 368 229
3 443 465 237
3 111 328 153
3 153 328 177
3 111 128 328
3 328 128 177
3 185 74 313
3 318 302 283
3 283 302 194
3 318 439 302
3 302 439 194
3 308 273 208
3 283 369 256
3 226 249 132
3 132 249 166
3 226 148 249
3 249 148 166
3 353 370 126
3 370 374 326
3 94 240 186
3 283 401 201
3 201 401 151
3 283 256 401
3 401 256 151
3 36 394 57
3 57 394 456
3 36 377 394
3 394 377 456
3 151 379 201
3 237 152 379
3 160 347 246
3 246 347 188
3 160 418 347
3 347 418 188
3 94 298 64
3 64 298 143
3 94 411 298
3 298 411 143
3 97 287 280
3 280 287 72
3 287 392 72
3 443 237 379
3 379 151 443
3 281 140 126
3 464 126 370
3 370 326 464
3 151 256 288
3 288 256 186
3 109 264 444
3 444 264 74
3 464 446 126
3 446 281 126
3 143 264 64
3 160 241 418
3 418 241 251
3 160 79 241
3 241 79 251
3 186 366 411
3 411 366 369
3 186 256 366
3 366 256 369
3 240 272 288
3 288 186 240
3 203 361 239
3 431 152 361
3 208 292 369
3 143 411 292
3 292 411 369
3 172 458 418
3 418 458 188
3 172 131 458
3 458 131 188
3 446 269 76
3 76 269 109
3 409 354 444
3 444 354 109
3 273 143 292
3 292 208 273
3 326 407 464
3 151 396 443
3 443 396 272
3 151 288 396
3 396 288 272
3 109 393 264
3 264 393 64
3 109 269 393
3 393 269 64
3 79 175 427
3 175 78 427
3 269 407 64
3 64 407 94
3 26 385 25
3 25 385 27
3 26 28 385
3 385 28 27
3 178 406 116
3 140 281 406
3 406 281 116
3 280 382 98
3 98 382 93
3 280 72 382
3 382 72 93
3 98 445 118
3 118 445 115
3 98 438 445
3 445 438 115
3 74 387 273
3 273 387 143
3 74 264 387
3 387 264 143
3 427 415 243
3 243 415 118
3 427 78 415
3 415 78 118
3 149 386 251
3 251 386 172
3 149 313 386
3 386 313 172
3 280 373 97
3 97 373 78
3 373 118 78
3 177 357 192
3 192 357 147
3 177 65 357
3 357 65 147
3 192 83 164
3 164 83 294
3 192 99 177
3 177 99 153
3 209 319 399
3 399 319 183
3 209 342 319
3 319 342 183
3 245 310 223
3 183 342 310
3 310 342 223
3 443 297 465
3 465 297 210
3 443 272 297
3 272 296 374
3 374 296 326
3 272 240 296
3 296 240 326
3 210 374 422
3 128 349 89
3 89 349 72
3 128 93 349
3 349 93 72
3 367 190 242
3 242 190 252
3 210 297 374
3 374 297 272
3 268 430 290
3 290 430 274
3 268 235 430
3 430 235 274
3 246 132 400
3 400 132 166
3 94 459 240
3 240 459 326
3 94 407 459
3 459 407 326
3 35 25 101
3 219 421 352
3 352 421 181
3 219 278 421
3 421 278 181
3 464 435 446
3 446 435 269
3 464 407 435
3 435 407 269
3 188 419 132
3 419 226 132
3 116 428 76
3 76 428 446
3 116 281 428
3 428 281 446
3 68 65 392
3 392 65 89
3 201 388 431
3 431 388 152
3 201 379 388
3 388 379 152
3 431 361 255
3 255 361 203
3 165 378 101
3 101 378 258
3 165 125 378
3 378 125 258
3 125 429 258
3 258 429 216
3 125 465 429
3 429 465 216
3 76 358 116
3 116 358 169
3 76 354 358
3 358 354 169
3 140 406 113
3 113 406 178
3 353 422 370
3 370 422 374
3 217 356 171
3 171 356 147
3 217 83 356
3 356 83 147
3 242 351 380
3 380 351 274
3 242 44 351
3 351 44 274
3 209 339 342
3 342 339 164
3 209 99 339
3 339 99 164
3 424 471 81
3 268 426 235
3 321 155 426
3 392 410 68
3 68 410 97
3 392 287 410
3 410 287 97
3 215 261 375
3 2 9 336
3 336 9 8
3 457 452 470
3 470 452 261
3 457 375 452
3 452 375 261
3 321 360 359
3 321 426 360
3 360 426 268
3 235 448 230
3 230 448 155
3 235 426 448
3 448 426 155
3 215 413 261
3 451 108 413
3 413 108 261
3 215 402 359
3 359 402 321
3 215 375 402
3 402 375 321
3 359 360 41
3 41 360 268
3 226 389 439
3 439 389 144
3 226 419 389
3 389 419 144
3 144 334 131
3 131 334 188
3 144 419 334
3 334 419 188
3 208 344 308
3 308 344 131
3 74 325 313
3 313 325 308
3 74 273 325
3 325 273 308
3 447 437 307
3 35 425 346
3 346 425 257
3 35 101 425
3 425 101 257
3 307 348 362
3 362 348 88
3 307 437 348
3 348 437 88
3 451 413 42
3 42 413 215
3 179 355 145
3 145 355 162
3 179 135 355
3 355 135 162
3 261 460 470
3 470 460 137
3 261 108 460
3 460 108 137
3 470 432 457
3 457 432 271
3 470 91 432
3 432 91 271
3 321 322 155
3 155 322 457
3 321 375 322
3 322 375 457
3 139 320 451
3 451 320 108
3 139 159 320
3 320 159 108
3 88 316 304
3 304 316 42
3 88 437 316
3 316 437 42
3 437 314 42
3 42 314 451
3 437 447 314
3 314 447 451
3 38 306 214
3 306 423 187
3 42 305 304
3 42 215 305
3 305 215 359
3 312 340 309
3 309 340 213
3 312 462 340
3 340 462 213
3 162 303 163
3 163 303 309
3 162 135 303
3 303 135 309
3 91 408 271
3 271 408 189
3 230 300 442
3 442 300 195
3 230 155 300
3 300 155 195
3 214 461 129
3 214 82 461
3 461 82 262
3 238 227 73
3 73 245 238
3 399 450 133
3 133 450 176
3 399 69 450
3 450 69 176
3 207 420 301
3 301 420 315
3 207 105 420
3 420 105 315
3 293 416 238
3 238 416 227
3 293 436 416
3 416 436 227
3 253 405 129
3 129 405 214
3 253 167 405
3 405 167 214
3 212 176 404
3 183 310 73
3 73 310 245
3 183 395 112
3 112 395 341
3 183 73 395
3 395 73 341
3 129 371 69
3 69 371 176
3 129 404 371
3 371 404 176
3 461 262 404
3 404 129 461
3 118 403 98
3 98 403 280
3 118 373 403
3 403 373 280
3 323 331 93
3 93 331 98
3 323 438 331
3 331 438 98
3 253 330 167
3 167 330 341
3 253 112 330
3 330 112 341
3 218 62 295
3 295 62 438
3 253 289 112
3 112 289 399
3 253 69 289
3 289 69 399
3 304 453 41
3 41 453 359
3 304 305 453
3 453 305 359
3 214 306 82
3 82 306 187
3 212 284 462
3 462 284 262
3 212 404 284
3 284 404 262
3 239 381 202
3 202 381 152
3 239 361 381
3 381 361 152
3 125 282 237
3 237 282 202
3 125 165 282
3 282 165 202
3 423 279 224
3 224 279 38
3 423 306 279
3 279 306 38
