# vtk DataFile Version 3.0
A great-looking cell
ASCII
DATASET POLYDATA
POINTS 506 double
297.26948963138784 124.14135151898417 51.18459326093684
297.16453190495645 126.58280758948825 50.426765972383514
298.02594737697075 124.34100722906342 49.336440374909245
299.154689182207 126.07032172831988 48.829377997517646
299.16382017554423 127.6314936213786 49.90081023786301
298.8640079093866 122.54395662435691 46.11024497946677
298.741274789796 124.46913090308475 47.26308899680466
302.0177152144009 127.33983696704604 46.56144793335458
302.5570515810081 129.1594967860155 47.55467717480682
297.43288987972414 120.5906557581584 49.0117598636858
303.78125908933896 125.12741681468361 44.687040978180434
305.20311504848746 129.2909490030573 57.25522173611776
309.9777236688984 133.15295122643485 52.01763768578229
303.61583763848205 130.7771850457248 49.10282045815348
298.8629787025549 117.19601217521833 57.63713257896307
306.29614930480506 124.03405033210963 58.440361395988724
300.8506098609673 124.04554816740408 57.78127064584222
300.0359290040446 126.15973746701873 56.38704506887684
303.2398319689799 129.65858606406098 55.40665479148294
301.42970595069494 129.1386238402775 54.376586118065774
297.6773332763811 122.65811711285008 56.54500952465872
298.6239517625792 124.26769274551302 56.706344272747266
297.31322840275436 126.45991304783944 55.9528310940446
299.4857744848942 127.94069778942783 54.40287840193557
313.97956097248067 117.3239325680681 41.10738068607219
321.504564899592 111.01718967172012 48.71297966775173
322.8712595851085 112.42240138321846 49.45102189964524
303.2965182799312 126.71927138623778 45.413780083184264
318.1632342736754 125.75048424116986 45.48054744454623
315.35020904078596 109.49930223740516 56.82710542544925
312.17625335823965 115.59304977255269 59.96726749160605
315.979423054199 124.54814408848783 60.68679632844472
315.22533935006976 126.44659379186108 42.74426639094628
312.3898224869511 104.170447216834 49.49616402655197
321.35918455869455 112.6473685646696 53.77015698696963
313.72830430746404 110.1174401947815 43.06224237884374
317.77068974799505 114.76325341652081 58.11792942725779
314.6837027349136 106.95227455347789 56.72892941104135
305.52567995227315 107.10117879532535 44.3219474494164
320.3894391012485 122.77040772930245 48.2198191529408
296.70159239544 108.53897436228687 49.90977545776477
320.686935515342 113.0309662692211 55.63324557444573
293.03520378585625 107.44817239069813 54.39110622757811
315.8938313684129 131.10465231848497 53.99904595895069
318.6006817926437 117.79971655761842 41.26743123857237
315.7286393996373 105.1819291659489 51.06154623444469
322.7746675051155 119.49687495088492 51.21918722049561
314.01166257236304 132.7830910302296 47.78708732005757
293.49683883111385 111.69795310071399 54.245336023545846
314.34496703727774 113.3179020608791 41.047712358292245
310.26704672861524 107.03564367724972 42.41705401065064
295.68535212068275 113.67905148503225 54.64670647550409
316.3871276726326 131.97412784537147 48.101516816058194
322.65469165929113 115.77689149134848 44.336584734044706
296.77672280285145 111.52222943708693 56.74537395655907
305.4609484534901 104.34312452430325 48.718243548579395
312.152295545531 109.30767114500674 42.43794493356355
294.7257042341243 110.05564852289253 51.00646124865003
321.8274344264779 111.64843030728493 47.01010143025614
317.64503112742227 111.3925802922043 43.66038127887971
317.3012605849224 107.22553060555055 51.17677760736926
297.39622488457206 123.76731256501313 55.04865895502967
310.0211177289227 131.1384141802319 56.270553979357715
317.62115044588256 124.40472943081377 44.35258542228792
295.68242875917514 111.46483533719298 51.74513073496672
294.77173901130914 112.39172894914137 55.174753690112546
306.3803534700994 119.09935608215798 41.6446774362776
302.1570234667458 123.6418284849069 44.629474431158265
317.29573704875526 128.92504712236496 56.74008700183659
297.35551384104605 116.24604040390156 53.182906973204865
298.25568486153486 106.70181585174876 50.325024801388714
304.9537545070252 106.47782632100898 58.06383246515619
304.9170767871145 111.41290327465866 58.32270997321972
321.6087388262124 114.16623143484254 43.11064180880575
322.2447149816205 119.64145878856041 54.13168850121329
303.4751586683332 109.03669533467338 43.93191859503939
294.8431860973063 106.79604821788439 51.229157254383665
309.65791195538776 121.71014467243951 59.728520982764365
296.49965458642794 105.30845943753069 54.04501216763431
319.16560458864757 126.56996726291554 50.420491286379246
318.39801807034416 127.08911303657104 46.77310166214759
319.2191208154587 125.88089034378478 48.56752685306326
308.1297836935273 102.82966102303388 53.45185363070287
297.36830162084095 118.6532584890258 48.34651381071557
309.37530689543365 127.50003980227154 59.19409354748389
294.7283824177895 106.29374898536545 55.670587425103136
314.7644678371984 105.108762289413 54.86539027984924
309.1664518853263 109.3928754176044 58.840704157618326
299.95694115864 104.48153598353878 53.17892982179183
320.4887162011683 121.50386332669167 57.49910197723647
299.5123151112531 109.91599615431117 58.316745627274244
306.8004775078194 105.35790637349082 46.38467826195162
293.70979303092236 110.93934487913317 52.43152186730456
319.5514143493931 126.10570664594175 52.63585187437244
296.75958805591875 106.9719173756581 50.52559658538439
303.95935371556925 105.0911526518638 56.045339613168785
305.79398333233655 131.6677958424901 49.83636415447675
321.0638217413056 110.77544692919282 50.49697959135558
298.8698296456737 105.76747210115236 56.70516146931614
308.8318028924585 133.14738362654205 48.24530392450757
305.99560114228694 103.48709672887206 51.43054560903119
311.06023272574174 133.3426768005935 47.4450974914938
323.29012600861086 114.05511673735155 51.42009480690643
321.05758046466065 120.7241123115125 44.2526278059563
310.60081211664357 104.14442587926408 47.36135566410134
311.2895801256766 103.72953669467044 56.81109264294383
315.7222792070958 112.19081153395746 58.25908425977598
316.6769662828929 107.30369860614276 55.50804568325642
300.4740633732772 122.23152102675685 44.80057901919741
298.88669620897144 116.91406196637749 44.90250587036983
301.78899958329964 106.26210820435696 49.57194962883034
315.33281116990185 104.80750438397081 52.895397804361934
318.88274073457904 121.8059699139119 58.8456717553084
320.6373712738291 123.50706036347194 52.74487505065412
313.42260465994883 131.08966676001722 55.283045639908316
304.83167593886367 122.25215882094734 58.29218862215882
302.21287666501644 105.58531789845105 56.23770645014857
312.4859558283316 113.76255707611016 40.46972036835694
313.2239200134383 119.0311320566777 41.44294056063752
318.0168643869827 129.41687810513065 54.01522535414735
298.3362406010077 105.37996523355886 51.95910245101587
314.77346067439794 122.70158543593969 60.46350594538027
302.76059187405235 122.80408811310109 57.96287144882664
301.00569804287704 108.35487729059754 57.850569444249274
300.4081170720505 124.08670513347444 45.86193137697482
321.7782748336226 114.86066505649183 55.70337520978564
301.05429231997635 105.23390050148895 51.82620048149549
308.72493419291465 124.05805900926676 58.980674989940766
307.93582930718395 117.8028575377492 59.157454672485976
322.9354088873787 117.83445334583966 53.293782471270184
310.4842999324375 115.06481651097772 39.597007316738186
317.8383164637773 119.71521226571969 59.54506260993703
312.9530164395423 106.61640468399821 45.18388802548896
315.1284970766681 110.85896121711616 43.510232583003926
299.73850186789707 106.7880014313992 50.350666119893994
310.9858739693031 121.592408086756 41.884875827292866
313.7351094204898 130.48281791891227 56.945963638629216
307.3862706628816 108.9815558611734 58.4167880728925
310.0239969188064 113.76485451728452 59.4963308431328
302.54669080079265 114.7102603552544 42.46527590567623
321.8312954139307 113.07774852794672 44.700884798868316
302.24541187969936 119.22745646968417 42.60646798309504
318.627868902959 128.35531521598722 51.572855611421744
318.4439034029347 126.38782306735826 57.972550672854226
304.1202142650892 116.65736222117708 58.43433337743224
309.79867033056246 116.49740404691619 60.40870048023149
306.8506531741852 114.54108411834257 58.560734717471675
296.9542811241909 127.39000751057938 53.213977929892074
300.5938557942505 106.24325398135664 56.48239793033411
317.8339470735053 114.79683108897123 41.50226058937385
308.02871363476714 115.27907241284203 59.19309819935338
315.0581169485222 120.11713648693866 59.929531116566594
312.4378421843775 119.92722540107275 60.52032059215118
317.2148532297379 126.92353320983858 44.44038830929893
318.261315474955 128.80348596664703 47.561237049279846
313.1821992768189 121.3524046329033 41.92109028003037
319.5888654491349 125.62519700089086 56.44299958141512
314.2156692138819 104.3957401178287 50.27393995105428
304.0582317353855 107.77921780784408 58.5500067871825
308.31098621262424 103.23250028230692 50.628741901143705
314.558023609042 105.70849779618098 48.77130972782839
317.1873370016758 120.61535455890184 41.88392574598141
313.55857868449857 111.66756779904759 41.92927239763839
313.2554816480444 110.56599792016868 58.33162028831823
321.9459965982365 120.98356718598122 49.00787006419765
319.75664447628435 113.0912111355984 42.941967027167934
315.4159341631377 130.53499571035778 56.57366396356867
319.9016439118659 124.44401232392343 50.24889953367586
306.05311553281285 103.22797180368963 55.41008541548694
293.7928841381581 108.60130323159449 56.28221694125398
320.39732210714845 110.57402648262452 53.640631584353606
308.9018158042933 124.53048803494266 42.72966122132462
311.1106302817448 128.35561510767988 42.417924380721765
318.0810253770677 130.43879180705116 48.545409028478446
313.7359626296303 117.67542657326395 59.84076208383906
312.29495900894756 122.59652818459647 42.115580444461195
303.8226908132705 111.2631749321863 42.57515655759112
307.296291306342 131.0005557295738 56.31263782511867
314.9194143956591 115.4297788162409 40.90983742438559
307.56947034048665 113.16912263739482 58.660784328600656
303.4443133305777 127.96085380751632 56.744768155202166
307.9771766525787 130.87705892153298 44.34423895504089
313.3004543806951 107.9862788174675 58.36191907896678
318.9655255687424 124.48834192935983 46.613574681617166
313.6214566171551 123.5902880340147 42.012369691351644
308.13477572787065 114.22114402871155 40.03635583961213
306.16665848808975 115.91828921444024 58.56992763459766
305.0639569885226 130.90522312430213 55.5678323332801
296.98731621845434 123.81086781367281 53.03724473236522
304.0064506038332 131.31538628327806 54.10758128783988
307.1920434226187 121.67202314285687 58.76701558512351
308.65748231994775 121.84059424709157 42.164317785432885
304.16062452108963 116.24134218607415 42.1017033739919
300.248072750507 120.36412406781935 43.69788815957722
304.3113040257064 123.00720328702636 43.73376253843902
313.0096541171439 125.7463168812523 42.05642767488984
314.7192519508311 115.16591323112829 58.91566511327527
309.0647083747209 129.3479007851526 43.14306707590745
312.68281757567274 105.2825325977084 57.30810268188371
308.7444433538048 111.56155421730416 40.410807904249424
318.65721462576437 128.10818135411165 49.07481030634533
299.1346790447112 113.18641142473928 47.0514507634398
307.08810939010306 128.7180415452494 44.472544760412454
316.4603713451004 128.2499898106545 59.47534885090461
310.95397419172133 125.43530967424404 59.69958765556584
312.29559145953425 107.1843905388821 43.59432726263394
311.3332023616171 131.91807205076572 54.04643266551531
299.3746456792989 113.62117624309998 57.70985050464716
297.9186531077973 114.51709575533009 48.63050051301441
315.24263222517243 122.1455761399506 42.21886208779353
316.3758683098479 117.46766225563846 59.168917222070846
305.73482835187326 124.87973690972485 43.890725602759765
323.62711358705 117.46788433064992 49.58236553944096
311.3834431857794 123.88553515940684 42.22298550817275
308.1630180633845 119.43459571378956 41.35802077328323
315.4685806998077 129.36800938103892 43.56155219569566
307.8785307570901 132.83489341733122 50.26791166855362
305.65980240759836 125.39668307799224 58.089705997769045
310.76371911489605 119.30189703860708 40.96630256041231
320.54508083231855 115.34209308004121 57.22172210977887
319.60923172978477 110.079083754694 47.97497105554373
323.6624964462316 116.76446269767378 47.200712706301005
297.5626761356841 113.84251343541725 50.53590395393707
296.09473807750277 105.86723587294019 52.076174669215156
293.5733546971334 110.97858387684347 56.11376664564557
305.3180723439565 120.14489621033854 58.69947915360986
319.0440346782778 127.11305275813744 55.19954830238036
293.8024323669898 108.43709021713302 52.24703607430547
310.0355193886521 119.24795709660114 60.21772234982025
299.18792281512657 119.63010514793109 58.26473152818105
303.10637049006425 120.4900287939166 58.77755907041595
306.33378148162177 132.15732814341368 51.62513770907128
299.8999601624172 118.09651470361027 43.15374832029497
318.0573141281277 108.33277551649493 53.39513229730564
310.28276350019974 131.52667304498877 43.93654344217543
302.2393141121788 121.6083520600134 43.62956953816672
302.03279220217604 110.92493480756802 44.18980947844331
295.71499838765044 107.61929796592945 58.0037828702755
309.9364826955675 104.61826670924907 58.06614245778576
302.557482449408 125.90475269974411 56.95996399014442
298.6176228569377 107.49268240973802 57.76174540581056
323.23827512530386 113.9739773952751 46.890664815192316
309.1830100128572 127.1505559435636 42.80565939227948
312.63961899724154 130.41156248128138 42.99077524129778
311.4650073544352 109.30981713790109 58.49609468891256
315.6588283066596 118.1899668326929 41.08567070993834
303.84288206205485 128.16379667960123 46.20638978255246
301.6778714167017 129.63879555199716 49.204169836636375
312.023855306236 120.29322506207674 41.646936544739155
301.6531921206951 104.77321908274892 54.415706333852164
298.9603514894964 104.91580009730515 54.87272994653121
306.05387944706916 104.98101489675128 57.09943176475589
306.2657700041799 112.28754094079324 58.520338888725895
297.2632484327311 120.37619759717518 52.64466911301152
307.88056350880885 104.29775042898038 56.65447027590632
307.06660096861197 132.12957542032132 48.06052153896559
305.5967395946406 108.81839401752823 58.277279874333836
301.54608464029616 128.00145895334623 55.99813824984813
313.76085178552455 132.30467226244622 52.73538724390534
310.579491085033 102.58095244035029 53.86896705311557
316.93961311554546 110.86978626499528 57.04554983629841
322.22187931043794 112.28479378853292 52.20470709561289
317.80195995595057 112.97325849115624 42.43915662605308
318.8235151177283 123.34728119559848 45.13084704026681
297.1872597598914 119.12557932188162 51.59993920894233
297.4435745439966 119.90316733912705 54.68789142423288
306.29509014978856 120.72437128930348 42.32260638900906
312.27363070820536 103.41851269946271 55.01838454035093
304.1923784217067 113.68593953343019 42.15678765813331
297.3717444728104 117.47382594913708 49.61164201031859
297.55563714332516 116.63478589623574 48.26727848260719
297.20660826523533 120.61668390008305 50.880107029902625
312.7741537633892 132.51657422940056 45.0381617403265
319.3618118611823 113.81857045804199 57.00271169834992
312.80708648570686 113.09143520192593 59.03067266801147
300.43321572322736 111.91217587534267 58.17582084311179
297.25479164480333 121.98468140268291 53.78362703448557
310.1646842814956 129.79426630820748 58.44633710062015
316.37360010695323 106.62939038795007 49.48561548847889
319.7476792356064 111.14696443970529 55.8356712590234
300.7273321344093 129.22803938058635 52.57174707823374
308.22308624818675 105.80277772431835 44.04759616836142
320.1366028083032 124.78351718269037 54.93821052080407
304.5193031476472 129.87244087519727 47.05257100940747
313.35419142201704 128.005876967527 42.2328168501649
296.4553387695706 113.25897513285675 51.93060302693908
310.65386585266145 132.83694242763025 45.438404818185795
307.9843805769829 128.00789635999382 43.198585198752745
310.2119206318072 123.49648804236955 60.01540489931644
297.85694460630447 122.49882810018305 48.01136189787251
315.4636722736858 108.51701350943475 46.255233690942454
301.20649122952517 119.50167526024154 59.079180466467136
304.4309664004215 105.99810457714413 46.74722136403981
297.58955678784446 120.75658223209392 56.816353060363674
316.94313385272665 131.58224891326168 49.5972627290333
305.5335883804198 113.72788060906792 58.27125311028606
310.05436518143875 103.45817702932258 49.418066248863546
299.03710417284725 121.02451132488876 45.05754854317909
301.08609575774585 112.47231723860406 44.30393203392415
297.97986999310893 120.36085379386067 46.77192316833521
298.1221337751238 112.15176627466293 49.41832897449029
309.6163100935185 109.48262138562268 41.511112599700574
311.72308395043297 131.11728863476625 55.670676502903966
305.3831205703072 121.88980588382006 43.10424100711317
295.2795558247633 110.1196787337073 57.191960488478166
320.1303948457877 122.55635141453348 45.70274782082233
297.45011561886827 115.82044511497072 50.009070044807245
305.6245032476327 130.78055973999054 48.162934633565364
311.8825148039845 132.8527865064351 52.363300276036526
312.50583325415624 126.62288157513896 60.423101404163305
318.99906549007653 109.21243010110469 50.953427078955876
307.1814846807673 126.48852564956522 43.35320568029329
307.77614212177673 132.62957310993042 52.432247689072014
323.79192751587243 115.12324258727993 49.402031629640746
303.4303505985905 104.66058239169828 50.860528713734645
319.69317025172614 124.42552388283937 48.39237371243816
306.12031713032394 114.9102150366856 41.31012541082986
313.5312991535728 103.88861957141161 52.29943835542764
307.2180223614485 126.3096662031965 58.48509226626328
308.95989468612896 111.68287913939137 58.97863943063069
310.96805909597447 120.87800090381948 60.46999850149016
302.2117777650718 112.78720886657268 42.8766239479061
315.91878597798444 107.52536173970424 47.835016588633174
316.20391982441896 130.06896822374637 58.27827213698023
305.2911381067005 126.90911885771864 45.01364406599055
307.5545345184875 110.11910995631064 41.58125488093367
306.5480311574226 130.60503820342825 46.22524908777379
295.37902342048574 108.47125052567088 50.53694297357439
319.22150819930965 117.25281191934172 59.08152719521322
315.67335103640534 131.7963095648899 52.1392874792774
300.1906697574156 113.22328505775837 45.18528674292987
308.43421239857673 119.98849902174514 59.130410998947205
304.2976430077255 131.31902727125532 51.818359550076096
305.7435708845703 118.13368941307812 58.846688094294855
309.6931576781434 103.06177949487919 55.815282514695774
307.4986305167227 115.8148433554957 40.897451312615885
313.5901119247683 121.31304469619802 60.66057542237036
298.1030141599443 116.68539119545649 56.16941111451498
298.489366001673 115.24064336992015 56.97283151467965
308.7251255616118 132.57983972509317 54.418833275175174
297.0593734904767 115.15622278114988 51.70805618039499
311.268473148145 111.28063174775433 40.693289883316936
311.9409115025683 122.62033258471999 60.80221063963919
315.6506817828486 131.5805651210706 45.69093255296278
314.413089627831 125.02294391116523 42.31213380996624
315.47412057728263 126.37377912066107 60.50219459556025
300.72713719732155 109.88862538642837 47.269024064566814
296.16356756931236 113.02261369114444 55.92095062515218
307.6979554531333 106.84090749309905 57.99827131004393
297.3381842798995 114.93951658600187 55.1312475783867
304.82271335937344 115.15706024639073 58.58868128079468
306.56763325216315 117.31141366665614 41.38642853749335
309.9731582497051 133.63981338984945 49.6793207236188
297.1474945890947 105.83621558026395 56.434651576067424
301.978414272018 116.06307482042544 58.3173028224528
316.2752034045524 123.31760283537835 59.97107421151294
320.540563708335 119.76504886350847 59.13935806778363
322.65091650353503 118.76952631813654 45.437271149637596
321.75728492219156 119.72379252234018 56.680825239230465
301.83671962643166 109.11382290609268 46.07592715972712
306.2538408858121 127.83494666791867 57.837713377235936
307.9131746541876 103.13687500318686 55.43156919939425
315.6473228987017 124.27454359613488 42.868228484151
311.6620239007681 117.76910838096985 60.506471604240566
297.4188415064822 118.40308082945278 53.021473569735534
316.3891986622805 125.50621222466532 43.65006072118257
298.89234174379425 128.11983815998025 51.80783428769606
308.99138201992116 125.83040964557583 59.31379773983642
316.85902811053234 130.2495336246361 55.426928883132454
296.73609698028883 125.45176868403908 52.32362992287127
300.4465736023784 128.90335407520487 50.45776116494163
303.1574528153255 109.33860403251961 58.59025160949118
317.6635627807985 129.533816757414 45.9092479696556
313.6402274101699 125.13032765345464 60.5426006331652
312.34835951886106 133.22163988965858 50.35832003496696
317.5862631461838 108.26187435587975 49.050644305422864
297.3444045765585 122.4187188800861 50.02471708718441
310.2576934407557 113.06403536066594 39.73786646285334
297.78031734863106 117.45701438825091 54.72481253751216
314.40410360665373 131.42342949982904 43.831863584145495
302.84380115686116 106.9889509406644 57.38881437879473
308.72934227799215 130.46524325080347 57.47886715405779
321.14313602173945 122.05729278387415 50.70933998891505
320.9530926910271 122.0561544469317 55.15772361341827
302.6070081336885 124.31556171549875 57.61429154426035
306.6603037990186 123.05776038512741 43.14351685283261
298.33073237263136 108.5761420649331 49.75842783635253
308.11642300034384 103.93568799958572 48.25260450527864
316.7697270680661 121.94025856277298 59.716894475691944
318.9062762858904 122.2233623068846 43.6370310946941
317.0667400534596 125.9854079834628 59.89869859181531
306.9409859407433 103.6329595936587 49.722741974531075
294.350166346294 106.0901057281651 53.14237607267853
300.492630298082 117.59804072167448 58.86837299936256
304.1954445359508 120.87504150232039 42.92050336579286
297.4241093226422 117.31072056883775 51.321165050297815
298.76247780056065 122.33752989762957 58.13168278185243
296.6297609592755 125.3592779397027 53.98753398952763
310.7202745090968 130.05932117366558 42.802033613104406
322.861758604968 116.42745282830815 53.612419188400246
314.3362618113775 107.00303322385359 46.520139844720234
304.8902931827361 126.76447121876478 57.712830389966996
312.7712022072894 105.28418679001965 46.90884554964858
306.25931729282456 112.1665908513768 41.40948211137425
300.5831880668212 108.29266714057096 48.35098100499307
295.1994617081958 111.77569883181778 56.48420815173129
298.2371812785529 110.39871909616919 49.556185476081815
297.8593927227042 117.87082290186493 46.52755500272961
300.83347001566557 111.45203560501704 46.18153632717752
301.29004316217953 113.92731825240955 58.395779215816056
296.774451039483 110.21864730883446 50.38140857691555
321.59459181831215 121.37265681124133 52.79587844118219
316.77860873924607 116.54547574245171 40.97516992683162
301.7580139391025 116.6126705378242 42.66927457435165
304.2789983464397 124.45707868461659 57.64062163724327
311.87804745023794 102.984293888327 53.204236562531115
323.4293299972755 116.42758174431262 51.83279360216909
318.15888986206244 109.76653779962506 55.84986102803524
307.6691435151333 128.99154750240746 58.073244694315505
311.9904344766097 129.5283824797818 58.56254675748972
314.0326063987009 108.68131956998647 44.458299846243534
307.72701847817063 108.06512464626942 42.542367671393805
303.221908102075 117.70672896698494 42.413924272734526
313.96953505584423 127.51212916384179 60.17340114903948
318.88699515342125 127.78246954138322 53.3572838334707
317.2140198944922 109.00289823398614 46.944086327700894
323.32374857963225 119.34177794126022 48.149763631209225
318.16911528098586 110.26001825493823 45.73145482854707
301.959672317415 125.52582002858242 45.60430112437507
315.3376408750944 132.3691743214893 50.328892305922274
298.69899745240065 119.14065692375428 44.8319467223244
320.5318889717489 115.59121405900649 42.2404619326331
319.6072115623242 123.7795321219271 57.266386491745685
317.4414307528246 130.87324341716442 51.36676312509094
314.8995327276246 120.31065042910626 41.54913341878735
311.05341387963193 105.20025471623637 44.68521115181522
300.04839062429534 115.59794327588622 58.03988675891708
317.76744405438893 123.9860319594025 59.41828430644191
313.9629457540263 129.81891281474057 58.77350672880731
299.8092476703373 116.0514452963956 43.489209662212026
304.13848276756516 103.9380760546001 53.47558908587736
303.35629361467386 107.45881851174204 45.54029568883034
307.0910669977478 110.81628885033871 58.735960571468965
317.3274206814422 131.23572085776834 46.881335972323235
305.5093941630248 128.8042595005691 45.888577377140294
305.659276953752 109.55735069628807 42.588543383495015
300.40029569661965 125.9746902353222 46.99274459703244
298.5521542052248 111.66440648008009 57.51331689781315
300.63002697631487 127.93864244725275 48.38270109844091
321.3100336718294 117.68956983628652 57.840591206062754
302.60100646625597 104.75977491843386 52.659810456363516
310.97668358316633 111.24526721010075 59.19486216017068
297.3340498327896 109.8002978781945 57.98430037909391
312.1357222890141 116.68980726561584 40.70223290539227
310.7005771204568 107.25265401309488 58.14057497073749
307.06301697401904 124.76036144234179 43.124056927077106
299.50832172473577 110.60452505330281 48.316667597534405
306.1732344135628 131.81917530284497 53.78130407884609
321.79501569417266 121.01842041042573 46.740399854000174
297.2431351381236 118.95984833442083 50.12200961791693
302.4688047332079 118.2105677521912 58.41440570931509
319.9585131854961 111.32480255898184 45.17175424914065
318.42697653161764 112.16292278123008 56.98577349444806
298.14802612041814 115.57018404624594 46.61436420827953
300.94850757509204 121.54506093514601 58.637002355296964
304.72878353521514 118.73739328822123 42.231226508737905
304.1457752149352 112.878636547824 58.371805130814316
298.11705222216113 118.59857967794355 56.39463577977182
302.46515454937156 130.3979344093623 53.27490272991781
316.2772802779453 109.78162070245966 45.08467981850793
308.70521600435654 132.4691085099585 46.052507013576665
296.2742739604035 114.44104403608415 53.3024366697841
322.2769153922822 116.98142339903622 55.40597987281228
309.0851842302379 116.86812145661023 40.59117624728986
312.0839437238006 127.11895609837923 41.78818376089359
309.95589022494437 123.00367922776458 42.053668867655844
306.92125760311177 119.55215255480488 58.90702661689507
300.7550890237784 114.27583663662585 43.43866671535832
308.87183194387165 104.43620409659172 45.943438002520324
322.5013893015846 114.49823611370007 53.81218529992916
303.51725233648375 105.66152988222794 48.669292092895546
295.1560320685559 112.53691319027347 53.36552478779199
304.1540463846683 118.73918477617335 58.52372510809313
310.7393836525752 103.01445237506208 51.699842063498686
316.5440953206641 106.13487862477112 53.1930823256884
321.23818143922875 118.23922723206834 42.93349359915839
319.53924223976895 120.0463174295325 42.549463325976454
296.9494222408361 112.17227723031816 50.841672678763544
302.05999356709424 130.27942651622377 51.05370129140016
310.8643923171389 126.13682658032769 41.99288129269231
316.9568611612221 122.7735473294359 42.91133514698221
303.4984726212591 114.34734907455962 58.48578944175926
315.8606675150855 112.97561631080043 42.23076977388755
297.6898921740423 113.37465410522782 56.77571652142926
301.35382388529865 110.31248939639394 58.21381349653867
312.1433723773933 130.42936764607347 57.13845349610087
311.6838751710904 128.35645670069923 60.07052876188961
305.97127405375505 103.00403998183043 53.418870798795865
302.5768548593843 107.13194322505946 47.49447448085524
299.2946538806474 114.7893363916846 45.004464531211866
318.34168821488834 129.49564617238127 50.14854876299281
297.1159531454535 122.22307095140782 51.91743452438883
292.96996963541955 109.70131826923331 54.28210987968252
309.6422469391832 120.53734644795786 41.611825260350685
302.67060975971356 112.01838426595141 58.47511054400484
297.2074199644933 121.81424471556086 55.40352102363988
POLYGONS 1008 4032
3 1 369 147
3 0 188 369
3 0 369 1
3 1 3 2
3 1 4 3
3 1 366 4
3 147 366 1
3 2 6 289
3 2 3 6
3 448 4 370
3 22 17 23
3 23 366 147
3 21 22 61
3 397 147 369
3 369 188 397
3 61 397 188
3 501 188 0
3 18 468 19
3 468 280 19
3 366 23 280
3 280 23 19
3 395 69 364
3 253 501 271
3 9 271 376
3 376 271 501
3 459 271 9
3 376 2 289
3 293 396 20
3 7 448 8
3 16 17 21
3 21 17 22
3 17 257 23
3 23 147 22
3 22 147 397
3 293 20 505
3 20 396 21
3 253 276 501
3 501 276 188
3 364 253 264
3 229 467 14
3 396 229 464
3 370 488 247
3 247 488 13
3 467 337 14
3 247 13 8
3 459 269 395
3 448 247 8
3 448 370 247
3 4 366 370
3 21 396 16
3 396 464 16
3 16 464 122
3 239 414 401
3 257 17 239
3 23 257 19
3 19 257 18
3 16 239 17
3 291 464 229
3 61 20 21
3 61 22 397
3 448 7 446
3 428 446 7
3 3 4 448
3 6 3 446
3 446 3 448
3 61 505 20
3 488 332 13
3 280 488 370
3 332 488 468
3 468 488 280
3 1 2 0
3 501 0 376
3 0 2 376
3 280 370 366
3 7 27 428
3 27 324 10
3 124 67 108
3 124 428 67
3 15 217 414
3 414 217 401
3 15 318 217
3 217 318 401
3 324 211 10
3 306 222 340
3 324 311 211
3 324 202 311
3 67 235 108
3 10 211 194
3 235 193 108
3 266 191 214
3 18 189 468
3 457 332 189
3 189 332 468
3 11 187 18
3 457 189 187
3 187 189 18
3 18 180 11
3 11 180 401
3 18 257 180
3 187 11 177
3 177 457 187
3 242 197 172
3 195 184 213
3 362 209 184
3 179 146 295
3 295 146 186
3 179 150 146
3 146 150 186
3 225 476 190
3 177 11 418
3 192 351 316
3 152 174 151
3 138 150 179
3 155 184 209
3 193 141 232
3 150 128 186
3 190 127 15
3 190 77 127
3 145 150 138
3 465 351 192
3 446 124 6
3 446 428 124
3 199 403 185
3 185 403 316
3 372 153 215
3 414 115 15
3 225 190 115
3 115 190 15
3 213 489 195
3 213 171 489
3 489 171 242
3 112 131 356
3 228 128 145
3 145 128 150
3 174 210 151
3 210 131 151
3 84 418 318
3 457 231 332
3 216 96 231
3 225 115 230
3 174 196 210
3 113 382 167
3 203 143 68
3 15 127 318
3 218 473 214
3 473 130 185
3 437 432 143
3 318 360 401
3 401 360 11
3 318 418 360
3 360 418 11
3 10 194 67
3 67 194 235
3 214 66 266
3 266 66 465
3 214 351 66
3 66 351 465
3 211 385 194
3 242 171 311
3 230 115 122
3 122 115 414
3 266 385 191
3 191 385 171
3 297 5 108
3 108 5 124
3 161 434 209
3 209 434 155
3 161 245 434
3 162 492 133
3 186 350 295
3 295 350 491
3 186 144 350
3 350 144 491
3 160 33 402
3 159 82 100
3 210 328 131
3 131 328 356
3 72 504 371
3 374 47 101
3 172 489 242
3 258 114 43
3 341 117 162
3 167 382 39
3 496 277 84
3 84 204 496
3 126 134 110
3 126 120 134
3 107 37 86
3 86 37 198
3 37 182 198
3 432 437 112
3 191 503 214
3 214 503 218
3 191 135 503
3 503 135 218
3 161 44 245
3 138 30 145
3 30 196 174
3 163 29 106
3 7 246 27
3 27 246 324
3 106 36 196
3 196 36 210
3 213 475 171
3 171 475 191
3 213 135 475
3 475 135 191
3 130 377 185
3 185 377 199
3 130 117 377
3 214 473 351
3 176 445 75
3 387 55 91
3 104 402 33
3 93 113 167
3 351 335 316
3 316 335 185
3 351 473 335
3 335 473 185
3 341 301 199
3 316 403 268
3 218 248 118
3 118 248 155
3 218 135 248
3 248 135 155
3 75 236 176
3 316 268 192
3 192 268 139
3 10 428 27
3 10 67 428
3 139 413 192
3 232 141 413
3 149 492 178
3 75 445 38
3 38 445 421
3 413 139 477
3 314 126 110
3 498 110 404
3 404 359 498
3 139 268 321
3 321 268 176
3 91 281 478
3 498 480 110
3 480 314 110
3 421 281 38
3 445 176 403
3 176 268 403
3 236 298 321
3 321 176 236
3 194 394 235
3 465 141 394
3 199 325 403
3 421 445 325
3 325 445 403
3 480 292 55
3 55 292 91
3 104 387 478
3 478 387 91
3 301 421 325
3 325 199 301
3 359 441 498
3 139 321 477
3 477 321 298
3 281 91 38
3 91 292 38
3 292 441 38
3 38 441 75
3 289 6 5
3 5 6 124
3 440 314 100
3 416 479 102
3 50 421 301
3 50 281 421
3 343 372 215
3 477 330 499
3 499 330 201
3 477 298 330
3 298 236 408
3 408 236 359
3 201 408 456
3 401 180 239
3 239 180 257
3 201 330 408
3 408 330 298
3 291 230 464
3 464 230 122
3 245 118 434
3 434 118 155
3 236 75 359
3 75 441 359
3 211 455 385
3 385 455 171
3 211 311 455
3 455 311 171
3 480 498 292
3 498 441 292
3 453 218 118
3 100 314 55
3 55 314 480
3 192 422 465
3 465 422 141
3 192 413 422
3 422 413 141
3 465 394 266
3 83 407 270
3 270 463 208
3 109 499 463
3 55 391 100
3 100 391 159
3 55 387 391
3 391 387 159
3 95 440 168
3 386 456 404
3 239 384 414
3 414 384 122
3 239 16 384
3 384 16 122
3 291 460 230
3 354 144 460
3 207 275 409
3 491 409 504
3 504 409 275
3 354 393 436
3 354 460 393
3 393 460 291
3 230 482 225
3 230 460 482
3 482 460 144
3 207 409 436
3 436 409 354
3 436 393 14
3 218 453 473
3 473 453 130
3 130 453 117
3 117 453 178
3 199 377 341
3 341 377 117
3 50 301 56
3 56 301 341
3 9 83 459
3 459 83 269
3 395 340 69
3 340 471 69
3 131 388 151
3 388 121 151
3 275 494 504
3 275 90 494
3 494 90 123
3 504 466 491
3 491 466 295
3 504 72 466
3 466 72 295
3 144 354 491
3 354 409 491
3 69 471 349
3 12 339 206
3 339 457 177
3 338 207 436
3 342 373 204
3 151 336 152
3 152 336 342
3 151 121 336
3 336 121 342
3 225 333 476
3 333 144 186
3 495 62 277
3 433 43 119
3 454 87 348
3 114 258 206
3 429 47 374
3 43 114 166
3 102 313 416
3 258 429 374
3 210 36 328
3 337 338 14
3 14 338 436
3 62 339 177
3 193 235 141
3 235 394 141
3 109 430 232
3 232 430 193
3 216 312 12
3 457 339 312
3 312 339 12
3 84 277 418
3 505 61 276
3 276 61 188
3 69 349 378
3 378 349 337
3 318 367 84
3 84 367 204
3 318 127 367
3 367 127 204
3 206 339 62
3 283 246 8
3 8 246 7
3 283 444 246
3 326 202 444
3 96 307 13
3 231 457 312
3 312 216 231
3 266 303 385
3 385 303 194
3 266 394 303
3 303 394 194
3 222 306 208
3 208 306 270
3 208 300 222
3 297 299 5
3 83 9 299
3 193 297 108
3 193 430 297
3 232 439 109
3 109 439 499
3 439 477 499
3 407 430 109
3 152 363 174
3 152 228 363
3 363 228 145
3 190 331 77
3 77 331 228
3 190 476 331
3 68 143 226
3 77 320 342
3 342 320 152
3 77 228 320
3 320 228 152
3 119 68 226
3 306 269 270
3 269 83 270
3 121 373 342
3 83 299 407
3 437 388 112
3 112 388 131
3 9 376 289
3 142 433 119
3 222 285 340
3 285 64 481
3 456 300 201
3 201 300 208
3 207 493 447
3 207 338 493
3 64 487 410
3 222 300 487
3 487 300 410
3 477 439 413
3 413 439 232
3 14 393 229
3 229 393 291
3 9 289 299
3 299 289 5
3 364 265 253
3 87 244 451
3 451 244 163
3 451 319 87
3 179 442 319
3 319 442 87
3 182 454 198
3 163 274 451
3 451 274 138
3 30 138 274
3 274 196 30
3 196 274 106
3 106 274 163
3 109 463 407
3 407 463 270
3 396 293 229
3 293 467 229
3 265 276 253
3 467 293 265
3 265 293 505
3 271 264 253
3 271 459 264
3 337 467 378
3 467 265 378
3 493 338 349
3 349 338 337
3 505 276 265
3 208 463 201
3 201 463 499
3 348 256 71
3 256 442 72
3 442 252 72
3 72 252 295
3 442 179 252
3 252 179 295
3 179 319 138
3 138 319 451
3 168 251 95
3 95 251 71
3 168 254 251
3 148 380 123
3 95 71 380
3 371 123 380
3 256 72 371
3 249 440 95
3 87 454 244
3 244 454 182
3 90 240 123
3 123 240 148
3 407 299 430
3 430 299 297
3 417 29 107
3 454 238 198
3 238 254 334
3 170 417 233
3 233 417 107
3 29 163 182
3 163 244 182
3 310 170 233
3 233 60 310
3 228 331 128
3 128 331 476
3 482 144 333
3 333 225 482
3 269 306 395
3 395 306 340
3 249 148 250
3 106 462 36
3 476 333 128
3 128 333 186
3 36 219 328
3 174 363 30
3 30 363 145
3 86 484 107
3 60 233 484
3 484 233 107
3 60 375 310
3 60 278 375
3 45 160 278
3 278 60 45
3 483 82 159
3 33 317 483
3 402 400 160
3 33 296 104
3 159 387 296
3 296 387 104
3 159 296 483
3 483 296 33
3 267 86 198
3 317 86 267
3 469 420 133
3 322 290 425
3 56 420 205
3 71 251 348
3 348 251 254
3 420 290 400
3 400 290 322
3 469 59 427
3 427 425 469
3 334 361 82
3 82 361 168
3 334 254 361
3 361 254 168
3 165 461 59
3 461 427 59
3 254 238 348
3 348 238 454
3 310 220 97
3 310 375 220
3 60 484 45
3 220 427 461
3 425 290 469
3 469 290 420
3 442 137 87
3 87 137 348
3 442 256 137
3 137 256 348
3 220 425 427
3 261 97 26
3 59 133 492
3 59 469 133
3 45 157 160
3 160 157 33
3 45 317 157
3 157 317 33
3 322 375 278
3 435 132 402
3 420 400 132
3 132 400 402
3 435 104 478
3 435 402 104
3 322 425 375
3 375 425 220
3 170 97 261
3 170 310 97
3 479 261 102
3 261 26 102
3 168 497 82
3 82 497 100
3 168 440 497
3 497 440 100
3 56 205 50
3 50 205 435
3 148 116 380
3 380 116 95
3 148 249 116
3 116 249 95
3 440 450 314
3 314 450 126
3 440 249 450
3 450 249 126
3 349 347 493
3 504 494 371
3 371 494 123
3 167 79 93
3 93 79 142
3 167 81 79
3 353 78 250
3 250 78 120
3 71 158 380
3 380 158 371
3 71 256 158
3 158 256 371
3 54 452 447
3 447 452 90
3 237 353 240
3 183 80 81
3 153 372 80
3 142 79 200
3 200 79 81
3 81 80 200
3 160 322 278
3 160 400 322
3 478 281 435
3 435 281 50
3 205 420 132
3 132 435 205
3 162 56 341
3 47 52 343
3 47 429 52
3 364 264 395
3 264 459 395
3 378 364 69
3 378 265 364
3 242 287 197
3 197 287 202
3 242 311 287
3 287 311 202
3 243 398 234
3 234 398 197
3 243 172 398
3 398 172 197
3 215 284 243
3 243 284 172
3 47 272 101
3 272 243 234
3 216 255 96
3 470 326 255
3 197 181 234
3 181 470 234
3 470 181 326
3 96 255 307
3 307 255 326
3 283 307 326
3 326 181 202
3 202 181 197
3 307 283 13
3 13 283 8
3 283 326 444
3 246 444 324
3 324 444 202
3 470 99 101
3 470 255 99
3 99 255 216
3 410 406 386
3 386 406 456
3 410 300 406
3 406 300 456
3 12 352 216
3 101 99 352
3 352 99 216
3 386 404 134
3 134 404 110
3 404 346 359
3 359 346 408
3 404 456 346
3 346 456 408
3 374 101 352
3 352 12 374
3 148 98 250
3 250 98 353
3 148 240 98
3 98 240 353
3 237 240 452
3 452 240 90
3 332 96 13
3 332 231 96
3 120 70 134
3 134 70 386
3 120 94 70
3 70 94 386
3 493 54 447
3 493 347 54
3 481 51 471
3 481 65 51
3 51 65 347
3 207 447 275
3 447 90 275
3 120 223 94
3 120 78 223
3 223 78 392
3 353 85 78
3 78 85 392
3 126 88 120
3 120 88 250
3 126 249 88
3 88 249 250
3 94 76 327
3 94 223 76
3 76 223 392
3 327 57 410
3 410 57 64
3 57 92 64
3 65 481 48
3 340 285 471
3 471 285 481
3 94 40 386
3 386 40 410
3 94 327 40
3 40 327 410
3 224 502 169
3 502 42 169
3 227 502 92
3 502 48 92
3 92 57 227
3 227 57 327
3 327 76 227
3 42 502 227
3 203 423 345
3 203 438 423
3 423 438 496
3 345 423 373
3 215 153 32
3 345 373 31
3 31 373 121
3 284 215 32
3 32 195 284
3 153 28 63
3 63 28 183
3 153 80 28
3 28 80 183
3 172 474 489
3 489 474 195
3 172 284 474
3 474 284 195
3 143 390 437
3 345 31 390
3 390 31 437
3 345 390 203
3 203 390 143
3 227 392 42
3 227 76 392
3 65 48 224
3 224 48 502
3 224 169 304
3 304 169 237
3 169 85 237
3 237 85 353
3 54 304 452
3 452 304 237
3 169 42 85
3 85 42 392
3 63 490 362
3 362 490 209
3 63 389 490
3 209 490 161
3 161 490 389
3 362 365 63
3 63 365 153
3 362 32 365
3 365 32 153
3 437 355 388
3 388 355 121
3 437 31 355
3 355 31 121
3 195 344 184
3 184 344 362
3 195 32 344
3 344 32 362
3 64 92 481
3 92 48 481
3 183 315 39
3 39 315 167
3 183 81 315
3 315 81 167
3 65 405 347
3 347 405 54
3 65 224 405
3 222 487 285
3 285 487 64
3 43 329 258
3 258 329 429
3 43 433 329
3 329 433 429
3 258 308 206
3 206 308 12
3 258 374 308
3 308 374 12
3 389 305 103
3 305 183 39
3 184 175 213
3 213 175 135
3 184 155 175
3 175 155 135
3 80 154 200
3 200 154 173
3 80 372 154
3 154 372 173
3 54 405 304
3 304 405 224
3 114 136 166
3 166 136 438
3 114 495 136
3 136 495 438
3 471 51 349
3 349 51 347
3 418 381 177
3 177 381 62
3 418 277 381
3 381 277 62
3 103 486 389
3 389 486 161
3 486 44 161
3 183 263 63
3 63 263 389
3 183 305 263
3 263 305 389
3 277 419 495
3 495 419 438
3 277 496 419
3 419 496 438
3 206 302 114
3 114 302 495
3 206 62 302
3 302 62 495
3 373 309 204
3 204 309 496
3 373 423 309
3 309 423 496
3 204 288 342
3 342 288 77
3 204 127 288
3 288 127 77
3 226 282 93
3 432 383 282
3 166 323 68
3 68 323 203
3 166 438 323
3 323 438 203
3 433 500 173
3 173 500 200
3 433 142 500
3 500 142 200
3 226 424 119
3 119 424 142
3 226 93 424
3 424 93 142
3 166 368 43
3 43 368 119
3 166 68 368
3 368 68 119
3 93 282 113
3 113 282 383
3 44 486 485
3 485 486 103
3 103 305 458
3 458 305 39
3 44 485 431
3 431 485 53
3 74 411 383
3 383 411 113
3 411 382 113
3 383 358 74
3 358 472 74
3 53 485 357
3 357 485 103
3 382 411 46
3 46 411 74
3 483 259 82
3 82 259 334
3 259 267 334
3 53 357 221
3 221 357 426
3 46 212 426
3 313 221 212
3 212 221 426
3 382 164 39
3 426 458 164
3 164 458 39
3 426 164 46
3 46 164 382
3 458 426 357
3 357 103 458
3 74 129 46
3 46 129 416
3 74 472 129
3 343 272 47
3 53 221 241
3 241 221 313
3 44 431 149
3 149 431 165
3 45 111 317
3 317 111 86
3 45 484 111
3 111 484 86
3 58 461 140
3 140 461 165
3 334 105 238
3 238 105 198
3 334 267 105
3 105 267 198
3 356 89 112
3 356 358 89
3 89 358 383
3 313 212 416
3 416 212 46
3 41 34 479
3 479 34 261
3 41 170 34
3 34 170 261
3 26 313 102
3 461 58 220
3 220 25 97
3 97 25 26
3 220 58 25
3 25 58 26
3 241 58 140
3 140 53 241
3 241 313 26
3 26 58 241
3 328 449 356
3 328 219 449
3 449 219 472
3 343 443 372
3 372 443 173
3 343 52 443
3 443 52 173
3 267 415 317
3 317 415 483
3 267 259 415
3 415 259 483
3 416 399 479
3 479 399 472
3 416 129 399
3 399 129 472
3 173 294 433
3 433 294 429
3 173 52 294
3 294 52 429
3 112 89 432
3 432 89 383
3 36 273 219
3 219 273 41
3 36 462 273
3 273 462 41
3 59 262 165
3 165 262 149
3 59 492 262
3 262 492 149
3 432 156 143
3 143 156 226
3 432 282 156
3 156 282 226
3 53 73 431
3 431 73 165
3 53 140 73
3 73 140 165
3 356 449 358
3 358 449 472
3 117 49 162
3 162 49 492
3 117 178 49
3 49 178 492
3 219 125 472
3 472 125 479
3 219 41 125
3 125 41 479
3 107 29 37
3 37 29 182
3 178 24 245
3 245 24 118
3 178 453 24
3 24 453 118
3 149 412 44
3 44 412 245
3 149 178 412
3 412 178 245
3 243 379 215
3 215 379 343
3 243 272 379
3 379 272 343
3 41 279 170
3 170 279 417
3 41 462 279
3 279 462 417
3 29 260 106
3 106 260 462
3 29 417 260
3 260 417 462
3 420 35 133
3 133 35 162
3 420 56 35
3 35 56 162
3 101 286 470
3 470 286 234
3 101 272 286
3 286 272 234
