# vtk DataFile Version 3.0
A great-looking cell
ASCII
DATASET POLYDATA
POINTS 234 double
396.6806740332619 143.52158872421217 76.80626797313317
394.96626913160446 143.45504311081567 77.50316850875633
398.17743244711215 142.59949899966668 76.82637813133931
398.2258921403469 144.87888486636083 76.51178709294715
395.15418991139944 139.77306178033007 78.07943395493899
396.33661000518873 141.60581858046842 77.43331431999945
396.07595026708293 145.20908839624497 77.18735832059357
397.211581860724 146.59930720740584 77.08295298486706
397.1205731203689 139.43603716396092 77.55726653435384
394.0482085485666 141.56993839543216 77.9138692289307
393.1096605864927 143.47323319371725 78.8979884837477
399.29776353443526 139.43662349065522 77.83526227980192
398.1315604064895 140.82993567934903 77.0423425017262
399.72496761078827 141.48185778938767 77.28435559461725
399.95078480512467 143.46293650868563 77.03376697793973
394.3045901835404 145.31317221516554 78.26679143731936
400.37494332044156 145.46749713537238 77.2372249706042
395.54417334506917 147.28823426410375 78.03073602369561
398.96523064889334 146.95770980797397 77.24145476510927
393.41376615511 139.9326897500127 79.06355507600495
394.50200282625633 138.59739477614573 79.26329608538731
395.1468225591378 137.35887894953686 80.28129563056561
396.12067005856875 138.15807659257288 78.78284224688572
397.0081143887838 136.71103012974626 79.88568081965575
398.0547665946411 137.48226442563822 78.10582882559365
399.1602702138929 136.4849169977833 79.88795314084204
401.2376271417213 137.49731401543056 80.17392424004642
399.90815112484637 137.7146275983464 78.635383556063
392.5603849918572 141.53661489281768 79.01151887687959
401.3245155586404 139.70661805289225 80.08807280341072
400.9330102256683 138.86195993062972 78.69499063726428
401.3571876204575 141.65507313227565 79.88792910953006
400.91174607339485 140.53829691436187 78.44924332685908
401.36152497094764 143.584890906827 79.63178455339846
401.10634790058236 142.4240558309625 78.18330290972881
392.76397510237763 145.39820051190634 79.17127696217233
401.3436085600716 145.66455455232898 79.16910832161766
401.2396054765841 144.12606565068054 78.03309826853001
401.3293779694372 147.5404130791497 79.56684193867339
393.52368133587436 147.01387747524174 79.0639232587683
400.87239273083895 147.35957323049223 77.88025076365425
396.1347631255939 149.27186250718194 78.30393264999162
401.2347279784011 149.11536990919336 78.83262631329619
399.51465105954793 148.96445398866396 77.72219021495282
397.50485646837245 148.32605920653535 77.60296428917785
394.67560154657764 137.06157058962236 82.21983493554012
396.16983269900976 136.50425357898055 81.4224843671776
396.25317316109386 135.83626115854986 83.15966748383983
397.90700627446665 135.89927484677503 81.68372186195076
398.59112874248166 134.82162422643538 84.09148283235061
400.35454016363843 136.02588838463487 82.02413941374876
401.56932217813977 137.6186507571665 83.48887143982014
401.3517147977063 137.41224410010201 81.85552672766238
393.6143021171875 138.80452359215812 81.02138302990959
392.2226462739474 140.5837268748381 80.51645312324946
401.3990404005078 139.9997467603284 83.46915471813585
401.3628597620948 138.85199522538198 81.78672912632516
391.6514527609046 142.47229304171563 80.16209252956224
391.240082510995 141.64991936197933 81.85439218883138
401.4018047482682 142.08791560843054 83.22618808105128
401.38407452838015 140.8574187806039 81.64374684014822
391.0227183539591 143.25680166495104 81.4838494037352
401.4250759639429 144.06223272419177 82.93280705008975
401.3854358964712 142.84194171276738 81.40873558191896
391.54477352122916 144.5630528262227 80.34858132403137
391.3090874599536 145.98966923497707 81.54452289134885
401.4081165472988 145.93515795003665 82.66069536685482
401.38433484794683 144.80251934600443 81.13263675958811
392.0969259885928 146.4929974898317 80.21752950352902
391.80850959345895 147.45891009502017 81.66284318020591
401.4014612516681 147.57219889998223 82.43542849497251
401.4283530432976 146.7245599769798 80.99478937313349
392.5575707012718 148.28009058880642 80.16331802668202
401.58528998801955 149.23570586436676 83.46409512894371
401.3818272604576 148.83090149249793 81.01509077906097
393.2108089946381 149.7273059727296 80.58238341766523
394.1952757193277 149.21774661023642 79.00095560307248
394.5698409038046 150.56880477211794 80.62525496995018
396.00254866796007 151.27125349697204 80.89463011894152
395.9062969857876 150.61065782558677 79.41610347567716
401.2404428424239 150.55245196969207 79.97552115131877
400.9921481104716 152.63538832966444 80.0403678849286
400.2674215097586 150.97583636876047 78.37420442559541
397.137846450908 152.13554244642353 79.91780162798972
398.9614860595047 152.35403313147893 79.17712884375082
397.85671605607683 150.5040750016666 78.39803726949637
393.47651181610905 138.425039554276 83.39925428192876
396.3158627540967 135.59157255978295 85.50969757914906
394.57990581259753 136.73067784214717 84.39682563523183
398.0862783946158 134.62882239845635 86.86430646129668
400.37904264034967 134.8286647118392 86.28270453889334
401.4664727060445 138.54568896810719 87.75483515661254
401.38515059581255 136.91951863494683 85.95951480532102
393.37844659339794 138.15482707686593 85.59252350761072
392.216495244399 139.67584490116005 84.62731708289891
392.1705759557957 139.94394286942804 82.50618226900357
401.402493812211 140.7247617764511 87.16657726317197
401.346972460084 139.19925657084295 85.5178616421635
391.25057404006725 141.29907835235247 83.78829841536735
401.4211463996781 142.74862318595729 86.67108513298103
401.5483941615212 141.3646162609416 85.1366112916697
390.5370039165596 142.9601069247819 83.02375707104203
390.4262366718952 144.53000978687618 84.1130820511703
401.43937953207757 144.66486770570197 86.25978559802465
401.34565624950005 143.40052699941884 84.76747345317665
390.5550142373625 144.69693797669694 82.20281556463807
390.73406099315036 146.6775169941157 83.3847302326103
401.3988090449271 146.53935263977468 85.88078175319527
401.4109080575614 145.2945318305755 84.42388437433294
401.57281358729097 148.446888104858 85.45149982699688
401.39148269542267 147.15412743978752 84.04768430092173
391.7491561645167 148.28400457634635 82.91640840563846
401.3920793257354 150.10808619490484 85.22762571995365
392.4446906985264 149.02092896251284 81.76658823365852
393.56246767017603 150.28988228067325 82.05697962553123
395.06528358455364 151.3895914507013 82.2224695722499
401.34351904056473 151.06916224304825 81.8534398861709
401.39259797553837 151.5128968816157 84.07625594227622
401.25325122772466 153.62375454030501 82.57452672700053
396.70366157911087 152.50330651548776 81.9088851580895
398.8105499583524 153.5212729889432 81.17944929907972
396.17507558604177 135.55146225489298 87.92169031120333
394.4892556884784 136.6858686391372 88.96268852200436
394.4914155499744 136.54704620044708 86.67923385731292
396.32037097206853 136.11686667452494 90.16570631654919
397.9777147870521 134.94803428382488 89.22789528939991
398.465787476823 135.95543023453658 91.64549636636818
401.28484806780426 136.0821482880228 88.48369284609127
400.072966228295 138.02668602947836 91.81570870745514
401.2688513358479 139.88363851735573 91.46952613897487
401.33713047549475 138.13806688745123 90.02903553386948
393.3838001521697 138.1173669788886 87.74508716636619
392.2033513500778 139.5013638417395 86.71811206800352
401.36848246193153 141.9160550555319 90.69976442974476
401.377021254904 140.2428881022915 89.29198643031947
391.38094837488995 141.13915826383374 85.80118078088354
391.5112927213226 141.05066897978597 87.81139219522707
390.7323249538037 142.6549278693131 86.91899573567726
401.37417119563554 143.76348933508 89.90058255762898
401.3885699594243 142.24771359337512 88.63233434241577
390.55200456722446 142.7507252616145 84.94311795913589
390.3820158833544 144.32960362494998 85.9933438787759
401.3932825741606 145.2338921375138 89.21105819930241
401.40283533596306 144.08969440960286 88.06566655938552
401.40344002838845 147.02035847797478 89.48660478123799
401.50322189843297 145.88425743721933 87.71807290040815
390.5613851876653 145.7466084114516 85.16074162667024
391.09525627126357 147.15059558153078 85.5169058405299
401.39969250909104 147.80135044380853 87.39920717799025
391.80769037317066 148.441148893608 86.02453180104636
391.6886891008303 148.3928334710307 84.45630084914482
401.39875262511197 149.1761911391991 88.90626402063258
401.39856632851155 149.7261017426165 86.92381981659368
392.9197390902595 149.73691060416454 85.46970887131356
392.51500929067475 149.62717167168105 83.40828180921216
394.6621028094166 151.1168225384857 85.78996924818537
394.0543973825782 150.8088094758588 83.85065883099925
396.11693196655807 152.130463497133 86.24317708813825
395.9584440954058 152.237152500345 84.1557855732466
397.87060256958114 153.20012061635134 85.72980875405922
401.59248472051075 151.59109034987011 86.20985661880985
401.31936389802866 153.43793886380033 87.52110184585723
401.38012665353085 151.24199326239406 88.32801229471507
401.3671671235126 153.4270220790195 85.14149552816872
398.00433300723546 153.3383889497467 83.34302693956516
396.571946449078 137.23327680038614 91.693446260202
394.8253471326489 137.44289841524522 90.9900858927265
397.9239403935246 138.52727497870555 92.11843520835563
399.518742068993 140.01333107754297 92.75183504761587
393.356706728056 138.26344747364453 89.80237084349275
392.545442979496 139.64602040701118 90.40488279794683
392.3659055132741 139.54295262210832 88.72079905788407
401.20098794713965 141.68070437261287 92.97985844067794
391.72198845722005 141.0112589980703 89.79589606458664
401.3012431682883 143.68122093049692 91.91220527867978
391.2612617786723 142.7075585301654 88.85277428015762
401.36118054035865 145.41204837151406 90.88190724447074
390.9472167946684 144.3625175077785 87.82710444758303
391.6674886259723 146.02650733925202 88.47848694192099
401.3281280571414 147.0022321382706 91.44658325995924
390.99723361692656 145.85587643569806 86.71599160657377
391.6802602802274 147.42078118206175 87.21738858817967
401.2975989668212 148.62685072386134 90.83520811727952
392.4030876016023 149.0395320664417 87.36199585911748
393.1837425215581 149.4931130171775 88.67695461705131
393.73982418207584 150.28781229963298 87.35545388528519
395.28454827620857 151.3796070471433 87.65512720252856
397.0755773672961 152.2987197557744 87.82301416276736
401.2939694512836 150.63454200483955 90.45519509622497
400.46336711942354 152.7761486641692 89.81639199178872
398.9341964290257 153.5940592153597 87.99962154129024
395.75309307592124 138.91863650813056 92.23338857325415
394.49026659263825 140.78142487555394 93.0369621201376
397.160954665311 140.85359107897267 93.07625388745466
393.6827259475956 139.08817395689954 91.65268551206123
392.51683935011243 140.89196638709436 91.72595053957166
397.6877047817751 143.2800693888118 94.06313725687947
399.1891084910318 141.72517422794562 93.88609425893846
399.8436819972819 143.58182594243127 93.21919316469086
391.78617726402587 142.75944529351955 90.87846155183895
392.7221504138442 144.53896532237485 91.35888010456287
401.20587359223936 145.7710733411922 93.32590174695808
399.347068715431 147.25228257318298 93.5278945237088
391.5943860805222 144.48331074982863 89.70669289532844
392.8904587750364 145.96120406109046 90.02367211002061
398.6763569933125 149.37831806534663 92.94031553732397
400.65471875679907 148.10443629068732 92.58851240921582
393.4481436572599 147.5092779645921 90.98387602196624
392.51827425360705 147.8648466811805 89.08058122563423
393.60813041838117 149.20704107246752 90.22371860855944
400.39311381852303 149.67492499091912 91.78938217745373
395.1081413050375 150.27217783740636 90.98308687552893
394.34974447269855 150.5378522147438 89.12893286752785
396.11487446763294 151.35449503620717 89.49225425905108
399.3876154731026 151.1663439033667 91.36125458368325
398.0389661562875 152.30102831991374 89.85775917487636
395.63489263508677 142.91948483714583 92.89721922696368
398.64688511324294 145.37055840012212 93.51117283707943
393.4725754028334 142.79654221106475 92.26349788952247
394.331249321 144.76233110351387 92.5755870662718
393.4659229562292 146.02915946122712 91.65066953370439
397.3292088365221 147.22909643532333 93.21029323399947
394.15803827363925 148.8677248474197 91.97285089374768
396.0488441159396 149.27457294407208 92.85599484608585
397.3023667712856 150.3612261126742 91.03716510888655
396.4892780547266 145.06705435627805 92.95584884740798
395.0391678258947 146.96190932753026 92.31214783358246
399.3666176823251 154.00742564368005 82.79697636075184
401.0748611820082 135.46546941820165 84.20823889274784
400.9689426226342 136.17575628820592 90.99345326098911
399.8042834724077 135.15479042883794 89.85865958842741
399.64622840566966 134.65730862820243 88.212675827843
399.58272640891636 154.06220682553538 84.30396608564826
399.8096974129026 154.02868849062583 86.17850236849618
POLYGONS 464 1856
3 0 5 1
3 5 9 1
3 2 5 0
3 0 3 2
3 6 7 3
3 6 3 0
3 5 4 9
3 6 1 15
3 6 17 7
3 4 5 8
3 12 11 8
3 5 12 8
3 5 2 12
3 13 11 12
3 2 13 12
3 1 10 15
3 10 35 15
3 2 14 13
3 2 3 14
3 3 16 14
3 3 18 16
3 3 7 18
3 4 20 19
3 22 23 21
3 22 21 20
3 20 4 22
3 24 25 23
3 24 23 22
3 4 8 22
3 22 8 24
3 27 26 25
3 27 25 24
3 8 11 24
3 24 11 27
3 9 28 10
3 4 19 9
3 30 29 26
3 30 26 27
3 11 30 27
3 10 57 64
3 32 31 29
3 32 29 30
3 11 32 30
3 11 13 32
3 34 33 31
3 34 31 32
3 13 34 32
3 13 14 34
3 35 10 64
3 37 36 33
3 37 33 34
3 14 37 34
3 14 16 37
3 16 36 37
3 35 39 15
3 40 42 38
3 40 38 36
3 16 40 36
3 16 18 40
3 76 17 39
3 15 39 17
3 79 41 76
3 17 76 41
3 43 42 40
3 43 40 18
3 17 41 44
3 17 44 7
3 44 43 18
3 18 7 44
3 21 45 53
3 20 53 19
3 46 47 45
3 46 45 21
3 48 49 47
3 48 47 46
3 21 23 46
3 46 23 48
3 50 49 48
3 23 25 48
3 48 25 50
3 52 51 50
3 25 26 50
3 50 26 52
3 19 53 54
3 19 54 28
3 53 95 54
3 56 55 51
3 56 51 52
3 26 56 52
3 26 29 56
3 57 58 61
3 57 61 64
3 95 58 54
3 60 59 55
3 60 55 56
3 29 60 56
3 29 31 60
3 61 105 64
3 63 62 59
3 63 59 60
3 31 63 60
3 31 33 63
3 65 64 105
3 64 68 35
3 64 65 68
3 67 66 62
3 67 62 63
3 33 67 63
3 33 36 67
3 69 68 65
3 35 68 39
3 71 70 66
3 71 66 67
3 36 71 67
3 36 38 71
3 113 72 69
3 68 69 72
3 39 68 72
3 39 72 76
3 74 73 70
3 74 70 71
3 38 74 71
3 38 42 74
3 75 76 72
3 75 72 113
3 77 76 75
3 78 79 77
3 76 77 79
3 80 81 116
3 42 43 82
3 80 42 82
3 80 82 81
3 73 74 116
3 80 116 74
3 80 74 42
3 83 79 78
3 84 85 83
3 79 83 85
3 41 79 85
3 41 85 44
3 81 82 84
3 85 84 82
3 85 82 43
3 43 44 85
3 45 86 53
3 49 89 87
3 47 49 87
3 90 89 49
3 92 127 90
3 93 94 86
3 53 86 95
3 86 94 95
3 123 93 88
3 86 88 93
3 97 96 91
3 97 91 92
3 51 97 92
3 51 55 97
3 58 101 61
3 94 98 95
3 95 98 58
3 100 99 96
3 100 96 97
3 55 100 97
3 55 59 100
3 102 101 140
3 61 101 105
3 101 102 105
3 104 103 99
3 104 99 100
3 59 104 100
3 59 62 104
3 106 105 102
3 105 106 65
3 108 107 103
3 108 103 104
3 62 108 104
3 62 66 108
3 65 106 69
3 110 109 107
3 110 107 108
3 66 110 108
3 66 70 110
3 150 111 106
3 69 106 111
3 69 111 113
3 73 112 109
3 73 109 110
3 70 73 110
3 154 113 111
3 154 111 150
3 156 114 154
3 113 154 114
3 75 113 114
3 75 114 77
3 114 156 115
3 77 114 115
3 77 115 78
3 116 118 117
3 116 81 118
3 112 73 117
3 116 117 73
3 78 115 119
3 78 119 83
3 164 120 119
3 83 119 120
3 83 120 84
3 120 118 81
3 81 84 120
3 121 124 122
3 125 126 124
3 125 124 121
3 87 89 121
3 121 89 125
3 130 129 128
3 93 132 94
3 122 131 123
3 123 131 93
3 134 133 129
3 134 129 130
3 91 134 130
3 91 96 134
3 135 136 137
3 171 136 132
3 94 135 98
3 139 138 133
3 139 133 134
3 96 139 134
3 96 99 139
3 141 140 137
3 140 141 102
3 143 142 138
3 143 138 139
3 99 143 139
3 99 103 143
3 102 141 146
3 102 146 106
3 141 180 146
3 145 144 142
3 145 142 143
3 103 145 143
3 103 107 145
3 146 180 147
3 146 147 106
3 148 151 144
3 148 144 145
3 107 148 145
3 107 109 148
3 149 150 147
3 106 147 150
3 152 151 148
3 109 152 148
3 109 112 152
3 153 154 150
3 153 150 149
3 155 156 153
3 154 153 156
3 157 158 155
3 156 155 158
3 156 158 115
3 158 157 159
3 160 161 162
3 117 118 163
3 160 117 163
3 160 163 161
3 151 152 162
3 160 162 152
3 160 152 112
3 112 117 160
3 115 158 119
3 158 159 164
3 119 158 164
3 124 166 122
3 167 191 165
3 124 126 165
3 165 126 167
3 128 168 167
3 126 128 167
3 129 168 128
3 169 194 170
3 191 194 166
3 122 169 131
3 129 172 168
3 136 175 137
3 170 173 171
3 171 173 136
3 133 174 172
3 133 172 129
3 203 175 199
3 137 175 177
3 137 177 141
3 175 203 177
3 138 176 174
3 138 174 133
3 178 177 203
3 141 177 180
3 177 178 180
3 142 176 138
3 142 144 176
3 180 178 181
3 180 181 147
3 144 182 179
3 144 179 176
3 208 183 181
3 208 181 178
3 183 208 184
3 151 188 182
3 151 182 144
3 149 183 153
3 212 185 184
3 183 184 185
3 153 183 185
3 153 185 155
3 213 186 212
3 185 212 186
3 155 185 186
3 155 186 157
3 215 187 213
3 186 213 187
3 157 186 187
3 157 187 159
3 162 161 189
3 188 162 189
3 151 162 188
3 215 190 187
3 159 187 190
3 190 215 189
3 190 189 161
3 191 193 192
3 191 167 193
3 167 168 193
3 194 195 170
3 197 196 193
3 197 193 168
3 168 172 197
3 192 218 195
3 170 195 173
3 198 196 197
3 172 198 197
3 172 174 198
3 200 199 218
3 199 200 203
3 174 201 198
3 174 176 201
3 176 179 201
3 220 204 200
3 203 200 204
3 178 203 204
3 206 205 202
3 206 202 201
3 179 206 201
3 179 182 206
3 207 208 204
3 207 204 220
3 178 204 208
3 222 209 207
3 208 207 209
3 208 209 184
3 210 214 205
3 210 205 206
3 182 210 206
3 182 188 210
3 211 212 209
3 211 209 222
3 184 209 212
3 224 213 211
3 212 211 213
3 214 215 224
3 213 224 215
3 214 188 189
3 214 189 215
3 214 210 188
3 193 216 192
3 216 193 196
3 196 217 225
3 198 217 196
3 198 201 217
3 200 218 219
3 202 221 217
3 201 202 217
3 200 219 220
3 202 205 221
3 226 220 219
3 220 226 207
3 207 226 222
3 222 226 223
3 211 222 223
3 211 223 224
3 205 224 223
3 214 224 205
3 196 225 216
3 217 221 225
3 226 221 223
3 223 221 205
3 9 10 1
3 17 6 15
3 28 9 19
3 28 57 10
3 53 20 21
3 57 28 54
3 54 58 57
3 45 47 88
3 88 86 45
3 87 123 88
3 88 47 87
3 98 140 101
3 101 58 98
3 121 122 123
3 123 87 121
3 131 171 132
3 132 93 131
3 135 137 140
3 140 98 135
3 135 94 132
3 132 136 135
3 165 191 166
3 166 124 165
3 169 170 171
3 171 131 169
3 169 122 166
3 166 194 169
3 173 199 175
3 175 136 173
3 194 192 195
3 194 191 192
3 195 218 199
3 199 173 195
3 216 218 192
3 216 219 218
3 1 6 0
3 225 219 216
3 225 226 219
3 221 226 225
3 181 183 149
3 149 147 181
3 91 127 92
3 130 127 91
3 127 231 90
3 90 231 89
3 231 125 89
3 231 230 125
3 231 127 230
3 126 229 128
3 127 130 229
3 229 130 128
3 125 230 126
3 229 126 230
3 230 127 229
3 51 228 50
3 51 92 228
3 228 92 90
3 50 228 49
3 49 228 90
3 163 233 161
3 190 161 233
3 233 159 190
3 118 232 163
3 232 233 163
3 164 227 120
3 120 227 118
3 164 232 227
3 227 232 118
3 233 232 159
3 159 232 164
