# vtk DataFile Version 3.0
A great-looking cell
ASCII
DATASET POLYDATA
POINTS 780 double
317.33991654437386 178.0599128425949 59.599630411873946
317.4701718921748 177.7574928558199 58.01714548871164
324.5795064428162 174.65515126758015 56.86470618564845
316.17021284534843 175.1387084570262 53.57610643977295
315.6099322343124 176.66264409082976 55.281444767924064
317.71189835694423 176.248120473718 54.4348469832298
319.29028305568676 176.56034492902108 55.53752051677706
319.0974361724038 176.91415492520673 57.45600520162415
318.63695471562426 177.10781626346494 59.27617454589122
320.74257043107707 176.65299653563252 59.059766881054934
314.41676630194627 177.68883570301495 56.334651837167435
315.93736531488275 178.03364320711435 56.92175037370475
315.93109815831997 178.3786001858177 58.810619841724375
318.0694008826748 177.49667672100557 60.926229835468384
319.4598557062918 171.97399186940635 50.850018386709145
321.45085598665617 172.63761594437406 51.4433895479093
323.40404402554753 169.10213966213186 51.7648187318094
324.88543488747155 171.52566173300903 53.42661950825723
325.2966506496748 168.52184863317478 54.06408170463567
325.9171052705926 170.45860909877442 56.15522712378667
325.37334778943597 172.7798877884131 55.79063780821921
325.5225163052414 172.49109465513402 58.41393024553698
313.26701751082226 172.28658039946782 51.853832752225905
312.04587299991476 170.83044392018655 49.728884155875456
316.0897757252281 170.75567023846878 50.34173423862385
315.44078102214166 172.03588276126467 51.78883238858656
318.2975407411498 173.5461200743148 51.31687021690262
322.43191059590663 175.21747973119992 53.442678125153996
324.4505048006648 174.96391161728104 59.35232211065355
311.9663140827905 175.89398361502396 54.28562706425478
322.82666808716397 176.00212716645487 57.90975601672607
322.71109261761933 176.14084371967056 59.99091629755418
323.55440835256036 175.06633135258951 61.90527226816561
312.85325727847635 177.70846389484342 56.851941388203784
313.37427213892016 176.9799207820341 55.22238123651475
314.2798825551165 178.2692499619579 59.640013980507455
314.32554761339804 178.42501508950653 57.789348206409045
321.19559052751686 176.27784963433444 61.49898335472986
319.5356705472522 176.73822489391247 60.585739251860076
316.05546267556434 178.3839370123845 60.98139673152017
302.0190566022609 169.0113719933356 42.694775654096574
309.60714117683574 158.7649206650392 43.456152436543924
306.23222334926464 162.8291329462784 40.42746695449379
314.3383257233063 157.33225616500928 46.553116870342755
304.6342234198126 172.22137995497042 46.924461581986506
313.9416016165449 161.95820574726977 47.459308466400486
312.0495544315983 166.3658167430662 46.55420475372844
315.43101473932103 163.0895306215459 48.96387426091731
314.4604696862024 165.14049522046963 48.55828673935637
318.98756423456655 163.83819151006162 53.280969778941675
319.32174710407173 165.94932626610154 51.9801339587244
321.5905158090483 166.92692764512776 51.777479889725825
322.45838389146076 165.30809838553674 54.885555732173856
323.6915290559133 166.60912921039267 52.98564667737964
323.99685443206346 165.62803104144743 57.240765457749795
325.85701774370386 167.64026552618978 56.75921841517392
325.3429937926168 166.75484361800437 59.570831372525156
325.93951582375684 169.54026556769523 58.8509240712576
303.86469953678403 173.32313439894568 49.16386958233413
307.3345969622259 172.2805146088885 48.14718370226121
311.5618053597145 168.8399128823073 47.441224173764994
325.475775659404 171.1025169710052 60.97954443275491
305.3549685787533 175.7792090016668 51.784338439457414
308.03118792032666 179.34950103201015 54.52564228595379
308.44276009988715 174.39114391129036 51.387763656464855
324.57899606356455 172.63113772010155 63.012664770372325
309.75129894138166 179.28125311211633 56.1793031287507
309.35120969261203 177.44322582466734 53.45752243405996
322.4990896079056 173.8259668658421 63.86828919987311
311.31703685100206 178.53607714914963 59.57288941095976
321.8937242262641 175.5682115410586 63.276169479900055
312.77954413007404 178.05826987400482 58.607842602617986
312.79271195327016 178.1536838800982 60.14881716060908
319.2026818527407 176.66418547303493 62.21246485631384
296.79671343808513 160.20227110695697 46.45146156192758
303.59285649810806 156.6855330357824 43.27563579369976
307.24276559201786 149.30822022112542 48.05989068286992
311.23851971133223 155.79057345655016 45.06122037653682
316.3603142631319 145.97088956114106 58.53724092271318
295.57253577688 171.36609356987407 57.721806040789595
318.88113333769553 152.45229334774393 50.51021816124291
319.7015464145181 157.4010467798939 52.14622350678185
299.2079543823073 173.78875181196025 57.6322742181718
300.0997999100982 175.35370092544625 58.73254589629069
299.51066033402077 173.7047840970141 55.04628297983059
317.98009884960476 161.88004798844375 51.91387486152232
320.32462233802505 159.12310666082425 58.35371783692242
319.70978775156345 160.41616754295936 56.20646568399785
319.7641663708662 160.7766939492975 59.99924386968023
319.58448465995133 162.82422979232976 56.9896190450803
320.08168461596665 163.0761307624615 59.31254740301358
321.34605697264107 164.64268686975683 57.5994041186033
320.9405815036309 164.48577590949702 61.3022742058672
323.0494236486644 165.0311433762648 59.76300078699592
323.16002688290456 165.5051767907882 62.14009671585531
324.96881696599104 166.97200996004682 62.13710339825121
301.2671724538557 178.78132667154506 58.939515697867506
304.40702354875606 179.8615030763703 54.290663320054406
324.5723406948203 169.57677919807963 63.310989988418115
322.54732579394295 169.05282657832376 65.35363527091813
304.0994029333734 181.23835126724015 60.94820899592551
308.5661084168113 180.43987644464727 61.58365572490523
322.8580058933896 171.5574556350184 64.71243758254961
309.5400433989516 180.08390128951712 58.791894722745766
310.3772592847259 179.25183354292724 60.93709041424335
311.81838171114305 178.14532907407727 61.421053701673785
313.80538250924394 178.21937737400742 61.48831546655113
317.46745726384 177.68637236516008 62.87534418554378
307.92791319801387 147.1092428563401 64.24470634630754
307.3590089442832 148.70145078309196 68.52590871961567
316.8867654057832 146.23008627339058 61.033941002600955
321.04006202395936 151.9735704187635 62.05417700929062
320.6099893263872 155.37587372782434 63.099793055025906
319.79328151627846 155.02508425730363 65.85729340931795
320.1021347165992 157.28375259996096 64.68632339626069
319.76219657078434 163.63422025920647 63.17022482629969
321.3406721185018 165.17984180954355 64.00190747600168
298.3136322942566 170.4519236329308 63.848582440202215
298.434353591152 171.83103830718096 61.62492706331795
299.9978638746948 175.4160380273938 61.84688306587432
319.5290183939491 159.17672389571814 64.07256645862685
319.60341141126065 162.33076572095155 61.58852656582258
323.5361706452554 166.90668940884945 64.21146131099974
300.3650179112604 177.63729944739327 62.6902699191093
303.96272097138785 175.4471156477621 68.89906037887773
302.65667060567245 179.85174487113636 65.86752279454683
304.71433450920773 179.33691151112825 67.98766257111049
305.9976625103313 180.788723463611 62.782120673557266
310.4259350602291 178.72625604226775 63.25858442790996
319.9905861256441 173.51070639155333 66.72372959811574
312.7817847144468 177.7054352802316 63.28590088175131
320.75459186572067 175.11796073910338 64.9812777596127
318.89272701845124 176.48737903095062 64.23153063438893
301.0254480182167 150.91612857871203 67.09432450778819
304.1170221958572 152.1455228967225 70.82338988146759
308.5604776202951 149.52896517585813 70.4716546702159
298.0427757031467 167.34792195531804 65.81210966114483
315.98601230077577 149.51756021606502 69.66070128780159
319.5728577021994 152.02055509212872 66.46489241537294
317.1279477068851 154.63877487374523 69.89872900320101
318.45368608865175 156.24405146161138 68.7123721267801
319.20709441807213 157.571764117507 66.8834901558513
319.02326278547457 164.50556936963295 67.52281272185301
319.385252406821 163.6395049671282 65.31476009964305
320.1564385662229 165.9451725078372 66.1253611354543
299.6100586230494 168.56108330636613 66.9501847956913
301.36110046749576 171.46617386265754 67.63552386601376
300.211468473585 174.53281960671615 64.03174557503765
317.73442773345755 161.25520799639693 69.92967592388293
318.7784934570203 160.0180817515592 66.08680521229545
319.1626320668878 161.54016943699432 63.94978205316707
318.7371135281863 162.2061412267953 67.23258908553845
321.5767041971351 167.11711117522987 65.17290153849893
302.8242017184175 173.08378522413358 68.40171238903324
304.76186160866655 172.84536749530216 70.05204845061515
319.20423950635734 169.5589463305395 68.00640047627711
305.8546609709659 174.89329365592235 70.15827686042832
307.62839729839345 175.17686177820752 70.14525055309167
306.3742099544002 177.2629347354527 69.41123343437853
308.55643510418616 178.6515018858225 67.69914755274216
309.25479482317496 176.09866433172658 68.95608927043197
310.379492675518 176.91037878871435 66.9761808003785
309.8170623197909 178.32090053207207 65.59261373258678
311.52094038677416 177.18624054520456 65.08981571478945
315.14412435419376 178.3354180933496 63.415821013592996
316.7850415640597 177.33104451353688 65.23429168744154
313.6861108890314 157.94069078655042 72.51674004659564
315.63648847162835 157.5054162887532 71.57785510519956
301.4244934220711 167.06734231636722 70.18525809668155
311.105814491851 163.20055532537648 74.39868425412553
316.25703940197286 161.23486523201723 71.61564562327774
318.15916967899665 165.2036259679862 68.9318140664027
316.9792627052239 163.0771867097021 70.95574798975164
317.9734144930555 163.25787518709436 69.02595203881025
317.08316821406123 164.7806828717615 70.08920898689368
317.37797477962727 166.56965330760718 69.61110266149936
306.33180373815037 171.02387375860687 71.10149017866388
307.0725084985154 173.28073287158128 70.52755033768203
317.44198869761516 168.53111615096677 68.95430190696005
317.47004753357135 170.73157869079986 68.90599800738927
309.3043781814618 173.79919107672856 70.18146132754676
317.317215554137 172.93876231929514 69.10126376513108
311.0186878634575 175.50628243892348 67.9416091492405
311.4024336546352 173.05456414339758 69.78952863128787
310.6617876097907 174.47996805841885 68.93917552330464
312.16073495791176 175.7643369369985 66.6070447625332
314.04155368850934 176.76401359330112 65.40956934482985
315.9284301002002 175.81647204662463 67.02676546026358
306.62705084507655 162.8960522032332 74.70999911497245
304.7423727731724 171.60616351819996 44.86044574112463
310.0750055773233 165.61225238470203 42.24455699356203
303.94967382942775 168.75007684170447 41.98111128739463
306.799104270784 160.88784082762368 40.76651543222732
308.87862961588405 160.1708236579005 42.2959700029709
308.5021878988123 171.10834809598657 46.552984590248435
309.3452739509233 168.26645678293025 43.40963373732528
317.3212007043293 147.34460546515282 65.75551672033694
295.57278903177894 169.6994848034966 50.36967701069527
317.4188880162838 155.67149949531213 48.19792842311106
313.9452891002814 149.2773368647925 48.8037236714157
303.56480783031736 165.75282656599276 72.78538098742295
320.41182542738994 150.27525147034956 62.43912983733341
305.2406595046593 164.38310912245552 73.2670519953175
315.3695497447427 145.8438781120428 54.72445871944041
314.52409746406073 150.45024995223625 48.08778058387891
303.32770247457614 167.5780349325635 41.1463997897704
293.0297652782581 160.7239731690675 56.71216918586433
316.7815509537509 146.04557053949472 56.864147210445836
310.4822224133511 165.47022178040095 74.60354185420618
321.1156077481514 151.72901865706982 57.23252000338785
319.57470088737955 148.65279992607475 56.26439635839737
321.23922799179167 153.1457937950091 55.571555337748194
320.4133370829624 149.90897559280157 60.84643900485532
314.9553909871817 147.73316691958846 51.38453614460652
312.0375584712958 147.3131879766756 51.19210892423931
312.36733727117957 146.1537590927976 53.32299552758903
315.6275806952196 149.02466968888785 49.58191921473705
305.5202551418491 149.06991434487847 49.075798901472666
306.4213827393181 147.25562091526993 52.36692065114882
305.49162001526264 146.7523272213132 57.08267535626087
311.59384889178705 148.52343693885706 48.95552960415039
308.47468266956696 167.96024951468723 73.03056254269316
313.7828110547262 148.41836347040143 69.56734611437614
306.335712287791 146.8972615446819 55.577368155681995
315.5579860891665 146.02952276752825 63.11067225546556
319.6809505931497 159.00857366751285 52.97943092644942
318.6885321093267 154.42104060192972 50.15475298728537
316.6550805031705 148.03356817904123 67.56066247602591
318.7715580046763 152.1818112256217 68.28105766850064
319.1421311576074 155.7229618079792 67.43495525749245
296.39416264575726 156.58746217132713 51.47777500746118
315.44877259903797 153.87237372297528 71.34253314705593
309.43492714764017 146.46310684918947 62.57519394674553
324.63456522536086 166.37830784029876 55.04637682630038
309.61312290057396 148.319157668068 69.0018571438668
306.78740967128573 147.9868631390466 66.15579335909418
311.5495925891828 145.62502245115112 61.75303413911944
315.9364004061687 166.00946358340934 70.6397596055319
304.30122976457955 147.5280344335225 61.84866906367589
306.77223123537874 165.42747316567244 40.93688462492342
303.8755847112004 147.483142843706 58.21400727987965
305.3398361207939 148.53896586077317 67.50722950748593
310.7357476267464 146.32267887177827 64.58721312239439
315.3394410977267 159.46405569786 72.3822499415774
316.7410125317284 163.10806956913265 50.54409207456169
292.0964647191712 165.00619124198585 57.28010439730094
301.42537136552716 149.0963464263057 62.23123605694955
310.7074154605126 147.79698173658312 50.28150928093869
317.82820911205954 146.4922778090855 59.285446962630914
297.7805638684853 153.61393289064657 53.23480973077434
310.89599209939246 150.56410218465115 47.39718013140832
312.7743122773461 146.33043783823368 66.18893896289049
311.5996211847338 153.91568306812243 45.47010048573877
309.4437566924005 146.80454549199175 54.165624231801296
318.8547973574518 158.11652161992478 50.71190904987496
314.569297493875 152.59039414220672 47.37510022707392
304.9559512393367 155.1753776776931 43.88879827736378
307.36899285860574 146.94595180204809 53.88573876466003
299.37182496564026 150.76610462565213 53.35236341242038
304.94164923153295 152.70814004495992 45.443010993353475
322.8442288080518 175.76614227894927 55.58155315959085
306.94140209932857 149.83299700895623 70.02106372305668
292.5241825960379 162.66860487289537 58.88738902323289
308.58009242439607 148.25888303464598 49.733528193116605
298.5853358807685 154.0927726811569 50.83675372027492
298.9117980127195 158.13508606571475 45.521441198069624
311.79402496714806 167.84751498814524 72.60562908546723
302.0195520745345 149.42806257770962 51.098663469515145
314.75957873940786 165.3807005758139 71.97638955602928
303.03013877761833 150.61300233067024 48.45071835993198
309.1520681319885 151.17887164810207 46.693224265244105
296.1283744504313 159.01421853970083 49.06644461005653
306.71191016962 179.1940005930141 68.5126529218993
311.46811641817845 146.03912231909442 54.541721756619204
315.83716811336404 151.80418570623158 70.46861907727708
311.26304414399556 145.54446847547922 59.01226424605609
296.6314677529177 155.34205455782705 54.3761685019397
301.1608893517182 154.14090961856272 46.750161547362694
307.91440972634433 152.51814074504918 45.64542557484021
294.7299422724054 160.17714735564292 50.98211843925322
310.3052332900386 172.23577876100444 70.91522858438567
297.3152838277753 172.86425014902034 56.337609837251556
313.207524415308 168.35942656257166 71.45931246549976
311.74843117074283 171.2464981286733 70.6757475896681
295.7175597928704 162.1799096228324 46.527973055131696
317.2071805143667 147.06825352903226 53.63137638092387
300.3142136379358 177.17195270719995 57.66910691736859
315.36846478740506 145.70991216085866 59.93147479917909
313.97100494825816 145.27573555926315 58.859174744961415
321.65357298849773 174.40774748013158 51.93964805749936
313.27400993141964 146.77818870293555 52.18712144793418
301.2246490890472 149.14935150543448 53.62961817506152
324.1196669218937 174.06503366055293 54.476317638649085
302.27277947641596 152.86796339146937 46.39179535792385
299.9442406177716 151.91060388777325 50.178963016488
303.64571729947653 147.59546009646039 53.83293619787422
318.979946895449 161.856258473781 65.64145387907989
320.46205742678643 175.35692028312894 52.873957903451156
317.58178549758856 154.07859578617797 48.83962415641323
299.2214023376269 167.445077500399 43.484148447657326
297.5551648226196 165.5230594894929 66.86498563629331
322.9065939361496 171.4390910376951 51.87933397257492
302.7124721908676 178.22583802076275 54.802688395201066
302.3525861861264 148.44602386179972 52.457041116235125
297.51381571574314 172.5841359604173 53.66584040612623
320.0322029826447 164.41270736942735 55.29709074023875
319.95217056388054 173.94743370138497 51.676418654838265
295.3557315728522 171.61825255917202 54.9188133625206
316.58416152677046 157.18802515481167 48.25971258628988
310.5397450070406 164.38243356541105 43.06524484819286
303.3341918288743 149.48255573770874 67.32555012076229
308.7442848915449 167.00547228383877 41.79436943542249
304.0824591018894 165.23480041467607 40.50552890615192
299.91103055348344 152.28890442610447 67.44815411769561
308.1336365549703 161.41046117710562 41.474132399024306
295.5923748636697 155.22833290951743 59.26773101303086
312.4419826372475 174.07864598607406 68.00006622147137
306.7604650964345 179.90797653452725 67.050850119789
301.00622282808996 149.04574922615396 56.185681644766234
304.8821026007994 150.13879465051195 48.0085126156992
315.15413293170167 145.3964251082048 56.409918122450506
301.2859885962493 174.92066261666398 54.74027679743501
299.37039347785196 156.07047818477017 47.64186477998553
320.72081831301887 165.38056485880182 53.38709636927275
293.3556148393347 162.34556052703385 60.45073306993135
309.65603326044436 178.58548685483476 54.74038654323681
293.6730944012048 160.987150732878 53.20503614695563
294.8774123773303 158.85021700368813 53.16812323188829
293.2920711172962 167.6833031474557 54.46107458404505
295.336787100191 162.16896717271706 65.0596178500805
297.68033016683324 172.4751822799318 58.98314915722915
303.00908822390096 162.14181190279857 40.648220200541374
294.647132001738 157.45813066640392 59.686322405820825
308.9821237308025 176.09092596657663 52.264244202795425
318.85425968843765 159.53678719476807 51.625734232128806
305.6934635044532 167.85608124402123 41.381307795998595
318.00765132439363 164.3583802694174 51.28368244568097
313.4466660616954 162.18016981088553 73.84556057734127
315.51886744189545 167.03256358831993 49.62401576520383
293.18896457929253 161.1301238952544 58.66593225344253
301.06828004763435 174.73796576961004 65.44061426780642
314.7290284328399 173.55055489484562 53.083624230295236
301.0425366101185 158.83132278621554 43.15067541969395
301.7789815453207 178.59280682504462 56.77132817663994
308.2747313106125 180.37122693007302 56.65952664649792
323.2037949533454 173.39304420784777 52.44405463229589
301.8795486659261 160.28883142085894 41.566951851343724
297.761302903907 154.26990669872316 65.6045951247593
313.9330768879055 175.5044080421223 67.37685409830678
308.5536914601994 147.33470146820522 51.86558028524647
305.4568687225359 172.73877040766882 48.733639335542186
304.40947233775955 158.6574478226979 72.44803092955978
316.6162103208268 173.73656513938036 52.02140200281074
295.5002730180495 156.14390517129587 61.60301853397232
310.0832335705255 168.76205136052224 72.28955617433314
319.17266597166895 160.5122042159911 53.68991189156051
310.44366176534396 161.44349678093818 74.99433176846989
304.8014738854992 170.1591080010552 43.175599422284535
310.172054487321 161.72695147029484 43.25690208545454
305.75333441841394 177.31915765751563 52.15175296691708
317.9029242702874 159.82512889046976 69.47858106218705
315.74198653589616 154.97690681994894 47.56331969128716
298.75684885232323 151.77674985203464 63.719482050130246
318.59325377769244 160.375083241675 68.33282881517668
319.68077269446945 170.3406744089156 50.27306004848275
303.73268333962403 149.08800187933514 50.08942996097293
315.56334969579717 159.74094026548465 48.011283730742065
301.0245853617106 163.65792393068554 41.24786234562763
293.9564318477508 162.98121452552022 51.09469068477835
299.5365739473632 154.09341095327812 69.40121833106929
306.28973797984736 180.07766263081018 54.163575357913835
318.16426749093716 170.40199279162687 50.50018289264832
297.38373007599967 153.32752570207057 55.633128937703766
307.52408207374043 146.83137134264837 61.7583181672181
314.2492768222233 145.39855118838742 61.284646530637986
306.94026925728934 159.12690126459157 41.944593349631404
304.050516224863 180.7827253563561 56.354660180515246
303.43517639474965 154.0785541624884 45.09727654850462
318.33677503829824 147.28902374790397 61.953407446410125
293.57673581899775 159.4192634086288 59.96320381188493
294.874627654895 164.33007208251223 64.10018404983256
298.85925373826456 150.936331898833 59.39449017049511
311.1749204617519 147.04422643032584 66.37693995035562
307.4665816042511 146.70332734887808 59.55073778265339
306.319782911668 147.9824495902077 50.31413685190232
295.81583244455464 168.28623970801286 48.67454324576926
304.2334806206243 177.49715957281126 68.7545723432694
315.4583609326241 146.50734154882483 65.52761454243593
297.757582554535 163.30366074451402 67.85102258186186
315.16115933935754 148.34355593368122 68.60587089844708
317.56160539408467 147.0551193509478 63.74451116910673
299.64566527414814 173.76172744731957 60.11849082090532
318.4052168442305 161.79037473204826 68.69143781576798
316.2975698317446 164.91356643233354 49.98117664620085
298.98083794918875 153.72993342048102 67.72918890976405
307.68410133116043 169.3466554520638 43.05034685122061
293.9682672564871 158.87709746182193 57.628422299465
291.96503876033825 162.86339860754524 56.90374896822057
295.4800781464455 160.39392383447043 66.57209176301139
316.79763189754823 146.48220385105648 55.218504135525556
303.07070598911787 148.01602807559172 60.65344902888385
295.8272691508511 157.96022463409972 51.22849429880072
295.940398581198 170.76505231534273 52.15267092692256
299.9113208514745 150.60045993473912 63.60941701521189
320.9919030823892 153.7492597988354 62.50806236484931
313.3892185383079 145.7334065249581 63.80521699458835
303.67109336265315 151.8130433891811 46.616561297036284
299.00021691800737 155.59954205281772 69.03675474340248
302.3067735932212 153.61400853973367 70.89016934870031
298.8990765747497 170.98038860250634 47.26319347528733
296.8778754366978 156.38834993380232 65.46941932759006
298.60607025704644 159.47423567764213 68.80719027573826
315.54463854848655 146.67971377152767 53.27293897414568
309.84250524755186 145.9498573741337 56.503517702420474
297.11459466227154 153.0146342834483 58.46630213622048
300.2047967807292 149.76821554656945 57.36554846546608
314.5801656783484 167.15378782714154 71.11579621138443
305.585810452199 147.39546054238656 63.08359691729538
315.99781633381525 167.82068180455445 70.10615873339499
318.6734261912838 148.0275857535422 54.48480964683924
313.90454960874433 150.3949275086533 70.88265341618278
295.2810109355006 166.3102172873134 48.01947915670262
305.90906877867724 146.8409566906299 58.553605291957844
318.18617623438735 150.35235086113553 68.42153419992954
296.93330972465833 153.76582734475784 61.272970687967735
319.4163454886962 148.72302867827148 62.73572360389683
301.08304949571357 178.92791459942165 64.51314633474357
313.3823003821072 167.33913376472918 48.428082760725125
299.9784191624709 175.38453306503922 60.20687095930802
319.72593761311373 160.074142037516 62.06566723682069
313.0391416794716 164.18656465724942 47.23401403320283
314.5416736303962 168.88586272294748 70.39303048050856
320.30950351098244 152.67396337141994 53.14629044812057
317.5981633118499 177.38179188249177 56.121195669902434
301.2248443922325 156.30084474854502 45.2121503247384
316.95174964708764 151.01437511610857 69.56917663072355
311.8483446338083 152.2006385300444 46.781923981319565
313.17107048798084 153.89792573296617 72.16608184023386
313.16647831241005 154.75329069463123 46.31882819840677
305.4358891532978 152.85270863839528 71.91588928136511
297.0405030284921 161.00179920822777 68.128360525964
303.7515322091983 174.31371839156103 51.25397983862921
300.23633637969857 176.99668069003047 60.131464862283316
309.43097482516447 169.2707185447598 45.414870439565604
302.70713002235937 151.11007247472673 69.12211148690947
318.8168656776541 154.03826574407364 68.14204132840295
306.0697794182172 173.56597259248315 50.51086826634182
310.4556890413875 175.44316727999208 52.791726494000045
318.8888422835464 162.14168093366686 53.4302359602196
319.61690952656954 161.2204421588047 58.194453288557284
292.926322131364 164.47655894176597 59.01802019650113
314.43482504369024 169.2646336814377 49.73241742696559
309.307369374073 172.29775703560492 49.884030322598896
302.43281249954373 148.22852631336383 58.99634513055254
316.2447021503583 164.60582567357488 71.51194265207425
301.40124338056654 176.78195482274955 55.686742519704744
296.97072721318153 170.12337904785738 62.30121885147537
306.50294221240387 154.13553543425138 45.06819989368984
320.12093794939955 158.31728835818006 54.69719422642584
303.33602674281315 181.0128401663609 59.382051379500204
302.698054262838 179.93949114933753 55.749761994174634
313.10794948001217 169.94387641606662 70.35498586204467
301.9059638728628 174.4949588911977 52.74288496386322
321.02994035814726 157.02459551016122 59.92462043956052
305.7027079465109 161.09353881198058 74.09217732396294
306.19938810320554 180.71104143394774 55.98962740662218
294.4030665979665 162.28218316755456 62.790695370244265
309.6068971026738 170.6429573560617 47.949937464459005
316.83066719038595 168.7603787451235 50.45845894863782
301.31413325812485 156.64544745262864 70.89762420080913
321.25002709994624 154.4812023175266 60.68765426043222
317.8388116675081 150.02550101781515 50.32877461242816
293.5978098323295 160.86749412233746 60.145676191067224
308.3120522664914 169.88805403937062 72.1342557129318
301.0220514188912 159.08002125751693 70.76815750649148
302.23067964943476 164.30395393033217 40.46675909514518
307.27311123636866 180.95998461795486 58.28896554873229
297.179995761871 169.76552856911317 47.80002080328125
297.8433818424479 172.09662225041188 51.44679424464215
298.4079011772478 160.40951263855064 43.86512799801726
300.50583219212604 165.2843872827708 69.64233209818396
314.06078810295156 175.32072901524805 54.201134022778284
299.7841949078532 173.25169602139874 52.401745663911
312.1468074827202 161.2137387187599 45.41521383593243
295.1333994727871 161.7484743530259 48.54019051767251
300.19009329546816 176.07422114126905 63.472296905070635
311.8343886543095 164.922483381446 74.46770729167443
306.507449631239 181.2372203461435 60.316856526233295
293.8895841883073 160.5168142805951 61.571120999923
310.72289935565993 166.73162104705227 43.973550599308865
324.294988430137 165.86435090137493 60.94168838295293
295.36853535066865 164.37285679894862 47.1345675862148
299.83464194106165 172.2157644863461 63.825471267773395
305.41727665882706 147.25451981231635 53.9135998650368
302.41922873299563 166.9922873425634 71.80118218020392
320.4329817181863 158.67587805008978 56.566675374382726
297.6206874247469 168.50867166393493 46.17415113413151
310.83744979915446 176.739104521329 53.80062499497565
301.42511322579304 178.35009600551305 65.9988776839449
304.4918144170124 169.76465455007056 71.21947468917485
301.6845833235597 173.4411911842774 50.46246492553659
309.0020890622732 162.00966812005507 74.99113514877843
321.17991331242547 155.5707056311899 58.88347420735112
305.16074536318513 157.78407351423755 42.35830155930914
299.82018130347785 167.144541304561 68.78958884001437
312.49616399532533 149.54852067133032 47.67106722956827
298.29116021474795 169.20830858223576 65.43255515990647
300.33850971709717 170.03883977744874 67.42257546007794
320.5078194631774 157.775965446748 62.3107637268411
317.35625364339427 172.06321419879583 51.1715683455651
302.27355446771554 176.40850243517806 53.72222750867098
309.6578338494086 151.24546641631989 71.54708049770359
315.17219992862056 173.61654364888875 67.97123457294589
295.9526236696397 166.7663988930786 46.80510454663756
306.179547677468 147.4986775025467 64.74247815075837
313.07923644345146 148.24575706781172 50.00631004203193
294.9655089378943 166.59129408073355 62.917822536171684
298.8846018118255 166.71010382300463 67.3115477052258
304.51733254766305 160.48211032431507 73.02719829495987
307.0290682784618 165.1912514351465 73.9102651656206
311.55925236776517 163.91283586205552 45.15750477112913
314.74258019711505 161.21195164316052 72.72787734863441
310.3811885911724 152.43880103125105 72.20001726897713
301.6017308724123 172.40316924966334 47.681526303047676
309.67567736324486 159.82018419942824 74.475733373164
320.66812893681237 153.14350827978564 64.10070553576115
303.9214321764025 168.02778841249 72.63423490668214
302.5153538139657 171.46561856147008 44.84973438932285
296.0623657258043 156.9724486010694 52.98134428956805
305.6728188749072 155.57195268941365 72.81527708145988
318.9544988635742 147.75217586263773 60.19653584607525
301.7257709695672 160.4971245691573 71.2678233057283
309.1050605481082 146.2823774360171 58.58652749323825
300.03716467704925 169.9371152299833 44.95154979587556
298.9454339626831 164.2459447797466 42.71789652630223
308.6811446188403 166.25039608220646 74.08798480245795
293.8975672535717 164.5063842821757 61.68200053861766
303.5521397222021 175.64023528972612 52.59305002830914
311.7318562756507 158.6344558544289 73.6254235998301
304.82692172890006 181.32589300479998 58.401084665413165
296.1717688007737 163.9991073351531 66.09667400301032
307.1731924118351 166.96373350117958 73.49767524380475
305.850470361654 157.39866003586098 73.19615978659034
292.89441422669984 161.4300450987799 55.15654353408061
315.1298988410507 163.19066334254177 72.36187517173512
298.4694452452998 162.21407948706764 43.164673007063804
306.8797088093918 151.43394131927954 71.38860645972625
321.5623265422019 168.64954601957072 50.880961932879714
299.55670518975955 170.8665659332353 66.00431284356264
300.86314581162975 152.81843629548402 69.09749501049473
307.6291520434705 158.29605253894536 74.13831875059917
301.80725881553576 173.0950307721259 67.16618168482516
311.84453409314574 160.77736501870106 74.68327866558425
306.8186157958703 175.13733088140663 51.39621050049847
300.3313868265767 162.05415678635453 70.55577795248406
311.30908502949563 149.37231607486382 70.49198360772412
298.43326227159037 151.70124634025493 61.92211995098753
300.1401133617869 157.69078020739832 69.98081218604337
305.24727427868834 150.1953752367392 69.23179219061932
310.0935768625385 149.3045538937853 48.39360969133908
300.6582121248275 150.20558496517208 52.19665370481073
299.30419792658427 172.51697544130536 49.663179757405
302.05584611757763 148.2840852381944 55.085578287924534
311.6310928949823 169.3962701578388 71.37537299326881
314.16697523679414 152.26497476531802 71.6500077966014
304.2109215954031 147.3135523744964 55.75514650501816
309.4106918246501 146.31364405524775 60.536152348212525
297.80418640355794 155.7221350991066 67.28449782193358
302.240717629011 158.0856551826881 71.51692063905286
302.00735596190475 162.75649668222422 71.27880496545662
316.9906321142201 156.98155148449234 70.06545464100334
317.4796512348702 166.62325265470804 50.89461553246052
296.9430418053574 168.3430376366854 63.81336996720223
318.7474798052469 148.97175671114718 65.66604996775351
311.9420475103071 151.90522904493878 71.65340684630203
318.34137157785943 147.16049024038483 57.346010040379355
325.79654152011767 168.7538250347541 61.11360045243751
316.6101087752637 151.6161115672225 48.745790460702054
305.35339664294133 147.12401147315836 60.535799302343065
294.4753537975144 165.6738973158574 49.66023220229405
303.78797610583797 159.18497441388374 41.63376322695326
321.19720215134606 164.55470834644063 59.487360069897626
308.8825357556797 153.01148513640655 72.69613747695949
311.0459850863649 153.59441242385705 72.89630782091322
296.2664213121946 155.23862133649405 56.84209335543805
298.2333312500121 157.4495761728879 68.29075475466908
303.3927286585869 180.9198430558104 63.454784068568244
303.22468571464935 159.85950797659416 72.12986435834385
297.0895069263383 165.75441937036246 44.95900113730246
311.08163900377144 146.65228949680127 52.42320118478385
311.9298317504098 156.01287096245227 72.99550407112625
298.8611010971974 151.87620146916132 52.23568754759373
294.28681672837655 169.78967654339627 53.77986387116692
301.2410130799253 169.09890866779358 68.72720538341521
301.83925489327976 148.38906362611635 57.45400913681933
293.76505802650956 159.6049935071862 55.18043308203929
313.538314290326 159.99425250995682 73.43002868779179
304.0850157279405 156.59351691834408 72.3982304283347
296.9870860668705 157.2805123303476 66.99627019169935
304.5751465514076 147.71224657442102 52.08309299844552
310.2739324552851 167.24352630663583 73.62004938448177
298.7774597772917 165.34006379976572 68.54155278058828
300.750884557488 173.8835293510137 53.79700922062054
315.50777372809216 161.55233276141266 48.447462298042524
305.3411886471644 160.66653285395176 40.645162317193844
300.1482094479225 161.56175119659233 41.94335238698831
307.86703347995257 178.25121748927404 53.01426341766862
315.9403014205229 169.688330845697 69.63990549315274
309.53475925345265 155.07414891496063 72.96219527070502
307.5741851253264 155.94852802309865 73.34247318476181
317.75242615502276 152.4143798187549 69.6330105102285
308.7901175704107 164.2702175968519 75.00084382539248
302.3105979111484 155.67116487529728 71.65621530805828
297.72882614987526 152.96398941512942 63.68247226865205
305.46520596996993 166.55637033986233 73.42207180660303
320.330741980901 149.44754706304403 58.07755400582368
297.1655094990515 155.5367218884156 52.1475776390716
302.4667852209379 180.58244915162354 57.87802051561384
303.51889243608565 163.64335798195992 72.31596614593268
316.6355805422881 153.1669522084644 70.47979737910124
314.43710608047684 155.79293437644293 72.24518931945977
307.4647078223957 146.60185361361738 57.339143751961544
300.7171611200879 155.13906665266882 70.22959720450815
314.54197579891985 170.47015053688443 69.99345604506412
301.37145288369857 151.96382535078794 47.892940112451384
309.66396138986624 157.3367444164289 73.46092892972563
320.7150157845732 155.43846826187755 54.26944440125216
293.9800197732841 169.63403384784687 56.259029001988516
318.1576537633041 158.47115287554792 68.84427878609746
295.6047012114026 158.15220509555547 65.97331813337367
292.95622967493375 167.00120247235088 57.45968380412693
296.9066462967133 158.93305685816856 67.56589515836528
304.7720040184446 162.35249764975228 73.33588309568451
293.6105662508142 166.92914317338108 60.47309224662361
312.97646894603344 169.17949123473116 48.66210180917228
315.6526823765403 171.69362116990618 69.51889611426537
303.46052965812805 148.23530232375379 63.01543473014953
321.2729185924533 156.73238587029277 57.04666515129571
312.545396924872 174.2216165338878 53.032971362104064
317.2116104404401 148.10168438488802 51.97027816270335
321.1879887268691 151.87640029876286 59.470303277861596
302.70327170491976 180.79387590850556 61.828416769440324
312.5266229395422 145.34419681692492 56.57954505895468
310.3593552932812 157.31500170753384 44.5586639049463
301.7122132322603 150.43785615659786 49.9252404213167
300.75203300045035 178.93502682919467 60.898482129200076
313.4512685209635 151.10284754014432 47.16508034557012
304.51068076150074 148.00195948482553 65.3466925536155
299.46963854675676 163.5606581740105 69.43490418173376
308.105688411974 146.7308645602886 55.51039479292401
317.1655672216209 159.1982993358392 70.82322794369338
310.9814951491142 167.82753778489953 45.82178959801226
300.8392264098762 163.75209534836466 70.48151589258912
316.1960809040141 153.2902674182259 48.0130269082175
305.2798628242297 180.64963096517081 65.48076027519444
304.20086876493275 154.18697080358703 72.3005620229869
299.1840345997894 152.04664939335242 65.58605850425532
308.7769597902383 156.30575113388042 44.354741915351525
311.9104535306819 158.3388479368528 45.148765202364444
320.93988893528564 176.1158419927022 54.61035252588663
319.6937948091061 154.79303803600624 51.55363449173507
313.33901548818574 171.78675295800517 69.11588866071142
311.18275476396707 177.75119035169976 55.1932188277923
300.99546036913546 149.09921516038457 59.65054103951571
301.32168694285286 166.0718897096587 41.34042265958025
321.2528757100002 154.84693353879018 56.17371620973866
321.1272721302041 170.3629974779596 51.12922604307182
304.27245296527235 177.47632360287548 53.0791452080305
320.9479309247934 156.17622295353712 61.52750086449861
307.8918875043152 157.7275799735529 43.307746731657154
306.30211302530597 151.4400994981404 46.18351620105596
300.51099496272775 150.74333979938737 65.29891273781205
298.57821127775225 151.3495470246894 56.658869864776385
300.1449616859519 149.9770755473958 54.84235730407972
318.60864457592845 175.77656124742364 66.75188896215933
311.7154665941237 147.46108371555383 68.19125584668275
294.41884551212667 158.3739346412209 61.829575759083376
298.7155241107235 161.59131615012924 69.36352685816998
313.4194658769653 166.7322683138207 72.6340226355831
300.6288343179104 171.4491636050378 46.03528782001399
319.19250719495244 162.3640021616632 54.87027503920942
295.61138930320544 157.34740645244537 63.75634331449681
295.3293502366394 156.9442558269312 57.807310558914146
299.8971842945941 150.2585440685579 61.368269823769516
318.9974428561984 174.16448711477753 68.53424751990312
292.42152920364845 165.26253157726688 55.38254728684461
318.6871100155576 159.10901503958826 67.5394105550303
302.5860752917597 177.48737544168992 67.34721326590609
295.29996475100535 157.426742087046 55.434658919834696
314.3209286013769 147.19991811639255 67.79632185903012
296.97983069835436 162.74062335246907 44.75758246177411
320.7020693600375 170.96547687774859 66.29014560531765
304.6930192653113 171.1212398555893 70.50825375591091
317.70734943437435 158.99816073838372 49.70453754283128
321.01577381246045 176.58209132728476 56.667016156730796
320.64846970767667 168.24584123452019 66.62942483625183
319.306866788788 171.96874601887535 68.34299164555931
320.19553700005423 158.92912511814703 60.52583993477339
316.83769265866744 161.3181438065483 49.640862295726755
296.4100746949569 166.03483520285437 64.95081271146779
300.3627032894785 175.25439629794363 56.6050384299237
317.11190867366315 174.97945952627595 68.56469285276843
313.75439742976346 159.76027751943423 46.29841870509704
321.34134451273 172.98907969871703 65.29458561837558
306.2679090722738 156.68200048251657 43.41960959139389
319.53407843803626 158.55515949796006 65.47353410807811
320.43613398342495 176.1552057266654 63.28052417903959
309.56299083461687 153.75592411405515 45.66562371477755
297.1511031027224 170.66485857239212 49.583817562657906
313.1736462295494 165.74293794091915 47.75850207711948
292.376839673466 163.10847955290436 53.83413120287887
297.56451369256644 156.60095291986565 49.96604181857156
300.889527853581 173.0812433721869 65.82626762783616
312.727981922857 145.1237398081145 60.24582742978709
301.57741382681434 179.85350488826776 62.569321433253826
301.0230517665985 176.57483797825614 65.09822541952308
299.88514957186965 173.46120848079724 62.236712329578744
302.51333922966245 168.848356471431 70.93374382421712
294.4610312458344 159.83308811509988 64.09649051898958
297.7805275940245 158.0302284115107 47.748439906715966
297.82049292135406 152.34694999787018 60.26815720226476
319.0862245208333 166.92016261122598 68.19257870483084
302.104451563898 165.03045700648303 71.14896885638505
319.27433077935956 150.0760052460707 52.4184917572164
303.3142895756194 170.76260595362652 69.42672275372597
315.8870742287878 155.76121612681754 70.98362464823835
313.67570439999236 145.89253568707554 54.389058655087446
309.3376679800229 147.59703948303076 66.71651468169053
294.44328743770706 168.2976616313971 51.582341580687824
317.85602493432725 160.43755699834864 50.723059006882586
302.16240789424666 180.3487484629076 60.33101091004712
302.4443950631774 152.35889227705712 70.06327042989037
320.1387197319458 150.79059615400877 63.96866657987901
295.4511325577181 168.72452848351787 61.52707256682921
308.57438323921366 171.88230789370664 71.24466902948873
308.10762105957275 181.05143067170926 59.74707230320205
306.33055809054565 168.524777391156 72.31312497987447
303.332574607092 161.59628095169435 72.17601617754892
308.1044931952045 180.02842159258446 64.87575614059682
314.3101512872748 163.61908481443479 47.94788609686885
302.05242259424205 180.0614283224789 64.14365055284593
293.3268182739285 165.5346518314303 52.60672392670977
310.97125440369376 173.1765795717307 51.528629613406686
312.7219147271572 162.82856979249937 46.27694229825239
314.2438826252352 170.9654369664452 50.77054944151984
318.5640206311265 156.36887535935298 49.731894349891746
307.41228880566536 176.7776329770304 52.00021941652595
322.14803113871454 165.909233177679 53.14867630265652
302.1080212650954 174.77207967016912 66.82135494330011
296.1834536188987 170.8569527955942 60.33600576207212
294.36023812027923 163.6743268122068 48.96821976277834
307.78117902127735 173.10728554994438 50.00055126405874
307.35316786453956 160.5137442821859 74.68517868139436
308.1274110159879 154.46370602036015 72.85828397674926
296.19290951701225 162.22889313572637 66.8740807644563
306.89225319865017 171.25432515800406 45.2175492491001
312.57901460279083 156.5738780451982 45.92551018546723
298.7198258210502 155.09878667995568 49.23125406794156
318.28952425234263 175.2994427843916 52.43085257379224
306.2700366470876 178.7916687856245 52.84328717981468
312.04436805834155 166.38952764687514 74.02264523289965
325.0551442388236 173.3926818580028 60.81268590664633
310.14591503796277 170.6181569971252 71.57173848480214
298.55956017411376 151.7353712621925 54.31049040930068
299.76871043523244 153.83463149273896 48.70020048834392
296.4051174089694 154.98228129295367 63.67169015661629
320.3617348045975 150.41420596122907 55.24106901094855
308.87930397559046 164.03846371930808 41.52743479955014
319.3381046378893 175.89335805767973 53.99169969510534
302.9502101305695 147.7741504597054 56.629084560880735
319.5466815613643 168.36996001778186 50.48295410977231
311.0995628806947 159.99320711442115 44.16021337675408
311.23233834415703 178.57297501218775 57.53459220372107
294.51317002643594 169.15814937641153 59.00416106588609
300.0381884658606 160.05588106978217 70.19930118926477
313.2774732314949 164.61707095013523 73.6377744195552
321.2452657574006 154.05281076356985 57.86904637203883
301.86280547053303 149.3370011430847 64.92195533500005
305.8973587115319 159.39920001801838 73.6241662527915
306.58602892465336 153.7150044432514 73.04918704290004
POLYGONS 1556 6224
3 260 2 292
3 8 9 7
3 11 10 36
3 5 4 433
3 12 11 36
3 1 12 0
3 0 13 8
3 1 0 8
3 39 0 12
3 39 13 0
3 17 18 16
3 28 21 2
3 260 30 2
3 260 694 30
3 31 32 28
3 34 662 33
3 481 34 4
3 481 3 341
3 31 9 37
3 31 37 32
3 36 71 35
3 10 4 34
3 36 35 12
3 8 38 9
3 9 38 37
3 39 35 106
3 39 12 35
3 56 54 55
3 57 56 55
3 53 51 16
3 18 53 16
3 19 55 18
3 57 55 19
3 21 57 19
3 21 61 57
3 761 65 61
3 28 32 761
3 32 68 65
3 32 65 761
3 662 772 33
3 70 68 32
3 32 37 70
3 71 69 72
3 71 72 35
3 71 33 772
3 35 72 106
3 37 38 73
3 39 106 164
3 13 39 107
3 73 13 107
3 38 13 73
3 89 91 90
3 94 92 93
3 91 52 54
3 91 54 93
3 93 54 56
3 61 65 98
3 102 99 98
3 65 102 98
3 65 68 102
3 103 101 104
3 103 104 69
3 105 69 104
3 69 105 72
3 106 105 130
3 106 72 105
3 164 107 39
3 120 114 508
3 88 90 121
3 121 90 92
3 94 122 116
3 116 92 94
3 122 95 98
3 122 98 99
3 99 691 695
3 102 691 99
3 738 128 101
3 738 101 127
3 101 128 104
3 104 128 105
3 131 132 674
3 130 186 164
3 106 130 164
3 113 114 141
3 144 721 142
3 116 143 115
3 142 151 143
3 115 150 121
3 116 152 144
3 116 122 152
3 152 122 99
3 152 99 695
3 154 124 153
3 177 156 154
3 124 154 156
3 695 691 155
3 156 177 157
3 691 696 155
3 159 160 161
3 738 162 128
3 157 160 158
3 163 162 161
3 128 162 163
3 128 163 130
3 130 163 186
3 721 171 142
3 174 172 173
3 148 173 172
3 142 173 151
3 171 175 174
3 734 177 176
3 154 176 177
3 762 280 734
3 155 179 178
3 155 696 179
3 177 180 157
3 696 181 179
3 160 182 161
3 183 184 180
3 160 157 180
3 180 280 183
3 161 182 185
3 161 185 163
3 182 316 185
3 182 184 316
3 163 185 186
3 348 186 185
3 165 187 674
3 187 186 348
3 186 187 165
3 164 186 165
3 454 237 268
3 454 172 174
3 454 174 237
3 175 418 237
3 237 174 175
3 661 183 283
3 183 280 283
3 316 184 183
3 183 661 316
3 185 316 348
3 316 512 348
3 187 348 512
3 607 431 418
3 661 283 461
3 635 179 181
3 661 512 316
3 431 607 623
3 607 635 623
3 607 179 635
3 635 661 623
3 661 635 512
3 659 768 6
3 694 260 659
3 659 6 694
3 3 481 4
3 3 4 5
3 4 10 11
3 4 11 433
3 11 12 1
3 1 433 11
3 30 31 28
3 28 2 30
3 29 662 34
3 29 34 481
3 33 71 36
3 10 34 33
3 33 36 10
3 8 13 38
3 115 121 92
3 92 116 115
3 130 105 128
3 144 142 143
3 143 116 144
3 150 115 143
3 156 157 158
3 158 124 156
3 159 161 162
3 162 738 159
3 158 160 159
3 173 142 171
3 171 174 173
3 160 180 184
3 184 182 160
3 418 416 237
3 418 178 607
3 416 418 431
3 431 282 416
3 431 461 282
3 607 178 179
3 461 431 623
3 5 768 758
3 7 694 6
3 1 8 7
3 19 18 17
3 17 20 19
3 21 19 20
3 20 2 21
3 416 282 678
3 292 2 20
3 66 103 772
3 114 113 112
3 150 149 120
3 154 153 724
3 724 153 146
3 283 280 762
3 280 180 734
3 734 180 177
3 762 734 473
3 678 266 760
3 178 721 155
3 69 772 103
3 69 71 772
3 153 124 748
3 473 734 176
3 102 68 703
3 706 131 70
3 70 131 68
3 120 705 114
3 114 705 141
3 120 149 705
3 705 149 141
3 129 691 703
3 703 691 102
3 187 701 674
3 706 37 73
3 165 674 132
3 129 696 691
3 187 512 701
3 674 701 684
3 129 131 674
3 706 132 131
3 684 181 696
3 696 129 684
3 684 129 674
3 73 107 132
3 684 701 181
3 131 703 68
3 131 129 703
3 37 706 70
3 706 73 132
3 165 132 107
3 512 181 701
3 100 127 487
3 487 127 101
3 21 761 61
3 21 28 761
3 31 30 9
3 107 164 165
3 661 461 623
3 237 416 268
3 416 678 268
3 181 512 635
3 94 95 122
3 155 721 695
3 171 721 175
3 144 152 695
3 695 721 144
3 175 721 178
3 418 175 178
3 662 66 772
3 172 170 148
3 170 650 148
3 169 611 501
3 169 208 611
3 140 570 139
3 650 167 570
3 583 437 590
3 221 473 736
3 736 473 176
3 519 614 202
3 202 614 200
3 582 583 608
3 618 569 737
3 282 563 266
3 283 762 563
3 629 598 631
3 590 625 608
3 608 583 590
3 636 647 777
3 597 612 655
3 748 551 153
3 153 551 146
3 748 712 551
3 551 712 146
3 712 548 146
3 546 582 779
3 585 598 567
3 609 550 542
3 542 550 778
3 535 541 519
3 541 614 519
3 585 631 598
3 585 411 631
3 519 202 188
3 202 632 188
3 652 569 722
3 722 569 618
3 208 535 611
3 208 600 535
3 531 737 569
3 609 529 779
3 609 542 529
3 529 542 597
3 351 597 542
3 200 614 526
3 526 614 736
3 632 464 188
3 188 464 752
3 464 778 752
3 752 524 501
3 524 550 625
3 722 618 200
3 200 618 202
3 611 519 188
3 611 535 519
3 737 518 632
3 136 517 145
3 145 517 504
3 517 601 504
3 146 593 724
3 724 593 717
3 354 563 762
3 83 700 82
3 82 700 84
3 221 541 535
3 114 112 508
3 146 507 593
3 593 507 145
3 146 548 507
3 507 548 145
3 145 506 136
3 145 548 506
3 506 548 117
3 168 593 504
3 504 593 145
3 608 625 609
3 625 550 609
3 188 501 611
3 188 752 501
3 717 499 724
3 736 176 499
3 200 526 494
3 494 526 717
3 351 587 568
3 737 531 587
3 587 531 568
3 354 221 600
3 600 221 535
3 147 492 712
3 118 117 492
3 601 480 504
3 601 648 480
3 202 618 632
3 618 737 632
3 775 486 169
3 169 486 208
3 775 760 486
3 486 760 208
3 518 737 587
3 587 351 518
3 147 485 119
3 119 485 123
3 147 715 485
3 485 715 123
3 504 480 168
3 168 480 722
3 480 652 722
3 124 687 748
3 748 687 715
3 569 652 554
3 482 500 561
3 283 563 461
3 461 563 282
3 568 474 557
3 557 474 774
3 568 531 474
3 474 531 774
3 354 473 221
3 354 762 473
3 200 494 722
3 722 494 168
3 593 168 717
3 168 494 717
3 614 541 736
3 736 541 221
3 632 518 464
3 464 518 778
3 113 525 112
3 113 138 525
3 208 760 600
3 760 266 600
3 770 51 50
3 118 456 117
3 733 572 456
3 456 572 117
3 87 449 86
3 86 449 88
3 87 89 449
3 64 447 742
3 113 445 138
3 573 732 138
3 111 525 732
3 732 525 138
3 546 134 558
3 411 440 631
3 430 520 46
3 508 429 120
3 88 121 429
3 60 427 46
3 626 660 81
3 626 432 660
3 660 432 80
3 423 573 138
3 636 417 647
3 594 663 415
3 585 557 411
3 411 557 774
3 598 410 567
3 612 408 655
3 655 408 134
3 775 544 268
3 544 170 172
3 585 407 557
3 557 407 622
3 585 567 407
3 112 404 470
3 470 404 111
3 112 525 404
3 404 525 111
3 44 523 58
3 44 527 523
3 631 398 629
3 48 393 47
3 523 500 58
3 58 500 441
3 141 628 140
3 742 452 64
3 582 546 511
3 511 546 135
3 136 506 572
3 572 506 117
3 134 439 655
3 655 439 779
3 134 546 439
3 439 546 779
3 749 733 456
3 456 118 749
3 480 648 652
3 648 554 652
3 648 677 554
3 677 440 411
3 601 388 648
3 126 386 158
3 158 386 124
3 126 687 386
3 386 687 124
3 733 516 572
3 377 434 75
3 398 631 440
3 612 597 568
3 597 351 568
3 612 469 622
3 622 469 557
3 612 568 469
3 469 568 557
3 108 417 373
3 373 417 578
3 672 414 372
3 372 414 584
3 407 567 394
3 300 699 540
3 516 380 699
3 699 380 540
3 383 566 373
3 373 578 383
3 468 338 451
3 48 427 338
3 338 427 451
3 151 363 149
3 88 697 86
3 508 463 697
3 697 463 86
3 81 458 626
3 517 136 300
3 300 601 517
3 516 699 572
3 572 699 136
3 699 300 136
3 380 329 540
3 712 492 548
3 548 492 117
3 520 743 483
3 483 743 45
3 520 430 743
3 743 430 45
3 556 362 613
3 613 362 656
3 556 403 362
3 362 403 656
3 361 438 43
3 358 520 483
3 663 381 415
3 630 328 685
3 728 741 328
3 579 741 728
3 629 410 598
3 742 447 638
3 638 447 29
3 549 408 622
3 622 408 612
3 452 467 59
3 60 443 467
3 82 391 83
3 125 687 126
3 561 409 708
3 516 536 380
3 582 753 779
3 779 753 609
3 582 608 753
3 753 608 609
3 520 489 46
3 48 709 427
3 427 709 46
3 48 430 709
3 709 430 46
3 451 24 468
3 24 371 468
3 79 773 749
3 749 773 733
3 742 638 22
3 430 739 45
3 45 739 47
3 430 48 739
3 739 48 47
3 779 529 655
3 655 529 597
3 77 707 657
3 451 634 23
3 23 634 60
3 451 427 634
3 634 427 60
3 760 775 678
3 678 775 268
3 569 554 531
3 531 554 774
3 23 742 22
3 23 452 742
3 166 538 590
3 590 538 625
3 496 533 299
3 496 409 533
3 550 752 778
3 550 524 752
3 169 337 775
3 169 552 337
3 337 552 596
3 678 282 266
3 501 356 169
3 169 356 552
3 501 524 356
3 356 524 552
3 87 458 355
3 266 354 600
3 266 563 354
3 778 351 542
3 778 518 351
3 58 350 44
3 44 350 59
3 58 446 350
3 350 446 59
3 613 347 765
3 567 410 347
3 347 410 765
3 46 651 60
3 60 651 443
3 46 489 651
3 651 489 443
3 63 344 66
3 63 465 344
3 434 342 75
3 123 442 119
3 60 467 23
3 23 467 452
3 22 744 23
3 24 451 744
3 744 451 23
3 119 716 147
3 119 391 716
3 716 391 118
3 681 410 629
3 22 341 25
3 22 638 341
3 147 340 715
3 715 340 748
3 147 712 340
3 340 712 748
3 552 538 596
3 596 538 166
3 338 393 48
3 337 544 775
3 625 538 524
3 524 538 552
3 736 499 526
3 526 499 717
3 724 692 154
3 154 692 176
3 724 499 692
3 692 499 176
3 268 544 454
3 454 544 172
3 366 698 693
3 85 336 49
3 59 755 44
3 443 395 755
3 45 702 483
3 43 658 702
3 702 658 483
3 77 756 438
3 438 756 43
3 77 658 756
3 756 658 43
3 540 754 388
3 388 754 440
3 754 398 440
3 463 637 86
3 626 458 637
3 398 718 629
3 556 683 403
3 556 381 683
3 683 381 663
3 633 536 516
3 516 733 633
3 15 666 14
3 25 509 24
3 509 26 14
3 488 466 324
3 341 638 481
3 481 638 29
3 536 633 450
3 299 534 588
3 534 690 588
3 85 355 334
3 685 710 397
3 397 710 543
3 329 754 540
3 676 488 379
3 681 629 718
3 718 676 681
3 41 643 657
3 657 643 77
3 41 658 643
3 643 658 77
3 466 718 329
3 329 718 398
3 432 723 80
3 723 419 639
3 536 466 380
3 466 329 380
3 584 276 372
3 584 688 276
3 466 536 324
3 466 488 718
3 718 488 676
3 24 744 25
3 25 744 22
3 419 575 399
3 676 353 681
3 676 332 353
3 368 326 710
3 710 326 543
3 676 379 332
3 332 379 396
3 479 265 74
3 265 719 74
3 324 536 450
3 579 368 741
3 368 710 741
3 372 763 672
3 372 249 763
3 112 668 508
3 508 668 463
3 112 470 668
3 668 470 463
3 733 773 633
3 633 773 630
3 754 329 398
3 41 771 658
3 658 771 483
3 41 358 771
3 771 358 483
3 588 690 491
3 315 353 332
3 457 704 657
3 688 528 276
3 554 677 774
3 774 677 411
3 14 364 371
3 371 364 770
3 14 666 364
3 364 666 770
3 688 682 396
3 396 682 332
3 688 584 682
3 305 680 49
3 87 355 680
3 50 571 770
3 630 450 633
3 556 720 381
3 381 720 414
3 556 424 720
3 720 424 414
3 765 424 613
3 613 424 556
3 770 547 51
3 51 547 16
3 770 666 547
3 547 666 16
3 728 328 592
3 567 347 394
3 332 682 315
3 315 682 584
3 763 673 672
3 672 673 415
3 622 369 549
3 549 369 394
3 622 407 369
3 369 407 394
3 395 335 357
3 396 379 339
3 315 424 353
3 353 424 765
3 26 509 352
3 352 509 25
3 664 534 299
3 406 670 319
3 319 670 76
3 51 323 50
3 323 52 305
3 414 672 381
3 672 415 381
3 415 318 594
3 594 318 562
3 415 673 318
3 318 673 562
3 414 315 584
3 414 424 315
3 42 767 314
3 314 767 358
3 549 313 133
3 133 313 656
3 549 394 313
3 313 394 656
3 311 335 395
3 647 310 777
3 777 310 133
3 366 43 702
3 702 45 366
3 43 308 361
3 43 366 308
3 308 366 693
3 767 309 358
3 358 309 520
3 309 489 520
3 281 307 79
3 402 592 307
3 749 330 79
3 330 391 82
3 402 728 592
3 773 627 630
3 773 79 627
3 24 509 371
3 371 509 14
3 630 627 328
3 328 627 592
3 79 330 281
3 281 330 82
3 16 301 17
3 16 666 301
3 301 666 15
3 648 388 677
3 677 388 440
3 307 592 627
3 627 79 307
3 388 300 540
3 388 601 300
3 741 685 328
3 741 710 685
3 579 728 385
3 544 521 170
3 544 337 521
3 521 337 596
3 500 523 561
3 523 409 561
3 40 533 527
3 500 462 441
3 500 482 462
3 62 446 441
3 441 446 58
3 292 345 27
3 301 15 345
3 345 17 301
3 3 758 352
3 3 5 758
3 352 758 26
3 758 306 26
3 341 352 25
3 281 304 307
3 307 304 402
3 299 588 496
3 527 357 40
3 40 299 533
3 40 664 299
3 52 91 305
3 305 91 89
3 306 289 15
3 27 345 289
3 289 345 15
3 768 297 758
3 391 330 118
3 118 330 749
3 482 304 84
3 433 6 5
3 6 768 5
3 49 323 305
3 85 729 698
3 698 729 693
3 85 334 729
3 729 334 693
3 17 292 20
3 17 345 292
3 26 306 14
3 14 306 15
3 27 297 659
3 659 297 768
3 396 595 688
3 306 297 289
3 289 297 27
3 279 327 326
3 758 297 306
3 84 281 82
3 84 304 281
3 484 279 368
3 279 326 368
3 377 277 434
3 277 322 434
3 249 276 616
3 276 528 616
3 528 327 401
3 327 279 401
3 479 74 690
3 249 591 763
3 401 271 711
3 401 279 271
3 616 711 264
3 434 322 265
3 265 322 719
3 711 719 322
3 1 7 433
3 433 7 6
3 342 434 265
3 265 479 342
3 74 271 484
3 484 271 279
3 372 276 249
3 75 342 580
3 394 347 656
3 656 347 613
3 410 681 765
3 765 681 353
3 3 352 341
3 711 271 719
3 719 271 74
3 292 27 260
3 260 27 659
3 577 298 80
3 399 285 419
3 419 285 639
3 399 412 285
3 285 412 639
3 670 270 76
3 270 559 76
3 763 258 673
3 673 258 560
3 763 591 258
3 258 591 560
3 657 707 457
3 75 256 377
3 377 256 457
3 75 704 256
3 256 704 457
3 438 255 436
3 406 259 670
3 670 259 457
3 406 377 259
3 259 377 457
3 693 254 745
3 745 254 81
3 693 334 254
3 254 334 81
3 436 270 707
3 436 252 438
3 438 252 77
3 436 707 252
3 252 707 77
3 361 255 438
3 559 250 505
3 505 250 436
3 559 270 250
3 250 270 436
3 732 573 425
3 78 248 110
3 110 248 530
3 78 575 248
3 248 575 530
3 745 308 693
3 621 649 413
3 413 649 253
3 649 257 253
3 403 246 777
3 777 246 636
3 47 244 698
3 698 244 85
3 244 336 85
3 400 636 246
3 246 663 400
3 558 241 109
3 558 310 241
3 241 310 647
3 400 240 578
3 530 575 615
3 275 413 642
3 442 286 83
3 636 238 417
3 417 238 578
3 636 400 238
3 238 400 578
3 405 236 374
3 405 242 236
3 147 716 492
3 492 716 118
3 108 242 727
3 566 232 373
3 373 232 108
3 232 242 108
3 698 603 47
3 47 603 45
3 698 366 603
3 603 366 45
3 383 532 566
3 413 275 532
3 532 275 566
3 135 261 109
3 109 261 558
3 135 546 261
3 261 546 558
3 675 251 689
3 251 242 405
3 108 727 235
3 235 727 109
3 727 234 109
3 109 234 135
3 727 675 234
3 241 647 235
3 235 109 241
3 578 422 383
3 383 422 621
3 578 240 422
3 656 671 133
3 133 671 777
3 656 403 671
3 671 403 777
3 134 444 558
3 133 310 444
3 444 310 558
3 133 444 549
3 135 234 555
3 555 234 675
3 242 382 727
3 727 382 675
3 242 251 382
3 382 251 675
3 574 420 564
3 574 555 420
3 437 564 231
3 140 229 141
3 141 229 113
3 140 445 229
3 229 445 113
3 610 228 445
3 445 228 138
3 610 423 228
3 228 423 138
3 137 227 423
3 423 227 573
3 387 227 689
3 334 225 81
3 81 225 458
3 334 355 225
3 225 355 458
3 405 224 387
3 405 374 224
3 224 374 110
3 620 437 231
3 689 251 387
3 387 251 405
3 166 243 596
3 429 508 697
3 697 88 429
3 689 222 675
3 675 222 555
3 336 50 49
3 50 323 49
3 274 231 564
3 420 555 222
3 222 137 420
3 137 389 227
3 227 389 689
3 137 222 389
3 389 222 689
3 660 745 81
3 583 574 437
3 437 574 564
3 166 590 620
3 620 590 437
3 521 596 243
3 243 170 521
3 52 747 53
3 53 747 51
3 52 323 747
3 747 323 51
3 336 244 393
3 393 244 47
3 620 167 166
3 167 243 166
3 549 731 408
3 408 731 134
3 549 444 731
3 731 444 134
3 620 725 167
3 620 231 725
3 725 231 139
3 170 243 650
3 650 243 167
3 120 429 150
3 150 429 121
3 91 581 90
3 90 581 92
3 91 93 581
3 581 93 92
3 140 628 570
3 570 628 650
3 446 553 64
3 64 553 746
3 446 62 553
3 553 62 746
3 9 694 7
3 9 30 694
3 149 686 141
3 141 686 628
3 149 363 686
3 686 363 628
3 100 586 127
3 582 522 583
3 583 522 574
3 582 511 522
3 522 511 574
3 776 502 470
3 470 502 463
3 776 637 502
3 502 637 463
3 759 667 97
3 714 645 123
3 645 442 123
3 59 751 452
3 452 751 64
3 59 446 751
3 751 446 64
3 111 640 470
3 640 776 470
3 746 606 67
3 67 606 63
3 746 759 606
3 606 759 63
3 50 336 571
3 571 336 393
3 462 537 441
3 667 62 537
3 537 62 441
3 29 497 662
3 662 497 67
3 29 447 497
3 497 447 67
3 86 495 87
3 87 495 458
3 86 637 495
3 495 637 458
3 610 445 139
3 445 140 139
3 476 539 487
3 487 539 100
3 476 735 103
3 103 735 101
3 476 487 735
3 735 487 101
3 465 476 344
3 465 539 476
3 770 468 371
3 770 571 468
3 126 654 125
3 654 738 127
3 610 435 423
3 423 435 137
3 610 274 435
3 435 274 137
3 574 511 555
3 555 511 135
3 343 286 96
3 730 96 645
3 645 714 730
3 730 617 96
3 715 426 123
3 426 714 123
3 137 274 420
3 420 274 564
3 573 390 425
3 700 321 84
3 700 455 321
3 586 125 654
3 654 127 586
3 97 302 460
3 460 302 343
3 87 680 89
3 89 680 305
3 468 571 338
3 338 571 393
3 465 376 539
3 460 617 376
3 376 617 539
3 100 641 586
3 586 641 714
3 100 730 641
3 641 730 714
3 667 537 510
3 510 537 462
3 63 370 465
3 465 370 97
3 63 759 370
3 370 759 97
3 455 286 343
3 645 96 442
3 96 286 442
3 628 360 650
3 650 360 148
3 628 363 360
3 360 363 148
3 62 359 746
3 746 359 759
3 62 667 359
3 359 667 759
3 96 617 343
3 343 617 460
3 302 510 455
3 447 333 67
3 67 333 746
3 447 64 333
3 333 64 746
3 66 344 103
3 103 344 476
3 539 459 100
3 100 459 730
3 539 617 459
3 459 617 730
3 84 602 482
3 482 602 462
3 84 321 602
3 602 321 462
3 83 286 700
3 286 455 700
3 119 428 391
3 391 428 83
3 119 442 428
3 428 442 83
3 66 325 63
3 63 325 67
3 66 662 325
3 325 662 67
3 455 510 321
3 321 510 462
3 460 376 97
3 97 376 465
3 738 317 159
3 738 654 317
3 317 654 126
3 302 455 343
3 667 302 97
3 667 510 302
3 231 619 139
3 139 619 610
3 231 274 619
3 619 274 610
3 167 725 570
3 570 725 139
3 125 498 687
3 687 498 715
3 125 426 498
3 498 426 715
3 324 472 488
3 488 472 379
3 324 339 472
3 472 339 379
3 363 392 148
3 148 392 173
3 363 151 392
3 392 151 173
3 150 296 149
3 149 296 151
3 150 143 296
3 296 143 151
3 49 448 85
3 85 448 355
3 49 680 448
3 448 680 355
3 88 449 90
3 90 449 89
3 565 769 562
3 562 769 594
3 565 240 769
3 769 240 594
3 384 599 365
3 599 303 365
3 642 726 320
3 562 295 565
3 565 295 493
3 562 303 295
3 264 294 591
3 624 644 294
3 726 290 412
3 275 642 288
3 253 273 413
3 413 273 642
3 273 726 642
3 275 236 566
3 320 78 288
3 288 642 320
3 365 269 319
3 319 269 406
3 365 644 269
3 365 267 644
3 644 267 560
3 365 303 267
3 267 303 560
3 76 263 384
3 384 263 349
3 76 559 263
3 349 253 257
3 349 589 253
3 349 247 589
3 349 263 247
3 247 263 559
3 589 273 253
3 242 232 236
3 236 232 566
3 257 223 493
3 493 223 565
3 413 532 621
3 621 532 383
3 565 219 240
3 621 422 219
3 219 422 240
3 223 621 219
3 219 565 223
3 349 218 384
3 349 257 218
3 218 257 493
3 649 621 223
3 223 257 649
3 76 217 319
3 319 217 365
3 76 384 217
3 217 384 365
3 108 514 417
3 417 514 647
3 108 235 514
3 514 235 647
3 264 249 616
3 264 591 249
3 401 230 528
3 528 230 616
3 401 711 230
3 230 711 616
3 714 740 586
3 586 740 125
3 714 426 740
3 740 426 125
3 374 713 288
3 288 713 275
3 374 236 713
3 713 236 275
3 745 226 298
3 298 226 80
3 745 660 226
3 226 660 80
3 80 471 577
3 639 216 471
3 471 216 577
3 515 220 505
3 505 220 559
3 515 247 220
3 220 247 559
3 224 110 390
3 390 387 224
3 599 384 218
3 218 493 599
3 726 215 290
3 290 215 589
3 726 273 215
3 215 273 589
3 589 214 290
3 290 214 515
3 589 247 214
3 214 247 515
3 515 213 290
3 290 213 412
3 515 216 213
3 615 212 530
3 212 425 530
3 723 432 766
3 766 419 723
3 374 287 110
3 110 287 78
3 374 288 287
3 287 288 78
3 626 211 432
3 211 766 432
3 419 210 575
3 575 210 615
3 419 766 210
3 210 766 615
3 766 209 615
3 776 640 209
3 209 640 615
3 640 111 212
3 212 615 640
3 78 207 575
3 575 207 399
3 78 320 207
3 207 320 399
3 595 206 543
3 595 396 206
3 206 396 339
3 595 327 688
3 688 327 528
3 577 204 255
3 577 216 204
3 399 203 412
3 412 203 726
3 399 320 203
3 203 320 726
3 560 291 673
3 673 291 562
3 560 303 291
3 291 303 562
3 707 278 457
3 457 278 670
3 707 270 278
3 278 270 670
3 425 201 732
3 732 201 111
3 425 212 201
3 201 212 111
3 591 294 560
3 560 294 644
3 505 199 515
3 515 199 216
3 505 204 199
3 199 204 216
3 361 198 298
3 298 198 745
3 361 308 198
3 198 308 745
3 412 213 639
3 639 213 216
3 387 196 227
3 227 196 573
3 387 390 196
3 196 390 573
3 493 295 599
3 599 295 303
3 624 293 406
3 406 293 377
3 624 277 293
3 293 277 377
3 639 471 723
3 723 471 80
3 324 262 339
3 339 262 397
3 324 450 262
3 262 450 397
3 594 453 663
3 663 453 400
3 594 240 453
3 453 240 400
3 663 246 683
3 683 246 403
3 543 206 397
3 397 206 339
3 406 269 624
3 624 269 644
3 624 764 277
3 277 764 322
3 322 757 711
3 711 757 264
3 322 764 757
3 757 764 264
3 577 653 298
3 298 653 361
3 577 255 653
3 653 255 361
3 425 378 530
3 530 378 110
3 425 390 378
3 378 390 110
3 255 646 436
3 436 646 505
3 255 204 646
3 646 204 505
3 450 245 397
3 397 245 685
3 450 630 245
3 245 630 685
3 264 764 294
3 294 764 624
3 543 326 595
3 595 326 327
3 211 776 209
3 209 766 211
3 776 665 637
3 637 665 626
3 776 211 665
3 665 211 626
3 580 604 375
3 580 331 604
3 604 331 42
3 579 750 368
3 368 750 484
3 579 491 750
3 750 491 484
3 479 605 342
3 61 576 57
3 57 576 56
3 576 95 56
3 755 395 357
3 93 490 94
3 94 490 95
3 93 56 490
3 490 56 95
3 561 478 482
3 561 708 478
3 478 708 402
3 95 576 98
3 98 576 61
3 42 331 312
3 42 239 767
3 42 312 239
3 239 312 335
3 342 346 580
3 580 346 331
3 342 605 346
3 346 605 331
3 53 233 52
3 52 233 54
3 233 55 54
3 55 233 18
3 18 233 53
3 664 367 534
3 331 605 367
3 367 605 534
3 728 197 385
3 385 197 708
3 728 402 197
3 197 402 708
3 311 767 239
3 239 335 311
3 534 545 690
3 690 545 479
3 534 605 545
3 545 605 479
3 484 284 74
3 74 284 690
3 484 491 284
3 284 491 690
3 40 205 664
3 335 312 205
3 205 312 664
3 491 513 588
3 385 496 513
3 513 496 588
3 331 475 312
3 312 475 664
3 331 367 475
3 475 367 664
3 580 503 75
3 75 503 704
3 580 375 503
3 503 375 704
3 489 195 443
3 443 195 395
3 489 311 195
3 195 311 395
3 443 194 467
3 467 194 59
3 443 755 194
3 194 755 59
3 375 193 41
3 41 193 358
3 375 314 193
3 193 314 358
3 704 669 657
3 657 669 41
3 704 375 669
3 669 375 41
3 385 421 579
3 579 421 491
3 385 513 421
3 421 513 491
3 159 272 158
3 158 272 126
3 159 317 272
3 272 317 126
3 482 478 304
3 304 478 402
3 708 477 385
3 385 477 496
3 708 409 477
3 477 409 496
3 375 192 314
3 314 192 42
3 375 604 192
3 192 604 42
3 335 191 357
3 357 191 40
3 335 205 191
3 191 205 40
3 489 190 311
3 311 190 767
3 489 309 190
3 190 309 767
3 44 189 527
3 527 189 357
3 44 755 189
3 189 755 357
3 527 679 523
3 523 679 409
3 527 533 679
3 679 533 409
