# vtk DataFile Version 3.0
A great-looking cell
ASCII
DATASET POLYDATA
POINTS 190 double
291.6458625458102 332.9807380703892 2.884967291545837
293.03468203942043 331.8149997472178 3.2510314454118547
295.1131045946622 331.3328493581069 3.889250710399282
293.4253112520714 331.59772856952566 5.37940968721618
297.120212603911 331.2757633919935 4.759705221299952
290.3953930026096 334.2208914093238 3.7707797968302725
298.94666690946724 333.06345384116065 2.531665890098109
292.2883905028485 334.01383261029736 -0.42226986055630344
301.0916872143991 334.20717949798683 4.816659283900459
302.3485058585296 335.76161695098716 5.482236656378424
292.54167951103136 335.6477231317764 -1.4282504930115538
299.13507020046836 334.945632407323 -3.136847916169021
290.0201770457318 336.0836323665869 2.170938142752381
303.0321288096399 338.27547387188 2.9144266430858017
290.45656451176853 338.03142160399165 0.639880238821858
295.2067383285912 343.20773900879664 0.13075195947199955
299.05637393965384 343.7652558657817 0.15856716533446427
301.05524007243173 342.5614037568366 1.5228530893277459
301.35092528368966 342.75725216075955 4.0478760483799885
302.6411123433852 340.78592153817976 2.836427939800788
297.1659946559644 343.92251287621787 1.714153807287382
295.0866298477552 343.57415523370844 3.0172440102520284
292.093151034987 332.348984464466 6.656912754553172
295.42267432981464 331.24020626857896 6.142912592543196
297.6261654111518 331.8537841009123 8.668017529793511
301.33614961600136 334.43782821671033 6.49642222044924
289.3673145310516 336.3373974546379 4.705107179961753
304.224781670471 338.1505783683967 8.454279943610096
303.5268652813517 336.9911767773437 7.020145273205297
303.1398672597664 341.49101430214273 5.624178846752559
301.56517161950455 343.16769806378056 6.2926871066641965
290.40449549085236 340.4367013610064 4.223801757911849
299.5845967518185 343.8916031340251 5.418296154866024
299.2985429899207 343.6212629429288 2.8443206656390823
291.5598942343139 341.9038125274932 3.509477368750027
292.0460837595148 332.6648649956815 8.648051317197796
294.13919901428443 332.0686628790323 9.877476432910594
295.83135282499353 331.6325977749494 8.308273773946524
298.84063897849245 334.41897330393346 14.23035950001739
289.3428956150856 338.7699678769143 5.48633601376104
301.6120883805949 343.22710363018575 10.604369204001582
300.1021482770855 343.97784905484593 8.317680856156638
290.04826587004135 340.5761116395001 6.223705589181326
296.2606504067533 343.81381183731145 11.305637410238011
291.21951152600406 342.06456641584805 5.560861548516676
292.98071464147426 342.95172233141915 6.947594109071072
293.0740665773998 342.97819424003256 4.434388639672559
290.82690637559017 334.0779073104984 9.507558980630606
292.3141763914951 333.33381103234785 11.072496666743902
294.79337331340923 333.43713184223446 12.091862821046965
292.8569941846617 335.1097974821003 13.14916640046455
294.84495070196607 336.23085835750203 14.514426516261176
296.5951266252115 338.80434922275646 19.21630239543814
290.2737373909079 334.13465230588866 6.848217178702806
289.25650387316375 336.9970042971019 7.227384943227425
289.6907944024997 339.3029883379194 7.728057452077619
293.5009248765647 340.65038796873426 12.471241036866546
292.86051192490544 342.68088737315094 9.160287679824336
294.09772774082154 342.4347480071195 10.937869043723907
291.1901442441859 335.4165892006543 11.144893212009931
292.9430721183772 337.7971611080638 13.968219754421854
292.8286121393092 339.5566635393749 13.593630367641387
291.75825304424916 339.13161803217423 12.15179642563613
289.5119362950037 337.88199402154 9.129470032579572
290.26966584070055 339.64777396693484 10.007038326552538
290.2753016526392 337.4682384588169 10.980082571868085
290.17124719736046 335.9769313478064 9.154405138766126
298.8957766258359 332.76528468362727 9.695056207329914
296.50658025180684 334.5543049676682 13.402737389981002
303.51962367766595 340.2368560272494 14.437620427573487
296.5831775470439 333.46489970373545 11.98736063269433
301.26120641214936 337.5057272308734 18.380681253098768
302.92236684970493 339.3384462229217 1.2029508742335078
298.4770095607558 331.99238458227296 3.8532644121828707
296.2904518246515 332.14231265844643 -0.13787847202302883
296.66417803508574 332.18146222887907 10.616127860705713
294.25750535551373 337.914634473106 15.10538026391604
297.12031180004 331.6447050988751 2.336357273171737
296.53776356936106 341.13523034035876 19.758508341945657
302.1615469695651 335.7069554101948 13.07980689963108
300.44014044010106 336.76521009419776 -3.0602092726295402
300.1881554651594 333.2009035432091 6.182596342643486
299.0598784170264 332.29655406294455 7.585795751395913
301.0515277073086 343.5433079697202 12.267323561931525
298.4875085769122 332.6649961560809 0.39468391471744263
300.5763411074275 343.03937126548715 16.046737047078974
301.94326594352276 336.73314467858785 -1.0912109596802775
303.2024834881215 337.75139246666936 5.072370212392167
300.8030977841675 342.04549249273515 17.567858922332846
297.4048955463957 343.82043275512285 13.876201026839944
301.70354903814757 338.4298398933506 -2.5189557196785737
301.45730427545544 340.48917141085957 -1.9357012825417887
301.4785857970885 335.03086305294227 1.711311115961968
295.29375882609054 340.55553215042465 17.704368482163733
295.15088206991743 343.57819842868213 8.633603246966251
302.38221582987836 335.2607265326299 7.685663607565595
299.2772616288071 335.85497403367094 17.899286962804265
302.6581514327167 338.9468942685658 -0.7130604249830109
291.10801082908813 340.4978686282442 1.6701683869635662
295.6960535902782 342.65946463578655 15.95589605159061
291.00547935638787 341.4870844512093 8.119995335664157
300.32051052808157 343.53239837477446 14.135825473641104
297.2703539985109 335.6121694591236 15.966762425345088
299.53443355956625 334.85764449912125 16.07908827189741
301.2481011638991 335.87329314124577 16.644324883998774
303.54773903372126 339.55011023362897 4.531157459049257
295.3014876161922 337.7762627013253 16.755494712147513
303.8186972518914 340.9963860830348 7.362508207304988
299.2332013005582 344.0458092230205 11.426443670783543
302.78005575120386 342.4092703015426 8.247264796950923
304.066467551111 339.3123512601102 6.649040082132951
301.875952279052 335.268116813736 3.498612249914873
301.99382736813794 342.082701609342 15.471501935198807
303.6542855139649 337.75846632704224 13.146741725009063
297.41728749023804 343.1636131256067 -1.9604764031810566
297.38615941832524 331.3988150184379 6.881809690576045
295.130711849196 343.7144322012708 5.7032695848118635
303.00158322894555 336.21955450458495 11.211802862677077
296.6557031422692 342.549692563216 18.16395824342254
297.28564086807285 343.98433375761783 4.26192614236289
292.96382614392314 342.53648392802364 1.9682020182964226
302.2824130986033 337.5397700222666 16.573781399195102
299.8096476317982 332.9288809317919 4.294716910120955
303.3522265125705 338.26744314752875 15.426272131682484
302.3975218108956 339.75903613319133 17.018401729881436
294.96717462036634 341.43659767421224 -2.3447893822725674
303.9940106162566 340.20499705279514 11.819494701178384
301.9482799824968 335.0946022284715 9.757113599585693
303.22086033402167 341.8383917518067 10.52779448409751
294.3095297621972 339.94003561389906 14.875954862143699
294.8583856817327 342.5533201020355 13.356575305776063
300.0907941143976 333.92830059112475 1.0768385103766691
299.5722520332925 339.2383042804128 -2.983625313582794
297.6299980822973 337.5361513440901 -2.9112984022615667
304.0930944810307 338.09954380037124 10.508440265378352
301.64227548243986 335.0361810960692 11.505031356445473
291.73518314290243 337.50785948339325 -1.414939475461406
304.29627574119934 340.2920626002227 9.088845167649124
298.61650420785907 343.36914853900794 16.59919811933839
300.6146275302487 333.99308883799114 2.973562563972244
289.91919480255183 338.40204402617456 3.095739422395933
302.2977799767295 336.67746900756873 14.934084958732358
300.4558512064089 334.4895371116161 12.727619502476905
297.0843500416556 336.57919415029176 18.40192023654168
300.7047469986752 333.73838585299137 8.313664680282724
293.75387201671276 331.6614251135022 7.543143390790395
298.3777455410104 333.526664545052 11.982945076630559
302.74845566069155 336.6213679905042 3.824644058127711
302.42615782425975 336.42391755337826 2.2372980543878667
299.56626159683844 343.77106219334433 -1.8770425076491601
295.50967747437977 333.05739433607005 -1.9788010191094694
303.4851118725563 336.4346958934985 9.115174559975673
300.457740638286 333.91401999090004 10.710845057564894
299.7345217699818 342.0073709927344 -3.008067490125293
298.97384911214203 337.58070229960276 19.993791632624713
302.1946055997739 336.019365301196 0.6715139062689284
297.62611456463026 344.1501994905238 9.331354225827623
301.0132419934698 335.02563425831056 -2.0756328811087883
293.03185416337254 339.4141454026708 -2.2956048688899524
294.74581523733667 334.81275316598106 13.310759856545948
297.8118699782663 332.8460445234551 -2.1573624457779546
293.61097073173715 334.1158505202424 -2.477370769912141
302.2487974538602 340.9434930119867 0.26152163019672614
301.246832838438 334.94753251937766 -0.1525987941399359
291.19127183960944 335.84733322831073 0.07050794524407189
299.560776347747 334.1538542227654 -0.9558424401959704
298.772800734749 342.13708463265783 19.275196963656782
297.4633619156666 344.1870825962647 6.938699400425058
293.8247977658977 336.74450556361984 -2.915928385215553
292.6413020704454 341.6358456651111 -0.615901373505447
294.11259909232797 332.82219830226717 -0.4182984796038344
300.91722158868396 335.0681617181736 14.679310895661452
302.62322260727046 342.44272814692494 12.832211358499139
302.69200993045513 337.58282314484194 0.8464565555319623
290.99949575134457 334.0742503814972 1.4645603858269902
296.1347649589677 335.1840202654117 -2.979337532640971
295.25260754102135 338.79419539992205 -3.096266671032176
300.6351904912763 339.9853042707672 19.468829826455668
295.95894993968295 336.7375022954075 -2.8088438452458617
291.58154056913213 339.500348634608 -0.5381003199191945
294.6510709751458 331.6821398412344 1.5899298089018097
298.876736032682 331.85664639720807 5.588197671119117
292.6253636496284 332.64406630206355 1.2764310439881303
297.5288448751315 340.24739021282693 -2.772444844352634
291.81216887793016 336.98460598208743 12.271158018517083
292.00465882113735 341.2605229830144 10.672810487085904
297.1307681772876 344.10690216331824 -0.11844852326487944
291.6463591793157 332.65972110439594 4.787776375188381
298.28460377209507 340.01409597721783 20.78842697244639
300.92608491998243 342.591630572327 -0.9314317962588005
POLYGONS 376 1504
3 1 0 182
3 3 1 2
3 18 17 33
3 5 0 187
3 187 0 1
3 22 187 3
3 187 1 3
3 145 22 3
3 140 26 39
3 29 30 109
3 29 19 18
3 29 18 30
3 31 140 39
3 140 31 98
3 119 20 21
3 32 33 119
3 20 119 33
3 30 18 32
3 33 32 18
3 44 34 31
3 98 31 34
3 34 44 46
3 53 22 35
3 35 22 145
3 37 75 36
3 37 36 145
3 54 39 26
3 55 39 54
3 55 42 39
3 39 42 31
3 31 42 44
3 43 94 58
3 30 32 41
3 100 44 42
3 46 45 116
3 47 53 35
3 59 47 48
3 35 48 47
3 50 59 48
3 49 50 48
3 36 49 48
3 36 75 49
3 63 55 54
3 64 55 63
3 53 47 66
3 66 47 59
3 50 51 60
3 61 62 60
3 61 60 129
3 65 63 66
3 63 65 64
3 62 61 56
3 129 56 61
3 59 65 66
3 65 62 64
3 17 18 19
3 16 20 33
3 33 17 16
3 7 182 174
3 174 182 0
3 170 182 7
3 74 180 170
3 180 2 1
3 12 5 26
3 12 174 5
3 12 164 174
3 10 7 164
3 164 7 174
3 133 11 175
3 140 98 14
3 180 74 77
3 77 2 180
3 182 170 180
3 180 1 182
3 42 55 100
3 0 5 174
3 54 66 63
3 84 74 160
3 160 175 11
3 10 136 168
3 84 160 165
3 175 160 150
3 157 165 11
3 11 165 160
3 12 26 140
3 170 150 74
3 157 11 80
3 53 187 22
3 53 5 187
3 26 5 53
3 163 165 157
3 86 163 157
3 165 163 131
3 79 171 142
3 95 151 127
3 41 109 30
3 41 40 109
3 41 108 40
3 110 137 27
3 29 105 19
3 87 13 105
3 105 13 19
3 66 54 53
3 53 54 26
3 110 87 105
3 105 29 110
3 189 162 91
3 19 162 17
3 162 189 17
3 160 74 150
3 150 161 175
3 150 170 161
3 161 170 7
3 23 145 3
3 23 37 145
3 145 36 35
3 35 36 48
3 164 136 10
3 164 14 136
3 58 130 43
3 17 189 16
3 43 156 94
3 43 108 156
3 156 108 41
3 10 161 7
3 167 41 32
3 156 41 167
3 167 94 156
3 120 98 34
3 91 153 189
3 64 100 55
3 21 116 119
3 21 46 116
3 27 151 28
3 163 92 131
3 148 173 13
3 151 134 117
3 117 134 113
3 151 27 134
3 113 126 69
3 113 134 126
3 126 134 137
3 137 134 27
3 40 128 109
3 126 137 128
3 128 137 109
3 109 107 29
3 29 107 110
3 109 137 107
3 107 137 110
3 126 128 172
3 172 128 40
3 133 183 132
3 133 176 183
3 153 132 183
3 111 147 9
3 101 112 172
3 129 99 130
3 129 93 99
3 99 89 130
3 130 89 43
3 43 89 108
3 108 89 101
3 20 15 21
3 21 15 120
3 129 130 56
3 130 58 56
3 106 51 102
3 101 89 138
3 138 89 99
3 158 179 169
3 136 158 168
3 168 158 176
3 136 179 158
3 175 161 168
3 168 161 10
3 120 169 98
3 98 169 179
3 98 179 14
3 14 179 136
3 140 14 12
3 14 164 12
3 52 93 106
3 106 93 129
3 15 114 125
3 125 114 183
3 15 169 120
3 158 169 125
3 125 169 15
3 183 114 153
3 8 139 111
3 6 131 139
3 4 23 2
3 2 23 3
3 34 46 120
3 120 46 21
3 116 167 119
3 119 167 32
3 46 44 45
3 167 116 94
3 94 116 45
3 45 57 94
3 57 58 94
3 132 91 90
3 132 153 91
3 80 132 90
3 157 80 86
3 86 80 90
3 131 84 165
3 131 6 84
3 25 81 8
3 81 122 8
3 144 81 25
3 144 82 81
3 81 181 122
3 111 9 8
3 115 82 24
3 148 111 92
3 148 147 111
3 79 141 171
3 141 104 171
3 124 112 88
3 112 124 69
3 171 103 38
3 38 103 102
3 171 104 103
3 102 103 96
3 96 103 104
3 9 28 95
3 95 28 151
3 68 146 38
3 2 77 4
3 82 67 24
3 111 139 92
3 92 139 131
3 74 84 77
3 122 73 6
3 87 147 13
3 13 147 148
3 13 72 19
3 19 72 162
3 13 173 72
3 71 96 104
3 172 69 126
3 172 112 69
3 102 68 38
3 102 51 68
3 152 135 142
3 171 38 142
3 38 146 142
3 23 115 37
3 37 115 24
3 24 75 37
3 75 70 49
3 49 70 68
3 68 70 146
3 146 70 75
3 67 75 24
3 181 73 122
3 67 146 75
3 81 82 181
3 181 82 115
3 84 6 77
3 4 115 23
3 115 4 181
3 181 4 73
3 73 4 77
3 6 73 77
3 67 82 144
3 57 100 185
3 185 100 64
3 57 185 58
3 58 185 56
3 57 45 100
3 45 44 100
3 127 152 144
3 152 67 144
3 25 95 144
3 95 127 144
3 146 152 142
3 146 67 152
3 152 127 135
3 79 142 135
3 135 117 79
3 27 28 110
3 28 87 110
3 8 122 139
3 139 122 6
3 117 127 151
3 117 135 127
3 92 155 148
3 92 163 155
3 155 163 86
3 28 9 87
3 87 9 147
3 95 25 9
3 25 8 9
3 148 155 173
3 173 155 86
3 69 123 113
3 113 123 141
3 69 124 123
3 141 121 104
3 141 123 121
3 121 123 124
3 56 185 62
3 62 185 64
3 162 72 97
3 97 72 173
3 90 97 86
3 86 97 173
3 113 79 117
3 113 141 79
3 162 97 91
3 91 97 90
3 104 121 71
3 71 121 124
3 106 76 51
3 51 76 60
3 106 129 76
3 76 129 60
3 60 184 50
3 50 184 59
3 60 62 184
3 59 184 65
3 65 184 62
3 88 177 124
3 124 177 71
3 138 166 88
3 177 88 166
3 71 154 96
3 71 177 154
3 51 159 68
3 68 159 49
3 51 50 159
3 159 50 49
3 153 149 189
3 189 149 16
3 153 114 149
3 149 114 16
3 96 143 102
3 102 143 106
3 143 52 106
3 166 188 177
3 52 154 188
3 188 154 177
3 93 118 99
3 99 118 138
3 118 166 138
3 112 85 88
3 88 85 138
3 112 101 85
3 85 101 138
3 52 143 154
3 154 143 96
3 108 83 40
3 40 83 172
3 108 101 83
3 83 101 172
3 133 80 11
3 133 132 80
3 183 176 125
3 176 158 125
3 52 78 93
3 52 188 78
3 78 188 166
3 118 93 78
3 78 166 118
3 16 186 20
3 20 186 15
3 16 114 186
3 186 114 15
3 175 178 133
3 133 178 176
3 175 168 178
3 178 168 176
