# vtk DataFile Version 3.0
A great-looking cell
ASCII
DATASET POLYDATA
POINTS 184 double
289.7850259563845 333.41564188758446 2.5103812674884507
291.55697334898997 332.62721644499044 2.4058378772255278
293.523253751952 331.97860424690504 2.1551907049578056
292.9475039733153 332.33429311922737 4.434836487304989
295.7943484008235 331.8241323658235 3.29224736831882
288.60895972872703 334.5409924896522 3.824339851943105
293.34296564475926 332.2309653856246 -1.3500694490628886
297.8274471200783 332.23226105683847 1.0246317149607582
288.72195738200384 333.9170350131309 -1.3908376541235692
298.76848851358005 332.2861920861844 3.5347592350402595
301.11921205598753 333.3598735998812 4.225305556325577
288.6349146059943 336.40917231993336 -2.8329522468655095
295.2284101482523 336.2155505497367 -3.239644673919929
296.83909495759997 335.37594328181837 -2.760319779854926
287.21037200834445 336.5408799872646 2.626715212991215
292.71716109867117 339.90779229686405 -3.239494724514489
299.74622131175477 338.656924943317 -2.8485916599788146
301.7597543403387 339.74300152299423 1.9383102100256944
302.32755499705576 338.3306474770659 3.5261880828423955
287.07709103825243 339.29944640969023 -0.05474593582173853
293.3634562329954 344.0722881791746 -1.6492454183223786
297.70326719443676 343.7392451298543 0.29299203644607286
299.2881695926123 342.7491310265332 1.7308950523191455
299.199652613827 342.82458923928914 4.156757416312259
300.72833715657987 341.4508014210352 2.9541741287502785
287.79388868966697 341.4273714775713 1.4387052983076771
295.1037465611834 344.0959502135331 1.009019909413511
292.8235526838622 343.8065760703194 2.736488306458295
291.406654037856 333.0152588758795 6.010752343112474
294.98873871058487 331.9869315997728 5.982795343065918
296.3442099985642 332.0878332063834 7.804864766243371
299.5668128712313 332.35544755200596 5.621957411221886
287.64313495862405 336.45843463760355 5.379946464990237
287.03958279753635 337.80365494015405 4.084637217663366
302.39173024875987 337.69250105777434 7.263732735516298
302.59492236472073 336.6548502766429 5.289107753327924
300.9492536215239 341.36748276178866 5.427673032639137
299.297165692567 342.78416594737 6.598396026360315
300.6739972874345 341.5290121363478 7.812265389902515
287.81787150356996 341.3764431529866 3.98170316286994
295.2063936801719 343.79506648048914 3.489324558624632
296.89868254831885 343.6861973968494 5.5383794892881415
297.2485408041523 343.54041163341014 2.706156120693144
289.7091399243391 343.1966466191292 2.746263583556988
291.3887402932607 333.2758838810749 7.844465937181054
293.1744444432518 332.7904384719858 8.79927742228103
294.51127550478486 332.30331489955216 7.784248943778166
295.06107499630554 332.4487100439497 9.475654045452742
297.2045457274755 332.35514747003583 9.90351044301297
298.0241315711819 332.9446831721852 12.299687563941626
300.3622976133714 337.20219621739375 13.744226052134833
287.2737320133166 339.181628976405 5.510359284277831
299.70332354457906 342.3058546813851 9.811479607798645
297.8273572584296 343.34009975923044 8.464531012981947
288.1246285938879 341.3887872131509 6.1767417048970135
295.2589450279505 343.20977036495907 11.863662225233202
289.04682665350936 342.78255223309907 5.196691083613267
292.4625351426576 343.4027494814264 7.771030924148064
291.21491684773946 343.5237344940965 5.2771524971805155
290.21349381580086 334.3781049399425 8.774925774454331
291.7251507672897 333.80579083085655 9.825615821017179
290.1128204015087 335.0504172861104 10.703131855980507
293.6235197279384 333.3022852243919 10.821757807411897
292.2638953543316 334.8680879003072 11.620622376771237
295.6634808685678 332.7082851702219 11.583759025841275
294.3110560881878 334.10794353798093 13.226008907865053
296.89224816195275 336.5486958415555 17.188571613010897
289.4330728924201 334.3999307149848 6.559410540944877
287.54216970651964 337.5855773494961 7.614168258373087
288.2963570516278 340.15313405092115 8.18940850607969
291.9548367434774 340.54367707137146 12.263000560103308
291.22606325308743 342.32204716632356 10.200812678730328
293.19453314271436 342.28106413704063 11.93982822047217
289.6095057194704 342.7072176903704 7.644481494177833
291.16688116195286 336.4092028765524 11.785036000602288
292.8058474521987 336.7251968071819 13.165013258236742
292.3277817805621 338.87434379116803 13.442001770691704
291.5218833979582 338.2853989389561 11.786872399019048
288.6343185651544 338.16585933352263 9.363685479513935
289.76154730482153 339.8440540689684 10.641169363151812
292.95281695024596 340.5680238596364 14.419726969437058
289.9490585898609 337.298142143935 10.591513703555606
289.13983595898094 336.1144453078724 8.68806931523458
293.1844337747572 343.94788124554657 0.649909208095454
299.0788880395798 338.48375598446637 16.1435745074871
301.4228245907073 339.05105607430573 12.525595777971088
301.4590194179935 336.36262728918956 -1.8272934662691807
302.55342245333287 336.2886456884637 2.9194751603853524
296.8000117782091 342.8227196046123 13.788865847992646
302.21888722003666 337.17580462590695 -0.1697718029179135
302.2631817106067 335.0158696653619 4.133430652832163
300.7746823661336 334.5174555666095 -0.5274219429286143
294.090188101549 340.1508435536271 16.442014822873638
293.8503896608507 343.1916404070409 9.952513205326522
300.1965017234676 341.2639623161184 -1.949092229079825
289.15329501960997 343.0207611060626 -0.008732739255667461
293.9524069522219 341.5231349214057 15.423199410340228
289.4371601032269 341.451838158738 9.371420410298208
299.05123509606034 341.9888919699431 13.06963431596387
296.976890720678 334.18446617864487 14.875222356588052
288.33282702646085 336.06032446256336 7.099246866127533
299.2000958059956 335.7991453006485 15.852172656752188
301.7523111447745 340.11540731423713 3.9134184861750274
294.66897873068 336.16485119595353 15.248384089053776
296.5917557885323 339.6428581663393 17.333744507365072
301.6046732384186 340.5439893584244 6.808042906140143
297.8172146009822 343.11139517043523 11.252866474426428
299.4763164822033 342.6461431054366 8.18230728062737
302.2722069653085 339.2920011855871 5.773312660553453
302.2139720770683 334.57372167401365 5.641436717933282
300.3599514548546 340.05307865930087 14.110195710185414
301.90452570374345 337.29199611102956 11.624336046106821
296.13461665013347 344.18007944762 -1.2947619683354907
290.32914855181764 340.1696676330867 -3.226951617680549
293.9559399222076 343.7495800509484 5.451367431068274
301.85235700568643 335.3524820979568 10.342216716101255
301.39472121042337 335.4205446754446 12.481005686961623
291.4484142782885 343.8229076519397 0.504342621890228
288.18101138601247 340.0921305398498 -2.1882148085150344
301.8304728777332 339.297982777181 10.536327514720686
301.0306061173549 340.8006229832621 9.610586610284718
293.2323600870805 338.3130443370731 15.16649504277787
294.1983542812512 342.4087197562503 13.953822217125749
299.2250061059726 333.308082926913 -0.7464372596917037
297.7721014444094 340.6575824578446 -3.2338396266992033
295.16360129447975 340.10883046833146 -3.2398006127078
296.19337797841297 333.2043767617451 13.142320974768154
302.2645958277711 337.4482992585413 9.303303981784865
293.72782678680926 341.822385479093 -3.226244787683787
287.16806330752837 338.1385718093273 -2.2000483085794156
301.93467548935956 339.59696076495993 8.180393481177903
298.3512914030952 341.3459759989266 15.617893509270761
300.3728924931263 340.7988581611103 11.584693856398747
286.7946272629391 339.1604352052858 2.705389767984715
289.0735964124935 338.45298837172095 -2.8105863911082256
300.44526251593413 333.75760408406546 11.48832720245921
299.2054554444171 332.6620218148665 10.19815415192439
298.87041757697324 332.3772747350792 7.894180787881922
293.0399847871358 332.51378354299675 6.820681625713374
286.91950261903486 337.85309472173435 1.2361770783164423
301.91067781018535 334.5708972090101 2.647751024577249
301.853156476699 335.6356728973474 0.7941337385232166
294.1190785682071 337.95650087884997 -2.7602402399538524
293.11265472580743 333.384731206033 -2.9707048704979893
302.20742100777636 335.4188358187194 7.713625777506529
295.6327121808863 341.89379994244564 15.946207661600848
298.2280407337063 343.1228762003996 -2.121180794958101
289.49628012896665 341.8402005661913 -1.9732816558578659
292.9848832590425 341.52050607466765 13.184549377376987
295.9864191748507 343.5172667912496 9.901428254685158
299.00863462834434 335.97648429200393 -3.223177468168862
291.4933610935152 342.1442550702442 -3.213227994807088
295.0528167122135 332.42233671116907 -2.315579428090414
295.0741069267215 334.4008741087544 -3.2372725190471536
290.99558579566644 334.6758054666979 -3.1428703832001466
300.82932786432303 341.3752460633875 0.5769039079347957
299.7946973432449 334.80461768306196 -1.796628622988542
287.3773488539536 336.5221324753941 -0.2587071552634533
298.35539990208775 333.9219317733095 -2.638114404201057
300.77559327713493 333.6420103195723 9.09390426619501
295.16043987354607 343.6568376439282 7.861466685739836
291.2928121226135 337.6008267772877 -3.2396814556462497
297.23474910218556 332.173266287646 -1.4985139248711505
290.8138195084472 343.3562427503725 -1.44582538068323
291.16981910835875 332.4381141354355 -1.7019705067752438
299.9541118943908 334.2717127889789 13.980249277526301
299.38157198979764 342.219320836018 11.475365550023728
301.60400199662115 339.02342808702684 -0.6030653554079554
288.4895719290397 334.5098012945681 1.326269965049522
293.26831441409166 335.7143800397668 -2.7612203309294334
296.8189804777664 337.848685534789 -3.239522217094322
301.047377849937 333.33291619943776 6.748187478499517
295.03483850179566 331.86472231801366 0.21815957318842813
288.2629487084666 341.18217236134547 -0.5897477008820263
292.4512395757919 332.23338076641414 0.3892458998648038
296.5893377257311 333.3515922819441 -3.2187092356854103
290.2040684111006 332.8982198445448 0.609842329721904
295.8135551640761 342.7116805510434 -3.1737110935578325
300.44698176773113 333.38732960280134 1.4824542733504316
294.7128033574064 337.9810283032423 16.898171411751818
302.29472916570086 337.7297136584272 1.3702417776866926
290.5213811550812 333.1976703665195 4.315792382667329
297.41758769509795 331.8886306407513 5.6965525202117275
299.4067101339257 342.6382906727529 -0.3266068221610847
POLYGONS 364 1456
3 1 0 176
3 3 1 2
3 4 3 2
3 7 9 4
3 23 22 42
3 27 117 43
3 5 0 181
3 181 0 1
3 28 181 3
3 181 1 3
3 138 28 3
3 3 4 29
3 30 29 182
3 29 4 182
3 4 9 182
3 9 31 182
3 33 32 51
3 51 133 33
3 14 33 133
3 36 37 38
3 36 24 23
3 36 23 37
3 39 133 51
3 133 39 25
3 40 26 27
3 41 42 40
3 26 40 42
3 37 23 41
3 42 41 23
3 56 43 39
3 25 39 43
3 43 56 58
3 43 58 27
3 67 28 44
3 44 28 138
3 46 47 45
3 46 45 138
3 46 29 30
3 46 30 47
3 30 48 47
3 68 51 32
3 69 51 68
3 69 54 51
3 51 54 39
3 39 54 56
3 55 93 72
3 37 41 53
3 73 56 54
3 57 58 73
3 56 73 58
3 58 57 114
3 59 67 44
3 61 59 60
3 44 60 59
3 63 61 60
3 62 63 60
3 45 62 60
3 45 47 62
3 64 65 62
3 47 64 62
3 47 48 64
3 64 48 49
3 78 69 68
3 79 69 78
3 72 71 70
3 73 71 57
3 67 59 82
3 82 59 61
3 61 63 74
3 62 65 63
3 63 65 75
3 74 63 75
3 76 77 75
3 76 75 121
3 121 80 76
3 81 78 82
3 78 81 79
3 77 76 70
3 80 70 76
3 77 70 79
3 70 71 79
3 61 81 82
3 74 81 61
3 74 75 77
3 81 77 79
3 77 81 74
3 22 23 24
3 21 26 42
3 42 22 21
3 8 176 168
3 168 176 0
3 164 176 8
3 6 174 164
3 174 2 1
3 7 4 172
3 172 4 2
3 14 5 32
3 14 168 5
3 14 157 168
3 11 8 157
3 157 8 168
3 125 142 15
3 142 12 169
3 133 25 19
3 174 6 172
3 172 2 174
3 176 164 174
3 174 1 176
3 152 162 172
3 54 69 73
3 0 5 168
3 68 82 78
3 162 152 175
3 153 169 12
3 15 142 161
3 142 169 161
3 11 134 161
3 162 158 123
3 162 175 158
3 169 153 143
3 150 158 13
3 13 158 175
3 14 32 33
3 164 143 6
3 152 153 175
3 12 13 153
3 13 175 153
3 13 12 170
3 150 13 170
3 150 170 16
3 125 170 142
3 142 170 12
3 30 137 48
3 67 181 28
3 67 5 181
3 16 170 124
3 124 170 125
3 32 5 67
3 31 10 171
3 18 180 17
3 156 158 150
3 141 178 91
3 135 136 159
3 48 137 136
3 137 31 171
3 7 178 9
3 7 123 178
3 16 86 150
3 86 156 150
3 158 156 123
3 50 165 116
3 116 165 135
3 115 116 135
3 48 136 49
3 91 178 123
3 167 89 86
3 178 10 9
3 10 31 9
3 49 135 165
3 49 136 135
3 159 144 115
3 115 135 159
3 50 116 111
3 109 144 171
3 171 144 159
3 10 109 171
3 53 107 37
3 37 107 38
3 53 52 107
3 107 52 38
3 53 106 52
3 108 130 34
3 36 102 24
3 18 17 102
3 102 17 24
3 50 101 165
3 82 100 67
3 67 100 32
3 82 68 100
3 100 68 32
3 111 116 115
3 108 18 102
3 102 36 108
3 66 84 104
3 66 101 84
3 49 165 99
3 66 99 101
3 101 99 165
3 172 162 7
3 162 123 7
3 183 155 94
3 31 137 182
3 182 137 30
3 124 94 16
3 17 155 24
3 137 159 136
3 137 171 159
3 16 167 86
3 16 94 167
3 24 155 22
3 155 183 22
3 153 152 143
3 143 152 6
3 6 152 172
3 143 154 169
3 143 164 154
3 154 164 8
3 29 138 3
3 29 46 138
3 138 45 44
3 44 45 60
3 15 128 125
3 151 20 128
3 157 129 11
3 11 129 134
3 157 19 129
3 72 122 55
3 22 183 21
3 183 146 21
3 84 131 104
3 55 149 93
3 55 106 149
3 149 106 53
3 113 147 151
3 11 154 8
3 160 53 41
3 149 53 160
3 160 93 149
3 117 95 43
3 43 95 25
3 40 114 41
3 114 160 41
3 124 146 94
3 94 146 183
3 79 97 69
3 69 97 73
3 79 71 97
3 97 71 73
3 20 177 128
3 27 114 40
3 27 58 114
3 57 71 93
3 93 71 72
3 121 92 80
3 65 103 75
3 75 103 121
3 52 166 132
3 132 166 98
3 52 106 166
3 166 106 98
3 34 144 35
3 35 144 109
3 35 109 90
3 89 167 180
3 18 87 180
3 18 35 87
3 90 140 87
3 87 35 90
3 180 87 141
3 141 87 140
3 156 91 123
3 57 93 160
3 160 114 57
3 89 180 141
3 180 167 17
3 167 155 17
3 91 156 86
3 89 141 86
3 86 141 91
3 144 127 115
3 115 127 111
3 144 34 127
3 34 35 108
3 35 18 108
3 111 85 50
3 111 119 85
3 85 119 132
3 111 127 119
3 119 127 130
3 130 127 34
3 52 120 38
3 119 130 120
3 120 130 38
3 38 105 36
3 36 105 108
3 38 130 105
3 105 130 108
3 119 120 132
3 132 120 52
3 155 167 94
3 21 112 26
3 177 20 112
3 112 20 26
3 125 177 124
3 125 128 177
3 146 124 177
3 141 140 178
3 178 140 10
3 177 112 146
3 146 112 21
3 98 110 132
3 110 85 132
3 145 104 131
3 145 92 104
3 80 96 122
3 122 96 145
3 80 92 96
3 96 92 145
3 145 88 122
3 122 88 55
3 131 84 110
3 110 98 131
3 55 88 106
3 106 88 98
3 50 84 101
3 26 83 27
3 27 83 117
3 26 20 83
3 83 20 117
3 10 140 90
3 90 109 10
3 85 110 50
3 84 50 110
3 104 179 66
3 104 92 179
3 179 92 121
3 122 148 80
3 80 148 70
3 122 72 148
3 148 72 70
3 99 66 103
3 103 65 99
3 98 88 131
3 131 88 145
3 151 163 20
3 20 163 117
3 151 147 163
3 134 113 161
3 161 113 15
3 128 15 151
3 15 113 151
3 118 147 113
3 113 134 118
3 19 118 129
3 129 118 134
3 169 154 161
3 161 154 11
3 118 173 147
3 25 95 173
3 173 95 147
3 117 163 95
3 95 163 147
3 25 173 19
3 19 173 118
3 19 139 133
3 133 139 14
3 19 157 139
3 139 157 14
3 66 179 103
3 103 179 121
3 49 126 64
3 64 126 65
3 49 99 126
3 126 99 65
