# vtk DataFile Version 3.0
A great-looking cell
ASCII
DATASET POLYDATA
POINTS 831 double
272.83965729513943 96.00276289512122 77.84048547522305
271.49979178088824 96.50313980534158 77.303313077016
274.0860032011695 95.97135403005137 77.23549824223127
273.16007653523843 97.18690881143655 77.47518133293163
274.68111514064867 97.33662292114163 77.03199736349984
273.5886748065554 98.55674733141132 76.49481629594659
275.4221693794718 98.41856133944398 76.10469248864018
277.1018984656725 98.11386997725526 75.58991189050668
273.5832456410594 95.14595089928288 78.37356220229303
275.1145037487163 95.52379909743881 78.28010668486432
275.41864612599846 96.33177316395539 77.37244515524435
276.2883752710882 97.22462164280587 76.82891928356909
270.65667857722974 98.15234858298213 77.12447341425316
272.1558350207194 97.86900933846064 76.83042411490382
274.6919955813471 99.8338521761652 75.78686069720312
276.2529948039941 99.57251017099392 75.13614545740268
278.02474227565546 99.41763811042127 74.74261663097545
271.91371837420826 99.23596457260726 76.56067889127361
273.19381528437856 100.23645230802713 76.2406362169501
273.12686352748125 101.61521101289496 76.78888069746795
274.44203935740643 101.22058406696009 76.35039943440238
275.61960892800397 101.0873719851866 75.31978156125285
277.1734084217355 100.96089220632888 74.74186683330807
268.6457130663748 95.05268208019737 78.58272339472478
270.2905240238503 94.36035138169424 78.72152992574702
271.8436785971062 94.96091440613377 78.37234307200234
270.32274514118 95.36777210291311 77.85054431851174
276.9212574089863 95.67513419851726 77.61824656314536
278.5224810896613 95.78208871352663 76.87853255374186
279.1355421179482 96.27796116119367 75.92059439105705
277.792563611247 96.72454331135741 76.23334784045147
280.51180389867034 96.50371296336932 75.45535858825993
279.0898317232305 97.75352623327491 75.22978016051508
281.21866638723134 97.89984986208653 74.57971880226374
268.8187072073683 100.85573593410203 77.740347109094
279.91756511209655 99.47256923753024 74.42623242987406
281.9758799036949 99.80652505564689 74.3683811482526
283.7586368254613 98.971384547154 74.65445288278531
270.5820863457904 101.39578656749337 77.77575958214005
270.347917822838 99.8939101943749 77.04611092577889
271.8908896400507 100.72434074228575 77.07436587030264
274.01912017892636 102.38075467719209 76.4193294779983
275.16925238981696 102.4627839567659 75.84829632922836
278.82778412315145 100.92679410917376 74.39803642204205
282.1804939676769 101.84677954046829 74.59561676870264
272.0264917777075 102.12606842936265 77.6389715079244
273.29292701396355 102.91401955367759 77.25149824929086
274.36538786012153 103.62704821377142 76.38534204007324
276.04447804356835 104.0166321908036 75.68803006514037
277.4224170242924 103.4975843405937 74.95192906963969
276.38620601543664 102.45776422038048 74.75921043713899
279.4093492341684 102.23322865505973 74.09026394224605
282.28589439744684 103.71417628544681 74.71373878381767
280.7207918512624 104.6514544087937 74.69292083835923
269.3653376895397 93.35636701589618 79.9001593494783
272.5342488155677 92.82956137714491 80.49477831878865
271.33879622996625 93.44264138834438 79.35129097499673
273.0123054085305 94.00341976094393 79.31481262329292
274.15615340276685 93.39689073151943 80.27799909772276
274.60558660037515 94.30051093359073 79.08318675969137
275.4946780313892 93.87554441600501 80.033479166024
276.12452685207705 94.72191752382767 79.07388951009983
277.0663280230194 93.97123710731347 80.3411670504075
267.21923000938307 96.76251710669108 77.85646583523827
278.85788845938487 94.32510725266582 79.60907087013234
277.55217089619526 94.81976360472909 78.97332536672758
278.7688831934718 95.13253934245782 78.0745196002342
269.42791554090667 96.66924767079847 77.37499440413653
280.5540205805402 94.34045149160433 78.38891920044158
280.0745127716886 95.36290929717723 76.74414165458779
282.27343579890567 94.98116974403393 77.8670622082094
268.55096168322086 98.71028442105363 77.40566998326075
283.5413763675527 95.86260477140473 77.17058338003824
282.0175748595463 95.76410207540025 76.16106017032995
282.9756716472847 97.31318207019554 75.19468665624093
284.51676007756186 97.0764010666896 76.3049839769043
286.57395250590224 99.33041007990026 77.47429621363253
269.44947816937105 102.22402003694368 78.3304442716083
270.89489133460364 102.69349220918664 78.55854242929472
285.13994364592054 101.19199476762358 75.711016764616
271.1495181722239 104.11107680904087 79.13053716297406
272.32383744946407 105.05261404531072 78.42053766109322
272.2272801316244 103.53382387993898 78.12579263946954
273.70960960978977 105.84069845099404 77.9789474544497
273.38795973359305 104.42338761879306 77.3722006661683
274.7605674034261 105.41110888639072 76.52820451133525
283.70981602359797 104.47432154418003 75.69881818189943
274.639805616456 106.7880558798104 77.4099144264888
275.6828363559009 107.13578504341913 76.30585762966157
277.7072445100623 107.07458838529396 75.47440696187323
279.29151269649924 105.62187904738892 75.18488856444037
280.778929484068 106.02364527212102 75.32644691421217
282.17424769611944 105.43078944540666 75.3127451899643
281.7804498772901 107.08955269830359 75.86664829117667
283.5053824282208 106.34125020143337 76.32929996479952
279.9199944776082 107.32140432373167 75.60867638832663
270.91632827735657 92.54783021340373 80.6797202681853
269.4498495495931 92.25244152813747 81.83768466445964
271.9576955089818 91.52214312998196 82.22787805196207
274.3392049577083 92.04818286082913 82.87401726570926
273.78132328170335 92.318518905116 81.31941083179368
276.4312631784961 92.57596163255745 83.46357575547394
266.97182495882674 93.86471043371924 79.97628931256506
265.42288620186986 95.77451163549 79.24112310697292
275.48547076087095 93.12889243494078 81.4860164529626
278.39296384064755 93.46823219118626 83.23123404120034
277.1561437870876 93.63190515828221 82.0598406935461
263.0252346911052 97.05336695126431 79.14919016798373
280.31742594106487 93.63001693447247 82.57444264141951
278.71518417597514 93.85219496048258 81.39554848096397
280.4960019597219 93.95225859084796 80.53673219494497
265.15120712158404 98.1791703683033 78.05428153899554
282.2888290947133 94.26510687448742 79.64851243190785
282.24403686804686 93.65851717721971 81.687955170722
264.0411344503536 100.66768837618675 78.40594073597812
266.638528646122 100.18340505460193 77.8354839726724
284.1215150918392 94.45972527669333 80.87831596638364
283.7976906343324 95.20437666401666 78.8727658864762
285.71373738000324 95.43761833866459 81.73439789114455
287.07425514901774 97.73448328158395 79.9625696483024
266.6328212778617 103.91675243068171 80.2259268870424
268.3761355806027 103.72842416851074 80.61133854843332
267.5433542965868 102.33033128435557 79.01960253154571
269.54028699455085 103.41085527706322 79.23778315875909
287.3133079358097 103.03009838315673 78.64063763466585
288.1205002467758 102.635052983852 80.26551477105606
271.0424243273684 105.89646871567304 80.87925968316024
270.14481886790173 104.67587230157152 80.48364923927426
272.1044277311685 106.62814267361087 80.49592284013988
271.6228107117106 105.42409297994453 79.785758689617
272.81923613820055 106.30183947124863 79.20835547089733
285.86107367663755 105.73964554502562 78.58638048587923
287.1065115477372 104.6390268484786 79.70773789330855
272.9806285279699 107.70969821980822 79.821182679432
274.2111790830946 109.00618895566465 79.30785854784307
273.94025972639156 107.30140012101995 78.5860480353832
274.9837686296982 108.28310095011896 77.58461905161131
282.97422071655745 108.18744873533103 77.0709236514721
285.36566769239505 107.94155887595909 79.84408411337557
286.4295268707805 106.53147536388146 79.93157061367432
284.7568380087736 107.14846729179942 77.97241766342599
275.95336615905825 109.71242143573903 78.41880338687024
277.9083092713968 110.04379846774947 77.9391488098693
276.80880672072334 108.60516855186987 76.92809391298286
278.87143081221194 108.74234108396675 76.60421764384428
280.95049690571244 108.62566744346907 76.72390807662461
279.9380066463091 109.79975162306195 78.05669823998986
281.95259254917073 109.58628012471246 78.22660713380434
283.795647882293 108.88588574926781 78.90760988579879
268.6553222368118 91.53144608033115 83.85857510563318
267.141173946511 91.43915719688724 85.77258465849066
269.15112278546866 90.88339047826592 85.6893200421096
270.9246678975969 90.91967500743431 84.60190484271233
273.3111743726616 91.09448340069616 84.3482146938901
272.67825687539676 90.390841260561 86.34403970394423
274.71264206750004 90.98135316751642 85.95873805708668
266.89042028262116 92.53960302065025 82.21368538613568
275.10426115333564 91.53454634502333 84.35174899142521
276.319673055162 91.9672592455321 85.47390127268592
277.61081341598793 92.42563069773132 86.7970189059346
264.44011310032073 93.70255050259077 82.31108110057107
279.3669967322744 92.84911412836207 86.3490927899057
278.00984555575394 92.72681565613453 84.9700866423534
263.6134050662942 95.33195571857667 80.82164173306543
279.92065132012885 93.10789079608571 84.51445410038616
260.8850108757457 97.49662850932611 80.70538108719568
281.2519901015024 92.9433619099163 86.0290700814368
282.1307132864178 93.51522854963663 84.04599705699434
283.0900671592116 93.18895841807313 86.0332339013998
283.8581141582957 93.9828227353859 82.77082202214598
284.2615380340187 93.84033669764256 84.67337420947247
286.1094376022438 94.82579315835095 85.25997798610825
261.97960526659057 99.34733324281822 79.1915482808044
260.95720557554915 101.19971742375759 80.30913663631316
285.3472078483094 94.57125117929388 83.29512756142068
286.9889726299578 96.50889346400825 82.0409207995871
262.8616537140832 102.38622357320794 79.87926544407104
287.6670769528744 97.80065698414695 81.3970217780958
288.6522572063273 99.03927032653944 83.62339969168944
288.2048589820464 99.59010951738948 81.73051034670924
264.8990128703984 104.76965444864716 81.17130320626549
265.04519531709826 102.92354831152859 79.4216144840801
267.1608609579849 104.84378503741792 81.83594359763703
288.3849431979681 102.68928091443384 82.31434713307212
268.6630363415729 105.67972866044056 82.8058235680538
268.94161173769163 104.78520164938104 81.63380364222208
270.13269938621704 106.63809136576872 83.17681244134015
270.0740891348973 105.73092619833811 81.83588215009279
271.298470856481 107.59760434851735 83.22943881658479
271.25671873385477 107.02203160710943 81.81583059978685
287.8965307564657 105.7896058142177 84.91109909821628
288.24533944428805 104.43411469272424 83.40828528152562
272.15616656441006 108.62167763312722 82.28823431835748
272.2469726453257 107.81925077158144 80.99230832609125
273.3467492581255 109.9595791599919 81.91910877152448
273.04737395741296 108.9293739253563 80.7557687823407
274.0350118192093 109.93467276641262 80.65330541900224
287.2620516151728 105.94410917100835 81.45101508195631
286.7634708764287 107.75376320376873 83.1219822592843
287.515348995528 106.18273866527323 83.12452266762953
286.3181409515468 107.52760315622498 81.43900624007588
274.64115406382035 110.87619625185143 81.54701103209287
276.2852281711148 111.30452859672549 81.2626620365043
275.1640626424281 110.65795631798079 79.90543348974211
277.0433178531086 110.90925150118201 79.55306547009818
280.9692734071312 110.86943491586273 79.3687755616051
284.58514911657807 109.68092541542802 80.80361460586067
282.99773847344426 110.9195284535416 81.6675095417646
285.7136542334039 108.99724055949711 82.40558320164814
282.69350405680973 110.25129121845816 79.92868507620871
278.13600958670287 111.67623206860668 81.01349343464798
280.09238892664393 111.80117539599969 80.84871173263925
279.01513138651865 111.22350057018188 79.22989191748648
281.59932868466757 111.10657500250292 80.8639821222513
269.9689833007894 90.15000333121212 88.85373244467445
272.0500128611541 89.90068716631323 88.45590631347257
268.5445815369874 90.52680944112119 87.4279295494601
268.2376895198492 90.4441390675452 89.21323897219602
270.52353789642996 90.17020422777765 86.83224150288682
274.3597522010564 90.53630144978457 88.17323773429615
276.0589124240727 91.17168481171262 88.87077775814004
276.07463800121747 91.49502403488194 87.28924007603314
277.3917151017475 91.86267656043276 88.45527892756252
278.5594584728722 92.26108440508017 89.5417009786207
265.21369446164545 92.30597179723294 84.30989996129
263.147924231 93.13426124846141 85.71354809323083
280.0569941771874 92.5066283484456 89.13006368096792
278.9538721173899 92.30309613084111 87.96938025581925
262.47727512711987 94.36346636532605 83.69197964584856
281.38908466215855 92.39895283949348 88.79071735408189
280.5639658597588 92.71381310365018 87.6685628266315
260.688087611933 95.2477627100062 85.10331182377766
282.3946044050858 92.74531635604009 87.64788399308789
284.0859369559882 93.01259232865128 88.46409388541238
260.25119232102656 96.53005975199439 82.99976556530564
259.47915535180454 97.45619251182626 85.19038517418862
284.69536669567583 93.79008861345758 86.76484776186771
285.4032268996821 94.0938829656084 88.5231153747114
286.88125409377614 95.36791314199768 88.80617117517586
287.1574935455551 95.91719550288013 86.75144073688062
259.9610201123015 99.61408577376793 81.94264106473949
259.0691603629176 101.65906128891899 82.94875173804837
288.106507663967 96.89045213624463 88.06581321538285
288.82721845311914 98.55600398598516 87.4989298507197
260.20357444222253 103.11647927280946 81.61026458977695
289.2279966473186 101.88800963449603 88.19266163349268
289.1564643528281 100.35843610261317 86.86337451760691
262.1990399198883 106.2904838486334 82.803119812716
262.4800102960824 104.21738475345605 81.2734752610997
264.5274215769571 108.05090757340363 84.95875387858476
264.64427578659917 106.46495387680748 82.98535659063114
266.78890819925437 106.15282279643098 83.52332912170307
288.27636163830505 104.91766760897953 88.54668419869779
266.7725458292488 107.18897536715326 85.82691918060496
269.23019777907496 107.224845090996 86.27729052773732
268.74767386800545 106.45326170005666 84.51488085641911
270.52974864157466 108.31559758046001 86.27030916365334
270.47118758546685 107.73109074507978 84.67588702059155
288.11332193236603 106.47313969031195 88.54768023806245
288.08331770323076 105.58858570835446 86.93122219722234
271.5338390720993 109.3965554042661 85.36063989603214
271.669954830897 108.64819075653712 83.85297129154027
272.79774776033526 109.95720857549843 83.68951585609702
286.698385788281 108.4868421278234 84.7581984892326
287.344676327305 108.26541446417433 88.06714042676728
287.5294815473361 107.31002094858643 86.09715396344492
274.07606008990325 110.7542485414547 82.8736070203637
275.9307598056763 111.98280802277918 84.83975154793988
275.52540434513196 111.56358683577332 82.9902536405332
285.70685776993605 109.9135876141643 84.15976127441711
283.20002953690954 112.1288426112218 85.44980154553767
285.1194554416397 110.93864435552746 85.96089430119606
284.51261798223493 110.50696413972675 82.74643599702857
277.80199271499606 112.20945166216143 84.28790158828747
277.2483950677717 111.9205399956147 82.64408522114849
279.66398530946446 112.3542698148446 84.72337935852795
279.23707427515734 112.18210338587615 82.75905289052609
281.3097931665172 111.86663834023354 82.44564858695833
269.19942882226974 90.15627833494017 90.70284163186749
271.2624117276236 89.79630628682753 90.48974931581155
272.630940173671 89.98494737729338 92.33391922655227
273.34166552960556 90.13694781810031 90.21014799254023
275.2326733000491 90.74843774474043 90.20147228384181
274.3878645703806 90.34886496685495 91.61705843858284
276.04052476012106 91.05792606899688 92.07705831556716
264.4044846963012 92.0530690535015 88.99984437708757
266.5854864132237 91.21872197915147 88.39618829015592
277.0524294450408 91.60518915286171 90.27412984875343
277.66648353216425 91.95848671595243 91.92589882141209
279.17197949931017 92.22998255558099 91.90472532647475
278.39958439607875 92.19709685935942 90.84454802664874
280.73451434782856 92.03548890307452 91.71957572572533
279.69275835487497 92.35798667093826 90.56293934275719
264.9723868463049 91.99325018093487 86.75083375093227
262.31382924268485 93.3259996674587 88.18727462401438
282.657232830239 91.92071927822829 91.39870406553145
281.2031940558906 92.14355311524015 90.15771198280322
282.7399490347083 92.1759206304783 89.41896091731267
284.1906534448961 92.89663747521766 90.46092665390962
285.16278467684816 93.17452257736751 92.26907178253073
260.45964225445283 95.2290099868175 87.71093221250916
259.47105914068084 96.44694832788973 89.88156667712417
285.6815958121803 94.24339752398323 90.42600862767905
286.36324337096437 94.69925035463852 92.50146987466724
287.33129028391676 96.12808278203806 92.73048004662223
287.08607422653444 95.74283149020228 90.93466062467053
259.21162229833067 97.4115148137321 87.64429968679974
258.1190636976281 98.4411621868802 89.59133384821763
288.1525760034363 97.52639492741805 91.40972192868037
288.5432522788604 99.21897635434698 92.69961644121597
288.9934820471736 99.50171762192338 90.77609011402163
258.3225488878811 99.02362124390896 86.54100183573902
257.5047046369055 100.07184373351026 88.32892889666455
258.37907771551875 105.50521276578093 85.2626277950743
259.51119232520796 107.50251839001287 89.46683060701656
288.9060873366414 102.61197658569381 91.39215096842743
289.31892998735844 101.42866101364328 90.16397477082752
263.9084734275166 108.97870516866944 87.33938188845799
265.40646800152854 108.38927438023495 90.60429759153736
265.9217067231958 107.95759555655503 88.2101735614919
267.28163047430024 107.3146632655176 90.04205825447434
288.32501541254163 104.2765230130517 91.78042445544979
288.76545447554207 103.48559572282267 89.66629666101628
269.2615076832222 107.44641279458462 89.83301709446609
268.11171225813655 107.14518562643538 88.05007574193202
270.5399087985304 108.60798333471986 89.81156731362644
270.13998142567465 108.13061657194028 87.99436554183715
287.9659283984303 106.19652610343293 91.69038036313812
288.195153884842 105.450998125326 90.07917873562253
271.41798126532416 109.84201388919132 88.65302904853321
271.1016034649871 109.24564108012608 87.02306791667914
272.36992727453867 111.20452199051458 89.91562624224429
271.91045324106466 110.52241316096661 86.85492269487524
287.08513619483176 108.65411312035569 91.7119902447357
287.6298193388496 107.33721301394935 90.24504543921577
275.4592684886053 112.18431281198258 88.66709012798026
275.79034551057094 112.12841546989695 86.85472675716144
285.23344683281914 111.26643450297719 89.68514291731816
284.00051412374285 112.00516928167956 87.25833950584288
285.3125180586773 111.10315053015293 87.9333229960712
286.02347136688627 109.99900918780925 90.70652432823924
286.217944218259 109.91244585358264 88.90904634948309
277.48165767215454 112.52145985992034 88.13511244962476
277.42344270478935 112.42753761362933 86.00667864135382
279.54569373613504 112.73133827868746 88.38727304422262
279.136326069645 112.56991486552481 86.59496326921666
281.2891008122158 112.65308175753337 88.13213750983711
281.0847123678737 112.5124829748809 86.22005518891746
270.40477614113144 89.98867092491379 92.38776681475244
268.371947074583 90.39586240778043 92.55656269293064
266.7274082403699 91.27278326695583 92.69696367467522
274.5114112708843 90.37155110276457 93.27394671740686
274.62401717070844 90.62521346401381 95.0823570295433
276.0452177156633 91.12964544287124 94.04350665732835
267.1138927977443 90.89847657846151 90.71643802653911
277.206314487811 91.6049041750574 93.20432246094104
277.66794877835616 92.01951482894748 94.7546375252801
278.5013880305945 92.09313069888753 93.21318353266985
279.2596967121839 92.30491873944726 94.33889985157519
280.6760770590874 92.07855254694063 94.59505864468325
280.05438275150794 92.34471291755371 93.15170895860516
265.0922527487661 91.85843619230603 91.51564600145298
263.55640746579627 92.85989387679155 93.19123986486014
282.4037562516354 92.01173502746664 94.82455376983239
281.68423558946887 91.57078634742727 93.17101520669405
262.9001148576812 92.95314555077799 90.82550501853494
261.82192445747404 94.27606223097922 92.66288777391196
283.5943762446452 92.34912458882118 93.25199786263731
283.90342832047503 92.56288669761159 95.01809782179579
284.84680454061925 93.48742559619131 96.00210240792207
285.0304359804579 93.44102959342813 94.19794002304184
261.0063164039457 94.51656829303207 90.26319403197353
286.266299820836 94.63719763213503 94.33056244303154
286.1227874711826 94.64833565664132 96.14500524022719
287.0853477862061 96.04851294662018 96.21461387467166
287.22973198211497 96.06173042977241 94.4650378580538
260.0548874587745 95.85407934768274 92.19696312154119
258.6290311351608 97.71779068091904 91.86149203740048
259.80815514157274 97.10297627586267 96.1949159591304
287.7235636593747 97.71918415719313 95.57813691427826
288.1518159393338 99.94837825401892 96.00973924009271
288.32856783727175 99.00027557537159 94.38480507909071
258.04432816563633 99.18703561332677 96.51028733999205
257.38938426848335 99.59016925875657 91.54245070667986
259.15495942082305 105.5521038670003 98.03463627025404
257.2290640525954 104.82512162044549 93.78896506738754
288.44207880417116 102.15390507643929 95.37176454184873
288.8220880002985 100.6624743056134 94.01536803360351
264.74297398061054 107.70994460633197 96.60875279947375
262.8441492632086 109.08367580363222 92.58753634906292
266.51735322998456 107.01278683064079 94.78508970538009
264.9760462558279 108.31260738008031 93.07513846046112
266.8476773127226 107.31661255165108 92.1996014678358
288.0715167678485 104.25954713932289 94.72299868305763
288.6686282266797 102.75895013667264 93.24188385854872
268.79777742068563 107.00905874308415 93.42289053247711
268.53459641080514 107.09661652039608 91.42109215179468
270.26979945082724 108.24279392203621 93.71057227198038
270.1156001543109 108.17451856489306 91.7318152882704
287.6752163720671 106.18577836158413 94.71686770219918
287.89547096414105 105.36915098432132 93.20082289752504
271.3041880676915 109.77327837751254 93.1172664337118
272.8307863932085 110.79798005812317 93.4338098319641
287.54464329541554 107.23349112786752 93.10589342555464
273.9794697714474 111.55278234810243 92.57771410735681
275.57376117079804 112.00965235992145 93.37195628440686
275.33195202551155 112.11588700938401 91.54209448782937
284.8411793467619 111.24009847843315 91.4786369109963
285.68827502168443 110.31253148301613 94.30744089321401
285.8919392920412 110.10636931921844 92.53505257709944
277.31442371131357 112.3337349815758 92.1424152755051
276.53331210441337 112.26531574972138 90.14501062607351
280.0203166803679 112.63129983410951 91.5869808934484
278.5748165241824 112.75964427689303 90.31165078728705
281.2801408712883 112.60486245731953 92.86945450641983
280.5486467163549 112.79678120655976 89.84644947336459
271.40214718889183 90.09081347657384 93.88044108718707
269.65224429702187 90.40941217745396 94.27617670097531
272.9879383430827 90.1507528125435 94.43370811113998
268.87867332045823 90.86002371698146 96.4224843483787
274.55992352953666 91.01888784960076 96.78346889201416
276.11933641618486 91.30347120184766 95.85161933570824
277.50315200484965 92.15678258776516 96.73297311230691
267.4965418504349 90.83894023567186 94.47332239030386
265.31233719602955 91.86725752323046 94.23106281389283
279.42478542614214 92.43140254743064 95.99963872681285
280.9013709862584 92.91673974841264 97.80807712871459
281.28299772581573 92.12165520747607 96.05660598926971
264.5823624107695 93.11570986355304 96.33157360923258
283.03855128614737 92.5851376797246 96.66277568814188
282.81678093602716 93.4878526825506 98.39769986410332
283.7742190319654 95.16605815579707 99.00122058480422
284.4460571538757 93.65508052276196 97.71942415119096
262.9516603038268 94.31359825663112 94.94782397790996
263.55878630381875 95.06425807630363 97.34556718920345
285.69219200781214 94.92145131317916 97.90584226950435
285.3573267910171 96.32524329009068 98.93139642237615
285.84902885029027 98.17692141727252 98.9754951052005
286.857711283875 96.50255820403419 97.94069876720529
260.82311657988606 95.60203274639659 94.41285609180775
261.60932017662896 96.74520518401425 98.08919741319696
287.36816028619904 98.42658530873334 97.48524201678757
286.8360693392426 99.57798875735948 98.6919933405554
286.89949668816445 101.2928067549389 98.89120647833532
287.53853793084596 100.16709040773479 97.71692903741997
262.3410654740313 98.91346135630431 99.11522831545206
260.1382271877092 98.8248729826626 98.01540839438617
263.43021759555523 101.10441708967112 99.04453748541913
260.8037892769537 101.06948207146297 98.9250184564069
287.4541571474014 102.867248037773 98.28985514167026
287.8790243160723 101.65753671746981 97.22853668145291
264.919672587347 103.24829736704616 98.83855494691025
263.4653118676278 105.37259342089546 98.83119644023024
267.1025706945025 104.10509363287699 98.17562650898124
265.47490521736415 105.69236704629515 97.78458017661215
268.6138273920032 104.63192891492866 97.6699604096155
267.3852760007586 105.59372256334495 96.61297820311432
287.12844325902273 104.48829391301604 98.20959717786121
288.05666196149264 103.5623733624285 96.80374326254082
269.5592895269196 105.76123737553388 96.77653782246232
268.5260256621734 106.19142940722668 95.21296491842998
270.5015646312522 107.12862802534633 97.21791144536367
270.0547361593223 107.38815140821636 95.41135215489045
286.47457346868873 106.20589883348974 98.15993765342094
287.50594241176935 105.62391105298785 96.49409989121955
271.31805901071584 108.77313819723837 96.85021458853493
270.87528614944137 109.04070299392957 94.90552609481654
272.58524567133634 110.2449695256896 97.29500896354054
272.30042714641826 110.36812372174887 95.2548111660229
285.7875964627276 107.65408567713666 98.32726074134885
286.8074152406172 107.5996733671262 96.79643745629681
274.0209434172779 111.4808669477414 96.61873125371292
273.99052285779476 111.51172809155537 94.42898979891604
275.88969368019775 111.7583898254933 96.91142080143732
275.690331915874 111.8685311605466 95.27900318783725
282.7946144107811 111.86118471214866 96.647820356631
283.89869533801976 110.90015681720563 97.25906926291621
282.54653917585966 112.28469823910808 95.2874612385295
285.114004167814 110.56860360030414 95.91759475544629
285.36025712368155 109.30303242821127 97.55476774476848
277.47828463250164 111.97903077013306 96.09387091955095
277.25854624019746 112.14331233057764 94.21844839152084
279.44143762024805 112.21751155255282 95.78496289476892
279.17203225037446 112.46129999088768 93.51126224937808
281.321926368766 111.97737102055426 96.32941997577569
281.0196826247123 112.34634444688437 94.61853505173411
271.3470428547117 90.2955764678412 95.92921865709165
270.6705423807804 91.8749276062299 97.99307163366632
273.2988603417618 90.41926989370074 96.00857898261269
275.97199942375954 91.64865901580723 97.58782639721744
274.4033889790755 91.62982060089489 98.44729158719147
277.01034533376685 92.73168369503591 98.31889781275139
266.54220486607693 91.68560272581936 96.46403900259118
278.6826380102377 93.14273074386344 97.78201110125188
277.70927105784483 94.14011205110364 99.0125071202303
279.56682703285605 94.34584037418625 98.9927288956897
281.567065178337 94.7426686487842 98.91440818975482
280.1949965549713 96.22344236218717 99.1349124067186
282.1111141699943 96.65270409835654 99.09299327724189
265.66820853317705 92.6947887700943 98.42328189661048
283.9394141866333 97.32772582480122 99.01034844581643
282.44437497631145 98.45226651123917 99.03987634618026
284.04772721952736 99.16992017370528 99.15675408411725
285.4824049324616 100.11373356855339 98.96019240781736
283.99254025431134 100.892686045815 98.9172902610342
285.24681207847135 101.5867881309766 99.0221695066463
265.84319198049144 97.53446052142192 98.90620610669798
263.9151993286519 96.97493637557534 98.87640312222513
264.6717481714063 99.16340062883124 99.11883172780388
285.83030260072263 103.1641398571573 98.98338873380189
265.42082298819446 100.99899933232523 99.05383067473178
267.1161699277734 102.02582070365925 99.01541952551736
269.0611250741106 103.31295330555335 98.95609736879506
269.8796203453183 104.74804362467931 98.18445421004469
272.36977580585483 105.08776470350978 98.88880910942108
271.1254251261727 105.82384461485559 98.12666537681366
285.6932979968408 104.96285567977762 98.91934761842055
272.8174322322183 106.67377955441204 98.92206794971635
271.096084639132 107.65337248295256 98.63177023781228
274.14708246879474 107.79986371370262 98.9690990032715
272.61207535568604 109.01684707915621 98.96130764466443
284.6381154407364 106.42785802070432 98.902390951692
274.8971161051953 109.36585687668357 99.08791432904064
273.7181385632527 110.56360787601065 98.34673132455958
276.3761379082061 110.28151446683347 98.92308427893154
275.2722458106859 111.06485212855259 98.19749744935648
281.26523163843495 109.3383544385424 98.98502825048313
281.9690317489791 111.14967202114218 97.98829443601565
283.4765451770209 109.7251576210378 98.8778377562168
284.57352674122654 108.25143777999062 98.98210002392534
277.11866862374046 111.7326244991755 98.22390498797598
278.9590293646198 111.47195043335392 98.81831873095511
278.62731901305557 111.96868869965351 97.32772118024465
280.4448999592212 110.89577313660587 98.79433931084547
280.1545775293708 111.78672067291664 97.57510165001528
259.5656044195449 107.60174188563225 91.64045638669461
265.8040797572784 101.62030978331606 78.4909501702261
262.4285009922438 96.45308007715359 80.71476146955253
260.56353256543497 105.80710611364069 82.93920036979921
263.37506910716553 98.7684279670832 78.24980874579586
271.29994396759247 93.70779130927839 98.94609961902064
264.0774491604251 93.00849678263116 94.68843547247589
257.44199921919153 104.24621470175387 85.71003840164852
263.5485130172294 105.50601919716757 81.97393512739262
258.2039638765127 101.4144419539192 84.31928804513977
265.77872196509446 93.43663451248884 81.16767743560676
259.9316377371396 107.20718324661745 94.91296919166953
260.7220112293305 106.3261724331855 97.87181099907636
257.24699405910246 103.15796759164064 86.28107293087116
259.4859296155267 98.17698567561969 83.25790281159611
260.7501022717018 99.39852361916837 80.38904720847073
257.4104578111025 99.80832541514884 89.91284970542759
270.22008783886264 91.41072488345465 83.07690998649984
259.79625211399116 96.24088324688661 86.42047832468754
261.62827389372126 94.13944902982658 86.39574139650142
261.5925727303605 102.7684385045433 80.69696255887297
261.8031075844777 95.49224892508471 81.85631678710654
263.71873197561825 93.24691903058863 83.94573314309072
259.97551801412345 101.39446640531503 81.64942899046854
257.54640627033774 105.33136292456126 90.43269642067486
261.5972733034672 95.5377291060779 96.30550109042183
257.34638903688 104.64223188297481 95.50670780449575
257.2548697793175 100.04184192441484 95.22052855374885
257.6274875789789 100.72661191775106 97.47887655459968
258.1148975716894 104.10653476621754 98.64856911628182
256.44848049749754 102.0498926797309 94.84851339144055
269.67895723643875 93.38865010335843 98.9379622408003
256.8559846671233 102.83920524032429 96.85451585970773
265.2547189882732 94.43547143087125 80.7099694725491
268.14986219891017 92.91005804512315 80.92816203754565
270.1295107318666 94.73503523112097 98.99992934278876
258.88530728153046 99.79137833018245 84.3188614923289
264.96336853649325 107.93328156774355 94.81628142365592
265.9104199870877 105.68151116472887 82.27524203162547
271.54882771439327 95.5507459196335 99.01918685925138
263.0480549829012 108.15097297282011 96.2512343352921
260.84956548364573 104.99146758323845 82.10667689882874
258.64592267021004 100.38743667374378 98.50301537090488
271.27077283428514 109.84866941104299 90.84311106584916
262.08767967179324 108.89929049468398 94.1336273442308
276.6454091481482 111.82893938422167 83.70215275717514
275.14600409695163 96.89257943858142 98.96070396028801
264.0393460387414 106.53146613313929 97.7785212619686
263.5167272687669 108.54820136653542 94.76805100300565
273.68734039853996 112.03177428710647 90.89541502998837
258.02803635408276 103.1782669266231 84.42750617171691
278.32693681562444 112.27524690696953 94.91186043755714
260.17766273910144 106.70012389107596 84.19680035785369
274.1716221354677 111.87073141327636 87.58327291103858
273.87005140621693 111.85294503245768 89.20933836586359
261.33931008895337 108.85138878293897 88.27447288880795
265.3098077033952 108.08850975743883 86.57273301211494
264.2322848607203 108.97026875324347 91.60063198713681
273.1068441711982 111.39566951434163 86.75737362297595
262.2716483939517 103.23688137844472 98.82198676273269
278.76157380832814 112.6301190347797 91.89779710746664
282.97503127573583 112.4143919330436 88.50200060595466
258.0770624881578 105.81347137697442 89.23088063725595
257.0908316773112 104.85882004664442 91.6507706994479
274.2777818120891 111.77701592410041 85.90507260956646
272.82669449264023 110.89933062554849 85.38816849096635
285.8139905595829 93.88934688703904 93.33679906795771
257.01609762830736 102.45686608967779 88.21576302765074
268.3080099092701 94.68377658990546 98.8887063952114
264.6888425335243 108.71019023710363 89.0439996906114
256.74756945192456 101.19654259232422 90.18839866241863
272.3711259464003 111.12818068281456 91.84940804590217
269.8159667048316 96.37509935241837 99.03395154011851
283.915500046526 92.55895392063816 91.84326375861995
274.966244504687 112.1627728461175 90.08961503901034
284.7512515869421 111.32189238687792 94.7233991468311
271.70005433834615 97.74109313022721 99.01492249085165
258.14850785061185 98.6495504833851 88.00592086388399
280.4105140659392 112.06770954550188 83.56414480366544
273.6974723560486 98.1927364155497 98.86013865292001
263.41054680393216 107.45819774897981 83.62229750332868
283.47121321359316 111.99976732450979 90.20858653570109
259.24084049649804 97.17788249093967 93.9761098356201
275.6647903869217 98.9430812772423 99.00077568832803
257.91108346454496 105.57819533787644 92.47823548650688
256.54104614393816 103.00103039685867 91.38782054790643
287.3803561848863 97.1431924458022 96.83407848029785
277.570403622284 99.09995930615123 98.98957417009026
286.8611983512904 95.2212438305027 95.3035616907294
256.8681079510225 100.91426999891937 94.1506853100261
262.35587534689347 107.10493836700218 97.57220435857555
272.7233225784504 111.2325790705117 88.1528190791562
258.36880825324374 106.17519778817501 91.17250599136092
257.5619302137829 102.31141394890722 98.32967882754158
260.6483733461042 108.35800227132484 93.33696596999759
283.65676060516574 111.99460962833182 94.23708398205731
260.4317832662749 107.91794610186444 86.22782026965776
257.48631874339003 104.69173202329566 87.35698751526292
256.8193023938925 101.32134576891058 96.20428712060772
283.26405501888405 112.2558198307218 92.43669906301454
282.0343025699379 112.57797772651716 89.5578420181268
256.6615090549514 103.32531638541354 95.43820403112503
259.73744054700353 103.36709081440192 98.92651119286633
265.82167446727 95.17907507612834 98.58415551538292
282.36186714177603 112.35528124431848 93.89508505425458
258.7943736304346 103.22827344476109 82.74278864532266
281.79228858555837 112.60470287389505 91.08710114011205
267.71987211156795 96.96489208055426 98.99005000149498
261.57137923059264 108.19236004702655 95.5225438440941
266.8135402812799 98.44258138008838 77.36970737662983
266.99284348710574 95.22148022462177 78.71121289148074
269.4759963105907 98.59113043956641 98.91824115344058
285.36600026656157 108.44608534002194 81.17634932100661
287.89254407928667 96.65599537715129 89.73025093577802
281.4582345027474 112.13072183083983 84.29789175768184
271.3929378404399 100.08898109853119 98.99196561349352
286.2889573484686 109.84676707761616 87.13315940176724
285.7416070744633 106.92144215013099 78.99115116019426
267.0047297455771 92.06571480989287 84.07190777988691
273.73056868883907 100.22601989096295 98.99297954731043
286.28857536840025 108.82869457091792 83.5913200436927
263.0326717119913 94.6422397380614 82.09902129817378
259.99194291808624 97.89171937605039 82.14712363234912
284.79033112889107 93.62008025606724 89.47312057007449
258.98527583784755 106.62537102278691 87.28518365113096
283.5867794951324 93.13157340409806 87.21568865057979
277.6789611255555 100.93419007631918 98.90397400798125
257.3875189150902 104.3112134182449 97.06871602251697
286.2392326977897 109.65789181004594 85.64977078999222
261.08665387566487 108.7357955075751 90.89751554382696
285.60971575344246 94.00677282729777 95.17359726778184
258.53192531231065 105.78212230491361 95.63626086155361
257.57595908310327 101.21560001037787 85.9728563720944
257.8027604324345 99.037342760518 93.93967740822966
281.0158006812145 100.93840945329674 98.99010571925159
281.7189472203885 96.66377977938546 75.04657267521418
288.62760106376555 98.14013245233586 89.38780728872086
262.2069447522408 108.02763150757418 84.62732459806989
263.3772245425326 109.25871370580646 90.04148747837166
280.26434568867614 112.64638592557931 87.33076242147307
287.03929774434965 106.89057343164987 82.26218784373329
256.4492105090603 102.76952055743541 93.50649697869346
276.1599777184001 105.79472404131454 75.37511428495698
277.5948659241352 104.97526224051093 75.13351799152926
259.43367718377016 106.74956087945894 85.71929795221453
287.9996464974496 106.98488154215255 87.3806825756528
267.0585676133897 99.45410244660638 99.03146049316908
286.47301194234 109.28578196039744 95.63653755186574
283.3528873996843 96.3513831883447 76.06704100925674
269.126087951906 100.91617323801107 98.94616856171893
259.1209150166781 101.75272584416209 99.0195566719377
281.2497449287449 94.95362294594942 77.19785866442022
287.4305391466307 106.81736454513963 95.77220039082015
270.6517052128207 102.0532007831525 99.04756787893065
280.48853314538565 101.21120734202283 74.59387805541485
277.9967998902379 102.32675310452717 74.39426329390903
279.00747472410274 103.77872503266661 74.56740134902851
272.4359715460316 102.06615115385668 98.95653622506873
287.26802531791486 107.09776443346958 84.40389110729404
286.83860515527 95.35344733787022 93.50800843554954
287.6712318707535 105.18741730840588 82.39759829852537
274.46167114027895 102.35441298559378 98.98567886292989
286.2839489417678 96.98183890773677 79.03720779284455
285.7263776016203 97.88087275428136 77.61666428139642
283.89670314210787 102.65858145235792 74.86882004199403
276.7179093727891 102.91809404602489 98.89991588897836
284.8271082246193 99.97043910754729 74.79586696887765
286.2379340169821 100.44527445830494 76.68969547242689
284.2816849209894 97.9930554025767 75.32946935954537
278.7318600829658 103.4926706787849 98.98873576862046
261.86412573966277 94.08733023902374 85.19748866520234
286.6549667672988 96.5758071175343 80.61205457180998
286.92154651477335 98.40614954525005 78.7505488216426
280.94342276161626 102.9471948274697 98.9376629337941
284.9897312503789 105.23919609085131 77.01337872980116
286.98775915215595 108.91118580144237 89.9303126827907
280.70927250964644 102.92487653869671 74.30179268383783
282.709657316052 103.23810317079932 99.03870798300561
283.74263466768355 100.7876926032929 74.41795895018947
288.15665857491814 98.4122011760518 82.46733857969096
288.72025174835164 104.12270980420769 85.50936758434476
262.2682109338089 101.03385162355053 79.094788915965
288.1384620655428 100.61458527394323 80.09053153696227
288.89564791289166 102.54572709311087 84.18852898623084
265.6091634263642 106.79488488043941 84.42163745125889
287.07765908289093 100.62819507278437 77.62919897325338
285.02649930095816 96.28031910736483 78.02150039285989
288.0423599303625 97.5486294648544 93.56042973327396
288.2783584641695 97.76838231870867 84.71263823267996
271.2157907711091 103.8912594887414 98.98469456349395
288.21458989279313 104.15770335189559 93.23328086817376
288.7914450719953 100.96650871707298 82.99764532839203
286.6191860975644 95.39887179879148 97.11259809434564
273.1669104341301 103.80477646318772 99.03682091076988
261.2512467474936 105.29289137424573 98.7356632336078
258.6775683659051 98.08207057979529 95.168510274238
287.604073870074 99.83959263456994 78.65697579500957
274.8940687553802 104.2354815155321 98.91238833450143
256.72633185761373 103.89795221492787 92.5906367245447
263.2212632949178 108.72318060485227 85.715071725346
256.70154951983375 101.23226176414333 92.2969074854561
276.4986939537148 104.97948571367209 99.01566130389962
266.93833534013976 93.67202491588293 99.05677793017769
277.54689261487357 104.22530053239706 98.93888351965676
278.26553145626735 105.49360355162754 98.90194551198903
287.50906992222974 96.3887264310164 84.90992669931829
285.2329815080727 103.33913176022931 76.24259311738483
288.6586487017785 103.69543626507978 87.50387030130882
280.21661703879033 104.90051524234347 98.91806601678105
284.05693315848333 102.48116520354768 98.9097711835262
282.54223169856664 101.76381394475435 98.92791795827786
279.32358814836425 101.70323742277047 98.97522631900377
282.06145150738433 104.5859749343125 98.98067215883619
278.10761313257683 102.26914004347876 99.06285763704187
275.8232823361278 100.88930821249102 99.0221548142135
266.11824814567245 106.60415664734572 96.52139000112268
284.0052605765737 104.38034720850587 99.01275733624087
286.6573158373752 95.7711113293035 83.38636732001935
287.93363731385574 104.29850302972376 81.55618067055786
286.50819303548565 102.05056008456762 77.26321415523019
282.5532576404058 100.103986091161 99.02817876393564
273.63270506975437 105.20158387115497 98.9766416870447
279.49851623327004 99.69664903898217 98.94804588534424
284.8315310410805 94.50212679919323 82.13818484309357
276.68780098956586 99.96804448343275 99.0416842312194
274.8918988559961 106.18900771469943 99.10623068500973
282.53599232585657 112.4789298992425 87.10098575157303
272.63259631203755 99.0620952922684 98.96232407799963
288.5355338350937 101.29828582343478 81.4382821489352
276.7246318690296 106.752039893926 99.01671168033452
283.86978839131166 111.61794430817059 95.7208626197439
284.2670805275498 111.88814468525999 88.72376328519698
281.22991836494566 99.43518032919779 98.9449120181014
278.3431414329972 107.47440884793205 99.11649097420893
280.7257950578442 98.04131706456897 98.93770441452165
278.88860063030376 97.71362392562122 99.04573571692772
276.99805341954067 97.34679737135767 98.94932989461464
279.8143050885582 106.68783334557857 99.10556725219298
285.3170067079872 94.13448096462467 96.95777598450161
273.3044009710578 96.30552015912073 98.97826872266337
259.2417049681108 104.8578218648873 83.04841599912616
281.4782236034205 106.20414283590725 99.10295954769397
286.75224739469235 108.94259685644471 93.7167098383446
284.81710018941334 111.3698529124504 93.2869863737625
257.0088700159501 104.19469183562974 89.70764500197356
282.9869884956307 105.8374108299134 99.07400749854654
262.1335268466789 108.85069644780675 86.34892713795102
278.31065019737775 95.89141489380607 99.09580027315198
276.48075772120984 95.53434705750554 98.90898415534144
274.7247047000494 95.04659581374584 99.11375611352206
273.01172999761485 94.40891081754772 99.00352708003383
275.5120720842903 107.75284524522378 98.99149032691385
286.83358764310384 108.71969489698805 86.33835613464998
282.5058784649687 98.45657232688372 74.54313339652856
286.4601676700427 104.14166792134336 77.69089130399271
276.86252046787496 108.67319349365854 98.93238156449029
264.63969828909904 93.89044939004596 97.9335631677175
285.29837013483814 99.04595144538796 75.9398189051328
275.9989072286137 93.86906553579786 98.9099363972983
278.44762537035905 108.8568990552422 99.15072235473869
274.4182669446697 93.32128307666828 98.8842317274708
272.75375565848 92.56969212401951 98.66036847393187
274.262652495927 111.11199664066594 84.29221891543476
279.6733227010408 108.27629523336941 99.11163064150197
268.07289817778945 92.49044883348841 98.25368583763881
287.60558890629153 107.37235122524235 91.68962174662792
265.78614266620525 91.47006460232683 89.90911344004743
281.00168334555104 107.63995831729407 98.93549700587462
275.62487582562767 92.50213914693273 98.71063125663986
283.0450760717489 111.61310980479354 83.43609550109169
260.26516968424914 106.88814225855018 96.68716621985573
282.7749924749984 107.62662187093282 98.9284692268626
257.09302555034236 100.14456362645771 92.99080815176748
278.50504055024663 112.42772046399357 85.39736259667879
263.77046417523076 103.7089909754599 80.26664272404146
256.7236454002085 102.7183013805997 89.86055323230576
259.9184270918876 107.89513712821015 87.7914938278168
277.8372297319602 110.20334699234009 99.16634909030086
272.81710250491574 90.904090081729 97.59207660310935
284.3413177643764 111.05300506907268 84.34027544817398
289.1097834660149 101.02248368875017 92.07894899090142
289.0609528468966 102.2271007256418 86.18765750151715
287.340437849933 107.76395468705286 94.98624496694617
289.0415300933807 100.66845485243495 84.89982455372417
288.2413981306459 97.33820731670961 86.25156978099511
279.44912913528316 109.83538945845683 99.02942624633341
288.8414532285891 98.91691273425144 85.62910806759383
285.36896185133753 95.69167599897621 79.80433627310646
286.2545163053101 94.56430511958999 87.20491786902166
287.8426093361362 97.3009104285836 83.19094440996761
261.2558768311027 95.34045973564857 83.38355196554383
258.80873630061905 106.58094044185249 93.2963808567739
263.54269782226396 92.33215703599663 87.38286955127069
287.79844729964367 98.92905029310641 80.0410491609392
289.113808218559 99.96413931845298 88.81279560719769
287.54719467937514 101.47523238665579 78.71294979385324
POLYGONS 1658 6632
3 3 0 1
3 3 4 2
3 3 2 0
3 3 1 13
3 4 3 5
3 3 13 5
3 4 5 6
3 13 1 12
3 17 5 13
3 18 5 17
3 0 25 1
3 0 8 25
3 2 8 0
3 9 8 2
3 10 9 2
3 11 10 4
3 4 6 11
3 6 7 11
3 12 1 67
3 6 5 14
3 7 15 16
3 17 13 12
3 40 18 17
3 18 19 20
3 18 20 14
3 18 14 5
3 21 14 20
3 14 21 15
3 22 15 21
3 15 22 16
3 19 18 40
3 9 10 27
3 10 11 27
3 30 29 28
3 30 28 27
3 11 30 27
3 11 7 30
3 32 31 29
3 32 29 30
3 7 32 30
3 7 16 32
3 33 31 32
3 12 67 71
3 16 35 32
3 38 39 34
3 12 39 17
3 45 40 38
3 39 38 40
3 17 39 40
3 20 19 41
3 20 41 42
3 20 42 21
3 21 42 50
3 21 50 22
3 16 43 35
3 46 19 45
3 47 41 46
3 19 46 41
3 48 42 47
3 41 47 42
3 49 50 48
3 42 48 50
3 56 55 96
3 56 96 54
3 24 56 54
3 24 25 56
3 57 58 55
3 57 55 56
3 56 25 57
3 57 59 58
3 57 25 8
3 57 8 59
3 23 63 67
3 62 60 61
3 9 27 61
3 65 64 62
3 65 62 61
3 61 27 65
3 66 68 64
3 66 64 65
3 27 66 65
3 27 28 66
3 69 68 66
3 28 69 66
3 28 29 69
3 67 63 71
3 29 31 69
3 73 72 70
3 69 31 73
3 71 115 34
3 122 34 115
3 34 122 77
3 34 77 38
3 123 78 77
3 38 77 78
3 38 78 45
3 80 82 78
3 80 78 123
3 45 78 82
3 81 82 80
3 45 82 46
3 83 84 81
3 82 81 84
3 46 82 84
3 46 84 47
3 84 83 85
3 84 85 47
3 47 85 48
3 52 53 92
3 87 85 83
3 88 85 87
3 53 90 91
3 93 94 92
3 53 91 92
3 92 91 93
3 709 86 94
3 92 94 86
3 95 91 90
3 95 90 89
3 93 91 95
3 96 97 54
3 96 98 97
3 96 55 98
3 100 99 98
3 54 102 23
3 55 100 98
3 55 58 100
3 100 58 104
3 101 99 104
3 58 60 104
3 106 105 101
3 106 101 104
3 104 60 62
3 104 62 106
3 109 108 105
3 109 105 106
3 62 109 106
3 62 64 109
3 63 103 111
3 103 107 111
3 110 113 108
3 110 108 109
3 64 110 109
3 64 68 110
3 112 113 110
3 68 112 110
3 116 113 112
3 112 68 70
3 111 114 115
3 117 116 112
3 70 117 112
3 120 122 181
3 121 122 120
3 122 121 123
3 122 123 77
3 127 123 121
3 123 127 80
3 128 129 126
3 127 126 129
3 80 127 129
3 80 129 81
3 129 128 130
3 129 130 81
3 81 130 83
3 789 709 131
3 132 125 124
3 133 130 128
3 134 135 133
3 83 135 87
3 135 134 136
3 87 135 136
3 87 136 88
3 94 93 137
3 709 140 131
3 131 139 132
3 141 143 136
3 141 136 134
3 88 136 143
3 142 143 141
3 143 142 144
3 143 144 89
3 145 146 147
3 89 144 95
3 145 95 144
3 145 144 146
3 145 147 137
3 145 137 93
3 148 137 147
3 93 95 145
3 138 140 148
3 137 148 140
3 146 144 142
3 149 151 150
3 152 151 149
3 153 154 152
3 152 98 153
3 153 155 154
3 98 99 153
3 157 158 155
3 157 155 153
3 99 157 153
3 157 99 101
3 157 101 158
3 162 161 159
3 162 159 158
3 101 162 158
3 101 105 162
3 103 163 107
3 164 166 161
3 164 161 162
3 105 164 162
3 105 108 164
3 167 166 164
3 108 167 164
3 108 113 167
3 168 166 167
3 107 165 172
3 113 169 167
3 169 113 116
3 171 170 174
3 114 176 181
3 181 180 120
3 120 180 182
3 120 182 121
3 184 185 182
3 184 182 251
3 121 182 185
3 121 185 127
3 186 187 184
3 185 184 187
3 127 185 187
3 127 187 126
3 188 189 186
3 187 186 189
3 126 187 189
3 126 189 128
3 191 190 715
3 192 193 189
3 192 189 188
3 128 189 193
3 128 193 133
3 194 195 192
3 193 192 195
3 133 193 195
3 133 195 134
3 195 194 196
3 195 196 134
3 139 138 200
3 197 139 200
3 190 191 199
3 132 139 197
3 201 196 194
3 202 203 201
3 134 203 141
3 203 202 204
3 203 204 141
3 141 204 142
3 147 146 205
3 147 205 209
3 147 209 148
3 206 148 209
3 206 209 207
3 198 200 208
3 138 148 206
3 210 204 202
3 211 212 210
3 213 205 211
3 212 211 205
3 212 205 146
3 146 142 212
3 207 209 213
3 205 213 209
3 216 217 286
3 150 151 216
3 216 151 218
3 151 152 218
3 152 154 218
3 154 219 215
3 154 155 219
3 219 155 221
3 220 219 221
3 221 222 220
3 155 158 221
3 221 158 159
3 221 159 222
3 227 226 223
3 227 223 222
3 159 227 222
3 159 161 227
3 230 229 226
3 230 226 227
3 161 230 227
3 161 166 230
3 232 229 230
3 166 232 230
3 232 166 168
3 235 234 231
3 236 237 233
3 168 170 236
3 236 170 171
3 254 255 253
3 251 253 255
3 184 251 255
3 184 255 186
3 256 257 254
3 255 254 257
3 186 255 257
3 186 257 188
3 259 258 252
3 259 252 742
3 260 261 257
3 260 257 256
3 188 257 261
3 188 261 192
3 261 260 262
3 192 261 262
3 192 262 194
3 190 265 259
3 194 262 266
3 194 266 201
3 267 268 797
3 266 797 268
3 201 266 268
3 201 268 202
3 269 208 272
3 202 268 274
3 202 274 210
3 275 276 273
3 274 273 276
3 210 274 276
3 210 276 211
3 211 276 277
3 211 277 213
3 207 213 277
3 278 214 279
3 214 215 279
3 217 354 286
3 281 283 280
3 281 280 279
3 215 281 279
3 215 219 281
3 281 282 283
3 281 219 282
3 284 283 282
3 282 219 220
3 287 288 284
3 287 284 282
3 220 287 282
3 220 222 287
3 289 288 290
3 287 290 288
3 287 222 223
3 287 223 290
3 224 293 225
3 150 293 224
3 292 291 289
3 292 289 290
3 223 292 290
3 223 226 292
3 296 295 291
3 296 291 292
3 226 296 292
3 226 229 296
3 294 371 300
3 297 298 295
3 297 295 296
3 229 297 296
3 229 232 297
3 297 232 233
3 297 233 298
3 301 300 371
3 300 301 306
3 302 303 299
3 302 299 298
3 304 303 305
3 302 305 303
3 302 237 238
3 302 238 305
3 307 306 301
3 235 306 311
3 309 308 310
3 319 318 320
3 322 321 315
3 323 324 320
3 319 320 324
3 253 319 324
3 253 324 254
3 325 326 323
3 324 323 326
3 254 324 326
3 254 326 256
3 328 327 321
3 328 321 322
3 252 328 322
3 252 258 328
3 329 330 326
3 329 326 325
3 256 326 330
3 256 330 260
3 330 329 332
3 260 330 332
3 258 264 334
3 271 270 338
3 339 341 651
3 267 336 343
3 267 343 273
3 344 345 342
3 343 342 345
3 275 345 347
3 278 279 348
3 279 280 348
3 354 349 350
3 283 351 280
3 351 353 352
3 351 283 284
3 351 284 353
3 355 356 353
3 284 355 353
3 284 288 355
3 288 289 357
3 358 356 357
3 359 358 360
3 357 289 360
3 357 360 358
3 289 291 360
3 285 361 365
3 285 365 294
3 361 362 365
3 364 363 359
3 364 359 360
3 291 364 360
3 291 295 364
3 366 365 362
3 294 365 371
3 365 366 371
3 367 368 363
3 367 363 364
3 295 367 364
3 369 368 370
3 367 370 368
3 367 299 370
3 371 376 301
3 301 376 377
3 301 377 307
3 304 722 375
3 304 308 722
3 380 379 381
3 722 381 379
3 307 377 383
3 387 386 380
3 387 380 381
3 309 387 381
3 391 390 392
3 318 391 392
3 318 392 320
3 394 393 386
3 394 386 387
3 315 321 394
3 395 396 392
3 395 392 390
3 320 392 396
3 320 396 323
3 397 398 395
3 396 395 398
3 323 396 398
3 323 398 325
3 321 327 400
3 401 578 398
3 401 398 397
3 325 398 578
3 325 578 329
3 402 606 401
3 578 401 606
3 403 399 400
3 327 403 400
3 405 406 404
3 410 411 406
3 410 406 405
3 335 411 342
3 411 410 413
3 342 411 413
3 342 413 344
3 344 415 346
3 348 417 349
3 418 486 416
3 348 280 416
3 416 280 418
3 486 419 417
3 280 351 418
3 418 351 352
3 352 353 421
3 422 421 356
3 421 353 356
3 350 424 361
3 356 425 422
3 358 359 425
3 492 424 423
3 361 424 362
3 426 425 427
3 425 359 427
3 359 363 427
3 428 424 492
3 362 433 366
3 429 430 426
3 429 426 427
3 363 429 427
3 363 368 429
3 431 430 432
3 429 432 430
3 429 368 369
3 429 369 432
3 434 433 428
3 366 433 439
3 435 436 431
3 435 431 432
3 437 436 438
3 435 438 436
3 507 440 434
3 441 442 437
3 441 437 438
3 443 442 444
3 441 444 442
3 441 379 380
3 441 380 444
3 445 446 440
3 445 440 507
3 378 440 446
3 378 446 382
3 447 448 445
3 446 445 448
3 450 449 443
3 450 443 444
3 380 450 444
3 380 386 450
3 453 454 451
3 452 451 454
3 455 456 453
3 454 453 456
3 458 457 449
3 458 449 450
3 386 458 450
3 386 393 458
3 459 460 456
3 459 456 455
3 390 456 460
3 390 460 395
3 461 462 459
3 460 459 462
3 395 460 462
3 395 462 397
3 464 463 457
3 464 457 458
3 393 464 458
3 465 466 462
3 465 462 461
3 397 462 466
3 397 466 401
3 467 468 465
3 466 465 468
3 401 466 468
3 401 468 402
3 470 469 463
3 470 463 464
3 471 472 468
3 471 468 467
3 402 468 472
3 402 472 404
3 473 474 471
3 472 471 474
3 478 682 408
3 469 470 479
3 682 479 470
3 682 470 817
3 480 481 474
3 480 474 473
3 405 474 481
3 405 481 410
3 410 481 483
3 484 485 482
3 483 482 485
3 486 418 488
3 486 487 419
3 418 352 488
3 488 352 420
3 489 490 420
3 420 421 489
3 489 421 422
3 422 491 489
3 493 494 491
3 493 491 422
3 425 493 422
3 493 495 494
3 493 425 426
3 493 426 495
3 492 499 428
3 492 799 499
3 496 497 495
3 426 496 495
3 426 430 496
3 496 498 497
3 496 430 431
3 496 431 498
3 500 501 498
3 431 500 498
3 431 436 500
3 500 502 501
3 500 436 437
3 500 437 502
3 434 638 507
3 503 504 502
3 437 503 502
3 437 442 503
3 503 505 504
3 503 442 443
3 503 443 505
3 506 507 638
3 681 508 506
3 507 506 508
3 445 507 508
3 445 508 447
3 443 509 505
3 443 449 509
3 681 510 508
3 447 508 510
3 447 510 451
3 684 511 681
3 510 681 511
3 451 510 511
3 451 511 453
3 688 512 684
3 511 684 512
3 453 511 512
3 453 512 455
3 449 457 509
3 724 513 512
3 724 512 688
3 455 512 513
3 455 513 459
3 514 515 724
3 513 724 515
3 459 513 515
3 459 515 461
3 516 521 751
3 516 751 509
3 457 516 509
3 457 463 516
3 517 518 515
3 517 515 514
3 461 515 518
3 461 518 465
3 519 520 517
3 518 517 520
3 465 518 520
3 465 520 467
3 463 521 516
3 463 469 521
3 522 523 520
3 522 520 519
3 467 520 523
3 467 523 471
3 524 525 522
3 523 522 525
3 471 523 525
3 471 525 473
3 528 526 806
3 476 475 527
3 528 476 527
3 528 527 526
3 529 528 806
3 476 528 479
3 528 529 479
3 529 521 469
3 469 479 529
3 530 525 524
3 473 525 530
3 473 530 480
3 531 532 530
3 480 530 532
3 480 532 482
3 533 534 531
3 532 531 534
3 482 532 534
3 482 534 484
3 526 527 533
3 534 533 527
3 488 420 813
3 490 489 803
3 494 495 782
3 497 498 769
3 501 502 755
3 504 505 744
3 506 638 642
3 506 642 681
3 724 728 514
3 514 728 756
3 514 756 517
3 517 756 760
3 517 760 519
3 519 760 786
3 519 786 522
3 522 786 790
3 522 790 524
3 524 790 812
3 802 806 526
3 521 529 806
3 524 812 530
3 530 812 531
3 531 812 820
3 531 820 533
3 526 533 820
3 2 4 10
3 6 14 15
3 15 7 6
3 23 24 54
3 23 67 26
3 67 1 26
3 71 34 39
3 39 12 71
3 43 16 22
3 19 40 45
3 52 92 86
3 100 104 99
3 130 133 135
3 135 83 130
3 94 137 140
3 140 709 94
3 156 97 149
3 156 224 160
3 196 201 203
3 203 134 196
3 204 210 212
3 212 142 204
3 216 286 150
3 214 217 216
3 216 218 214
3 217 214 278
3 278 354 217
3 293 150 286
3 286 285 293
3 349 278 348
3 354 278 349
3 355 288 357
3 357 356 355
3 354 350 361
3 416 486 417
3 417 348 416
3 350 349 423
3 423 349 417
3 417 419 423
3 421 420 352
3 350 423 424
3 356 358 425
3 419 799 492
3 492 423 419
3 487 799 419
3 486 488 813
3 813 420 490
3 491 793 803
3 803 489 491
3 793 491 494
3 782 495 497
3 769 498 501
3 755 502 504
3 509 751 744
3 744 505 509
3 521 780 751
3 521 806 780
3 798 802 526
3 526 820 798
3 813 487 486
3 813 796 487
3 795 796 490
3 490 796 813
3 793 795 803
3 803 795 490
3 566 799 487
3 540 487 796
3 540 566 487
3 785 540 796
3 784 785 795
3 795 785 796
3 783 784 793
3 793 784 795
3 793 494 783
3 783 494 782
3 574 570 540
3 540 570 566
3 774 574 785
3 785 574 540
3 581 774 784
3 784 774 785
3 771 581 783
3 783 581 784
3 770 771 782
3 782 771 783
3 782 497 770
3 770 497 769
3 566 603 799
3 607 603 570
3 570 603 566
3 611 607 574
3 574 607 570
3 614 611 774
3 774 611 574
3 618 614 581
3 581 614 774
3 622 618 771
3 771 618 581
3 757 622 770
3 770 622 771
3 767 757 769
3 769 757 770
3 769 501 767
3 767 501 755
3 642 638 603
3 646 642 607
3 607 642 603
3 650 646 611
3 611 646 607
3 654 762 614
3 614 762 611
3 654 650 762
3 762 650 611
3 749 654 618
3 618 654 614
3 661 759 622
3 622 759 618
3 661 749 759
3 759 749 618
3 746 661 757
3 757 661 622
3 669 757 767
3 669 746 757
3 745 669 755
3 755 669 767
3 755 504 745
3 745 504 744
3 684 681 646
3 646 681 642
3 688 684 650
3 650 684 646
3 654 692 650
3 692 688 650
3 749 696 654
3 696 692 654
3 700 749 661
3 700 696 749
3 704 748 746
3 746 748 661
3 704 700 748
3 748 700 661
3 708 746 669
3 708 704 746
3 712 708 745
3 745 708 669
3 751 712 744
3 744 712 745
3 728 724 692
3 692 724 688
3 732 728 696
3 696 728 692
3 736 732 700
3 700 732 696
3 739 738 704
3 704 738 700
3 739 736 738
3 738 736 700
3 708 743 704
3 743 739 704
3 712 747 708
3 747 743 708
3 751 747 712
3 760 756 732
3 732 756 728
3 764 760 736
3 736 760 732
3 768 764 739
3 739 764 736
3 743 772 739
3 772 768 739
3 747 776 743
3 776 772 743
3 751 780 747
3 780 776 747
3 790 786 764
3 764 786 760
3 794 790 768
3 768 790 764
3 772 798 768
3 798 794 768
3 776 802 772
3 802 798 772
3 780 806 776
3 806 802 776
3 794 812 790
3 798 820 794
3 820 812 794
3 215 214 218
3 218 154 215
3 60 58 59
3 59 61 60
3 59 8 9
3 9 61 59
3 170 168 167
3 242 238 239
3 169 174 170
3 170 167 169
3 366 439 376
3 376 371 366
3 25 26 1
3 32 35 33
3 33 35 36
3 25 24 26
3 26 24 23
3 246 829 243
3 245 316 829
3 824 175 177
3 236 823 237
3 236 171 823
3 823 171 239
3 819 821 243
3 243 821 246
3 239 819 242
3 239 740 819
3 246 821 818
3 818 821 178
3 245 816 742
3 315 815 316
3 815 387 309
3 315 316 322
3 316 245 322
3 242 671 648
3 316 815 310
3 310 815 309
3 310 829 316
3 337 407 340
3 407 409 340
3 407 778 409
3 409 778 408
3 777 409 408
3 639 414 485
3 339 766 337
3 339 338 766
3 610 765 478
3 131 132 789
3 789 132 124
3 346 761 347
3 338 270 761
3 761 270 347
3 718 816 818
3 818 816 246
3 118 706 175
3 171 174 752
3 412 415 413
3 415 344 413
3 789 124 754
3 717 830 125
3 125 830 124
3 132 753 125
3 132 197 753
3 252 322 742
3 742 322 245
3 830 754 124
3 171 740 239
3 171 752 740
3 828 717 179
3 717 763 179
3 648 671 308
3 308 671 310
3 387 815 394
3 394 815 315
3 740 752 824
3 824 752 175
3 175 752 118
3 118 752 174
3 819 243 242
3 243 671 242
3 721 822 117
3 822 706 118
3 374 727 373
3 373 727 435
3 374 438 727
3 727 438 435
3 179 726 178
3 178 726 818
3 179 763 726
3 394 725 393
3 393 725 400
3 394 321 725
3 725 321 400
3 740 723 819
3 740 824 723
3 723 824 178
3 309 722 308
3 309 381 722
3 37 788 36
3 36 788 33
3 37 74 788
3 788 74 33
3 75 721 72
3 75 698 721
3 830 720 754
3 830 731 720
3 720 731 76
3 70 72 117
3 72 721 117
3 79 741 754
3 754 741 789
3 828 731 717
3 717 731 830
3 183 763 125
3 125 763 717
3 818 726 718
3 742 816 715
3 715 816 718
3 824 714 178
3 178 714 179
3 824 177 714
3 714 177 179
3 36 713 37
3 36 44 713
3 125 753 183
3 183 753 191
3 334 710 333
3 333 710 340
3 710 341 340
3 333 777 403
3 706 697 119
3 721 698 697
3 789 741 709
3 709 741 86
3 44 711 52
3 52 711 53
3 819 723 821
3 821 723 178
3 177 706 119
3 177 175 706
3 698 76 707
3 707 76 731
3 119 707 828
3 828 707 731
3 37 703 74
3 74 703 75
3 37 792 703
3 703 792 75
3 754 702 79
3 754 720 702
3 702 720 76
3 79 701 713
3 713 701 37
3 79 792 701
3 701 792 37
3 86 699 52
3 86 741 699
3 75 792 698
3 698 792 76
3 698 707 697
3 697 707 119
3 183 191 718
3 718 191 715
3 191 695 199
3 199 695 197
3 191 753 695
3 695 753 197
3 304 694 303
3 303 694 372
3 304 375 694
3 694 375 372
3 333 800 334
3 334 800 327
3 333 403 800
3 800 403 327
3 119 828 177
3 828 179 177
3 263 693 198
3 198 693 199
3 263 265 693
3 403 817 399
3 403 777 817
3 691 90 53
3 43 690 51
3 43 22 690
3 690 22 50
3 51 689 43
3 44 36 689
3 399 687 464
3 464 687 470
3 399 817 687
3 687 817 470
3 49 690 50
3 400 399 393
3 399 464 393
3 72 683 75
3 75 683 74
3 72 73 683
3 683 73 74
3 817 777 682
3 682 777 408
3 711 51 691
3 691 53 711
3 327 328 334
3 328 258 334
3 258 680 264
3 264 680 265
3 258 259 680
3 680 259 265
3 718 726 183
3 183 726 763
3 90 691 678
3 678 691 49
3 85 677 48
3 85 88 677
3 69 686 68
3 68 686 70
3 69 73 686
3 686 73 70
3 52 699 44
3 44 699 713
3 197 675 199
3 199 675 198
3 197 200 675
3 675 200 198
3 199 693 190
3 190 693 265
3 347 674 346
3 346 674 344
3 347 345 674
3 674 345 344
3 269 814 271
3 271 814 270
3 269 272 814
3 829 246 245
3 246 816 245
3 338 339 271
3 339 651 271
3 721 697 822
3 822 697 706
3 345 808 343
3 343 808 273
3 345 275 808
3 808 275 273
3 713 699 79
3 79 699 741
3 272 207 804
3 804 207 277
3 265 787 264
3 265 263 787
3 79 702 792
3 792 702 76
3 44 689 711
3 711 689 51
3 51 690 691
3 691 690 49
3 243 829 671
3 671 829 310
3 117 822 116
3 116 822 118
3 43 689 35
3 35 689 36
3 33 670 31
3 31 670 73
3 33 74 670
3 670 74 73
3 90 678 89
3 89 678 677
3 484 475 477
3 475 765 477
3 475 484 527
3 527 484 534
3 478 765 476
3 476 765 475
3 271 663 269
3 269 663 263
3 271 651 663
3 596 761 346
3 232 660 233
3 233 660 236
3 232 168 660
3 660 168 236
3 682 478 479
3 478 476 479
3 233 658 298
3 298 658 302
3 233 237 658
3 658 237 302
3 304 305 308
3 308 305 648
3 198 655 263
3 263 655 269
3 198 208 655
3 655 208 269
3 207 272 206
3 206 272 208
3 237 823 238
3 238 823 239
3 270 814 804
3 804 814 272
3 264 651 341
3 264 787 651
3 277 649 804
3 275 347 649
3 485 414 483
3 483 414 412
3 238 648 305
3 238 242 648
3 200 647 208
3 208 647 206
3 200 138 647
3 647 138 206
3 131 652 139
3 139 652 138
3 131 140 652
3 652 140 138
3 263 663 787
3 787 663 651
3 677 88 89
3 88 143 89
3 369 773 432
3 432 773 435
3 369 373 773
3 773 373 435
3 116 758 169
3 169 758 174
3 116 118 758
3 758 118 174
3 369 665 373
3 373 665 372
3 369 370 665
3 665 370 372
3 343 336 342
3 336 335 342
3 374 375 379
3 379 375 722
3 677 678 48
3 48 678 49
3 596 346 635
3 635 346 415
3 634 639 630
3 415 641 635
3 766 596 616
3 477 630 639
3 630 610 778
3 484 477 485
3 477 639 485
3 373 623 374
3 374 623 375
3 373 372 623
3 623 372 375
3 374 621 438
3 438 621 441
3 374 379 621
3 621 379 441
3 340 409 333
3 409 777 333
3 339 337 341
3 341 337 340
3 337 766 616
3 341 710 264
3 264 710 334
3 275 613 276
3 276 613 277
3 275 649 613
3 613 649 277
3 804 649 270
3 270 649 347
3 742 715 259
3 715 190 259
3 408 610 478
3 408 778 610
3 634 616 641
3 641 616 635
3 298 608 295
3 295 608 367
3 298 299 608
3 608 299 367
3 262 797 266
3 262 600 797
3 639 634 414
3 414 634 641
3 336 588 335
3 606 402 404
3 414 641 412
3 412 641 415
3 337 616 407
3 407 616 634
3 635 616 596
3 299 601 370
3 370 601 372
3 299 303 601
3 601 303 372
3 407 634 778
3 778 634 630
3 599 588 336
3 338 596 766
3 338 761 596
3 410 595 413
3 413 595 412
3 410 483 595
3 595 483 412
3 332 593 600
3 332 626 593
3 589 588 626
3 626 331 589
3 589 331 584
3 599 593 588
3 483 586 482
3 482 586 480
3 483 481 586
3 586 481 480
3 593 626 588
3 406 584 404
3 404 584 606
3 406 609 584
3 797 599 267
3 267 599 336
3 589 584 609
3 268 580 274
3 274 580 273
3 268 267 580
3 580 267 273
3 335 609 411
3 411 609 406
3 606 584 331
3 606 331 578
3 578 331 329
3 331 626 329
3 329 626 332
3 610 630 765
3 765 630 477
3 588 589 335
3 335 589 609
3 593 599 600
3 600 599 797
3 260 600 262
3 260 332 600
3 474 405 472
3 472 405 404
3 312 667 311
3 383 377 668
3 247 615 250
3 250 615 249
3 247 672 615
3 615 672 249
3 317 604 319
3 319 604 318
3 317 673 604
3 604 673 318
3 659 313 632
3 632 602 779
3 602 667 312
3 779 620 598
3 779 597 632
3 627 314 597
3 452 594 451
3 448 447 594
3 594 447 451
3 318 592 391
3 391 592 389
3 318 673 592
3 592 673 389
3 629 389 664
3 664 389 673
3 602 312 605
3 385 666 826
3 317 590 673
3 664 673 590
3 590 314 664
3 247 587 672
3 587 631 672
3 775 313 587
3 384 666 662
3 313 775 585
3 389 583 391
3 659 632 597
3 597 314 659
3 388 582 454
3 454 582 452
3 388 625 582
3 582 625 452
3 319 591 317
3 317 591 249
3 319 253 591
3 591 253 249
3 643 579 629
3 629 579 389
3 643 583 579
3 579 583 389
3 631 781 672
3 631 590 781
3 781 590 317
3 627 535 314
3 629 664 535
3 535 664 314
3 448 577 446
3 446 577 382
3 244 576 248
3 248 576 247
3 244 775 576
3 643 805 625
3 805 666 384
3 454 750 388
3 388 750 390
3 454 456 750
3 750 456 390
3 388 575 625
3 625 575 643
3 388 583 575
3 575 583 643
3 180 573 182
3 182 573 251
3 180 250 573
3 573 250 251
3 391 572 390
3 390 572 388
3 391 583 572
3 572 583 388
3 240 571 241
3 235 311 571
3 54 569 102
3 102 569 156
3 54 97 569
3 569 97 156
3 102 568 103
3 103 568 163
3 568 160 163
3 383 735 605
3 605 735 620
3 385 676 636
3 241 640 244
3 244 640 775
3 241 585 640
3 640 585 775
3 378 617 439
3 439 617 376
3 617 377 376
3 377 617 668
3 636 567 662
3 662 567 628
3 636 633 567
3 567 633 628
3 636 565 633
3 633 565 624
3 636 676 565
3 565 676 624
3 628 564 662
3 662 564 384
3 628 637 564
3 564 637 384
3 382 563 633
3 633 563 628
3 382 577 563
3 563 577 628
3 735 624 676
3 676 620 735
3 624 807 668
3 668 807 383
3 624 735 807
3 807 735 383
3 637 448 594
3 382 562 668
3 668 562 624
3 382 633 562
3 562 633 624
3 636 561 385
3 385 561 666
3 636 662 561
3 561 662 666
3 628 685 637
3 637 685 448
3 628 577 685
3 685 577 448
3 307 612 306
3 306 612 311
3 307 312 612
3 612 312 311
3 434 560 433
3 433 560 439
3 434 440 560
3 625 729 452
3 384 637 729
3 156 653 224
3 224 653 150
3 156 149 653
3 653 149 150
3 385 619 598
3 598 619 627
3 385 826 619
3 619 826 627
3 627 559 598
3 598 559 779
3 627 597 559
3 559 597 779
3 244 558 241
3 241 558 240
3 244 173 558
3 558 173 240
3 224 557 160
3 160 557 228
3 224 225 557
3 557 225 228
3 234 165 556
3 173 555 176
3 176 555 248
3 173 244 555
3 555 244 248
3 300 554 294
3 294 554 225
3 300 231 554
3 306 553 300
3 300 553 231
3 306 235 553
3 553 235 231
3 97 552 149
3 149 552 152
3 97 98 552
3 552 98 152
3 383 551 307
3 307 551 312
3 383 605 551
3 551 605 312
3 452 729 594
3 594 729 637
3 667 571 311
3 632 548 602
3 602 548 667
3 548 585 667
3 165 550 172
3 172 550 173
3 165 240 550
3 550 240 173
3 235 549 234
3 235 571 549
3 549 571 240
3 384 547 805
3 805 547 625
3 384 729 547
3 547 729 625
3 666 546 826
3 666 805 546
3 546 805 643
3 294 827 285
3 285 827 293
3 294 225 827
3 827 225 293
3 779 810 620
3 620 810 605
3 779 602 810
3 810 602 605
3 439 560 378
3 378 560 440
3 672 734 249
3 249 734 317
3 672 781 734
3 734 781 317
3 668 730 382
3 382 730 378
3 668 617 730
3 730 617 378
3 176 716 173
3 173 716 172
3 176 114 716
3 716 114 172
3 225 705 228
3 228 705 231
3 225 554 705
3 705 554 231
3 234 657 165
3 165 657 240
3 234 549 657
3 657 549 240
3 354 801 286
3 286 801 285
3 354 361 801
3 801 361 285
3 499 791 428
3 428 791 434
3 499 638 791
3 791 638 434
3 603 737 799
3 799 737 499
3 603 638 737
3 737 638 499
3 23 645 63
3 63 645 103
3 23 102 645
3 645 102 103
3 620 733 598
3 598 733 385
3 620 676 733
3 733 676 385
3 249 719 250
3 250 719 251
3 249 253 719
3 719 253 251
3 63 644 71
3 71 644 115
3 63 111 644
3 644 111 115
3 241 544 585
3 585 544 667
3 241 571 544
3 544 571 667
3 826 546 629
3 546 643 629
3 250 543 247
3 247 543 248
3 250 180 543
3 543 180 248
3 585 542 313
3 313 542 632
3 585 548 542
3 542 548 632
3 424 541 362
3 362 541 433
3 424 428 541
3 541 428 433
3 172 539 107
3 107 539 111
3 172 114 539
3 539 114 111
3 631 679 659
3 659 679 313
3 631 587 679
3 679 587 313
3 176 809 181
3 181 809 180
3 176 248 809
3 809 248 180
3 228 656 160
3 160 656 163
3 228 556 656
3 656 556 163
3 160 545 156
3 156 545 102
3 160 568 545
3 545 568 102
3 247 538 587
3 587 538 775
3 247 576 538
3 538 576 775
3 163 537 107
3 107 537 165
3 163 556 537
3 537 556 165
3 314 811 659
3 659 811 631
3 314 590 811
3 811 590 631
3 181 536 114
3 114 536 115
3 181 122 536
3 536 122 115
3 627 826 535
3 535 826 629
3 234 825 231
3 231 825 228
3 234 556 825
3 825 556 228
