# vtk DataFile Version 3.0
A great-looking cell
ASCII
DATASET POLYDATA
POINTS 711 double
355.61856910359165 132.24487745080842 36.46937838394668
362.8510423184378 149.49765750965383 41.798385332494576
360.8477870314097 145.19330795513562 42.75927365248545
360.9757701428509 143.87510546638865 45.39456439966376
376.89625771297733 143.3611131159702 43.95499883774024
362.58919543287385 146.98677891561684 48.95722606853306
363.5077384285194 149.50821698509955 47.65304990434799
361.09053535203367 145.22165756104854 45.56339206562607
361.7624049373879 147.4606432766886 44.43963079136753
366.0436450365368 136.3988899635119 53.92809578883408
374.277762818894 129.88996842522135 42.3951520565296
362.6053163511904 141.47652130363355 28.499137664528767
375.77253783527374 136.33912816884276 47.61531686447066
376.5094993669474 144.82218498198378 41.307110664220076
371.77755896400305 146.51258074776604 53.285888300257284
376.4460492512003 144.7930917229046 43.09264735720309
375.98827535033087 146.26222554066717 40.46719481101114
375.79760883723355 143.2535522750481 33.52539790308947
370.2812242737649 141.3636147387937 54.446696992056566
374.51953592246286 147.31409982464902 47.98096891756145
369.39906216546433 148.16236647420357 31.152202072821257
374.7685001901426 145.1536315443715 53.16507947441276
372.46874185339533 148.5736321291133 47.32068610971648
362.15273229113933 142.86698726811653 30.51754470992463
369.9047912067434 147.8853781264712 50.69373554731999
376.6347310066353 143.16412596575546 47.7603298035599
368.7895314685575 142.0140504285298 55.15397776985451
372.3465552420941 147.56419527713587 51.02393224723538
374.2903187414494 147.8841462335824 38.53407159045896
365.3729120551469 150.94584790105677 37.416672466394445
375.03978128740215 142.439484177742 52.47785116902417
376.1663722215681 136.53607138561554 45.393500113729566
373.4244932786695 146.2084763328697 53.537999618216574
374.77996003929786 146.48339077391404 50.58767204793818
377.2884108728891 139.16539031319854 43.40955508943348
371.10121201185046 144.1469608600039 54.581938012968145
374.59975269237646 139.09144435575882 52.042972584882854
371.79611957320157 136.91678913011143 52.47457725338161
375.6842246976716 136.99882219269756 49.46650903122299
371.71347357353653 141.43815989215108 53.93528590509718
371.0389655702906 149.74476464676235 44.96199280033678
363.92595818799066 146.61338674189918 51.6242594930942
373.8548952405239 147.9848306833793 45.527048088342525
368.98504727603205 145.8698051438267 53.32576341992502
374.52164798060267 131.63911544139046 40.68001350635143
371.38089356396415 147.97845841747994 50.256143283055344
369.3288136313881 150.77076478286983 44.351054061614555
371.8015665762609 149.78615680381563 39.16570769758353
372.7013054786288 138.97322384217074 52.818445232049626
373.55091141890625 144.51430226922395 31.429863763649223
375.939539008737 146.21911215504824 43.954596573623164
376.2636041746641 144.68779883375439 46.74984179562009
373.6786574357165 130.231051447715 45.97794792565002
373.1261175720641 131.5965495838645 48.992185144502514
370.3988708568979 146.56552578939133 52.98572592363289
376.2934036346603 145.35468203001741 37.56066251409647
360.0865561650337 129.58251242641765 31.99486262916392
370.6523236402048 128.30412447338185 47.951637457037805
367.8058150333416 151.4387842444587 38.771708501172995
375.36059979302735 143.84476878129541 52.208689406191304
371.1676089482902 147.07519788143833 51.71070123873664
373.378097581736 148.42459006739006 43.85542632211959
356.87246938711473 134.6955579616768 48.3399176633947
363.6310305658838 140.86170686279664 52.663649127317036
363.05576054373404 146.06315885035406 50.339559113498744
377.1189690752879 139.41852118205534 46.235863669775526
371.2794747033562 149.3451723359494 46.91730880260824
369.6674372014938 138.70010004458607 26.971015991303165
374.62626909749775 132.91632157718487 45.4508527800552
375.27952630680153 134.18810311497094 44.18406894357086
375.67572361809357 145.54020768321936 50.17110792800621
361.738654499391 135.98151474905757 51.988478111458406
360.35022821464287 140.51827513538115 49.965429822534134
357.98583717455944 139.67482963479776 44.23510707902574
373.9343717668596 144.9740594830832 54.72212567350321
374.08242696054634 148.02146216984946 40.40183019870449
371.7211682719727 148.73479402281745 48.70399169636934
355.4011216226055 135.71014135842955 44.525756577168366
358.8986540751718 135.67433649409983 49.57198977021678
363.7824105834959 139.42271128220412 52.91908461661637
372.89213029859735 142.18901434158835 53.98447619815436
371.6575882741488 148.75543877702995 33.6480233222497
367.36266484208244 151.31768075014782 37.4132049239442
359.6383237224437 140.47783267489862 48.28991291710072
364.9264138183225 140.27060392964825 53.235348587925415
362.4529430565792 141.31741975052478 51.7440578849435
361.28500604158586 140.2201209777688 51.33290208200666
373.20706002105754 148.00941049075257 48.37658120546851
360.452509697328 141.55239453387654 45.54103969776317
361.6386402801695 141.61548636365166 50.33640409071623
372.30060725779987 145.854580820751 30.96009227585974
355.9170351170731 137.46436928027694 37.899760880882084
362.3494539628619 133.3696234186097 52.019354280285825
374.1415499239613 147.41774622194515 49.509648425116495
375.0954118954238 134.47367599300583 48.08008132175853
362.5005951138918 142.88108767637988 51.10205791212846
375.1731151028449 147.4008750059557 41.329605300022976
373.7520797161989 137.28344859449035 51.86216826912171
357.8896513764501 138.30153854095428 46.008224545236324
376.30484028677637 143.8229954217632 35.24210947543747
373.5893009257349 147.3119094978716 50.927749591401444
376.2392585943203 139.6679125358329 34.0334299767842
360.7604581683952 145.09053314756702 39.126225794182226
368.3115752990519 151.1298964903687 40.26529855956968
354.57575919433845 133.69098840152435 39.97874023198473
355.4689671797818 136.46897709221705 39.30953578290398
365.25159851724305 130.13395912279432 26.7001463444666
362.94675918158464 134.74882232965163 52.995596728457336
362.63736894408356 144.4945480361047 50.60793189535842
368.23378562019695 124.96423280114813 36.370474076956256
368.21230829349264 127.17538213032218 29.870789416563117
366.38801798182106 150.67703564695177 45.93044277798093
371.0919749486631 131.56262313384414 51.593247923770384
359.7880074968764 128.19012234177822 45.058810146209304
373.74898477970606 129.45845098684566 32.7488004803131
377.25749958238305 138.8813319191489 40.40155675290312
358.1258042923733 129.37988950436787 36.52999321972508
367.25776850479633 125.01992258022807 39.3526603778168
360.9530569097059 146.09404613891957 41.08325619095399
362.91900422985395 125.99863450595703 36.73108334866579
367.97054578595873 133.4468073771359 25.116143765119656
360.59032628681234 143.67712326365012 43.0150987055938
361.5970809642731 126.97830879735616 34.04986134608385
358.7739986353985 133.3517859843887 49.058436371919925
377.51711355298653 140.66380094711621 42.44895169823305
368.0259690701749 136.41303949836734 53.709729328458586
374.2120104785542 131.53473046328696 44.09570551974138
361.11064613083306 142.76172320323548 46.10266212447779
375.6975112911228 146.2422328991048 47.49999213593676
360.1251769639386 127.43894474212478 44.16654637643091
362.46605127585906 148.02279104805882 47.57537933450804
371.023949034327 125.68241758379546 44.91965106083354
375.35379797629423 145.38722812071424 51.55858956486529
365.41696769176497 150.98941923744056 40.22539205631727
370.3805731683274 148.65339539649577 49.53236216869166
368.11869342594605 124.9745789488586 43.67191006389802
361.82483910103156 130.99555491674423 49.33963007521764
361.4538543540835 146.52775192149667 45.511452211105954
361.00980620315727 126.04632592758608 38.95023049142661
361.1007001385609 133.28246829410074 27.949919927156884
369.55301784205267 124.7568238763267 36.62305948893009
363.80259093799026 149.86123286872754 45.81092989677229
370.6480927718639 145.6510375781284 54.07729899406231
375.1650438052614 146.73543506944802 36.831283742211355
360.6827132403349 132.01838931620506 49.52294415093291
355.91722281774713 130.32509540022417 41.294594177756316
360.42883938548147 126.34529299333579 40.156389992102895
373.92827736128305 127.70074559459111 35.58594534438835
360.43907914631 126.6842694969122 36.4755696667711
360.05955514605864 128.66568563185655 33.332795513864475
362.1255991554159 147.64497736491884 46.01439763874948
357.7414682238233 129.54115572534178 38.12183078772093
358.79466100394654 127.52236631943013 40.079064133484536
368.71880184290177 124.6964957770128 42.65685016064225
374.1900490885478 127.7397098116812 42.24680308309354
357.15701085908523 130.75752279813153 46.2697741849219
372.0527472642904 126.89119785606648 33.36293227416203
372.2543032626919 125.19263451896343 42.06045173779209
370.27541183515615 124.55160382549792 40.43446043462201
361.400529929045 125.94494841404033 41.59826703981825
365.3890577519796 150.4961808543745 45.06116088654871
373.0289285491919 135.02598434797372 51.70554165853739
374.47952980388783 128.59807601725583 38.8093927896884
376.59682912185485 144.85169495760022 39.33617321665666
365.4381904568772 150.29137669056152 47.09971119885771
363.9148098835684 136.04652163159253 53.59433526579626
369.88581192732 132.25782130970416 26.18611284911118
367.86786632060404 151.01838274421186 42.63421749751804
369.57611541534783 125.86732925305895 32.93854832029526
364.54231959096126 125.69547366961166 40.059876603848174
374.3578581116131 146.56459324699406 52.14431154206009
358.5225215682278 132.85388695320938 31.111647503806584
367.31833346984666 127.93225179682197 28.878967694783693
365.1391510889299 125.58394004244646 37.07155112489024
363.088230189094 129.53409424694044 29.256375269690714
370.07898841962793 149.43067000474468 48.246731953370784
360.7595525958128 140.01852664054329 28.13520298504005
373.89929816136487 148.1020833767778 41.97900488497963
365.2406321824616 147.6778102084744 50.99417944616149
356.97474707703606 137.78603587161786 44.24775137922308
376.8919865925571 143.01496836157327 37.39083050338552
368.6267868130281 150.06130165826022 48.0339142915896
365.2556799740424 126.21736886606466 45.54490344583265
359.64941518004355 141.1019131144945 44.12451026076979
360.12529467426975 127.61630385261127 34.657874199539314
361.3670014359377 129.031664479876 31.44361292291101
358.8864791564286 131.5213043953308 32.04798367689247
372.90795735640654 128.01911514515118 32.544480794870736
358.3242785955576 128.44827628551602 41.67662509742114
356.59637922467914 136.91322734811345 32.57311109703132
356.1681018162457 130.21820689142652 42.66229173314204
368.0613991312678 124.8479542372547 38.00911384500152
374.4765407520209 143.2749147667205 53.84314769314891
366.1044413204281 126.38722714090275 32.29829167985907
358.2703069449019 138.60044470936643 29.83298300687425
356.16436613282497 137.76052638606146 40.402715799029075
356.8256979856636 138.9332630340312 42.470013398547096
363.1696336983365 126.71606839567184 33.68071626128167
359.4372748779875 139.05828537651695 49.564489441399495
357.5411157422087 136.92112175377065 47.85492734955717
375.7117172900549 146.4989184980331 38.75232605573373
376.39545948836815 144.71870353091856 44.8849136403217
364.1986883495585 126.1104962332366 35.8665642336808
365.26846241947504 125.5390778346519 41.7520933812194
361.32818497254533 138.43812242961707 51.853538201703934
358.788799874112 138.7560373456923 47.82986692569932
366.98524484279415 134.3153086085457 53.60708634599987
366.46315016195047 125.33314525407826 40.44213254164157
373.99161069841637 131.9600543384886 47.01441119966729
362.28736895938215 125.63134904961561 39.764935458716586
361.64162150571616 126.22827180666161 43.64876394510346
366.108568907399 132.5141019755038 52.77276203263982
364.90841408708263 128.23328573654305 29.470719100626535
371.63243716787764 125.19054962341204 43.7198712723172
371.75051618903694 128.25573669691946 30.362503107774494
373.9589217302491 131.11736449963186 33.25031107550271
367.3892442140174 129.14523554263533 50.08306107882525
373.5961205473166 132.17464057378302 31.13088784402167
375.1409196227063 140.96205958303332 51.84032220583363
359.82136799164414 132.2935105350431 30.04763197308393
364.0047133140686 149.40586067729765 34.41713271303131
370.4904483304046 130.2595123900395 50.86696816081198
355.21525190348893 131.4342882436977 42.89243021596747
356.35949902671945 136.73910215347001 45.8900961333422
372.638757015347 125.50248442853884 38.58946849942288
359.96134367099364 137.39106648563913 50.683762281985246
363.62618334422285 130.69374126227848 50.61341910068361
369.0839609059905 126.52789019624375 31.030924851553998
369.68054173162284 127.76726734116525 29.009347708148784
366.75906184285355 131.19706264536288 51.33127863346095
361.0730919666647 143.62512452073634 34.41077119073066
362.72752680211966 138.04997125871705 53.29737288097044
363.8316909061874 125.8157047194642 37.94376980167219
363.2346751304116 137.43504323198897 26.199475593947554
358.53058820460444 128.41768805966447 38.24247947594595
363.1653040142401 149.1337176031373 35.29482009281179
362.1380167316494 148.62907499663686 43.127205115884585
372.2590760783613 126.50341869718277 44.93248261212557
364.5758609979619 127.07583906808885 31.855217745292958
368.7688213659678 125.26847420389893 34.83026080070054
370.36522451255297 124.6938739575936 38.71472856225192
359.71979431540944 127.00013825154686 42.22693023976754
373.4490423382854 126.2959236881759 40.79724396835721
371.2173210094897 125.70748507380347 34.264365233494445
363.0406543662107 130.109020463121 49.27362231523924
368.73396841791157 127.86572668331024 48.602267636790586
355.6139144710529 132.585487212654 46.482696437696426
368.8933592704043 125.63248463572351 45.81173265378882
358.6340502952289 140.95213838979447 35.79485990332632
365.6558937960841 126.31734472106729 33.89208529051896
368.14304838944355 132.24771429540078 52.88649059048356
373.3956549132411 126.55848115054228 36.57166537629448
357.27876990707966 133.54276511731928 32.33081904589262
377.2036590942595 140.1678695345625 38.90114941598721
368.93445491098913 140.08235214630156 27.58852314390983
363.3434180923142 125.77794332159927 42.031853334587694
368.3747608993045 143.48583009885002 28.625227204177367
373.9731563042629 141.6921082894283 52.936701206979926
358.608644892944 140.33688439755883 33.26768562619586
361.21962319730585 131.81012469953555 29.135770013443015
362.217731071328 148.01379954140958 36.43478188213698
357.1673817940154 131.08760497300614 35.4964186620984
374.4819193040846 128.7471012837601 37.023423822021826
376.274015999501 136.45867441335844 42.10154616625995
369.4935229098144 147.0660390269207 52.081173485568556
362.717337372317 146.76235372937347 32.41808016607614
361.2449642959429 145.96594175354312 44.21636089784969
369.5763772572786 125.16599285262257 44.33228728689604
367.2656340821531 125.58119195011294 44.96509211242773
355.3985965997091 136.38759726124383 35.807365119701835
367.9226174022467 137.23310174669987 25.75683784748249
377.0881435454764 143.38830253313043 40.496747109822714
371.79357552871 149.65571856220578 43.19944937311947
373.5851021046303 139.33732487233067 29.808514416138966
370.52504537149366 140.77991981244264 28.048012131930093
374.0222795208921 127.25202269352968 38.69308722247705
372.9746189695054 130.04141642891997 31.267831687866742
363.17052906917235 145.3805979351018 51.579073262768915
375.93075671880155 135.5568178701718 40.67525921645267
366.42260802994724 151.2973222864492 39.21511742071651
372.81139314743956 141.9842667007362 29.833367173639612
368.37032328679186 128.8574919907977 26.936883790523137
364.761386847234 133.63004576722247 25.274398632854055
359.0994488294914 127.69742445318735 36.54087242009163
366.33323614546435 126.60476143759219 46.594785953012966
368.60019771701883 133.56215866278401 53.47133354998222
371.1509675535511 129.40421791636774 48.944292878137745
373.52100661249887 143.12699241829844 30.77277498959176
364.96661445888685 138.31789335855075 53.5278384462611
356.1313622778682 132.78513724281143 34.44234827019771
376.583297165836 142.10011169762979 34.97218445057974
366.81269482672286 126.98836156162461 30.86215298988275
361.2755815448977 130.2743403994374 30.17623494426331
365.786944685928 150.92160645660095 43.09846625064046
374.5377920915382 130.68473995029177 37.51063218021138
368.54949578765934 124.69143112005575 40.52772699163792
363.51268796879685 147.78386677679882 50.32941826334504
360.3791911031039 139.15545386586007 50.76243991361928
367.0191468497578 125.11133935209227 42.540781839116505
357.8194904148631 139.0061480044469 31.42977363141057
365.9115410633862 142.92627529879886 54.36802875800971
361.58328037220235 143.4145708186116 32.593101906137136
364.5175740831411 133.8871402258695 53.13521147820439
358.98141456642736 131.28212524252098 47.93963516908925
375.640895630839 135.33018175899687 44.85794349515913
374.07138826692386 147.20380777353873 35.309378496215466
377.15498358907587 139.2228159784576 37.19331954932795
366.4408816604227 132.85394243217115 25.18514837766294
357.5851712318882 129.61603635495922 39.90440686216883
361.11782623083576 145.0851825383227 34.80504145061321
360.4328796443067 142.62108159087686 36.08544223438164
376.64582132916 137.7371078836697 37.270790399069476
369.53042295943834 150.25819244233037 46.44142661754081
371.1196184694907 126.73623136801957 32.05406965326922
368.4867784592814 130.3247587862291 25.97499041782596
370.12743829943196 150.71214440911777 42.14314328604474
377.1120503706053 141.05206508815857 45.70791335184897
375.0572243715588 133.13046724038284 38.86370348461772
369.67996485569796 142.48012092555533 28.485531299757444
375.10737955077826 139.74379376545608 31.52000655964009
357.94104321867286 136.8034764759334 30.184264896602368
366.6228334089324 125.4073286449553 36.08876559040855
371.48329421005064 129.42366782256894 28.305314992807737
362.75530482747337 148.8924105127933 46.41724174018803
366.21486005155646 146.6340089939533 29.508621957676034
362.5363938812949 148.9051078405974 44.92607913002641
373.9744413731745 137.39559730810174 30.165748119042142
374.62760433701436 133.447265376176 47.01109345630125
375.9364080286907 135.78263966285448 43.75276163808261
375.63291836535143 142.30960538665252 32.51951698185753
372.68307664903256 140.82219005438273 53.22028792828385
375.12198847186994 135.60764949933747 49.15152784204613
364.72132185975835 150.22781288582368 35.41951210284676
374.6629833980794 144.73264576236014 32.87197866781681
364.8829576776155 149.6481041623953 33.495653966080255
375.4946383160892 138.31711386625636 32.615344929021255
376.92872180041593 139.09010576168956 47.57323363433604
374.4171991988329 129.96946098051797 39.100924511063916
364.96728561296686 145.65220190181026 29.622261490975298
360.9899827489385 141.66956202773807 48.752866084580816
364.48669532620687 150.41473994579326 41.27467707867055
375.40193445860564 134.39660220709106 37.02280664450064
368.2347664915278 126.54511006119981 46.99936556415561
369.91900538010117 133.1657613544775 52.74263113890371
361.01971094303013 128.77167445909535 47.05828855146955
374.3327128888921 130.00809689680028 40.64227675606939
374.2488637409962 133.20196793621378 32.62498022275758
369.31971018317284 146.7582274246202 30.056872757042154
355.03447417132173 135.54987531577396 40.79295544034064
372.9878742445478 132.7427422858418 50.821164743714824
374.4455868433962 138.57548116198677 30.615095986963585
369.08952553698856 150.49248976586077 35.0816859062362
371.71469511479165 133.4323915927048 52.13098310628185
370.77353251915594 149.70323534414004 32.93703139806734
376.764222349785 140.39700646010724 35.721606585890434
360.81226949039774 145.0087068456197 37.63009687563781
370.0440930771368 130.59215404046483 26.727970304323964
365.9601744133772 125.25397430516857 38.42283052998865
372.70681052238365 134.1092043227202 28.68196934695881
361.9301403510199 148.3096061815012 38.355768277612206
376.1197122939993 136.0832059309954 39.60424641534571
377.0305933517123 143.43606831283483 42.249261555763944
376.27117861245443 142.93016256917588 49.52866305697314
358.04591775431527 140.4412958244488 37.78715958279862
363.0722361574831 144.05979352774446 52.14765699060386
374.3185677843984 146.0891049600825 34.0239883070233
369.48740104856836 144.56855201751588 54.60400752585722
375.0972289248674 136.76544506875737 32.88280299430782
367.3033646565019 149.7838621430551 32.77572196406595
370.24883599361044 149.9090453954291 34.402523617559886
360.20162342114605 135.76342535766184 50.8066221741749
373.4541181672864 132.9697209947811 29.820835622387918
365.0965455056744 147.403655462317 30.44638529340072
367.5772848666143 126.04245062149577 32.85780889348807
373.94851517019606 140.43784766271247 30.52877626336995
368.25696704661175 141.4659070974832 28.00749177279855
366.80216075454155 144.942818962739 28.943433501727515
359.0223310158434 128.59269264629398 35.45133057870939
361.1205897312482 144.23894708901503 46.69372033677444
367.11692933561477 145.99726252617066 52.96543036982318
354.9096494105731 131.92423278863217 40.67482772944832
370.104133175575 128.8562539843453 27.398644139276616
375.68838051308745 142.59703359653062 51.16382962860725
368.8490835958515 145.24393330555995 29.139852233944993
370.9084842162767 135.00585018570462 52.595335735535144
356.9380135809719 135.27323438245458 31.270061192760313
375.8904726263367 146.20864698699987 45.727671922184044
366.3374764497251 151.0691708007669 35.96383895586791
376.05640924149407 144.76198162161245 48.79352705209849
365.0418050113602 143.7614032721884 29.122895351324825
367.3931218864563 139.6059949342977 26.845125372911152
377.54702688837654 140.49789293207303 40.78410007502063
361.71318758730735 126.01177830673113 37.641102296092285
370.81789608641424 147.07817687325624 30.958264484333693
362.71495392769583 128.36693810686205 30.929399338649873
355.76708801641394 135.04091109979737 33.802995315256844
370.40334404073593 150.58767406113503 39.7647355433025
362.72912084190193 132.5521533482451 27.136971488806342
376.70815911302986 139.73782452869457 49.01841727658814
373.9596049521382 128.19270060122074 44.383305431983665
354.83366487607105 133.48528739097102 44.40517288355581
377.27700867738383 141.84514133352198 39.76684511297617
373.0528818024836 148.97651649184004 39.62907278111059
362.42971769876056 144.91205728051102 31.576855535383128
372.31069327147026 129.81536002098977 47.99320775066489
356.0309348394485 137.83158902531483 36.240058919703394
355.9434554312805 130.9059817170436 39.59223747387406
376.2636433477508 138.3447659323996 49.82879161628096
371.0168964524694 143.97153002255166 29.41698850443291
376.2933516781085 136.59742369562184 38.44947185596767
356.26380637058634 135.9338617424622 47.33939887833556
376.7785715914047 141.58027940929674 48.525896491916946
358.4322430251845 140.56671309476718 39.63859969733625
356.8674280031554 130.30066816426273 43.99291019055132
363.4473417890152 142.4439584815284 52.363486932699665
368.0482134140047 139.7309419278687 53.74981951397854
360.947404968011 142.68284311246734 44.354731708055
364.5635179202852 150.64272268668324 39.223189509667854
361.69167800759686 146.07746392848637 47.221811900583816
363.4864410601677 149.605961370462 37.41565783373673
364.0835160323325 147.85500314777218 31.868236924597436
376.0433417871522 141.37963844852786 33.37695680917529
375.8896802929247 139.51161798776545 50.77458339828353
361.32788236563994 127.72276284352905 45.701283935719026
372.2652827288182 145.2480204679344 54.25460039858549
372.8243216251915 147.25507589355502 52.28137548869753
366.3731520162615 151.05085585143703 41.12626921316394
368.7838566224397 135.70732726194322 25.443331094742494
372.3630127709087 131.42402161918125 50.451739447667194
363.30947722101234 126.28339503256271 45.27866230158823
357.11253221083666 139.69936608708434 40.70080665023978
375.14879892602335 147.32045909942707 39.88698071148818
364.9820096206027 125.85944707946867 43.67185466182324
366.6961709299783 130.4659553986501 25.85730028397406
371.18070127102317 142.66998376386385 29.018976129250824
374.15923345800314 134.30007468690346 30.774841171520603
364.80161006969354 141.9272806418597 53.09699409256742
366.5815365486143 142.80658584847444 28.379635156159367
364.28590750922774 143.60784602093733 53.34384733143219
374.6715054634698 143.0545644290861 31.936269411937467
362.68559325507914 128.68396242674496 47.36559213052046
373.2998714426937 145.97094897721328 32.58501855719506
374.3499456928111 128.50505828106458 40.39337419569004
376.5082992911386 144.1040160521692 36.70509762979833
365.70397011620656 144.84128805687862 53.438521839504034
376.544391150715 140.88471496759314 34.481154317846446
374.5797117648285 136.66232027741813 31.372041940839296
367.1874119559755 134.96973078122286 25.28072358626198
368.7720814098757 149.08890966061352 49.657015189997175
358.56282630623485 128.64089359174946 43.885179816488964
360.07275736227194 130.95667370016287 31.111379373636687
372.6111823496471 131.44901573831447 29.095779349374872
369.10597665205495 151.29769615014342 38.151843848990424
362.76452475335157 149.5405552897459 39.83158528555539
370.3081367861846 124.97846384947314 35.47564764074777
365.52330398977665 137.98151577456727 25.916191591381416
362.4169456048669 147.86825670462838 34.858661544618435
373.13764457489697 126.37694600486688 43.08465829792622
375.20133738386386 146.33540291479093 49.10324150671307
368.14973076182446 147.00170935986145 52.45652359902259
375.21589579755783 135.08563248143616 33.01986973888593
361.76914899506255 143.33885702138411 49.39484240971944
374.18268593796057 129.9574857354265 44.241708209021915
365.82440682690344 128.68571699225757 49.48392805743076
367.54571646529735 144.54450968484096 54.420640601734824
366.35149025864814 139.84195275290253 53.80475931347641
377.11864934315656 140.46090961675054 47.37824283071831
371.5482855382037 125.14881959365593 36.47739136629482
358.9616118085988 140.28862710055333 31.64945220340769
374.08816432513544 128.89509177114667 34.398273332541045
368.22591942791433 147.73625729347918 30.38910645433428
362.9602209322675 127.4990239420802 46.31933091524656
363.07738195697044 148.57241379951643 48.96193533020123
375.9463256916297 146.21069608522743 42.199628936863895
375.4205316166183 134.7067809521742 46.09777768431155
361.2577090046183 142.97411838368845 47.66695902287595
355.64436254868815 134.73284582581263 46.45401015750311
376.64898900139667 144.097454754224 37.968157715406804
374.7815270639176 132.3038295619595 37.097018789119325
366.8516121769927 148.50228298198093 50.27325223851268
374.88663005559425 132.9099372027557 42.65577693885249
371.7264358150257 124.80953324133206 40.43582513298022
370.90203747722035 150.3528279431289 37.81147187020854
369.56838046320706 127.14942381100694 47.58357241271116
375.2305565462631 141.322827262361 31.743700195415038
377.19134540290344 142.05029982972505 43.11730588569871
365.8696770906954 141.2705133717368 53.75482270414336
372.7518379532452 147.8963724683007 49.82137768813198
372.12807358928 129.8298750864082 29.790864724907948
366.99640559695536 149.95586008438644 48.710626670038806
374.38253669310967 131.51649707001448 42.45128468616875
371.526227452535 149.32045188079567 34.84559059483083
360.57512912675 141.5240858193291 47.07319641869766
356.994803799224 132.48676316479947 47.97156744878785
369.87332225203176 129.35860943638934 49.751638902492786
371.4592411445515 130.9817439687483 27.7024455917319
373.1849772943164 148.77956973675697 41.05888245853835
359.98733439434244 141.82291726767568 40.42713440666352
363.0621584206369 134.01216817580647 26.207881892161943
367.342537955858 141.37740690470466 54.28628942015201
361.38718417037063 132.69872486383156 50.80226002099586
363.66910337898014 146.26901645214838 30.85464282895316
363.69866517344036 140.99073205846898 27.359072254970464
368.67880547009315 143.5008338806336 55.191334192208636
361.8281757519404 148.32681411540483 39.700341235738954
372.47692724295905 148.3785888688523 35.45968877631535
361.58625742043375 135.82619358597086 26.98730091089827
375.1689813657449 146.193125871954 35.222648118171314
361.134624710792 146.466282432903 37.47326118774716
357.36049120875765 129.7551327413292 42.22875727805375
360.9469293439933 142.4997209191292 33.3122575377226
373.56370337016074 147.97878755550875 46.88720865914268
365.79844966071056 148.75039415502292 31.993058231977884
377.11586191490943 143.20396884948775 38.83132151690899
361.1277623252159 130.218806300306 48.05335930215624
374.72842911405405 133.18029465645495 34.84235779695881
375.95943870719475 145.26701255646984 35.95239923070278
368.34547840880435 147.95526312566005 51.267915113049135
375.3757560983979 133.81320190362067 40.70930641899922
371.2853848399698 134.74305423575618 26.973978923619793
368.0107240973947 150.9956732533923 35.634178688744385
371.955555175231 136.56916903649946 27.93900850208575
371.7414384745138 141.3834516889158 29.036138206804758
354.4443477867413 133.51740243217498 41.96636920562557
376.3586854827025 138.38147079746065 35.576591186015136
370.3967583946477 126.5080667339999 46.23106749714707
371.9221152691034 149.69099675407273 41.02931589431898
361.259679325898 138.00944733925192 27.24558151577716
366.1037956348724 149.73874486522695 33.079865706309995
357.2770227764966 139.7111784224233 34.670527863751175
375.5098777926828 135.16859526436835 35.111088406649095
376.50082586812897 138.01084150180023 48.407733102069045
374.0135811388506 131.7018085832209 45.62320030357552
374.79776351014914 147.25403047380635 46.4069081669062
361.39447473032885 144.4167428153752 48.081928954896114
356.06202730334815 133.60579482297507 47.47977084406214
369.28217583982735 149.6012802218368 32.51233085915982
370.6755349697905 145.29027019024338 29.84938177132485
358.33472862742565 134.21509690717028 30.19164622368475
375.63681456304676 145.0427479360499 34.327056882274825
373.83266577537546 148.00577819813824 36.70253582464532
377.1333334382581 142.06320585414045 44.53298593447199
375.81824071727243 135.61690860732438 37.75026895364886
376.7101955773592 142.98976964826986 36.16719872547123
363.5695298169131 142.93886343844287 29.202287576485848
362.99330642834326 127.55383818899597 32.31519653485473
370.19364492345767 136.45486499166486 26.264553732788237
355.3700823685956 134.1403695913752 35.95210331659941
369.9125709118816 136.63061964038278 53.18942801157745
368.5353616107743 151.0921455185168 36.858414295787796
377.41833046366247 139.4288836220952 41.79951427788939
361.3478897631505 146.94629942920074 42.79940555140469
360.7130286759445 143.6855492836692 37.74467779896421
375.89894356476213 136.424891755719 36.49663281626622
355.5298725336245 131.41457012821206 44.94102763250956
362.8224573946576 139.69939890626387 26.933403604368596
367.7947097570232 148.6907499001584 31.493150645231502
372.2283605047072 143.96468949887517 30.062086004667297
361.5008954396321 146.44351339783532 35.27107586722936
363.5199241786786 144.47659111594498 30.00030481644821
360.08375176121115 141.86521515372078 34.148034126221475
374.74111059076597 132.89498302274407 44.098379463477556
358.9014432218696 129.77972833418818 34.15352293149376
356.39845461746154 135.1536502415644 32.37596231830591
374.9979712308006 147.42914176649822 43.02157744455353
361.03901292842266 147.19748561169476 39.476437916879206
371.4757332283405 142.60525229627694 54.565306086497586
364.7392325830757 135.65070587096054 25.103895465906447
360.85025171874764 141.40256860056974 29.697190171927
376.9893416748039 141.8428633638702 36.58867890629364
355.8251388831286 136.86257183399528 42.829821280966335
374.5283743514222 130.81394859966102 35.67445631759132
360.8529207167912 144.4517493728339 44.22958111868762
356.82904129998985 130.81810167023517 37.820105940262266
358.04603176823235 129.81402430830568 45.06491012173131
364.1948509594906 145.21342143426358 52.540655977565365
354.9601404550896 134.9964587800521 38.154469830851596
360.43965860583205 142.08708332703043 42.47084206014094
369.80133439407496 131.51433549191634 52.97853764089796
370.75151454003833 148.54940456925752 32.1293815721233
355.9881730705703 136.8953688295795 44.40220326803444
359.21059789121813 140.26162653719558 46.17538748963868
372.5352081184096 140.13057713735276 29.123600183080327
364.6749506729616 141.93308715961987 28.10920936137015
362.50301550828823 139.73896071360596 52.354848683190504
364.4475842155063 127.18979510022555 47.029116224837686
366.837936186974 147.34846872458135 51.80755829210709
355.80191023118823 136.65508541219808 34.156057981367766
369.0672868771188 130.25210288323706 51.825050852219235
364.25031682020415 129.83969560717722 27.769085439078392
374.09261392762085 133.1173357048498 48.41342857173019
377.2312042591723 140.69024361768837 37.282008198484775
369.9742125686689 143.03330943357466 54.78100349034111
374.596389165379 131.56178395507578 38.65039311484338
359.5747343666542 133.75573135882053 29.029271651325764
361.9843486155757 145.29629278958433 49.19639775202172
354.89167114288597 135.10208309784144 42.924714224477405
371.16760040689815 132.57834475427597 27.204910945732546
365.0411559504607 129.90668171761158 50.318619435651236
373.1260686120862 126.87721652233775 34.45898753836483
361.6309439416655 145.38441932501956 33.49459765351284
371.3342739061491 149.76947010334035 36.0252396152142
367.4697407353145 142.85558143871896 55.2131903571495
359.39900322772695 135.46255444094368 28.270310613295955
369.6976805337095 139.74557360340387 53.958355773766904
356.86038562878235 139.3693070931432 38.83548942781639
373.5453595333657 136.1946424013443 29.595969060685775
377.1647530715647 141.79901711935844 38.12279724645471
363.3067724610596 125.91621889510397 43.67915532946856
376.7400314158665 137.3318593148018 43.619918107518636
364.94309242672074 140.08221329382516 26.94565864100766
376.9976889936961 141.8695654699577 47.047879302991426
363.0412889474103 135.7390681412683 25.93571296277971
372.53695027673484 127.9912838103683 46.55064857563643
354.945619459177 133.41903435336505 37.2044286863487
377.2842515744215 141.98306022700794 41.47856054854779
365.7878703302228 134.26997366588824 24.767758173634668
366.76496837784316 147.9817030771265 30.242025104087542
361.5094781809856 128.05550306453202 32.79479558867666
377.21498763128545 137.96211226419885 41.9409033312777
366.37184549364713 136.55779896565062 25.13814160222057
371.3245154813294 140.10763998854068 53.68498607239597
360.5346940434264 143.1950620149823 39.316875858109704
377.33989290369595 140.79620476124464 44.031080659106884
373.2477636237364 138.14951523237892 29.13770605525173
362.5783998824403 131.29724747931436 28.259871545961104
375.6541274892984 134.77301684582713 42.35099732207294
377.1085349711318 138.21854119687987 38.73174546998377
376.7828454501832 142.99073159956623 45.80851970810231
373.2152012959531 130.94009656501336 47.469542765022716
366.50325510862973 150.48995742493545 34.24920831981258
372.4888797754833 148.65896415038307 45.69158933240271
373.76054873185774 140.33269175145776 52.46134767611661
372.13689632447597 147.41001414414274 32.220496109523424
368.53079637366915 131.91158902717314 25.46864333374708
366.3653228054472 141.149656237946 27.71742032932301
367.0608682611929 138.1451856680758 53.611249132730805
369.63974077670093 150.64713137200917 36.25893957327044
365.27897038398396 135.01593608520005 54.20821578653776
368.9221733167796 138.17108438605865 53.68680696398283
359.7418891552903 141.72902319124378 38.104346475099454
377.03025564236276 138.30496341054683 45.06515940042177
374.01940805082444 141.98156863450416 30.978294043480616
375.39728952370746 137.77992726500088 50.991462861616014
362.436153920035 131.62342899442962 50.51085779236957
367.7296489513029 146.68017867663397 29.43921827265684
360.1598054955498 136.8561858877151 27.35886129694778
361.88093783083366 148.01807602500907 41.11516444247042
370.4640185738094 127.21779985614435 30.553120628598005
375.8931290042939 144.1966522270908 50.615589993111385
359.456971046033 129.3624522846747 46.18306555401325
370.73470094664316 138.41729729704883 53.33383159617809
360.7599018353254 144.75314430779764 36.178037759525495
366.50644755413094 127.80386163824221 48.22096533933759
362.1648958291172 147.073784097161 33.85177185714998
373.1517736935907 147.4531730444135 33.78798547112048
372.44141590703595 125.91028866083653 35.39459670163451
358.8750687983498 137.5763944875375 49.13527796235866
360.2780680822013 134.00342660840465 50.896246447918
364.36269038510653 131.75743188069904 26.36914500379811
369.1067653386057 134.838317446665 53.377587341874154
364.3336349638983 148.99009855258615 32.4717150378528
356.77125939580526 139.2995873682258 36.55608934607861
374.89704983555055 147.3551130383685 44.759033296148665
360.57368642522886 143.88790303996635 41.17153584269742
370.0992838839041 144.02621257373977 28.590839015068806
372.1508513439579 149.0846926404094 44.4204179794042
373.6754652838925 132.88300406119876 49.54940165451601
375.90160397064085 140.07321319859219 32.526833668749326
372.7348174668737 148.79869050881675 42.21560578968212
357.18174093205084 138.89156553126392 33.28325510577806
376.64540537312087 137.92846843129195 46.72574277790385
360.30079023527054 141.5999009154064 31.902355713126536
363.7570674658613 149.99237460258095 43.598918906713244
355.0917175128735 132.43389698467837 38.492770160696445
368.8274365583651 140.8165184997644 54.38120914422487
372.58731326729145 149.1019522480621 37.60195820910168
357.6364379622383 131.71495553537736 33.668893612256475
370.7945140087249 137.58657193718412 27.342735181497513
370.61493301565207 150.30003158371252 43.678318111756965
372.7402829197181 143.6871095649931 54.70907406778922
359.2672363028022 138.07372286571703 28.417316616519866
370.4295982218379 124.56790632405911 42.07108913616136
364.59834210327944 128.74317555288357 48.60759327250926
369.4731033005571 134.007120832477 25.810199526506437
365.5413473393077 146.18941618873995 52.10989637633081
364.37495035935206 131.8052512265836 51.634914592690265
371.4897759248699 138.6692608373511 28.03548859839373
356.2274708756514 138.0659818735533 34.70515144194565
371.5735240698345 130.39172039422445 49.87286393128367
376.0720556066689 138.29958969732314 34.083298862454775
374.3252978159 134.16326148108772 49.89841571748881
367.12715785747037 125.63669879053576 34.38469213169458
375.81045945964576 134.99718829326602 39.00803625422207
358.72398227447763 140.45222616259852 41.99395957516881
375.82179124923135 136.8879578958232 34.21802303848442
359.30432050775863 139.99999980432602 30.058512188890887
374.7721949628316 136.0352801791444 50.69409837683769
368.4158635077355 150.70566266928918 45.58559054977149
377.2010740665597 139.7478133038392 44.89479400386138
376.127089886058 141.22240739480455 50.167621961705066
368.4116048195643 150.25181599773782 34.09285800112973
367.23921298554984 150.9448180116153 44.78914548422157
359.82211893418327 126.73055875166463 38.27107180048045
367.53222913113865 150.6950799620774 46.72986004501286
364.1112699287097 138.85217231751565 26.36591698483092
363.37963618602174 148.42575000961023 33.535813105130416
361.941290338525 126.27276640995709 35.49951450562576
376.6936360155782 137.06838508802755 40.27044825960667
365.9367696208535 128.69077418794168 27.18667806060315
364.896193880986 149.09547980785882 49.28087197758741
POLYGONS 1418 5672
3 595 418 534
3 418 378 534
3 3 378 7
3 572 3 7
3 378 418 7
3 2 266 551
3 8 266 137
3 137 266 7
3 534 461 595
3 137 418 150
3 595 461 108
3 647 236 1
3 8 325 236
3 572 416 3
3 7 266 572
3 572 266 2
3 647 118 551
3 130 150 418
3 595 5 418
3 236 647 551
3 551 8 236
3 572 2 121
3 6 323 130
3 130 323 150
3 323 325 150
3 1 236 673
3 673 236 325
3 127 378 3
3 475 461 534
3 8 551 266
3 5 595 64
3 2 551 118
3 560 310 230
3 310 652 230
3 102 552 622
3 118 102 664
3 130 418 5
3 416 577 183
3 102 565 508
3 430 196 694
3 195 196 430
3 584 79 63
3 137 150 8
3 150 325 8
3 88 492 127
3 85 414 95
3 486 436 84
3 436 63 84
3 63 79 84
3 657 78 225
3 558 652 508
3 622 552 640
3 652 310 552
3 552 310 640
3 664 577 121
3 664 102 622
3 565 102 118
3 121 2 664
3 5 472 130
3 5 296 472
3 472 296 710
3 127 3 416
3 418 137 7
3 88 127 416
3 475 127 492
3 416 183 88
3 339 461 475
3 475 492 339
3 95 461 89
3 89 461 339
3 95 108 461
3 300 438 436
3 2 118 664
3 595 108 64
3 577 416 121
3 121 416 572
3 497 664 622
3 486 300 436
3 577 664 497
3 492 581 83
3 303 514 144
3 430 694 412
3 577 497 694
3 363 605 412
3 412 605 430
3 497 640 412
3 412 694 497
3 438 414 436
3 414 364 95
3 95 364 108
3 640 497 622
3 577 694 183
3 92 686 302
3 64 277 41
3 277 575 41
3 640 248 363
3 91 605 662
3 475 534 378
3 71 658 92
3 475 378 127
3 79 288 84
3 144 123 303
3 78 62 123
3 179 223 98
3 339 83 72
3 492 83 339
3 205 581 98
3 657 199 78
3 78 199 62
3 198 83 205
3 205 657 198
3 581 205 83
3 72 83 198
3 199 98 223
3 225 198 657
3 225 297 198
3 430 605 195
3 195 605 91
3 89 85 95
3 89 86 85
3 183 581 88
3 581 492 88
3 79 231 288
3 231 204 71
3 348 570 195
3 195 570 196
3 179 196 570
3 179 73 196
3 86 204 584
3 204 86 297
3 339 72 89
3 72 86 89
3 71 204 225
3 204 297 225
3 581 73 98
3 98 73 179
3 198 297 72
3 297 86 72
3 85 584 63
3 98 199 205
3 205 199 657
3 84 465 486
3 73 581 183
3 63 414 85
3 63 436 414
3 196 73 694
3 73 183 694
3 288 231 165
3 165 231 71
3 560 248 310
3 310 248 640
3 584 85 86
3 560 258 248
3 41 296 64
3 64 296 5
3 364 414 438
3 79 584 231
3 231 584 204
3 108 277 64
3 575 277 364
3 364 277 108
3 363 412 640
3 662 363 248
3 662 605 363
3 364 438 575
3 438 444 575
3 710 164 6
3 444 300 464
3 558 508 260
3 130 472 6
3 6 472 710
3 325 141 673
3 141 160 673
3 444 464 379
3 1 453 647
3 419 359 453
3 673 340 1
3 479 448 489
3 489 710 479
3 323 6 141
3 141 325 323
3 41 178 296
3 586 685 379
3 586 178 685
3 685 178 41
3 164 710 489
3 489 704 164
3 235 419 332
3 160 293 673
3 426 340 293
3 293 340 673
3 160 141 164
3 164 141 6
3 479 517 448
3 586 459 517
3 426 133 340
3 340 133 417
3 426 279 133
3 133 279 417
3 43 459 379
3 379 459 586
3 704 111 164
3 164 111 160
3 704 702 111
3 111 702 160
3 702 293 160
3 517 459 264
3 175 134 76
3 575 685 41
3 448 181 489
3 181 704 489
3 134 175 448
3 175 181 448
3 66 312 175
3 452 58 103
3 103 58 279
3 452 82 58
3 58 82 279
3 419 453 417
3 448 24 134
3 448 517 24
3 24 517 264
3 54 60 264
3 704 181 312
3 312 181 175
3 592 366 503
3 192 80 257
3 702 46 167
3 66 175 76
3 499 465 415
3 415 465 636
3 473 96 564
3 564 96 177
3 134 45 76
3 59 132 21
3 312 698 704
3 704 698 702
3 312 46 698
3 698 46 702
3 167 103 426
3 426 103 279
3 142 43 366
3 142 54 43
3 602 464 300
3 602 503 464
3 663 42 533
3 631 511 42
3 42 511 533
3 312 66 40
3 40 66 631
3 384 37 548
3 97 48 37
3 132 649 70
3 132 59 649
3 74 680 192
3 192 680 80
3 425 14 32
3 170 21 132
3 566 35 592
3 424 142 35
3 80 39 330
3 330 39 621
3 70 33 132
3 33 170 132
3 48 632 330
3 330 621 48
3 21 170 32
3 192 30 59
3 218 382 30
3 30 382 59
3 279 29 417
3 279 82 29
3 60 425 27
3 26 592 503
3 60 24 264
3 60 45 24
3 24 45 134
3 45 60 27
3 27 487 45
3 76 22 66
3 76 87 22
3 22 87 511
3 192 21 74
3 192 59 21
3 33 70 458
3 26 503 602
3 511 19 533
3 533 19 128
3 19 458 128
3 566 18 39
3 257 218 30
3 30 192 257
3 33 100 170
3 487 27 100
3 487 93 87
3 33 458 93
3 459 43 264
3 43 54 264
3 80 566 39
3 80 680 566
3 170 425 32
3 96 473 16
3 50 15 473
3 100 27 425
3 425 170 100
3 649 59 382
3 142 14 54
3 142 424 14
3 14 424 32
3 74 21 32
3 417 453 340
3 340 453 1
3 630 334 332
3 74 32 424
3 680 35 566
3 526 315 272
3 167 46 315
3 499 602 300
3 415 675 499
3 560 672 258
3 178 586 479
3 586 517 479
3 426 293 167
3 167 293 702
3 548 660 384
3 660 125 206
3 87 76 487
3 487 76 45
3 51 386 128
3 128 386 533
3 384 660 343
3 697 38 643
3 200 143 28
3 473 564 50
3 50 564 663
3 66 22 631
3 631 22 511
3 97 36 48
3 48 36 632
3 257 632 218
3 632 36 218
3 80 330 257
3 257 330 632
3 38 12 531
3 466 336 65
3 336 398 531
3 51 25 628
3 87 19 511
3 55 200 163
3 200 16 163
3 312 40 46
3 473 15 13
3 47 396 526
3 396 452 103
3 93 458 19
3 19 87 93
3 165 9 288
3 288 9 636
3 9 125 636
3 125 639 636
3 636 639 415
3 278 708 263
3 4 15 201
3 201 15 50
3 474 68 69
3 33 93 100
3 100 93 487
3 12 94 474
3 474 31 12
3 61 631 42
3 42 663 61
3 128 388 51
3 362 25 388
3 388 25 51
3 26 675 18
3 18 675 604
3 34 641 609
3 444 438 300
3 39 18 621
3 621 18 604
3 639 604 415
3 604 675 415
3 557 537 90
3 167 315 103
3 639 125 548
3 125 660 548
3 43 464 366
3 548 651 639
3 651 48 621
3 17 539 99
3 272 669 526
3 177 496 669
3 669 496 526
3 404 53 689
3 272 666 61
3 61 666 631
3 272 40 666
3 666 40 631
3 218 700 382
3 218 422 700
3 675 26 499
3 499 26 602
3 26 18 592
3 592 18 566
3 565 359 508
3 359 260 508
3 23 568 672
3 672 568 696
3 23 11 568
3 647 565 118
3 354 524 101
3 499 486 465
3 499 300 486
3 672 468 258
3 258 468 299
3 672 696 468
3 468 696 299
3 288 465 84
3 288 636 465
3 260 456 558
3 260 235 456
3 456 235 706
3 46 679 315
3 315 679 272
3 46 40 679
3 679 40 272
3 557 408 537
3 537 408 665
3 557 434 408
3 408 434 665
3 20 393 347
3 347 393 537
3 393 90 537
3 379 685 444
3 444 685 575
3 537 383 347
3 537 665 383
3 20 536 579
3 332 387 630
3 82 520 387
3 387 520 630
3 417 29 419
3 29 332 419
3 347 383 645
3 470 556 20
3 20 556 536
3 556 368 536
3 263 609 328
3 460 346 435
3 460 515 346
3 346 515 215
3 278 518 693
3 518 480 44
3 4 485 361
3 55 443 516
3 478 515 341
3 439 333 17
3 365 539 333
3 333 539 17
3 17 329 439
3 439 329 484
3 17 421 329
3 329 421 484
3 125 9 206
3 305 540 143
3 143 540 28
3 305 505 540
3 31 304 328
3 328 304 69
3 31 474 304
3 304 474 69
3 600 301 230
3 301 23 672
3 557 280 434
3 557 287 280
3 639 651 604
3 604 651 621
3 516 507 143
3 143 507 305
3 507 365 305
3 435 446 460
3 374 273 582
3 582 273 624
3 374 350 273
3 273 350 624
3 69 561 480
3 480 561 126
3 69 68 561
3 561 68 126
3 163 477 55
3 180 443 477
3 477 443 55
3 592 35 366
3 366 35 142
3 478 341 317
3 317 341 693
3 290 569 354
3 163 13 271
3 271 13 361
3 163 271 513
3 513 271 401
3 328 609 31
3 609 641 31
3 374 642 484
3 484 642 439
3 642 287 439
3 386 51 201
3 201 50 386
3 708 627 115
3 708 409 627
3 518 44 317
3 317 693 518
3 31 641 671
3 671 641 65
3 4 361 15
3 361 13 15
3 4 201 628
3 628 201 51
3 361 485 615
3 615 485 124
3 693 542 409
3 409 542 553
3 693 341 542
3 542 341 553
3 271 361 615
3 615 401 271
3 569 543 180
3 99 443 543
3 543 443 180
3 477 163 513
3 513 180 477
3 97 37 161
3 161 37 384
3 316 541 628
3 628 541 4
3 541 485 4
3 306 524 354
3 263 619 609
3 115 550 619
3 610 390 455
3 115 627 253
3 391 124 550
3 25 611 628
3 466 316 611
3 611 316 628
3 434 318 665
3 434 274 318
3 318 274 375
3 582 280 374
3 65 641 699
3 699 641 34
3 624 687 582
3 67 274 687
3 687 274 582
3 485 623 124
3 633 441 90
3 90 441 49
3 541 316 623
3 623 485 541
3 607 569 180
3 401 615 391
3 391 615 124
3 699 34 623
3 623 316 699
3 92 644 686
3 424 680 74
3 424 35 680
3 520 701 630
3 536 368 701
3 701 368 630
3 90 49 557
3 49 287 557
3 215 515 571
3 571 515 478
3 452 549 82
3 82 549 520
3 452 637 549
3 549 637 520
3 610 705 555
3 555 705 233
3 610 455 705
3 705 455 233
3 99 543 290
3 290 543 569
3 706 661 420
3 420 661 512
3 706 334 661
3 661 334 512
3 90 393 633
3 101 668 421
3 421 668 484
3 101 335 668
3 655 441 633
3 287 49 439
3 49 333 439
3 460 530 515
3 553 341 530
3 530 341 515
3 335 446 350
3 366 464 503
3 583 389 437
3 464 43 379
3 624 606 521
3 606 446 435
3 208 590 53
3 94 691 590
3 296 178 710
3 710 178 479
3 576 91 269
3 23 544 11
3 544 559 389
3 11 502 555
3 555 502 610
3 11 583 502
3 502 583 610
3 200 55 143
3 55 516 143
3 200 431 16
3 16 431 96
3 431 75 96
3 25 362 411
3 411 362 700
3 75 402 496
3 402 676 47
3 253 401 391
3 253 607 401
3 505 601 676
3 601 369 637
3 177 669 61
3 61 669 272
3 70 388 458
3 458 388 128
3 96 75 177
3 177 75 496
3 697 643 97
3 97 643 36
3 362 388 649
3 649 388 70
3 75 431 28
3 28 431 200
3 536 701 369
3 69 626 328
3 278 263 626
3 626 263 328
3 115 619 708
3 708 619 263
3 253 391 115
3 391 550 115
3 676 402 28
3 28 402 75
3 531 407 38
3 38 407 643
3 531 398 407
3 305 655 505
3 505 655 81
3 569 591 354
3 354 591 306
3 369 491 81
3 81 491 505
3 369 601 491
3 491 601 505
3 525 613 57
3 57 613 404
3 613 52 404
3 48 651 37
3 37 651 548
3 505 676 540
3 540 676 28
3 365 333 441
3 441 333 49
3 466 65 316
3 65 699 316
3 473 13 16
3 13 163 16
3 81 633 579
3 81 655 633
3 52 532 208
3 208 532 68
3 52 126 532
3 532 126 68
3 676 482 47
3 676 601 482
3 482 601 637
3 611 25 411
3 411 466 611
3 215 571 469
3 469 571 262
3 633 393 579
3 579 393 20
3 253 591 607
3 607 591 569
3 609 619 34
3 34 619 550
3 496 402 526
3 526 402 47
3 103 315 396
3 396 315 526
3 362 382 700
3 362 649 382
3 466 411 398
3 398 411 700
3 422 398 700
3 421 445 101
3 101 445 354
3 421 290 445
3 445 290 354
3 550 124 34
3 124 623 34
3 376 437 389
3 533 386 663
3 663 386 50
3 553 695 524
3 372 617 324
3 375 635 437
3 610 583 635
3 635 583 437
3 643 422 36
3 422 218 36
3 663 564 61
3 61 564 177
3 460 367 695
3 695 367 335
3 460 446 367
3 367 446 335
3 441 655 365
3 365 655 305
3 693 360 278
3 278 360 708
3 693 409 360
3 360 409 708
3 365 507 539
3 539 507 516
3 368 556 512
3 470 617 556
3 556 617 512
3 536 353 579
3 579 353 81
3 536 369 353
3 353 369 81
3 369 351 637
3 637 351 520
3 369 701 351
3 351 701 520
3 349 691 161
3 452 482 637
3 94 331 691
3 38 697 331
3 331 697 691
3 68 327 208
3 68 474 327
3 327 474 94
3 446 326 350
3 350 326 624
3 446 606 326
3 326 606 624
3 484 319 374
3 374 319 350
3 319 335 350
3 524 311 553
3 553 311 409
3 524 306 311
3 54 14 60
3 60 14 425
3 627 306 253
3 306 591 253
3 47 482 396
3 396 482 452
3 404 629 53
3 53 629 208
3 404 52 629
3 629 52 208
3 337 593 44
3 478 317 593
3 593 317 44
3 480 626 69
3 126 490 480
3 480 490 44
3 126 10 490
3 490 10 44
3 262 294 337
3 262 571 294
3 294 571 478
3 349 352 112
3 384 343 352
3 352 343 112
3 399 52 613
3 38 331 12
3 12 331 94
3 590 208 327
3 327 94 590
3 112 428 349
3 349 428 53
3 112 689 428
3 428 689 53
3 593 337 294
3 294 478 593
3 404 286 57
3 57 286 494
3 404 689 286
3 286 689 494
3 31 671 12
3 12 671 531
3 0 573 674
3 303 650 514
3 67 270 390
3 390 270 455
3 67 546 270
3 521 606 358
3 358 606 435
3 531 671 336
3 336 671 65
3 466 398 336
3 691 667 590
3 590 667 53
3 691 349 667
3 667 349 53
3 409 311 627
3 627 311 306
3 278 626 518
3 518 626 480
3 287 642 280
3 280 642 374
3 457 154 399
3 399 154 10
3 154 442 10
3 553 530 695
3 695 530 460
3 384 352 161
3 161 352 349
3 161 697 97
3 161 691 697
3 101 690 335
3 335 690 695
3 101 524 690
3 690 524 695
3 99 290 17
3 290 421 17
3 539 516 99
3 516 443 99
3 521 687 624
3 668 335 319
3 319 484 668
3 358 451 597
3 434 522 274
3 274 522 582
3 434 280 522
3 522 280 582
3 401 607 513
3 513 607 180
3 413 509 449
3 145 308 509
3 356 495 322
3 322 495 451
3 356 597 495
3 495 597 451
3 399 462 52
3 52 462 126
3 399 10 462
3 462 10 126
3 82 387 29
3 29 387 332
3 301 600 403
3 403 23 301
3 230 510 560
3 560 510 672
3 230 301 510
3 510 301 672
3 420 265 706
3 265 403 600
3 116 261 562
3 0 289 261
3 558 309 652
3 652 309 230
3 558 600 309
3 309 600 230
3 11 544 583
3 583 544 389
3 324 617 645
3 645 617 470
3 558 654 600
3 706 265 654
3 654 265 600
3 455 567 233
3 23 559 544
3 23 403 559
3 403 501 559
3 420 372 501
3 395 547 269
3 395 289 547
3 547 289 0
3 630 528 334
3 334 528 512
3 630 368 528
3 528 368 512
3 10 345 44
3 44 345 337
3 10 442 345
3 345 442 337
3 265 420 501
3 501 403 265
3 508 355 102
3 102 355 552
3 508 652 355
3 355 652 552
3 419 260 359
3 419 235 260
3 506 498 139
3 347 470 20
3 347 645 470
3 456 706 654
3 654 558 456
3 665 256 383
3 256 375 437
3 610 635 390
3 390 635 375
3 559 338 389
3 338 372 324
3 390 254 67
3 67 254 274
3 390 375 254
3 254 375 274
3 252 289 395
3 383 376 645
3 645 376 324
3 376 389 338
3 338 324 376
3 67 678 546
3 546 678 521
3 67 687 678
3 678 687 521
3 617 372 512
3 512 372 420
3 372 338 501
3 501 338 559
3 383 256 376
3 376 256 437
3 375 256 318
3 318 256 665
3 521 519 546
3 597 684 519
3 519 684 546
3 275 251 262
3 268 247 342
3 342 247 525
3 268 267 247
3 247 267 525
3 494 245 57
3 653 342 245
3 514 440 244
3 643 407 422
3 422 407 398
3 242 275 442
3 399 237 457
3 399 613 237
3 237 613 525
3 703 234 283
3 283 234 116
3 169 232 357
3 291 227 373
3 481 240 224
3 224 240 467
3 322 381 356
3 356 381 281
3 322 228 381
3 381 228 281
3 206 285 660
3 660 285 343
3 206 250 285
3 285 250 343
3 112 221 689
3 689 221 494
3 112 588 221
3 221 588 494
3 334 220 332
3 332 220 235
3 334 706 220
3 220 706 235
3 57 483 525
3 525 483 342
3 57 245 483
3 483 245 342
3 215 276 217
3 217 276 451
3 494 588 216
3 373 692 249
3 249 692 321
3 373 239 692
3 692 239 321
3 144 500 658
3 658 500 92
3 144 644 500
3 500 644 92
3 598 229 686
3 588 250 229
3 245 494 216
3 216 653 245
3 214 228 322
3 634 433 307
3 343 578 112
3 112 578 588
3 343 250 578
3 578 250 588
3 682 213 267
3 457 237 213
3 359 504 453
3 453 504 647
3 359 565 504
3 504 565 647
3 644 226 686
3 686 226 598
3 644 244 226
3 226 244 598
3 686 211 302
3 302 211 206
3 211 250 206
3 258 529 248
3 248 529 662
3 529 688 662
3 209 232 169
3 298 207 295
3 169 357 207
3 169 203 255
3 169 207 203
3 203 207 298
3 321 202 249
3 307 433 659
3 268 432 298
3 197 238 249
3 238 394 212
3 212 291 238
3 202 707 197
3 197 249 202
3 681 194 696
3 696 194 299
3 681 320 194
3 194 320 299
3 423 210 429
3 203 298 432
3 432 255 203
3 281 709 433
3 709 212 589
3 249 193 373
3 373 193 291
3 249 238 193
3 193 238 291
3 321 191 357
3 145 190 222
3 222 190 413
3 145 509 190
3 190 509 413
3 320 189 299
3 308 188 509
3 509 188 449
3 188 241 449
3 599 187 469
3 429 182 585
3 429 432 182
3 182 432 268
3 662 405 91
3 91 405 269
3 662 688 405
3 405 688 269
3 11 176 568
3 568 176 696
3 11 555 176
3 440 683 244
3 440 585 683
3 683 585 653
3 588 229 216
3 216 229 598
3 567 282 498
3 307 659 282
3 282 659 498
3 659 589 625
3 433 314 281
3 281 314 356
3 433 634 314
3 314 634 356
3 696 176 681
3 255 209 169
3 681 603 320
3 603 506 139
3 238 545 394
3 394 545 618
3 238 197 545
3 545 197 618
3 228 172 281
3 291 212 172
3 292 174 394
3 589 212 174
3 174 212 394
3 562 186 56
3 232 173 357
3 357 173 321
3 232 202 173
3 173 202 321
3 233 527 555
3 233 506 527
3 292 259 625
3 625 259 139
3 292 219 259
3 259 219 139
3 56 185 618
3 618 185 394
3 56 292 185
3 185 292 394
3 232 209 392
3 77 476 223
3 313 168 227
3 227 168 373
3 313 243 168
3 356 166 597
3 597 166 684
3 356 634 166
3 166 634 684
3 214 276 187
3 187 313 214
3 337 162 262
3 262 162 275
3 337 442 162
3 162 442 275
3 251 275 224
3 224 467 251
3 241 159 210
3 210 159 255
3 159 209 255
3 242 481 224
3 224 275 242
3 295 191 240
3 481 157 682
3 457 213 157
3 157 213 682
3 313 156 243
3 243 156 599
3 313 187 156
3 156 187 599
3 242 457 157
3 157 481 242
3 481 158 240
3 240 158 295
3 481 682 158
3 158 682 295
3 255 608 210
3 210 608 429
3 255 432 608
3 608 432 429
3 303 155 650
3 457 242 154
3 154 242 442
3 267 153 682
3 298 295 153
3 153 295 682
3 650 344 514
3 514 344 440
3 650 423 344
3 344 423 440
3 308 234 152
3 152 234 703
3 308 151 234
3 234 151 116
3 308 573 151
3 151 573 116
3 188 308 152
3 152 241 188
3 618 149 56
3 56 149 562
3 618 184 149
3 149 184 562
3 283 148 703
3 707 392 148
3 148 392 703
3 262 147 469
3 469 147 599
3 262 251 147
3 147 251 599
3 209 159 146
3 146 159 241
3 152 703 146
3 146 241 152
3 562 377 116
3 116 377 283
3 562 184 377
3 377 184 283
3 707 148 184
3 184 148 283
3 240 140 467
3 240 191 140
3 209 138 392
3 392 138 703
3 209 146 138
3 138 146 703
3 514 136 144
3 144 136 644
3 514 244 136
3 136 244 644
3 298 135 268
3 268 135 267
3 298 153 135
3 135 153 267
3 267 131 525
3 525 131 237
3 267 213 131
3 131 213 237
3 467 656 251
3 251 656 599
3 467 243 656
3 656 243 599
3 210 129 241
3 241 129 449
3 210 423 129
3 144 658 123
3 123 658 78
3 197 122 618
3 618 122 184
3 197 707 122
3 122 707 184
3 684 120 447
3 447 120 307
3 684 634 120
3 120 634 307
3 232 119 202
3 202 119 707
3 232 392 119
3 119 392 707
3 357 117 207
3 207 117 295
3 357 191 117
3 117 191 295
3 469 114 215
3 215 114 276
3 469 187 114
3 114 187 276
3 0 261 573
3 573 261 116
3 244 683 598
3 348 596 570
3 570 596 77
3 348 523 596
3 342 284 268
3 585 182 284
3 284 182 268
3 289 677 261
3 261 677 562
3 677 186 562
3 440 471 585
3 585 471 429
3 440 423 471
3 471 423 429
3 449 113 650
3 650 113 423
3 449 129 113
3 113 129 423
3 585 284 653
3 653 284 342
3 709 281 172
3 172 212 709
3 538 320 603
3 219 171 538
3 538 171 252
3 219 186 171
3 171 186 252
3 291 110 227
3 227 110 228
3 291 172 110
3 110 172 228
3 373 168 239
3 168 243 239
3 299 670 258
3 299 189 670
3 670 189 688
3 573 406 674
3 573 308 406
3 406 308 145
3 529 258 670
3 670 688 529
3 239 109 321
3 321 109 191
3 239 140 109
3 109 140 191
3 92 107 71
3 71 107 165
3 92 302 107
3 107 302 165
3 246 476 400
3 400 476 77
3 62 493 123
3 123 493 303
3 320 385 189
3 320 538 385
3 385 538 252
3 155 303 493
3 493 246 155
3 77 580 570
3 570 580 179
3 77 223 580
3 580 223 179
3 688 587 269
3 269 587 395
3 688 189 587
3 587 189 395
3 433 106 659
3 659 106 589
3 433 709 106
3 106 709 589
3 91 105 195
3 195 105 348
3 91 576 105
3 105 576 348
3 348 104 523
3 348 576 104
3 104 576 674
3 346 215 217
3 217 435 346
3 650 574 449
3 449 574 413
3 650 155 574
3 574 155 413
3 222 400 523
3 269 547 576
3 228 648 227
3 227 648 313
3 228 214 648
3 648 214 313
3 447 620 270
3 270 620 455
3 447 567 620
3 620 567 455
3 246 535 476
3 476 535 62
3 246 493 535
3 535 493 62
3 555 527 176
3 176 527 681
3 523 400 596
3 596 400 77
3 523 380 222
3 222 380 145
3 104 674 380
3 380 523 104
3 576 614 674
3 674 614 0
3 576 547 614
3 614 547 0
3 250 211 229
3 229 211 686
3 413 554 222
3 246 400 554
3 554 400 222
3 406 145 380
3 380 674 406
3 189 563 395
3 395 563 252
3 189 385 563
3 563 385 252
3 467 454 243
3 243 454 239
3 467 140 454
3 454 140 239
3 223 410 199
3 199 410 62
3 223 476 410
3 410 476 62
3 498 612 567
3 567 612 233
3 498 506 612
3 612 506 233
3 681 646 603
3 603 646 506
3 681 527 646
3 646 527 506
3 206 638 302
3 302 638 165
3 206 9 638
3 638 9 165
3 246 554 155
3 155 554 413
3 307 616 447
3 447 616 567
3 307 282 616
3 616 282 567
3 538 594 219
3 219 594 139
3 538 603 594
3 594 603 139
3 56 450 292
3 292 450 219
3 56 186 450
3 450 186 219
3 597 519 358
3 358 519 521
3 546 427 270
3 270 427 447
3 546 684 427
3 427 684 447
3 589 174 625
3 625 174 292
3 276 488 451
3 451 488 322
3 276 214 488
3 488 214 322
3 498 397 139
3 139 397 625
3 498 659 397
3 397 659 625
3 435 371 358
3 358 371 451
3 435 217 371
3 371 217 451
3 186 677 252
3 252 677 289
3 598 463 216
3 216 463 653
3 598 683 463
3 463 683 653
3 225 370 71
3 71 370 658
3 225 78 370
3 370 78 658
