# vtk DataFile Version 3.0
A great-looking cell
ASCII
DATASET POLYDATA
POINTS 685 double
268.37179901291734 95.71442515943502 68.94207575355084
271.48951797547846 94.25780746772269 71.59257296097125
269.2563014280294 96.48423457114173 70.58070691395284
270.76361469951013 95.72367575360703 71.80804071372623
269.855084134614 97.27418302869407 73.90145698808941
272.2724536827178 93.02506492283699 72.57010486389555
267.3856851877925 97.61295068794412 70.86153999123052
270.41049570467135 97.1458350003181 76.58220796838454
260.2694322644112 96.17006399806407 66.90822360681202
263.9325235520366 95.4014433206738 66.62296708567553
266.90789080881206 95.54022188055644 67.62546687046996
272.38518016058686 93.98539750401619 74.25117302673539
271.4972237000535 95.93668330252135 76.12360514850619
265.448772231622 99.56627833471914 76.50287587572548
271.16805537107433 96.55266644141801 79.32150569112143
266.69780960168754 99.14586451734667 75.9607142801033
265.74624269594955 99.49784366097546 74.69309799668089
270.4130467105019 97.64022136547086 78.2420346742284
274.0678329048061 87.086841621405 72.30678017549249
267.9074168831063 93.12165895754802 66.18554258044362
272.91645741756196 90.91244122674662 70.41522238302294
274.60568729117807 89.09621141052142 73.8578283716303
273.48346414900243 91.1590155276321 72.63793932509905
274.3230463028544 91.15468977084386 74.51701366966887
273.23634957200153 92.49855691032892 74.24643133909937
273.7333849153988 92.09327833661426 76.15098930663474
272.76731870462885 93.57779949004185 76.83287025896216
272.85064478797483 93.32983777211452 75.44746111317701
272.2417649430492 94.55976337623535 75.74373221681708
263.11422336979206 98.72276689016202 69.72834026886001
262.9061133683436 100.28265881312686 73.57610564488893
271.95148795640534 95.31785987603148 78.730924438815
266.7552870879204 99.03311551497015 77.35451838548657
267.8742817847813 98.56364504078844 76.40990149492211
269.2022929141648 98.17416697674749 77.17387100569026
269.9733516185366 97.56123372762671 79.88587284709098
273.78377612937277 84.86359961347789 73.51022914574779
271.9451736852661 81.78761113515849 70.95007019054117
275.10924861093963 88.8837351857819 78.04787604096892
274.7027533364614 90.36280786975315 79.71664586980657
274.7021379621568 90.10283182168432 76.07239838064348
273.92996554325913 91.93759846225639 79.48880830445599
274.5169812299094 91.12202957702718 77.9130089681669
273.46176141257007 92.69581080829461 78.04275264208366
272.6920569588166 94.08870201040133 78.32666031156177
259.4062207346741 99.86382770478377 76.42728374033946
272.3976433826281 94.43860119741963 79.56711359646367
262.7443853847891 100.55003843162656 78.55588165838554
262.2725320309046 100.58501948431793 76.58603590411423
271.776452254989 95.39194152182934 80.21479182548427
265.47493163810054 99.44601280852417 79.56576211802707
265.50368525934914 99.48332528711425 78.19207983681117
267.9557384457408 98.57854224895446 77.80030341157693
268.9196369212417 98.32733501267906 78.80304615706363
260.68947889614907 79.3734250660062 85.58370935193764
273.5972037040141 83.01445980893743 79.73122766735356
275.3773232901456 86.55485967715495 78.86222579991274
273.78077947293804 86.2370206502796 83.74479338834865
274.7023130706213 88.34922903985259 82.73117162720496
275.1037168459895 88.46238848035388 80.42019751138484
274.5576680178613 90.12605291153807 81.58273353505213
255.6465921235887 100.31517140027535 74.9404886044552
273.57227226070114 91.51071989284114 82.11115462129645
274.07882890683885 91.32976642985544 80.77078775745711
257.03639791519413 99.66322567799624 76.95708015218261
273.22540239306653 92.46660072432167 80.86576710089996
258.6659624152831 98.8704279328307 80.7659407398616
272.66394160182165 92.89383325290191 82.33729018463796
272.45484973713724 94.06847657775344 81.00344216827521
271.8937839388489 94.42543530623207 82.8267171688812
271.5665275283493 95.25216229923517 81.54788860359956
261.9072177881039 100.17126486298814 81.77109590068946
263.19032103260656 100.29214791929351 80.2471760120461
265.896756963883 99.06636167252826 80.74720963242694
264.2657540235719 99.9468992994736 79.08116749459245
267.0371460122251 98.8335787976537 79.25741039400734
268.57882254621853 98.28536051904544 80.39973539019877
271.714539767142 84.62232074680982 83.76389361029717
264.04962918715705 82.47312483264581 85.91837577612091
268.12158411435905 82.54604651255026 84.31700767278042
272.9535172291769 88.48332070464068 84.13118730544375
272.1451722428412 90.33660627025921 84.48027112338619
273.7940529177685 90.22685400132139 83.39550434267021
272.7368704226855 91.78756095937928 83.57652382704234
251.63246626748898 88.19121069923641 81.04602640540368
255.86342790488737 93.55806494790556 86.10752770604714
256.2890944625659 96.61464637943841 83.56747402358268
272.040173807246 93.07312411714307 83.61668594839286
257.940421244062 96.2809706348176 84.8660673436477
257.68481225845113 98.28030341911736 82.51694475222807
259.2213540787416 97.98607422376878 84.27613794978969
271.1142747249793 95.95625796880314 82.65678689613605
265.5924960708392 98.92250797059819 83.38799178359655
267.2834938671169 98.67256351866916 81.20602450413293
267.4251369432512 98.4043961004469 82.96173395771179
268.4241173272963 98.17334909896985 81.77975062597456
269.1592332226234 97.76408632370692 82.89840640846289
268.99529071401764 87.42542563301568 86.35373233649494
268.63910419735066 89.06934310730848 87.12094850962066
270.0707521942051 87.6137438030693 85.06710465378974
271.06347450569086 88.81689250750185 84.65383714309964
270.46902959646087 90.43746972689715 85.24021186968793
263.158052148098 86.46901823337677 87.4768349050844
271.19781488513456 92.14813582633984 84.64992995688321
271.3788385629348 93.99963767511176 84.48203307436157
257.2294993649997 86.9267351635589 86.63193803209303
257.8722759022019 93.26924681197842 86.82737629773813
260.48036832343604 94.94349696806361 86.64812793557934
259.75637841089195 96.52611719229036 85.8307151508284
261.8115590710805 96.4191013708732 86.34504590353609
264.4898049835724 98.53824992986195 85.09776072712422
266.57037286821685 98.02598890519947 84.74409670485903
265.3698169340507 90.57203536059912 87.70510385806423
269.1872756069278 90.42004324407495 86.30884644648455
268.5148700832477 91.6067277474501 86.57008365043355
269.78958524888617 91.92297067086132 86.00352483619591
262.49823016547276 90.16234261783565 87.27337250450582
262.26781200710275 91.89658774806605 87.37975167286817
263.15110967574503 93.47625641551868 87.27305376098688
271.1661329620695 95.33793148937684 83.89890417715984
261.0193022563772 93.25201182559606 87.49902995719209
261.94375870040466 94.83484558122669 87.37775342787963
265.6642507143127 97.03971479419181 86.0663506866908
268.35669282307896 97.37931383343121 84.38207336860174
267.388787930962 89.44609070465354 87.74381529802437
268.02895400732217 90.53223289188462 87.20613749073395
266.6800373168699 90.60468101922963 87.61881317485583
269.95621520276876 93.50369700446247 85.31488381818164
264.99835436936087 93.14334577256511 87.35431077700704
270.3112022479039 95.12063328784895 85.03042535204406
264.42915223976024 94.44638359370478 87.30765658798441
264.9304107282832 95.66475640736711 86.81451766708504
251.05106128706035 95.0053818442404 67.12490873593734
251.61695683558239 100.55671678892351 79.03697410484338
271.1235244248551 83.18558043885757 67.26714126167872
249.97688998826555 96.02859893965625 67.647454166335
246.60683164749886 98.65702703764813 77.5097262785082
250.37250611017538 96.28852263631595 82.07543412554051
248.40728231512776 93.40850547577216 81.77421761560709
262.54274768359176 100.55073967302833 75.11630143743638
250.88216906728695 91.73427128498466 83.00882702488418
245.9219699084005 98.12944136318089 75.52478170792138
250.0007699442618 93.64202398011597 67.6304366273696
252.65615229137515 100.59957503558014 70.4405828532957
264.7776584023193 81.76691090384074 67.37192866900905
256.6652799856989 95.76143961020664 84.787290710214
251.52108610260066 91.72886920267322 67.34819146533356
249.6906918523793 90.2182412231516 74.47902281921887
263.79196734895646 79.30920526484918 71.4083384602435
251.67828038476426 90.13966561913708 68.84320267913078
250.55970366047566 90.11272724173914 79.09707549371028
260.4840412845938 77.68302977838134 81.19103749081137
270.80012918175515 86.84089221003462 67.43392325609202
264.44284734144907 93.7262409576349 66.15093077243961
260.116851137846 80.33955093881927 70.3027011679432
268.221229024058 87.59468226357545 65.46238242906965
266.1649766712309 93.23069536373981 66.05650341473472
250.4407809654341 99.94449429353402 70.00115136288
260.7949117812223 100.54780486267943 76.52801836825978
257.81341186498554 98.20980011765617 68.76032297429299
254.3217308519712 88.02864116980564 69.43021639418507
270.2377365260266 90.86704852214261 67.10407564291172
254.90621303675218 100.32696782824326 71.4411926443991
265.8565120778792 91.80518334071601 87.30169668453188
262.28404907862074 77.49863888347097 80.17903703026741
270.43978200214985 82.03079539897143 68.25119748135695
246.13282950403206 95.87484208426885 79.6481787563317
266.73500309098284 78.41443593350265 73.99843155860945
261.9421694214504 87.42840627189072 87.63386306269733
269.76647339284193 80.12000935065201 72.1869316391906
255.21033939139468 81.55036747832516 79.55992017020202
259.4562391268944 93.89263419071843 87.15790271214722
250.21927165231045 99.63514849580993 80.86962502376383
263.6604130448358 78.15111382025228 83.26251985895883
256.33957520007226 97.69664345174677 67.47818814717253
258.814530857926 85.9197438969616 67.63565836287188
258.4562187750798 93.65141766920014 66.22214851107346
252.12131539839328 88.47297519087638 71.83025858877116
246.5651817215237 92.67571550466613 73.14865351707324
259.4834608168825 98.36372339402979 69.46588328983555
262.8797405520246 80.22850205135882 69.26739817405797
258.4944841593504 99.30142355214629 71.96138178697183
256.82799500700906 89.7992978086208 67.61075766874896
252.34203853310882 100.79071445271707 75.07476290883316
255.475685905549 95.05917814794596 84.81842602266919
257.41557563391984 84.46995902973238 68.90902437796784
270.4129428662109 80.34097729847204 79.19403622758419
266.7545814244186 82.32989051190914 66.9545835692463
260.45363605702767 77.60744217567519 77.45698117103991
245.84492983589814 97.81091091819253 76.78809466954577
273.7661442100219 89.15082436053477 71.58478466996168
262.6488933177077 78.50963997583912 72.78727038032414
257.7521948797122 79.80526895572642 74.28182269025217
255.52916223865822 100.22948605395112 76.76591315921155
250.9697759941357 89.1965047497317 75.54733339359669
252.6036845054451 86.80999758005436 72.82145084699023
270.64069537071236 80.3747892806513 76.96588874784416
252.39012750833166 89.29828002770307 84.80646623846204
252.84966512189018 87.17853521682417 71.5562741830224
246.67453728295618 98.27636308648533 72.29325992293774
257.9297902872672 95.39752722567242 66.15170751188033
256.79699118390243 86.76037236875084 68.4890755870545
258.5653099140993 81.72055480032733 69.98606607242688
264.9211216737765 90.16350425401033 64.73031024722097
255.81269164564347 95.76336959487828 66.43949533958809
251.22248335514465 88.75986344520358 78.98560358719949
260.0348520817374 90.80524299714992 66.49379265710257
251.67050340100522 86.05891715227116 81.20731397574912
253.3953112865407 99.39192392565617 68.3072168112691
271.6880525244186 90.2266033968358 68.67695006043519
258.5463752547632 91.08801826465724 86.93127092366701
271.0721790383864 85.09061034774345 67.38992745275745
265.73344139752675 77.78136738443133 80.76367582817717
265.97989936219017 90.96061980298943 64.33470205505665
246.1844888610157 97.77480701482676 78.76562680118003
251.84413342761383 88.59667432326978 82.9967477247578
254.7967167496033 87.34437789535743 86.92874361076434
261.42691830530106 93.9349471476176 66.0635381413879
262.147328944094 77.70710256128362 82.27219594666626
269.94306161733886 80.82977363663575 70.15144785777497
252.25125122425973 85.4252191714249 75.5820794782426
247.16134044140347 98.55928563154397 79.82612367500732
267.9373669490223 78.52376302192452 76.2393195458369
262.8984991007242 77.98573014470891 74.89921718227714
256.13386463402173 89.25300960065431 86.60578551614138
260.81795636157824 86.40489981560188 66.64338826429
264.1891638251228 77.5994526709951 76.6488208316568
253.2948161306283 87.72471450145039 70.34148231151673
263.1785733143104 81.09264771052939 68.22932799972699
261.77014163416936 89.88844103156553 65.95595056270417
247.15297054427177 97.20028369023497 80.63739934903938
245.27907413721502 94.71417911715479 75.67929960388565
258.48286712992865 96.98639189943535 67.3049414947321
260.08993718125555 81.53881404683018 69.11292280648092
265.01051052577225 83.48459690082763 66.21264044083179
266.5155291056528 95.60419240723172 86.59707242607348
271.8793818539542 81.54398560751854 77.7053119647468
268.41222836841837 85.48819972573624 65.36956673279929
251.3624349057628 93.1712626104642 83.06862792275281
261.3448305421661 79.85963887739796 70.24788455892256
252.8401821156448 92.7316281570096 85.32437866430578
269.03888007617974 79.48509309428111 74.13475379765154
250.08035219626572 91.5365445504438 68.99744187817622
259.15132825571465 85.45780373451672 86.92451299301518
275.36712237498 87.37012776616994 77.34021428127996
254.45773063447075 92.26242818636207 86.20204225673636
256.3894007869905 82.19801525455276 72.10924543721457
254.06390235838663 96.02698640848229 83.77778039155073
251.8036954590264 85.4809689732279 79.05119169381189
264.35168518085044 79.95682517357365 69.52235483603299
266.92236358769213 80.44547091563092 83.7921430338485
256.5733975737463 80.32991596897915 79.43564172772689
256.4260717209926 91.470843765307 86.59731263511834
266.9856920926563 89.51896682359859 64.57249417104515
252.10652993260436 92.91515384526771 84.27092088640119
256.5621804842761 83.187079352576 86.14466548732831
257.5905641669542 81.34531787800006 71.52163675978979
258.27307253591783 79.8526257863404 72.44280610874549
265.6344592014858 94.83479137384808 66.65008559058576
258.7157734183583 79.1926630512248 73.4879334658035
251.79327988408576 86.98084662616587 75.66474571332357
264.5621133151851 86.0508189472913 87.60266582436988
254.75084730321853 90.62063337625077 86.55229060144033
253.7779148218407 84.36487594143017 72.92157406322605
259.2879484462774 83.17495577291888 68.78353486226192
250.83238616392077 90.04649649925099 80.64985346131311
260.19487877312633 78.02714933184343 75.19031829057016
263.08612927433177 92.87388346356747 65.57642107062757
259.1589769048711 78.92231800712116 84.11453302223819
274.9605924871674 86.68070611145387 74.4026456155304
254.53542603053518 83.38828956778428 84.94202521761244
258.8752652820675 83.23451076705437 86.64938420148368
265.81237726740346 79.25283913954098 71.09424455315974
255.39858761731367 84.68348698018175 70.34685813185557
245.77650548690025 93.30491195121296 76.9040548556929
250.86525902072486 100.52247125304721 75.8685511896426
263.06430219329417 80.0349303855322 85.6649298918849
257.9287756996519 79.14832781243872 81.2755012898259
252.92881598652068 87.32905398861129 85.65038984155684
252.27377818026486 89.13158438711498 70.16033485602999
270.1375893276949 96.61747370780846 83.98289024314191
252.21071356885517 86.3550260218267 83.54491547689976
262.7210115742286 83.65373493795315 86.63168235695778
257.09390620644524 79.97401824217549 76.04634205283953
263.46027734095276 89.0948813888291 65.28381375747234
270.4380098866215 88.48092898734457 67.44688983497161
271.6359717411205 81.01553608694626 76.28576194198266
264.3700934832501 77.65105696914966 79.16554727315005
263.7904407336599 87.28751528248118 65.43767530379172
258.2152625119443 78.998489962551 75.61207991415635
250.6443965926862 90.05519230311337 70.79299942648612
253.40988260010158 97.69688664853291 82.2890612801634
255.4199379046884 88.42889653229233 68.58693975827585
246.04207657756697 95.52279139205925 71.4528700288079
254.55174203665598 82.45429437641913 81.89032653731276
268.3727756770192 81.43902767379598 68.31899115530517
266.607592496952 87.35186324766973 64.54463066304196
251.766833760123 99.882588933573 68.99701665329056
256.31059586177616 80.83408487914141 82.98587281027831
273.1965065550092 83.45055488682317 74.5162077166984
247.72396600019312 99.35590014621104 78.43039247510585
258.006036703173 83.04038636981663 69.51082215208642
253.00278400006806 84.18981939696017 75.61770308138506
264.45177139218333 99.9670200804212 74.10096098490703
264.7397601942446 78.14201178460686 74.6785644641135
253.47519620799844 89.0885511575354 68.89252414780987
262.3852678174037 84.66492695894713 66.57927196594757
269.5147477622161 82.45962001751471 83.66709810505363
265.9639462682666 85.8301636296818 87.44272559086669
257.79782217599376 81.37039910679727 86.08389009167104
268.18853284642455 84.20312791996022 85.27727938734651
268.8216744570369 79.92365085931131 71.07044374223833
248.63063568910596 97.21803999201921 69.1712996438383
257.66479830912624 79.04986671075288 78.78310472040359
257.14483786043155 96.5083558196531 66.76536239811799
271.54795723698425 88.59487975390576 68.72498443502634
254.14943043042234 93.97457061198644 85.49832936182794
266.32529678951903 78.67972567333565 72.44315676343895
250.82802131045761 89.363090426741 74.21824512843075
253.5002404509374 85.76015282413292 71.28555370876296
260.6697033929054 98.41078572803758 68.9039468176108
259.2439020319699 78.6212380665334 74.50633697174268
257.3982487597941 90.2182446032216 86.66846432876338
269.6760525134022 97.75053513161892 81.43210890244417
269.45174459306537 88.07915627262983 66.18826035024817
267.24620587269027 78.11579124478948 79.80562288016694
267.77039955028107 79.29996652425766 72.10798745717065
250.06148767657717 100.14194123108886 79.14609879642944
272.7369839806876 84.26467862533325 71.18574165996205
267.4641300888559 86.50101960572074 64.93801718378987
261.26191511397155 77.74606282856743 75.99141004220628
269.64168199149515 79.54671073739333 75.98552401129287
259.6049634449606 79.6666182379059 71.57819584276163
269.3728881622904 79.1718421425089 77.69179225779318
260.5022437169439 78.16135514970274 84.59102876734173
261.00647570703376 78.12993887441657 74.08609293715318
261.1957164158478 99.11773771808042 69.9142686129637
253.01824593143434 90.92311685761557 86.00769866432631
272.46929740415817 82.17693205629698 75.52031616281813
266.2247892628026 78.96974168280595 83.33153293576183
274.603963363324 84.8186122620212 80.06149283197686
263.4074633173044 78.96737329507962 84.32624408331107
269.3221478974191 80.94758555393703 83.24011269264957
255.18734772573634 83.37479932224437 71.95450221478197
259.6997313618524 94.70284362763088 66.38742412974946
253.395208993836 100.9195231333572 71.97401395039249
266.5490261962328 96.9974679348961 69.09293960594817
245.3422837495952 96.64685030535765 75.22090955271011
263.7816002352819 78.30553989867846 73.80365111815262
260.7366763032697 88.72582752924215 87.55220298541093
265.23504224936926 98.46512862586395 70.61315406533504
266.87315637516946 98.87808383973055 73.2872672872508
251.17221810085533 100.62666361007639 71.25955178770771
262.8960843457266 88.33019904340887 87.77525636727894
269.8474728065165 94.2206471172976 68.68573816074536
252.34871684740227 87.8956213338787 84.24794098204183
250.85404851432665 98.4335483108717 68.10133555550343
272.8928095422058 86.5318861262613 70.60641974191873
269.80420706436337 97.10128916294698 72.42193855428484
248.33443485485228 92.92070160993975 69.40510811598813
249.1843615463268 99.02125348914329 69.10191907551345
247.45935757936215 92.43001607128046 71.68964919856738
245.92551566267372 93.15727555188518 74.58842432851868
271.3422267183911 96.32131331690542 77.70189236654858
253.99590473249947 83.25803073152741 83.53857360261861
271.009377015095 82.50604973864246 83.18628614493248
261.8013390727517 82.09290629214338 86.3903744169185
251.5837308738082 89.39927658909797 81.78892241915463
270.58112673702584 96.67089327963454 74.98805516937729
266.48739062633257 98.66033263126748 71.89640681851287
251.66140832933186 89.90317095791109 83.72434644468272
249.72210024174723 94.59335199299991 82.09005853223907
247.77251793941514 92.51879434757582 80.43519510340913
269.68664595180815 85.75527328295705 85.03108280640708
253.57287660843065 91.84392801651347 66.70049669387573
269.7843721818048 83.60401637323082 84.38395366211638
265.98941207413304 89.26485052577192 88.10910967087484
259.6165600831399 89.96443723904802 86.89168395986039
261.1541781737771 86.40083498511935 86.89825827341555
266.0905733597746 80.6812904616128 68.4492638181849
265.9388362580458 80.10037691971341 69.84107874401742
264.33949056141546 85.35523799943209 65.78546299670997
260.9571035953854 100.51515642856673 74.92762704131208
251.6045185927269 100.67083314044203 77.34101755830086
252.80989865791497 84.12474367643942 76.94317717108665
258.56901025745884 99.37111671979127 78.75165741021287
252.1809488173709 86.88036635206319 74.1452217374186
260.7498569325064 100.40433456300057 78.15526874177245
266.70076637804755 93.1923363172253 87.73816838745269
259.52737159492494 92.52927587700164 86.95068827833047
273.4552482439502 87.83554297962205 71.02623225471127
264.932946700128 99.33508341525555 81.93387742543719
262.5495019211104 98.41463863965653 85.85642984060019
248.58100279366147 90.80420745244345 76.26833763868824
251.64727175706392 88.20540373668689 73.89107177359831
254.12011921307567 97.42194659700705 67.1152219874567
247.36479636096547 91.73841528003513 78.08347658161479
259.8222367564515 99.15083617939013 82.31767017187002
256.75573174297654 80.22000318974763 81.20433088427545
264.0607425776586 91.51776542440966 87.41639171118544
273.3401792502137 82.79363780544439 77.57173506345887
254.85815359298354 81.95334789370325 77.72417216993516
257.06671264580814 94.87190740877836 85.6773681687355
263.6763725894564 99.90788419891066 81.57447283333711
256.7024621798537 99.16671795865965 80.32985402073662
253.05786165057592 94.10295885942166 84.03182418616498
253.2879319134564 84.23583168461639 74.25503881223926
258.0868645787094 91.81410415329914 66.89166098986973
249.7232218720017 91.97362604610211 81.8219072372898
271.94850326575795 83.22224733482116 68.93989658287275
246.78498259144018 94.58484594563218 70.28532085033545
264.5944078251524 80.79390081270392 68.32381430220995
261.13112473081435 78.3903824740073 72.6855008025294
248.05110299830346 99.48716958925506 73.53814867358722
263.39417310607763 99.58924826448646 71.45393795309124
252.5568274678747 99.09541318483438 81.70890923696858
253.9645029051629 100.76162653683775 73.46482284238729
255.50723475949763 98.16452057251321 82.16048145465297
272.1624870424258 85.23319750890722 69.3149593372495
261.4680111808073 99.27723102273193 84.14048856698943
268.5993219118262 98.15886592102342 73.37632030697453
261.8763089862755 98.11169881441097 68.48013344161903
257.5037292532072 80.19353711826128 84.48808791601611
246.30669142583838 98.16557498535857 74.19560035971861
263.6531849508145 99.66096810970778 83.32813328358925
269.89939585736073 86.6942737286953 66.30967657575697
260.1842805825859 97.67934505523225 68.00154634978428
264.8043191315379 79.40190439922213 83.98577735350847
265.99525541869633 78.00494931268237 75.87969465064391
259.7825426825537 78.76553138207866 72.79307461560705
246.133531108584 93.78207043287912 79.20473341233216
270.96380263955535 80.54672215700565 74.93131844864874
264.2780445270463 89.57083148687767 87.72521484160316
265.0416083706477 99.41319954617073 72.78031222892827
267.97501285047645 85.6622710271123 86.67828526893338
256.92017649595863 82.9597911201766 70.60297676708285
259.47651436366374 78.28027423874448 76.2798840096027
261.18740539512487 100.29183272145386 73.35078214348863
266.36597592159376 85.7179207040687 65.2607775059208
252.39797704654237 93.97926069941485 67.03351776341404
271.66401160603414 94.83738720871895 73.0129834836182
255.90576056917513 81.04899537933079 76.74596723328315
261.4247114229659 100.01206766681568 71.80335753221121
261.6668010535307 80.82897430855974 69.44643205724844
254.20104088969433 83.21718205642789 74.4463584116474
264.05844491500574 100.1283488024499 77.39059146578354
261.65314951458953 83.3950214476522 66.85522152696926
250.8666795255047 98.18735241974353 82.02272265685887
264.9670802092315 92.07442440064624 65.04855159357412
260.31884462985016 84.23217473146204 67.2425973604064
260.4672730126497 77.82351585891014 83.17162973901546
258.7453924101436 80.47521336673638 71.07360461539537
254.81686583157776 97.13223026898342 82.95633619145484
256.797137418386 88.24219123754948 67.99628507770093
272.50803360945804 91.9195471309379 71.5580302157625
257.7885106412065 99.02693744986226 70.65360016250561
255.9816741272864 80.90514897468398 80.40586091580977
253.12155670305478 100.55532685489023 78.8976471361562
256.8758914519411 81.07398487423141 73.08897909222406
271.3359823642142 80.93211768794106 72.91333431397447
253.59678619413998 83.25169705214947 82.26568789407214
267.5824227144156 98.17415713921737 72.25712656832845
260.7790950537747 98.0183493728347 85.67025048553725
257.7895227463153 97.28313599154906 83.79939682178897
269.1770340341864 97.85959347421571 75.3203939395392
251.57528302801293 91.39288499499332 84.33810211979595
271.89281207699963 91.61309226958788 69.50000840641805
254.1391508874978 94.8514169870904 84.60573664658378
256.20272248341445 81.30493302909753 74.89608877647035
245.88210256355546 94.12017636942909 72.45322790849663
248.28033267784383 95.04989175595101 68.62957085268545
261.1581455396027 79.00621354347867 71.3518900844203
262.9948680012889 94.38445670645532 66.0085417960014
267.2019111439698 78.82797476759526 81.94572098517376
252.15816166342162 85.27438331603759 76.98185725299885
271.2139004428412 81.79943494964749 69.47786032845272
263.0633189634244 99.26624367884163 84.76012875439743
274.48017462839783 84.46573229865875 78.07684641109178
269.6385581234423 95.39955835558575 69.51115885905227
264.86500716990474 87.56075046094489 87.99863874467762
271.68890909322243 92.79528524338882 70.4951483386461
271.5324439909147 95.37742405871083 74.59201337463554
262.5466434925618 79.04976655712433 71.43349107348976
260.8512871728865 95.13989941270425 66.41412684485158
259.50086103562484 99.84340586900028 74.85082557133633
265.9230295081813 77.74123662255985 79.41072869554635
261.42910008312725 80.41791316725666 86.86530809108726
270.94331607478244 96.61871080958151 81.0896104992093
265.78608984551295 94.42131592678813 87.18134373901424
254.8664627339572 82.28946283248425 83.14127010319918
262.45631382691863 85.02820835719572 87.03865581696027
268.20013168965966 90.62429711246406 64.88015331841177
259.0100333221748 78.44282385424894 82.12489990910093
274.9229385430581 86.34353922837467 81.42678099640028
272.23893663704723 82.6464468001157 81.47723534754866
257.0014656439834 99.70049375527532 72.65179036587459
267.1233968804326 94.37021704009892 86.97776558492502
247.64514098214602 94.85816217647861 80.90741997214208
250.7192347700483 89.5639075459392 72.94367934566897
262.6493274631582 77.58321915490488 76.32573606269149
253.91203966321999 82.90351141468932 78.93907853784083
258.7748335774422 78.30041017544644 80.13596386492543
261.5116495734745 96.90097199517878 67.53391549881705
252.77977017890393 84.0458599985275 80.38953536237186
268.04325755747726 95.20261568063256 86.38848469892498
260.93333123333184 84.05551193318456 86.87723387464611
275.2001746012708 85.966476111893 76.46225212883739
255.38926311724708 100.05588336829915 78.47767856311204
260.17811096782634 99.8849242520751 80.29609530184916
247.30302491312233 96.01278818554115 69.37071556931353
255.41999831766316 81.55690154679192 81.41891617664965
265.63876801342934 84.6011434925536 65.61489434000191
272.10051980539606 94.97700331896995 77.24287342348588
252.66857634406222 85.52326181353845 74.20106746464162
253.88681778189195 83.18657173545763 75.7295381539483
247.14465504066388 99.21178612520453 75.96633517267558
257.95319872841196 78.94218824223078 77.0783345710444
266.5033789513285 84.11773990579006 86.2753968394253
272.7285425893414 82.2493080234287 78.68314898293355
258.99209073915466 97.86075884759819 68.35018948710977
270.914300662594 81.05436486744819 81.46394541296164
273.50796322624655 84.2811709748272 81.97809250098172
268.61723292584725 97.68106897251283 71.81639551303093
254.15447527510182 99.67354619400902 80.90398406623746
248.6392515046298 98.87814295195034 80.73169271661982
248.8477752422586 90.85322487209162 77.81321941979688
260.50671774567684 77.5749287659516 79.16321463353952
267.3228040223647 87.63369369520173 87.89531159049976
249.08454754336924 91.49003676059324 70.63687614987833
267.99520026441417 96.8845810207117 69.74270966629068
267.0916952981895 91.75558844308114 64.9468108268188
254.94943116180065 98.58697490927251 67.91243084045452
262.0121303374126 78.50976577591028 84.18529639676247
255.76655132181605 91.77846438183032 66.72723796406507
272.9627071890952 93.24606366697601 79.54242452593319
255.30523642282043 85.20390894943874 86.43623019077427
263.25413506544766 91.00191384168556 65.28578422606004
261.54881106367486 91.88216635474006 65.85244456266864
257.39313782679494 84.7801251851102 86.77448573899979
250.25417753455417 90.09479735432298 77.49795307218102
260.2122986006693 88.60982752501833 66.81160026274249
248.5842527609513 100.04812509846678 75.13005668808479
259.10982916272815 95.85691670901238 66.60020482806584
267.95565208325826 78.45377537869011 78.22672672700013
251.89798060084388 100.9089527954768 72.67471903472388
263.9250130349874 100.10262583099913 75.4237411512108
273.49054045969115 85.6533402435689 71.8464256996549
255.13223587905927 82.23904163294453 74.65711399854077
263.19971084295264 97.05742339557541 67.51236371241076
249.3990649815999 100.18547247227137 76.62645505003331
258.8830462565729 84.38387462334123 68.01789894001121
246.59933205605805 96.94431039745803 70.58006790989022
263.6813209627494 84.05794248156798 66.26264180032226
264.32963954210425 84.68114826453309 86.698531362679
258.74939546966925 94.98533569589303 86.20179903191135
254.24494009428088 100.11372471606192 69.7894487828936
265.14237150982683 88.35501898510604 64.8547232008928
260.62272176361637 91.08937556572232 87.06397192515077
260.3981477187741 82.72511592431144 86.31755585605418
258.8767514837927 79.93392491654619 85.65139113340358
251.27118613909795 87.05724380156109 79.65541768079814
253.02663357965062 85.55915868189558 72.77110920136154
262.16954812744905 87.95573231509219 66.15528603635194
264.4713462454188 97.76157738671155 68.73400010056359
274.0033204116069 84.06070237559746 75.78451466497863
251.5085223457699 87.27994951802572 82.26051582695523
249.3071445575689 91.00498745499596 79.35865960737588
265.3370084774265 78.21172450791462 82.56998319890243
261.7191453747312 100.53657647513411 79.83953910815181
255.40750290829476 100.36030515310685 73.11917899611292
270.384839775561 97.1266289427965 82.46498522080384
266.18408551294425 98.7433712373615 82.0335023357828
254.22100697187534 82.60217440131812 80.74567002974801
266.929362114426 83.96381208577132 65.61080981554
247.57436539883847 91.48943828803499 74.04785692732736
272.6604821596861 88.61116234169324 69.88231105057957
267.5092796620214 96.83766460644647 85.94562744973567
252.0633199850453 96.37075822791985 67.12176621425934
259.56633359628665 87.25829279495481 67.26668205549414
271.5625009145452 87.04939348777901 68.7502312871607
252.739670039279 84.07976846090766 78.21345400345517
257.99915874584775 99.53168712868435 74.83870738012978
262.7597001794792 86.36589239338348 66.29010277225676
268.37569119432936 94.43058224257051 67.39473331431604
253.02324124817656 84.1443633412308 83.78769912656294
265.14892833135127 96.33816187599153 67.6239145449369
251.0893891836753 90.40263568568594 82.64256168542488
263.3451930079771 95.25624984637786 86.77997456881181
266.1762387323699 82.4496257274766 85.27034314089713
249.9175567022642 100.22558451686486 72.09947269880709
270.8751688601069 80.71120418821512 71.49467564021236
254.77321609676764 82.23835510752363 75.87233346458164
256.71585878374714 79.92861788942905 77.7123382951983
248.26630832371433 99.0133011114046 70.8265177445998
265.2829629891009 83.3821017885551 86.14277040700595
258.7017495911835 89.83021368159709 67.13918880321435
255.77728619635226 99.25618332270197 69.34978590843723
275.2214538061044 88.04665826832509 76.00112014791654
269.03301573181 89.52499092867451 65.78264686645859
256.8930661356034 99.40818419819631 78.6032835630393
263.16171147740187 97.89391339818431 68.6281090070867
270.30077311473786 80.2311057438105 73.53826815558979
271.04436682514 92.41059124817899 68.56146804377073
270.87142938493895 93.57927980343885 69.46079675593043
274.52167209796795 85.3758638727143 75.03095184792392
255.9678576721059 85.5283412882053 69.07963731269321
254.64088903868523 93.7306904915889 66.18633166217381
267.35250230321293 91.8464025893214 87.12056204138777
259.3698531836511 87.3454019770565 86.75666313575319
268.88501182359204 91.56770649567574 65.74591293073965
262.3096229121013 99.55214549032574 70.62788286467102
269.08130310741325 96.12676804125044 85.47134708195046
245.67322573628329 96.46662987792162 72.81569430191973
258.2584945045869 88.06690147300777 67.60130155454675
250.1315130488675 100.37634049435509 74.42957549183244
268.72352655650803 79.07461939020487 79.48326835122418
269.54666557998524 92.87929282857183 67.11320731614616
272.1304706912996 83.50496002376086 82.61435177468243
245.32649512438547 94.98574304350008 74.10739272639915
259.5311346553571 99.79063837750088 73.19713284480831
262.0269502738146 95.67544915460422 66.52623096872179
249.05006264392938 96.6727789182336 81.44781173924638
253.73939548287115 95.50482528421965 66.45834908096347
261.2640624851094 82.3459328314469 67.95612006171659
265.16233725584203 86.72660315978224 64.86263801258715
269.1267368320053 94.64036009922673 85.7200928693187
268.20933683859994 79.84154965996933 82.6771290133227
271.9593632813619 81.48284372234504 74.14471593307594
256.78241204515933 93.69536388863513 66.4841160238711
257.70590670977174 79.53714023540587 82.71932896038618
255.93611811264074 81.55732034740025 84.8800549577731
259.0581579061686 78.13557103875456 78.13963836158541
251.8806804233755 95.69114303696156 82.65902255091406
263.8094536350754 96.97498279975015 86.35438926199942
245.38791716438155 95.71296666572375 77.5456480391724
269.0472391859713 79.76344170018247 81.26878172054535
259.8574164617 92.79171586071134 66.22102253958651
263.0722197309701 82.8109390236591 66.79710776540192
262.5353693660876 79.74957274654828 70.3829650953414
255.50067211388736 82.36813463825655 73.46853136835006
251.49198512221594 86.98258581625478 77.89779315832527
253.2050583822613 85.18134134340845 85.49159886287981
267.2349353693024 83.34443774212085 85.26480323526708
257.5145102577925 79.38279213052611 80.17038006146515
267.4855697902597 98.66369783756828 74.84253932395434
254.8571071361522 86.6410985187555 69.51763134931937
265.10738771499933 80.84584775551299 85.1460935155732
268.50188096029666 93.33190141159086 86.75908000048342
254.57192748587877 83.2366273661897 73.15395865053353
252.39489857019728 84.62993256110586 82.27999192572372
271.5404896783504 86.92423726726032 84.38629266862839
270.9144101408919 96.33437235349582 73.41747911904699
272.60821919058475 82.64651382517401 73.23082114867724
262.2463854870434 77.4366719198213 77.8435621579674
246.8507578058573 91.88577452207456 75.98130423494506
254.6500445692425 90.19445357943574 67.65803635222191
253.88767429441944 89.13428456257888 86.31894976992875
264.8363924497832 78.46806572432777 72.82372387912011
269.8784557252046 85.09026510044684 66.1036901697428
266.2652223641529 77.86937743226707 77.90446638502216
253.77195724481126 86.13475010819239 86.64211534312778
259.6569535588037 99.2501737985599 71.173007952133
252.84251651048936 90.27090597555357 67.49586280827624
264.576667479168 99.67354007203411 80.52624741751382
259.9804244654401 81.30705063462085 86.2242415249895
249.9421271241398 90.18138986561632 75.9402219466917
254.02158768264363 100.90906854853189 75.0459755900387
251.3628266073801 88.48665608402192 77.12487096949717
270.5200818817605 94.6452782111761 70.29848906253125
253.97215914877017 100.65297493070199 76.66476794150833
269.24805030661065 83.34533419292399 66.5560112152064
269.7934426816319 88.95787022690284 85.8472342010365
263.9441910421242 77.61237986572874 81.40259242553707
251.76718777696996 100.15821089633954 80.64742212311631
256.4322626380811 99.74753493298999 70.97763255834889
267.55277409489617 80.15101433710987 70.11132192154885
267.0228921702234 94.28576479009992 66.69886636714122
268.1264356817149 78.8389863221355 80.66026647259015
255.84876269910123 80.95768014605291 78.23586732666094
254.42798984104124 84.5102105591308 71.59835793979336
271.96514227903293 81.80585842305463 79.71109898584993
258.4149986278883 89.07182502433957 86.98446445690347
249.04270424430834 90.66870744528418 72.38188759994901
253.64708126235345 83.17600009112476 76.99957510674817
252.58378124119156 97.97462521186333 67.50914578513894
POLYGONS 1366 5464
3 15 16 13
3 25 23 24
3 5 11 24
3 27 25 24
3 24 11 27
3 28 26 27
3 12 512 28
3 13 51 32
3 13 32 15
3 52 33 32
3 15 32 33
3 34 464 33
3 34 33 52
3 40 23 25
3 40 25 42
3 43 41 42
3 25 43 42
3 44 46 534
3 26 44 43
3 26 512 44
3 49 46 31
3 50 51 74
3 75 51 50
3 52 53 34
3 53 76 35
3 59 60 58
3 38 59 56
3 59 38 39
3 59 39 60
3 63 62 60
3 39 63 60
3 65 67 62
3 65 62 63
3 41 65 63
3 41 534 65
3 68 67 65
3 534 68 65
3 69 67 68
3 487 70 49
3 50 73 75
3 76 75 93
3 53 75 76
3 323 35 76
3 323 76 95
3 80 58 82
3 81 80 82
3 82 83 81
3 58 60 82
3 82 60 62
3 82 62 83
3 67 87 83
3 62 67 83
3 96 95 94
3 93 94 95
3 76 93 95
3 323 95 96
3 100 80 81
3 81 103 101
3 81 101 100
3 81 83 103
3 83 87 103
3 87 69 104
3 87 104 103
3 87 67 69
3 554 107 108
3 109 108 107
3 90 108 462
3 671 113 98
3 113 115 114
3 113 671 101
3 113 101 115
3 103 127 115
3 101 103 115
3 103 104 127
3 557 116 117
3 104 129 127
3 118 117 399
3 117 118 120
3 119 129 104
3 120 121 107
3 98 113 125
3 125 113 114
3 114 115 647
3 647 115 127
3 625 127 129
3 131 587 130
3 576 122 235
3 611 123 576
3 647 127 625
3 131 130 488
3 131 488 235
3 504 235 496
3 488 496 235
3 576 235 504
3 280 123 611
3 123 280 96
3 625 129 611
3 597 40 38
3 124 125 126
3 496 488 388
3 504 496 647
3 647 496 388
3 625 504 647
3 625 611 504
3 280 611 129
3 611 576 504
3 23 21 22
3 22 24 23
3 5 24 22
3 70 69 68
3 70 68 49
3 121 120 118
3 70 487 91
3 119 91 280
3 487 570 91
3 96 570 323
3 487 323 570
3 512 363 31
3 70 91 69
3 69 91 119
3 49 14 487
3 109 392 462
3 110 392 633
3 111 110 122
3 92 424 110
3 111 92 110
3 391 424 92
3 75 73 93
3 90 462 419
3 633 587 131
3 71 419 424
3 118 587 121
3 587 109 121
3 633 131 122
3 109 462 108
3 89 66 404
3 554 402 106
3 554 88 402
3 554 108 88
3 108 90 88
3 392 419 462
3 90 397 89
3 90 419 397
3 397 419 71
3 89 397 66
3 163 388 128
3 571 94 93
3 571 391 92
3 392 109 633
3 399 128 118
3 508 387 385
3 385 387 45
3 72 663 74
3 663 391 73
3 385 404 66
3 47 445 48
3 607 647 388
3 126 607 163
3 163 607 388
3 48 387 47
3 163 128 399
3 47 387 568
3 568 387 508
3 74 47 72
3 74 445 47
3 128 130 118
3 118 130 587
3 117 120 557
3 121 109 107
3 72 47 568
3 130 128 488
3 403 72 71
3 72 568 71
3 391 403 424
3 424 403 71
3 122 576 111
3 111 576 123
3 235 122 131
3 125 607 126
3 66 508 385
3 647 607 114
3 114 607 125
3 66 397 508
3 508 397 71
3 71 568 508
3 110 633 122
3 128 388 488
3 57 58 80
3 527 124 376
3 376 124 126
3 391 663 403
3 403 663 72
3 74 663 50
3 50 663 73
3 373 99 97
3 98 97 671
3 671 97 99
3 48 445 545
3 545 445 13
3 126 163 112
3 112 163 399
3 16 545 13
3 51 445 74
3 51 13 445
3 40 42 38
3 38 42 39
3 57 493 58
3 56 59 493
3 493 59 58
3 69 119 104
3 280 129 119
3 5 440 11
3 440 481 11
3 481 28 11
3 12 363 512
3 3 440 1
3 480 1 5
3 1 440 5
3 3 651 440
3 651 481 440
3 420 464 4
3 28 481 12
3 2 358 3
3 346 350 6
3 17 363 7
3 98 527 97
3 112 399 432
3 432 399 116
3 353 479 432
3 432 116 353
3 102 479 353
3 10 346 0
3 1 480 668
3 97 434 373
3 97 527 434
3 6 522 2
3 420 358 522
3 522 358 2
3 4 358 420
3 433 414 30
3 351 420 461
3 1 668 3
3 3 668 2
3 3 358 651
3 651 358 4
3 464 368 4
3 368 12 481
3 481 651 368
3 368 651 4
3 28 512 26
3 27 26 25
3 26 43 25
3 15 644 16
3 644 351 16
3 557 349 116
3 116 349 353
3 116 399 117
3 125 124 98
3 124 527 98
3 363 12 7
3 7 12 368
3 368 464 7
3 29 414 350
3 350 414 433
3 112 432 376
3 376 432 479
3 112 376 126
3 644 464 420
3 11 28 27
3 43 534 41
3 43 44 534
3 42 41 39
3 41 63 39
3 404 507 523
3 30 414 442
3 45 64 385
3 16 351 433
3 17 14 363
3 376 479 527
3 661 619 442
3 15 33 644
3 644 33 464
3 6 461 522
3 522 461 420
3 433 369 350
3 433 351 369
3 369 351 461
3 351 644 420
3 350 369 6
3 6 369 461
3 35 487 14
3 17 7 34
3 34 7 464
3 17 35 14
3 35 17 53
3 53 17 34
3 323 487 35
3 363 14 31
3 31 14 49
3 44 31 46
3 44 512 31
3 111 94 92
3 96 94 123
3 123 94 111
3 92 94 571
3 52 32 75
3 75 32 51
3 52 75 53
3 280 570 96
3 280 91 570
3 93 73 571
3 73 391 571
3 587 633 109
3 80 100 650
3 650 100 99
3 80 650 57
3 57 650 77
3 493 57 521
3 77 521 57
3 100 671 99
3 100 101 671
3 77 650 373
3 373 650 99
3 534 46 68
3 46 49 68
3 77 375 365
3 77 373 375
3 79 375 310
3 310 375 373
3 517 308 553
3 517 434 308
3 365 307 342
3 342 307 79
3 365 375 307
3 307 375 79
3 517 310 434
3 434 310 373
3 553 282 78
3 505 366 282
3 282 366 78
3 409 328 37
3 479 308 527
3 527 308 434
3 78 366 276
3 553 261 102
3 102 261 479
3 553 308 261
3 261 308 479
3 400 338 564
3 38 244 597
3 597 244 506
3 38 56 244
3 244 56 506
3 378 243 505
3 243 271 505
3 575 357 579
3 400 477 55
3 477 506 56
3 18 269 36
3 269 597 506
3 23 40 21
3 21 40 597
3 79 250 342
3 236 338 400
3 250 79 588
3 37 328 652
3 652 328 36
3 681 224 105
3 474 220 302
3 302 220 513
3 474 260 220
3 220 260 513
3 659 543 325
3 325 543 615
3 543 333 615
3 212 485 325
3 325 485 659
3 212 287 485
3 485 287 659
3 105 216 535
3 105 224 216
3 473 212 325
3 473 567 212
3 106 252 210
3 575 209 20
3 207 248 503
3 265 205 84
3 342 520 365
3 342 635 520
3 473 339 567
3 567 339 427
3 473 250 339
3 339 250 427
3 287 226 659
3 226 223 304
3 55 494 680
3 55 521 494
3 194 394 260
3 18 190 21
3 575 20 190
3 615 186 635
3 186 236 680
3 85 402 184
3 10 258 585
3 585 258 9
3 285 315 579
3 579 315 575
3 285 209 315
3 315 209 575
3 357 418 579
3 409 211 418
3 418 211 579
3 295 187 670
3 237 573 438
3 573 187 234
3 120 389 557
3 106 210 389
3 389 210 557
3 379 187 295
3 661 181 619
3 619 181 495
3 661 455 181
3 181 455 495
3 249 180 228
3 228 180 443
3 249 638 180
3 180 638 443
3 661 179 455
3 635 677 615
3 615 677 325
3 635 473 677
3 677 473 325
3 557 377 349
3 349 377 681
3 557 210 377
3 377 210 681
3 344 176 200
3 344 636 176
3 176 636 407
3 175 201 613
3 427 173 567
3 106 171 554
3 106 389 171
3 171 389 120
3 554 171 107
3 107 171 120
3 211 658 425
3 425 658 237
3 211 670 658
3 658 670 237
3 349 168 353
3 353 168 102
3 349 378 168
3 168 378 102
3 179 159 455
3 232 174 159
3 354 583 0
3 0 583 10
3 161 209 285
3 203 213 253
3 253 213 530
3 203 448 213
3 213 448 530
3 257 458 256
3 257 192 458
3 530 448 156
3 237 155 425
3 155 296 253
3 258 153 9
3 153 448 267
3 579 152 285
3 285 152 425
3 579 211 152
3 152 211 425
3 295 670 165
3 319 645 273
3 292 201 645
3 36 546 18
3 18 546 357
3 36 328 546
3 546 328 357
3 335 191 223
3 222 167 241
3 304 657 167
3 526 151 501
3 218 450 151
3 265 150 205
3 205 150 539
3 265 566 150
3 150 566 539
3 287 164 653
3 306 449 225
3 449 175 225
3 402 85 106
3 85 252 106
3 270 255 535
3 309 271 255
3 204 314 200
3 200 314 232
3 204 174 314
3 314 174 232
3 539 525 393
3 393 525 396
3 539 566 525
3 525 566 396
3 191 348 223
3 223 348 304
3 191 657 348
3 348 657 304
3 175 185 201
3 513 561 263
3 263 561 319
3 513 195 561
3 561 195 319
3 295 165 219
3 287 653 226
3 252 322 210
3 210 322 681
3 252 224 322
3 322 224 681
3 249 148 638
3 148 657 191
3 598 161 285
3 86 145 88
3 88 145 402
3 86 184 145
3 145 184 402
3 283 592 441
3 592 313 251
3 309 664 271
3 187 144 234
3 187 379 144
3 78 594 553
3 553 594 517
3 78 588 594
3 594 588 517
3 441 678 401
3 251 170 678
3 678 170 401
3 288 562 284
3 219 675 295
3 675 379 295
3 385 599 404
3 404 599 507
3 385 64 599
3 599 64 507
3 248 640 474
3 474 640 260
3 281 641 278
3 641 270 535
3 407 595 182
3 182 595 613
3 495 581 619
3 495 61 581
3 581 61 64
3 45 581 64
3 271 558 505
3 505 558 366
3 271 664 558
3 558 664 366
3 253 556 203
3 253 296 556
3 344 542 8
3 8 542 232
3 344 200 542
3 542 200 232
3 537 206 636
3 267 448 536
3 536 448 203
3 505 490 378
3 378 490 102
3 490 553 102
3 282 553 490
3 490 505 282
3 183 666 416
3 416 666 61
3 183 669 666
3 666 669 61
3 620 548 9
3 495 569 61
3 61 569 416
3 495 162 569
3 569 162 416
3 556 284 203
3 284 536 203
3 556 296 624
3 624 296 438
3 350 563 29
3 350 346 563
3 628 204 200
3 613 595 540
3 540 595 206
3 219 475 37
3 37 475 409
3 219 165 475
3 475 165 409
3 636 206 407
3 206 595 407
3 105 608 681
3 378 349 608
3 608 349 681
3 598 155 253
3 204 395 174
3 442 336 661
3 29 421 336
3 209 161 602
3 563 600 29
3 29 600 421
3 563 548 600
3 600 548 421
3 225 582 306
3 582 562 288
3 306 552 637
3 637 552 234
3 306 381 552
3 552 381 234
3 619 484 382
3 382 484 45
3 619 581 484
3 484 581 45
3 659 428 222
3 659 226 428
3 428 226 304
3 431 331 241
3 431 196 331
3 331 196 333
3 653 188 330
3 296 329 438
3 438 329 237
3 296 155 329
3 329 155 237
3 241 167 326
3 161 598 609
3 480 603 668
3 668 603 354
3 480 602 603
3 603 602 354
3 438 381 624
3 624 381 288
3 567 672 212
3 567 173 672
3 672 173 218
3 161 609 616
3 616 609 19
3 425 324 285
3 285 324 598
3 425 155 324
3 324 155 598
3 10 585 346
3 346 585 563
3 342 626 635
3 635 626 473
3 342 250 626
3 626 250 473
3 169 241 326
3 309 630 422
3 270 489 630
3 161 616 602
3 602 616 354
3 326 272 675
3 10 676 258
3 10 583 676
3 676 583 19
3 9 548 585
3 585 548 563
3 264 233 202
3 443 154 233
3 233 154 202
3 159 174 596
3 596 455 159
3 653 526 188
3 653 164 526
3 176 407 628
3 628 200 176
3 278 216 656
3 656 216 224
3 354 616 583
3 583 616 19
3 535 538 105
3 271 243 538
3 538 243 105
3 346 529 0
3 0 529 2
3 346 6 529
3 529 6 2
3 680 518 55
3 55 518 400
3 680 236 518
3 518 236 400
3 156 258 676
3 676 19 156
3 548 502 421
3 548 620 502
3 502 620 8
3 530 491 253
3 253 491 598
3 530 609 491
3 491 609 598
3 448 153 156
3 156 153 258
3 9 472 620
3 267 217 472
3 472 217 620
3 20 466 480
3 480 466 602
3 20 209 466
3 466 209 602
3 507 457 523
3 523 457 673
3 507 669 457
3 427 646 276
3 276 646 78
3 646 588 78
3 234 144 637
3 637 144 228
3 217 636 344
3 217 537 636
3 661 336 179
3 243 378 608
3 608 105 243
3 620 483 8
3 8 483 344
3 620 217 483
3 483 217 344
3 442 437 30
3 30 437 382
3 442 619 437
3 437 619 382
3 405 632 238
3 632 291 447
3 536 537 267
3 267 537 217
3 502 426 421
3 502 8 426
3 404 417 89
3 89 417 86
3 404 523 417
3 447 415 673
3 673 415 523
3 447 291 415
3 415 291 523
3 267 472 153
3 153 472 9
3 562 229 284
3 206 537 229
3 232 426 8
3 264 449 623
3 162 555 143
3 143 555 208
3 162 596 555
3 555 596 208
3 179 519 159
3 159 519 232
3 179 426 519
3 519 426 232
3 292 453 201
3 201 453 613
3 292 182 453
3 453 182 613
3 256 435 202
3 435 343 273
3 268 559 422
3 422 559 309
3 559 664 309
3 273 679 319
3 319 679 263
3 273 343 679
3 679 343 263
3 443 623 228
3 228 623 637
3 228 411 249
3 249 411 379
3 228 144 411
3 411 144 379
3 265 408 566
3 265 586 408
3 597 269 21
3 21 269 18
3 503 500 572
3 408 238 371
3 566 372 396
3 223 330 335
3 465 370 197
3 197 370 215
3 465 586 370
3 370 586 215
3 359 528 361
3 278 355 281
3 281 355 215
3 278 197 355
3 355 197 215
3 197 278 656
3 577 622 439
3 577 395 622
3 622 395 204
3 146 662 149
3 149 242 146
3 146 242 142
3 182 292 655
3 655 292 305
3 227 645 319
3 439 606 374
3 204 628 606
3 29 610 414
3 414 610 442
3 29 336 610
3 610 336 442
3 147 682 498
3 361 528 682
3 201 605 645
3 645 605 273
3 201 185 605
3 605 185 273
3 401 500 683
3 156 19 530
3 19 609 530
3 187 573 670
3 670 573 237
3 270 641 584
3 584 641 281
3 474 580 248
3 580 683 500
3 613 578 175
3 175 578 225
3 613 540 578
3 578 540 225
3 205 560 84
3 205 640 560
3 560 640 248
3 264 550 449
3 449 550 175
3 264 185 550
3 550 185 175
3 591 547 468
3 468 547 639
3 591 444 547
3 547 444 639
3 164 672 218
3 208 531 395
3 395 531 174
3 208 596 531
3 531 596 174
3 234 511 573
3 573 511 438
3 234 381 511
3 511 381 438
3 170 500 401
3 170 572 500
3 302 514 683
3 683 514 591
3 302 444 514
3 514 444 591
3 236 186 196
3 268 492 450
3 170 510 572
3 36 604 564
3 564 604 506
3 36 269 604
3 604 269 506
3 173 532 218
3 218 532 450
3 653 499 226
3 226 499 223
3 653 330 499
3 499 330 223
3 366 486 276
3 276 486 54
3 366 664 486
3 486 664 54
3 635 186 520
3 520 186 680
3 393 665 539
3 539 665 194
3 393 147 665
3 665 147 194
3 668 478 2
3 2 478 0
3 668 354 478
3 478 354 0
3 572 460 503
3 37 652 459
3 444 648 639
3 639 648 343
3 444 263 648
3 648 263 343
3 398 456 251
3 251 456 170
3 398 510 456
3 456 510 170
3 284 556 288
3 556 624 288
3 192 468 458
3 458 468 639
3 154 451 202
3 202 451 256
3 451 257 256
3 284 229 536
3 536 229 537
3 273 185 435
3 637 446 306
3 306 446 449
3 637 623 446
3 446 623 449
3 306 582 381
3 381 582 288
3 501 643 313
3 313 643 251
3 643 398 251
3 422 629 268
3 289 283 192
3 283 468 192
3 664 559 54
3 559 268 54
3 468 441 591
3 468 283 441
3 188 436 330
3 436 516 289
3 657 148 272
3 272 148 249
3 278 660 216
3 216 660 535
3 278 641 660
3 660 641 535
3 592 516 313
3 54 532 276
3 191 482 148
3 148 482 638
3 191 471 482
3 482 471 638
3 182 533 407
3 533 628 407
3 503 649 207
3 207 649 281
3 649 584 281
3 84 565 215
3 215 565 281
3 84 207 565
3 565 207 281
3 252 262 224
3 262 656 224
3 248 580 503
3 503 580 500
3 263 406 513
3 513 406 302
3 263 444 406
3 406 444 302
3 591 401 683
3 591 441 401
3 498 177 394
3 394 177 195
3 394 386 260
3 260 386 513
3 394 195 386
3 386 195 513
3 683 384 302
3 302 384 474
3 683 580 384
3 384 580 474
3 379 380 249
3 249 380 272
3 379 675 380
3 380 675 272
3 215 367 84
3 84 367 265
3 215 586 367
3 367 586 265
3 335 412 191
3 191 412 471
3 335 429 412
3 412 429 471
3 526 631 188
3 313 516 631
3 218 151 164
3 164 151 526
3 212 672 287
3 287 672 164
3 276 341 427
3 427 341 173
3 276 532 341
3 341 532 173
3 493 340 56
3 55 477 340
3 340 477 56
3 465 337 240
3 465 197 337
3 251 678 592
3 592 678 441
3 450 334 268
3 268 334 54
3 450 532 334
3 334 532 54
3 492 268 629
3 196 186 333
3 333 186 615
3 333 543 222
3 222 543 659
3 241 331 222
3 222 331 333
3 335 321 429
3 321 436 289
3 421 320 336
3 336 320 179
3 421 426 320
3 320 426 179
3 506 477 564
3 564 477 400
3 272 317 657
3 657 317 167
3 272 326 317
3 317 326 167
3 240 316 405
3 85 184 316
3 289 516 283
3 516 592 283
3 326 311 169
3 169 311 219
3 326 675 311
3 311 675 219
3 471 332 154
3 471 429 332
3 332 429 257
3 84 560 207
3 207 560 248
3 192 321 289
3 16 303 545
3 545 303 30
3 16 433 303
3 303 433 30
3 202 301 264
3 264 301 185
3 202 435 301
3 301 435 185
3 652 299 338
3 338 299 564
3 652 36 299
3 299 36 564
3 21 190 22
3 22 190 20
3 22 454 5
3 5 454 480
3 22 20 454
3 454 20 480
3 575 390 357
3 357 390 18
3 575 190 390
3 390 190 18
3 510 298 489
3 298 629 422
3 313 631 501
3 501 631 526
3 450 492 151
3 151 492 501
3 630 489 298
3 298 422 630
3 584 364 270
3 270 364 489
3 584 460 364
3 364 460 489
3 489 294 510
3 510 294 572
3 489 460 294
3 294 460 572
3 222 428 167
3 167 428 304
3 196 286 236
3 236 286 338
3 196 431 286
3 286 431 338
3 398 643 277
3 277 643 501
3 277 501 492
3 398 277 629
3 629 277 492
3 629 298 398
3 398 298 510
3 188 631 436
3 436 631 516
3 436 266 330
3 330 266 335
3 436 321 266
3 266 321 335
3 429 259 257
3 257 259 192
3 429 321 259
3 259 321 192
3 270 630 255
3 255 630 309
3 271 538 255
3 255 538 535
3 262 337 656
3 656 337 197
3 405 254 240
3 240 254 465
3 405 238 254
3 254 238 465
3 584 649 460
3 460 649 503
3 343 246 639
3 256 458 246
3 246 458 639
3 240 337 245
3 245 337 262
3 316 240 245
3 245 85 316
3 238 632 371
3 86 247 184
3 638 239 443
3 443 239 154
3 638 471 239
3 239 471 154
3 264 623 233
3 233 623 443
3 85 245 252
3 252 245 262
3 517 642 310
3 310 642 79
3 517 588 642
3 642 588 79
3 588 646 250
3 250 646 427
3 225 562 582
3 225 540 562
3 451 154 332
3 332 257 451
3 562 540 229
3 229 540 206
3 194 667 539
3 539 667 205
3 667 640 205
3 291 417 523
3 405 247 632
3 632 247 291
3 408 372 566
3 396 372 430
3 430 372 497
3 393 574 147
3 394 318 498
3 498 318 147
3 394 194 318
3 318 194 147
3 498 290 177
3 177 279 227
3 227 279 305
3 195 198 319
3 319 198 227
3 195 177 198
3 198 177 227
3 256 246 435
3 435 246 343
3 61 193 64
3 64 193 507
3 61 669 193
3 193 669 507
3 640 667 260
3 260 667 194
3 147 574 682
3 682 574 361
3 396 654 393
3 362 574 654
3 654 574 393
3 469 410 361
3 410 359 361
3 142 242 359
3 359 242 528
3 149 290 242
3 242 290 528
3 528 290 682
3 682 290 498
3 305 662 655
3 655 662 374
3 290 149 279
3 279 177 290
3 292 160 305
3 305 160 227
3 292 645 160
3 160 645 227
3 305 149 662
3 305 279 149
3 439 374 146
3 146 374 662
3 374 533 655
3 655 533 182
3 142 439 146
3 142 359 470
3 470 359 410
3 238 140 465
3 465 140 586
3 238 408 140
3 140 408 586
3 545 139 48
3 48 139 382
3 545 30 139
3 139 30 382
3 392 476 419
3 419 476 424
3 392 110 476
3 476 110 424
3 45 158 382
3 382 158 48
3 45 387 158
3 158 387 48
3 622 204 606
3 606 439 622
3 628 533 606
3 606 533 374
3 431 627 338
3 338 627 652
3 431 459 627
3 627 459 652
3 169 601 241
3 241 601 431
3 169 459 601
3 601 459 431
3 37 590 219
3 219 590 169
3 37 459 590
3 590 459 169
3 680 494 520
3 520 494 365
3 184 467 316
3 316 467 405
3 184 247 467
3 467 247 405
3 89 463 90
3 90 463 88
3 89 86 463
3 463 86 88
3 86 452 247
3 247 452 291
3 86 417 452
3 452 417 291
3 55 340 521
3 521 340 493
3 365 617 77
3 77 617 521
3 365 494 617
3 617 494 521
3 416 544 183
3 183 383 669
3 614 183 544
3 544 589 614
3 371 621 497
3 447 524 621
3 457 669 383
3 614 589 413
3 143 352 544
3 544 352 589
3 143 157 352
3 352 157 589
3 143 345 162
3 162 345 416
3 143 544 345
3 345 544 416
3 327 383 549
3 551 509 410
3 410 509 470
3 551 312 509
3 509 312 470
3 208 297 143
3 143 297 157
3 208 356 297
3 297 356 157
3 469 293 410
3 410 293 551
3 469 612 293
3 293 612 551
3 549 275 614
3 614 275 183
3 549 383 275
3 275 383 183
3 455 674 495
3 495 674 162
3 455 596 674
3 674 596 162
3 356 684 577
3 577 684 395
3 356 208 684
3 684 208 395
3 362 618 469
3 469 618 612
3 618 347 612
3 157 593 589
3 593 312 551
3 614 541 549
3 549 541 515
3 614 413 541
3 541 413 515
3 347 423 612
3 515 413 423
3 515 300 549
3 327 549 300
3 300 524 327
3 396 430 274
3 274 430 634
3 347 231 634
3 347 618 231
3 231 618 362
3 497 621 230
3 230 621 524
3 214 221 300
3 300 221 524
3 214 230 221
3 221 230 524
3 589 593 413
3 612 199 551
3 612 423 199
3 199 423 413
3 274 634 231
3 231 362 274
3 214 189 634
3 634 189 347
3 574 178 361
3 361 178 469
3 574 362 178
3 178 362 469
3 551 199 593
3 593 199 413
3 497 166 430
3 430 166 634
3 166 214 634
3 347 141 423
3 423 141 515
3 347 189 141
3 141 189 515
3 372 138 497
3 497 138 371
3 372 408 138
3 138 408 371
3 447 137 632
3 632 137 371
3 447 621 137
3 137 621 371
3 515 136 300
3 300 136 214
3 515 189 136
3 136 189 214
3 654 396 274
3 274 362 654
3 230 214 166
3 166 497 230
3 673 172 447
3 447 172 524
3 673 327 172
3 172 327 524
3 470 135 142
3 135 356 577
3 356 135 312
3 312 135 470
3 165 134 409
3 409 134 211
3 165 670 134
3 134 670 211
3 409 418 328
3 328 418 357
3 383 133 457
3 457 133 673
3 383 327 133
3 133 327 673
3 142 132 439
3 439 132 577
3 142 135 132
3 132 135 577
3 312 360 356
3 356 360 157
3 312 593 360
3 360 593 157
