# vtk DataFile Version 3.0
A great-looking cell
ASCII
DATASET POLYDATA
POINTS 639 double
347.4973091276638 272.9071946877634 15.297446620688492
348.4292441617825 274.632262727437 14.40975911604794
345.8273046369339 278.5865700932497 12.69481006426784
345.5166127622432 281.0266548203061 12.076860544189161
350.1991290554177 275.2501816546164 13.267261065189878
347.79125221632523 279.3028623828281 11.135259790564398
350.28817503304083 277.4448099518642 11.497254157625978
353.0452180806159 278.6999080234206 11.973070372342283
348.0916141570543 282.87522175387363 10.944090264157925
351.42320131463305 283.3056745928472 11.267071066737616
350.71396781202094 280.4183687792203 10.477015423216418
353.87021365769624 283.2229303784467 12.668509448770033
353.05212946055946 281.3097830487345 11.367410917548707
354.53135766534035 280.7423301031464 13.031832568328992
350.04282773379674 272.8458661981963 14.619226779417012
347.7154777949414 276.7403666311729 13.164208732987074
346.411702570537 275.0283084090196 14.992222689294906
354.1276490336885 272.3736146390143 13.678633353007637
354.39888328929607 276.7973681912371 12.88691927305731
356.23416390349956 281.19582441024437 16.711095605432764
352.24593283971546 272.024773069271 14.593746365959065
354.29594701174005 274.72183030887356 13.25272832361963
349.73155175582855 287.86909551278063 13.789440044912237
345.1120456281156 267.11357234218235 15.21994749402456
346.88327110336485 268.752141065112 15.2820653862281
344.30201031716257 271.24647190009364 15.28614246066508
344.6411078565535 269.37581195249896 15.165781055015497
353.61788416593504 270.33358609763053 15.059249545398057
343.20964012701444 278.09524195027853 16.06887018004042
343.8698760017739 275.206659422133 16.116223151845386
345.1444903927621 273.0094673318705 15.136160990386196
342.197188978395 281.0584923262694 15.988128057793991
355.67930992727224 273.730081340662 14.519499299023357
355.7610854678237 276.1731957387762 14.822522902614844
357.0715476015292 281.0974214315238 18.8475796817958
355.84685643254426 284.76561266767715 20.572082879286516
354.8989675093345 285.81650627828634 17.78945635609393
343.3221782652552 265.3959749187523 15.030676072220276
345.686539177249 264.8611625735858 15.230282914795708
342.5968559252365 270.2876501439677 15.36328975291211
343.0135697122914 272.53722660508424 15.934363576295896
355.2777198530578 270.1460061098195 16.470295793085413
356.6987879662788 273.9201243547535 16.76796530391595
355.12883303112085 285.86665133093544 22.512273046839315
340.77464111048863 266.1594485006359 15.348906567370996
344.16704188734894 262.9438352815975 15.192869784830467
348.77041198061414 263.20380688252135 15.57316105107768
352.0504610336555 262.1558352707621 15.959325279534188
355.1953766575218 266.6754120861438 17.85266113322136
338.2672975561445 267.1042889638075 16.174545431398546
340.58615459782334 271.62307478580755 16.105798561949687
356.0766802127316 269.01215198134867 18.129311574854697
339.7905875805988 275.43148446317804 18.970127048028914
357.36467553012795 270.55958397672987 19.2597960609371
357.045112707434 272.77891363073394 19.268033003528643
342.2314412461523 285.8004058806518 17.949488595921267
347.4030095424946 290.4604433099652 17.10122854317534
350.85974141461435 260.3606680192547 16.56969573374546
338.61413686563435 264.24892171913507 15.787787211070922
346.7444070934187 259.00071756802447 17.74678163802993
358.0716316666131 262.756548886664 18.61793823883378
336.69404907919176 265.26734168474377 17.737928025563516
336.06359787963436 267.79091655214233 17.424620756057898
357.5049891085747 268.7218496599273 19.686232813936332
342.1332100862396 278.9173086125866 18.178498325674962
337.2383044798534 274.2870945957823 19.50487392145963
341.9344727852111 285.78439641332113 21.656005648912057
357.4884457269162 275.1495849866948 19.13059830164961
343.0648648232909 287.59524821697653 19.857015607578234
345.9283813241776 290.5914243107286 19.833878505953074
344.5889440407104 288.9921510125154 17.76172580288156
349.41647678516193 291.15603537913194 19.905377581476813
353.98860460621705 287.1792615663292 26.175380405267145
351.0764357628406 255.592616681401 21.03516366553743
337.4459434505661 259.2032007882736 21.66010201946002
360.0829026420427 269.2345640519732 21.405986538314053
334.47846535579043 267.6019947004917 19.15511701336009
339.4064430499712 277.294561810567 20.896744877417262
336.7091261587871 276.1085974291417 21.273517380205035
332.94015347985595 272.2890330191483 21.70560090793349
344.17743757417475 289.3925116002452 22.157896397620263
347.03976228599424 291.05993027015944 22.6627084210883
343.69883739555934 255.52359457970758 24.22630199091315
336.1587172327998 259.1974116374819 26.770036944605785
332.78658380497416 263.71187012335236 24.914131660321967
361.5924987838034 259.68475457997636 25.172838584732926
362.3424099673607 265.52119877760236 23.811899894097532
330.8833607078307 271.26861259376744 26.01725413632997
360.04951240704816 272.66372437003133 27.801361292489933
341.66340739977437 281.4130636027506 26.444812736673487
358.69604531468167 274.00153066973013 26.44842129728765
342.3052491110701 285.64653102220706 26.735522381863746
344.389980649718 289.2247166702583 25.281531472135807
346.5709080709431 290.75061730721035 25.086931205861724
348.98234165215064 290.71545749274986 26.467841815203496
340.9620022706085 256.17409453537334 28.176773242101923
335.85356683777775 259.40743309491376 29.41516722003885
330.8593678554905 268.4262143056942 27.522165036932858
359.29734572825765 256.284630106828 29.85629527592175
363.8721978756388 263.7667235682979 29.134841148013624
363.0215361951975 268.50358125785397 27.353948497082175
339.471371472694 279.4438358628422 25.426086288572098
335.4453862649956 277.80521762116825 28.124735896662095
333.0064202598681 276.08182052934717 28.369089585851842
357.17077504499736 275.5136640088221 29.606915992510274
358.39958037932456 278.08864699847214 26.482433561212414
343.77237805176105 288.0178396318017 28.122848976207894
345.9903365406231 290.22121487561884 27.625216727676058
348.3126200624094 290.28039892256595 29.78483735368694
340.26831985456755 256.9001496659364 32.77279904178708
335.23610209212785 260.2913929969955 32.074225822325246
363.8551999489518 265.60899821326853 31.73058332148429
340.0712575036527 279.891527919675 27.753663314397315
334.3679562925516 276.43441543698214 33.060402129987395
339.2368372024671 279.50162803116064 29.79062578730939
358.64517833697596 274.0922871187194 30.78955559599292
341.7987965335124 280.612206336336 29.326397615059967
355.7586256597022 279.7436568419068 29.848197548488034
345.3374086559384 289.2008905572828 30.517360948474366
338.6329722128621 257.85603815578537 35.214170551122905
356.68302526171993 255.36546665979213 37.39455376950056
331.1279438271386 267.85788528431715 32.73289799921532
361.315795204308 271.12500090841365 33.26021061822636
332.8901585109382 275.1420605110727 34.16429375253863
340.6405126599845 279.57944705504224 31.647922274639868
355.842602003432 277.19155362557797 30.785127611678863
353.16422627174575 280.9117022341821 33.63821486033985
354.4927739103607 265.614191598803 44.825011453857904
334.7974718116832 266.61532350529217 42.0250223833842
360.032527556164 272.0200867540864 36.587184675948805
339.01234999953846 278.8334426093953 35.96680381227795
358.3939546494151 273.2324740937579 37.82301406281945
355.30904155151 276.0948445283339 35.673943325209116
344.9550301006471 286.53021451515247 32.390772075833645
354.5304759502776 279.01067872789486 32.211542007788
348.5094379477541 280.8399195477206 35.747481263528755
354.94191027835075 273.1817170109362 43.38597855867233
338.6020743417345 277.4239790584951 41.206587526317584
341.57172239086276 279.4061342771893 33.27440966464373
350.0215082253868 286.81483194762257 33.63750454872879
347.7017315265196 288.6098060600773 32.635533253466726
347.35027294159994 270.64006303856604 47.061132129430526
348.9360633950961 274.63386423537105 44.42499585585489
342.89907493044984 279.23080293043927 36.33651005356124
354.42284331955005 275.6989378323674 39.1800493188504
343.0725088669143 279.60905156132293 34.17336883622777
353.43209017888796 278.10090497339866 34.89723187266933
351.3900715589965 280.3857654719359 35.7771667046504
345.7625887701007 283.8604640653552 34.13045141254571
347.3846026881954 286.15293744093145 34.64497653917386
334.16152797200556 262.59138200042383 23.155324541957913
337.8272512218368 279.17284384727196 27.812621655033826
334.0668687089222 261.3801621390761 29.718243861210517
336.2269998953332 277.81788187419556 32.45529312243807
357.05457254387375 282.11235543027266 21.004804374588705
332.6232919040403 263.9308339218098 34.73537213972435
358.5634452649482 273.59134276446525 35.47768938843825
358.6569732584918 273.858393343688 33.10039064399334
332.19242811733005 265.4791349384186 37.250274575488454
356.8937461560242 274.9400235799846 34.34633469068702
357.77338462164573 275.8560707014667 27.440853436433557
356.8432289204109 274.6053733949573 36.67035304192196
331.7226361515831 270.601126721646 23.08500060889131
360.4775540797193 272.5829741811254 31.746177072785873
331.5641316629897 270.9104242140106 36.755324609338885
330.77067723237053 268.0567540478519 30.39118094360744
358.32760872457476 273.5464988099894 24.00572428897694
330.9598168055537 272.61591810303014 27.736313165408923
336.3520538925301 276.71487578877225 38.11901668183401
359.59011620666604 271.5092927192434 23.672548296541272
338.9033738087488 275.9874246624085 46.22983139304284
356.25865941493254 283.8672823158536 23.015368401572648
358.09675089926077 277.45442326822695 19.38346456755033
351.15972708839746 274.27726417468097 43.972939114486394
352.200180074017 259.5963513158901 46.59966397949382
338.47781733012437 258.3052264504047 37.441149618201216
358.51012627251805 269.70343244611416 20.665186528498122
333.7467752008478 269.25245911661415 41.42380648643551
337.5199416338614 275.676240070982 43.17751988402389
352.8282548217246 276.8717398201391 38.90490732629847
363.66484336608414 261.522500414603 30.182114730452266
342.9941006977281 278.9702493214139 38.81088842510071
343.53103617707626 277.2802320046113 44.94114019669766
352.77249740817336 275.8759306794509 40.721783178761896
335.1894194617505 276.9432809346795 23.63387542086787
331.8321648829321 269.39973340020424 38.277436433960965
335.8312009932077 269.54144545429676 42.890328080313566
342.88532981732436 287.01887247189677 23.989203581612177
353.49654391420887 283.64187507850784 33.14452834977746
339.497010071658 267.155605446552 45.548657113565966
355.56049522705973 283.5289377322444 16.460036875315435
352.1676583145184 285.5283439927698 13.104043224883815
332.0074244732621 273.4143697383785 35.492272454243604
333.36234027590467 275.123171948332 36.400742204712394
334.1605070043666 277.0165194741182 26.09628388420766
358.1961852301561 280.08859871131943 22.492892055917213
336.8175032078242 276.18268071718404 40.209341756196736
331.1162179245365 268.4415000725005 24.687269615935683
351.7091353513054 284.9456314920008 34.645589132401874
331.6932930463346 274.21649015648137 26.539163215589394
344.4984735043886 279.39098761762244 35.1826799429131
333.1460631031291 275.4776332591639 24.66027957472343
341.13731888848304 279.5018266552238 35.1936014876507
333.27261151994435 262.5242785560727 32.17620585498704
354.1662306472356 254.02676508080185 29.817292828469178
347.2078389113384 253.93258605887212 28.349191689038054
346.6161208126658 254.0133172894507 31.885518612098103
331.3695597413579 265.88434485622895 28.79243801377505
344.8920831071879 281.17450153781743 33.805848987823666
331.847267786183 273.67777248144654 33.3646900670346
334.2625686918998 276.1083705415128 34.97002322499606
342.69183135755054 267.19779187853356 46.86949192864293
345.4415069341445 268.85448103460874 47.356463768892496
355.91692317569374 269.39444804389916 44.14700087579018
348.3402823937654 253.42493099358185 33.15668259449457
342.81588666862325 267.86829466755955 15.403580864254037
343.27825683334447 283.62657530952725 32.704109091514134
352.2959712414319 286.07757368858773 32.04851797573567
337.03434885230763 277.5778558294928 36.34132372494242
336.846799823402 278.5919666352321 30.159163392265715
355.24337653211137 285.2289013226566 27.60684646371755
362.1098358257747 270.5836749447516 31.512588293001635
354.3844598020882 263.5755508595196 45.331652966851024
353.78503631600523 276.61448246204003 37.224220388946215
347.5418029095417 264.5161225903317 15.26866989365854
341.87235656841403 276.4928327781728 17.610051255727424
358.03885967657817 275.90811421565496 25.178020699013477
337.30524500634743 267.26126574009373 43.63733654455485
343.93412045241547 258.86496080922535 17.654309703829053
362.67138112310454 269.5894296359785 33.59751174111251
339.04521629166436 257.56470305896613 23.73304411711913
332.47322662760354 267.66567821454976 39.56282096134885
362.77536987844707 269.61248067834015 29.35001602728939
353.5070790118944 266.35206010814017 16.269416939037026
357.0870065007346 277.7927181940693 28.659354778481834
355.1653671734521 255.01479322269472 39.04414636426856
353.5205705738979 256.82238588790386 44.4761224617306
360.7559579882553 269.86142911804126 23.058081210198534
356.38669168288544 272.1951562093894 41.33858198521708
361.6454674727245 262.51664942005493 22.844207790350133
354.81369181442864 284.8208524916393 30.70927697219903
348.5458819300833 253.4055173199211 30.35399244828572
362.7882278104302 268.6691912808716 35.97051242709417
357.86284751092774 272.3597329195016 39.625533965869685
357.81543745028785 257.2862283192783 23.005357893331333
349.1195862365113 256.1456113223714 20.520277348426053
358.5764521848705 270.8215187683864 40.92603016933815
360.6140962176597 269.34886111895014 40.19606944495847
335.29818473539143 261.6599024143911 39.29094640405544
336.760371968532 272.1124182368495 18.363270170208974
336.4829799001968 259.5813304373297 37.2260607527288
357.01951535034226 269.9897088871638 42.33460911550618
331.534467961541 266.6257655371964 34.69565374006952
357.90306736253234 266.3498805098881 41.84112606699539
352.71119450702577 287.3230873989164 15.599097123456158
335.59590015261546 274.0443751772788 41.319066158053886
356.8836135957003 267.8966021650846 42.891636343712136
357.271690057233 266.95989368345533 18.923723308998554
330.81852908588303 270.98787177571705 29.225189348507534
354.477387280918 284.89044688993204 14.817296915317327
346.48984269944015 254.94321981144626 23.673879129884334
332.21037205892196 273.173754289871 23.918038219666293
341.45714087017325 279.1851810808103 20.51565293438409
341.48669642444344 273.9254299607683 17.356223541218252
340.40373899675546 259.89606209604676 41.577830988813815
332.3675372430733 273.39729131466385 38.07581650575004
363.5442626912098 266.1122746485052 26.56980147696274
346.08458981740586 254.23406496253529 34.02118055431865
334.1552291791915 274.6386286458548 22.05591407782147
331.60545158522973 268.19288704855995 36.886210512149816
360.01489513992357 272.2895583613951 25.57224389836907
356.556230451951 255.47066049325431 25.28293342232849
331.99580287197466 268.3359652904256 22.459486868495436
349.9628701965545 263.008401237482 45.79548991613002
357.019269906795 260.3456525084418 44.67731162007821
355.91703585886404 262.67402287799337 17.707522942682225
354.71268050041914 258.2046907320062 45.79067887111276
331.43992511874 273.74474914537075 29.181468557920862
349.852501973806 267.61776168549693 45.092556985819996
351.79983619467805 257.23327157101835 45.535520843078864
349.4521539040226 284.8632177296244 34.80475369159773
358.7047208097309 264.99200281150956 19.577209817485546
356.27308583229546 283.14790293655943 18.529170415181003
351.7511931490407 253.82395372176353 26.143710769141638
341.92522871652915 275.6951053281748 47.761946275669835
360.59156959916055 257.5269379212972 32.81742322114264
337.08335262358554 265.34726470017256 42.46045945440017
359.17248924891436 256.6858889770204 35.69206639535744
354.0656061286271 268.43677057071295 45.840678656764574
344.5637023264473 285.82868553743833 13.759680463221631
345.87558104468087 254.16717992820892 29.914487325787274
360.93269283560073 262.7345557525142 41.09262777172194
348.0403478001608 253.95695822927127 38.93154880980739
350.77162760470804 263.7792412361191 15.278489569599406
358.9571219815795 261.1341553513496 42.67352596523611
349.67802824074727 254.63409405723786 42.02382508606416
356.7564583080556 265.8246090536308 43.70016818377037
347.9807919906871 256.42875882998663 43.45829626223909
363.72779833662435 264.76714372337534 34.07655733011098
352.21207974015636 273.8098641947415 13.513399649607429
332.520070629443 275.1849636169412 31.51350345182025
345.5737740151759 254.47456237487373 36.67634320612595
347.0932507701327 258.62415231056343 43.579064707216425
340.6019351941511 257.6323451263471 37.64539049059716
331.41192223921206 266.04506977451695 26.077840283631193
361.867159344289 267.4448147077444 38.36392572642954
341.2621443151959 256.24558759895575 35.157862479901134
346.046431462619 256.98372528057763 42.868177509255666
346.21263386077703 288.52172303773796 14.66422491328762
354.2474343026142 262.3821054340756 16.298075647784607
333.5519098038962 264.4091179159286 39.80426952916538
352.26721764711124 268.22007970805635 15.451924679000594
344.51315942951226 256.21649020048767 21.751520200144068
350.38842638551404 275.6113416718093 42.0149722631622
350.41287821587605 257.10901683323607 19.267744599573035
356.9838721775079 280.2147079851521 27.454416835891156
357.86666725206135 271.5879918166326 20.958892907775766
354.39858770455277 271.06664940920825 44.68589791332221
362.5034266977649 260.5655334090996 36.59107645929403
348.2343314897484 272.54866375261184 45.75084910946679
354.57649604337723 261.7015671142923 46.821044201335845
352.75015196047906 272.8992173080273 44.52331381250923
345.2007948075779 275.4458136812812 47.162626758194875
352.19958274764497 270.8381217749257 46.0005775576728
350.88978489653834 288.9367560555092 31.481213521175377
352.9156002782653 256.8960711232107 19.775499412021805
345.4898385798455 278.38403485707687 39.67022663439297
341.0071809005617 272.6425468111106 48.373035470699165
344.9264412769543 278.88308350906686 37.10544294739996
345.9709868286619 266.25811979659653 45.94482786362687
336.543610379487 278.3119556191345 25.66536045546148
345.5914676799824 260.86422912564456 44.22756487932883
348.15835608823494 276.5007235465945 42.94092031951095
347.8934641300112 268.2075358917659 46.36022145179111
357.8820140515057 280.27209502820625 24.971167315933098
356.47725391678307 282.8044699002475 25.755973246320874
332.27882103360724 264.3024540487186 27.34545248748952
335.8367420974316 274.34018906457806 20.825109120590465
359.81552545849667 273.0209876848556 29.69301631384952
345.1701204665082 283.8119113887303 12.222646723437581
345.3865001974082 260.7554680189489 16.14250945323754
352.95166190518415 264.19457693235023 15.603804438837454
351.59247469778325 277.8580893030445 37.257340292439366
346.6600732551843 262.7729960787863 15.243918903584428
350.1628552342806 261.93750242992843 15.512413452251677
334.52461865293964 261.0345031062145 25.13869689810545
362.2573868700734 268.56923594594076 24.83508843968241
356.8721200706921 260.6346896129861 18.328498159624385
341.39029146429897 264.943095509818 44.89553837497035
345.9302706590771 277.5313412165837 42.4699618723679
349.60484848249746 277.9080465499846 38.2624252319347
346.6991026914054 276.3258025822196 44.90032259642667
360.95881755300775 258.0925842702308 35.05939801814596
349.6929230588989 278.96191592732214 36.71007231930081
336.3701620559165 259.28292343495144 34.28381732365483
333.2727317895656 266.8535463220838 21.22660802741593
335.9479711315161 263.74012902242566 41.39177007128501
358.3402234584461 263.93855023976135 42.53953511001368
349.2401512570596 253.44778075682603 27.500087394264256
333.57369425210777 262.82662028478506 37.28596174640718
358.783400878597 260.7539192758399 19.620863050941914
351.0573119647259 270.41630679542646 15.448135485240888
342.21269058449224 255.71283104321213 33.11705138333227
336.46496006591093 259.0024487705526 24.15025392850544
362.382755895174 259.80835984147393 34.457888177772226
363.196980276671 268.30628202889307 31.56201140533927
359.7570948878472 259.84831521461433 22.057436504395596
343.174401779283 278.5066033362633 41.725348016905805
341.8099984631207 256.7548312720432 22.56295789619042
357.77525155325014 273.8954091908233 21.38875256512507
347.0901432300447 286.1265953314903 12.201025025818959
334.5494964528017 275.2357668862497 38.82322088120784
339.69558568135506 279.1824422949739 33.721526732903335
338.3910388111616 277.90126562853703 38.560434532677526
337.34928016296135 262.76052885917585 17.77877740257289
336.5312895788333 272.5637406768997 43.87968498956101
351.8098972150959 254.62898228840308 41.4707601832272
344.74408890388116 258.6502915755688 42.84313503102214
338.22669570131075 275.87235243673484 20.05464930928053
361.1181628645988 258.89563818154147 37.16887285121831
331.2412947975044 269.21983361215104 34.53870958317566
331.6646301551549 265.39760084753385 31.885191101729784
332.4498061643942 263.51121400025795 29.551413690625893
333.39158445618165 262.3692968088658 27.387604932773264
355.5579216709199 267.43594861572257 44.20421155188344
353.8359546327014 287.92043778189833 23.540449308304826
338.90469114887645 273.0043574759269 17.736774105618146
350.0862841413844 265.2093966654729 44.68331436097655
354.19565767654245 268.5153142505241 16.69726715198106
334.5343568158537 261.3003161870311 35.01260801306744
337.5980774103063 258.1206760367403 31.814036073011945
349.3719419394171 258.83117266036896 17.779898460224175
342.5268881395485 260.89079114548304 16.111596958627818
334.8568230571777 264.86857410361097 19.70834874544548
363.01430635326346 260.82944054649636 28.227381304111304
337.84391188447324 269.8229423216773 45.07208589599668
356.324045922955 256.07215093089815 40.31029107694585
342.75382224223085 257.70760589677883 20.01191482235079
335.45052700494364 260.8832562167126 22.164640566751668
341.72445682032645 283.56667009745655 26.409418989290437
340.1836552881093 262.43851971658313 43.410661791723584
347.31945176059634 266.4212161450073 15.427216894429742
332.4236127993406 270.84581778470607 39.67859720716107
344.2183261993923 254.7730761382282 31.97993141981478
353.4726691277851 255.46299870418838 21.970846492112262
359.3236697050003 271.16629712118134 38.70736989968507
352.33400084851905 255.5124589659809 43.273540379928136
342.51740218261824 256.6977815390874 39.690881980767784
355.9987209179436 271.2884566388494 43.37844441750473
357.03445417202505 279.1264694392187 18.061445274682697
360.4240271188548 259.63885110589183 40.40216388704423
349.53784976961737 270.12125148113694 45.39886217165269
343.54424070912603 255.0407634591539 29.2365066556078
347.92829991061893 260.0175732518596 44.83569157057435
342.6429686409895 258.46140025500944 41.46969502667375
342.3681948872574 282.785229575848 30.50773770905081
350.892623135731 253.3256050740869 32.34949637859775
358.69632618490897 257.362360749201 38.915019910432065
355.21245093874046 285.50895550104866 24.769496072616978
343.0619388949829 255.83821428467454 37.21392114347294
345.3310181064092 254.48430358980838 27.69183598342729
363.78140427718307 267.06622592789074 29.268026766134334
357.13224704707545 281.8072301473663 23.444945611235052
363.4689415862489 267.18944369763875 33.88969132846924
341.1210413750101 259.5786566879118 18.359117081023108
351.91017213096256 253.4503259498471 29.370299916447372
354.62222770832096 254.25856859842727 27.583504890574645
359.54028508361745 262.6813136537543 20.74012207652874
349.03344925821636 255.0721258882764 22.34340162899988
354.225997614941 287.1190009702237 20.66737847422046
355.1781551672494 256.5155359788944 43.17875573166144
359.2104602448603 267.5218992448819 20.45335629056957
340.19308361840655 269.8384414554173 47.17276698953026
343.694982404733 255.1187441212174 34.7028967189231
338.0258817729687 270.1088779677578 17.061599824641007
348.28152281611113 260.8347907310541 16.12359850693056
354.9350364903268 278.56483840820226 13.876963796021572
338.0403921150659 260.2297822188123 19.08790751753575
348.979420378614 257.9290818551546 45.44273884312475
340.4938862179407 279.1348040046582 22.802498166924963
353.19906321154485 260.4686301985468 17.010303144080527
335.9634143036852 263.67319205782775 18.525113800644334
357.7905459587649 255.5041315606834 33.014572085569554
345.33565145437973 271.151208380749 48.05067890256284
356.21415590993655 254.641155442835 30.35507288942766
358.59496086276494 268.43650631967114 41.55548725815939
334.2820389220129 271.6725391986428 41.89721666171546
337.81147644417365 263.5126591165406 42.752163755387244
343.2523673378143 262.90065014358476 44.269048918245254
347.12943782989606 254.44550913484935 26.322187242676392
345.7412489950004 263.59726184207426 45.096861385816496
346.29933908633683 272.93341373706517 47.18635226376312
338.8140091980801 259.356326309749 39.19621548144321
355.4919946234029 255.88893425782277 23.102695011306746
356.24169635252645 282.56654607677115 28.99454073439345
353.7521010636371 254.0513527160072 37.63466147778981
356.2263410949321 273.92260263998793 39.00740429419872
345.48309000886366 257.3355017821084 19.433344151710866
330.99487518431096 270.07305715169485 32.08648387714423
334.6474712060079 277.10337503456714 30.630623819877986
337.73729566855354 257.946806690244 25.854937356675137
348.3325875600675 277.5073226598377 40.40789044999069
338.3247500411687 278.9725012756913 32.01435956103797
336.89735495065037 260.19095859321936 39.42396154845588
362.72082601469003 264.4263634397132 38.91918287789308
346.1668662861741 270.9900610049031 15.161888150359243
339.4840345982692 261.3419165868012 16.386231828801893
363.3228536694193 265.909946122862 36.291267176892056
334.811560253827 261.1971592447073 37.2448458030194
348.094659342105 253.67925841819817 35.72090030144204
361.4667743617117 270.7180819232171 35.23904449717494
356.94649697241687 275.2248105792666 31.952050649226177
352.4707836560917 264.0530409468803 45.82648178780393
349.51178225541764 267.9762996050671 15.744837582399608
358.62932287495295 272.2742773667673 22.384812156089012
351.00115831386347 277.22453847081863 39.744376288403984
356.5479856558903 258.01874348387224 44.29516891228299
350.30763583186655 283.0455028136386 35.99068037911364
333.42341756308673 273.3163710895488 40.28834297749115
334.68254207820445 262.9448187391215 21.35612989388434
347.97927050513846 264.4247591292627 45.6275551568306
350.47738666565925 272.5778964875432 45.074147565208975
340.6278860558983 278.5922070240386 40.291910081341584
343.8493088169459 279.52509569201726 13.817590326081374
359.18090595643235 257.1383729054066 26.194843728576892
360.20828060428113 272.4387251631648 34.257683998474896
351.4713062932311 268.59764496400726 46.011107507319345
347.5118292154613 278.54440714498213 37.42510840265681
341.31598150086285 256.2776726500768 25.261846173441505
353.2848127749053 287.67870759697814 29.069857044845044
361.3573432147688 258.3276145825761 28.443949738290485
339.6913845963119 256.847114375833 30.429219811568387
355.9054212913087 254.4551197383204 32.49420890839785
334.6216447908256 260.52309680944734 27.68034681153316
346.7953964838946 255.51550349082652 41.427424799365426
361.4136603858793 270.1654852017582 37.693349817380415
341.7613603888718 255.79722493166327 30.95762094298432
340.24383302934706 277.9569691646208 43.57305781840595
361.3331502070038 271.686813115696 29.498780282621393
356.6527828679138 264.76314908822434 18.27309949260988
363.3162827055889 262.93824535781494 25.742297714573034
357.917896189979 258.160068030836 42.28083834754631
346.23609509272984 279.93160460203995 35.52346868396991
353.926939102126 253.7353417641307 31.95789035162199
362.3930122735295 259.6622978942857 31.01225591888841
348.2589327282421 266.3918403145351 45.25330536081551
357.22227060864805 255.4721376176407 27.840302519523988
337.6275721130357 278.3420769820585 34.19765134965366
352.1086292259506 266.6620351005582 44.84165275150447
344.482423528563 256.7374846476759 41.44158401072789
352.25374063289314 289.53350950969104 21.20479214577913
350.6350565829387 253.61568241630832 36.8874590513791
336.0211953572096 262.1973266304474 19.81101712282634
355.4457614830873 275.548263196597 37.610266792626355
358.0573549118712 276.03646087648957 20.853596013408044
355.13987652091834 282.33631560328587 14.698949610608977
355.40082831898286 276.6886560382482 33.279120869025405
343.82003697008236 265.0362368182053 45.306584810975814
344.9739899853753 255.31220104570946 39.308534569090426
347.7698952533123 262.02603065092495 45.48846048799082
354.8879671317595 281.80272545034546 31.56480712175056
352.8645137337538 274.56153479118575 42.75672380232193
339.45629874999184 257.1796379577253 26.289841649217315
350.2313415291216 290.86667997785344 23.466750972903007
342.7921281704106 284.2954727829975 15.30553980165274
359.17369410807584 270.6489228806519 22.075920368475536
347.14204798833896 256.33694894480044 21.2330246820253
334.9830861041061 272.5731107808841 20.11321499278832
349.77809396490875 285.3625561782634 11.869198772720129
339.17762301368464 265.3344999188408 43.29342593088624
350.08914767598316 253.3327283222133 34.5736171048181
352.5045877726422 282.66915681019674 35.15885845596234
352.18571933946663 289.4347029427633 25.88855725673913
333.5662718555514 264.497555372363 22.271576250025014
343.31193171548307 282.28582710518197 13.347957619310051
341.37643391387184 263.35990158669995 14.94283487776856
335.78371018789187 277.10347353168885 34.59771350410964
352.49777226628146 253.54729284128052 34.68683686416548
358.7516941253017 278.0267632481744 23.93649060446215
350.6242095188596 289.8815388620907 16.699048963089254
352.46111645696755 275.9481477162426 12.298630266381148
332.2636498232851 266.27797890711275 23.566926984783503
351.41702938012287 254.638101462778 23.417176827675604
349.15165840927597 254.17351758949502 24.838689729132298
347.870373588425 283.57580897868354 35.542652844972956
363.7204128589713 262.4474622901207 32.39594501871929
358.3802880151956 277.86127405862885 21.58424936432546
349.8049362945056 260.43940634949905 46.09280998127262
362.45652155404287 261.25790397032506 38.642674246244475
335.4519224400621 266.35687972024806 18.437870521943236
355.45964690554985 256.9430380165999 20.922951917004262
357.6825090746692 279.634669954613 20.218516891345786
337.74319072695124 261.3396220872931 41.23315846745891
363.3913105427863 262.66560944047995 35.98153411856076
343.2866297094484 255.26147283410276 26.704098550086478
358.6351685256695 274.1433462038611 28.626293365751376
341.59692163605143 283.8024030447733 24.13783296875002
339.81811272568484 274.3799400443648 47.67405864692524
338.12400219106 272.7259292186886 46.92500204206344
351.50186242246315 290.0390913785523 19.011294868217128
335.61655843710207 269.9918547842312 18.81668167704721
348.51229168384936 289.5200751574831 15.30644937843173
357.8506415966758 262.24433361949536 43.84351274088149
342.9091729609817 280.7325041140256 31.946543371869716
351.31879990939115 253.92959742858204 39.692249735034885
351.91473081432105 258.79555861889156 18.21615490308141
356.31985076905613 263.37428981354196 44.69787956259472
340.7816552382526 279.14850558468066 37.579628451004396
336.57178302482873 260.4814560448342 20.572520371110958
357.42067343892404 276.7705848330878 17.079496023833666
355.96885823776097 271.4618128836226 17.764477022170134
350.0758167442795 255.9523854598625 44.28411180481955
344.0206376691001 287.4480235129667 30.359306838772394
343.23654145730126 287.5460157531213 26.035696782761015
350.9207250493888 289.7659267599656 28.610359170156766
350.61989074696 258.6844191152624 46.294358088178846
354.77805806561685 258.8909240930928 18.628522305900127
355.3926962970497 271.911326048157 15.610922272841325
360.6401837020182 265.16163313449033 21.43088871461533
345.15348009160226 254.7908687365085 25.700614736259997
348.2128347136338 291.11036498526164 24.438738783046364
351.6697031514854 261.89327643016065 47.018144490776166
345.39332668533837 290.35457857053007 23.806371812759956
355.4917441186655 254.38054735809027 34.64270010797305
339.9267265444418 258.26013360801227 20.770784252985095
341.0935015832406 277.20522411283406 45.905925425485734
357.4521203065834 258.803290909224 20.2004407860069
341.45205296431556 281.3707464286846 18.93171962492107
341.8742804284912 283.30356053011263 28.276764613294663
343.6656706385557 284.1924716397146 13.403955889217178
341.3308943551858 277.2187863096159 19.528006849332357
335.15938999551474 276.4036786361029 36.56616293693608
342.895882810443 285.4837238587128 29.983834676552263
340.4018652373668 268.9097494257796 15.53275829720455
337.8991821799205 278.01683270096015 23.21234385562601
342.62681019569226 260.2610771136036 43.431512349195025
355.5753608944749 280.3069780088169 14.76665604414061
353.8918568205678 254.5900980947762 40.83627632434643
361.09876402337215 257.77669959302295 30.533650114306912
344.14066834714953 289.4357203903493 19.843402452091414
345.3647297577946 277.37457837910745 14.74698346686794
358.1227894697007 275.8912156377062 22.831193212047804
337.62107721523034 274.2923445182712 45.11969060208096
355.0138682398655 260.9995810803394 17.570440664852985
341.25631771727876 281.7676961362938 21.74898463494058
343.67225238350096 287.01308454980835 16.048963106446923
357.3017246667123 255.45441822963818 35.189078013514674
353.9462903584924 254.70859394139475 24.5206260016212
341.4031079118417 284.0271574082467 19.90028540633203
360.8863662631212 270.60778240677445 24.81153658308565
341.0755680461598 258.5155441724246 39.84713195104794
360.86426428625305 267.6426009184075 22.511514800638018
348.5269294988608 270.6460795639051 15.236130260288709
347.45504314838263 274.61240444142567 46.33728216728174
354.6669478625444 274.31400202455467 41.10523998224316
343.2402589609927 287.46383298765153 17.85864700237979
352.316416486587 289.6653562779993 23.528868131015233
348.00821604970207 257.1073303991942 19.026964592574796
342.9972845109001 287.46461246330114 21.911827702981277
331.32273389039534 272.60355208479007 31.57568142212172
332.81776563958755 275.8528632923662 26.384813036362143
343.83343940345503 273.054403031282 47.97665736411486
341.496798571231 283.37394129992185 17.46193445416798
351.3852610463465 265.98204175506294 15.487477942229123
342.0340481538215 285.86427171837425 19.826715239441427
333.36396567410935 269.77638444341295 20.74840760363178
343.05049550510205 270.29309857764906 48.30088016460412
341.3938886940146 283.8754091722037 21.866277454466022
355.92541180221684 278.6570377674298 16.017858249210594
360.63769158867626 266.23524944987145 41.26042838631425
338.0791027734079 257.63630575692446 28.391729751877516
361.626196006439 270.6687432838534 26.99399403463782
346.36070889858416 281.97961421026224 35.47548091243223
341.3412902849503 280.92846304300576 24.11792305860915
331.3101730822204 271.6804958177298 33.990027443670265
359.70668046526134 258.3610290815079 24.0400571825134
349.2157525219385 265.3123302469904 15.492440164894214
354.71013877474513 264.500751146649 17.046801753884605
352.97975095695836 288.52819534396264 18.419011253337988
POLYGONS 1274 5096
3 8 5 3
3 10 8 9
3 10 9 12
3 12 9 11
3 15 1 16
3 16 1 0
3 596 515 19
3 361 612 14
3 361 14 20
3 465 25 30
3 25 465 26
3 23 26 24
3 24 26 465
3 361 27 311
3 361 20 27
3 27 20 17
3 28 600 29
3 29 600 16
3 29 16 30
3 254 539 638
3 39 25 26
3 39 26 215
3 32 33 42
3 42 33 569
3 535 37 45
3 58 49 44
3 42 67 54
3 76 560 62
3 97 258 87
3 112 114 116
3 114 124 116
3 372 138 124
3 143 145 202
3 202 145 138
3 133 149 140
3 140 149 139
3 149 133 148
3 149 148 544
3 145 143 200
3 200 143 328
3 328 143 181
3 208 145 200
3 181 326 328
3 328 487 502
3 342 353 350
3 147 135 353
3 200 502 208
3 502 487 135
3 208 502 632
3 632 502 135
3 326 487 328
3 461 475 350
3 350 353 487
3 487 353 135
3 7 10 12
3 12 13 7
3 30 16 0
3 30 0 465
3 17 299 21
3 540 18 21
3 21 18 33
3 40 29 30
3 30 25 40
3 17 21 32
3 38 37 23
3 39 50 40
3 40 25 39
3 225 64 28
3 42 569 67
3 62 49 61
3 369 54 67
3 69 71 56
3 80 81 69
3 81 71 69
3 81 523 71
3 106 107 92
3 107 93 92
3 107 108 94
3 94 93 107
3 118 107 106
3 108 107 118
3 126 146 134
3 516 134 146
3 139 324 140
3 373 137 482
3 132 146 223
3 208 148 216
3 216 148 133
3 632 148 208
3 200 328 502
3 342 350 475
3 461 487 326
3 350 487 461
3 7 6 10
3 528 9 8
3 540 21 299
3 17 20 299
3 299 20 14
3 2 15 600
3 600 15 16
3 577 27 17
3 32 577 17
3 32 21 33
3 570 41 577
3 577 41 27
3 570 577 42
3 577 32 42
3 53 51 570
3 570 51 41
3 54 570 42
3 54 53 570
3 172 569 409
3 172 67 569
3 334 315 105
3 315 234 105
3 315 117 234
3 125 234 117
3 134 125 117
3 520 134 117
3 134 516 125
3 5 2 3
3 191 9 528
3 15 2 5
3 64 31 28
3 85 490 484
3 503 537 416
3 287 417 120
3 583 537 503
3 503 416 425
3 417 396 120
3 51 257 48
3 257 499 48
3 565 391 57
3 565 314 391
3 110 96 390
3 98 442 444
3 435 57 391
3 73 542 428
3 428 542 543
3 583 120 455
3 455 537 583
3 127 508 472
3 57 440 565
3 411 323 481
3 466 437 374
3 47 440 57
3 326 181 367
3 367 181 482
3 365 423 111
3 467 464 553
3 545 553 364
3 537 530 416
3 537 511 530
3 74 363 398
3 74 230 363
3 537 455 511
3 326 367 349
3 349 367 182
3 383 84 345
3 57 344 47
3 57 435 344
3 344 435 46
3 340 392 45
3 46 435 343
3 584 437 424
3 397 424 228
3 314 245 617
3 314 73 245
3 245 73 428
3 444 506 98
3 374 61 58
3 61 49 58
3 141 333 411
3 363 83 345
3 345 398 363
3 45 392 535
3 535 392 466
3 73 325 404
3 411 486 323
3 323 486 288
3 182 322 351
3 521 321 136
3 332 142 313
3 313 142 173
3 404 542 73
3 404 325 550
3 550 325 576
3 288 317 323
3 332 313 461
3 313 475 461
3 351 142 332
3 565 325 314
3 314 325 73
3 243 131 456
3 49 593 44
3 593 50 39
3 326 349 461
3 461 349 332
3 526 457 617
3 397 228 457
3 332 349 351
3 351 349 182
3 323 321 481
3 481 321 173
3 637 341 233
3 464 548 553
3 481 319 411
3 411 319 141
3 142 481 173
3 142 319 481
3 323 317 321
3 321 317 136
3 612 473 24
3 311 623 473
3 4 15 6
3 15 5 6
3 351 613 142
3 142 613 319
3 613 451 319
3 6 5 10
3 5 8 10
3 451 621 443
3 443 621 626
3 612 24 465
3 238 136 408
3 136 317 408
3 173 521 313
3 173 321 521
3 0 1 14
3 147 353 342
3 141 451 443
3 141 319 451
3 1 4 14
3 1 15 4
3 4 540 299
3 4 6 540
3 24 401 23
3 23 401 38
3 401 24 473
3 488 368 82
3 390 109 119
3 119 109 306
3 403 362 496
3 496 362 109
3 230 522 460
3 109 390 491
3 433 306 362
3 543 358 449
3 511 469 530
3 419 306 433
3 362 306 109
3 119 306 303
3 260 82 312
3 488 554 95
3 488 82 554
3 433 362 403
3 403 496 412
3 412 496 95
3 412 95 554
3 419 407 303
3 303 306 419
3 419 518 407
3 14 4 299
3 419 301 518
3 419 433 301
3 264 552 452
3 76 625 560
3 76 355 625
3 612 0 14
3 612 465 0
3 311 473 361
3 361 473 612
3 400 447 552
3 448 400 595
3 331 595 377
3 387 505 480
3 529 348 189
3 400 448 348
3 329 517 450
3 450 517 448
3 413 519 331
3 331 519 450
3 189 432 395
3 626 327 432
3 287 379 417
3 464 305 629
3 545 298 553
3 423 467 298
3 298 467 553
3 571 297 295
3 571 438 297
3 305 464 467
3 417 501 396
3 396 501 430
3 571 295 406
3 545 364 504
3 288 508 127
3 410 501 417
3 629 291 464
3 629 357 291
3 291 357 294
3 566 296 127
3 98 285 442
3 285 287 442
3 504 364 285
3 542 283 543
3 283 426 425
3 464 291 548
3 278 333 505
3 505 333 329
3 406 279 571
3 411 278 486
3 411 333 278
3 410 294 501
3 548 410 379
3 379 410 417
3 413 547 519
3 413 438 547
3 519 480 450
3 450 480 329
3 443 212 141
3 256 253 445
3 450 448 331
3 331 448 595
3 211 517 329
3 508 278 387
3 387 472 508
3 472 387 273
3 273 387 480
3 490 98 484
3 98 506 484
3 571 279 438
3 329 480 505
3 566 357 296
3 357 253 296
3 276 274 320
3 320 274 566
3 408 317 213
3 213 317 288
3 111 545 99
3 275 637 499
3 637 48 499
3 517 348 448
3 543 260 428
3 48 388 51
3 51 388 41
3 296 256 384
3 296 253 256
3 629 253 357
3 629 445 253
3 543 283 358
3 358 283 425
3 445 251 256
3 586 244 550
3 256 213 384
3 384 213 288
3 426 506 444
3 426 271 506
3 296 384 127
3 384 288 127
3 74 584 230
3 230 584 368
3 500 266 99
3 100 421 266
3 629 247 445
3 629 305 247
3 246 247 405
3 86 266 500
3 238 246 243
3 243 246 405
3 365 111 421
3 423 242 467
3 242 305 467
3 516 471 125
3 366 239 85
3 85 239 500
3 366 427 239
3 408 251 238
3 141 212 333
3 333 212 329
3 423 298 111
3 111 298 545
3 104 234 125
3 525 237 75
3 48 233 388
3 48 637 233
3 221 232 498
3 232 421 100
3 305 242 495
3 471 104 125
3 166 226 90
3 111 99 421
3 99 266 421
3 365 229 423
3 305 495 247
3 247 495 405
3 369 166 474
3 242 423 229
3 456 513 144
3 129 405 495
3 421 232 365
3 365 232 221
3 243 456 238
3 37 38 45
3 38 343 45
3 401 224 38
3 46 343 224
3 224 343 38
3 122 229 221
3 221 229 365
3 498 232 631
3 631 232 100
3 163 485 122
3 340 45 343
3 343 435 340
3 614 238 456
3 485 470 122
3 485 129 470
3 470 129 495
3 122 470 229
3 100 346 631
3 499 281 60
3 499 257 281
3 278 508 486
3 508 288 486
3 392 340 228
3 228 340 59
3 636 46 224
3 224 401 636
3 41 388 27
3 256 251 213
3 213 251 408
3 626 212 443
3 626 211 212
3 212 211 329
3 246 238 251
3 189 348 211
3 211 348 517
3 246 445 247
3 246 251 445
3 401 473 636
3 636 473 623
3 118 133 140
3 297 494 295
3 301 469 292
3 108 140 324
3 108 118 140
3 494 518 292
3 632 544 148
3 544 280 149
3 149 280 139
3 307 302 377
3 346 86 611
3 278 505 387
3 413 302 438
3 438 302 297
3 412 290 403
3 428 260 526
3 526 312 457
3 457 312 397
3 449 420 579
3 433 267 301
3 403 290 206
3 420 449 205
3 205 449 358
3 579 420 554
3 554 420 412
3 267 469 301
3 260 449 579
3 449 260 543
3 301 292 518
3 416 241 425
3 425 241 358
3 530 469 214
3 205 358 241
3 260 579 82
3 579 554 82
3 290 412 420
3 530 214 416
3 214 241 416
3 403 267 433
3 267 206 214
3 214 469 267
3 206 267 403
3 241 206 290
3 241 214 206
3 290 205 241
3 290 420 205
3 526 260 312
3 617 457 59
3 59 457 228
3 425 204 503
3 503 204 444
3 425 426 204
3 204 426 444
3 397 312 368
3 312 82 368
3 431 578 281
3 53 63 51
3 63 257 51
3 404 607 542
3 426 283 607
3 607 283 542
3 59 391 617
3 617 391 314
3 544 632 135
3 426 607 271
3 144 614 456
3 428 526 245
3 245 526 617
3 144 513 223
3 223 513 132
3 506 271 484
3 271 244 484
3 391 59 435
3 59 340 435
3 576 565 440
3 576 325 565
3 550 453 404
3 550 244 453
3 453 244 271
3 404 453 607
3 607 453 271
3 586 360 366
3 60 427 360
3 360 427 366
3 275 309 637
3 309 440 47
3 46 293 344
3 344 293 47
3 293 341 47
3 637 309 341
3 341 309 47
3 60 281 427
3 281 578 427
3 576 586 550
3 576 347 586
3 636 293 46
3 294 274 501
3 85 394 490
3 394 504 490
3 500 99 394
3 394 85 500
3 440 603 576
3 275 347 603
3 603 347 576
3 400 529 447
3 400 348 529
3 500 239 86
3 558 375 395
3 341 623 233
3 623 341 293
3 503 492 583
3 583 492 442
3 503 444 492
3 492 444 442
3 233 311 388
3 388 311 27
3 233 623 311
3 60 360 347
3 347 360 586
3 86 239 578
3 578 239 427
3 447 286 356
3 447 529 286
3 499 60 275
3 275 60 347
3 275 603 309
3 309 603 440
3 381 155 252
3 366 244 586
3 96 630 390
3 630 491 390
3 230 460 363
3 363 460 83
3 488 230 368
3 544 135 477
3 135 147 477
3 630 460 522
3 95 522 488
3 95 630 522
3 109 491 496
3 488 522 230
3 623 293 636
3 496 491 95
3 95 491 630
3 110 152 96
3 382 383 152
3 560 625 527
3 527 625 79
3 79 162 261
3 261 162 87
3 381 203 155
3 381 382 203
3 268 79 261
3 261 201 268
3 199 277 103
3 97 207 165
3 201 184 268
3 380 121 252
3 252 269 380
3 389 203 110
3 402 446 478
3 80 187 92
3 91 592 106
3 227 186 128
3 375 446 186
3 395 227 189
3 189 227 529
3 227 128 286
3 286 529 227
3 189 211 432
3 432 211 626
3 626 621 327
3 327 621 284
3 327 558 432
3 432 558 395
3 86 578 611
3 86 346 266
3 266 346 100
3 578 431 611
3 611 431 75
3 316 525 176
3 176 525 75
3 322 451 613
3 613 351 322
3 75 237 611
3 237 346 611
3 63 176 431
3 431 176 75
3 316 176 53
3 53 176 63
3 63 431 257
3 257 431 281
3 216 133 592
3 631 609 270
3 631 346 609
3 609 346 237
3 145 563 138
3 520 117 454
3 454 117 315
3 525 169 237
3 474 525 316
3 631 88 498
3 631 270 88
3 270 90 88
3 166 90 270
3 609 237 169
3 169 270 609
3 169 474 166
3 166 270 169
3 369 474 316
3 498 88 338
3 516 132 159
3 159 471 516
3 221 163 122
3 221 498 163
3 104 471 115
3 471 157 115
3 156 161 131
3 156 159 161
3 166 369 601
3 157 485 163
3 555 88 90
3 157 159 156
3 157 471 159
3 338 163 498
3 156 485 157
3 546 538 601
3 129 156 131
3 129 485 156
3 157 163 115
3 334 538 195
3 90 160 555
3 555 160 104
3 234 160 105
3 105 160 226
3 229 470 242
3 242 470 495
3 19 628 596
3 555 338 88
3 555 115 338
3 234 104 160
3 163 338 115
3 555 104 115
3 226 160 90
3 538 105 226
3 334 105 538
3 33 628 569
3 538 226 601
3 601 226 166
3 131 161 456
3 456 161 513
3 513 161 132
3 132 161 159
3 172 514 67
3 601 369 514
3 516 146 132
3 129 131 405
3 405 131 243
3 601 514 546
3 546 514 172
3 525 474 169
3 67 514 369
3 53 54 316
3 316 54 369
3 280 544 477
3 372 202 138
3 114 462 124
3 124 462 372
3 371 478 255
3 255 478 446
3 202 567 143
3 567 181 143
3 74 437 584
3 181 567 482
3 397 584 424
3 397 368 584
3 535 44 37
3 37 44 215
3 44 535 58
3 424 437 466
3 44 593 215
3 215 593 39
3 37 215 23
3 215 26 23
3 119 354 390
3 389 110 354
3 354 110 390
3 116 89 112
3 112 89 101
3 587 64 262
3 31 64 587
3 91 187 556
3 187 66 556
3 116 124 563
3 31 483 28
3 534 483 31
3 2 483 3
3 31 524 534
3 563 124 138
3 28 483 600
3 600 483 2
3 3 483 534
3 248 552 356
3 389 354 250
3 250 354 119
3 356 552 447
3 310 356 128
3 356 286 128
3 250 175 452
3 452 175 303
3 250 119 175
3 175 119 303
3 484 635 85
3 85 635 366
3 484 244 635
3 635 244 366
3 367 497 182
3 284 621 322
3 322 621 451
3 284 322 182
3 43 171 35
3 171 154 35
3 71 539 56
3 174 279 276
3 324 139 217
3 191 528 22
3 238 614 136
3 136 614 521
3 3 339 8
3 188 217 198
3 35 429 43
3 72 418 385
3 280 198 139
3 36 429 35
3 190 259 36
3 147 342 146
3 146 342 223
3 521 614 183
3 183 614 144
3 475 179 342
3 144 223 179
3 179 223 342
3 126 147 146
3 477 198 280
3 254 191 22
3 191 259 11
3 254 259 191
3 254 36 259
3 126 531 147
3 147 531 477
3 183 144 179
3 179 475 183
3 515 190 19
3 198 477 531
3 134 520 126
3 520 188 126
3 190 515 259
3 515 11 259
3 19 282 34
3 282 36 35
3 36 282 190
3 190 282 19
3 12 11 13
3 521 183 313
3 313 183 475
3 13 515 596
3 13 11 515
3 191 11 9
3 276 320 174
3 198 531 188
3 188 531 126
3 19 34 409
3 34 551 409
3 34 282 154
3 154 282 35
3 551 34 154
3 418 171 43
3 43 385 418
3 195 422 334
3 334 422 335
3 335 220 454
3 72 489 220
3 551 154 195
3 422 154 171
3 551 195 546
3 334 335 315
3 315 335 454
3 418 72 220
3 220 335 418
3 538 546 195
3 195 154 422
3 551 172 409
3 551 546 172
3 335 171 418
3 335 422 171
3 36 254 638
3 13 436 7
3 7 436 18
3 13 596 436
3 355 533 541
3 541 533 84
3 165 207 381
3 381 207 382
3 383 336 84
3 383 382 336
3 336 382 207
3 197 541 304
3 304 541 84
3 393 355 76
3 393 533 355
3 162 272 197
3 355 541 272
3 272 541 197
3 336 207 304
3 304 84 336
3 128 231 310
3 356 310 248
3 310 359 248
3 101 151 112
3 151 114 112
3 355 272 625
3 201 194 184
3 97 87 197
3 87 162 197
3 402 177 446
3 402 231 177
3 177 231 128
3 87 199 261
3 261 199 201
3 219 462 114
3 178 255 375
3 255 446 375
3 591 371 168
3 371 196 168
3 371 255 196
3 196 255 178
3 186 446 177
3 177 128 186
3 258 165 458
3 165 121 458
3 164 634 380
3 625 162 79
3 625 272 162
3 197 304 97
3 97 304 207
3 137 178 497
3 137 196 178
3 79 268 527
3 252 121 381
3 121 165 381
3 78 184 594
3 78 268 184
3 165 258 97
3 121 380 458
3 458 380 634
3 269 164 380
3 310 231 158
3 158 231 269
3 534 339 3
3 155 158 252
3 252 158 269
3 310 158 359
3 359 158 155
3 594 101 439
3 262 77 439
3 439 604 262
3 101 594 330
3 330 594 184
3 459 102 103
3 102 194 103
3 389 155 203
3 389 359 155
3 113 153 459
3 462 219 153
3 194 102 330
3 330 184 194
3 110 203 152
3 152 203 382
3 151 101 330
3 330 102 151
3 628 436 596
3 78 594 77
3 594 439 77
3 102 219 151
3 151 219 114
3 168 196 373
3 373 196 137
3 19 409 628
3 409 569 628
3 84 150 345
3 345 150 398
3 84 533 150
3 375 186 395
3 395 186 227
3 61 549 62
3 62 549 76
3 61 393 549
3 549 393 76
3 512 374 437
3 96 493 83
3 96 152 493
3 493 152 383
3 393 479 533
3 393 512 479
3 479 512 398
3 359 468 248
3 248 468 250
3 359 389 468
3 468 389 250
3 83 493 345
3 345 493 383
3 398 568 74
3 74 568 437
3 398 512 568
3 568 512 437
3 150 533 479
3 479 398 150
3 83 630 96
3 83 460 630
3 228 424 392
3 424 466 392
3 58 466 374
3 58 535 466
3 374 441 61
3 61 441 393
3 374 512 441
3 441 512 393
3 434 49 62
3 77 590 52
3 77 262 590
3 590 262 64
3 249 65 386
3 386 65 52
3 518 509 407
3 518 494 509
3 509 494 307
3 303 610 452
3 303 407 610
3 610 407 414
3 452 610 264
3 264 610 414
3 302 307 297
3 307 494 297
3 407 509 414
3 307 377 509
3 509 377 414
3 452 463 250
3 250 463 248
3 452 552 463
3 463 552 248
3 564 295 292
3 295 494 292
3 597 564 455
3 564 511 455
3 377 302 331
3 302 413 331
3 377 595 414
3 414 595 264
3 597 376 564
3 564 376 295
3 597 406 376
3 376 406 295
3 564 292 511
3 511 292 469
3 22 539 254
3 308 70 56
3 70 69 56
3 370 339 289
3 528 370 22
3 22 370 308
3 308 370 289
3 400 264 595
3 400 552 264
3 339 370 8
3 8 370 528
3 72 532 489
3 49 434 593
3 593 434 50
3 198 217 139
3 249 434 560
3 560 434 62
3 263 29 40
3 560 527 249
3 249 527 65
3 50 434 386
3 386 434 249
3 276 236 430
3 430 236 406
3 276 279 236
3 236 279 406
3 430 597 396
3 430 406 597
3 279 575 438
3 438 575 547
3 279 174 575
3 575 174 547
3 7 540 6
3 7 18 540
3 18 436 33
3 33 436 628
3 77 378 78
3 78 378 65
3 77 52 378
3 378 52 65
3 52 590 225
3 225 590 64
3 396 235 120
3 120 235 455
3 396 597 235
3 235 597 455
3 127 222 566
3 566 222 320
3 127 472 222
3 222 472 320
3 527 337 65
3 65 337 78
3 527 268 337
3 337 268 78
3 29 225 28
3 29 263 225
3 510 71 523
3 262 604 587
3 587 604 608
3 442 606 583
3 583 606 120
3 442 287 606
3 606 287 120
3 566 562 357
3 357 562 294
3 566 274 562
3 562 274 294
3 430 476 276
3 276 476 274
3 430 501 476
3 476 501 274
3 225 263 52
3 52 263 386
3 386 263 50
3 263 40 50
3 364 352 285
3 285 352 287
3 364 379 352
3 352 379 287
3 379 318 548
3 548 318 553
3 379 364 318
3 318 364 553
3 520 240 188
3 489 217 240
3 240 217 188
3 489 240 220
3 277 300 103
3 103 300 459
3 458 619 258
3 258 619 277
3 619 300 277
3 372 507 130
3 372 462 507
3 634 619 458
3 507 153 536
3 536 153 113
3 153 507 462
3 459 300 113
3 459 219 102
3 459 153 219
3 507 218 130
3 218 591 168
3 536 591 218
3 218 507 536
3 113 300 123
3 123 210 113
3 591 536 210
3 210 536 113
3 300 209 123
3 300 619 209
3 209 619 634
3 130 218 373
3 373 218 168
3 634 164 192
3 192 164 265
3 130 202 372
3 130 567 202
3 482 567 373
3 567 130 373
3 193 371 591
3 209 634 192
3 192 123 209
3 265 164 402
3 402 478 265
3 210 123 193
3 193 591 210
3 265 193 192
3 192 193 123
3 402 185 231
3 231 185 269
3 402 164 185
3 185 164 269
3 178 170 497
3 371 265 478
3 371 193 265
3 285 598 504
3 504 598 490
3 285 98 598
3 598 98 490
3 548 291 410
3 410 291 294
3 504 180 545
3 545 180 99
3 504 394 180
3 180 394 99
3 497 482 137
3 497 367 482
3 199 167 277
3 277 167 258
3 199 87 167
3 167 87 258
3 103 620 199
3 199 620 201
3 103 194 620
3 620 194 201
3 220 240 454
3 454 240 520
3 273 581 472
3 174 320 581
3 581 320 472
3 547 273 519
3 519 273 480
3 174 581 547
3 547 581 273
3 429 36 638
3 385 43 429
3 91 588 592
3 588 89 116
3 208 563 145
3 208 216 563
3 217 489 324
3 638 510 429
3 510 385 429
3 523 94 532
3 592 415 216
3 216 415 563
3 415 116 563
3 588 116 415
3 415 592 588
3 89 399 556
3 556 399 91
3 89 588 399
3 399 588 91
3 532 72 385
3 604 633 556
3 556 633 89
3 633 101 89
3 556 627 604
3 604 627 608
3 556 66 627
3 627 66 608
3 68 624 66
3 66 624 608
3 68 55 624
3 624 55 608
3 55 622 608
3 608 622 587
3 55 524 622
3 80 618 187
3 187 618 66
3 80 68 618
3 618 68 66
3 101 633 439
3 439 633 604
3 289 524 605
3 605 524 55
3 68 599 70
3 70 599 69
3 68 80 599
3 599 80 69
3 289 589 524
3 524 589 534
3 289 339 589
3 589 339 534
3 70 615 68
3 68 615 55
3 70 605 615
3 615 605 55
3 289 605 308
3 308 605 70
3 587 622 31
3 31 622 524
3 523 616 510
3 510 616 385
3 523 532 616
3 616 532 385
3 93 582 92
3 92 582 80
3 93 81 582
3 582 81 80
3 523 580 94
3 94 580 93
3 523 81 580
3 580 81 93
3 94 574 532
3 94 108 574
3 574 108 324
3 92 573 106
3 106 573 91
3 92 187 573
3 573 187 91
3 106 572 118
3 118 572 133
3 106 592 572
3 572 592 133
3 56 561 308
3 308 561 22
3 56 539 561
3 561 539 22
3 539 559 638
3 638 559 510
3 539 71 559
3 559 71 510
3 532 574 489
3 489 574 324
3 497 585 182
3 182 585 284
3 497 170 585
3 585 170 284
3 558 602 375
3 375 602 178
3 558 170 602
3 602 170 178
3 284 557 327
3 327 557 558
3 284 170 557
3 557 170 558
