# vtk DataFile Version 3.0
A great-looking cell
ASCII
DATASET POLYDATA
POINTS 278 double
327.58498951275004 202.98917813059043 74.3190586461793
331.5732738497456 196.3895493165248 56.116475050236396
338.68965252997583 186.8799774139258 68.47824114365743
338.4452719722926 195.12109970434113 54.911007630328484
345.11539557197545 192.8702145843641 60.26955713534351
337.6206094681441 201.13382159518895 79.40208827514668
333.6976423273315 193.92441624595256 55.379415815830335
338.1149747566738 207.2755558549644 65.98705884571561
340.4947153087842 190.37004893232847 58.942348613159176
342.1364654635279 202.5666332327797 78.20509377506195
336.0406015551911 188.0610327332766 60.46155509540205
328.2226654003031 201.71986696429883 61.48993035194958
340.3963338592198 188.7495727090228 61.31805681753462
330.18948816547174 203.7709639913103 63.32232421152066
333.576921471094 205.3296644546518 69.42829251740811
343.34569598076985 199.36097048366648 57.11221242574698
341.37043988155443 203.01714036514466 57.15385050325309
325.95430619068946 196.70135103237905 65.22815723480045
331.95281340461634 202.04471486064574 76.88467971091829
336.7613317064337 204.96912320003847 59.99980634945893
335.2571767280871 206.3561185886497 72.67121335172416
343.7534552391899 205.06994548056144 65.83500942080256
329.026431014436 203.69984233167506 71.60868318791468
329.0709330244304 193.54009041315078 58.53134711226272
339.2458230745605 204.25177954208485 58.31880430198951
341.4611827949026 200.64278348871127 56.36612380263853
347.1372165888125 198.10052928699233 64.45135979259872
345.4849496317514 200.73529187075945 63.01049965306493
347.07159187629117 198.22368414102095 66.73080645715113
328.7229996145169 203.4473064521284 68.00805873240917
346.1476047821679 196.28435172501287 71.244961210069
346.4305921940856 197.97635035329176 69.29210162186656
345.9491470727009 199.88873996890015 67.71714685347048
333.3133823947078 204.90295924460696 63.50995596225972
338.56861510122656 207.10784687618573 71.49464579111498
340.2088323073928 207.41016331524042 66.80716863980959
340.9581916335948 207.14185277760095 70.42457783018897
348.2765214823514 196.8326125080284 65.65248864571802
343.05039252741665 205.85090191798756 70.77575310980528
329.79736750244314 188.045553238246 70.5252218223584
325.2274407907489 200.74027336378552 70.75896650281786
331.15539220194245 203.9375400451346 69.58699540610321
333.4323796096946 186.64653756960882 67.82813360393037
341.23090036905785 205.43051044028192 76.37517816214454
339.2357171527915 187.37599388750164 66.24538323486723
335.40857542274415 195.29044040144282 77.98161456016072
338.9163034372551 196.9777051171424 78.4198884901448
329.7580533250231 187.97331841223354 67.878149355625
328.6788947327136 189.38045478390967 66.05468658930623
334.8709809298297 186.3718662401036 66.77532108970689
327.8634478544369 197.54511970514992 59.195087330875275
333.3925276035407 190.7664277582745 78.62435471284839
331.74860531754274 188.33322320586032 77.99281855559263
328.30909793782337 189.66414968370668 72.44124988500243
326.89278084117376 199.03470847160364 61.07568041913757
335.24261631462105 187.68599459934214 74.30329100792756
345.2163950892354 196.77882295307018 73.64717013275545
331.86570685837916 187.75167983232004 62.67119908532016
334.74805747403735 200.2457027069894 56.73254028047343
329.2249868184361 188.68902958044606 75.60629270060042
326.7901694638129 193.7116441446429 73.68320998103458
340.1539784556456 193.56909640956079 55.49304931763061
334.4065693914551 186.72185676032487 72.39687601397978
325.8157238464152 199.38512015746804 65.68029614841748
337.8070599377088 190.64697524586623 76.49067590045127
334.9593108200962 189.11223553249357 76.6710555563307
327.15353312210016 192.68589586874262 71.53057137715768
330.4951530177628 191.38990124510858 79.15310370394107
341.56978656446347 189.055958507768 70.07762981856058
330.91932316655453 188.7528658596324 60.77768561711424
331.64980189793806 187.0067739574964 69.12428096712358
338.0240629828139 186.56637663779287 70.51585309831088
340.39711156343634 195.73194908330692 55.27289783676721
327.2753400856738 195.42712274610074 63.673390890393996
327.58591886392253 191.7473085942879 66.34369945754824
332.57097611364327 203.5893734083437 72.41489696225217
327.2651592271429 192.8658019372636 68.57403032752107
341.54538105196275 197.76691043186284 55.99582918494465
329.0101138728085 192.19417649568763 60.03721021655962
331.7353772957719 204.13760393100307 66.53378731698973
337.0866201454994 186.7451757266408 72.84114309263134
339.75168624179514 205.98865581784216 61.447364823836466
329.6722632991813 198.64530344195714 57.67008293637259
330.3850265342515 191.049032072182 58.925816633551285
342.1662616813864 190.04690716147806 72.24376684485094
336.17037709076925 194.61853886370145 54.99912299972104
345.5311502298994 202.6314244405969 67.41586253231489
330.112217403238 203.01355243342482 60.9458145546284
344.60680264051877 202.0795658257019 60.96427198498157
343.0771066588924 199.60458896163826 77.04991672086577
325.7483735330644 197.06784899861776 67.55601130498229
335.84985198153805 198.32365342426067 55.94006977547994
341.1745906459469 206.639062359704 73.10095148725028
324.91887792165295 197.59301571599474 70.26757010066908
328.0888132684268 193.57238073464453 61.40444294029987
339.0280762120167 188.1123425761942 73.56175991036648
342.02213074950095 206.77427386363144 67.94611024128454
335.329925402157 202.1948066083888 77.64506814431364
344.14230758145794 191.11166464645677 67.2791402515102
328.1415285986078 190.21769726166264 69.04254146129703
325.7640346145691 195.52687629447124 72.6808783615177
345.6731790696338 199.46271159967404 61.441350818742386
335.8471325156377 189.4959620149154 58.41032077006954
342.37659990580164 189.64168957382594 67.86064285319821
326.81032137792664 202.87830251169842 70.02257538075193
337.5985199497402 186.95733926563756 64.37767100614386
325.2758693826126 199.32383074398058 68.36194743044585
332.1670821984793 191.16985041515804 57.78788101336529
344.5552531281596 199.4736900334888 59.21685110690719
340.5671814490246 188.1194836123349 68.11954730075986
339.8016588762648 187.62225467917582 70.19046049648152
336.2207749052244 198.24573512043213 78.63160466348603
341.9193294289388 190.45966386479623 61.04678158940934
326.5348753505783 202.6760039870284 72.12577596110083
338.83382821825097 205.4133956894025 76.87169280633992
341.88046043749466 197.0459429426998 77.84197656916544
337.86582131159236 194.2708726265398 77.97190528152495
330.3787000434747 194.79081509990667 79.21489679695577
341.094085282104 206.9401568567943 64.7394923830037
344.0721068246007 193.70993522370864 57.93978520859402
329.30920630720465 189.0749418535269 78.30423141662705
345.70135926322683 200.7478635765514 69.98244759193527
346.77912716254644 196.02445947447396 69.57961093624279
328.37610183996 190.74637360602352 77.37041640140043
333.6159654503182 187.73910371469657 61.05164018505026
334.6275467653957 188.6487334278902 59.65257751769072
344.1431272632231 192.8685620927331 75.11805609735232
327.7505125884815 193.04318132909003 64.09861492522049
337.1031061323145 200.3310662014956 55.92806390551972
328.03031209414365 192.00713469313737 62.69831578045122
335.6694239003334 200.4276389320542 78.7502165852399
344.23511070977605 196.84559502715484 57.70837171139507
347.1434164684161 193.5778090183072 60.89736582158978
344.0215992094304 191.7460049285284 72.66832543946767
346.20204371270444 192.210447664905 62.48042467636554
332.38820395548106 203.45040652723316 60.832559810868666
333.861121501847 199.96047081982968 78.31304663015547
346.0485091360495 191.72766035473978 66.61194218726114
334.77589908672877 206.18031481121028 66.22807043866501
347.8800644847194 193.97862592149315 62.98197433094647
325.53968751673267 201.23015329032714 73.81492764452472
343.1755312293617 203.86139927792183 76.2804823892299
335.93483935052046 186.44541814860975 70.55195482160049
343.74044990592256 204.46987503765104 73.82918891849742
328.31239512868956 195.41220800589116 59.663560213212826
345.929824521468 200.16959030367164 65.24804275461864
329.92739676991397 201.8354765921524 79.01978510072563
335.66924491695266 192.6883963187025 55.633579862097704
335.8324521018734 192.23026434273876 77.97411503490565
337.76448096220224 193.02713513044998 55.52406118336722
328.8275329835232 190.7770940191354 61.461494453631175
331.5258254647664 193.1186583103855 57.15040862421724
338.14996554180914 190.23107738879318 58.03456830777482
337.7720012527118 192.31010889642587 77.60614687372274
338.96836042869717 187.36131724949752 71.86519804987307
328.7253742049093 202.9772384262483 77.14287050006138
339.1296472130757 203.8932685407289 78.52055377773127
345.08417111825787 202.7692226307332 64.10887833872056
335.3117238972968 186.27219986847578 68.5088120437003
332.88994576593683 197.0270211423921 78.9385205727616
344.59896780273573 191.32654354669276 64.63705951121898
341.7220858297949 192.63299990310983 76.3009158011239
339.4251307548877 192.39647148381417 77.26257082854126
329.91368606365074 197.49837672846928 79.41513803987878
328.52170559551166 193.2838031953964 77.46639897356711
342.8307931552904 194.8984820305648 76.31144258208663
343.8770456623153 191.30303847825232 61.868156518225355
335.3486752705911 186.5377204672648 64.96175563866215
339.39854914364975 207.37662941451603 68.63015756822642
332.25972995783184 199.52101379750889 57.284747389610864
343.0520706474113 204.83374315532845 62.612908171861626
346.31811751299716 199.2919266487594 63.268309342798865
327.1061311423143 194.6482749609031 66.4674471077668
336.5017148500955 206.9583101191132 69.07792338712736
326.3974764577147 197.8374348613015 63.29210020553628
344.69989481937637 199.30140244250677 74.60978756626308
336.9185008705918 186.43282038648954 66.87955419542226
338.16952485442147 189.08904179401725 59.844263884112124
333.5819821043414 187.1011877950658 63.60007290857921
329.38847673275774 203.79934473424154 65.674299051687
326.1501755547224 194.98252077072206 69.48459017553566
345.2561818135384 201.55780862670358 72.8897842953253
331.58339709089074 187.13299353984925 64.59881394033084
336.79237977899163 191.36266940037316 56.8280945240175
336.3997962949773 206.5372596475795 62.957126652588826
325.06806341320873 199.3665205813299 76.03441503406353
347.17860057566315 192.45326138649745 64.87623881358957
338.30034494937996 198.9425631019362 79.11728896854342
329.9584904209348 188.84353147300092 63.58489646498678
333.4980009334708 201.80414905052086 58.5462340369199
343.5815165708438 190.9444286587091 69.96927396728331
348.60699789416026 194.60779370509871 65.40965462042436
348.16204124702165 196.2783087537036 63.57581765292203
341.6240078020452 192.52671383294765 57.350215689028325
327.6682744223351 199.7189459859081 78.5789678780409
340.4372954490129 199.66931115503266 78.92533597413419
342.20646035823455 194.95861984303698 56.316606480449735
329.28665871610355 196.021042679204 57.8986416608178
326.3415402457575 201.74265696854147 76.34213464745311
344.7736370145519 195.10581628395963 75.08442772625926
334.83178888680555 203.35815278224112 59.83156284877769
337.10209235603844 196.19471702817506 78.25414674964414
336.936002829773 196.75588479559354 54.922944879451926
334.041665258186 204.3045332317969 75.43430907860103
332.5133666935117 187.45347825748794 74.65074594955874
340.54717854179154 188.37765598327832 72.04940867720865
332.3322943427543 203.0130016145645 74.73976163707054
333.3829284237492 186.66586436645488 65.74707298267386
344.9882262343846 203.581945899201 70.61946941224122
342.06892258533077 203.9062559651266 59.60937881674584
326.2278595074269 197.29419551198262 76.93884678643612
339.8525047993275 188.103073336382 63.86183111740263
326.4060587675754 200.28680601584173 63.141173291979165
330.2668058703173 194.72394265809922 57.274265673419734
330.36203170908357 201.6552452809873 58.87315596364031
331.5938053132196 187.0118513036576 66.81421069015983
326.5717092429655 194.79960413285218 75.68591233624802
345.4541045154232 192.34339108342724 70.97612670073356
334.07976110218624 191.53762328579518 57.05536120191637
334.5838506809812 196.45096892409626 55.15080352163604
330.36757876280683 203.1411735829518 74.53497237478656
333.0118259246539 189.5224545853895 58.8516613427244
327.8615759725097 191.94212915502064 74.82206671838453
333.18022880855193 193.57318508891308 79.13595255229978
339.21459911494946 191.70739331659314 56.88298266134598
339.1101107603523 202.204654938996 55.997957230767334
343.9832595513948 197.1078007834323 75.95502547643194
336.8272222900524 204.69369185309478 76.91736930036565
325.20251791196677 196.93893402295618 74.99631790920336
342.14432132108533 189.79288287159986 63.48350678431245
340.55614921144286 194.60513006144518 77.68790249922986
334.6389886441163 204.83613377426497 61.30555335352659
328.2616215015942 190.8550805587899 63.99705040984862
345.929147870302 191.87010189487327 68.8188526896727
335.7943152617477 206.10911470187565 75.32692945504589
336.99420295599595 186.40966971772352 68.98555935738221
342.8971294842046 190.13540653954448 65.82889304522372
335.72050902209025 187.09140516655535 62.65539426809105
333.78540202064625 186.65082783786406 70.00862617210373
345.4086351909784 198.7549764282704 71.89570813379204
347.13568620742336 194.0703809664216 70.11131693213774
336.3447195344024 202.68569078409257 57.65161584137783
339.06014976633145 197.22878400206216 55.26474995778522
342.9627666764743 191.70998512342223 59.47095363102902
327.5790469647883 202.26394596420383 64.94799355715615
324.8413534791085 198.55960913098704 73.09812499591284
337.62471588654165 198.50123069086195 55.177687325696425
338.0323491547592 187.78068741379414 61.99862974120137
346.40924826281787 197.60798404042822 59.806319426862395
333.69685821225784 198.35756581660516 55.843124638421564
338.8472225651916 206.88399453715348 63.723803350763944
332.01949772225936 187.14839401143294 71.62974403346692
328.0242725743759 200.04699558281047 59.151666997932715
347.8141423376045 195.8936050104695 67.87724047102984
338.22517559612066 206.58153743511323 74.88579578827495
330.2137941997695 187.90325265050308 72.99451564336555
345.64017917301345 194.06772007076032 72.85764318068445
344.48694371533105 202.03372562040008 75.90431898118987
340.3123363820106 190.70185636196263 75.82882730000183
343.127364139735 201.54285553983843 58.231677608309376
341.20485937619173 188.82837528480994 65.89495318112223
347.0584121254228 197.8383011815829 62.25238813724217
331.1115762138136 199.8018367841967 78.97940250419909
347.5906162739007 195.73985901613437 61.25965885965974
340.02222562089577 201.96171565876463 79.66006677513408
339.0811738656796 189.33270077778798 75.08875180615
327.3653791382168 196.43685604460495 61.34991030993682
342.5793303510508 190.757601693904 74.68781643279313
328.1234638126308 196.19414119615075 77.99649360155038
339.3650286700923 199.491015809908 55.50447806899126
344.12630516106566 204.996278899607 68.5113137575093
337.22242703412496 188.54524544399098 74.87805047522559
347.82097127565027 193.0458857916016 67.45032031265615
330.25530272940335 187.98891442759708 65.76901605232531
340.7704413985314 189.32014997570434 74.03821201418175
346.29550730846177 194.91735225344752 59.10449940556194
337.13175524252165 203.09201394330083 78.3103058140295
326.045729701835 201.71844474791183 67.82299550154733
POLYGONS 552 2208
3 41 29 22
3 41 79 29
3 14 79 41
3 14 41 75
3 75 20 14
3 14 138 79
3 138 33 79
3 20 173 14
3 173 138 14
3 177 8 12
3 75 203 20
3 169 189 58
3 138 173 7
3 75 41 22
3 214 189 169
3 8 112 12
3 3 72 61
3 88 170 157
3 157 170 21
3 3 149 85
3 3 61 149
3 61 224 149
3 8 152 224
3 121 181 239
3 257 181 143
3 143 181 208
3 208 121 86
3 208 181 121
3 12 112 229
3 175 239 181
3 224 61 193
3 193 8 224
3 243 119 4
3 166 112 243
3 243 4 166
3 175 181 257
3 1 219 6
3 61 196 193
3 61 72 196
3 193 243 8
3 8 243 112
3 131 119 196
3 58 249 169
3 169 249 1
3 249 219 1
3 79 33 13
3 177 152 8
3 200 231 19
3 7 184 138
3 138 184 33
3 218 102 221
3 202 219 91
3 6 151 1
3 6 218 151
3 85 149 147
3 19 231 184
3 243 193 119
3 119 193 196
3 6 147 218
3 96 21 118
3 21 170 118
3 88 209 170
3 209 81 170
3 219 85 6
3 85 147 6
3 152 183 224
3 224 183 149
3 152 102 183
3 10 102 177
3 177 102 152
3 149 183 147
3 102 218 183
3 183 218 147
3 88 259 209
3 15 25 259
3 200 19 241
3 241 189 200
3 85 202 3
3 231 200 135
3 135 200 189
3 58 128 91
3 85 219 202
3 249 58 91
3 91 219 249
3 91 246 202
3 269 246 128
3 128 246 91
3 128 225 269
3 3 242 72
3 242 246 269
3 214 135 189
3 231 135 33
3 33 135 13
3 189 241 58
3 184 81 19
3 225 128 241
3 241 128 58
3 24 241 19
3 81 118 170
3 33 184 231
3 81 24 19
3 15 259 108
3 131 15 108
3 196 77 131
3 225 24 16
3 25 77 269
3 209 24 81
3 25 16 259
3 259 16 209
3 25 15 77
3 16 24 209
3 72 77 196
3 77 15 131
3 225 25 269
3 25 225 16
3 269 77 242
3 242 77 72
3 24 225 241
3 259 88 108
3 145 157 86
3 86 157 21
3 211 247 12
3 10 177 247
3 247 177 12
3 246 242 202
3 202 242 3
3 192 139 263
3 139 191 186
3 186 137 160
3 233 98 137
3 137 98 160
3 4 134 166
3 191 272 186
3 233 137 272
3 272 137 186
3 139 186 134
3 166 134 160
3 160 134 186
3 221 125 124
3 124 125 10
3 221 102 125
3 125 102 10
3 258 162 64
3 230 116 162
3 18 97 203
3 10 237 124
3 237 178 124
3 89 257 9
3 89 175 257
3 98 236 160
3 160 236 229
3 236 260 229
3 229 211 12
3 229 260 211
3 103 236 98
3 233 190 98
3 190 103 98
3 112 166 229
3 229 166 160
3 68 109 103
3 30 239 56
3 56 239 175
3 84 133 267
3 151 83 23
3 23 78 94
3 94 78 150
3 23 83 78
3 78 83 150
3 262 136 18
3 18 136 97
3 110 71 2
3 124 69 221
3 150 83 69
3 69 83 221
3 245 93 100
3 188 150 69
3 48 232 188
3 188 232 150
3 172 76 180
3 76 99 66
3 148 65 64
3 76 74 99
3 74 127 232
3 232 48 74
3 204 59 255
3 100 60 216
3 216 60 222
3 100 66 60
3 60 66 222
3 178 57 124
3 178 182 57
3 57 182 188
3 204 55 65
3 204 62 55
3 66 53 222
3 255 59 53
3 53 59 222
3 53 66 99
3 204 52 59
3 204 65 52
3 148 51 65
3 67 52 51
3 51 52 65
3 68 110 109
3 109 110 2
3 74 48 99
3 48 47 99
3 99 47 39
3 39 47 70
3 162 258 161
3 161 230 162
3 215 273 182
3 273 47 48
3 70 42 238
3 99 39 53
3 53 39 255
3 65 271 64
3 65 55 271
3 271 55 80
3 271 80 95
3 62 204 251
3 251 204 255
3 116 45 148
3 178 207 182
3 182 207 215
3 67 223 117
3 148 45 223
3 47 215 70
3 215 42 70
3 42 215 207
3 142 62 238
3 39 70 251
3 251 255 39
3 215 47 273
3 126 267 133
3 237 167 178
3 49 207 167
3 167 207 178
3 124 57 69
3 69 57 188
3 51 148 223
3 223 67 51
3 142 80 62
3 62 80 55
3 49 176 158
3 158 176 235
3 167 176 49
3 105 176 167
3 167 237 105
3 110 154 71
3 154 95 80
3 221 107 218
3 218 107 151
3 221 83 107
3 107 83 151
3 42 158 238
3 71 80 142
3 71 154 80
3 71 235 2
3 235 176 2
3 235 142 158
3 71 142 235
3 158 142 238
3 127 74 172
3 74 76 172
3 62 251 238
3 238 251 70
3 150 129 94
3 94 129 127
3 150 232 129
3 129 232 127
3 94 127 73
3 190 133 84
3 247 237 10
3 46 116 230
3 109 44 260
3 260 44 211
3 44 105 211
3 116 153 162
3 162 153 64
3 116 148 153
3 153 148 64
3 205 68 84
3 95 154 205
3 205 154 110
3 116 201 45
3 45 201 111
3 116 46 201
3 201 46 111
3 2 44 109
3 126 165 161
3 133 217 256
3 133 190 217
3 217 190 233
3 46 230 115
3 258 274 267
3 23 213 151
3 151 213 1
3 23 197 213
3 213 197 1
3 126 199 165
3 199 256 56
3 9 195 89
3 195 115 89
3 182 273 188
3 188 273 48
3 230 165 115
3 230 161 165
3 64 265 258
3 64 271 265
3 265 271 95
3 267 161 258
3 267 126 161
3 272 240 233
3 89 115 226
3 226 115 165
3 23 144 197
3 23 94 144
3 256 30 56
3 256 240 30
3 256 126 133
3 256 199 126
3 217 233 240
3 240 256 217
3 29 244 277
3 11 212 244
3 17 174 73
3 73 174 266
3 197 144 50
3 50 144 266
3 199 56 226
3 226 165 199
3 17 73 172
3 172 73 127
3 93 106 90
3 93 40 106
3 106 40 277
3 237 247 105
3 105 247 211
3 277 104 29
3 29 104 22
3 277 40 104
3 89 226 175
3 175 226 56
3 169 82 214
3 197 50 82
3 73 266 94
3 266 144 94
3 63 17 90
3 11 54 212
3 54 174 212
3 115 195 46
3 197 82 1
3 1 82 169
3 0 220 22
3 220 75 22
3 214 252 11
3 50 54 252
3 252 54 11
3 76 66 180
3 180 66 100
3 205 274 95
3 106 277 63
3 63 90 106
3 50 252 82
3 82 252 214
3 172 90 17
3 172 180 90
3 17 63 174
3 174 63 212
3 68 205 110
3 103 190 68
3 68 190 84
3 267 274 84
3 84 274 205
3 274 258 265
3 265 95 274
3 9 43 156
3 42 207 49
3 49 158 42
3 20 34 173
3 20 254 34
3 254 43 92
3 92 43 143
3 174 54 266
3 266 54 50
3 38 143 208
3 86 270 208
3 86 21 270
3 270 21 96
3 105 44 176
3 176 44 2
3 103 260 236
3 103 109 260
3 11 244 13
3 245 40 93
3 100 93 180
3 93 90 180
3 168 7 173
3 191 253 272
3 143 141 257
3 257 141 9
3 143 43 141
3 141 43 9
3 143 38 92
3 92 38 36
3 38 208 270
3 270 96 38
3 34 36 168
3 168 173 34
3 96 36 38
3 96 168 36
3 7 35 118
3 118 35 96
3 7 168 35
3 35 168 96
3 254 92 34
3 34 92 36
3 212 63 244
3 244 63 277
3 100 228 245
3 245 228 185
3 100 216 228
3 88 101 108
3 108 101 248
3 13 87 11
3 11 87 214
3 13 135 87
3 87 135 214
3 31 32 121
3 121 32 86
3 32 145 86
3 239 31 121
3 30 31 239
3 240 122 30
3 32 31 28
3 28 145 32
3 145 27 157
3 157 27 88
3 145 171 27
3 28 31 253
3 145 26 171
3 145 28 26
3 101 88 27
3 27 171 101
3 122 31 30
3 253 31 122
3 28 253 37
3 26 28 37
3 272 253 240
3 240 253 122
3 37 192 26
3 192 261 26
3 26 261 171
3 171 261 101
3 101 261 248
3 248 261 263
3 248 263 275
3 139 192 191
3 263 261 192
3 253 191 37
3 191 192 37
3 4 132 134
3 263 139 132
3 132 139 134
3 263 132 275
3 275 132 4
3 275 131 248
3 248 131 108
3 4 119 275
3 275 119 131
3 5 264 156
3 156 264 9
3 5 195 264
3 264 195 9
3 118 250 7
3 7 250 184
3 118 81 250
3 250 81 184
3 97 227 203
3 222 164 216
3 117 164 67
3 59 123 222
3 222 123 164
3 123 67 164
3 67 120 52
3 52 120 59
3 67 123 120
3 120 123 59
3 254 114 43
3 43 114 156
3 254 227 114
3 114 227 156
3 203 234 20
3 20 234 254
3 203 227 234
3 234 227 254
3 117 223 159
3 159 223 45
3 164 117 268
3 268 216 164
3 156 276 5
3 5 276 97
3 156 227 276
3 276 227 97
3 117 163 268
3 117 159 163
3 163 159 262
3 159 45 111
3 46 187 111
3 111 187 5
3 46 195 187
3 187 195 5
3 262 159 136
3 136 159 111
3 97 130 5
3 5 130 111
3 97 136 130
3 130 136 111
3 75 206 203
3 203 206 18
3 75 220 206
3 206 220 18
3 216 210 228
3 228 210 185
3 216 268 210
3 155 18 220
3 220 0 155
3 13 179 79
3 79 179 29
3 13 244 179
3 179 244 29
3 185 140 245
3 140 40 245
3 104 113 22
3 22 113 0
3 104 40 113
3 140 0 113
3 113 40 140
3 0 198 155
3 0 140 198
3 198 140 185
3 185 210 194
3 194 210 268
3 194 155 198
3 198 185 194
3 163 262 194
3 194 268 163
3 155 146 18
3 18 146 262
3 155 194 146
3 146 194 262
