# vtk DataFile Version 3.0
A great-looking cell
ASCII
DATASET POLYDATA
POINTS 374 double
224.56437079719026 258.63596456675316 41.72793987387656
226.50403724784084 257.71995190424616 42.198390637189405
226.14101645162177 259.57138627216943 42.18406932976309
224.67939934447205 260.90204411187136 41.588494410474304
222.66457851997356 257.4113615017227 41.885250560565964
226.5382600630677 255.8649613738863 42.48027393425758
220.30953128351783 258.4427305059812 41.618982463925036
222.51313030667183 259.76382247204623 41.32318377105991
227.89329895976962 259.14378964382155 42.79433645985446
227.1098949424729 261.4536424739258 42.47958139726891
222.2689453530929 262.4522626270672 42.08674370258462
225.14229759273783 263.34013924118904 41.97356566308433
223.11777265863904 255.1120614852178 41.57709957725815
218.56432500490686 256.62817272449064 41.365061294864226
218.1946955034201 258.5103988478045 41.633089666165596
228.44111519914404 256.73377435445167 43.69763824250203
229.2295780931005 258.8676142256676 44.044507264666336
218.7683536180933 260.1946243104231 42.02760751647849
229.12950168876162 260.63137857977495 43.51856763196021
230.32321073749648 259.9268725685213 45.03667334590422
230.1487376024277 261.91070780770957 44.770183449483504
228.81212845221984 262.5064840486274 43.510119760381585
219.17209172992528 262.54781759037166 41.21224672196308
227.25057773652404 263.8619477680824 43.412971780280955
225.61925236326306 265.76227906091174 42.853044258111964
223.27980913636247 265.1848918252828 41.91336455311165
221.41082518247364 253.8824298393883 42.62681921423576
223.4377656454414 253.53639838662434 42.877145450296595
225.2283116646557 252.33300245856012 43.96448343818018
219.01683203770529 254.35844227795417 42.20880103878634
225.0775924613191 254.5480760743084 42.597177664817266
226.94394116129436 254.48713450153525 43.788192604418185
216.64591892123713 257.5615258127185 42.03554979998915
229.9543260912379 255.8633418622746 45.90255837631101
216.80607972770898 259.58212873080987 42.050128712562305
230.3696512093976 257.9008926479489 45.166266299930356
233.87417209190838 258.04819987285475 46.376004927221615
217.3358766652379 261.31346502409474 41.91403407359972
231.405192962259 261.1609855542263 46.32396007837635
230.45748467344455 262.7968286279311 46.329259070007815
235.8814540339415 260.28543235557123 46.95628978342851
218.1674597604438 265.12147077311107 42.13231329148569
229.13401671872936 263.92214915803396 45.0993497986782
220.74510205222128 264.9366279863938 41.5805826159759
221.81900402972337 266.8579744176052 41.96478582672851
223.82368806914542 267.63090279663453 42.51106108765794
225.6331646368286 267.7998789574193 44.22462579013783
218.2444398329066 251.48798814690244 44.89746501968941
219.71835738749655 252.24220038225587 43.49145647963249
216.90891187111154 252.78233467189781 43.31245895832638
216.70317783891076 255.30322220104838 42.12635352556712
227.6195898764002 252.9227863440219 45.33550554420537
228.3461190475505 254.84912782662505 45.148139803959765
215.1188635428075 256.5788650371195 42.674846099741735
214.82006862234002 258.73828484746474 43.15655762524915
235.7594354414807 255.7563379827629 46.931851377223076
238.43763541950472 256.39691695263576 46.58344762629719
236.62661583890036 257.9869664371033 45.691974517255666
215.39926532185117 261.1567223684256 42.547244989853986
238.00754475451683 261.5468524331696 48.57918514341745
214.65601205052607 263.10895390983814 43.72119717563835
216.69078495789032 263.1080887791691 42.32474225819119
231.6297750122572 262.67502894256194 48.2248822228636
233.07826092046625 260.189540280242 48.057161354895044
215.85045862906176 265.22827654022154 43.2830683261283
230.42467496384438 264.52071400571873 46.950747939423884
228.9357367527716 265.5322556900947 46.28657656809876
217.31766960858113 267.29107586261347 43.353484263717576
219.75584837439683 267.08765361179996 42.64505249225187
227.5817071458683 266.12047039492114 44.71544907623453
221.57506143954157 268.54605370121277 43.32004460555723
223.59814590980733 269.1461752000003 44.514921364004266
217.63997215505543 249.93423622440048 46.32938869214736
220.44217508724205 250.62890085248503 45.78665616079135
226.13552165908828 251.37319493813024 46.451522295684676
214.59614897828735 252.62191678461718 45.054937393566746
216.4737844419756 251.4541376702365 45.237065066537674
227.94919075741723 252.34713366291405 47.50073153650312
214.7008796803025 254.61839578212607 43.39906574234018
230.64404846082334 255.3604810114598 48.559003639556984
233.18119467906334 255.81676050825527 47.84378623276713
235.04507153890262 254.90764817224346 49.492905698351585
237.96219140409596 254.78465287407127 48.81021287897031
213.57151935325706 256.7313992010014 44.004630037567544
212.85267065253564 258.6247744425682 44.35932996637485
213.07229360145345 260.91828188985767 43.961708647630005
240.01258235239584 256.93267512474125 48.77678785092009
213.2147487788415 262.9240482108459 45.267187679864655
235.33163309197948 261.39737398132417 49.568752178711115
237.79884824498632 261.82398024378796 51.652461350626126
214.01079143913367 265.1839564956065 45.28566091471199
230.79522986987834 264.8503786624281 49.03292612435454
229.2994850539731 265.94019586318205 47.981070424129214
215.4979420076363 266.93264495403884 44.556818260876945
216.53163289755827 268.77670115297525 45.26349940457159
228.13268940999 267.0760186450369 46.751789877644974
219.05620458695887 269.43239613984946 44.16201693940245
223.42168577722833 270.64571632468363 46.5319351509627
221.39736997412018 270.25898580747105 45.069457729255326
225.5035732707569 269.346907697293 45.93100811422237
227.04093751187185 268.05573601824545 45.61349220278781
215.0877594812448 250.71478056929135 46.829955667932836
222.17946759118666 249.77917300482832 48.28049304555745
224.83196164748546 250.44511352374698 48.2697850126272
226.74981713047242 251.20027433794976 48.39324092907593
212.39135037799508 252.4435872917407 47.31851210425156
211.6032113913369 255.08519577821713 47.07345906978866
212.9407342731475 254.72121621296733 45.32323702196436
228.33313462114435 251.76924289147206 49.73158541584364
211.7261942211245 257.2317387396055 45.888072637681944
230.06960180418014 253.4421748222756 50.28250646336481
232.743013624676 255.984721179277 50.21330327097074
231.2725440060373 254.88287664527408 50.75048744063555
236.94820233462642 253.99472936851416 51.58749599292311
211.86034308925448 261.58740766963336 46.33675384085881
239.9943270003961 258.0820452267073 52.6325850348765
238.61273498063343 260.1755842890617 54.434902272167825
211.86609352817143 259.58421722813716 45.645682453215585
212.51511960627658 263.8018899706123 47.05569468458699
234.99917735312437 261.45956587687766 51.80601235902737
235.88708611666607 260.8293639485075 53.71338599005266
213.25570617548482 266.02708099621276 47.76060330211744
230.90382906270386 265.19481020449996 51.089573464226255
229.74136099263848 266.50760687315767 49.894915340738265
214.5569628920966 267.6329828819914 46.350013076453614
215.5838090406899 269.6529601700652 47.41276680988767
228.40561943961634 267.68117384500636 48.708095540745994
217.94720435421462 270.79604323426713 46.59533675048352
223.25158610470643 271.4723649811329 49.067738277099714
220.74364167920314 271.51709696120116 47.35759246877287
225.4224951206037 270.2742323739101 48.11803728799467
227.24271472655153 268.94631017050176 47.330046154323504
214.097641032487 250.5802059519149 49.48804538682089
215.96467553967454 249.39439210703202 51.29461675588674
218.1852717133973 249.2281332890599 50.461361871854265
220.81171646946024 249.24180572141825 51.13404457007177
223.90527368481065 249.60505778704967 50.53823514331449
226.24620839565685 250.53393004418828 50.140374641694976
211.7476296556862 252.16355635642785 50.61990570467981
227.5468577600267 250.96551040505022 51.650236655034625
210.9037854023654 254.57823144368302 49.17422846083417
210.77633062121163 256.67140358768734 48.04934918482054
230.60136798256914 254.0068373874472 52.351073796917454
231.89586241890504 256.00176152202 52.39754830861486
210.7995736661453 259.49155080582545 48.21109501372878
211.17421169480468 262.35765294683944 48.60435782857915
237.74977924075003 257.2043597016807 54.14217872339797
236.35709404884784 259.12803151666327 55.20990192638907
212.22365774461196 264.42754582605033 49.35593472618769
233.70981894130924 260.4797082317121 52.898667127612335
234.2095654575943 259.3802529456205 54.47804649201858
212.92018219323734 266.57947238306184 50.0638505464465
230.64656654488357 265.3857650869346 52.81194614905421
229.69920372759162 266.6348068173941 51.928982327684366
214.17673646372384 268.1260421227368 48.73574669542778
215.19321583578227 270.0863419888208 49.777801089749005
228.34901990732152 267.87088527506677 50.837345230722605
218.47694657129492 271.73180585116125 49.15356719014157
223.14305773143653 271.54548080347337 51.786178413026626
220.8362016069738 272.3198472069072 50.35606039655682
225.31450371295924 270.6576833177517 50.587005280889144
227.13184322788294 269.3345439123118 49.5678745134549
213.53625818483724 250.43056534332985 52.39886094410381
215.6972899821997 249.39574915834473 54.06230779832238
218.20523420454052 248.99772247797623 52.80159419290496
220.58955919726378 249.0865553365339 54.303660228626946
223.2200601320739 249.4165626191712 53.222878328083056
225.72069074108924 250.10722773687343 52.4161606639826
211.50760600033558 252.24118019413044 53.706491275867705
210.42853117015542 254.58278914337401 52.04887037917803
227.74856844375054 251.09692884125926 53.98896596348494
229.61434459145562 253.00084300792795 54.22110995848388
210.10194577383655 260.0181590865031 51.52343276598181
233.43233725257474 255.97449125594855 53.938546809849356
210.25458593780112 257.10200012624176 50.37051684137818
211.0635695139273 262.8346096466467 51.34597610428123
235.00835973471396 257.27983251224936 55.032460782117084
210.5587133723013 261.23043784313757 49.88242027104225
212.18856574575037 265.07129225824355 51.25554712486677
232.45140882502753 259.43480861016747 53.592326403832224
212.8633908340748 266.7173569175734 52.309599129820334
230.79553063571214 264.7855299007832 54.50295042429952
229.72716766170936 266.51615383646475 53.927916542337044
214.01477604977313 268.48895037594843 51.159235539873535
215.80460288120207 270.3749084939461 52.5605321268249
228.40230103284728 267.9415547913835 53.012495378045564
218.2871664872807 271.960802775063 51.95638725377108
223.2215640643397 271.6195246558794 54.44770924654488
220.88711215859902 272.20031051982005 53.154788226288765
225.1758830414106 270.53937985020576 53.10205855009545
226.98841975047952 269.3842167764604 51.901220011113864
213.36219793693292 250.55983489484453 55.34689246334976
215.57615231136484 249.5519506976336 56.916049023561406
218.05028731123554 249.05650752980563 55.6010224982294
220.37165268675764 249.13089799156606 57.102674421980815
222.78384240047492 249.62877498497474 55.94882693274545
225.3220711297097 249.91308077465328 54.98371546350028
211.5363545329045 252.41990491289283 56.6837000110045
227.11652933531235 250.84499807399771 56.65286215478891
228.77986512150804 252.08199652145004 55.92245728862652
231.0296451489755 254.92494906571267 54.38471213855228
231.3349844736056 256.3390457313202 56.52869355193135
231.75692404570228 256.79424555559706 54.08044385432206
210.17285957880526 260.2926783139591 54.72992137022943
209.90951188099385 257.35839019660335 53.444826656313325
211.0128310870164 262.7543691009862 54.09374451556704
210.48465343908774 261.51029352243194 52.92283350389085
212.05165998580924 264.71639796029774 53.213148520808126
231.3360932078781 261.9451377238957 57.2067565995482
212.8442894864717 266.5784208903317 54.629869900051325
230.60981729265515 264.08953946683636 56.59303259149261
229.54503472125472 265.9395141888957 55.95522894883697
213.8976981283447 268.49192783264914 53.54735930168398
216.6129024999511 270.9393215285087 55.28428428277004
228.42294475130007 267.71848843664725 55.217617280960894
218.73075628017116 271.8986599296252 54.48315247414093
223.15797257763967 271.04634183627286 57.027626940673514
220.9574241597332 271.9164577635138 55.80141364137843
225.1591918828145 270.2862562181756 55.60267491360448
226.86311652577388 269.1470100504419 54.242963685653294
213.39438389695874 250.855857443036 58.2305887652618
215.79055509553683 250.47458887327318 59.48906686980277
217.95522765422623 249.37461000186414 58.35615325449275
220.18741443177643 249.95481705152386 59.57048363686942
222.42272095229058 249.88200651391125 58.498104933273765
224.8440014584336 249.94056052956614 57.617049694011584
212.01176066142693 252.92060890862993 59.34084958790908
210.73206683596905 254.73544104983606 58.002522527699725
226.55546896606066 251.18954341914127 59.136467506276475
210.40633847132693 254.72355629305497 55.142671141923486
228.59777162997005 252.27703393351408 58.059428583681225
230.15699390240687 253.85784598754907 56.62606946226515
210.19157163128287 257.53511668191493 56.85294626697079
211.1531298869474 262.28076639910086 56.63115626338399
212.0875335221458 264.4586998156581 55.64907836097915
230.56317422873374 261.37280358576845 59.4235771612099
231.9323621953062 258.36258491363293 55.108029236437275
213.14404173077713 266.33480957694655 57.1117909214043
230.28103468866885 263.44498858258515 58.67980077567275
229.40931427008385 265.334175179934 58.06309040725781
213.98547171655147 268.2822466296277 55.860197281299826
216.53248212575804 270.4362530943448 57.96482980171562
228.45573777734316 267.29370537466804 57.46332756421181
218.66147769716997 271.51664800793907 56.967794481725136
223.0681195210174 270.1509595723409 59.50607392365037
220.93667704589478 271.4209552535745 58.43673548832427
225.128548580352 269.7290548673882 58.05657380726492
226.90315969402405 268.8515444063897 56.60193323664677
213.96530399355328 251.89832792014477 60.68508077644202
218.0282548919925 250.54705220714737 60.69353126883001
220.0364760154999 251.62129540119403 61.18770413327032
221.94260717911808 251.30898271282766 60.25223653946797
224.17040646734867 250.81955507345222 59.90616296700115
212.75155872446203 254.03751758487684 61.55309628108885
225.54181733345354 252.37861963185122 61.06239964614113
211.75298994684516 254.89633768731613 59.873542541926874
210.95087655156215 256.6055057702062 59.474079687788034
227.52347218276756 253.31489658225854 60.01822459215696
210.7738103812506 258.91325163145524 59.391973905679265
230.43494102461048 256.6241919651618 59.35793975721249
211.54670404676654 261.5924710436189 59.490631668526724
210.49475968969656 260.1857397480043 57.47284754403107
212.41054562235578 264.0438756193026 58.19988277742807
229.03382666080208 261.3396455457011 61.19255080283273
213.77930234341676 265.8324204375898 59.636130812455555
229.18441362890627 262.68905924659816 59.93538527578109
228.79943697665897 264.4162489835249 59.83141226297618
214.7856443424744 268.281229638188 58.423103202673715
216.8700979413814 269.08964671685874 60.14651985839538
228.0975202684772 266.4319981518309 59.58704034188596
218.6418993738149 270.7132378860111 59.451609673959126
220.7760657840061 269.9394942301607 60.59285354303958
225.0078044198076 268.7346977398869 60.342883698334255
226.79347091808057 268.1804120059745 58.864056672143406
217.14597205996517 254.33968576052646 62.28822868823446
218.32496814908797 252.538774086323 61.42073170861532
221.60075747789566 252.45400452666365 61.69267300295341
223.35580776737794 252.25316647996468 61.43169259912497
214.95143885604452 253.60246728718872 61.72634603738514
222.45739768098048 254.1143242194111 61.668444908910985
224.36096151602828 253.69601101186916 62.14470662753997
212.79292332152727 256.25366028706355 60.66558174071857
226.37516511510626 254.45565929352705 61.96637813825303
228.42638831405887 255.39976615931607 60.80904147531204
231.26525937842885 259.1851141006767 57.69871568468031
228.65973352860158 257.49545298995514 60.95567095590883
211.4456304410388 257.7154463028398 61.0656215067826
213.42841233131102 261.4141382907054 61.5142784854544
229.9492093726359 259.214005116094 60.421510563642364
212.28399938350478 259.5426633865571 61.06731633348709
213.36228100892015 263.46656218217765 60.46972642207504
215.10311191606436 264.7259474945033 61.59415495453956
227.2512164989684 261.7174881118172 62.06935048087283
228.04729584362508 263.2461552206117 61.26505777105543
215.99476678805374 266.7879588941896 60.50620164772082
218.1442907461601 267.3923069639625 61.29579644964382
218.84431168106894 269.214422216003 60.96407227320397
222.671691697008 268.18388091653406 61.350441747374525
220.23347848612218 267.93859917422134 61.673179331668194
225.95856668005408 266.68416701840084 60.16848729247987
220.01713908653016 253.82509490962266 62.159055106893284
221.5112877573415 255.91745892799455 62.833233212581476
214.62434978010563 255.8385979703457 62.2366371755003
226.5609738655414 256.9109359222442 61.524685028968115
213.15700511197466 257.80089168703125 62.211228150314675
215.82620056112876 260.8100658097824 62.28710335649335
213.95330040348972 259.59376403994 62.075316217245415
214.93433717066176 262.6826873895826 61.41763791033599
225.40590296457475 261.06082035495865 62.14700669749513
227.39597315248002 259.4738630592677 61.650122725986
224.31591445913904 264.485752082917 63.376203933353864
225.79073245167558 263.3214211074158 61.8529233985788
217.43264844445602 265.26506609349343 61.69681451766577
219.5195859685751 266.0317435065067 62.721369234845355
225.3606052930732 265.5907055499635 61.84094446497483
226.88174818909553 264.8399549704853 60.53785572252957
221.4520904672544 266.33494892569837 61.91145565463899
224.36831919273317 266.95497638259184 61.02083599882407
219.03690832889944 256.2868153943813 62.341971827173246
224.0706397660831 255.91550255583746 62.1193591874455
215.40483945119527 258.2634134012503 61.88003998315805
216.85530194579687 256.71218974572116 62.13316140371156
218.06246971364743 258.83407501522 61.93206038008383
224.56744066646664 258.7184475455623 62.11526938391308
223.62370763450224 260.63332462686657 62.52586688899775
216.87746448248268 263.06041102306796 61.50689359287517
218.7941752505963 263.69317207357193 62.93282166078009
223.83801904595472 262.49139656470413 62.82434729505625
223.32855157683088 266.0782765995725 62.30398275523958
222.6249459597973 257.6051668674863 62.34555182396635
220.67796099318073 258.0188763809381 61.84068095131798
218.35755928350116 261.47573620120824 62.19491668659038
231.4926323919623 257.2499273772554 47.0083332288447
220.19417599925234 262.18835066192645 62.81599293817414
216.3726596879765 252.25203900331078 61.019853234979145
229.62352746466178 254.20756143898743 59.05378628643185
221.66743123473154 264.15355899230497 63.12958032572473
231.97638469533132 260.4911682411635 55.35870940212717
221.9753378411843 261.513812337755 62.74139084575342
232.08174466495956 261.19357736963707 53.31578131211647
231.60292792402356 262.727124483498 54.95646339123545
233.22627808732892 257.88882783298595 53.53955138140872
231.53498037585538 263.4517483532162 52.5616835576295
220.243999061514 260.21974851614317 62.45305878887448
229.10852288110624 252.2571210480589 52.03665969759919
222.28255336126307 259.4328684535047 62.46020205339662
232.5572168136053 261.15578962699124 50.856345034282114
234.1824520793248 254.95536329764076 52.00226061497244
238.4164151528266 254.7815598845881 53.61066828420259
219.32030813778144 249.67566167454595 48.44254444138503
219.7706021882368 270.63731552862436 45.715354862039554
216.6458500049675 249.62135085699836 48.74925429627397
231.53365451011828 263.4860158970973 50.349894281132904
215.16985375822406 269.7289588974186 56.51502579346033
240.1150090295292 259.77035378548254 50.08568780981684
231.81818532009805 259.0877938586387 46.239584316591845
229.31369276781825 253.31202985000297 48.528687644402716
230.679282736076 255.1348006321856 57.986018363113764
214.95575816176805 269.7039196681575 54.759347815749855
223.56563192734825 250.86360521143712 46.00321593222572
238.67915700332009 259.09055283174007 47.23968082212172
217.29256741239206 271.4148792185805 53.57552043862946
216.8023948603269 270.6816162835411 48.67291777181931
229.0271343086617 254.0692973398647 46.80083478943374
240.0197338126312 256.12596706090017 53.89198146397665
222.3207252383868 252.03482906383874 43.932300032892265
216.7805231700629 271.19920343663296 50.40632286521481
239.98056842394675 260.5239424998102 52.443225216704924
224.74656300616005 256.5472606502203 42.06440408858911
235.86674414045123 254.84858934894805 54.24813315536632
220.8584740680234 255.9044377184046 41.506741769740295
220.60739618782276 260.67990675070047 41.707505980553975
240.90260003347902 257.4825964922831 50.71917892029019
240.20037580052494 255.09038669076764 51.37943726848874
POLYGONS 744 2976
3 2 1 0
3 2 0 3
3 9 2 3
3 9 3 11
3 7 4 6
3 7 0 4
3 1 2 8
3 371 6 17
3 371 17 22
3 0 7 3
3 8 2 9
3 10 7 371
3 10 3 7
3 3 10 11
3 14 17 6
3 8 18 16
3 18 8 9
3 16 18 19
3 19 18 20
3 9 21 18
3 21 20 18
3 10 22 43
3 43 25 10
3 10 25 11
3 11 25 24
3 11 24 23
3 26 12 27
3 29 13 370
3 29 370 26
3 26 370 12
3 12 368 30
3 28 30 31
3 30 368 5
3 30 5 31
3 50 32 13
3 13 32 14
3 52 15 33
3 34 32 54
3 34 14 32
3 14 34 17
3 19 38 355
3 38 19 20
3 63 355 38
3 20 21 42
3 21 23 42
3 42 23 69
3 23 24 69
3 43 44 25
3 25 44 45
3 46 24 45
3 24 25 45
3 48 26 365
3 365 26 27
3 47 49 48
3 48 49 29
3 78 53 50
3 50 53 32
3 56 55 57
3 55 36 57
3 36 40 57
3 56 57 360
3 57 40 360
3 34 54 58
3 34 58 37
3 360 40 59
3 58 60 61
3 58 61 37
3 37 61 22
3 38 39 62
3 42 69 66
3 65 42 66
3 65 62 39
3 39 42 65
3 41 64 67
3 43 68 44
3 69 24 46
3 96 68 67
3 49 76 75
3 49 75 78
3 76 47 72
3 47 76 49
3 104 74 77
3 74 28 51
3 74 51 77
3 78 75 107
3 53 83 54
3 81 55 82
3 82 55 56
3 54 83 84
3 111 79 80
3 80 79 332
3 346 62 352
3 62 346 63
3 346 88 63
3 89 354 59
3 59 88 89
3 60 87 90
3 60 90 64
3 65 66 92
3 91 65 92
3 91 352 62
3 62 65 91
3 64 90 93
3 64 93 67
3 69 46 100
3 95 69 100
3 95 92 66
3 66 69 95
3 67 94 96
3 96 98 70
3 351 72 349
3 349 72 73
3 132 105 101
3 101 105 75
3 104 77 108
3 106 109 107
3 107 109 83
3 143 112 111
3 111 112 79
3 88 119 89
3 119 120 89
3 91 92 123
3 122 91 123
3 122 342 352
3 352 91 122
3 90 121 124
3 90 124 93
3 95 100 131
3 126 95 131
3 126 123 92
3 92 95 126
3 94 125 127
3 94 127 96
3 105 140 106
3 162 138 132
3 132 138 105
3 106 140 141
3 106 141 109
3 109 141 144
3 109 144 117
3 143 142 112
3 119 149 120
3 149 150 120
3 122 123 153
3 152 122 153
3 342 122 152
3 121 151 154
3 121 154 124
3 126 131 161
3 156 126 161
3 156 153 123
3 123 126 156
3 191 168 162
3 162 168 138
3 143 200 142
3 149 179 150
3 152 153 182
3 181 152 182
3 181 340 342
3 342 152 181
3 151 180 183
3 151 183 154
3 156 161 190
3 185 156 190
3 185 182 153
3 153 156 185
3 168 229 169
3 220 197 191
3 191 197 168
3 169 229 204
3 169 204 174
3 337 236 179
3 181 182 211
3 210 181 211
3 210 208 340
3 340 181 210
3 180 209 212
3 180 212 183
3 185 190 219
3 214 185 219
3 214 211 182
3 182 185 214
3 248 226 220
3 220 226 197
3 197 227 229
3 210 211 239
3 238 210 239
3 238 235 208
3 208 210 238
3 209 237 240
3 209 240 212
3 214 219 247
3 242 214 247
3 242 239 211
3 211 214 242
3 213 241 243
3 213 243 215
3 226 255 227
3 278 253 248
3 248 253 226
3 227 255 256
3 227 256 232
3 284 259 201
3 238 239 266
3 265 238 266
3 265 263 235
3 235 238 265
3 237 264 267
3 237 267 240
3 242 247 273
3 269 242 273
3 269 266 239
3 239 242 269
3 241 268 270
3 241 270 243
3 279 276 277
3 277 280 279
3 285 259 288
3 259 284 288
3 309 285 288
3 309 288 263
3 265 266 293
3 263 265 293
3 264 291 294
3 264 294 267
3 269 273 299
3 315 269 299
3 315 293 266
3 266 269 315
3 268 295 296
3 268 296 270
3 278 274 302
3 281 304 286
3 281 302 304
3 303 309 323
3 305 325 307
3 309 263 292
3 309 292 308
3 308 292 311
3 292 293 311
3 291 325 312
3 291 312 294
3 310 311 314
3 315 314 311
3 314 315 299
3 315 311 293
3 295 313 298
3 295 298 296
3 298 313 316
3 328 314 317
3 297 328 317
3 317 314 299
3 318 321 274
3 302 320 304
3 302 274 321
3 302 321 320
3 321 322 320
3 319 323 329
3 320 322 305
3 323 308 324
3 327 311 310
3 327 310 336
3 308 311 327
3 325 326 312
3 310 328 336
3 313 336 316
3 316 336 328
3 329 330 301
3 329 323 345
3 322 330 343
3 338 345 324
3 326 333 336
3 338 327 336
3 338 324 327
3 308 327 324
3 326 336 313
3 329 345 330
3 0 1 368
3 368 4 0
3 370 13 6
3 368 12 4
3 13 14 6
3 1 15 5
3 8 16 15
3 15 1 8
3 37 22 17
3 9 11 23
3 10 371 22
3 9 23 21
3 29 50 13
3 48 29 26
3 27 12 30
3 30 28 27
3 15 16 35
3 35 33 15
3 37 17 34
3 16 19 35
3 19 355 35
3 63 40 36
3 20 42 39
3 20 39 38
3 43 22 41
3 27 28 365
3 49 78 50
3 50 29 49
3 33 363 52
3 52 363 51
3 54 32 53
3 355 332 35
3 80 332 36
3 36 55 80
3 38 62 63
3 63 88 40
3 40 88 59
3 61 60 64
3 41 22 61
3 61 64 41
3 68 96 70
3 70 44 68
3 71 45 70
3 70 45 44
3 71 99 46
3 46 45 71
3 73 72 47
3 47 48 73
3 101 75 76
3 76 72 101
3 78 107 83
3 83 53 78
3 81 111 80
3 80 55 81
3 79 33 332
3 82 56 86
3 56 360 86
3 85 54 84
3 85 58 54
3 87 60 85
3 85 60 58
3 93 94 67
3 97 71 98
3 98 71 70
3 97 99 71
3 46 99 100
3 351 132 101
3 101 72 351
3 73 359 102
3 102 349 73
3 105 106 107
3 107 75 105
3 347 143 111
3 111 81 347
3 113 81 82
3 117 84 109
3 109 84 83
3 114 85 117
3 117 85 84
3 118 87 114
3 114 87 85
3 118 121 90
3 90 87 118
3 124 125 94
3 94 93 124
3 128 97 129
3 129 97 98
3 128 130 97
3 130 99 97
3 100 99 131
3 131 99 130
3 133 162 132
3 132 351 133
3 137 103 104
3 138 169 140
3 140 105 138
3 137 104 108
3 108 139 137
3 143 347 173
3 113 348 369
3 145 114 144
3 144 114 117
3 148 118 145
3 145 118 114
3 148 151 121
3 121 118 148
3 154 155 125
3 125 124 154
3 159 129 157
3 157 129 127
3 158 128 159
3 159 128 129
3 158 160 128
3 160 130 128
3 131 130 161
3 161 130 160
3 163 191 162
3 162 133 163
3 169 138 168
3 169 174 140
3 174 141 140
3 202 200 143
3 143 173 202
3 172 144 174
3 174 144 141
3 175 177 172
3 172 177 144
3 175 145 177
3 177 145 144
3 178 148 175
3 175 148 145
3 178 180 151
3 151 148 178
3 183 184 155
3 155 154 183
3 188 159 186
3 186 159 157
3 187 158 188
3 188 158 159
3 187 189 158
3 189 160 158
3 161 160 190
3 190 160 189
3 192 220 191
3 191 163 192
3 196 166 167
3 229 168 197
3 196 167 170
3 170 198 196
3 200 202 201
3 203 172 204
3 204 172 174
3 205 206 203
3 203 206 172
3 205 175 206
3 206 175 172
3 205 207 175
3 207 178 175
3 207 209 180
3 180 178 207
3 217 188 215
3 215 188 186
3 216 187 217
3 217 187 188
3 216 218 187
3 218 189 187
3 190 189 219
3 219 189 218
3 221 248 220
3 220 192 221
3 226 227 197
3 232 229 227
3 232 204 229
3 261 203 232
3 232 203 204
3 261 233 203
3 233 205 203
3 233 234 205
3 234 207 205
3 234 237 209
3 209 207 234
3 245 217 243
3 243 217 215
3 244 216 245
3 245 216 217
3 244 246 216
3 246 218 216
3 219 218 247
3 247 218 246
3 334 278 248
3 248 221 334
3 252 224 225
3 253 281 255
3 255 226 253
3 252 225 228
3 228 254 252
3 256 258 232
3 258 261 232
3 260 261 258
3 260 233 261
3 260 262 233
3 262 234 233
3 262 264 237
3 237 234 262
3 271 245 270
3 270 245 243
3 297 244 271
3 271 244 245
3 297 272 244
3 272 246 244
3 247 246 273
3 273 246 272
3 274 278 334
3 251 252 277
3 277 276 251
3 253 278 302
3 302 281 253
3 281 286 256
3 256 255 281
3 283 335 259
3 259 285 283
3 289 258 286
3 286 258 256
3 287 260 289
3 289 260 258
3 287 290 260
3 290 262 260
3 263 293 292
3 290 291 264
3 264 262 290
3 294 295 268
3 268 267 294
3 298 271 296
3 296 271 270
3 298 297 271
3 317 272 297
3 273 272 299
3 299 272 317
3 250 276 300
3 300 276 279
3 279 301 300
3 279 280 319
3 319 301 279
3 283 303 282
3 282 303 319
3 303 283 285
3 285 309 303
3 306 289 304
3 304 289 286
3 305 287 306
3 306 287 289
3 305 307 287
3 307 290 287
3 307 325 291
3 291 290 307
3 312 313 295
3 295 294 312
3 328 297 316
3 316 297 298
3 274 300 318
3 300 301 318
3 319 329 301
3 319 303 323
3 320 305 306
3 306 304 320
3 309 308 323
3 326 313 312
3 310 314 328
3 318 322 321
3 318 301 330
3 330 322 318
3 345 323 324
3 343 331 322
3 322 331 305
3 331 343 333
3 333 326 331
3 331 326 325
3 325 305 331
3 343 330 345
3 343 338 333
3 333 338 336
3 1 5 368
3 7 6 371
3 6 4 370
3 370 4 12
3 52 31 15
3 15 31 5
3 52 51 31
3 51 28 31
3 359 73 365
3 365 73 48
3 74 359 28
3 28 359 365
3 356 77 363
3 363 77 51
3 363 79 356
3 363 33 79
3 354 360 59
3 354 86 360
3 103 359 74
3 103 102 359
3 104 103 74
3 110 108 356
3 356 108 77
3 112 110 79
3 79 110 356
3 347 81 113
3 346 352 342
3 119 88 346
3 134 351 349
3 134 133 351
3 135 349 102
3 135 134 349
3 103 136 102
3 136 135 102
3 136 103 137
3 167 137 139
3 139 170 167
3 110 344 108
3 344 139 108
3 110 142 344
3 110 112 142
3 369 347 113
3 369 173 347
3 147 146 116
3 116 146 115
3 339 346 342
3 149 346 339
3 149 119 346
3 134 164 133
3 164 163 133
3 165 164 135
3 135 164 134
3 136 166 135
3 166 165 135
3 137 167 136
3 167 166 136
3 171 170 344
3 344 170 139
3 200 171 142
3 142 171 344
3 150 176 147
3 147 176 146
3 339 342 340
3 179 149 339
3 164 193 163
3 193 192 163
3 194 193 165
3 165 193 164
3 166 195 165
3 195 194 165
3 195 166 196
3 225 196 198
3 198 228 225
3 171 199 170
3 199 198 170
3 171 231 199
3 171 200 231
3 231 200 201
3 150 341 176
3 202 173 341
3 341 173 176
3 337 340 208
3 337 339 340
3 337 179 339
3 193 222 192
3 222 221 192
3 223 222 194
3 194 222 193
3 195 224 194
3 224 223 194
3 196 225 195
3 225 224 195
3 199 230 198
3 230 228 198
3 231 230 199
3 236 201 202
3 235 284 208
3 284 337 208
3 236 337 284
3 222 249 221
3 249 334 221
3 250 249 223
3 223 249 222
3 224 251 223
3 251 250 223
3 251 224 252
3 277 252 254
3 254 280 277
3 230 257 228
3 257 254 228
3 230 335 257
3 230 231 335
3 249 275 334
3 334 275 274
3 250 275 249
3 251 276 250
3 257 282 254
3 282 280 254
3 335 283 257
3 283 282 257
3 250 300 275
3 300 274 275
3 282 319 280
3 345 338 343
3 116 120 147
3 147 120 150
3 116 89 120
3 332 33 35
3 41 67 68
3 68 43 41
3 202 341 236
3 201 236 284
3 288 284 235
3 235 263 288
3 236 341 179
3 179 341 150
3 113 373 348
3 186 366 184
3 184 366 155
3 186 157 366
3 155 362 125
3 155 366 362
3 362 366 157
3 215 361 213
3 213 361 184
3 215 186 361
3 361 186 184
3 184 358 213
3 212 240 358
3 125 362 127
3 127 362 157
3 213 353 241
3 240 267 353
3 183 212 184
3 212 358 184
3 358 240 353
3 353 213 358
3 98 350 129
3 129 350 127
3 98 96 350
3 350 96 127
3 268 241 267
3 241 353 267
3 173 369 176
3 146 369 348
3 86 373 82
3 82 373 113
3 176 369 146
3 201 357 231
3 231 357 335
3 201 259 357
3 357 259 335
3 63 36 355
3 355 36 332
3 115 372 354
3 354 372 86
3 115 373 372
3 372 373 86
3 354 367 115
3 115 367 116
3 354 89 367
3 367 89 116
3 348 364 146
3 146 364 115
3 348 373 364
3 364 373 115
