# vtk DataFile Version 3.0
A great-looking cell
ASCII
DATASET POLYDATA
POINTS 502 double
250.86791259925667 232.7302753784371 16.902426622415984
253.10025588489705 232.00601248150147 16.496861482346187
251.8496480856788 234.18951962978176 15.279421953068233
251.30936356125088 231.0300745703624 18.269936638321624
254.7191784691564 233.82651268681695 14.855239692770494
249.4679554980088 234.43681073644262 16.582345878982885
250.63375828777524 236.6763248320145 15.515536993470885
253.44892759290573 236.67354353295391 14.121016884582883
256.415522701074 236.0000860793755 13.768153186612313
251.89293893822185 238.72666902554465 15.107332469099878
249.6094414148517 230.47498663383467 19.68046166917082
248.61427102827244 231.96997447075867 17.85069195371794
246.82463944682507 232.83646512854133 19.406622036381005
247.2681832815917 234.5229649893778 18.054360142505196
257.70606646103676 233.73186085146156 15.107964252756709
248.12276770682323 236.8301563583605 16.83956986046821
257.5675655312212 238.7266639840622 13.646372739809308
249.47038023459717 239.26969998821994 16.03835230354076
254.46041408230133 239.79454949889086 14.497419573449166
257.397884968486 241.4312502129823 15.115406244675759
251.91739396091998 240.838823278429 16.54332228305991
254.70380616697767 242.17596219667485 16.923105256238294
247.52088461400942 230.9929673047198 20.260713206109703
245.47858575597166 232.25045454853012 21.11215067396736
245.32620360893335 234.48198656486537 19.81898748809781
260.1080166377426 234.0919837813771 15.924682832033245
245.81035080058942 236.8100832275224 18.49865144766706
259.7023567916133 236.04016596738464 13.942282462497895
262.7162612379193 235.26586826225127 15.553790683047712
260.6941881579882 239.06438487321063 13.853088961540177
246.72970036038564 239.422399400292 17.389328745826308
249.0286077144683 241.66955985833798 18.423365435212236
252.16921555233026 242.85094678862205 18.85780997755542
257.4857287675549 243.04756560758128 17.53244800120892
258.7607315549849 244.49105136292016 20.010565290908467
252.3501539222606 244.10938627593754 21.16539955113016
255.10823275776892 243.90325067709898 19.899463746741414
253.80935288086062 245.43459395222297 22.44261903266159
252.98787926084972 247.50571941622238 24.014833660278416
253.04489261419917 250.0959829837879 24.620919855020777
254.13462001464168 230.2380944412548 18.72906793191643
251.7451860326072 229.6839885048443 20.63605417432573
258.89310092227606 232.29400740892967 17.323430335837497
259.70603601289247 232.42692742213228 19.66081870211399
246.5448427948292 230.3452408786566 22.646219070303456
244.30900921559638 231.71701580585147 23.49898457064897
261.40607103942705 233.41332224588427 17.93498593973949
244.11003463028624 236.76184632257895 20.811397448801642
265.72651521485136 238.88405386590912 18.134300054319535
244.7407586829771 239.1396978198674 19.524966479687308
262.6233871639525 241.34733196255453 16.551013627179085
243.93937858305355 241.0221359321513 20.533755451842193
262.5715283898459 242.86159863824008 18.92510662610134
245.78846962324826 241.5947038351028 19.110908915715488
247.02197233969946 244.04610256902043 19.962930471506446
261.481048977026 244.3009875626069 24.553914167896902
248.10034107192186 246.04493213382725 21.66317809463391
249.9460340156131 244.23055398525827 20.342692808784143
256.5140519143458 245.02606854756272 22.482515090175006
259.19105207842125 245.00587073908508 23.15709221553369
257.1762700387958 245.58177084343328 24.82589558384469
251.00479143028062 246.53493026841863 22.127319646978464
250.8806395377438 249.0997696041195 23.773085006002702
255.085970937853 246.22163314536485 24.398207479212648
256.2641977371785 247.2061337270231 25.58320471010565
254.9243048054296 248.54377384709954 25.061860881310157
253.1875504159443 252.59890554158667 25.475300920450614
254.90618309251678 250.78722166418692 25.96707596389607
250.97374320466815 251.70040734729784 24.51235221182533
249.12519710936158 229.65700419701264 21.89404811909659
254.94035029250742 229.30137593283968 22.070182349692875
264.2935080815755 234.74538730409037 18.807210704321985
243.8066513574977 234.22250612089553 22.15585048771296
266.7645683014617 239.73553357840524 21.38614088312002
243.2062042313748 239.18964996322626 21.749399930624193
243.39482808707103 241.53209477395245 22.592251378626262
264.41662458838874 241.98055202531708 21.038813502796625
261.7375594067618 244.0870402303542 21.408145629598877
244.6017821798188 243.10425086114702 21.079055424795406
245.59358954055972 245.29578200524858 22.231721870976724
246.72857222297097 246.91370317315372 23.43891033868177
259.171832259776 245.0665561558694 25.8572598404218
248.5560141711331 248.23726681279052 23.04849272290306
257.4772922337997 246.5648456842841 26.835079489550363
248.99606090569173 252.65212413120108 25.136850324209483
250.80606783490538 254.4345790884811 25.819892859861348
248.25707490221825 229.22910889061959 24.958274048757232
257.5184305140377 230.04698059151943 24.555495622560024
245.79746735368607 230.3452564072406 24.91860464550052
244.24695748619993 231.57228246095104 26.207606647171907
243.07855086652572 233.86431664660972 24.99460615852519
243.00418742580462 236.90282405914851 23.810846076575903
262.0509121518106 232.70603541870346 23.904903509236078
264.8418140210625 234.36862583307345 22.627475045912675
242.68984331790864 239.85146488990878 24.252369518141005
242.87300610571899 242.0279772484441 24.63920780304845
266.04559381604656 241.76493810848592 24.173031892450528
263.81180985792685 243.67407843444357 23.36132979487275
263.8578316102552 243.70125037417372 26.167711909745773
243.92061091659087 243.7277006981913 23.570257895798786
261.1569890906306 244.39858615915364 27.383791838087717
246.47939312249818 248.92937171361768 25.100540907280728
247.0038421511833 251.70687988917356 25.860811590636477
248.7312075505829 250.50470717014494 24.316873943117248
259.0733586808211 245.74370672699342 28.21401132247334
257.9038256390611 247.80634445948937 28.819570515886863
256.50637019104926 248.999768222506 26.964531920287197
256.1563615567488 251.28645214992946 27.500809910661328
254.79948370284768 252.72222296997234 27.159090166039643
253.11810123359166 254.154992919076 27.386621198214193
249.4930752135781 255.07252300255035 28.013640420503236
250.81339086806486 228.52551114848663 27.1730556581525
253.7716836298305 228.5936128412687 28.9215435403695
248.3445295583641 228.59224373156553 29.72968388076674
246.13166483033805 229.6007271981703 27.409134686674122
244.15529983096656 231.25800270712077 28.617866371235028
243.1366944405879 233.46404322395279 27.912680986872708
261.3313831287906 232.77612128123232 26.691747856622516
242.22560246182098 236.01352776456625 26.776736964863805
242.14919117663345 238.40721805695676 25.99891676099957
266.6345885425697 236.0225144158927 27.418306596466948
242.19093552442698 240.98036224097956 26.888850567679757
266.81143250053384 237.1097136924583 23.76456228299936
267.17985936312175 239.2849948330336 26.061679665814307
243.26111279793074 243.70712423890046 26.15590757614816
243.3922162021348 245.92699500065837 27.85515504704103
263.27505653050895 243.62330363935592 29.613892981416488
244.59360727556174 248.19729629136225 27.230595094613836
260.3392649968318 244.61231249488233 29.909525984971932
244.8612970754077 246.09899883687925 25.089171435038068
258.6724305193399 246.30675324737325 30.430384072183838
245.777237756646 250.26896264652163 27.52423774898702
257.37529134210797 250.56697745091765 29.372495631760284
248.20577570319026 253.7277418133083 26.951260659184495
255.9000566599473 252.66245735822008 28.917883906295692
254.71887519568082 254.08482437319307 28.455931699207817
251.52336230128273 255.64168819584654 28.33617359262029
256.74199535626974 229.27917513916088 27.82965772977929
245.41800026166496 230.0661873909978 30.42613598046903
242.29268315490768 235.57287997257936 29.69088229768374
260.3777753841998 232.4535847981522 29.146532203796944
263.00455915616067 233.60185527505033 28.99975451496405
265.0778253629985 235.13182128736864 30.577034264249015
241.63529388489064 240.8265168651407 30.114789566889836
266.79240785953294 238.96613086500392 29.188216907523884
242.03265753469933 238.29103742777968 28.527545818173245
265.721666080605 241.51965110664236 31.446449378619935
263.4660505454322 243.09270884586775 32.21616950312202
242.10604472237299 243.54133429236683 28.80782469579147
242.61326030249703 245.81690492244894 30.589643713336628
261.35516976031533 244.1394811695737 32.16081980274021
243.5102077093775 247.93977810562046 29.485266524771447
259.4980681436165 245.1734856500728 31.738823109454273
245.25574803927182 250.98748948307744 29.6309476290356
244.669177585282 249.39134620371473 28.9238055305122
258.969911906537 246.92772059924718 32.55683308627042
258.2787102824766 248.61781187085109 31.122627364870898
257.72778460239806 250.86987709554091 32.13502155299288
256.7200109688655 252.76153786520834 31.0002363521296
255.1059954338087 254.1397373493231 30.249968586727057
246.433190337673 252.4895472790776 28.283707002269406
253.26590892421626 254.7248094396463 29.483668984495566
249.79674224591142 255.71884153469844 29.93746023013428
247.73181156103524 254.4685337525706 29.543200935001575
251.84269987327156 255.91121465198754 30.646407009949872
250.15790831416325 228.1857439886932 32.929874868888135
253.29236370231746 228.4270312999846 31.913049955340767
256.065603153113 229.2660364728534 30.842590939769075
244.7946825519323 230.60806629234293 32.77511659278757
243.2582505267084 232.65783789103514 31.20675675598561
242.5609238182594 235.38099192425403 32.01805431763675
241.87137692956506 237.9246885132105 31.698021576984672
266.483660534203 237.93236664098396 32.22906408664141
241.7318467940241 240.7954020384494 33.14176774218042
265.6133702163143 240.18237063192765 34.21842520835936
241.75659724433407 243.39603024477094 31.759624014515975
241.1968211144809 246.0941675393981 33.266139822830034
262.3792490292583 243.1984306851889 33.65959978541727
242.56412770718592 248.28338437971397 31.943901283334515
243.71423919427855 250.0467476266865 32.44534024788805
244.4254046436348 249.4120725278177 30.804592557203925
259.63161723048904 245.22123783705115 33.52691572414133
259.3255940280842 247.15982716463537 34.97256471241485
246.2643280911138 252.65063169094066 30.70924148025772
258.9665682137612 249.186649704532 33.440250610371855
257.9127735429092 251.1077129193198 34.4996068150325
247.3815681526838 254.06319121195853 32.03814537537445
257.2043876337009 252.98376460711955 33.355886623989896
255.6187717560159 254.39777349177712 32.38930888186637
253.7882607117161 255.36681741068384 31.50870259891872
250.1576573977517 256.0035563607727 32.034817011076555
248.58700889147968 255.3300458221591 31.354191250379472
245.55740359378936 230.11837323338975 35.122122206932396
258.13443391264104 230.63051666335093 32.81296802245718
243.88584681939295 232.11188044965255 34.283275977827415
242.89621582886298 234.31443190736385 33.8467092411963
259.9526783631708 233.27757077877425 33.459139422344535
263.0657759842723 234.1348645588532 32.98407544846967
261.5700037440187 234.62467015540722 35.47634361260157
242.2561303704965 238.44112497259502 34.64887076200353
264.96199091830795 237.7122582295751 35.48038047892442
242.5205909847408 236.41932263768481 33.64296390448508
241.8665790687864 240.89168009962012 36.01299753922593
263.45477027683063 240.34358045637052 36.04458909353155
241.14060356859872 243.28084694057577 34.608065609023186
240.45669351535594 245.5664259055434 36.163608318271876
262.16572718209585 242.63666866885848 35.47374546913425
241.01748935216943 247.96396303920704 35.22491357393937
259.39500799032436 245.9179729621424 36.9892261424117
246.15732251383363 252.44632718384884 33.00018600264497
258.5534763283631 249.4294947928199 35.7385442205404
257.8776004887531 251.2278070746699 36.66590118224006
245.15559951812102 251.04903111785157 31.762636140132805
247.33582273817018 253.83140348901878 34.32809518815228
257.1585060399917 252.92269870853738 35.6585205811134
255.66454853048037 254.2075067366144 34.67191010638439
254.10712827720653 255.53683025069844 33.7521737620664
250.32030739523347 256.1959236665587 34.218033347046884
248.5777583108141 255.3339509316184 33.26207960598778
252.11583075662335 255.99622504516674 32.869524195981555
252.74089317366747 228.39251247413392 35.006085852742785
255.1098808395593 229.11061869384628 35.91922434575858
257.1806403073052 229.97684862434636 35.419024915214614
246.34631075080324 229.80582610837845 38.23172555517634
244.26511201365327 231.80973512388616 36.86123423183576
258.82276855657716 231.5180779476013 35.05267037994931
259.59541352001844 233.1835340788501 36.27798649808424
243.34292053278622 233.61111795094254 35.80668846765547
242.840659784445 235.97673083828178 36.023226738990225
242.41549256594317 238.55875379591043 37.40089571496893
262.58943003225704 236.64653788887748 37.12255916325975
241.5769053301533 240.8066870748015 38.7923121621895
261.8884185692766 239.23334245784508 38.12929014503465
261.3353424567862 241.5690282880631 37.338352844407844
240.928065072443 243.12322843548944 37.457148651217096
259.97506441105116 243.55683655060824 36.56852830135613
241.5734707467554 250.01696644497466 36.80737688723176
242.6377567380909 249.60022805718884 34.25602080132564
246.1637360802054 251.98575531806537 35.33763879359295
258.4390984605484 249.8354696413662 37.56881814800266
257.8262504858865 251.10624116127045 38.6940213603791
258.93668903104987 248.0788568403956 37.292594128706476
244.45389275203132 251.2525809189821 33.81005338758572
257.1689139181831 252.85162742348456 37.830411884604814
255.73063157543595 254.09936315294743 36.88738429244665
248.6419859419721 255.30842113075494 35.56294187322618
254.15468186985984 255.24942267943888 35.97465631192289
250.55700928697624 256.1352556793679 36.48063345363426
252.3356188028501 256.02384869622136 35.0959638530194
253.74244661913752 228.74138028012436 37.78006995795733
256.16075103102503 229.90787016975017 37.67815936218736
244.4177541466092 232.1143558607566 39.605935668147715
257.3837258470675 231.10214674617768 39.606112705216596
243.6846626847775 234.54285693210164 40.38796931079601
258.9190640688875 233.10478265527854 38.76973719242944
258.17892978699484 231.31906039210017 37.17801350316915
243.4897247051909 234.05131326347333 37.939890970830724
242.55259285968927 238.69653294260456 40.09443957948539
260.55622078854657 237.12615124458432 39.06030567262886
243.23001333842106 236.4665759435568 38.84133757753014
241.88042213853527 240.90308895419474 41.53938920585284
260.4302233811744 240.82625161944003 38.89124762359065
240.72541154388733 242.98196070772997 40.248796968694926
240.33227312193455 247.42101991035335 40.75879797117933
259.86881509544895 242.61946530357957 38.74202581519486
259.406259716228 244.7105972811123 38.773227174154115
241.15865563146005 249.68034848092697 39.459281733707776
243.3039052196623 250.8720917396735 38.71694015822495
258.91437172460525 245.64680818939271 40.740970062225124
259.2464712036272 246.91890113166016 39.074575343305305
245.88754934973994 251.88199530107332 38.11243724986555
258.30707908350246 249.08155025267766 39.39297986462067
257.7591181557196 250.8922182845169 40.768021472096585
244.04683581818793 250.85538981187304 36.18316167230547
247.69618227555085 253.26433276591615 38.76584646463219
256.9991047734741 252.56343512272608 39.89514479308006
255.75633914676814 253.93502724105312 39.02971972568411
254.19055998354028 255.00541355295476 38.12792020681408
248.97708105064328 255.09480665091286 38.16521165116876
251.00525583909533 255.87464192598762 38.33844376676739
252.5549609748574 255.98950819715026 37.25360575796395
248.89513202946182 228.7920543514255 40.315766440545985
252.1730992528261 229.0764752951984 40.175345276910704
253.60173585975159 230.36832435536016 42.373241082345565
246.18475451536162 230.62782667119467 41.76575206799442
256.3854750681517 230.97661841605284 42.190935227011295
258.3202219651585 232.91439336167676 41.41288658472303
244.37658378122399 233.00707037276035 42.155156735814565
244.2079680025203 235.1348698552622 42.30088037041957
242.963086104098 238.76093505369346 42.657658480175044
259.35588929188447 237.4338656722999 41.45076451802756
243.3524296356633 236.69835583845867 41.321902676724285
242.2524302117561 240.77631205082656 44.07333678230466
240.88641537104226 243.2246270875274 43.40866777785768
258.5936705125788 243.53161206331242 40.42390186007069
241.82993438308685 250.1584276613085 43.63974865318009
242.55248910804409 250.75325591959674 41.14826001986433
244.08729968949044 251.19906235450816 42.857503229913405
258.011125079232 249.27277967802837 41.44863834615613
258.54686169402777 247.62165174663144 40.98918181880578
244.8059040584847 251.5577019662044 40.61742817297556
256.69327632254107 252.17193992543602 41.704267344018994
255.63139449810626 253.5345989035516 41.080945026856575
247.00774990467718 252.3063293631977 40.44063051395971
254.20815699801247 254.7191248546469 40.22005539774376
250.54962509203654 255.34282449362024 40.222629267810134
252.5923517673546 255.76010874641108 39.36309141098492
250.8710640001243 229.71281952145856 42.645624735128735
247.15520387139034 231.00269189723068 44.54080974813254
248.40204150141247 229.55383843241592 43.07073884041384
249.66719241397607 230.85915574646035 44.68568158643745
245.6845434628562 232.39081048689692 43.75164597177158
254.9831341231633 231.37719064218908 44.629407415590265
244.7066469261131 234.46059999648355 44.312062447007115
255.66935006518685 233.48553184184604 46.14497488350092
243.79375929568465 236.66621182975678 43.595350151311976
244.59424520517635 236.46505748446376 45.40023166255089
257.12739439795155 235.39543747327784 45.266948869743004
243.74423892856717 238.7278446687547 45.36187807801601
257.6756569297304 237.98522140901963 43.953481764489005
242.37895550855674 240.97419981445051 46.385719879196
257.6204540908192 240.83674593781276 44.05309242885962
258.220356172312 242.21165135165523 42.22359985882779
242.36580203027845 250.03799725959706 46.25695661660952
258.4552724794056 244.60822042159847 42.68448009304266
245.62331447097168 251.3846113377667 44.42923514735817
240.57125720020076 245.24526877650942 45.16451112168739
257.64589755385396 246.42842477191365 43.83075722164817
257.97315361700726 246.42427226052055 42.09230615355238
257.51613906110043 248.07510125254728 42.69528655244557
246.24892502997767 251.51922600222025 42.38581721803526
257.0810131918108 250.48900309723928 43.12782217549371
255.3912977868984 252.9231489172616 43.407489575692104
248.0224079759822 252.77637248395195 42.42447135952692
254.15268349190853 254.1330805748645 41.98591275123474
252.51895178999285 255.2238849800235 41.55542619061553
252.25602877957417 230.98751256424745 44.65579240827566
245.98004943677745 232.8292230088312 45.98922351650406
248.42107537697146 232.18735870489772 46.411635466090246
250.89195861651402 232.1132039356143 46.49273320572239
253.4055782456589 232.3205595472712 46.650108919163166
247.57134760439803 234.26185478585322 47.20826095572054
245.8177133442036 235.23947511406024 46.38441335950825
251.8479403354383 234.04097075440464 47.36439992686267
254.05877696150014 234.48767177278972 47.6951217239111
255.74142498047863 235.4526691083057 46.93791373132996
254.49355766821515 236.71641521985026 47.88533924953652
256.0923105456581 237.39516939443064 46.292672389147
245.6678881389418 237.8325219356346 49.7179480931441
254.61391630729926 238.92300749407673 47.37856535856435
256.12480110961053 239.74088314677664 45.66428368294255
243.65670130494783 239.3556411276983 48.481661783615
245.3418744485259 238.93294955536572 51.79392218592488
256.3872693059174 242.05815901436912 45.636157463323556
242.35890762962077 242.00247378849141 48.7713500961529
247.48876846657745 251.0949248852064 45.67322338090182
256.50743499507104 245.9432354938799 45.431376790276765
247.3497247631661 251.6801119638867 43.816857062051135
256.4961587429301 248.2985193271533 44.96812212877713
255.2991243583342 250.87018733831064 45.6769776665981
253.63356549697116 252.6056174330291 44.988007615893416
252.99369145806085 254.20050842109885 43.640315884084906
250.35237508109273 254.0581180317577 42.66958591258212
249.70600655290696 233.77355051824267 47.60619782403532
246.65993004149738 235.9524356734806 48.38552268029623
248.88247709593438 235.63656013571793 48.36832973082302
252.88720685084277 238.0835668703728 48.67938367144905
247.1759301714791 238.06763770736748 51.411646615637174
253.43377980310544 240.33763690205652 48.80382841867919
254.64621935350598 241.24770626708508 46.94013176137644
255.5100743826082 243.33049694944486 47.16025999312285
247.82949841379732 249.18484527021712 50.92146273177932
249.95024522561863 251.63450192197692 46.92197277238395
253.83953810418112 249.40712632921282 47.696129659713954
255.26001400697527 248.93870730325833 46.38688123281502
252.80119371284337 241.61631418313164 50.82644708907129
248.06325006157175 237.06389683725587 49.87691829764169
254.99538714813465 229.81332596792342 40.03192171188785
249.50708533975458 238.36378216482996 51.65469393146833
247.49791878041827 239.24273901754523 53.37606634398794
251.0009284204923 240.5124055299005 52.58201006229372
251.532105174952 239.48606002676445 50.145650377634745
257.6510113706699 244.85654170650193 44.52973572668433
256.93689844529007 244.05209860359267 45.883624407965776
257.55389208928455 243.10650643556016 44.17295738039279
258.80137872350764 239.87756496163738 42.044532979969624
258.80501909652793 235.2106344118735 43.04742125798104
257.3026531684912 232.9460150899502 44.066774387532405
251.83488560979535 242.86019168741578 52.708584369395616
258.95144000075834 241.3108122817585 40.177481836608536
259.9012887546165 239.28863437921706 39.88846545565451
259.67515310298427 235.04499044892637 40.34996889914884
254.18431089208676 242.6346491523122 48.89761718087596
260.43363332722384 234.99432971248007 37.813976401693886
252.97092674427827 244.51268225196742 50.62124266196112
254.49343572149536 244.95100397263698 48.249800279435625
255.98863777275673 245.1370992242953 46.97810908942318
250.22354107383782 248.62742690797828 50.70636775978574
259.5530044353081 245.0684353041994 35.264084289318994
260.89395331835635 244.03702874385723 34.464360553599974
259.6937074772264 232.0776646291935 31.276825553510932
264.9379057545225 236.60867939152143 16.794494797763075
261.8905749375169 237.1776127799379 14.22370047331306
265.8106582272586 240.83639367397757 19.534868740939995
267.0706163016437 239.53682573245322 23.817043328832916
263.9734460787378 242.02048740688548 33.96100214081933
264.36035984716335 241.1388205226304 18.43142331125076
261.46487047473437 233.4411877009406 31.094535130445703
266.4873883570487 236.9239920655648 29.894439762859683
258.49331410477924 230.61998722731002 29.863994062150997
263.45517564211826 238.68424009785628 15.454167687734735
266.2437137450801 236.67888136714197 20.411367849528048
250.9847167927178 241.82152081303107 53.903991766272036
249.32846302431884 241.06350140612764 54.4125732779099
247.90881671669416 243.26382626857486 55.137282807605374
244.8821558115316 240.3852316293138 53.75233893358551
252.3587240551476 236.0323444362879 47.961894784580835
259.2629250159616 230.8798455810914 27.168184947079176
249.90737852460578 250.0665918620925 49.2107025692575
265.8491783759846 241.75674431645388 27.81112076493196
251.80643525195342 250.6318243540959 48.25492137134895
251.503880328875 246.9339489248603 50.794521348295746
264.2297660360496 233.9207681781076 26.140874180346803
259.82750953791066 231.7285594691035 24.9109566187354
247.41695402270884 253.5901325593158 36.71930121070693
249.1047112214403 252.32158655543395 44.39189702903742
254.2472272454588 228.9402591803602 25.690493556572207
248.32475425679556 228.73576252546263 27.285470710681242
241.93907081007225 247.94464874003467 33.70888631747634
255.40552204521572 237.83537742477776 13.613797629962102
261.9156466816592 233.27641589904397 20.87828485681367
250.9959512281246 245.20038204630532 52.62215040527255
259.49980095262936 231.43421548641678 22.22511578535557
245.07510247554143 248.3441699142349 51.800284014145426
242.91857298830587 248.59725313139907 50.241904695391966
251.51582666158075 229.1394607670697 23.72401629013049
265.9182540015172 235.1055360286819 24.964258092807757
263.93992305861184 235.19547535259173 35.35265778373197
240.5049401377037 248.3342387432413 42.94715691216994
250.45548218164328 228.24532026849099 35.289511447113284
257.3851676562 230.76078930106115 19.728646651363896
252.70435934333798 251.43045747932302 46.49727945610098
247.56962181579303 250.39641021262435 48.163166377852555
260.1481653095286 241.2498308175172 15.344015290976678
244.83161905385023 246.8119388890861 53.57859092756742
250.2535165197253 243.4048952804128 54.26636468569233
244.22908576138957 238.8956699022352 50.41489457727943
245.0284628330749 237.26735146115897 47.287630870602406
249.52037205316708 247.29735044324596 52.22848355330172
251.45341339624522 252.71948524647357 44.85929690104345
243.06834288885122 246.57231136376333 52.03133742027124
243.79912506232583 242.3953299215297 53.00966464717084
241.41446065615025 244.17207313913437 48.78372471601942
246.25309076238617 245.2973366435534 54.66063548204111
241.64451795528166 248.24826073257861 47.96763808421739
241.4792434826043 246.30161701383344 49.842672402298405
241.7435155280376 242.09225183334823 45.07232497264108
240.47751281079164 247.73202263502748 37.862836223363686
248.48683299425184 228.71841189089395 37.94597148430425
250.50243089966324 237.22122352418884 49.17447913988058
248.77896346843826 245.45533328727575 53.9390600251908
253.39848632499644 247.01121828102987 49.060674802709194
240.0440116322607 245.26384927027635 38.9394338709772
240.89507693107825 249.53575014489203 41.59805210172045
240.98932663998073 247.78417831260361 45.245641188074266
246.94038741716565 241.1165866426311 54.869274407914176
240.15192713730306 244.97568973137498 41.329873018144
244.08505029245464 244.6267483416955 53.397648917284194
243.2332294166251 249.8587331058135 48.32099794601875
252.00137746986408 248.99582350021154 49.62071372371834
241.309822181048 243.31019506450696 46.438884924418474
243.48880349429263 240.65711433696643 51.1857130863209
243.7581360814823 250.78034214193565 44.813074437716345
245.23875710049896 249.73748101777136 49.483023169579916
247.10359018315603 247.37330342230936 53.18896469850924
264.9302888782717 234.40455649928796 28.31809327078031
240.28451633323633 246.1686624820944 43.17937743286908
255.12825848045173 247.09795307031774 46.95821314203256
241.00387215117402 245.85565118042217 47.28225683894902
244.98998780527913 250.79781090467895 46.827774376241905
245.46307168625702 242.83938834059708 54.48214792485313
250.73304237513037 235.14487026835576 48.53074734029784
263.2355838230021 233.91238457904302 30.9334581820086
242.33119053251778 243.7277145368597 51.25394932901936
248.6099384727873 253.99860852916 40.51826338476474
265.1122413398229 235.733305197508 33.44755355119896
258.9734755203187 240.3325757844021 14.126753606075308
265.8532966545434 236.5028349970868 18.339949610558218
249.57769616590943 239.38522559067323 53.426916742025846
263.43364923947155 238.50786619381032 36.92380526087574
257.4458098510919 230.15004261767376 22.107471671507668
251.2751065959768 228.404396524059 30.13040598212535
262.07668745982556 240.50086838340093 14.693562762986518
264.4448034274264 240.28931475909093 16.785232059078744
255.49908770280152 229.10953755231736 33.65826387321904
258.8492837047883 242.43256155293182 16.209661630073377
247.04882554108946 229.28747571365565 32.78089403933713
250.68413185338966 228.42861123349854 37.48602602642563
248.28009535182233 228.67296602385682 35.691698767464175
260.18786351635447 242.73927866315807 17.702626752026987
260.82027337967565 243.56190496210544 19.498101165337804
255.98839599404636 232.1372711751697 17.03824573203464
POLYGONS 1000 4000
3 2 1 0
3 2 0 5
3 7 4 2
3 40 3 1
3 5 11 13
3 5 0 11
3 5 13 15
3 5 6 2
3 6 5 15
3 7 2 6
3 7 6 9
3 4 7 8
3 18 7 9
3 11 10 22
3 11 22 12
3 11 3 10
3 11 12 13
3 6 17 9
3 17 20 9
3 9 20 18
3 21 19 18
3 21 18 20
3 22 44 23
3 22 23 12
3 12 23 24
3 12 24 13
3 25 27 28
3 13 24 26
3 13 26 15
3 49 53 30
3 499 33 34
3 17 31 20
3 20 31 32
3 20 32 21
3 21 32 36
3 36 34 33
3 35 36 32
3 36 35 37
3 35 61 37
3 37 61 38
3 61 62 38
3 38 62 39
3 39 62 68
3 3 40 41
3 44 45 23
3 46 43 42
3 23 45 72
3 23 72 24
3 47 24 72
3 24 47 26
3 49 47 74
3 49 26 47
3 49 51 53
3 53 54 31
3 54 57 31
3 31 57 32
3 34 36 58
3 56 57 54
3 57 56 61
3 35 32 57
3 35 57 61
3 58 36 37
3 58 37 63
3 59 81 55
3 59 60 81
3 82 61 56
3 63 37 38
3 63 38 65
3 65 64 63
3 63 64 60
3 83 60 64
3 60 83 81
3 103 62 82
3 62 103 68
3 65 38 39
3 66 39 68
3 435 41 70
3 72 91 47
3 74 75 51
3 51 75 78
3 51 78 53
3 82 56 80
3 64 65 106
3 64 106 83
3 84 103 102
3 84 102 133
3 68 103 84
3 88 89 45
3 90 45 89
3 45 90 72
3 75 95 99
3 75 99 78
3 55 81 100
3 100 81 104
3 101 80 129
3 80 101 82
3 83 106 105
3 104 83 105
3 81 83 104
3 106 67 107
3 108 66 109
3 108 107 67
3 67 66 108
3 86 114 88
3 90 118 91
3 116 89 115
3 89 116 90
3 91 118 119
3 95 121 124
3 95 124 99
3 101 131 102
3 129 127 101
3 130 105 156
3 102 131 160
3 106 107 132
3 105 106 132
3 102 160 133
3 108 109 135
3 134 108 135
3 134 132 107
3 107 108 134
3 109 85 136
3 161 109 136
3 161 135 109
3 110 163 162
3 113 138 114
3 115 169 116
3 121 143 148
3 121 148 124
3 151 125 149
3 127 125 151
3 128 152 150
3 152 181 150
3 152 128 130
3 154 151 180
3 154 180 153
3 154 127 151
3 130 155 152
3 155 130 156
3 154 153 131
3 184 155 156
3 134 135 159
3 158 134 159
3 158 157 132
3 132 134 158
3 161 136 164
3 161 159 135
3 496 168 138
3 169 170 139
3 139 170 171
3 139 171 145
3 143 173 175
3 143 175 148
3 177 150 399
3 178 149 176
3 149 178 151
3 180 179 212
3 180 212 153
3 152 155 181
3 181 155 182
3 181 182 398
3 153 212 183
3 153 183 160
3 184 182 155
3 158 159 188
3 187 158 188
3 187 185 157
3 157 158 187
3 189 161 164
3 189 188 159
3 159 161 189
3 496 192 168
3 194 168 192
3 168 194 169
3 169 195 170
3 173 202 204
3 173 204 175
3 405 206 203
3 405 177 206
3 178 237 179
3 207 176 205
3 179 237 242
3 179 242 212
3 398 182 208
3 182 184 210
3 187 188 215
3 214 187 215
3 214 211 185
3 185 187 214
3 189 164 219
3 216 189 219
3 216 215 188
3 188 189 216
3 194 227 195
3 192 224 194
3 226 196 198
3 226 198 393
3 195 227 228
3 195 228 201
3 202 231 234
3 202 234 204
3 205 457 207
3 207 236 237
3 208 182 241
3 269 208 241
3 239 241 210
3 182 210 241
3 214 215 244
3 243 214 244
3 243 240 211
3 211 214 243
3 216 219 248
3 246 216 248
3 246 244 215
3 215 216 246
3 250 252 377
3 222 225 255
3 223 251 224
3 255 254 252
3 224 251 256
3 251 253 256
3 253 259 256
3 231 260 262
3 231 262 234
3 233 264 261
3 233 235 264
3 236 266 267
3 236 267 273
3 239 271 241
3 271 269 241
3 243 244 276
3 275 243 276
3 275 272 240
3 240 243 275
3 246 248 280
3 277 246 280
3 277 276 244
3 244 246 277
3 285 252 286
3 286 252 254
3 251 284 287
3 251 287 253
3 253 291 259
3 253 288 291
3 288 253 287
3 260 292 293
3 260 293 262
3 294 264 265
3 268 294 265
3 265 269 268
3 297 300 296
3 296 295 297
3 298 299 271
3 269 271 299
3 275 276 302
3 301 275 302
3 301 331 272
3 272 275 301
3 277 280 306
3 304 277 306
3 304 302 276
3 276 277 304
3 309 308 284
3 310 308 309
3 309 307 310
3 284 308 311
3 285 312 283
3 387 317 314
3 288 315 291
3 288 287 313
3 288 313 315
3 313 316 315
3 315 316 318
3 289 318 292
3 292 318 320
3 294 268 324
3 297 330 300
3 297 325 330
3 328 324 268
3 268 299 328
3 327 328 329
3 299 329 328
3 298 329 299
3 301 302 332
3 331 301 332
3 304 306 335
3 334 304 335
3 334 332 302
3 302 304 334
3 308 337 311
3 339 338 310
3 310 336 339
3 336 340 339
3 312 314 340
3 341 342 337
3 337 338 341
3 343 339 340
3 340 314 344
3 340 344 343
3 344 314 345
3 314 317 345
3 346 344 345
3 345 347 346
3 317 347 345
3 317 319 347
3 349 346 347
3 347 319 350
3 347 350 349
3 319 321 350
3 350 321 353
3 325 357 330
3 327 382 324
3 324 328 327
3 356 327 358
3 327 329 358
3 359 331 332
3 334 335 361
3 332 334 361
3 341 364 342
3 341 338 363
3 376 348 364
3 364 365 376
3 346 349 366
3 368 366 349
3 349 350 369
3 349 369 368
3 369 350 353
3 369 353 370
3 382 327 356
3 374 359 373
3 359 374 358
3 374 477 358
3 356 358 477
3 376 367 348
3 375 368 392
3 368 369 392
3 392 369 370
3 375 392 394
3 395 394 392
3 392 370 395
3 370 383 396
3 448 421 397
3 421 469 397
3 371 397 418
3 396 356 477
3 469 373 420
3 461 477 373
3 477 374 373
3 420 373 441
3 441 359 360
3 373 359 441
3 396 477 395
3 461 373 469
3 3 11 0
3 0 1 3
3 14 501 4
3 15 30 17
3 17 6 15
3 18 19 16
3 69 44 22
3 22 10 69
3 14 25 42
3 42 501 14
3 14 8 27
3 27 25 14
3 49 30 26
3 26 30 15
3 30 53 31
3 31 17 30
3 21 36 33
3 33 19 21
3 41 69 10
3 42 25 46
3 25 28 46
3 49 74 51
3 77 59 55
3 77 34 59
3 61 82 62
3 58 63 60
3 60 59 58
3 435 86 69
3 69 41 435
3 86 88 44
3 44 69 86
3 88 45 44
3 46 430 43
3 43 430 432
3 78 79 54
3 54 53 78
3 79 80 56
3 56 54 79
3 106 65 67
3 67 65 39
3 39 66 67
3 84 133 85
3 85 68 84
3 86 435 111
3 91 72 90
3 76 96 73
3 94 74 91
3 91 74 47
3 96 97 98
3 97 76 77
3 55 98 97
3 97 77 55
3 94 95 75
3 75 74 94
3 99 129 79
3 79 78 99
3 98 55 100
3 101 102 103
3 103 82 101
3 129 80 79
3 110 85 133
3 115 89 114
3 114 89 88
3 116 139 118
3 118 90 116
3 123 120 122
3 121 94 119
3 119 94 91
3 95 94 121
3 98 100 126
3 126 100 128
3 124 125 129
3 129 99 124
3 127 154 131
3 131 101 127
3 127 129 125
3 104 105 130
3 163 110 133
3 85 110 136
3 136 110 162
3 113 496 138
3 137 87 417
3 417 409 137
3 139 116 169
3 139 145 118
3 145 119 118
3 123 144 120
3 143 121 145
3 145 121 119
3 147 126 150
3 126 128 150
3 148 149 125
3 125 124 148
3 153 160 131
3 163 133 160
3 162 163 191
3 136 162 164
3 168 169 138
3 171 143 145
3 171 173 143
3 147 177 405
3 147 150 177
3 178 179 180
3 180 151 178
3 175 176 149
3 149 148 175
3 399 150 181
3 398 399 181
3 186 163 183
3 183 163 160
3 218 191 186
3 186 191 163
3 190 191 218
3 190 162 191
3 190 164 162
3 193 167 409
3 192 496 498
3 194 195 169
3 407 197 196
3 197 198 196
3 195 201 170
3 201 171 170
3 199 171 201
3 199 202 173
3 173 171 199
3 204 205 176
3 176 175 204
3 209 212 242
3 209 183 212
3 213 186 209
3 209 186 183
3 245 218 213
3 213 218 186
3 217 218 245
3 217 190 218
3 164 190 219
3 219 190 217
3 192 498 223
3 224 192 223
3 224 256 227
3 227 194 224
3 230 393 198
3 229 199 228
3 228 199 201
3 229 231 202
3 202 199 229
3 233 203 206
3 206 235 233
3 205 204 234
3 273 237 236
3 273 242 237
3 238 242 273
3 238 209 242
3 424 213 238
3 238 213 209
3 424 245 213
3 247 217 245
3 219 217 248
3 248 217 247
3 221 222 250
3 281 284 223
3 225 226 255
3 255 226 254
3 256 259 228
3 228 227 256
3 257 229 259
3 259 229 228
3 257 260 231
3 231 229 257
3 266 457 263
3 270 273 267
3 270 238 273
3 274 424 270
3 270 424 238
3 278 247 245
3 278 279 247
3 248 247 280
3 280 247 279
3 284 281 309
3 377 283 282
3 284 251 223
3 254 391 286
3 286 391 386
3 289 257 291
3 291 257 259
3 289 292 260
3 260 257 289
3 389 261 264
3 264 294 389
3 296 300 267
3 267 266 296
3 268 269 299
3 303 270 300
3 300 270 267
3 303 274 270
3 484 278 274
3 305 279 278
3 280 279 306
3 306 279 305
3 281 282 307
3 307 309 281
3 307 282 283
3 286 387 285
3 285 387 312
3 387 314 312
3 311 313 287
3 287 284 311
3 315 318 289
3 289 291 315
3 322 389 294
3 294 324 322
3 329 298 331
3 333 303 330
3 330 303 300
3 306 305 335
3 335 305 362
3 307 283 336
3 336 310 307
3 312 340 336
3 336 283 312
3 308 310 338
3 338 337 308
3 337 342 313
3 313 311 337
3 447 316 342
3 342 316 313
3 447 318 316
3 351 320 318
3 384 322 324
3 324 382 384
3 354 320 351
3 357 325 355
3 331 359 358
3 358 329 331
3 333 330 357
3 332 361 360
3 360 359 332
3 338 339 363
3 341 363 365
3 365 364 341
3 364 348 447
3 447 342 364
3 384 383 353
3 353 383 370
3 367 379 352
3 352 348 367
3 368 375 381
3 380 381 375
3 396 383 356
3 395 461 394
3 395 370 396
3 8 14 4
3 59 34 58
3 430 46 71
3 46 28 71
3 77 76 52
3 426 435 70
3 426 70 87
3 423 87 432
3 92 432 430
3 92 423 432
3 93 430 71
3 93 92 430
3 137 112 426
3 87 137 426
3 423 417 87
3 117 423 92
3 117 417 423
3 92 422 117
3 92 93 422
3 419 123 96
3 96 98 419
3 419 98 126
3 130 128 104
3 104 128 100
3 140 417 117
3 140 409 417
3 422 141 117
3 141 140 117
3 146 144 419
3 419 144 123
3 147 146 126
3 126 146 419
3 409 167 137
3 407 400 140
3 140 400 409
3 140 141 407
3 174 172 146
3 146 172 144
3 146 405 174
3 146 147 405
3 185 184 157
3 184 156 157
3 494 167 193
3 400 193 409
3 196 400 407
3 196 193 400
3 203 200 174
3 174 200 172
3 405 203 174
3 235 206 399
3 399 206 177
3 208 235 398
3 398 235 399
3 211 210 185
3 210 184 185
3 193 222 494
3 222 221 494
3 225 222 193
3 226 225 196
3 196 225 193
3 232 203 233
3 269 265 208
3 208 265 235
3 240 239 211
3 239 210 211
3 221 249 220
3 391 254 393
3 393 254 226
3 258 393 230
3 258 391 393
3 390 258 232
3 232 258 230
3 233 261 232
3 261 390 232
3 265 264 235
3 272 271 240
3 271 239 240
3 249 282 497
3 282 281 497
3 290 391 258
3 290 386 391
3 385 290 390
3 390 290 258
3 390 389 385
3 390 261 389
3 331 298 272
3 298 271 272
3 386 387 286
3 386 317 387
3 319 386 290
3 319 317 386
3 321 319 385
3 385 319 290
3 322 385 389
3 322 321 385
3 321 384 353
3 321 322 384
3 382 383 384
3 356 383 382
3 376 378 367
3 378 379 367
3 380 378 381
3 395 477 461
3 97 96 76
3 388 375 394
3 388 380 375
3 138 169 115
3 115 114 138
3 40 440 70
3 70 41 40
3 8 16 27
3 16 29 27
3 132 157 156
3 156 105 132
3 440 40 501
3 43 440 42
3 43 432 440
3 52 50 499
3 363 481 365
3 459 416 366
3 459 481 416
3 416 481 343
3 252 285 377
3 377 285 283
3 3 41 10
3 365 459 376
3 365 481 459
3 376 459 378
3 378 459 381
3 459 366 381
3 344 416 343
3 344 346 416
3 339 343 363
3 343 481 363
3 274 303 484
3 303 333 484
3 501 42 440
3 366 416 346
3 381 366 368
3 501 40 1
3 1 2 4
3 4 501 1
3 498 496 165
3 496 113 165
3 221 220 494
3 113 491 165
3 112 166 491
3 166 220 165
3 494 220 166
3 112 491 111
3 111 491 113
3 137 167 112
3 167 166 112
3 491 166 165
3 494 166 167
3 249 497 220
3 426 111 435
3 426 112 111
3 377 282 249
3 355 325 479
3 252 250 255
3 255 250 222
3 221 250 249
3 250 377 249
3 323 472 295
3 325 297 472
3 472 297 295
3 351 471 354
3 354 470 320
3 470 478 326
3 323 468 479
3 293 466 262
3 466 476 263
3 325 472 479
3 479 472 323
3 478 464 326
3 464 476 326
3 464 323 295
3 483 354 471
3 473 479 468
3 296 463 295
3 296 266 463
3 463 266 263
3 457 462 263
3 262 466 462
3 462 466 263
3 262 462 234
3 293 470 326
3 470 452 478
3 470 354 452
3 452 354 483
3 236 457 266
3 236 207 457
3 320 456 292
3 292 456 293
3 320 470 456
3 456 470 293
3 323 454 468
3 323 464 454
3 454 464 478
3 453 467 480
3 483 451 467
3 467 451 480
3 483 471 451
3 467 450 483
3 371 448 397
3 371 474 448
3 348 351 447
3 447 351 318
3 474 460 448
3 474 453 460
3 352 446 348
3 348 446 351
3 352 471 446
3 446 471 351
3 433 444 474
3 467 453 444
3 444 453 474
3 452 455 478
3 455 454 478
3 234 462 205
3 205 462 457
3 361 449 360
3 449 441 360
3 479 442 355
3 479 473 442
3 442 473 371
3 441 372 420
3 420 372 418
3 476 438 263
3 295 463 438
3 438 463 263
3 326 476 293
3 476 466 293
3 295 438 464
3 464 438 476
3 455 450 434
3 434 450 433
3 455 434 454
3 454 434 468
3 468 434 473
3 473 434 433
3 474 371 433
3 433 371 473
3 467 444 450
3 450 444 433
3 450 455 483
3 455 452 483
3 460 431 448
3 431 421 448
3 207 428 176
3 176 428 178
3 207 237 428
3 428 237 178
3 449 361 362
3 361 335 362
3 305 484 362
3 484 333 362
3 333 357 425
3 278 484 305
3 441 449 372
3 449 425 372
3 333 425 362
3 362 425 449
3 278 424 274
3 278 245 424
3 372 425 355
3 355 425 357
3 461 421 394
3 461 469 421
3 418 442 371
3 397 469 418
3 418 469 420
3 355 442 372
3 372 442 418
3 465 414 480
3 460 453 414
3 414 453 480
3 352 415 471
3 415 465 480
3 414 445 460
3 451 471 415
3 415 480 451
3 388 431 445
3 445 431 460
3 465 415 379
3 379 415 352
3 413 465 379
3 445 412 388
3 388 412 380
3 445 413 412
3 412 413 380
3 414 465 413
3 413 445 414
3 421 431 394
3 394 431 388
3 109 66 85
3 66 68 85
3 380 488 378
3 378 488 379
3 380 413 488
3 488 413 379
3 172 485 142
3 142 485 197
3 172 200 485
3 407 482 197
3 197 482 142
3 407 141 482
3 482 141 142
3 120 475 422
3 422 475 141
3 120 142 475
3 475 142 141
3 197 437 198
3 200 230 437
3 437 230 198
3 122 436 93
3 93 436 422
3 122 120 436
3 436 120 422
3 485 200 437
3 437 197 485
3 71 411 93
3 73 122 411
3 411 122 93
3 48 73 411
3 144 408 120
3 120 408 142
3 144 172 408
3 408 172 142
3 50 52 406
3 406 52 76
3 96 404 73
3 73 404 122
3 96 123 404
3 404 123 122
3 48 403 73
3 73 403 76
3 48 406 403
3 403 406 76
3 29 402 27
3 27 402 28
3 29 410 402
3 402 410 28
3 230 489 232
3 232 489 203
3 230 200 489
3 489 200 203
3 28 401 71
3 28 410 401
3 401 410 48
3 499 50 443
3 50 493 410
3 410 493 48
3 50 406 493
3 493 406 48
3 71 487 411
3 411 487 48
3 71 401 487
3 487 401 48
3 19 486 16
3 16 486 29
3 19 443 486
3 486 443 29
3 29 492 410
3 410 492 50
3 29 443 492
3 492 443 50
3 7 429 8
3 8 429 16
3 7 18 429
3 429 18 16
3 34 500 499
3 499 500 52
3 34 77 500
3 500 77 52
3 499 495 33
3 33 495 19
3 499 443 495
3 495 443 19
3 440 490 70
3 70 490 87
3 440 432 490
3 490 432 87
3 223 458 281
3 281 458 497
3 223 498 458
3 458 498 497
3 498 439 497
3 497 439 220
3 498 165 439
3 439 165 220
3 113 427 111
3 111 427 86
3 113 114 427
3 427 114 86
