# vtk DataFile Version 3.0
A great-looking cell
ASCII
DATASET POLYDATA
POINTS 753 double
346.69018981658905 272.6892041705846 11.571796865989477
347.92566901038435 274.4181211646743 10.564385915170332
346.2906817566379 279.3319852652244 11.418709208779148
346.5554032173358 281.335865985264 12.45770399657899
350.25864918507244 275.1781326048529 9.975595341057653
348.47000764824196 280.24491324774607 10.904980590116143
351.08142161298224 278.4355280958928 9.662194948481428
354.07024912446576 280.2987920381983 9.900241078762573
348.5284880307513 283.2154890256192 11.7525529582252
350.78667207598926 284.7017660401893 10.535600446403556
351.0361618603718 281.7557773744022 10.403266132863312
352.91802510110546 286.15052479177575 11.13797710799009
353.44892178327615 283.57104180990854 10.249786793927132
356.11404321252206 282.5924249704708 11.161644675692926
350.99864709110307 286.4918090197917 11.863698248454217
349.6818370612702 272.7230859626123 11.860259238246229
347.6928620050271 277.17868329795533 10.57807835522236
345.4007240360227 274.9265209396031 10.54603543191705
354.42744534313385 271.89148202257104 12.476118869520924
344.9384543469058 283.96919059404416 14.2546241591736
355.5606615751127 277.5004634866539 10.748483579958663
358.71002655897445 283.5166911503719 15.222787726170822
352.0397793869019 271.70226325574 12.632458828910197
355.35251910536726 274.36991166552235 11.071055268158359
347.75292253914796 287.1782829380312 13.719128148861362
358.7109684058707 281.14935412037914 15.33159781605341
344.6430907096319 266.42291286161446 12.524092584203416
346.303432408379 268.3723775189689 12.4664764850547
351.0041237116501 268.70893928370987 14.783490358244505
343.13407963983775 270.7324797659275 11.805452123956398
343.8634712336342 268.66709846781356 11.414808066590881
353.1377612209772 270.13008823452594 14.606372755243198
342.0906602814592 278.43496377555874 12.892500840917942
342.2543145540872 275.2490251512119 11.798182621300239
344.0160068142624 272.71376482688487 11.383303925470702
342.8370081711138 280.7770790266757 14.43561817531331
356.4352425302728 273.2526539596203 13.294323973711661
357.3441637891732 275.97820450874326 13.131628265398938
359.31950388906245 282.07910229384606 17.482304552930284
359.12515212107024 286.3056475077898 20.286018612935
358.44881109949387 287.6345766908513 17.99258168077166
355.91261826456764 288.269811702427 14.54549889170642
342.91983119222374 264.71643150112345 13.592233676777658
345.4862348438168 264.51295758404314 13.86220492333333
341.23167090851246 269.5016544914854 11.26163423123353
341.3626860382818 272.1960282213923 11.53264876915356
355.0906497042929 270.12311079770745 16.20071204612872
339.11434058113326 276.78960328864144 13.349413948613497
336.6037187382175 274.0973748922268 13.182881250530476
357.3236861973808 273.7533260097508 15.944957611764615
358.26290894800024 287.6903992572681 23.0484863949636
349.9530749796799 289.9170181901504 16.015245142656642
356.71687262898956 289.4549468508091 18.565368673115575
340.0093632751206 265.0651508090439 13.209102047208953
344.19671906931865 262.6269809296217 14.845113972831129
348.7739769303006 263.3566818560258 14.946329506375863
352.2345753380383 262.2891742677307 15.960507273490055
355.62821515373173 266.64521029932484 17.416843500385202
337.0673471565144 266.4917699965882 13.963597503848161
338.2469124809834 270.94287625870237 12.156027739646516
356.24143974473435 268.9932830811572 17.82095919622535
336.2335904275531 276.84357380761935 15.504669580951838
334.8562275950088 272.21429553593293 15.224906362730405
357.03951830876156 270.6495102435069 19.309791614990477
357.46634403797935 272.79565185807934 18.73984629372386
343.0957079760276 284.31238476320203 17.467566350029667
346.45113164037934 288.5533236333434 17.80374222486805
351.6995407171838 258.6386228144167 17.66593678066882
350.8378387674165 260.5127693746574 16.413259097250176
338.80820689550853 264.1875322956307 15.588680472801546
346.1225705416752 258.37956922515065 16.904786771000037
357.24799282095705 263.17925268546503 19.865029101458163
336.56515869894304 265.1464281914915 17.067782379895203
335.117196496737 267.8355903061285 16.303212861211964
357.48872064776185 268.8436908180282 19.635927934253093
340.13618220723123 279.3937892076155 15.315803573485454
334.13328995361985 274.7357928177789 16.912478346983328
333.83927603997836 270.3688616529521 17.54249694871593
341.8818434875788 281.7328897455195 16.874796666488187
342.87851975792967 284.55545060766354 21.75174387550718
358.27560118283446 275.1072663556304 18.506369882835774
343.4972633869341 285.57154751621664 19.84634743447793
345.4721290871439 287.56901769682355 19.98673006313651
344.8705947439831 286.35916766029544 17.75384633820618
347.6625159175598 289.70485554280543 20.19681724512234
357.2857911981306 288.1178208522594 28.06958946468678
351.20414718698134 255.3832066212283 20.465561566871447
337.9205461674969 259.63021834087283 21.89326104407387
359.35968827092563 269.2704136126929 22.145083308766967
334.4049340184573 267.70751531779894 18.94084329997029
336.0468310186912 278.7399613548204 18.496003460922577
333.6106048159708 276.4784502831381 19.7688729597019
332.86269188301395 271.992278245117 21.97951867249318
344.4978890065123 286.44301815612744 22.35941026555666
346.2577188340146 288.4282671422405 21.96290964380575
348.1408661703288 289.77249059789074 23.019639083834136
343.2644193332087 254.84616542589612 23.25513014629903
336.8158405570393 259.68559610469293 26.747642444938027
334.5341596312786 264.4183207541852 25.14814224403799
359.77618850760376 260.698717545677 26.03201437165437
360.5972415057641 265.8013694679993 24.912767476030655
333.06843500814546 270.80792744294774 25.881728944139446
360.50474654607785 273.25710215423516 28.249194674557327
340.6544929356102 280.9233922667487 24.796424899043522
359.2470473901508 274.6994148766193 26.863744989152273
342.57099037818983 283.48335568748246 25.921825775409367
344.44391599408976 285.9356497747665 25.084480033042414
346.0944810476021 288.055125511208 24.201644761126055
348.1210057629793 289.41462846814466 25.955600219126502
340.6702144596862 255.6049424826932 27.9002774552919
336.5717991445285 259.8928843640907 29.321592868911747
333.4995978767858 268.79913271925807 27.675653929360287
358.27498878145013 256.7159725728932 29.777281207715628
361.3220022455012 264.2170621341464 29.867402698118845
361.64086374962545 268.52814260901835 28.097998187064654
337.52155736105914 280.16087667273536 23.88582613705258
334.4674285681983 277.74612975649484 27.213176899745303
333.0843567551344 275.6155484836544 27.20553446544933
359.00066206844866 276.8986405644826 30.084576089300562
358.7236186158984 278.83589923655023 26.423072306799458
344.3714496904583 285.45800402756873 27.701536133696923
346.0000444622896 287.4347027113237 26.669704940678493
347.3731963462305 288.584626945176 28.26789203734098
339.98049736792126 256.3093089595395 32.73222332528461
336.1580122313904 260.83218595072293 31.901752720276857
333.4027589751138 267.98689801607173 29.793121969576585
361.5851048319625 266.02673922222675 32.23909945233209
338.7524733937764 280.30306636406607 26.449440300536736
334.3860914559513 276.35458555037127 32.63686294605293
338.09738726548585 279.95667554910926 28.768354269008857
359.7559704738623 275.07279794129477 31.223420410458445
341.104617959031 280.771355040222 28.01890865230992
357.99033924673336 280.8831007532928 29.99139523179357
346.0974780266184 286.70257282140386 28.68519351395619
338.63990655797784 257.8623876493386 35.10580279088263
356.79998337912326 255.75647791785994 36.54708652940346
334.2190501839894 265.0824571701524 33.98549133399886
333.61580247308734 268.8687123100159 31.535393115857023
361.0938174231281 271.54295194651166 33.6326696314781
333.9877290939407 274.5875395583207 33.7025488753625
339.71106034022097 280.15598584190315 30.810706811727677
358.1933338259617 278.74501244277167 31.190570081714174
354.3649492089613 281.1210763943136 33.12980550998002
344.1897995145477 265.60801773987083 46.75493713734377
355.64858025821053 265.6521131621829 47.286980471743824
334.18616513504503 273.6915514882861 35.475021817504164
334.8162274522974 267.0090803280311 40.46177834015939
360.5270009840997 272.74128111411505 36.9343847666853
338.220584505574 278.8944993277814 35.65313645757204
359.2668412833284 274.2623105486212 38.25164081735908
357.1826248575442 277.8854991125301 35.85020568900852
345.30384125803096 284.90045568668916 30.335407841595668
356.670026161176 280.5088851129795 32.19389808003469
349.00247088261835 280.19211196290723 33.56142046952887
349.49017931622876 289.3399944901604 29.498263571327158
353.9361056107586 269.9030187956601 45.75112817934132
355.55621668121057 274.4764363899631 44.341849163692785
337.9090765479634 277.49209783894526 40.88002194849344
340.4058740191341 279.8931629945552 34.777136374149
340.7716998105684 280.1429476570368 32.67005556748773
349.6676895366834 287.3022331311972 32.23160228428605
347.1807176549942 287.36735265741305 30.54963051760854
346.4939915757793 271.04586478673554 46.80334563464712
341.0366791621663 276.99364653038185 43.710096665639526
348.61400643209765 275.8363312896333 44.70388450767777
342.33877090973857 279.8244473547088 36.0749891462299
355.6938583917594 277.80117263946727 39.73226356713506
342.5524327405379 280.23361396137955 33.63178018140375
355.66212310682926 279.1884115783964 34.38359582170449
351.8783243564683 280.3820407259129 34.20261307605153
346.57928328839375 282.51547242233704 31.11961137462268
347.8543095076253 284.85992693434866 31.471786222250962
353.48911413087944 303.44245330889555 25.336424285869583
354.8506137508262 302.05249830499633 27.276987793142407
335.20337490681504 263.1081664145403 23.34011299149712
336.4639276131144 279.44744728526945 26.73305103181944
335.19809195181375 262.0072632082611 29.667244281292756
335.33547685716036 277.9532293499575 31.38518556762072
359.60596646795767 283.24802321045604 20.435906491064618
334.84237127002876 263.46196813262475 34.257191244452684
359.3992417527892 274.5407045712254 35.84775020171351
359.68169481974815 274.8413955993433 33.4995333876953
334.40126831489056 266.46392064147034 35.983289489507484
358.6953282812184 276.54311755675974 34.73789013665406
358.93935725314094 276.82172447092313 27.78618374674838
358.44299399867106 276.257132645943 37.14960717255721
332.91506557275176 270.34055355540784 23.453538353158667
360.79651100583726 273.0733842359785 32.166296189899356
333.76703488312916 271.37818939133786 35.65234261760524
333.41763145223587 269.69985103798865 29.698929262784564
358.84767006173587 274.2594135268212 24.35806816103144
336.4029358112496 277.1142161668157 36.50964373305159
359.70191115614057 272.0107742798864 23.971157661958028
335.7397191274602 278.70131280775587 29.23179161239367
359.20614251840044 285.31375098959705 24.27321408297033
351.12939916404605 293.7209911220823 18.593745481066293
359.1847325777995 277.568661784085 18.855656740594092
356.4844245438717 289.5660986289536 24.067273668997288
351.3008487313976 275.5803248483612 44.57060300766873
351.930330113148 260.2935031005333 47.84326595681492
338.4231542443077 258.5012552277382 37.263739977296716
358.0380082985682 269.8609722385283 21.03096878688635
355.89538268928044 282.29808333979855 32.39346166668999
334.52840811369697 269.22327095410265 39.500169901908414
336.33218637806567 275.26500331786326 41.85816941921518
353.7464072864437 278.6496315362034 39.097933564367914
356.9997148788038 288.58067434794077 16.476081666655688
342.27752933791965 279.47486989882435 38.637802012788754
343.5670884838619 276.71944095597325 43.54400696923059
353.58201891465364 277.6901685306476 41.26408046372398
339.98126182637554 278.90002995965824 39.88555146075486
333.5268009445754 276.83949667054634 23.090366391850463
353.9167795254959 279.8886342792013 35.25733705091836
335.2302446606443 269.6486784592988 41.47302528877767
343.20347433416754 284.6937788849585 23.627207360734026
354.95232195868243 284.2364852019996 32.95175977090872
338.2297111695661 267.9345151258591 44.75090438379218
358.0686118789672 286.52337759713373 15.207262897157827
352.1870122081679 288.0734678137946 12.408862787287106
333.6153072972178 276.8378233040195 25.410780523139987
359.1621779721661 280.77743711893646 22.301421580388897
355.86252532763126 295.93298144870147 18.32916291670724
336.3698857030329 276.23885978242237 39.10177343060135
353.53580100799 292.3988286813579 17.89076276740106
333.5249688398059 268.64800044776587 25.020328691287343
351.8955136493986 285.24837907105103 32.897992615872525
336.38907154405774 277.94281715843556 33.675107513616815
332.73646130938096 273.1685520709108 26.605619315504267
347.32730361958477 259.55407529696856 16.088270034964705
344.3963946441369 279.9402503395859 34.89109893307144
332.88778435059766 274.9433078432113 24.77693324927392
355.8002973245394 293.1937278339467 19.563077397174425
343.0327760524529 256.0681640001341 21.632171415286116
334.7598604484243 263.33129447711315 32.17624333049323
354.19853349990774 253.50080806683948 29.733589080442727
346.97847587846076 252.50193047018914 28.027000849487422
346.35337412822275 252.8210778557513 31.96581480523236
333.6175089916534 266.4373951649874 28.654439592389945
344.91795816173044 280.73556956911665 32.411322614514425
341.25607070356614 268.1457321048521 45.490378230046794
343.299682333758 269.3083890985124 46.011733175326334
355.5092775115497 270.3406601704829 44.18117025052884
348.27957212748333 252.64402493803627 33.3947281916421
341.96570033508414 266.88910774816634 12.060658496879865
344.50001593901794 282.39023815703337 30.71002369780481
353.9363209578253 287.44447370844443 32.29087466035276
347.957980412326 288.64806417677767 15.881180885629401
358.6447891085601 285.38869662785027 28.8611638013521
361.4201166151565 270.75167956810645 31.948925157979808
355.13963117877097 278.75702989089734 37.11582154231696
347.4476029900082 264.3465364931807 13.986250134572481
356.01816888494784 292.32805963007877 28.595599686256843
335.4091093180891 263.9074580552248 38.21275086638808
358.91125117396456 276.6157123509405 25.40043982581723
347.39025563044373 297.2252073233291 29.52097222268587
335.9580396458928 267.617773388456 43.039319535628756
344.57987675856816 259.4297450496725 16.52337268573203
345.0005876789419 301.28664879935343 22.342344316833486
361.5755237054257 269.7257946061169 33.90798745160184
338.9895551506485 257.65399505910165 23.59445436500764
334.2893352953164 267.87205275964766 37.96817888861721
361.7548235751555 269.6567646699164 29.925360072461114
354.12345303469607 266.18640373470976 15.83107706432968
358.5442146991406 278.8647321922592 28.843886453771738
353.5478047328146 256.71857337401525 45.22464856566819
360.4566140982417 270.0117078135932 23.560982908159147
347.6718679129689 293.54890938437836 26.032241799882865
357.0585146818894 273.5388584403943 42.00309525788474
359.49459681203024 263.26213134847296 24.21418129573952
338.19259454423684 278.19594580272815 14.96077576434181
348.4620712794524 252.3017552360966 30.30230772682221
361.44064565596176 268.865483607525 36.05662888851933
358.88018294704824 273.6651116982394 40.34031157161588
357.5200653086851 257.7550283029463 23.35835762349378
349.1228060123891 255.17591799717474 19.47504950284525
358.78335636957735 271.6066561957315 41.21927592752018
349.8360003994289 288.04869292872706 12.536965681092633
344.1630427601589 301.33994041250975 24.8376090395292
360.19555140460903 269.7999818122186 40.157490958430614
336.05195883217135 262.22483182991215 38.272263471429895
348.48399487334865 302.05024074677635 22.89485855939884
335.95816769028335 271.7222709209069 13.13151731374503
333.9696532599176 272.56377010335564 17.25731973418296
336.972918026958 260.1378714529289 36.738132352541456
357.145793738146 270.9629221839508 42.77472902783574
333.9463350292636 267.62003479162644 33.70164636551287
358.0518930274841 267.3089175074253 42.61916085912387
353.67295232835113 289.47406702762197 14.001892735558963
335.1431187242051 273.8866291353791 39.662605314427324
356.9053504825995 268.74357398682014 43.48925562081948
349.4091410549268 299.0218228886717 30.245138882286525
357.2457729216963 267.0357945047779 19.05266985953881
333.01291669212225 271.2761844234546 28.36928551524923
346.56477239496553 301.429005469497 25.48264563817354
354.4862012399877 287.40685353836716 12.676455132626025
346.29670204367926 253.78069556295844 22.839929169416035
350.27905173922494 301.6450906536327 28.2451197714415
332.70557102922527 272.5978839870543 24.148260697328155
344.9824485191367 298.16499071973334 28.790040007274545
339.2428983627305 280.4943908122949 18.49933718832927
347.16408852944323 300.1288480545651 28.26523009503975
339.4838511985281 273.8860171379607 12.2871393899652
352.4229085828569 299.76517407225367 30.24688759110226
338.8810612602262 260.9180520589782 42.687452410699784
351.14748661547503 289.40734510171467 14.064782652438408
361.1786204382899 266.33302568543047 27.564304451985855
345.7717399524527 253.07860476827943 34.3210321065665
354.78916726330993 294.1078135354796 17.8712662828242
342.5293825098483 299.47187576087623 24.16512331510808
332.7325053856355 274.3546777018603 22.159275710676546
348.2186199383259 301.671281634482 27.000213940687644
357.5605830662671 295.16657625441235 24.84871167522275
333.75522773873934 268.9200918243614 35.799430390246336
360.40316702691956 272.8319975548215 25.951870889217158
356.5531908445821 255.50589030858924 25.313163708627084
333.54226417402333 268.4991608075231 22.918395687971664
350.2904108997435 262.5289196780574 48.75854202255547
356.6558455419704 260.11115273669947 44.402597530416784
355.73838417077764 262.9491674484236 18.280579467304182
354.2038703933162 258.68664410158783 46.00862662595663
332.92308709429494 273.76287961742594 29.179742016796045
344.8338443901166 269.22086723631355 47.47895519459735
356.75991745269994 292.8710712853881 25.708236503014
353.1017835372555 253.83583713986658 40.88155754993443
359.37316030713725 260.1358518056123 39.882922353063414
349.8418134066994 267.5830296223197 47.391729405845666
351.6585987641232 257.09376118079393 46.61250895497018
350.1439911974992 299.55033210093865 18.59305629740481
349.5627313295197 284.59854349485676 32.7827084272328
358.3813651411799 265.20282465845725 20.201790612918952
359.2624363992898 284.9528219533332 17.700128676125107
347.844597779937 297.53555322084736 19.150264938410178
351.89644142783703 253.09690481133313 25.812992938016
340.03429408911205 274.9910624927474 44.350946936934264
359.42102893471434 258.580344448563 32.05718846204016
335.5556144343145 265.4093587559134 42.239216352735276
352.53982226017354 301.70669899305034 28.973095509691852
358.9341028088421 258.0754888688073 35.279014382302876
353.9033268714035 267.87448772720336 46.629473612574046
344.47124289537925 285.2625679730291 15.59488341430924
345.5298801518215 252.80037944781864 29.76443806539549
359.57445400589063 264.37979137295525 40.755832820626566
347.3174020886209 253.034746066684 39.395080529378255
350.98351514403265 264.291831569148 15.20244410847128
358.50166376215367 262.0288959656404 41.93579537481562
349.4214144884005 253.8738759142855 43.00617287621125
356.909731160023 266.43001560799854 44.32636114304392
347.2930396014778 255.27000524303924 44.74886533895692
361.35531605244546 265.35572909563814 34.39736633595686
351.2280055115002 303.4420164369772 21.8897343953802
352.52996968499156 273.13215315437367 10.54746812055379
333.2391167556953 274.31197213772464 31.758077684188244
345.86085186914914 295.59846602486795 27.6569558456292
345.13665394460054 253.4539996190108 37.11987582500543
345.5741471014615 257.2832486710565 45.59998474672722
339.8926010069631 256.90076040038514 37.98311079156287
333.7367865928539 266.63168138297624 26.283066298706206
360.85317518615614 267.96928995788636 38.39157759125558
340.91795319984783 255.7043610548406 35.27850415823866
344.6133498328864 255.51250593226396 44.05603566611503
346.24413198618424 286.90976834421554 15.79690523045107
354.36300828301535 262.457675549984 16.664525256731732
334.68115242170063 265.4508303559182 38.2152038645215
352.58895472100374 267.6517623264248 15.435877387504435
351.6116753756412 303.72278734927954 24.924085543112717
344.5497917539138 255.4773164779651 21.077975979718744
350.8544709812048 277.55111061269247 42.613336106526
350.4287646436754 256.59328147884764 18.241368561002204
358.6212706600656 281.02254892216604 27.591710330677916
357.921524031038 271.87803941682023 20.79353075935377
355.37243494777977 296.30805573460935 31.687505211321835
354.35794291330956 272.1707112999793 44.94399370345351
340.57472919465926 261.12431329271374 17.363350927779006
354.0035169042199 292.17683667268574 31.106832168795552
347.8122704926796 273.04213515408054 45.60777550107596
355.12553592886616 261.81208334651126 46.984309270326946
353.09464558061904 274.2972893656187 45.67345577084775
344.4525630513 274.7915112127314 44.75303074158162
352.3296186638378 271.73187202902324 46.44129880198566
348.83120261064937 289.58898503610857 27.7099561964348
353.24619571924796 256.89800635538336 18.999910668153632
344.5922263321331 279.0033920030405 39.52197470105081
340.8256043911363 272.9581601581837 44.78086835609646
344.2965093884721 279.679059115211 37.17996350105584
346.02054766111326 262.01839004387847 47.04739958299407
345.3673067714825 295.5567507906061 24.45743351404863
343.5109619071874 267.4570400166615 46.59008846968526
334.91494475148903 278.56592785259863 24.70019226497855
343.5708409118821 260.6267496959274 45.84353530931251
347.8045514933296 277.6185232779314 42.28063859962399
343.29359489352277 297.0426198571749 24.342018750561685
347.282695616619 268.5565232984587 47.20367730898048
358.8948253993109 281.036076341847 24.999940554545045
359.2174418065 283.62591891392844 26.35675348780759
333.95052833916844 264.8914490623941 27.373438456538636
339.80608405511805 258.3894848749691 21.03119525951199
360.61997750392993 273.803747577724 30.132785990712403
346.46240854792825 283.49381360434967 13.350488358295486
345.7886634651575 260.6369899519259 15.881745859023775
347.66777438314324 300.18494173161235 20.449774133673095
353.4163793290729 264.14881582047036 15.454427319137114
354.8855730675114 289.63892026949554 29.738663211560525
352.3970734768315 279.4207702899525 37.19197714145159
346.6994706723728 262.61290445470297 14.550685170356612
350.27430107242566 262.25620520516713 15.511761929043997
357.0767727684427 298.5660104179399 28.13128283071245
335.6770220522836 261.7290046796194 25.269908531591277
361.0304234238091 268.5976163187369 25.70450433152646
356.35144844975247 261.23351061112334 19.437232321753733
339.6183443991676 265.3393898472522 45.62034671495901
345.2148773463884 277.74689044074665 41.746804560706266
350.358829407082 279.15637469799304 38.329267674230636
346.0143997211248 276.2243037883743 43.66846800460985
349.05057563069386 294.94973526456556 19.881083704775616
349.97099608920394 279.3362073804074 36.14088462637503
336.9870477748937 259.7303343812145 34.00206950009247
334.42505394611885 267.1883917346563 21.494825313733163
335.7540499477669 264.1521986995904 40.12058047253657
358.08016337685945 265.1153960574004 42.38386381642198
343.5101535496261 258.5683706346758 17.773325997272156
349.2436472415115 252.5160672930323 27.194333662006738
334.99659835964815 263.742196763537 36.270387254392986
357.83502634791563 261.4666475720934 20.82309928092334
350.4608496735454 270.23267482628466 13.273961723274724
352.0850983209996 301.73887125496714 19.180228816353083
341.7850107842063 254.82390689486522 33.174280534039525
337.2151910417825 259.67447786284436 24.261891740211947
360.3317966646876 260.81928690315544 34.158694099472974
361.78139677380767 268.47359715328804 32.03222885240027
358.8606322164805 260.5783501804301 22.933301330031103
342.37754232561775 278.4397514795366 41.47455076902476
341.36244320343945 256.66202037765464 22.050012935364247
358.04990176503003 273.94826195394825 20.61858051556722
345.9544232783485 285.50384128726466 13.985076347057602
335.15757929021333 274.93100040252244 37.23432167051006
338.7157704757703 279.5396410419306 33.16700566774024
338.0177375817442 278.21918742047023 38.268083977926146
338.04836558046225 262.64380720172835 17.613950431465746
335.6942654509904 272.3565137334601 41.934447328251096
351.3527787318508 253.7550166052793 42.08076645359413
342.8171429088673 257.6555674246345 45.07353557226891
349.7998400448933 301.5796746046925 20.444453433570313
334.7296215806206 276.89793811608746 17.520006544533256
353.59275222671454 297.8845133115105 32.20347591068735
359.92246799139946 260.3901299717619 37.24814111499248
333.52660090120514 270.14100714113323 33.574082565387435
333.8340233776634 266.20099327786136 31.34193905298174
334.13348315486314 264.2413485255768 29.451680161277906
334.7510802045805 263.02940018479586 27.42197369929657
348.318309107112 253.284134994598 41.264383785202675
356.126673113931 300.69750452876275 27.142480991470144
355.5478398127124 268.20497954449263 45.3593842794051
357.33322403822575 288.5238408991361 25.5437151150141
335.37627039843795 274.50644549705055 15.149516606527937
350.1505558901775 265.2139585415436 49.201843988270255
354.4607308393602 268.29062561524535 16.23155696536005
335.7002146437705 261.82752061280365 34.55619027381004
337.9240156068113 258.32834197731034 31.663388478555156
348.93781519910476 258.7776108862546 17.051838292655848
343.0731994262062 260.58595536693775 16.267983054968703
356.8829204269509 299.3068376118331 20.01512696292677
351.9859449611567 300.2998679493747 17.691076374269006
335.51316599021595 265.0989689438459 19.761449431412423
360.6184106166194 261.7960855959701 28.535921281884153
336.8852206252752 270.2893331073224 43.584603636884545
356.0991076761994 255.5241363579609 40.31655560848313
342.72564563852256 256.8656353915787 19.93193954724169
336.37978862167375 261.45894720891374 22.414953362080475
356.76531971071614 286.8529084816366 12.828350193476751
345.444924074839 266.9336620697908 47.665400413834675
338.6402776322724 262.7371965451603 43.77857216318593
347.01919265552925 266.1430896428396 13.304252036461511
343.74440467371755 300.6837084004914 27.361976657474234
333.93602415516074 270.230047692928 37.771696060013085
343.7753847664475 253.55456022708884 32.017525170265884
353.78677336196415 255.1609329591345 21.48820236049184
360.1007370520035 272.2160576063366 39.27104796307715
352.56401298622825 254.73168438866134 44.04234896547608
341.75486287376106 255.6814370426039 40.647019959050844
356.1689718621116 272.3122376662168 43.89713852279877
353.9668859898234 302.6530818284536 20.85909886338858
358.979226349595 279.4439263458138 16.867867072765875
346.49261249776896 280.0121618205685 34.14939629620241
348.7474359225334 294.4514827530954 28.66700167675261
349.45321528664834 270.7006782685646 46.721116737687304
343.0202001220087 253.75764822245029 28.983034452877693
350.97355447654246 297.2419885481853 32.01627069506025
346.0251342253316 259.37254861002907 46.6840240965147
340.63629130325677 257.35606696232435 42.88228568275868
350.89356637918024 294.03975349232036 30.76950867695337
350.8980081511609 252.98042252639254 37.33651677929884
350.8944348024988 252.6743560709308 32.433058618296265
358.4541581798819 257.86656840429737 38.55438294182633
358.5986522349949 286.56851257149685 26.062040123150634
342.4400622548102 254.79911120613372 37.664836744017606
344.93185539104667 253.10635294965041 27.248901539005246
343.0924244096821 299.44106894593216 21.5676123139213
362.029382886982 267.1626775550227 29.923879042986798
359.5441326018281 283.18785137784624 23.472524839940498
361.64219714210486 267.46707441294905 34.17928081601606
341.1019574047288 258.81405831689256 18.951911647706932
351.9362907105457 252.84432929394382 29.260184815264363
343.75780774771124 297.18600858422036 22.31843845585709
354.6138316279511 254.0316927976798 27.484959008430707
358.8507257437102 263.1370527384735 21.611566876354413
349.0726240009015 254.27229102757195 21.612169860939172
357.98955945737765 288.4878039506924 20.25899835527854
355.4435228416172 256.7249010583178 43.75437124301636
356.6912242377345 293.57222435116256 22.682283670701203
358.47744891424725 267.6284204115272 21.187160646906843
339.59604471596657 270.55941334665687 44.51759578175084
343.2363463278661 254.102326365142 34.94325851619091
335.8419915101528 269.6019298599532 13.86705728941799
348.43521285788313 260.9445835729623 15.433484924633678
356.4192610819339 279.8660175986888 11.919936428757296
354.9124951810328 302.14869348757134 25.42048170878488
338.65385203427473 260.4206328660507 19.551285655409014
348.39366409446836 257.51187290489094 46.58786795414416
337.58689749024745 279.87291702557235 20.89167081252973
353.40769261672705 260.2242320912435 16.976186669032376
336.8538549266414 263.9241058305226 18.666148500690092
357.36065102766025 255.88690564082827 32.98484120604512
344.1546417463459 271.1262877582853 46.3101001654054
355.95607229423126 254.64386050283036 30.308452098818545
358.23818322457464 269.1910610570114 41.615348337754114
334.43655250105536 271.37116572947133 39.79327204855184
336.65755684472725 263.6878714013582 42.36774061184102
347.89000550817184 263.41128858851835 48.631452266256396
341.4387719364392 262.9800924923878 45.26252086708655
346.8721189192512 252.8861190034668 25.710751095141813
344.040751073963 263.5886811031452 46.068298154799535
345.39337323582987 273.12753948635697 46.043655079384166
338.2326081808589 259.1444500730697 39.21294228120001
355.7467674210191 255.7477682407602 22.9326965827379
349.3463152604683 278.40166896810797 40.17182796353438
349.1673811201638 288.89745136546327 14.304151033255343
353.89468520941136 253.94037062033817 37.62802319985856
357.59224184736604 275.724012785214 39.7441904248669
345.24362603445115 256.74137765178386 18.93907604777312
333.1208221250014 271.50790734599786 31.122344492013763
333.8642105325128 276.5250048861618 29.852502917445513
338.0720354753075 258.3003777085009 25.771872258657034
346.92964747073614 278.2660811949784 39.83564956710756
337.1956244616992 279.30536706222847 31.231402660903942
350.1465807577687 292.09895755219924 21.277098644816107
336.9893553256005 260.6510448433251 38.849597080743294
360.5361460675451 265.2773992676514 38.6927120867222
345.3131638924653 270.6094410803019 11.861663105785178
339.65027458929796 262.662032544367 16.380954318490446
361.19394618889623 266.3885361836561 36.334723357928254
335.92791791893626 261.98109477299926 36.46183634716367
348.08503112481594 252.83711512691966 36.407689688818955
361.0614904122352 271.08047767067717 35.49739712429823
358.8813233030168 276.7711668273238 32.38283313058542
352.9518258236602 263.6121660713682 49.018849473053976
355.01570773342183 294.3147263282532 31.978947975941054
348.82688408167616 268.0729311314239 13.855045527654351
358.6023982188005 272.9676372197988 22.41124009197778
346.5662720191825 295.697787085815 21.253473399251874
351.7299200030802 278.7697973112416 39.89397944521263
347.4417819753618 285.09966937185925 12.797049953516195
350.5783261490225 282.6216908227931 33.172968399315835
334.2623035600058 272.62661547441326 37.634499369555975
335.8011407506589 263.45273492918926 21.629530980866658
345.76834400417897 264.5815028464205 47.588559116616295
350.4104528587909 273.6596750721817 45.93219589232047
348.42266968805785 279.0533533692702 38.05259402584126
359.475513384867 285.2309379608973 22.317244324006392
338.8771200714697 259.2345575483491 41.939624775193025
344.3828139453669 280.0677787756255 12.453201338409086
357.4955184543961 297.70347007183256 25.46426538040982
358.4424830995539 257.68053034925595 26.52929036632982
357.22246301045294 295.2371477735364 20.510247528172584
348.1101179644099 293.9408857802885 23.216414972715736
360.65897328887615 273.07971166035856 34.62553081289857
352.01837290290064 269.11071840301486 46.98003821529122
351.87160720229184 287.71223289798934 32.90462024147703
346.2960504980606 279.28546154507114 37.78234707302529
357.23298417188613 297.5815933054797 20.185988563400027
340.96174516344104 255.8436961115532 24.793962655761245
356.8614457454159 286.7959564575175 31.187579023038374
356.5108701711983 294.24854178607495 30.59825950449929
359.8932999695606 259.29294492628475 28.97175695015809
339.60976598942386 256.5571476492925 30.280800645050494
355.62584165276445 254.4814965839584 32.4079955551974
335.628285316787 261.16245085875994 27.67532706729813
346.32472803694316 253.7618492412054 42.26933408788971
353.17659057805486 295.1185224467651 32.592100167676044
361.0093192396354 270.4955003822508 37.79744726032092
355.6163473907004 300.7411653453785 20.045063782139305
341.4127601585781 255.02054396648342 30.85197974740201
338.65249675238476 276.223923563162 43.10082876706887
361.3039672268248 271.97428679015434 29.991254438719373
356.91194025760643 264.85892564133025 18.297985875619336
360.78443283674267 263.6303630886359 26.781049699875872
357.9396471510138 258.4648495752023 41.744471756385174
345.8140620914024 279.5655362239747 35.96876443270284
349.0900422127101 303.0802464231498 25.73674288372549
353.81257337230653 253.49765445386117 31.912645402963538
360.5340368487128 261.34548592859744 31.10180265823632
357.45037052609746 295.30007773411836 27.700846857648436
353.0120625563894 302.9529626626265 27.268117397072718
347.69596896003503 266.09378526721736 48.109239085031874
356.9113399244001 255.5624641202482 27.866631916343685
342.1495274305025 275.0375250097823 44.764004604808434
352.4568442437482 266.58705535467715 47.91404271557329
342.5243825349475 255.89863942810206 43.13224384858588
352.0967101012951 289.3540084992886 30.992531188455768
352.15460420037374 298.47391836203707 16.67573675991772
353.16249072858017 295.30345979933327 16.75476275807137
349.1356436446723 252.88525455087284 38.34746835730253
336.94981353249983 262.570936539265 20.082536525952346
356.9802306124761 277.4905295605242 37.99981293267864
358.74831928115157 275.98008448130076 20.78428366002555
354.69783860905915 297.8431493400659 16.76750562288334
350.8573263970895 291.1754472600565 18.271741755409675
357.4395850067435 284.4811666885365 12.97573320217751
357.6061915961504 278.32764720102426 33.486620084023656
342.49431531010146 265.5744650352571 45.41601819130526
344.2761375049811 253.8226767879735 39.928819828241174
339.1574424532235 267.76342640248856 12.071565140449765
349.7984777736734 291.5915908130951 27.333047713392894
354.5574885693809 301.3284836597164 28.966993331007398
357.65885065713724 283.32383217446784 31.403505908918184
353.54960713707084 276.54514832365123 43.89343603554104
339.2616635597863 256.8856955047754 26.042763936560547
355.46955509630186 290.1773701370549 26.393593654279734
343.5585543864959 283.097636679075 15.29182425560932
359.0256303991821 271.00385690433495 22.313827984284497
357.2089700516394 299.4416607455517 21.952981468050208
344.9520694160998 298.6209950903209 19.827924550551284
346.96121838883124 255.12452115098276 20.220807427689625
350.80594079448963 266.6646051719655 14.791303789851577
357.4294675231911 298.523891713001 23.70843062069018
333.33237595249204 272.9071600133332 19.448185521532483
349.15406344740495 285.8326133932122 12.090022808063344
337.14033236771553 265.3517680500082 44.00130219798659
350.1389161877736 252.81918223950413 34.87455445225958
352.7346799554961 282.7322068055777 33.3246448890037
351.6711206677904 291.4603895148679 29.269131508193073
334.9640521347904 265.0138964718719 22.5542064717094
344.54521712048444 282.3184723861586 13.352600254203082
357.05250775337214 278.0785314356141 12.29684747158609
341.2097442538778 262.73469525524706 15.020672399611351
358.94638189847296 282.81178753802226 28.996585125301433
339.8557862276247 277.9972587604421 42.05513363169456
352.5108311123183 253.19507711191426 34.77653237552586
349.690115423122 296.4740718397997 29.98183077704335
358.87265588112996 278.6606840392818 23.924883085397155
348.6344521694162 289.8989250663751 17.90312879044841
355.515985900267 301.538929574985 22.71743027132419
353.48253029422614 278.0595060770426 9.935810534720211
334.0766750637733 266.72245079921083 23.896729418023238
351.5708077840192 254.12651203520738 22.933375737912495
349.1821691283928 253.09909157359527 24.23771269092083
348.35587622170897 282.6618703154158 32.60546375357139
349.75306557252947 291.77992476061405 24.567382282063043
361.1526828273243 263.5000326832096 33.00037413139836
359.0588845577011 278.27015940216836 21.412749812384853
348.5846327743942 260.43836481752663 47.929430814860986
360.09034999657683 262.5575294968061 39.21846695546654
335.10320643478383 266.2778898080411 17.912903187653516
353.6901590287386 303.32488414438734 23.464892408971497
355.46221379030897 257.3149433074557 21.045070902457134
359.11128246086145 280.239832299285 19.560786489726908
337.26540376321395 261.4554687295756 41.019650150422414
360.90968434691234 263.4219677269745 36.19041940864298
342.8087921137486 254.24387235688258 26.15405106606096
359.69414969028736 275.10221683086644 29.058166030465006
358.3349782333874 274.7525537757211 22.288731704166562
342.02430522474145 282.77445874344363 22.958004748808058
344.4971407767513 258.73593445312645 45.80125303020118
338.0924873989147 273.2973351283691 43.788219020820506
355.9037871797625 298.69579978040497 18.695893200224962
334.5268646995226 269.94055394083364 15.537619902901382
354.03856414216267 301.60063814994146 19.290016445855453
353.2992073850203 290.6112479189086 29.15262494164271
356.145512280211 290.37593285901875 21.405542024310616
350.23244208436296 253.0792217190257 40.22073772143451
353.3889259302561 258.6848204548892 18.052126153044266
357.06481275587333 263.51306638767096 44.70054663824982
340.12797234899114 279.47303350295977 37.26831860488698
337.5267701069091 261.0564491523999 21.012100973579212
358.5929213077558 276.7071477034133 16.122006024606712
356.2918299172121 271.40167172429875 17.228118394679573
349.85967437703295 255.3420731802815 45.34853965798984
357.74367243144246 296.718775928956 22.72949332509364
356.88647656775674 300.13988473647396 24.688510900618347
348.56406459285733 294.27032679622675 21.466802826711056
350.13386362942083 258.71868247592147 47.523982893502534
355.0726707413408 259.14585001499967 18.84446927002229
355.5163292123582 271.69495054308845 14.926948668076257
359.3823250742055 265.46351084234936 22.531473288759894
344.7729266793367 253.6010168847653 24.995833679918917
356.98588117028254 296.8000639370974 30.05296873017561
352.06951195688896 253.3289407852566 39.02751515839103
349.7645778697921 303.8518719579304 23.741529680439392
355.07728302896305 254.33441060575018 34.38959574161467
341.024891195751 257.3874787897498 20.302347847419593
350.17011063771474 296.46181733232237 17.637359451058842
356.9119684921146 259.5504050913993 21.03033600751894
355.70164429126936 291.4039881954476 24.014978950566277
349.43552738867317 290.55062036771676 19.473572401607253
350.8699061892257 303.5607328952549 26.929619081371197
337.8097417065356 278.99492978370057 16.420408256823173
335.01761036225594 275.81182196128054 34.898687185029786
343.01375232704 283.2498453991994 29.138761254119352
337.27882754580384 268.601571312558 12.560376703879998
335.25224703134205 278.7918461061083 21.76843830239415
340.46865367295766 260.1155297744234 44.23206242502296
357.7139825249131 281.7599407709424 13.347147630421384
354.58480863228834 254.7969342444637 42.43186168895443
355.2583045059373 291.0215069343128 18.877887124550323
357.1358438587421 299.37115352291556 26.38192484632166
344.4406010644779 277.7247894037424 10.947667832225324
358.91523440925033 276.4123542994966 23.026318443176148
342.5028683238258 280.80112628469186 30.9301108270144
355.0830120543056 261.1682899690963 17.951598618072662
340.00663030113657 280.8762417967323 21.812628202989057
355.6569100477461 299.20982521141553 30.74183944339211
341.8476134666474 259.4669586406117 17.222148251312973
354.09873832724503 254.459708403862 24.28577282611482
341.8556787234619 282.85783179288205 19.896032093552346
360.5917347099146 270.8704306441149 25.348510606828043
339.62851393600454 257.43985756698686 40.595291809529726
360.17747915239516 267.77116067794134 23.18534540929337
347.8594051310041 270.4786659071495 12.560338645169718
346.4615436647393 274.5215458025842 44.82777100152007
355.7509751259996 276.20756643177833 42.02192539297496
350.4460252901652 293.03867645194714 28.84323168680881
353.15040931005495 276.02685833892207 9.768617762761256
347.7745642425052 256.5574335523321 18.189530740575755
355.33564962373237 285.2966748779427 11.537647053995133
343.84394245071184 254.82988426065057 42.050925493927046
347.6599166468978 279.4903844424572 35.926154940729774
343.14672952038404 273.0071249070387 45.438970721127994
356.20505712436517 300.22420819317995 28.899244789127117
352.4274559408929 265.787925704557 15.172576086803648
354.10208437978315 300.41511571868267 17.67547870370687
333.43523891721014 269.817536492082 20.797119516511426
342.1221933450349 270.8233443842809 45.22111344835851
343.4574191200002 297.34186824668336 26.49962810131544
358.1006980708185 278.98136439166416 14.013813313945825
359.87720841280697 267.00949374077726 41.03353233896338
338.34530904070897 257.82601307635497 28.246470969586284
361.1781953690612 270.8498053574187 27.58516641003443
347.20209145521613 280.86857366769084 32.376262226491136
355.07551026207705 290.21255558395166 16.483645915071506
333.6308606510115 272.6023490206875 33.55267228120356
358.7045753064008 259.1541426206051 24.70047670664349
348.99314613846974 265.4714790540737 14.306475430233776
355.18483423371765 264.51306519603844 16.831197680695485
352.3480212879793 290.63829779998923 15.997794259382344
POLYGONS 1502 6008
3 8 5 3
3 10 8 9
3 10 9 12
3 12 9 11
3 16 1 17
3 17 1 0
3 710 616 21
3 423 726 15
3 423 15 22
3 641 627 19
3 25 710 21
3 547 29 34
3 29 547 30
3 26 30 27
3 27 30 547
3 423 31 28
3 423 22 31
3 31 22 18
3 32 714 33
3 33 714 17
3 33 17 34
3 304 51 752
3 44 29 30
3 44 30 243
3 32 33 47
3 36 37 49
3 49 37 683
3 643 42 54
3 69 58 53
3 47 48 61
3 49 80 64
3 246 649 51
3 89 77 73
3 722 79 81
3 722 81 65
3 111 292 101
3 127 129 131
3 129 140 131
3 435 159 140
3 165 167 158
3 158 167 159
3 151 171 161
3 161 171 160
3 171 151 170
3 171 170 655
3 167 165 229
3 229 165 383
3 383 165 207
3 238 167 229
3 167 238 716
3 207 381 383
3 383 577 596
3 402 414 411
3 169 153 414
3 229 482 238
3 482 734 153
3 238 482 746
3 746 482 153
3 381 577 383
3 534 559 411
3 411 414 566
3 734 566 414
3 734 414 153
3 534 566 542
3 7 10 12
3 12 13 7
3 34 17 0
3 34 0 547
3 18 350 23
3 730 20 23
3 23 20 37
3 45 33 34
3 34 29 45
3 18 23 36
3 43 42 26
3 44 59 45
3 45 29 44
3 47 75 32
3 78 722 65
3 49 683 80
3 73 58 72
3 432 64 80
3 81 83 65
3 82 84 66
3 93 94 82
3 94 84 82
3 94 95 84
3 95 656 544
3 544 84 95
3 106 107 93
3 107 94 93
3 107 108 95
3 95 94 107
3 120 121 106
3 121 107 106
3 121 122 108
3 108 107 121
3 151 133 120
3 133 121 120
3 122 121 133
3 142 168 152
3 617 152 168
3 160 154 161
3 436 157 210
3 150 168 249
3 244 716 238
3 238 170 244
3 244 170 151
3 746 170 238
3 229 383 596
3 402 411 559
3 542 577 381
3 411 566 534
3 566 577 542
3 7 6 10
3 635 9 8
3 730 23 350
3 18 22 350
3 350 22 15
3 2 16 714
3 714 16 17
3 691 31 18
3 36 691 18
3 36 23 37
3 684 46 691
3 691 46 31
3 684 691 49
3 691 36 49
3 63 60 684
3 684 60 46
3 64 684 49
3 64 63 684
3 196 683 481
3 196 80 683
3 392 368 119
3 368 263 119
3 368 132 263
3 141 263 132
3 152 141 132
3 623 152 132
3 152 617 141
3 577 734 596
3 482 229 596
3 734 482 596
3 566 734 577
3 5 2 3
3 14 9 635
3 16 2 5
3 75 35 32
3 65 627 78
3 99 582 571
3 598 646 491
3 337 492 135
3 697 646 598
3 598 491 501
3 492 465 135
3 465 536 135
3 60 291 57
3 291 593 57
3 67 458 68
3 67 367 458
3 124 110 457
3 112 521 523
3 513 68 458
3 86 653 505
3 505 653 654
3 697 135 536
3 536 646 697
3 144 605 554
3 68 519 67
3 484 378 565
3 372 516 437
3 436 148 191
3 56 519 68
3 381 207 430
3 430 207 210
3 428 499 126
3 549 546 666
3 657 666 427
3 646 637 491
3 646 490 637
3 87 426 467
3 87 259 426
3 323 536 465
3 135 697 521
3 521 337 135
3 646 536 490
3 381 430 410
3 410 430 208
3 448 98 406
3 68 404 56
3 68 513 404
3 404 513 55
3 398 459 54
3 55 513 403
3 395 516 500
3 466 500 419
3 367 274 731
3 367 86 274
3 274 86 505
3 523 603 112
3 437 72 69
3 72 58 69
3 162 391 484
3 157 645 210
3 157 591 645
3 645 591 163
3 426 97 406
3 406 467 426
3 469 386 143
3 54 459 643
3 643 459 372
3 86 380 475
3 534 542 389
3 484 575 378
3 378 575 155
3 208 377 412
3 624 376 156
3 389 164 366
3 366 164 198
3 475 653 86
3 475 380 663
3 663 380 690
3 155 371 378
3 389 366 534
3 366 559 534
3 412 164 389
3 31 363 28
3 28 363 632
3 67 380 367
3 367 380 86
3 272 149 537
3 58 620 53
3 620 59 44
3 381 410 542
3 542 410 389
3 631 538 731
3 466 419 538
3 389 410 412
3 412 410 208
3 316 199 554
3 378 376 565
3 565 376 198
3 751 400 262
3 546 660 666
3 565 374 484
3 484 374 162
3 164 565 198
3 164 374 565
3 378 371 376
3 376 371 156
3 726 556 27
3 28 632 556
3 4 16 6
3 16 5 6
3 412 727 164
3 164 727 374
3 727 531 374
3 6 5 10
3 5 8 10
3 531 735 522
3 522 735 740
3 726 27 547
3 267 156 479
3 156 371 479
3 198 624 366
3 198 376 624
3 0 1 15
3 169 414 402
3 162 531 522
3 162 374 531
3 1 4 15
3 1 16 4
3 4 730 350
3 4 6 730
3 27 471 26
3 26 471 43
3 471 27 556
3 579 431 96
3 457 123 134
3 134 123 358
3 474 425 590
3 590 425 123
3 259 625 541
3 123 457 583
3 511 358 425
3 654 420 529
3 490 551 637
3 494 358 511
3 425 358 123
3 134 358 355
3 295 96 365
3 579 667 109
3 579 96 667
3 511 425 474
3 474 590 485
3 485 590 109
3 485 109 667
3 494 478 355
3 355 358 494
3 494 619 478
3 15 4 350
3 494 353 619
3 494 511 353
3 568 665 532
3 89 739 77
3 89 416 739
3 726 0 15
3 726 547 0
3 28 556 423
3 423 556 726
3 470 526 665
3 528 470 709
3 388 709 440
3 386 618 143
3 454 602 527
3 636 409 216
3 470 528 409
3 143 618 530
3 530 618 528
3 487 384 388
3 388 384 530
3 216 510 464
3 740 382 510
3 337 444 492
3 666 660 444
3 546 357 743
3 657 348 666
3 499 549 348
3 348 549 666
3 685 347 345
3 685 517 347
3 357 546 549
3 492 595 465
3 465 595 507
3 685 345 477
3 427 666 444
3 657 427 599
3 338 605 144
3 344 324 660
3 324 595 492
3 743 341 546
3 743 418 341
3 341 418 344
3 375 680 144
3 680 346 144
3 112 334 521
3 334 337 521
3 599 427 334
3 653 332 654
3 332 503 501
3 546 341 660
3 660 341 344
3 325 391 602
3 602 391 469
3 344 418 680
3 477 326 685
3 484 325 575
3 484 391 325
3 324 344 595
3 427 337 334
3 427 444 337
3 660 324 444
3 444 324 492
3 487 659 384
3 384 659 527
3 487 517 659
3 384 564 530
3 530 564 143
3 522 321 162
3 321 386 469
3 554 375 144
3 289 286 524
3 530 528 388
3 388 528 709
3 239 618 386
3 605 325 454
3 454 554 605
3 602 564 527
3 527 564 384
3 527 659 316
3 554 454 316
3 316 454 527
3 582 112 571
3 112 603 571
3 685 326 517
3 143 564 469
3 469 564 602
3 680 317 344
3 319 507 317
3 680 418 346
3 418 286 346
3 319 317 375
3 375 317 680
3 479 371 241
3 241 371 155
3 126 657 113
3 113 657 599
3 318 751 593
3 751 57 593
3 618 409 528
3 654 295 505
3 57 455 60
3 60 455 46
3 346 289 451
3 346 286 289
3 575 338 155
3 155 338 451
3 743 286 418
3 743 524 286
3 654 332 420
3 420 332 501
3 524 284 289
3 700 273 663
3 289 241 451
3 451 241 155
3 503 603 523
3 503 314 603
3 346 451 144
3 451 338 144
3 87 395 259
3 259 395 431
3 594 305 113
3 114 497 305
3 743 278 524
3 743 357 278
3 275 278 476
3 100 305 594
3 267 275 272
3 272 275 476
3 428 126 497
3 499 271 549
3 271 357 549
3 617 553 141
3 429 268 99
3 99 268 594
3 429 504 268
3 479 284 267
3 162 321 391
3 391 321 469
3 499 348 126
3 126 348 657
3 118 263 141
3 628 265 88
3 57 262 455
3 57 751 262
3 248 261 592
3 261 497 114
3 357 271 588
3 553 118 141
3 190 253 104
3 126 113 497
3 113 305 497
3 428 258 499
3 357 588 278
3 278 588 476
3 669 190 557
3 271 499 258
3 537 612 166
3 147 476 588
3 497 261 428
3 428 261 248
3 272 537 267
3 42 43 54
3 43 403 54
3 471 250 43
3 55 403 250
3 250 403 43
3 138 258 248
3 248 258 428
3 592 261 745
3 745 261 114
3 187 574 138
3 398 54 403
3 403 513 398
3 728 267 537
3 574 552 138
3 574 147 552
3 552 147 588
3 138 552 258
3 114 407 745
3 593 329 71
3 593 291 329
3 325 605 575
3 605 338 575
3 459 256 419
3 419 256 70
3 459 398 256
3 256 398 70
3 750 55 250
3 250 471 750
3 46 455 31
3 289 284 241
3 241 284 479
3 740 240 522
3 740 239 240
3 240 239 386
3 275 267 284
3 216 409 239
3 239 409 618
3 108 656 95
3 108 621 656
3 275 524 278
3 275 284 524
3 471 556 750
3 750 556 632
3 133 151 161
3 347 586 345
3 353 551 342
3 122 161 154
3 122 133 161
3 586 619 342
3 746 655 170
3 655 328 171
3 171 328 160
3 359 354 440
3 407 100 725
3 325 602 454
3 487 354 517
3 517 354 347
3 615 51 649
3 485 340 474
3 505 295 631
3 631 365 538
3 538 365 466
3 529 495 693
3 511 306 353
3 474 340 236
3 495 529 235
3 235 529 420
3 693 495 667
3 667 495 485
3 306 551 353
3 295 529 693
3 529 295 654
3 353 342 619
3 491 270 501
3 501 270 420
3 637 551 242
3 235 420 270
3 295 693 96
3 693 667 96
3 340 485 495
3 637 242 491
3 242 270 491
3 474 306 511
3 306 236 242
3 242 551 306
3 236 306 474
3 270 236 340
3 270 242 236
3 340 235 270
3 340 495 235
3 631 295 365
3 731 538 70
3 70 538 419
3 501 234 598
3 598 234 523
3 501 503 234
3 234 503 523
3 365 232 466
3 466 232 431
3 365 96 232
3 232 96 431
3 509 692 329
3 63 74 60
3 74 291 60
3 475 721 653
3 503 332 721
3 721 332 653
3 70 458 731
3 731 458 367
3 655 746 153
3 503 721 314
3 166 728 537
3 505 631 274
3 274 631 731
3 166 612 249
3 249 612 150
3 603 314 571
3 314 273 571
3 70 228 458
3 458 228 513
3 70 398 228
3 228 398 513
3 690 679 519
3 519 679 67
3 690 380 679
3 679 380 67
3 522 240 321
3 321 240 386
3 663 533 475
3 663 273 533
3 533 273 314
3 475 533 721
3 721 533 314
3 700 422 429
3 71 504 422
3 422 504 429
3 318 361 751
3 361 519 56
3 55 343 404
3 404 343 56
3 343 400 56
3 751 361 400
3 400 361 56
3 71 329 504
3 329 692 504
3 690 700 663
3 690 408 700
3 750 343 55
3 344 317 595
3 595 317 507
3 99 463 582
3 113 599 463
3 463 599 582
3 594 113 463
3 463 99 594
3 519 717 690
3 318 408 717
3 717 408 690
3 470 636 526
3 470 409 636
3 594 268 100
3 672 438 464
3 400 737 262
3 737 400 343
3 598 584 697
3 697 584 521
3 598 523 584
3 584 523 521
3 262 363 455
3 455 363 31
3 262 737 363
3 363 737 632
3 71 422 408
3 408 422 700
3 100 268 692
3 692 268 504
3 526 335 417
3 526 636 335
3 593 71 318
3 318 71 408
3 318 717 361
3 361 717 519
3 446 136 285
3 429 273 700
3 110 744 457
3 744 583 457
3 259 541 426
3 426 541 97
3 579 259 431
3 655 153 561
3 153 169 561
3 744 541 625
3 109 625 579
3 109 744 625
3 123 583 590
3 579 625 259
3 737 343 632
3 632 343 750
3 590 583 109
3 109 583 744
3 139 748 145
3 124 176 110
3 447 448 176
3 77 739 634
3 634 739 92
3 128 351 139
3 92 186 297
3 297 186 101
3 539 320 292
3 446 233 136
3 446 447 233
3 320 539 351
3 309 92 297
3 297 230 309
3 230 227 117
3 292 320 227
3 227 320 117
3 111 237 125
3 230 211 309
3 292 227 101
3 445 137 285
3 285 312 445
3 456 233 124
3 473 525 562
3 540 351 128
3 76 634 91
3 93 214 106
3 120 706 151
3 105 706 120
3 93 79 214
3 93 81 79
3 623 580 215
3 215 580 245
3 255 213 146
3 438 525 213
3 106 105 120
3 106 214 105
3 464 255 216
3 216 255 636
3 255 146 335
3 335 636 255
3 216 239 510
3 510 239 740
3 438 672 204
3 204 672 591
3 740 735 382
3 382 735 604
3 382 672 510
3 510 672 464
3 100 692 725
3 100 407 305
3 305 407 114
3 692 509 725
3 725 509 88
3 369 628 201
3 201 628 88
3 377 531 727
3 727 412 377
3 88 265 725
3 265 407 725
3 74 201 509
3 509 201 88
3 369 201 63
3 63 201 74
3 74 509 291
3 291 509 329
3 716 244 706
3 244 151 706
3 745 723 313
3 745 407 723
3 723 407 265
3 167 716 159
3 25 21 38
3 623 132 644
3 644 132 368
3 628 192 265
3 557 628 369
3 745 102 592
3 745 313 102
3 313 104 102
3 190 104 313
3 723 265 192
3 192 313 723
3 192 557 190
3 190 313 192
3 669 557 432
3 432 557 369
3 592 102 396
3 617 150 183
3 183 553 617
3 248 187 138
3 248 592 187
3 118 553 130
3 553 181 130
3 180 185 149
3 180 183 185
3 190 669 715
3 181 574 187
3 668 102 104
3 181 183 180
3 181 553 183
3 396 187 592
3 180 574 181
3 658 648 715
3 147 180 149
3 147 574 180
3 181 187 130
3 392 648 220
3 104 184 668
3 668 184 118
3 263 184 119
3 119 184 253
3 258 552 271
3 271 552 588
3 25 742 710
3 668 396 102
3 668 130 396
3 263 118 184
3 187 396 130
3 668 118 130
3 253 184 104
3 648 119 253
3 392 119 648
3 37 742 683
3 648 253 715
3 715 253 190
3 149 185 537
3 537 185 612
3 612 185 150
3 150 185 183
3 196 613 80
3 715 669 613
3 617 168 150
3 147 149 476
3 476 149 272
3 715 613 658
3 658 613 196
3 628 557 192
3 80 613 432
3 432 613 669
3 63 64 369
3 369 64 432
3 328 655 561
3 145 562 434
3 148 158 435
3 435 158 159
3 129 543 140
3 140 543 435
3 434 562 288
3 288 562 525
3 158 681 165
3 681 207 165
3 87 516 395
3 207 681 210
3 210 681 436
3 430 210 645
3 466 698 500
3 500 698 395
3 466 431 698
3 698 431 395
3 643 53 42
3 42 53 243
3 53 643 69
3 500 516 372
3 53 620 243
3 243 620 44
3 42 243 26
3 243 30 26
3 599 334 582
3 582 334 112
3 134 415 457
3 456 124 415
3 415 124 457
3 131 706 105
3 131 103 127
3 127 103 115
3 670 722 718
3 78 75 299
3 35 75 78
3 103 670 718
3 299 722 78
3 299 718 722
3 105 214 670
3 214 79 670
3 131 140 716
3 35 569 32
3 131 105 103
3 105 670 103
3 716 706 131
3 722 670 79
3 35 78 627
3 641 569 35
3 2 569 3
3 35 627 641
3 716 140 159
3 32 569 714
3 714 569 2
3 3 569 641
3 279 665 417
3 456 415 283
3 283 415 134
3 417 665 526
3 362 417 146
3 417 335 146
3 283 200 532
3 532 200 355
3 283 134 200
3 200 134 355
3 571 749 99
3 99 749 429
3 571 273 749
3 749 273 429
3 645 163 430
3 430 163 208
3 604 735 377
3 377 735 531
3 163 604 208
3 604 377 208
3 231 677 712
3 701 626 197
3 701 322 626
3 578 629 686
3 413 699 195
3 573 544 656
3 322 251 626
3 626 251 401
3 322 600 251
3 677 508 701
3 677 231 508
3 195 699 609
3 609 699 608
3 115 103 718
3 251 600 581
3 483 489 647
3 486 647 489
3 686 572 578
3 686 508 572
3 572 508 231
3 578 460 629
3 629 460 589
3 578 673 460
3 460 673 589
3 600 570 405
3 489 639 373
3 573 385 558
3 630 331 558
3 630 399 331
3 699 327 608
3 486 290 647
3 570 311 686
3 570 600 311
3 311 600 322
3 364 662 349
3 647 290 254
3 331 399 327
3 327 699 331
3 300 290 296
3 472 300 293
3 486 302 290
3 290 302 296
3 293 280 257
3 280 399 257
3 647 254 483
3 483 254 352
3 630 257 399
3 290 300 254
3 581 373 251
3 251 373 401
3 558 331 413
3 413 331 699
3 360 66 246
3 223 231 712
3 686 311 508
3 578 572 221
3 221 572 231
3 276 635 24
3 194 567 50
3 50 567 39
3 567 178 39
3 84 649 66
3 66 649 246
3 483 266 621
3 266 385 573
3 199 326 319
3 673 738 589
3 452 50 197
3 154 160 607
3 14 635 276
3 154 639 621
3 677 52 712
3 267 728 156
3 156 728 624
3 3 397 8
3 197 626 452
3 508 322 701
3 508 311 322
3 752 287 304
3 622 302 719
3 385 266 352
3 352 266 483
3 215 245 225
3 39 506 50
3 52 677 506
3 621 266 656
3 656 266 573
3 483 621 729
3 85 493 452
3 729 621 639
3 328 225 160
3 52 506 40
3 40 506 39
3 304 287 218
3 217 468 41
3 168 212 249
3 169 402 212
3 212 402 249
3 624 728 209
3 209 728 166
3 40 206 52
3 41 747 206
3 206 747 52
3 559 205 402
3 166 249 205
3 205 249 402
3 142 169 212
3 212 168 142
3 561 225 328
3 304 218 276
3 276 218 14
3 218 294 11
3 287 294 218
3 287 41 294
3 142 638 169
3 169 638 561
3 209 166 205
3 205 559 209
3 616 217 21
3 747 41 287
3 225 561 638
3 483 729 489
3 489 729 639
3 623 202 152
3 152 202 142
3 623 215 202
3 202 215 142
3 316 659 199
3 608 614 609
3 673 221 614
3 614 221 609
3 294 468 732
3 217 616 468
3 616 732 468
3 21 330 38
3 330 40 39
3 41 468 294
3 40 330 217
3 217 330 21
3 11 732 12
3 12 732 13
3 624 209 366
3 366 209 559
3 13 616 710
3 13 732 616
3 41 206 217
3 217 206 40
3 14 11 9
3 294 732 11
3 319 375 199
3 375 554 199
3 218 11 14
3 225 638 215
3 215 638 142
3 591 333 163
3 163 333 604
3 591 672 333
3 604 333 382
3 382 333 672
3 25 38 481
3 38 664 481
3 38 330 178
3 178 330 39
3 664 38 178
3 615 752 51
3 493 194 50
3 50 452 493
3 220 498 392
3 392 498 393
3 393 247 644
3 85 580 247
3 664 178 220
3 701 197 677
3 197 50 677
3 567 194 498
3 498 178 567
3 664 220 658
3 392 393 368
3 368 393 644
3 644 247 623
3 623 247 580
3 493 85 247
3 247 393 493
3 648 658 220
3 50 506 677
3 220 178 498
3 664 196 481
3 664 658 196
3 609 223 195
3 393 194 493
3 393 498 194
3 752 223 747
3 747 287 752
3 13 514 7
3 7 514 20
3 13 710 514
3 578 221 673
3 687 515 450
3 416 640 652
3 652 640 98
3 125 237 446
3 446 237 447
3 448 394 98
3 448 447 394
3 394 447 237
3 224 652 356
3 356 652 98
3 462 416 89
3 462 640 416
3 186 315 224
3 416 652 315
3 315 652 224
3 394 237 356
3 356 98 394
3 146 260 362
3 473 312 260
3 362 252 417
3 417 252 279
3 362 421 252
3 252 421 279
3 245 401 607
3 115 175 127
3 175 129 127
3 416 315 739
3 230 219 211
3 230 117 219
3 111 101 224
3 101 186 224
3 473 203 525
3 473 260 203
3 203 260 146
3 101 227 297
3 297 227 230
3 540 193 116
3 193 543 129
3 148 226 191
3 191 226 705
3 204 288 438
3 288 525 438
3 705 434 191
3 434 222 191
3 434 288 222
3 222 288 204
3 213 525 203
3 203 146 213
3 292 189 539
3 125 137 189
3 189 137 539
3 145 188 562
3 145 748 188
3 188 748 445
3 139 145 705
3 145 434 705
3 739 186 92
3 739 315 186
3 224 356 111
3 111 356 237
3 226 128 705
3 705 128 139
3 117 320 540
3 320 351 540
3 157 204 591
3 157 222 204
3 92 309 634
3 634 309 91
3 223 752 615
3 615 195 223
3 413 195 544
3 544 195 615
3 285 137 446
3 137 125 446
3 91 211 708
3 91 309 211
3 125 189 111
3 189 292 111
3 137 445 539
3 539 445 748
3 562 188 473
3 473 188 312
3 312 188 445
3 362 260 182
3 182 260 312
3 19 397 641
3 641 397 3
3 581 694 370
3 370 694 719
3 694 405 719
3 629 633 686
3 686 633 570
3 629 687 633
3 633 687 570
3 136 182 285
3 285 182 312
3 362 182 421
3 421 182 136
3 708 115 518
3 518 115 718
3 299 90 518
3 518 718 299
3 115 708 387
3 387 708 211
3 540 116 117
3 116 219 117
3 456 179 233
3 233 179 136
3 456 421 179
3 179 421 136
3 128 177 540
3 543 193 177
3 177 193 540
3 219 116 387
3 387 211 219
3 124 233 176
3 176 233 447
3 175 115 387
3 387 116 175
3 742 514 710
3 738 673 614
3 614 608 738
3 148 435 226
3 435 543 226
3 543 177 226
3 226 177 128
3 91 708 90
3 708 518 90
3 116 193 175
3 175 193 129
3 191 222 436
3 436 222 157
3 539 748 351
3 748 139 351
3 436 681 148
3 148 681 158
3 25 481 742
3 481 683 742
3 98 174 406
3 406 174 467
3 98 640 174
3 601 173 515
3 515 173 450
3 601 622 173
3 173 622 450
3 515 650 662
3 650 629 589
3 438 213 464
3 464 213 255
3 662 172 515
3 515 172 601
3 662 364 172
3 172 364 601
3 629 650 687
3 687 650 515
3 72 661 73
3 73 661 89
3 72 462 661
3 661 462 89
3 611 437 516
3 110 585 97
3 110 176 585
3 585 176 448
3 462 563 640
3 462 611 563
3 563 611 467
3 421 550 279
3 279 550 283
3 421 456 550
3 550 456 283
3 97 585 406
3 406 585 448
3 467 682 87
3 87 682 516
3 467 611 682
3 682 611 516
3 174 640 563
3 563 467 174
3 97 744 110
3 97 541 744
3 500 720 419
3 419 720 459
3 500 372 720
3 720 372 459
3 69 548 437
3 437 548 372
3 69 643 548
3 548 643 372
3 437 520 72
3 72 520 462
3 437 611 520
3 520 611 462
3 512 58 73
3 662 650 480
3 480 650 589
3 424 461 327
3 327 461 608
3 424 738 461
3 461 738 608
3 90 704 61
3 90 299 704
3 704 299 75
3 62 453 48
3 48 453 61
3 62 76 453
3 453 76 61
3 619 733 478
3 619 586 733
3 733 586 359
3 355 724 532
3 355 478 724
3 724 478 488
3 532 724 568
3 568 724 488
3 354 359 347
3 359 586 347
3 478 606 488
3 359 440 606
3 606 440 488
3 597 280 293
3 532 545 283
3 283 545 279
3 532 665 545
3 545 665 279
3 345 449 678
3 678 449 342
3 345 586 449
3 449 586 342
3 349 441 280
3 327 399 441
3 441 399 280
3 733 359 606
3 606 478 733
3 678 695 323
3 323 695 536
3 678 490 695
3 695 490 536
3 354 671 440
3 440 671 388
3 354 487 671
3 671 487 388
3 440 709 488
3 488 709 568
3 323 439 678
3 678 439 345
3 323 477 439
3 439 477 345
3 450 736 405
3 405 736 719
3 450 622 736
3 736 622 719
3 364 703 601
3 601 703 296
3 364 597 703
3 703 597 296
3 280 696 349
3 349 696 364
3 280 597 696
3 696 597 364
3 83 339 65
3 65 339 627
3 83 360 339
3 627 339 19
3 678 610 490
3 490 610 551
3 678 342 610
3 610 342 551
3 327 441 424
3 424 441 349
3 276 535 304
3 246 51 535
3 535 51 304
3 83 81 82
3 81 93 82
3 246 535 24
3 24 535 276
3 360 83 66
3 83 82 66
3 433 397 19
3 635 560 24
3 397 433 560
3 560 433 24
3 24 360 246
3 24 433 360
3 360 433 339
3 339 433 19
3 302 336 296
3 296 336 601
3 302 622 336
3 336 622 601
3 296 310 300
3 300 310 293
3 296 597 310
3 310 597 293
3 470 303 709
3 709 303 568
3 470 665 303
3 303 665 568
3 662 480 349
3 349 480 424
3 570 713 405
3 405 713 450
3 570 687 713
3 713 687 450
3 639 154 607
3 397 560 8
3 8 560 635
3 424 675 738
3 738 675 589
3 424 480 675
3 675 480 589
3 85 452 626
3 626 401 85
3 747 223 712
3 712 52 747
3 544 702 84
3 84 702 649
3 544 615 702
3 702 615 649
3 719 443 370
3 719 302 443
3 443 302 486
3 639 676 373
3 373 676 401
3 639 607 676
3 676 607 401
3 489 587 486
3 489 373 587
3 85 401 580
3 580 401 245
3 58 707 620
3 620 707 59
3 58 512 707
3 707 512 59
3 225 576 160
3 160 576 607
3 225 245 576
3 576 245 607
3 370 555 581
3 581 555 373
3 370 587 555
3 555 587 373
3 405 694 600
3 600 694 581
3 486 587 443
3 443 587 370
3 62 674 77
3 77 674 73
3 62 512 674
3 674 512 73
3 385 502 558
3 558 502 630
3 630 496 257
3 257 496 308
3 630 502 496
3 496 502 308
3 308 741 472
3 741 385 352
3 385 390 502
3 502 390 308
3 385 741 390
3 390 741 308
3 621 379 154
3 154 379 122
3 621 108 379
3 379 108 122
3 223 307 231
3 231 307 221
3 223 609 307
3 307 609 221
3 48 301 59
3 59 301 45
3 301 33 45
3 254 298 352
3 472 741 298
3 298 741 352
3 77 282 62
3 62 282 76
3 77 634 282
3 282 634 76
3 59 281 48
3 48 281 62
3 59 512 281
3 281 512 62
3 472 277 308
3 308 277 257
3 472 293 277
3 277 293 257
3 319 264 507
3 507 264 477
3 319 326 264
3 264 326 477
3 472 298 300
3 300 298 254
3 33 301 47
3 47 301 48
3 507 711 465
3 465 711 323
3 507 477 711
3 711 477 323
3 326 689 517
3 517 689 659
3 326 199 689
3 689 199 659
3 544 688 413
3 413 688 558
3 544 573 688
3 688 573 558
3 7 651 6
3 6 651 730
3 7 20 651
3 651 20 730
3 20 642 37
3 37 642 742
3 20 514 642
3 642 514 742
3 90 442 91
3 91 442 76
3 90 61 442
3 442 61 76
3 61 269 47
3 47 269 75
3 61 704 269
3 269 704 75
