# vtk DataFile Version 3.0
A great-looking cell
ASCII
DATASET POLYDATA
POINTS 429 double
201.84844399450603 111.71958680712842 48.10125539937061
202.8390124424765 110.94632135459466 49.9448953744528
203.64386523440862 110.79083525282878 52.24344873391135
200.29804296123413 109.73577051010295 48.94025191159993
196.9321650793913 110.66831659190902 48.56957354986634
204.6908877930589 112.22987064870576 50.835524950343704
201.97827937851866 108.94013308944471 51.43722912506247
199.30836105713811 107.77442927705937 51.11474090829644
197.16238029802273 106.50957197622988 51.92703069471046
194.3128132079297 109.42021590278613 50.345002930916415
206.5577935291512 112.57513936779779 51.22915784765989
206.0398616045942 113.278432991262 49.5636844354595
192.5033238861922 111.61911542840997 49.389667809331605
201.88414198606367 113.70815519800861 47.04402376066617
197.28973277327177 113.30391899130497 46.999317539737426
201.1307680111507 107.05575866934453 53.678492893503645
207.4488642085672 114.30674932114219 48.57909509359423
199.3942446553719 115.25246504785912 46.32063466358266
202.31183627291526 116.0615043804811 46.4558000316932
203.63109545181766 114.81885645878296 47.51237899226791
194.45201133509798 113.19518009941892 47.64067091624901
196.0588529230135 115.4102083079441 45.60817801787645
197.87430324404855 117.90061027811977 44.84039877176133
202.90089921497113 109.2936072820483 53.87876021228773
207.2629973618811 111.98113113075816 54.48288763028058
209.01917104724984 112.77043117190267 54.85967197975951
209.82352171489578 116.6906732237001 51.270621389760876
209.3287240447601 117.61096615858438 49.254866007808076
204.59859459889952 116.5972298413663 47.247047176013524
207.2620160386401 116.54733230446409 47.86042613387398
190.9915308107652 113.69908250530975 47.565894976430144
194.59250588842576 118.20357155627407 44.27993949269732
192.6156613062205 115.66353390127557 45.45863085014968
205.48136466882318 111.79322748228012 55.36145926161462
207.60965687760694 112.03799637475728 56.696573044892304
195.29037746128992 106.05054593995933 53.690837581285884
211.05235214810654 118.01696585677956 52.577049884587154
210.2157514974727 115.96002097316148 53.49802301928776
209.71416021844436 119.82421465516441 49.605990876115555
191.14483537566417 109.32192720059543 50.76213188857955
187.1094848448303 117.63204198520336 49.422046844002125
189.31338778333188 111.84379468782451 49.673719017771155
192.62699300936828 120.28529167516068 45.45890297595869
190.57374575690318 118.06828850101833 46.461126161115835
204.30730709935278 110.78139255387893 54.13176304097673
210.1144274315696 115.45899979967757 56.93104402367287
189.77391826408112 104.76589913999128 54.80581542675738
212.8606669947243 121.78660750914348 53.18543012462689
185.06974402511304 121.54520477706352 53.84872141585327
191.213169251467 127.95576302370314 50.00066317664144
191.19924912246088 122.52385313953859 46.967150290511384
196.08239702922705 131.16679140152758 56.02325593890613
197.5077504752113 104.75481173659546 57.21608944518277
199.06661528804204 105.29510076891867 55.08274032562871
203.60057871634206 110.26877021226315 56.17778944108765
210.78157931263516 116.3553882665078 58.682988756962445
211.50163430182204 116.87532252968425 56.773381040381196
210.6059273275547 125.85315214525554 57.976896226217555
186.47428008257563 108.21482032006371 52.52164030105216
184.76579504332932 120.51796048975567 57.22876144841596
185.948929992907 117.77084626758317 61.482778312830575
181.75049703962347 112.85310097388235 56.72681210145049
185.1237303626488 120.45323323197384 60.795313472412566
202.40518900683455 108.57333227876369 57.8675398244848
197.061648768362 104.87912678815545 59.8235202997747
202.42998498491278 109.20566701006261 60.23343708599845
202.51534458571817 110.34646046775714 62.5477265756512
206.6256811774038 112.1400626777196 61.3161059009461
207.60738272463567 113.28601935117425 62.59748126783215
194.8920222958226 105.60011745482645 56.62428410482038
209.03368820366467 115.01225223474125 62.96467209752965
210.46789081048865 117.06615525436546 62.319600287235815
186.34869928576776 104.11778478889534 60.21422274980052
206.11846954767796 125.14802046722315 65.58160747932314
188.22614296052132 109.79518476115459 64.51904441387832
188.74149506106625 117.08053156528857 64.79296077755959
185.47277736148564 112.54078633190936 61.445490635140665
194.40965042143648 123.21369330119819 67.2427690402638
194.27330456122007 126.0421157864237 66.85785951280863
201.2674436821146 107.00290286037573 59.60958623733117
208.75506389491056 115.26839579450309 65.40311025051713
206.26026371448717 122.86992631784929 66.32070134295525
188.14350432136476 113.91654627826645 64.88538632390288
194.32516298873458 120.84376360773572 67.69781123291695
190.51730697936094 119.26273327639683 66.02264858557527
206.90754493475382 114.79043240275037 66.85488893077752
193.4014730842684 106.18534560288435 63.00702369633641
202.41970062732244 120.45152712244258 67.71054731792931
190.73241844594736 116.69144138119822 67.73019429814073
195.46513631368168 118.85351352140604 68.01757746809918
192.68286722890906 119.14518821228053 67.99714110914297
198.13907816694157 118.99259358385638 68.40806942126613
204.02431544207525 111.69012360817797 64.1733129368816
205.59791968489355 112.62979868776293 65.8839411089631
195.75218423917963 108.09658021909095 64.59997756714174
204.27478770591838 114.53113567032898 67.14455126992414
199.1236910298102 117.16936533734822 67.53786148924277
192.86396558953194 111.01549622609491 65.57424278501486
192.40604043592955 113.61974858907959 67.4073777346984
193.84701718381535 116.31902502177036 69.44807003324047
197.00850595244566 116.54819171558846 68.39352379709085
198.2645429134437 108.44724804488405 62.89809189682541
203.05718468342505 116.20275646116008 66.68631334810485
195.6728667643928 110.7865238890743 66.12269038933974
200.26818057711435 109.77875961568664 63.89823129792163
202.00944154632927 110.91738789246837 65.06306848573246
199.124622795703 114.66392530564544 67.17743876099729
195.89507617729274 113.31879665387191 68.3281937609269
203.10011122433158 112.79229272191716 65.89430698712299
201.90050139135556 114.56026550399632 66.6917805414447
213.46820768435364 125.54921123000913 53.53947235019207
206.37845135806106 121.07376512324329 47.23702187813748
194.77587957296512 131.20873577354348 53.40568030792619
214.78115117880148 122.31927767297954 59.09773976582956
188.70849800156705 128.42196437075347 57.586928076417685
190.25952526446218 124.89385753606253 48.64542119005468
187.26269754047235 119.84577345943694 63.27177947919936
199.16486471559276 123.87094125947345 69.87828973925522
214.03830247367537 121.98438390164725 61.55897732129648
188.64368692421803 127.45457708174548 54.51737671690905
187.1712394791657 105.83436639830231 54.06668571296264
189.63001280909077 121.75292101766561 64.59096179936844
184.76355340027413 108.31590145612925 57.23863680283695
183.8566058885864 117.30003587683427 56.19463475629539
207.92499546294022 113.58005394358112 50.431521107431394
205.33133170807176 130.39289593697734 53.54998915585785
208.6563775922391 129.34514830366672 58.056320214129016
187.4077025597543 125.62103410383523 64.7369042490106
196.22401739261346 125.08342943240132 69.0664557215216
212.69985460458372 119.96622956258966 61.86056340454135
188.25729043714853 103.75457246167738 57.758538455375415
200.3278580645032 130.9759367164624 62.2727036344445
213.44979410563073 119.03977362604721 58.544632278053555
212.4083505773649 119.48914765831256 53.90819918278975
199.1220079766891 129.40180950921368 67.2806210380046
201.57682481712143 129.98900440865697 63.74743797155386
184.82810214061737 108.25120424321793 60.346831789737585
205.5765738805449 122.76143642678042 46.06546278331006
214.48894928302434 124.42490683157293 60.635484322790425
198.48391607745165 128.62440510526912 43.409236562664596
200.59527498860467 124.43865185586343 43.18073531706413
192.36749072632549 127.28336867890954 65.16636118656034
190.32476708041912 104.79721716838287 63.46069053587479
181.81747242861852 113.57292501095631 52.84663807023428
186.48579051258633 110.87444271649203 63.31746585555884
196.18422276333308 123.15356537054522 42.327946588978065
209.7165345149079 115.84618365539235 60.547901365007924
193.3082261612707 125.85309991727853 43.22815516745987
199.62726449044817 120.27990632303597 44.53395869092926
211.90635985274793 127.28642685014489 56.7079396117289
183.9364294402357 115.56020037033339 60.683293997081236
211.44044474007836 125.30434638526182 54.06010233702455
208.44914971375385 113.596666786673 60.55684613060606
202.20975035533317 130.61161204842088 57.870844159536325
184.5328765848861 119.47891398480185 55.067362607755534
212.14696724024446 118.05332399929709 61.96202899362977
198.96632784560123 122.50226544835793 42.746049126100424
208.7709522516223 129.22815317460538 55.91401439129744
185.94193233116528 110.06082382143025 61.45180207519316
212.9333609805564 117.09377985301566 58.468585653850454
190.31282134691077 103.47977062145873 59.224701593447605
185.3191845681994 121.35522739638859 62.97423238280177
188.74952025243525 124.24919001483993 65.65835445712571
198.18302587074908 109.51164736717246 65.4036246844331
187.98489045345733 127.32468154656598 63.403761790253064
198.81018782054383 131.41777817168557 60.330132956359236
209.39543503486277 114.56774281082305 51.721337916128505
204.7466946128442 130.5617300003349 58.358879877268976
184.9950650176272 123.17290250945818 61.76237594951913
202.74305615665517 130.34752683307417 53.486355662226636
198.37949370761734 131.7235416310363 56.274549045057064
185.7114986852326 110.8073247110482 58.84204560679523
184.8302963868447 116.19490346066489 51.13405068872408
191.55773288807805 124.3937820650343 66.14984875111215
200.73887042343333 118.01230481062409 45.66843421710155
195.68171461789476 128.95890480973404 43.57818145044044
192.84718987326525 122.4523633797672 45.62395927350133
188.6497488961939 106.9525091300602 65.17122513349908
186.0675720394867 125.70980170053464 62.645334549462035
186.91583477654456 115.28122486484183 62.53549642359966
185.4241065262682 110.319765035562 56.897085286841474
185.65456109241566 108.10762999815273 63.6183919231637
186.54869128893293 125.94487327327866 55.25263982261276
184.74363783633524 105.78816962162045 58.97204378437046
189.3608250933258 122.85129313311339 48.300916819947574
182.67926182606547 115.19881784362785 51.27287684977387
187.39274968097692 117.50720520066699 62.87460010812156
186.53043697256874 124.66046207791169 53.160475730055175
203.79525846296465 130.44279063529112 55.815961351580775
188.48367429107 109.40703409946374 51.15455387966315
181.5318372396627 113.17043746294884 54.87632380245261
194.5740781091674 128.23180639624678 65.88501436412018
195.61696210110415 130.52559717828362 48.18252618519428
186.8060376343397 104.3689962907886 63.56550209591179
200.12116598092112 110.548273223549 65.91090389645863
192.45715665375923 130.357447306019 58.22366869403313
192.46261532835203 124.51432258523585 44.88341685347496
184.8150489957471 105.81984144040004 61.600864630569994
210.936105785202 125.23710351165207 62.143472444555336
185.1709176999417 107.37566865574077 54.683065414030246
187.67730083414273 127.80949304345091 60.439609130792995
190.50430602033296 129.3437073747831 59.42664776371003
202.54368834489696 130.03264222432801 61.843454738037565
211.3697959796182 119.00723202303561 63.963186626039494
193.28030640673728 130.34994316697754 60.91900571536045
213.3122103924314 118.36359952274043 60.375251607306794
186.82802677971713 126.70519584704284 57.26635139895835
185.33298115281596 110.30677653083865 54.81608765930821
193.58286611071424 129.66552267625465 64.07911413907541
188.9796874819175 103.48351150643174 60.950017125263095
196.84377793161042 127.59265850488526 42.57326606300439
194.575383765574 129.3187896479079 45.939444886015124
184.8135279038352 122.74505404985614 59.16686545737114
196.6361869329706 121.63099534654084 68.98249852544926
208.1836276995413 129.11679663038117 60.74746459573868
182.03952265557513 115.29085526100653 58.14544723599327
208.16139770758755 112.68114579505398 52.624742888269424
199.52780510183686 130.596402766662 64.6309167366405
185.2020085853824 124.09875654815093 56.42222983021443
188.7382086413528 120.44567094549103 48.087525396109974
192.18230998105625 118.06570679625696 44.63221755351823
199.88410042681676 131.68962848411354 58.02877619870512
207.98693950306398 117.12955015605493 66.48699919395327
191.86558982826514 104.03562131366681 60.77955439311557
196.2618856890478 106.87914322856963 61.68282813242787
189.51548751542228 106.90419462874569 52.321600314985034
202.37777018447824 123.14601096283027 69.08793756416267
203.06130301466925 125.72231606758153 68.35504518275386
193.13572330330194 108.31802303174528 65.10941049898435
189.10475575259898 113.90266683320502 48.675632837007704
197.87679879945108 131.1230071413549 53.957412285768605
190.70199206871038 115.77520234465347 46.70350468812295
183.8692177854617 111.26846759925004 56.95671325624139
203.14227876638054 129.98801076985364 59.799093641911576
199.41540418687447 105.39671445584035 58.68145162551074
205.8482906536506 127.2187913427474 64.79798749744293
209.41849811638514 117.13589369919477 64.46996175710368
214.88158932579725 122.32187053639115 56.805858663378785
198.3881370744378 111.70919105701446 66.93520290461738
211.10506360276014 122.62921539457892 51.93408144895599
189.51934599877174 126.86181703444944 65.52283155875692
182.78271986017 111.84937228517316 54.78403822578677
209.25212312432947 119.14741510168409 65.91274094120133
196.24544932027698 130.943881004439 60.52339027465515
211.54565066094378 126.6962019130026 60.34480148734173
204.99491887217195 111.75058933593678 59.89951555213765
188.58335865673732 126.42040938898839 51.11850542520457
207.10421183230457 131.07072412880157 59.204670497640976
197.82343205971185 130.74622756655384 62.59788151801562
193.96695168571023 124.28993051481937 42.434770391320015
204.58478962308038 111.62698178743328 62.00078892800022
194.30395742295298 105.80290487803792 59.54628896116797
212.4154413039756 123.94648497157338 53.01912646180277
191.90936003249828 104.16993773989144 57.5293052410126
204.54116595202686 124.30407590331461 67.36402391174505
201.11520068018322 125.72008036339977 69.37219572566629
204.4491290264763 120.76752488534346 45.11721821665713
193.77238616219535 130.12931233436598 50.565458523706404
195.27577259114594 107.43501587505412 51.68160800416294
204.40092526919503 121.86551916011048 67.34050764353375
203.96983262708835 126.74885779728179 66.24817255429787
199.85408548771537 121.23334118420559 68.38029872772786
208.77178602010375 115.44990612281772 49.69620254493201
210.35400465033396 118.45611326760687 50.79324232329612
208.70540973968707 112.88768861908588 58.45525771420401
205.95218648612078 120.94882434809061 66.45536721613969
206.73557530953974 119.17233672962954 66.0692213499961
208.4086614771032 123.63857636142295 64.83416253462993
191.30261749853153 124.70711485477882 46.74602310334068
186.30461960125726 111.26266362402059 51.53784668612988
198.34044598146846 108.78869446993873 49.377244789315306
211.58366441233383 117.44922082722744 54.72552575981201
203.37379680710708 118.26515246846446 45.84423921074573
187.62895152159044 104.64338925832564 55.63378373601045
208.6410476728684 127.14072055068274 56.785002143715104
210.44025489104845 126.04849892385597 55.68788647858294
208.92875354798161 123.22235550430462 49.18965252933439
184.65072590867467 118.49390232729797 53.023495557545374
192.679344182387 105.43267755510519 54.63611746725787
194.76253403560136 130.9760619782001 58.322052598914524
194.23356591604357 112.24259623743717 66.79169766278663
208.31407650107846 124.97690930044408 49.583151853332616
212.19362413782673 128.1681599927445 58.54537440011926
189.0156852059686 118.02952312698038 48.135711922747525
198.12243677987078 125.71035196143826 41.7514746919785
204.05315168934894 123.18957122197706 44.953213010660235
186.03009676504524 104.3832237688102 58.281985590432285
210.42139908592156 116.24713437265868 55.44558385615516
190.01366328565177 114.59079373171302 66.19349061970993
209.26127375976745 125.72574809188289 51.54156199374158
214.46790384577488 123.56776775223064 54.62839845164152
209.54778562594933 124.72195579208449 60.09166785344006
212.6291449533141 126.96693924796082 54.896547768925934
205.29143742712535 125.20297227792115 45.83209581233601
201.28830961775637 131.13318008050908 60.06529195403031
191.46856920746407 129.75553179345732 53.19005141625342
205.84655064349943 118.6700076617896 46.57718390668076
197.3010474835087 129.951395922875 45.82398381082671
208.8546940466391 127.53801527610382 54.770847730809884
202.69580588810652 124.89999727072998 44.430196485488786
209.62014142530643 113.97149594168566 53.52230187234638
190.56440513781206 128.70223082260418 62.83471843383233
190.39109856428843 120.45604287633604 46.151211780728
200.74989014119913 112.56400127986873 66.18626723797857
189.59442964653385 111.64524824256856 66.7086987743164
189.24376310922077 115.9141579003386 48.11547475111847
201.66518793490357 127.65707233509477 67.64944797035928
200.63178149020476 118.69803153113124 67.95474913816739
196.86111200090266 108.31513175837576 50.36896391123693
194.445791832842 120.35629556952078 44.31699201768444
205.65897153234758 128.2870298679313 49.19798836272579
201.39592370462896 130.06534912367778 48.985668199088494
205.25025751758082 111.72847416852073 57.65249534515907
186.03236150259778 120.39017873906516 50.76737700854561
195.49108082513283 130.38109224590679 62.661164324494756
205.02862110537575 127.39943978443625 47.12375504404557
206.15063464100206 112.22139409649765 63.490457191124584
214.6641232788316 127.43988113124831 60.08075459393208
187.56458045989228 123.36571023530246 49.94191740216167
210.22236922793647 121.95275160487695 49.975338152730124
209.5891530418321 114.58610023393952 58.67598597556769
214.4701553104429 128.09270993306217 56.77300932206155
213.38252925678603 120.50321204733558 59.80739804986625
193.36537729283742 128.85099620675672 47.97169595915748
207.83776365605445 121.21784198928472 65.84310531878188
183.7471308414242 111.62662163522162 52.68057004621007
185.5358908251287 105.13196353564271 56.345184262694815
213.10637549624775 125.90977540192546 61.736088235639045
191.24642299950935 105.55952398311298 53.12798630648477
211.51007284228768 120.24995568157972 51.43617301544496
207.14796865019187 123.57496972358636 47.765972620980314
209.7134182330414 123.80502109843634 50.82457826026433
193.13513897119648 128.25911407656335 46.264638708285034
208.8486251475966 124.48420675678979 62.36983743547745
185.34977987964197 125.36591774628836 59.617224198648294
206.801602112482 126.2483514429261 48.08920617658557
208.266237892503 121.46629814414085 48.80539144080719
186.8612195815843 112.89069327725457 63.44987262842322
203.56363940967796 110.75643988445002 60.66924471331003
206.9199982728539 131.2262815661359 56.27327159023387
199.35506237617818 105.28486581291821 56.93667602461232
190.76829257488143 129.48383910484145 56.468819094980056
213.688474771919 120.73255340890033 57.68635145302123
208.39603361779712 127.53908500344218 52.59474069345067
210.24840777316166 124.20503217139681 52.81732519107103
198.92899044498884 126.36265484617735 67.95274090358127
200.69800630931013 126.78240399781437 43.95302921862171
194.22485793532303 122.29172023809953 44.21761119390441
190.67049551221046 109.1470917073831 65.02845723984495
196.77032134941336 105.01521323308037 55.16562236407332
183.9090455914572 113.33598640323146 50.54382871603206
187.4318490829652 111.79813453099692 64.97197828769269
198.7034503953656 130.44499273541706 48.604872433563486
208.08470674147335 129.78291056596822 53.773803376642455
209.87216447314069 114.63231741344453 55.180708775062065
215.30371995743874 124.91068170088968 57.59979808771663
213.16760825403307 118.62202441701285 56.382277862022285
192.55750152855802 121.30214309108452 65.99994468422653
185.68233371811158 118.1740059346178 51.1034859395967
203.63992502778282 129.72717475085307 50.91216186336852
207.8133370129543 126.46567817771376 61.40042701926491
207.06800167706004 112.04443016328027 59.13785287550304
194.3661889608017 109.61142339302783 65.20185636802212
200.8348791659298 131.37291610836618 55.26802174394306
188.83420657494412 119.53829037724486 64.92136538415492
214.51721538486134 125.99141804219444 55.233826534111444
186.29457292333169 122.9502659003071 64.70407247131209
202.24321223333718 108.28810658350397 55.67547715069179
207.46351325637917 113.7489896723431 64.58377482984217
201.20496316337181 106.20294585330757 56.77316378759711
213.561826339908 121.09624077124548 55.441413527137904
186.96745872917077 114.22773642323813 49.553910231856385
192.0005534474682 126.74563058356749 46.92306929604434
192.78560288790354 107.09054155735583 52.288900031773096
196.2600141329213 128.1332550743933 67.97091208786594
203.16632157380923 128.6022721340752 66.36768892464019
206.6424088955439 129.0914434726439 51.558843547035245
205.27386737117374 130.15343639526756 61.200710119354916
203.93507581082937 128.99636301651324 64.22142545324081
206.87050258509777 128.40753214235176 63.06063706079566
210.3028474605356 121.46227578179331 65.10276315513435
203.28825140586164 128.76703709639403 47.951869806625275
203.08523496975286 127.24147915937256 45.67410446846799
209.36806618509092 125.72117147568736 53.760689398144805
195.09706267691772 126.60649613146025 42.37545961975534
201.07374502049103 116.60639788090705 67.01939725878536
202.76830734556472 118.14483443869354 66.9888559654135
185.90182550776322 122.64349237141613 51.74319669602579
193.3019732977728 130.74859023129835 55.93894838458392
212.8905260102542 123.89875499656975 62.644625125664206
184.63880522328077 118.00570938178923 59.121498371621676
202.03028169936084 119.846214180549 44.863102849914384
196.57993133511098 129.76848564914988 65.09137672378634
194.62225400129566 111.3698727482557 49.187156474844976
200.63203449167057 129.30624177983577 46.08220013529951
191.41908736543962 106.70243046573728 65.09064424980947
210.54494660828638 123.10961037239682 63.1400469702694
212.63622563932697 121.62521509884299 63.796307790974325
195.8738269839491 105.03808038679925 58.30108930015673
193.42126434193258 127.39752632074179 44.530169571817794
189.89880433144097 127.99176559497964 52.170479689225196
207.71109493846362 127.12988408071398 50.307959465916696
204.40360155487 119.66666416036372 66.3227530068984
196.8254009945767 131.25567818533727 50.99920021135395
203.8380947398096 112.98952907113014 48.65607041080541
207.62703626706815 126.06742115536328 63.85544345214022
181.6781781776663 115.0399345703698 55.30581059905562
205.4875505824514 114.73347129742325 48.18732704965509
199.62382341163595 112.22219161564425 47.30503921037517
208.21994892560613 126.85030953135077 58.95426094698995
200.68842855655413 108.45558149192159 61.79009648676948
197.3732804102346 131.25913676734262 58.24453882515223
195.8208037178025 124.93757529064474 42.081448067950745
207.96926493019936 119.2110873901909 48.00614875504201
183.5270508163969 116.61678858285151 58.565962598346225
200.34699735941078 130.92123245583144 51.70142934270065
212.04421035656358 116.37483633215358 60.6425353091032
182.79087798003457 112.39497595606846 59.54933990222845
201.7920435683079 122.27133585005336 44.22034237619629
205.19134617608228 117.13745413081968 66.95276365152552
199.0610050839491 106.31978387270958 61.219619175864935
201.63164427429322 129.56068020102347 65.83061128135662
182.92594144820845 116.2186450592333 53.19912463573314
198.97683229034146 106.06108608426038 52.857331896068054
203.58596352196793 110.49878354244551 58.7337474623616
209.56096495718762 113.46356952552921 56.837812498669564
197.44046988030902 105.31168827574443 53.536557055909924
196.55752541664847 120.64092396332396 43.81627136754366
205.6647614254178 111.99960739903398 53.02204976113773
POLYGONS 854 3416
3 1 3 0
3 408 3 4
3 408 0 3
3 1 0 404
3 4 14 408
3 15 7 6
3 6 7 3
3 11 10 5
3 5 404 11
3 0 13 404
3 13 19 404
3 4 20 14
3 216 10 124
3 10 11 124
3 12 9 39
3 13 408 17
3 13 17 18
3 22 17 21
3 18 28 19
3 24 25 34
3 28 296 29
3 93 92 316
3 316 368 93
3 95 419 102
3 96 91 100
3 89 100 91
3 93 85 95
3 385 96 106
3 106 96 100
3 102 109 95
3 106 100 107
3 92 93 108
3 108 93 95
3 109 108 95
3 106 107 238
3 104 163 101
3 108 109 303
3 238 103 163
3 238 194 303
3 6 3 1
3 1 2 6
3 1 404 5
3 5 2 1
3 23 15 6
3 6 2 23
3 21 20 32
3 21 14 20
3 17 408 14
3 14 21 17
3 41 12 39
3 30 12 41
3 30 20 12
3 30 32 20
3 31 21 32
3 26 36 37
3 53 15 369
3 264 361 34
3 63 54 424
3 424 65 63
3 88 84 75
3 90 84 88
3 89 83 90
3 98 99 88
3 99 90 88
3 100 89 99
3 99 89 90
3 100 99 107
3 107 99 98
3 238 107 103
3 194 104 105
3 101 163 94
3 238 303 106
3 163 104 194
3 103 94 163
3 105 303 194
3 108 303 105
3 13 0 408
3 18 19 13
3 2 44 23
3 367 15 23
3 367 369 15
3 54 367 23
3 44 54 23
3 63 369 367
3 54 63 367
3 152 361 264
3 152 67 361
3 65 79 63
3 66 410 65
3 65 410 79
3 104 101 410
3 104 410 66
3 66 105 104
3 92 105 66
3 109 102 385
3 108 105 92
3 194 238 163
3 24 34 33
3 44 428 33
3 24 33 428
3 216 25 24
3 216 24 428
3 10 216 428
3 5 10 428
3 2 5 428
3 44 2 428
3 29 407 28
3 28 407 19
3 29 16 407
3 296 413 29
3 404 407 11
3 407 16 11
3 19 407 404
3 382 394 381
3 274 409 57
3 333 360 405
3 394 382 346
3 401 376 343
3 343 376 353
3 376 401 310
3 409 274 126
3 329 239 47
3 401 289 281
3 344 331 289
3 289 331 281
3 149 275 57
3 376 125 353
3 394 311 381
3 381 311 359
3 394 352 311
3 381 359 310
3 310 359 376
3 381 315 382
3 381 310 315
3 315 310 335
3 281 335 401
3 401 335 310
3 29 413 27
3 27 413 38
3 299 346 382
3 383 298 275
3 383 343 298
3 297 352 394
3 295 341 388
3 382 315 293
3 293 315 335
3 409 291 57
3 383 289 343
3 343 289 401
3 383 344 289
3 244 57 291
3 418 285 256
3 418 299 285
3 359 311 415
3 415 311 352
3 299 382 293
3 293 285 299
3 192 257 403
3 331 344 239
3 413 336 38
3 38 336 319
3 275 274 57
3 275 298 274
3 198 291 333
3 28 272 296
3 391 256 272
3 291 198 244
3 244 198 327
3 271 56 287
3 38 263 27
3 38 329 263
3 263 329 36
3 27 26 262
3 87 261 307
3 137 256 285
3 345 255 306
3 70 236 80
3 242 222 236
3 222 242 266
3 203 236 71
3 203 242 236
3 324 242 380
3 204 208 314
3 388 279 51
3 230 363 415
3 271 356 56
3 56 356 159
3 260 227 254
3 333 291 360
3 360 291 409
3 117 226 255
3 254 259 81
3 259 265 81
3 255 227 306
3 236 222 80
3 254 81 73
3 226 227 255
3 254 226 259
3 254 227 226
3 265 402 266
3 266 402 419
3 265 259 402
3 18 272 28
3 360 379 405
3 379 377 378
3 405 379 235
3 235 379 378
3 73 260 254
3 235 378 260
3 73 405 235
3 235 260 73
3 261 87 226
3 117 261 226
3 419 386 102
3 419 402 386
3 306 227 260
3 87 402 259
3 259 226 87
3 306 421 134
3 266 242 324
3 267 396 333
3 396 198 333
3 396 380 397
3 134 392 374
3 51 279 411
3 248 165 243
3 188 339 125
3 81 267 73
3 368 85 93
3 324 81 265
3 89 213 83
3 324 265 266
3 380 396 267
3 411 170 51
3 363 230 170
3 170 230 51
3 363 169 415
3 363 188 169
3 169 188 125
3 267 81 324
3 267 324 380
3 363 170 221
3 165 294 221
3 221 294 153
3 411 243 165
3 294 165 131
3 294 131 202
3 157 126 274
3 415 169 359
3 153 167 188
3 188 167 339
3 188 363 153
3 153 363 221
3 80 368 70
3 146 55 416
3 416 71 146
3 71 70 146
3 45 354 287
3 287 354 37
3 55 45 56
3 45 287 56
3 85 368 80
3 157 274 298
3 352 403 415
3 403 230 415
3 343 353 298
3 353 157 298
3 287 37 271
3 271 37 36
3 37 354 300
3 239 329 319
3 319 329 38
3 329 133 36
3 36 133 271
3 329 47 133
3 27 263 26
3 26 263 36
3 290 370 47
3 71 155 203
3 322 129 205
3 155 416 205
3 356 370 342
3 242 203 380
3 271 133 356
3 205 129 155
3 129 203 155
3 26 37 166
3 166 37 300
3 71 236 70
3 262 26 166
3 166 124 262
3 16 124 11
3 16 262 124
3 416 155 71
3 55 159 416
3 27 262 29
3 29 262 16
3 159 55 56
3 416 159 205
3 205 159 132
3 49 323 372
3 323 257 192
3 116 62 60
3 341 195 388
3 388 195 279
3 195 341 201
3 218 48 59
3 204 195 201
3 48 218 187
3 341 114 201
3 119 341 295
3 187 246 318
3 114 341 119
3 49 115 246
3 115 318 246
3 51 112 388
3 403 257 112
3 77 357 83
3 77 173 357
3 374 191 78
3 419 95 85
3 345 117 255
3 345 128 117
3 128 213 117
3 372 115 49
3 208 141 191
3 141 78 191
3 77 78 173
3 78 141 173
3 78 128 374
3 374 128 345
3 78 77 128
3 77 213 128
3 83 357 90
3 90 357 84
3 96 385 307
3 307 385 386
3 385 102 386
3 307 386 87
3 386 402 87
3 307 91 96
3 307 261 91
3 303 109 106
3 106 109 385
3 424 54 312
3 312 361 245
3 66 250 92
3 67 316 250
3 250 316 92
3 67 250 245
3 245 250 338
3 338 250 66
3 237 342 370
3 67 245 361
3 290 237 370
3 203 397 380
3 44 33 54
3 33 312 54
3 68 316 67
3 361 312 34
3 34 312 33
3 424 338 65
3 65 338 66
3 117 213 261
3 261 213 91
3 77 83 213
3 91 213 89
3 336 111 330
3 330 111 137
3 31 427 22
3 22 427 148
3 22 174 17
3 17 174 18
3 31 22 21
3 148 427 156
3 18 174 272
3 272 174 391
3 156 418 148
3 391 174 148
3 148 174 22
3 272 256 296
3 418 140 299
3 418 156 140
3 140 156 284
3 285 293 137
3 296 111 413
3 299 140 346
3 346 140 284
3 346 284 139
3 297 211 192
3 352 192 403
3 352 297 192
3 323 192 211
3 427 145 156
3 156 145 284
3 346 139 394
3 394 139 297
3 403 112 230
3 230 112 51
3 388 112 295
3 295 112 257
3 49 257 323
3 49 295 257
3 379 360 214
3 70 152 146
3 146 320 55
3 146 152 320
3 320 152 264
3 377 247 167
3 247 214 126
3 167 233 377
3 294 202 233
3 233 202 377
3 425 320 264
3 294 233 153
3 153 233 167
3 167 247 339
3 45 55 320
3 320 425 45
3 421 217 134
3 134 217 392
3 378 135 421
3 131 217 135
3 135 217 421
3 392 217 248
3 248 217 131
3 378 377 202
3 131 135 202
3 135 378 202
3 248 131 165
3 256 391 418
3 418 391 148
3 397 203 129
3 205 132 322
3 214 247 377
3 360 409 214
3 409 126 214
3 339 126 157
3 339 247 126
3 214 377 379
3 339 353 125
3 339 157 353
3 359 125 376
3 359 169 125
3 300 216 166
3 166 216 124
3 245 424 312
3 245 338 424
3 45 425 354
3 354 425 25
3 25 216 300
3 208 204 301
3 204 201 301
3 301 141 208
3 201 200 301
3 201 114 200
3 301 240 141
3 141 240 173
3 119 206 114
3 206 200 114
3 246 187 119
3 334 206 218
3 200 206 334
3 345 134 374
3 345 306 134
3 314 208 392
3 243 314 248
3 314 392 248
3 411 279 243
3 243 279 204
3 411 221 170
3 411 165 221
3 243 204 314
3 300 354 25
3 173 121 357
3 357 121 84
3 279 195 204
3 85 80 222
3 419 222 266
3 222 419 85
3 374 392 191
3 191 392 208
3 70 368 68
3 25 425 34
3 425 264 34
3 70 68 152
3 67 152 68
3 389 118 138
3 355 237 290
3 389 327 198
3 237 113 342
3 389 397 118
3 397 389 396
3 389 198 396
3 322 118 129
3 129 118 397
3 118 113 138
3 118 322 113
3 355 138 113
3 113 237 355
3 413 111 336
3 276 281 331
3 330 276 336
3 281 330 335
3 281 276 330
3 319 331 239
3 336 276 319
3 276 331 319
3 335 330 293
3 330 137 293
3 47 252 290
3 296 256 111
3 111 256 137
3 305 371 40
3 48 313 277
3 219 40 313
3 313 318 219
3 269 371 41
3 40 371 172
3 30 231 32
3 32 231 43
3 30 305 231
3 231 305 43
3 371 229 41
3 41 229 30
3 371 305 229
3 229 305 30
3 60 150 179
3 179 150 76
3 75 179 82
3 356 133 370
3 370 133 47
3 342 132 356
3 356 132 159
3 113 322 342
3 342 322 132
3 327 389 138
3 327 138 317
3 321 282 317
3 290 365 355
3 365 321 355
3 252 110 290
3 110 365 290
3 292 110 151
3 151 110 252
3 344 151 252
3 252 239 344
3 292 151 275
3 275 149 292
3 244 282 57
3 57 282 149
3 110 292 365
3 365 292 321
3 317 244 327
3 317 282 244
3 252 47 239
3 98 304 97
3 9 373 39
3 351 304 82
3 88 288 98
3 82 304 288
3 288 304 98
3 316 68 368
3 76 337 179
3 179 337 82
3 337 351 82
3 69 278 35
3 278 373 35
3 46 278 253
3 253 278 69
3 82 288 75
3 75 288 88
3 94 228 86
3 228 395 86
3 348 97 304
3 253 69 251
3 39 373 225
3 86 224 94
3 86 251 224
3 224 251 64
3 86 223 251
3 58 207 269
3 269 189 58
3 269 41 189
3 189 41 39
3 46 253 130
3 251 223 253
3 225 58 189
3 189 39 225
3 228 97 348
3 348 395 228
3 181 158 136
3 76 171 158
3 158 171 136
3 58 225 120
3 120 225 46
3 351 74 304
3 74 348 304
3 144 74 351
3 177 142 395
3 158 181 144
3 144 76 158
3 171 122 136
3 337 76 144
3 144 351 337
3 395 142 86
3 86 142 223
3 74 177 348
3 348 177 395
3 74 181 177
3 74 144 181
3 84 364 75
3 75 364 116
3 84 121 364
3 364 121 116
3 60 186 116
3 116 186 75
3 60 179 186
3 186 179 75
3 383 151 344
3 383 275 151
3 97 362 103
3 103 362 94
3 97 228 362
3 362 228 94
3 282 321 149
3 149 321 292
3 321 317 355
3 355 317 138
3 200 164 301
3 301 164 240
3 164 127 240
3 240 162 173
3 173 162 121
3 240 127 162
3 50 184 115
3 115 184 318
3 50 219 184
3 184 219 318
3 116 121 366
3 119 400 246
3 246 400 49
3 119 295 400
3 400 295 49
3 12 393 9
3 9 393 4
3 12 20 393
3 393 20 4
3 43 302 42
3 42 302 50
3 43 219 302
3 302 219 50
3 94 224 101
3 372 399 196
3 35 258 8
3 35 373 258
3 258 373 9
3 8 308 7
3 308 9 4
3 372 268 115
3 115 268 50
3 372 196 268
3 268 196 50
3 427 347 145
3 145 347 249
3 249 347 196
3 196 176 50
3 50 176 42
3 196 347 176
3 176 347 42
3 211 297 175
3 175 297 139
3 145 412 284
3 284 412 384
3 145 249 412
3 412 249 384
3 211 332 323
3 323 332 372
3 211 399 332
3 332 399 372
3 234 64 52
3 384 210 284
3 284 210 139
3 384 175 210
3 210 175 139
3 384 147 399
3 399 147 196
3 384 249 147
3 147 249 196
3 211 175 399
3 399 175 384
3 53 423 15
3 8 7 423
3 423 7 15
3 101 224 420
3 420 224 64
3 101 420 410
3 410 420 79
3 234 79 420
3 420 64 234
3 63 79 369
3 79 234 369
3 269 350 371
3 350 172 371
3 52 349 53
3 52 69 349
3 349 69 35
3 369 340 53
3 53 340 52
3 369 234 340
3 340 234 52
3 64 398 52
3 52 398 69
3 64 251 398
3 398 251 69
3 42 309 31
3 31 309 427
3 42 347 309
3 309 347 427
3 8 426 35
3 53 349 426
3 426 349 35
3 305 283 43
3 43 283 219
3 305 40 283
3 283 40 219
3 98 280 107
3 107 280 103
3 98 97 280
3 280 97 103
3 7 270 3
3 3 270 4
3 7 308 270
3 270 308 4
3 9 308 258
3 258 308 8
3 423 53 426
3 426 8 423
3 267 333 405
3 405 73 267
3 59 390 62
3 62 390 60
3 59 123 390
3 172 422 277
3 422 123 277
3 123 422 406
3 406 422 143
3 207 325 269
3 143 350 325
3 325 350 269
3 60 390 150
3 171 76 417
3 417 76 150
3 143 325 241
3 241 325 207
3 61 241 232
3 232 241 207
3 123 406 215
3 215 406 61
3 417 61 232
3 232 171 417
3 143 190 406
3 406 190 61
3 143 241 190
3 190 241 61
3 143 185 350
3 350 185 172
3 143 422 185
3 185 422 172
3 417 150 215
3 215 61 417
3 171 180 122
3 122 180 207
3 171 232 180
3 180 232 207
3 123 414 390
3 390 414 150
3 123 215 414
3 414 215 150
3 378 375 260
3 260 375 306
3 378 421 375
3 375 421 306
3 46 328 278
3 278 328 373
3 46 225 328
3 328 225 373
3 326 273 130
3 130 273 46
3 326 120 273
3 273 120 46
3 142 209 223
3 72 130 209
3 58 199 207
3 207 199 122
3 58 120 199
3 136 197 181
3 177 193 142
3 193 197 72
3 136 183 197
3 183 72 197
3 326 183 122
3 122 183 136
3 72 286 130
3 130 286 326
3 72 183 286
3 286 183 326
3 209 142 193
3 193 72 209
3 122 199 326
3 326 199 120
3 181 197 193
3 193 177 181
3 318 387 187
3 187 387 48
3 318 313 387
3 387 313 48
3 313 358 277
3 277 358 172
3 313 40 358
3 358 40 172
3 43 220 32
3 32 220 31
3 43 42 220
3 220 42 31
3 62 212 59
3 59 212 218
3 212 334 218
3 187 182 119
3 119 182 206
3 187 218 182
3 182 218 206
3 334 178 200
3 178 366 127
3 334 212 168
3 168 212 62
3 164 200 178
3 178 127 164
3 127 366 162
3 162 366 121
3 178 334 168
3 168 366 178
3 366 161 116
3 116 161 62
3 366 168 161
3 161 168 62
3 223 160 253
3 253 160 130
3 223 209 160
3 160 209 130
3 277 154 48
3 48 154 59
3 277 123 154
3 154 123 59
