# vtk DataFile Version 3.0
A great-looking cell
ASCII
DATASET POLYDATA
POINTS 489 double
252.30861147829376 91.72239181640435 45.42342430981388
253.56284848737099 93.40780091998205 44.60048217347575
251.21253820358962 87.5941252552693 46.70512422802429
250.84766423317708 90.15463933634727 45.99448858677758
250.50709041017765 91.89386807528122 45.319559955403584
254.15212747938065 91.86508210007919 45.75557434274893
251.37007304218642 93.53995277552109 45.11714061053674
255.74993308408935 93.11330409228361 45.34559290224456
252.6190642951533 95.58358286755887 45.07264999037936
255.02324635758785 95.29224142361133 44.95335994256923
248.82100032583793 88.95623766612144 46.754953879414636
248.1505010287177 85.98053905222294 47.98664780532905
251.46222925608538 85.49265630570349 48.892072844627684
253.38601572427143 87.83117646167511 48.66672654619239
248.87054541376347 91.05538955789488 45.69399996655178
255.48469120653397 89.48730329678725 48.419516654978764
249.23486899968253 93.22316010889227 45.620987060521756
255.7137812507251 91.3573017407558 46.9102197588183
248.742276291037 97.25991861417236 45.47820655254882
250.07998179435558 95.44085968411842 45.287995872785594
257.91029480321606 92.7408712563816 46.55292053441062
257.38359162203574 94.97998544481169 45.42254608916581
251.2815712755126 98.01223237749096 45.19159725945589
254.30276546432648 97.8181516855665 44.59255386345372
256.4960012143699 96.86737549231734 44.81552595217695
253.54026624688143 86.31765575634175 50.77528987235406
245.83403981235858 91.0588199907452 47.9660137848225
247.21439107582916 90.30716697283815 46.53403567654529
255.55784617954887 87.78580157698728 50.011932296196925
245.58095086468282 93.56975137792098 47.870609883124345
247.32269068156887 92.374989723845 46.588183008305
245.4853530438104 95.75223498821313 47.6114110144086
247.386815814051 95.04808190623262 46.13766077690205
257.8392862795816 90.57772133674383 48.085380788967406
246.5605195367933 97.87270149656547 46.82359713282564
249.09092811779368 99.7311266262096 45.96393022720818
253.13722854551207 100.20899893228092 45.315605491926036
256.8365369703028 99.10519267814048 44.778743098302535
258.80654978024444 97.2585940296433 45.20172505432714
260.2244390808187 94.71432601915956 46.007070125826324
262.88355564782677 96.36468476192947 45.40737745361399
251.03472220653748 101.90074423522881 45.67745924064428
253.60207834208484 102.92579339140434 45.934180557938646
258.61402917085667 101.46608909892927 45.46285179560353
260.9056456010117 99.14423412648505 45.94339358021785
245.48209809014594 87.07012797076314 48.855825881156804
246.68808720975903 88.75307616564642 47.87657306714084
255.8404150077199 86.44741766851294 51.82806379822696
245.03591531672478 89.3235443573482 49.7388168897871
244.41651087816706 92.23389333462802 50.17273044170935
257.77451275250473 87.69715349865935 50.96769413189787
243.87598085133402 95.11129331771133 49.52103601402729
259.9998157530114 88.97423961439061 49.42352241202529
244.7121594137662 97.19545254617847 48.44798394648394
246.33402663580853 102.78484786799623 47.96164271502301
250.2430399559353 104.23273302075339 46.19414495574877
252.62434798749874 105.13608670939917 46.46899961710746
256.4665343740611 103.93765600906036 46.10620599902206
258.72441082194297 105.21649885423626 47.18522624367174
260.4612092384617 103.39074037144847 46.704650842911555
265.3198340053529 103.28449378013094 49.82102701662085
250.36246381694653 106.46129905243221 47.37805039721208
262.62403052522853 104.47848676851626 48.65906538267566
245.37065791611676 84.6864836037245 49.42535866544971
253.86657675979495 85.3184913369634 53.10624046843409
257.71016320332376 86.72754453862015 52.697832429341126
243.16161843071345 92.69363738864739 52.6245809452118
244.06683383461814 86.86883541000354 51.34301573561245
260.24606241011384 86.96070179407494 52.21591850723481
243.11814568915253 95.52248186909948 52.55628092858567
262.72897945219256 84.24745425268365 52.43827426175813
243.63415744317695 99.5928305140093 52.80881418759381
243.91158889271847 97.84324755969666 50.65677921831416
267.6350171985957 88.23814830144504 45.473063562663604
244.24308209944454 100.5263927351209 50.344685023850154
270.32548416628276 93.12690729910331 45.72079001622415
244.8162661262438 104.05667481642254 53.88171145868357
244.94070616630174 99.26168838320201 48.486701890589714
248.01133785566876 104.88534414683782 47.89371908220635
267.09753613752275 102.35887236866982 51.91346304953222
265.44193736034117 103.75684466808978 53.59299266935588
246.5766037042553 106.31280658474344 53.13282737277256
248.37307575955728 108.46347551176683 51.34080504866122
255.10822807215595 106.35062330896496 46.64906906820799
261.9905947449912 107.58709000425063 51.83340887576431
264.0303656767251 105.37802920978004 51.6179434979078
249.57989296194359 109.85588260284484 53.80093890806084
253.24720513088747 109.36351800993538 49.553917842088936
256.32733286176096 109.56746728569884 50.34466020037155
252.1238502490961 110.78771096851527 53.68665760956385
255.78772104172387 110.92580328594264 52.72719708790961
249.40551890414503 82.80085011650301 49.436912161191536
247.07223166057037 80.50098265353239 53.10592561749071
244.09177497047833 83.69624692456492 52.232114732203094
256.78798869229547 85.84508016500905 56.08322334163304
242.792991813368 87.74467535286092 54.31585366053043
242.367411821777 90.8493970867375 54.84659069578844
261.0011270638856 85.80421959645176 54.95465065330532
258.48508434565946 86.54029754977165 54.47481192129466
242.91603646890033 93.75565532257555 55.147136620746544
243.61017256660085 89.95045746973825 52.15768034213229
243.10125877455653 97.5039495709819 54.43140466961551
263.00685158591506 83.37004784521751 55.80757255392285
271.4836202918345 83.66555569853246 48.4389203992195
243.76611797252588 100.87843144522046 56.91720086634286
276.1690373640023 92.66716355311816 49.426172337026664
245.40977633152093 104.97249547471466 58.49872770653191
268.52036434364925 101.48922473172273 54.75532192359171
266.27351894606454 102.96337030420298 55.916094205093295
246.96417547840883 106.99849020578948 57.61197352488427
248.56431996932696 108.61964096523685 56.23051180074614
262.25770183576327 107.8443187500688 54.56163109451736
264.1911882137124 105.80995419630308 54.5793333789682
251.05451139265912 110.41290585630541 56.35655721302225
257.44278331480996 107.6214377465123 47.88753362248301
255.4919078308958 112.05059304548027 54.75484492893096
246.5109883696015 80.72183780009337 56.5855080411385
255.29696335795938 85.09637326685842 57.823188724601
243.32659346656277 84.61329039450028 55.695044098170776
257.31620428878625 85.88621429581471 57.93037878748009
241.55427475025257 87.24054542842062 57.160165131302826
259.01031335457316 86.60349080957815 56.712935255759774
241.55763359587147 90.44397264687849 57.8003669498715
242.76686242062007 93.5418965483493 58.336123757348524
262.8290841708998 84.45948740499597 60.61408222818026
242.94525084299298 95.94240542703201 56.44188803721896
243.56975822470653 99.69426266424695 59.387033482640035
266.2737182098904 87.75726489134007 63.37262014367348
244.65161696940325 102.33344921069215 59.03053294857498
272.6932817926565 97.17049964140483 60.13117178150723
246.34722879251677 105.2470783722037 61.02370983324418
254.83927574083367 107.09538082376729 63.35596987681322
269.0249907235498 100.766734045833 57.66590887693036
264.9970206492632 103.83110322746239 59.54119702921017
247.988933705953 107.50732572418919 59.9508672736626
250.02379629867968 108.97554419063952 60.47125416637672
263.76060226554665 106.26788146689461 59.12324851380233
252.02324260022252 110.01742286576226 59.2175688766891
258.7609189608059 109.6310653705563 60.229602326166194
252.6128234146677 112.0988281613617 57.72116338110453
249.51231194749388 109.1464681024606 58.42137266124403
254.96400425242857 113.0843486155536 57.164065399614856
258.3049145677826 109.93196497631759 56.94465390071887
253.1468938859413 112.16048256474826 55.40140773591176
249.42084489349696 80.9412896779926 55.39652460806051
254.32465052575046 85.2626946807544 55.597273483209875
244.0425166156005 83.63716897066017 59.123949270786966
247.40454761598616 81.79621205140211 59.65898781695994
253.8285519233116 84.45760272306475 59.73746797167436
256.464478441965 85.49327039736848 60.07240352421489
245.55491652400613 83.85955801969499 62.21490200201272
241.5669985292752 86.14253493815959 60.313125177979416
251.92666914220047 84.04192080750134 61.62560873337166
242.91621728560952 93.00562527441502 61.570083500243996
260.9469226087641 87.02067373662116 60.09316263663564
243.00442125565434 96.7399720386518 59.19280760878411
243.55452103419117 96.34967921328877 62.10757080064446
263.0117334418004 88.06827071698599 61.95831119328584
244.31615547985308 99.72492916447867 62.18673685946603
265.24150128153315 90.71127745347526 62.46572021419117
266.9083006250275 95.97963274508496 62.80034836970757
248.31457674997395 104.90505672261688 63.448818580470025
252.4244526684808 106.72021140052838 62.70860831009902
253.8732840995463 105.48731797324827 64.05658569719611
256.4995387566062 105.49090511923386 64.06242227245001
266.19751456463996 98.94310923011481 61.937348269225275
264.7650125424873 103.4301484920726 62.210202252263194
257.32127392680326 108.62446500651933 63.49237926311242
262.47262903077046 106.3959984037356 63.608163829942
251.92988917027162 108.78788847964394 61.51495523204659
253.95214277950316 109.32641044963026 63.280223969912896
255.7296374300581 110.44473975007315 61.2470584846021
254.0086990607488 112.38654515990174 59.973466653663365
251.75239550873619 83.46925269897966 54.79969704136173
250.44082373592587 82.33988413382168 57.854963341758946
252.8611148871708 84.133001178416 57.54001356122627
250.13529239665596 83.02325649263108 60.17369759998296
251.79257244379278 83.69160121536964 59.37648776306312
254.37629981318238 84.9538542083571 61.920799119442584
245.41717792311653 87.12528501892778 65.743059328769
248.92494511914396 83.74505546118138 62.133692669363015
252.54933011380848 86.99999112840054 66.93638665399938
254.2957027260287 86.13175752913475 64.1468046823537
257.2388168871955 87.20096249398605 64.14171124805911
260.29316534161046 88.67857766285307 61.15422257236593
245.85221368748725 92.88800048667885 67.34846916238368
249.9433715430887 91.439830946718 67.7442183946182
253.07341811570205 90.36511978522091 67.38744360289446
258.3993468857184 89.43156414636508 62.820914363823825
261.0514894351177 90.33413405052703 62.01848318690746
244.70018323142304 95.85737661103462 65.3841246507302
248.84106740487067 94.20402860279135 67.7953158393173
251.96372625221957 93.34086544549544 66.92210799544691
259.29493010054745 92.18533227370811 63.22685284179371
262.5670309921257 92.59567557615671 62.62464375190282
245.9076254616035 99.00143594251401 64.77861394440335
260.5622251997568 94.92603039828894 63.76298981336224
247.0066310721021 101.72857202190734 63.242492731633035
248.76366568740772 100.10803524065089 65.1320963270505
251.89413404190253 100.90729744556764 64.6028366841249
255.12254991309098 100.48357783112228 65.66721847487104
263.63092836992223 95.81613995850806 62.969973874255274
251.54133829379614 104.2500967999851 63.90000763519011
254.36352406335564 103.22630484299432 64.58053260788279
257.2733115102085 102.73039226555784 65.11915548504693
260.15434039115763 102.11104078273712 65.11066755240715
263.7430204141765 98.72448199347654 63.80095714110324
264.97678785626533 101.24066712628671 63.29306122867599
259.32127701930943 105.04355606978991 65.01154220414854
262.1480515142397 104.23091559570774 65.03312264242292
253.50685908128793 110.22032506460516 61.06955857672058
277.669896685477 86.28160006308357 52.89967765973918
270.2906779155645 82.04058632995815 49.80253612371684
262.5155620349093 90.77899745586537 45.82768780705694
277.5182173591729 89.0252869783521 51.229910921415424
243.5763250639869 85.7312438028395 53.39786078615254
244.95419828469204 81.3954238282872 52.25705063300241
262.3571679166658 88.9289789740346 46.988431037263815
276.4883068018098 96.82358203735414 53.038742789165646
247.1641976475748 83.56802362516842 48.69394634009292
273.4229856454819 85.14148709830751 48.066879444497744
242.40200839165095 91.5745489335366 59.71405115402257
243.61995236435686 94.42487337858569 63.443770112948314
279.35114152702636 95.02006639287971 53.3111699496016
277.98707519688253 94.81162305808618 62.12534225510798
269.8420015237569 87.43756708845886 46.116836883755006
280.68387621535004 91.8598447757576 55.829633827549976
280.748525756184 94.3212999332476 57.53107250646762
278.5655224352486 96.62296416541706 60.02538711846584
279.3074355491464 89.39305940990259 55.03456085061921
245.19045298774452 81.4526719187298 58.41646223780475
248.675776929191 80.68590257740613 57.63993738097577
279.5931469280379 96.0079818435163 57.50489405003994
275.39127904719476 94.79983071828647 63.1408048395745
273.0214459826582 85.90285368348701 63.062921622188476
244.329408961593 82.15203247256026 56.90581968067915
281.1186313171379 92.47520092848059 57.52445362606855
248.3138645485753 81.1231062513042 51.033561416170905
242.68855258811686 85.45874184387417 58.0817672838314
266.50090050109196 80.8421569694204 60.050127487689224
244.32865604053978 81.55089749697396 54.440859333624175
280.2237415773139 90.82946581191406 59.7191998948955
280.2762460923109 93.97997267544359 55.30350610335888
244.91348960558287 84.76958589384752 64.52030191257774
277.84423493093374 85.5003417690439 57.6707573564815
269.0735256984174 81.15865820274898 51.48376603724014
249.8970544839211 81.82313250989813 52.4730771478954
266.86968814600675 90.5151020882826 44.89356114049214
241.14120811858842 89.89069602270642 61.20009378599143
279.84615792861933 91.1049970159978 54.20445417970146
261.34864477877227 85.54188291147372 57.885610221104216
271.43440072279384 80.47108207903813 57.34578287313184
276.9345479883709 86.79694221392988 50.91063983052282
275.72387280116357 97.0405690845357 61.16825845876558
276.68590135875206 84.1987346874267 52.97937622699633
278.6830758325951 87.98398539759641 56.01998697168343
247.9419520932624 92.08750074450599 68.42682980251807
277.37330837024155 94.8652916893461 51.83297265445878
265.8148433476672 81.30778616982153 54.966052838652395
270.5454764695766 90.6148560543972 63.83651348183147
274.71171658752854 86.96959553388582 48.48655549394434
268.83909257263605 85.65314367523227 47.264212631652605
250.42990845396608 88.90801373721945 68.00902349962917
251.15897070376383 84.55751227582542 64.64578153042223
271.0552361924335 85.43930371426508 63.33210342638529
280.3727084420579 94.1345524001059 59.845771073349184
264.79515405137204 87.1190110673717 46.643301695167196
247.40675615272502 89.73819656416595 67.80441343510692
277.1671158607519 83.96167670798997 55.603098880094784
270.22696446785096 82.80954575759372 62.63202096375724
272.7537301511722 97.72514395995786 50.98934350481359
260.7122349191691 96.86585537555868 45.525432316063835
246.69541942948808 106.16158240098197 59.26496227282583
272.05720391065404 91.47024452260702 46.57722342016
275.3002375115334 95.24127106276842 49.35497050051118
264.1586981963742 99.06357924503448 46.16456404653646
270.03245787797545 80.26734279943459 59.34755518732113
273.14940126584895 95.80648412270256 62.459902225512096
243.6492072458186 86.25740551409022 62.939554240817806
271.86874777185005 86.84381303532437 47.17737757564898
277.8224318292175 86.03247372023351 54.721523095969104
240.69986455159838 88.39573177186911 59.062747128644624
275.0094734236828 97.85177196959934 54.6660913573384
242.50647107180026 91.14243315618438 62.93365248935641
265.6910368160114 82.31620163155485 51.43832470020887
270.75522099137345 80.89617972937221 52.789514310434235
275.3186868453551 82.03196010229522 55.31250448626945
274.5935796117069 82.059530974375 52.49776798840694
269.3533600093646 99.39739776274796 59.20411243316177
277.7314657277444 86.36334292927928 60.59901587613378
269.14746870411756 100.59173651367763 52.17309993114071
251.69748407068795 84.16341458908039 51.566624979265086
273.63900738443476 97.8953855004521 57.59690642078029
266.69388963427775 101.82989304738437 49.75866135533328
270.12461408638836 99.6363735913318 55.93142482907405
264.7115573955994 82.01223463392083 58.55841593880303
266.12641435973063 99.10811105302658 46.33001749131627
272.6063001851933 96.77522737215487 48.73227599229035
264.0835003299251 102.56587086333859 48.3712129765507
274.8164006938862 97.15250253741868 51.45911940775559
270.56691600247296 99.48254100618152 53.684732859275336
260.3941788570111 104.79564642583529 48.19474982410868
270.3840165964206 95.22214726452748 63.291077071767454
273.02067695441986 92.77381917807759 63.79993030981136
263.7518165807755 104.72467592519024 63.501761436815215
266.4275353011064 96.82042977776526 45.11534307629127
270.11795228031616 98.55999738557992 48.34001653051378
276.59870487355107 97.44792517530887 57.85298263639302
245.12559647271112 103.91683448279889 60.05324178770507
275.19428142173894 86.55946621653038 62.54995248685948
250.4719191256999 106.07964190805808 63.61708635304913
249.47406495060864 102.42046571142194 64.21442718737872
268.4535822138959 82.98764931567702 49.209102377014055
261.2275263376478 106.41794110133999 65.53000279269132
265.47670293785404 103.22274017217805 57.67086875397366
262.98801254066046 90.45743324967545 62.05913799051622
248.9628765241429 86.54442311926961 66.95348942776103
256.4864781721086 111.27951281151374 58.687611809186336
270.83340047470307 98.58125749183029 58.10870285463124
259.5654158263562 108.53785902749381 62.19101634333177
278.02883192937145 91.284222739195 51.62641324769728
268.09048030470075 82.42673791006001 62.716938184427654
262.6947429884655 107.69602381332903 58.653779532065485
260.7999987164101 108.32078248051303 53.27736469839453
250.5700196425951 108.63441162191211 49.012960656963706
258.27940369005853 106.66062901757613 64.2315645869912
272.6896489937093 90.27381122887478 64.01688463501138
258.43687153725784 108.50727027771306 49.71031442868223
268.2293219475139 100.29817468231799 49.70841891778821
266.9244879802438 102.7629270898038 54.04684734699387
274.5575407893315 84.09068529886949 50.07795293563172
246.21711908973708 81.89810151133311 50.276846474098235
274.0946412102718 82.2901900972472 60.57989367138416
267.7910167099039 102.02609005185462 56.70244920694671
272.60212061379855 98.02172876494191 52.878038838249616
265.12243862898157 97.36355277302798 62.885738938784705
276.565943148328 82.99393508236348 57.53691087620938
267.8232249702899 100.13007748814478 59.85041085368435
258.58263492202565 103.53535037802241 46.291116083001135
278.60084419870344 88.37248465516643 53.1864382616278
255.44343692940507 88.58363790120957 65.89933875899233
262.7502209652884 101.66944195039892 46.93618845696089
255.59574641416484 101.29238427710442 45.125226041310945
245.15909356824557 102.68352418531214 61.41051587310939
258.75596835890804 99.23295912903392 45.474808315904916
269.50064623116594 97.87558529309104 61.00205122395148
268.1075215583567 92.68797935202745 63.18001742957491
266.7269874841376 86.16826358774048 46.647403770762395
256.5924663807759 90.98939375592295 64.62331784196165
243.3512597900764 97.62834652535845 52.594373258858326
248.03626920513318 97.1508523608682 66.37288184121321
258.86041700414887 86.7406185615871 58.9379577184495
251.15178238498487 96.18251172530603 66.59354213946544
243.51106483871214 93.87157000136276 51.172164036936216
256.9871871425446 105.85831113583153 46.76858752692014
273.6080008029038 80.74554376308954 56.31422025973376
253.98442140503462 95.30484776290028 65.6573637791952
271.9728606577287 98.17435284189918 55.46300867488055
272.35097562008394 88.05433658141109 63.402192510928074
270.01991284926277 96.67147434482662 46.05665224856781
257.2339334970503 94.36216756398544 64.97868295108948
264.10933719885406 84.24362127395767 50.329609544934634
257.66707849282017 110.63733202025679 54.1884184123284
265.1165682598842 85.46706903211705 62.36258268472793
279.22587896027085 92.22082978796001 62.04723641022332
272.54264296956427 80.78821994597497 54.19260788963708
261.8049332859681 107.90689638903943 60.94730068945277
250.60661908411095 98.54034366075187 65.77344791271769
270.9671776308512 98.9242003645154 50.89047473825562
273.60831084000466 89.86100982546502 47.33013030363464
244.72578678897423 90.22789666106317 66.24948569203815
242.53181936562936 92.10750579500575 56.547893435930426
269.2639978134417 80.56262001015598 54.51817213193839
256.20101110408575 85.92868737562834 53.952908518132354
243.03874757014634 94.91047343861275 60.30320586043022
241.63754257055712 89.06915052071909 55.877815059463714
243.51742239509178 98.14410958490167 60.739452137672984
262.6797871067187 86.26110641670446 49.35385213018978
261.7636423301176 97.09976533994131 64.4682061965507
251.12249069652475 99.97244681965594 45.45573541114783
243.9732799786301 101.64501243135135 54.54359394963929
265.80274496428956 101.06354810542582 47.786125027020276
266.6492401821309 93.01329275245908 44.9167893474858
264.6391544921043 90.01752045394556 44.93237500255902
275.87655993191277 83.89889834016707 60.16949921755868
265.8318528454741 82.4862673268316 61.84148111995791
260.25458504790953 106.83021984544472 49.301532871695365
254.44726755268087 104.60916919054672 46.18966361139586
253.1552916185053 98.12529789017114 65.56855326971879
256.1792771688802 97.50965269033546 65.98861375116788
243.30397177332557 98.39677536927901 56.9139674964705
248.52043327176446 107.23476025877936 48.83948862072284
258.22180282523345 99.9236931156028 65.84057580953026
259.2433678433642 97.12914232669196 65.29775483515424
271.9335426365714 95.09387790566593 46.60570338046534
261.0997238336535 99.36860501568357 65.24640393771304
264.7139282902229 94.79920713078704 44.71029200194608
263.1786813632443 93.0157372771375 45.55265798612794
260.6179225626061 91.4427516075126 47.03331703830156
257.3562213486146 88.78015388080152 49.26003254269201
243.660638705982 84.925251233677 61.17757538427547
243.50543434657132 92.4524198822637 64.65958548309457
264.7010068442143 104.74392212657159 57.00435608547025
271.9661301951791 81.04712045204 60.633757259626165
274.7010995981715 98.05854166669347 59.33200531923284
241.38246032809533 87.50536047963597 62.68899645966759
265.42535081683894 103.64520716567215 51.74546920823243
273.3374850248624 83.66339616327296 62.424228665374386
265.015695784314 104.21686145939788 55.274375646329034
277.8758552019226 89.2773992814707 61.94314662276834
264.00275221337233 105.71022632246057 61.583866523727785
252.80667111493676 107.43748995058968 47.80047612088257
251.87642370918073 103.56259551839695 46.009441056606725
245.37354098038765 101.18257171352646 48.72287380741241
246.1888319169381 104.27245075248675 49.35100452831566
246.8194866908925 100.5325272324603 47.46199005947732
272.0623853363973 81.67715165957367 51.0851504378521
264.0854129876712 82.50707773171304 53.60042107443717
245.32508842878238 102.55667985575873 49.97103369536166
276.52094404931626 92.27242317594016 63.2172408646567
257.4214280805557 110.42959578320826 52.11389029077942
268.5169270269233 90.88777687980074 45.023895617046314
267.95746812498595 80.4073173020826 57.99402376472737
262.8318199771007 83.70861949990284 58.24727950117624
278.7463910709889 88.34236220502387 58.77489709446578
253.27927976270882 90.0346053198558 46.891982951141635
247.06746038825665 107.21433877877837 55.34996469293097
275.03175741939015 91.37591519107715 48.222891988493004
253.7407561398306 110.75973586565746 51.66827943949177
248.41782206097093 102.41431653835636 46.523594475015805
244.5434151107238 102.13372064328458 52.14898085312308
267.32656299206207 80.85081476826267 52.99703644876674
248.2064275850034 108.12032785494564 58.06158418897389
246.99566025430704 106.05617961478725 50.24188662774811
243.44730236770326 99.62495153537817 55.1198130985704
242.67554348197376 89.14935345803515 64.22164798155076
244.0675141342564 101.24471825877916 60.57801149362299
265.8350630198012 84.8211711812909 48.56997709968491
270.6744329550747 89.64927489332737 45.90118902016412
279.1733087004994 93.25929352980494 53.10134888960333
254.95136147865668 99.64265942753777 44.75436451394594
247.7629189138656 106.59868660212486 61.954641543581076
246.47192513452362 103.74666404007154 62.52160776159036
265.298407461984 93.56176482877413 62.69357593597745
246.6100116111157 95.2844487296854 67.32433132580198
278.2566277989015 96.65173085864242 54.60389955615969
255.1138490756761 90.62703922661089 66.2184328155979
245.79509494987136 105.54825087171943 55.819420145708
244.2697668837262 97.85144273273976 63.8003114449179
267.9509695844965 99.01604034827373 46.96749537334689
253.05748267248006 84.66159145369392 63.191682501660964
267.83517422384534 89.93313177872686 63.663136812971146
263.24702856938745 106.77645911817604 53.124500458451905
247.9879075834797 108.12953145452556 53.96957606845388
263.23770510413476 106.93436303194761 56.91500761916733
264.1175310865943 103.1243991909761 64.19476539251121
256.4689438701465 85.56507637011352 62.58123139193265
247.42335266382182 84.58609668099024 64.72998756679716
268.4847405686415 94.95280831554696 44.92098923294631
257.1184658270906 89.05856810049255 64.57046766229624
249.69002284485043 107.43729437185985 62.30614890824998
262.31946534379034 106.17501226309363 50.26737927123178
243.00695318999914 95.68172083866389 54.64267705354418
270.5090654495444 92.82792985679625 63.59131169364606
251.16638702759712 109.92832552691455 51.40215858254403
254.7512789839345 92.52721601900808 66.16636347317245
254.99499754605853 108.35001055578503 48.18419376811888
268.6154205827208 80.6538256456745 61.242122801234984
280.1689898762236 90.08250821986415 56.71264860337958
256.6419455436799 111.46821448260597 56.34800432397763
253.99876723474506 111.76049145717116 53.45967646677113
266.79978566463956 102.1129704978159 58.336925755015045
261.0495422932547 108.52910513531207 57.57109859861796
260.7793428078368 101.47584406761564 45.98685678776335
245.5710516065994 104.320669010621 51.40986349232708
266.0329830090418 101.66864220650444 60.91661382545928
271.54751294593456 96.97744393864359 62.09228769593118
274.3161558143102 81.61386498277437 58.35271952373012
244.67869402100743 103.2602655082887 56.45120333821866
274.67756967905854 89.82849070209275 63.38049131535745
260.03720047827835 107.23956883541204 63.69826759430742
276.26315394077614 89.68225210122276 49.35346277513445
260.02775348249105 109.30150444135265 54.72212808164002
269.3318976118588 87.71330190333163 64.10056835346167
273.5051195855898 93.24249938555856 47.560876164491546
258.4733768676614 87.0582263534655 61.46569647340803
259.173279892479 108.99437996447098 51.89581237229152
267.8907655512907 84.72258894346693 63.491311329154456
262.9098124041655 101.42902222369554 64.96776880375576
POLYGONS 974 3896
3 5 425 0
3 6 0 4
3 0 6 1
3 0 1 5
3 8 1 6
3 1 8 9
3 7 1 9
3 13 425 15
3 14 27 30
3 16 14 30
3 16 30 32
3 16 4 14
3 4 16 6
3 17 7 20
3 19 16 32
3 19 32 18
3 19 6 16
3 6 19 8
3 21 20 7
3 7 9 21
3 8 22 23
3 24 9 23
3 9 8 23
3 9 24 21
3 10 11 46
3 27 46 26
3 27 10 46
3 10 27 14
3 27 26 30
3 26 29 30
3 30 29 32
3 29 31 32
3 33 17 20
3 33 20 398
3 32 31 34
3 32 34 18
3 20 21 39
3 398 39 397
3 34 35 18
3 18 35 22
3 22 36 23
3 23 37 24
3 24 37 38
3 21 24 38
3 21 38 39
3 39 40 397
3 41 35 429
3 42 36 41
3 45 46 11
3 48 46 45
3 46 48 26
3 26 48 49
3 26 49 29
3 29 49 51
3 29 51 31
3 31 51 53
3 31 53 34
3 429 55 41
3 61 56 55
3 64 373 145
3 72 51 69
3 53 51 72
3 60 62 85
3 145 373 94
3 99 66 96
3 66 99 69
3 101 125 390
3 80 85 112
3 95 118 120
3 134 460 135
3 113 137 139
3 113 139 143
3 149 148 117
3 117 119 149
3 146 147 150
3 351 154 485
3 163 131 162
3 131 163 164
3 131 164 167
3 170 169 162
3 137 169 210
3 170 171 210
3 144 173 174
3 175 117 148
3 175 173 145
3 145 117 175
3 174 176 147
3 177 148 152
3 177 152 176
3 177 175 148
3 149 178 148
3 147 176 180
3 150 147 180
3 180 176 152
3 485 154 184
3 184 189 188
3 192 191 186
3 186 187 192
3 193 188 189
3 189 194 193
3 196 193 194
3 194 201 196
3 195 198 197
3 199 200 203
3 199 203 202
3 203 200 204
3 164 204 208
3 208 204 205
3 208 205 209
3 170 210 169
3 182 340 181
3 388 367 352
3 352 356 388
3 356 389 388
3 356 360 389
3 360 393 389
3 196 378 393
3 196 201 378
3 198 367 199
3 367 388 199
3 388 200 199
3 200 388 389
3 200 389 392
3 389 393 392
3 378 395 393
3 393 395 392
3 378 201 206
3 200 392 204
3 205 395 488
3 395 378 206
3 205 488 209
3 3 4 0
3 2 3 425
3 3 0 425
3 14 3 10
3 10 3 2
3 2 11 10
3 14 4 3
3 1 7 5
3 5 7 17
3 17 425 5
3 19 18 22
3 22 8 19
3 13 15 28
3 28 15 399
3 20 39 398
3 47 28 50
3 28 399 50
3 63 67 45
3 45 11 63
3 47 50 65
3 65 50 68
3 100 48 67
3 67 48 45
3 66 49 100
3 100 49 48
3 53 72 77
3 61 55 78
3 93 67 63
3 95 100 67
3 65 68 98
3 98 68 97
3 96 100 95
3 96 66 100
3 110 113 86
3 94 119 117
3 117 145 94
3 98 97 121
3 121 97 250
3 123 155 125
3 125 99 123
3 137 140 135
3 137 113 140
3 140 113 110
3 141 143 139
3 141 115 143
3 121 351 119
3 119 351 149
3 351 485 149
3 171 170 167
3 167 138 171
3 171 172 210
3 172 141 139
3 174 175 177
3 177 176 174
3 152 148 178
3 184 154 157
3 157 189 184
3 195 197 158
3 197 343 158
3 203 163 202
3 202 163 162
3 203 204 164
3 164 163 203
3 182 183 340
3 191 192 352
3 352 350 191
3 187 181 340
3 193 360 348
3 348 188 193
3 356 352 192
3 196 393 360
3 360 193 196
3 350 352 367
3 367 198 350
3 350 198 195
3 195 190 350
3 392 395 205
3 205 204 392
3 206 488 395
3 206 207 488
3 2 12 11
3 17 15 425
3 28 25 13
3 13 25 12
3 17 33 15
3 33 399 15
3 25 64 291
3 28 47 25
3 47 64 25
3 52 399 33
3 52 50 399
3 398 52 33
3 382 383 397
3 373 47 65
3 52 68 50
3 98 373 65
3 98 94 373
3 102 97 70
3 70 97 68
3 119 94 121
3 94 98 121
3 102 250 97
3 250 351 121
3 250 154 351
3 157 154 124
3 124 154 250
3 159 157 127
3 165 160 345
3 175 174 173
3 206 335 165
3 165 335 160
3 206 201 335
3 335 201 160
3 324 87 411
3 165 207 206
3 47 373 64
3 115 362 90
3 131 170 162
3 167 170 131
3 138 317 171
3 138 142 317
3 133 402 136
3 138 472 142
3 138 366 472
3 169 137 135
3 324 411 61
3 134 135 140
3 133 410 166
3 111 452 84
3 84 452 85
3 111 112 452
3 452 112 85
3 162 169 460
3 460 169 135
3 210 172 137
3 137 172 139
3 13 12 2
3 2 425 13
3 168 366 480
3 12 91 11
3 142 482 362
3 142 472 482
3 482 472 111
3 207 165 475
3 475 166 207
3 143 470 89
3 470 143 115
3 380 104 478
3 478 76 380
3 141 469 115
3 142 362 469
3 469 362 115
3 90 470 115
3 71 74 72
3 74 77 72
3 78 391 61
3 82 324 391
3 391 324 61
3 89 464 86
3 87 324 464
3 143 89 113
3 113 89 86
3 472 454 111
3 111 454 112
3 81 453 82
3 110 86 453
3 453 86 82
3 76 478 447
3 104 434 390
3 104 380 434
3 434 380 71
3 82 433 81
3 433 474 81
3 134 432 109
3 109 432 110
3 134 140 432
3 432 140 110
3 76 430 380
3 76 474 430
3 54 78 429
3 429 78 55
3 89 470 428
3 428 470 90
3 110 426 109
3 110 453 426
3 426 453 81
3 362 420 90
3 90 420 88
3 362 486 420
3 420 486 88
3 447 109 426
3 426 81 447
3 474 76 81
3 76 447 81
3 74 430 418
3 418 430 474
3 415 54 429
3 54 414 78
3 474 433 414
3 414 433 78
3 74 413 77
3 54 415 413
3 413 415 77
3 83 56 411
3 411 56 61
3 106 478 128
3 128 478 104
3 418 54 413
3 413 74 418
3 109 447 106
3 106 447 478
3 87 428 88
3 88 428 90
3 474 414 418
3 418 414 54
3 34 415 35
3 35 415 429
3 86 464 82
3 82 464 324
3 158 436 126
3 126 436 128
3 158 343 436
3 436 343 128
3 112 408 80
3 80 408 108
3 112 402 408
3 408 402 108
3 60 406 79
3 79 406 80
3 60 85 406
3 406 85 80
3 78 433 391
3 391 433 82
3 88 466 87
3 87 466 411
3 88 114 466
3 125 155 390
3 390 155 126
3 411 466 83
3 83 466 114
3 114 386 58
3 386 486 84
3 89 428 464
3 464 428 87
3 158 376 156
3 156 376 155
3 158 126 376
3 376 126 155
3 53 77 34
3 77 415 34
3 153 374 123
3 123 374 155
3 153 156 374
3 374 156 155
3 128 104 126
3 104 390 126
3 112 454 402
3 402 454 136
3 380 430 71
3 71 430 74
3 390 434 101
3 101 434 71
3 362 482 486
3 56 387 42
3 42 387 57
3 56 83 387
3 387 83 57
3 83 354 57
3 57 354 58
3 83 114 354
3 354 114 58
3 101 349 69
3 69 349 72
3 101 71 349
3 349 71 72
3 69 353 66
3 66 353 49
3 69 51 353
3 353 51 49
3 43 344 37
3 37 344 38
3 43 44 344
3 344 44 38
3 42 342 36
3 342 43 37
3 123 371 122
3 122 371 96
3 123 99 371
3 371 99 96
3 190 401 185
3 35 379 22
3 22 379 36
3 35 41 379
3 379 41 36
3 59 338 58
3 58 338 57
3 59 43 338
3 338 43 57
3 345 337 165
3 337 475 165
3 475 337 471
3 471 337 132
3 166 475 133
3 475 471 133
3 101 462 125
3 125 462 99
3 101 69 462
3 462 69 99
3 56 412 55
3 55 412 41
3 56 42 412
3 412 42 41
3 80 329 79
3 79 329 107
3 80 108 329
3 329 108 107
3 471 333 108
3 108 333 107
3 471 132 333
3 333 132 107
3 43 342 57
3 57 342 42
3 208 325 164
3 164 325 167
3 208 480 325
3 325 480 167
3 486 323 84
3 84 323 111
3 486 482 323
3 323 482 111
3 486 327 88
3 88 327 114
3 486 386 327
3 327 386 114
3 136 322 366
3 366 322 472
3 136 454 322
3 322 454 472
3 167 319 138
3 138 319 366
3 167 480 319
3 319 480 366
3 62 341 59
3 133 314 402
3 402 314 108
3 133 471 314
3 314 471 108
3 168 313 209
3 209 313 208
3 168 480 313
3 313 480 208
3 198 311 197
3 202 161 311
3 311 161 197
3 161 310 460
3 460 310 162
3 161 202 310
3 310 202 162
3 318 345 129
3 346 302 160
3 302 345 160
3 130 308 343
3 343 308 128
3 130 106 308
3 308 106 128
3 209 304 168
3 166 410 304
3 304 410 168
3 136 366 410
3 410 366 168
3 136 410 133
3 357 294 318
3 318 294 132
3 328 293 79
3 79 293 60
3 328 381 293
3 293 381 60
3 129 292 318
3 318 292 357
3 334 368 300
3 107 290 79
3 107 300 290
3 290 300 368
3 79 290 328
3 328 290 368
3 357 292 282
3 282 292 307
3 357 282 334
3 334 282 299
3 294 357 300
3 357 334 300
3 44 275 40
3 44 341 275
3 275 341 381
3 134 272 130
3 130 272 106
3 134 109 272
3 272 109 106
3 38 271 39
3 39 271 40
3 38 44 271
3 271 44 40
3 368 270 297
3 297 270 299
3 368 334 270
3 270 334 299
3 345 288 337
3 337 288 132
3 345 318 288
3 288 318 132
3 132 294 107
3 107 294 300
3 179 316 267
3 180 457 150
3 457 316 179
3 179 435 278
3 73 266 383
3 58 301 59
3 59 301 62
3 58 386 301
3 301 386 62
3 152 263 180
3 181 316 263
3 186 262 187
3 187 262 181
3 262 316 181
3 295 385 124
3 144 116 92
3 102 258 295
3 185 256 191
3 191 256 186
3 185 267 256
3 256 267 186
3 64 145 173
3 173 291 64
3 144 246 173
3 144 92 246
3 291 173 246
3 246 91 291
3 12 25 291
3 291 91 12
3 184 188 485
3 485 188 183
3 40 275 305
3 316 262 267
3 267 262 186
3 182 181 263
3 59 473 43
3 43 473 44
3 59 341 473
3 473 341 44
3 356 192 465
3 465 192 187
3 267 370 179
3 179 370 435
3 267 185 370
3 62 461 85
3 85 461 84
3 62 386 461
3 461 386 84
3 340 459 348
3 348 459 188
3 340 183 459
3 459 183 188
3 305 458 382
3 382 458 75
3 305 359 458
3 458 359 75
3 180 263 457
3 457 263 316
3 178 456 182
3 182 456 183
3 456 485 183
3 207 455 488
3 488 455 209
3 207 166 455
3 127 451 159
3 159 451 346
3 451 259 346
3 328 449 381
3 449 359 305
3 304 209 455
3 455 166 304
3 195 448 190
3 190 448 156
3 195 158 448
3 448 158 156
3 182 450 178
3 178 450 152
3 182 263 450
3 450 263 152
3 356 465 360
3 360 465 348
3 348 446 340
3 340 446 187
3 348 465 446
3 446 465 187
3 485 456 149
3 149 456 178
3 191 444 185
3 185 444 190
3 191 350 444
3 444 350 190
3 159 443 194
3 194 443 201
3 443 160 201
3 202 311 199
3 199 311 198
3 161 442 197
3 197 442 343
3 161 130 442
3 442 130 343
3 130 441 134
3 134 441 460
3 130 161 441
3 441 161 460
3 36 440 23
3 23 440 37
3 36 342 440
3 440 342 37
3 398 217 52
3 383 266 217
3 284 431 258
3 258 431 372
3 284 245 431
3 431 245 372
3 369 427 481
3 481 427 105
3 369 484 427
3 427 484 105
3 261 279 103
3 279 438 369
3 295 423 102
3 102 423 250
3 295 124 423
3 423 124 250
3 258 422 295
3 75 421 382
3 75 438 421
3 421 438 73
3 284 417 70
3 70 417 102
3 284 258 417
3 417 258 102
3 477 403 251
3 269 467 403
3 40 396 397
3 397 396 382
3 40 305 396
3 396 305 382
3 297 394 359
3 359 394 75
3 297 484 394
3 394 484 75
3 52 377 68
3 68 377 70
3 185 401 370
3 370 401 435
3 372 365 251
3 124 363 157
3 157 363 127
3 124 385 363
3 251 355 477
3 477 355 286
3 251 365 355
3 355 365 286
3 261 347 73
3 73 347 266
3 261 437 347
3 347 437 266
3 317 142 469
3 469 141 317
3 384 336 244
3 384 477 336
3 336 477 286
3 172 171 317
3 317 141 172
3 269 264 487
3 269 407 264
3 330 416 103
3 251 422 372
3 372 422 258
3 385 321 487
3 487 321 269
3 385 467 321
3 321 467 269
3 269 403 407
3 437 377 266
3 157 315 189
3 189 315 194
3 157 159 315
3 315 159 194
3 358 326 259
3 259 326 303
3 358 479 326
3 326 479 303
3 160 443 346
3 443 159 346
3 368 306 328
3 359 449 306
3 306 449 328
3 341 298 381
3 381 298 60
3 341 62 298
3 298 62 60
3 381 296 275
3 275 296 305
3 381 449 296
3 296 449 305
3 257 320 105
3 320 481 105
3 103 312 261
3 312 437 261
3 303 463 259
3 259 463 346
3 303 302 463
3 463 302 346
3 259 483 358
3 483 127 487
3 358 309 479
3 309 407 384
3 303 479 419
3 70 361 284
3 284 361 437
3 70 377 361
3 361 377 437
3 409 419 479
3 286 287 254
3 416 330 287
3 287 330 254
3 416 285 245
3 245 285 372
3 416 365 285
3 285 365 372
3 127 363 487
3 487 363 385
3 451 127 483
3 483 259 451
3 151 281 120
3 120 281 122
3 151 248 281
3 281 248 122
3 437 312 284
3 284 312 245
3 129 277 253
3 277 302 303
3 359 306 297
3 306 368 297
3 479 309 409
3 299 274 297
3 105 484 274
3 274 484 297
3 438 273 369
3 369 273 484
3 438 75 273
3 273 75 484
3 254 268 286
3 244 336 268
3 268 336 286
3 358 483 264
3 264 483 487
3 307 445 282
3 407 332 384
3 384 332 477
3 407 403 332
3 332 403 477
3 251 276 422
3 422 276 467
3 251 403 276
3 276 403 467
3 120 375 95
3 95 375 96
3 120 122 375
3 375 122 96
3 244 289 384
3 409 309 289
3 289 309 384
3 409 289 424
3 424 289 244
3 150 400 146
3 146 400 151
3 150 278 400
3 400 278 151
3 435 283 248
3 248 283 153
3 435 401 283
3 283 401 153
3 244 268 280
3 280 268 254
3 481 260 369
3 260 279 369
3 244 280 255
3 255 280 339
3 254 330 252
3 320 249 339
3 260 481 252
3 252 330 260
3 382 247 383
3 383 247 73
3 382 421 247
3 247 421 73
3 179 243 457
3 457 243 150
3 179 278 243
3 243 278 150
3 93 240 118
3 92 116 240
3 129 404 292
3 292 404 307
3 129 253 404
3 404 253 307
3 295 239 385
3 385 239 467
3 295 422 239
3 239 422 467
3 424 468 241
3 241 409 424
3 424 244 255
3 255 468 424
3 120 238 151
3 151 238 146
3 120 118 238
3 238 118 146
3 331 93 63
3 92 237 246
3 246 237 91
3 92 331 237
3 237 331 91
3 265 241 236
3 236 241 468
3 118 235 146
3 118 240 235
3 235 240 116
3 407 234 264
3 264 234 358
3 407 309 234
3 234 309 358
3 419 233 303
3 253 277 233
3 233 277 303
3 174 231 144
3 144 231 116
3 174 147 231
3 231 147 116
3 307 232 445
3 445 232 242
3 146 230 147
3 147 230 116
3 146 235 230
3 230 235 116
3 339 229 255
3 255 229 468
3 339 249 229
3 229 249 468
3 232 228 265
3 232 307 228
3 228 307 253
3 242 227 236
3 236 227 265
3 242 232 227
3 227 232 265
3 435 405 278
3 278 405 151
3 435 248 405
3 405 248 151
3 242 226 249
3 249 226 468
3 242 236 226
3 226 236 468
3 302 476 345
3 345 476 129
3 302 277 476
3 476 277 129
3 265 364 241
3 419 409 364
3 364 409 241
3 438 225 73
3 73 225 261
3 438 279 225
3 225 279 261
3 253 233 224
3 224 233 419
3 105 274 257
3 257 274 299
3 156 222 190
3 190 222 401
3 156 153 222
3 222 153 401
3 122 221 123
3 123 221 153
3 122 248 221
3 221 248 153
3 279 220 103
3 103 220 330
3 279 260 220
3 220 260 330
3 228 253 224
3 224 265 228
3 91 219 11
3 11 219 63
3 91 331 219
3 219 331 63
3 364 265 224
3 224 419 364
3 445 218 282
3 282 218 299
3 445 257 218
3 218 257 299
3 266 377 217
3 217 377 52
3 331 216 93
3 93 216 240
3 331 92 216
3 216 92 240
3 95 215 118
3 118 215 93
3 95 67 215
3 215 67 93
3 339 214 320
3 320 214 481
3 339 252 214
3 214 252 481
3 257 439 320
3 320 439 249
3 439 242 249
3 242 223 445
3 445 223 257
3 242 439 223
3 223 439 257
3 383 213 397
3 397 213 398
3 383 217 213
3 213 217 398
3 245 212 416
3 416 212 103
3 245 312 212
3 212 312 103
3 416 287 365
3 365 287 286
3 254 211 280
3 280 211 339
3 254 252 211
3 211 252 339
