# vtk DataFile Version 3.0
A great-looking cell
ASCII
DATASET POLYDATA
POINTS 377 double
32.78012976457907 354.97981148589076 -2.8415027432865836
41.409821355373055 349.4693817995327 5.8438233750710165
39.021291406398 355.75727764175855 1.662508459763795
30.4603839650549 357.0390976809284 0.9786065786936309
35.632266349655495 357.7727774702369 2.9849184263544144
35.207693079015236 337.5669381763395 9.514834192234966
27.324652039803624 348.5784290395711 0.7327127111615291
28.21683114084867 356.54795162171604 2.762850310497779
32.84000507018295 358.1774404747497 2.4911140958921787
38.12161245349588 357.7857842898428 4.250675805977434
30.284529390418616 357.8988064849579 3.3440706720056026
34.424621558140885 359.3749296107301 4.7240785410947606
36.555883658286675 359.017898251312 6.5488916134318425
25.897629695541962 356.6346610733026 4.600682110875763
28.619154187624282 357.9249352105015 5.519499167128566
31.301947893687096 359.78081314058 4.970111619226567
33.36365392885172 360.47835547190203 7.829940572115344
35.993687307068804 359.0357003548723 9.668246885276886
38.82002449415531 358.42713869066404 8.462579811007911
33.92709279178762 347.02854192697015 17.937377858438417
35.755742905077774 348.91957970740384 18.842785338156606
20.53388374238413 354.03167130684574 3.2084082284986444
23.549975459182534 356.793413733896 6.232623688697366
26.17597020102059 357.46529936999633 7.652086457913436
30.30232004955093 358.73913391436315 7.730703527506791
31.000084635989648 359.73374867826254 10.448586501250904
33.74607984640246 359.88957426490316 10.948495027379586
38.22662991612251 358.20830623869057 11.548710816727594
28.55199634582099 357.5710916645949 9.91304879938979
32.37677272756748 359.06069948021593 13.019492798595078
35.15309771842339 357.8985451779864 12.591008515476235
29.95623188564743 346.0296496564858 19.704857896512884
33.085099773972644 350.13647941086293 19.824368225113766
35.48684403077117 357.0247765967248 15.126130821931111
25.388005977157245 357.1302833428563 10.801739762339945
27.548431749423077 356.7158176350541 12.746994528141975
29.860515548091758 358.1036380893519 12.627660279486523
31.26715320260111 357.47198607590667 14.302722872297482
30.827910369964457 349.4551599923591 20.67381032280153
36.609722299853615 355.0102612903976 16.260409000788187
27.13189280367266 355.40095292581094 15.154050331972726
33.31461648024853 357.45490438473985 14.808016750809829
29.35388927270701 347.5277238503471 22.008762250799027
25.973535629141534 345.3864382287063 17.58920416583505
29.159689740890393 354.9944399858914 16.34225560727962
31.359817981714357 356.3376490390024 16.51058697479991
28.786066844061857 350.2916041057297 20.808891089615194
30.76548874573443 351.7406841268275 20.379161063821012
32.926571150284744 353.12197376108395 19.772267860491972
26.762312463039578 348.7634962617797 20.91046266416413
30.32532616101865 354.008366000984 18.50059615813747
22.42172039542022 349.66195279949426 2.380857823457361
29.189234458620387 339.2760801612119 16.564523704237867
27.53048948861638 336.9019230740986 10.51315836684104
27.817553662805658 338.04487295660084 14.622264888656652
31.88398266038948 338.04273696135516 13.378546552658364
28.226041375273027 336.9667305718569 8.437594499121564
26.957326072945463 340.5372864669656 15.319776975132966
24.454315552020674 346.6633984212298 16.76279181949562
49.49565638246431 338.68903417662295 1.820049604987299
26.261673608283612 338.20961025545347 8.560529939905846
37.10132603215197 339.60912531046546 15.987089634724443
24.809168130847755 341.86050997353755 5.422382754824772
53.350519636894454 339.8782439482078 4.733906986707078
31.68169432211283 337.33704906311686 9.006444637896632
51.579293922037145 338.8786271814109 2.6774858954024565
49.808804656237164 337.43620999893693 6.125650003059425
43.929393198341536 346.05879328432627 9.799647037837723
47.71563508754149 344.30889228777096 9.877326570695919
25.786683986176488 345.19758727722467 4.109654941335033
25.857833648291756 339.2406658177002 13.410983254438802
27.228822670066915 343.73687227288957 17.458030435871425
32.870097263278495 342.62731104369266 18.319410094197703
24.040814056657425 343.90493699166956 13.172423340489972
28.57639294547824 342.25206978162623 16.853346080292226
20.990715567786847 348.1457644413013 13.361820120411627
44.086252006192424 341.71914442159937 16.28443514342671
40.500119398138885 356.90992862095044 13.250499026097843
33.78278962762667 348.3112286325755 19.330478961410886
24.3840499672534 345.168032471816 15.297333728520393
24.580861904177464 354.5453019260726 16.087060918448838
21.34726827981096 349.6345756246581 14.936993123328586
29.50647658825272 336.58951519586293 12.657701056953211
22.36683010451813 350.3348513142099 16.778850294610425
19.65388220620719 350.41159326432717 13.697326277612424
32.222952909298286 338.3917062804027 7.43625388861679
17.851774405722526 351.4774018553218 12.07552139104268
20.630507352280393 351.4081564721553 15.418213098920335
26.38147084311653 354.1139042499693 0.13324397265528307
20.5760507814917 346.2905780581873 11.315494025536882
21.120868672975035 357.12909944644764 10.063881029489975
20.659086383081235 355.9269384870729 13.08630371502558
17.399586848015215 352.09247662900157 9.403100071231185
23.005654268701857 353.8756376641975 1.5492719013017595
18.898984637320055 349.5129498254068 5.129773801181005
28.792000495446196 351.9696510700387 19.18205785554411
20.395734501087315 356.28316165184435 8.255226766585565
19.933065419715174 353.55352375584584 13.614558779883732
25.069520819780866 352.95434616134844 0.4521542377759712
24.009974825763443 342.34941477505566 11.439777996327988
22.807943897995028 346.10151395686194 13.118618066194944
34.50679793452805 357.3434201669777 1.481648766090654
44.68175370383125 339.4090706751443 -2.747127200368175
47.458836372942024 336.8032498944185 5.069024910094951
30.319729413466746 349.3913658138206 -2.9947002945953227
40.77075780750358 345.40800948923305 14.780951792559613
27.828653481092164 339.8091673856715 4.218073315974797
32.190204350651115 340.3857223355641 3.8900293370477868
44.54390900129181 343.2354705328656 -3.002577206721065
25.87557662478474 341.662614966121 4.0330633622422205
37.74999807182745 355.12503286316144 -0.6811672960257432
30.048908689884552 340.91124556198156 3.5556619017257227
41.05018358989478 347.8935384052155 2.1666149891151605
40.520082841460464 352.00354649042913 0.9734726648050815
39.29226776580402 350.61085256989196 16.279103824516056
18.99017120949621 346.8090755686673 9.38698218008356
28.443359811339473 357.8215056815125 7.697483347944451
44.71476966812478 343.89730122795027 13.795142339786452
33.9568049375539 345.10290080875427 -3.042891987420271
38.289718856692915 341.9347140159933 16.04416643914133
48.37129445460625 342.55191457611414 2.510821579624738
39.32148568823274 337.22078311800277 15.739824405781885
20.12445082786102 344.1099021132637 8.889094926583992
48.84687073050101 341.3343148387148 12.786250917170303
39.45583417046105 343.8516296531092 -3.017821612979424
52.04942393849361 341.5532007069916 3.1220160202171283
38.38277715856403 352.95525824116464 16.559331689917286
51.580665857498886 342.33147688385895 8.643918480527745
53.17486022459078 339.59072613989196 7.883871790317388
50.41892615029048 342.2376089935024 10.952951637146047
39.55205912726215 344.37905130751864 15.90703683591787
50.92744185140763 340.34844189810514 12.015842685165142
41.92598158871343 339.26541339625356 16.563280616545956
48.61603960656376 337.5559785373642 10.080454241240592
45.165713503281175 340.8988148453127 -0.9718289840481579
39.85353189130401 341.96393066110113 -2.9947357322581327
42.056686743478735 353.1340916129174 11.801773571599963
39.368989006664236 354.94603302153 15.242454984808834
52.402732853215085 340.8372609999403 10.467422207034947
27.20261447624502 352.6773021254287 -0.985046567566364
37.09981328491861 335.94488783005215 3.6217369587061503
32.11205452530095 338.9667300993112 15.710042076603049
42.4113448900237 353.25330739103003 9.72815721722867
41.9157864044011 351.2367203188127 10.982426448197154
39.15792154666923 353.5541173506037 -0.15453742164006362
36.01331153529747 341.501335207836 -2.9715058878614156
37.472895701937304 351.1034870157511 17.98759406124116
47.943466087129686 344.523449260786 8.001012704937212
25.66571497996597 340.14807649044155 6.290578448914208
21.945391293267487 353.20014172715156 16.356078428467665
45.18986102861126 334.8543480900969 0.8642014198008827
42.766734076829366 345.23997655098594 16.562168168020985
39.50524377989343 335.13494950562705 2.507627960446536
46.10833996539095 345.93008199944325 6.913559416293833
26.95354595332124 337.401704482331 12.604724906971889
24.688620113658608 340.66468588504483 9.323750968322498
41.65505318514847 335.1249494611327 8.984785097348885
46.899438295405865 336.55128110146745 0.8447760669712261
41.05937259965114 348.9443014525431 10.411791995852587
40.91945599363959 353.59782428071725 3.116469475140777
42.063767586063605 355.3184359342126 11.296822494837956
31.512944355697538 352.38922737505675 -2.7925367651836357
29.893826687903857 336.5651547817385 9.833160191998994
44.348646914464354 334.90733827121375 6.4204457995037245
42.2117788993716 334.97783219133527 1.7749133110827677
34.39358921691436 342.30099850184473 17.328924014448535
22.939120660851728 357.36218495358213 8.855694134212953
43.03246443227304 337.95752550598735 -2.961406076655412
36.868478599199626 353.28343607145683 18.110898996649365
46.909847892926145 342.33594314444804 1.2807729911773487
23.033258077666662 351.2087710537237 1.0796880851016295
36.8219667939104 344.02398654086045 14.836963596359398
45.90854770598981 338.0957288261479 9.345316338054417
41.087047692051 347.3763444093367 7.844800621454963
46.689240453330164 342.307879014867 12.318654736860706
46.381935965078554 335.3903095997428 6.221010485887651
42.28383774019174 334.7890842582736 6.548576309175649
40.541873667571814 334.3853932851921 5.834597510346929
47.31096880753515 335.71216028578266 3.146286120332983
40.20687242641956 335.85587969678596 -0.04396926405928184
22.994852078760008 343.0729253615402 9.171253775504756
18.39857307612815 353.6331514327364 11.163528514787922
41.85465957367901 350.777884511023 8.265086547181996
33.31253980559386 339.50300447207377 5.714384606547711
46.44343130255678 336.4244864696724 8.092827689902256
35.76304506205901 337.00501988861663 7.499882441378394
18.315762015986163 352.2293972858426 4.14243340951064
28.923451382896978 344.9706645987405 17.626143355129646
24.67659215562351 349.0300921128291 2.5789926301061223
42.60753617556685 336.9325801048978 14.535711911966123
36.68776632443257 337.93458907189506 13.88535521544842
25.79905784518422 338.64669435126484 11.051601511715653
47.096399412374566 338.95387279130114 1.769559282137278
39.01767504349437 334.59136008310384 4.954741084217943
24.5995452820338 343.36941248402 14.7136177545754
40.44865204078237 339.25097174823105 -2.800530903242228
31.11349284040255 340.88926996826507 17.661794567530166
33.2059175944914 338.94350594216644 13.94253303015179
29.950925478369 347.1555835732784 -2.947205434015233
36.394098339675466 336.28905587424794 11.576441879477695
18.389981476018907 354.51685856142427 9.016447942690808
39.48778702690917 334.54441571636204 7.531521709836904
42.6970480851941 335.8381797354592 11.407674941830699
44.24624293656124 334.33775931131663 4.186114950667712
17.55579581196752 350.2493413305979 10.388640300330621
40.973174198235434 342.1805959595125 17.38488425330593
41.58597841890737 351.7542005029603 13.19431666496715
42.91723233260995 335.890582796615 -0.9521924606976245
34.25312802579016 339.5454284428772 3.5305443662196128
34.98827667020737 344.2117674646251 17.554643171253193
34.435300702140175 338.64571695417635 7.576609078550592
41.50657425632425 344.27421529516664 -3.218591525781803
21.89758954043144 357.002223011792 7.144231145799124
45.764800193155665 337.4771336752875 -1.3276596787588673
49.834055233066366 341.2791588803291 0.8846831323775332
37.70725871868733 336.60717861273423 0.9729076461704328
31.84578662768695 345.17421737497347 18.147891528539898
36.81549165353811 350.3090833458835 -3.0846527227098903
49.816589474802505 343.3861547432682 6.897869513689248
38.65115784827629 337.6940962097676 -1.4243876907117963
29.290404579797066 353.9203647164509 -2.2650878426834007
37.09278569752741 335.65681626795276 6.281049797862375
32.01055430108153 347.51354313291984 19.96077819840993
36.18146643660739 356.53266546705265 0.7643764803425654
39.364685106718525 335.0397688339904 10.836897854606633
47.01689799426476 339.6914435118174 11.655318519692035
44.37556815356907 335.7004755198565 8.536090197974563
40.29349982914052 347.8944762568543 12.643198799591119
45.253199063683105 344.0665899276497 -0.4198376759609958
45.087416862398754 340.8582855246276 13.458645772925525
34.65927874527638 339.79145586937415 14.722498567689865
41.3020598231225 334.6868367158807 4.3018540743371725
36.53080951821892 346.8819802872547 16.20246250282814
44.01297798389177 345.83161054645024 -2.1871054612911465
22.87752424332389 344.96733453611887 6.995789319731646
40.83112095976271 357.6981612444585 8.262013387205583
30.014184887110492 342.54763612686236 2.3679277702887513
21.2609455770869 355.931450683541 5.673470368245786
41.87223051000622 354.88848592835853 5.666154151888345
27.61447605498775 346.8491193162532 19.387044651332882
33.14629477231664 338.8151974021429 9.496798307370815
39.71740189781332 352.37910457125474 14.53659660234149
44.472904950250296 336.8793337354798 10.434202006447668
26.9933943110769 346.5180336339665 2.9837320601961617
39.156523033921154 349.09327392688914 -2.298841905197977
28.157247426890965 342.2094510708851 3.2106209462676443
30.613633147209583 343.16532572799974 17.891780591295316
40.88495564229671 336.8633964777909 -2.1938982364928474
31.5268985069018 341.45217231327524 2.1040071992543274
24.66140887624327 346.80940398957176 5.20106314277592
46.687064802157984 345.3097176088395 4.960978031479874
28.806221231128006 346.4104075426703 0.6615690285894847
18.766317557745502 348.75919346562415 11.422257401235107
33.634558200239844 340.80809773475244 16.91006962673275
37.602008804633485 340.33194596286364 -2.3546342514852943
33.301783625696345 349.8430226141059 -2.7971670470555514
36.991280446770475 335.650217640034 8.897358994365511
25.719162467315883 342.90089097339626 16.276831739962542
20.24907883565697 346.9177288360925 6.786033725105685
37.31658283146968 357.1706051013016 2.3018902388363283
49.058092510994506 337.6999671225453 4.123003140683037
25.74371624616882 354.9029124314405 1.9495998033216482
24.57298497504461 343.7771505742866 4.823116480301326
36.59865348662941 338.95368511534997 -0.06439789237589139
44.81241140531916 345.72551545672763 4.17667601518821
22.15275889932814 344.04314786415966 11.400817856081678
37.47354272602596 343.0827751223554 -2.873409367859998
38.74415535614384 345.8158439202921 13.510263816377385
47.200097448624604 344.1307146266285 3.405109108425374
35.42218703719797 347.3536684514592 -2.776860097729596
37.929140637963684 348.9510541011672 17.219233967988334
38.65258200393144 358.5110518747742 6.335243398791047
24.445479521218104 351.9726246094172 17.719873802152282
49.2584049665463 343.27396935333513 9.226994513558836
18.768610985406234 354.3590382674489 6.237518293476348
39.611536049997895 351.40488776980425 -1.305279195941464
39.30677037913402 339.85880563751857 17.35300566225669
32.96108663221191 341.2604759388374 0.4657913952021632
49.41095113217971 338.6795743471846 12.497485137350605
38.062363425610066 353.3258276532554 -3.1075148527159295
35.00037226287293 340.93916914024555 -1.207967433381532
37.59093233163168 356.7980143030832 14.10309673955257
31.811778216526275 343.8535922674667 -2.9354994599382076
24.801471842362915 348.5060496241304 18.38722665457226
38.11930608445543 335.67775321902894 13.487276549248309
40.71268892205456 346.26512051821504 10.49778089578089
43.47466480031134 346.34244748379626 6.630426436721345
51.39026163225211 338.4666944934873 10.503009410880818
42.7504617045566 340.89421355998934 -2.856327441755166
43.831126892691564 339.294586448961 14.743724184686185
28.1890115983507 355.1226221349446 0.06092137412852355
30.747236333620798 355.5587818279935 -1.3353753948393383
30.108284897758704 345.6517970221868 -1.414633391147082
21.837803086453928 348.2343319487042 4.120275091397859
21.34067293500949 352.6231979615672 1.414293333099736
46.74432603808479 345.2336972391807 11.884611868056787
35.48638622169266 351.8997133723242 19.60487072598788
46.784190384644916 345.8122101295456 9.358612303807679
43.1965019205278 346.6028834898231 1.016011106287399
20.403222969851647 350.7943498375102 2.442699790431277
47.86163389441692 337.7199412918994 7.022690479730805
34.27977441784483 338.747282469909 12.024412309725443
40.45551715530159 354.00429910344224 1.1034517883904273
27.303320623654255 353.3437720498866 17.41881344156812
22.918457034470833 347.73267107863865 15.589915101821688
41.944629492157254 352.0147977091646 5.524407720230955
34.2202411335441 356.46353247413094 17.040563369825797
41.27762395954276 350.15552186678866 3.1624234478390347
33.200202487411396 340.6478437113999 2.3054383132206153
17.523535458640318 351.75442022085275 6.711103655107498
32.72251460937855 355.06715688979347 18.29534167793089
26.244577943165567 343.86079620811824 2.74568375142912
29.901743256217532 345.0411946596469 0.5012150699379313
39.03329399882807 348.27252170438015 15.130478147652195
25.61089236533908 350.58751610980227 0.06161438811082917
22.48866393519432 346.9634086530669 6.008434293609842
41.906510570239085 355.76200590956654 8.42068615375849
40.34227324441366 356.10721373149124 4.068079687409759
30.18377020871101 337.18574529701135 7.481515677095673
32.1509118833058 347.0826017428759 -2.7376363248751097
27.888171597118788 337.9751184882462 6.346863609906834
40.735326833488436 349.13539018763885 0.26277414376835245
34.909544036574836 340.2324932709448 1.376382297247384
41.687466074281964 347.4650339740374 -2.2777465777752965
44.63706857028079 338.1281729232984 12.3005508745108
40.494559482303465 350.06847473398767 14.213729822420248
18.135507700355017 349.2920759362288 8.409715543068396
40.7482732823379 357.5044599790619 10.291020013531414
38.63839343801659 351.01531899072074 -2.781533005819915
40.013149865160784 356.9580234578169 6.526668098326036
35.58002252430044 341.87935184141475 15.870512104926208
30.566214889977182 338.92891352413875 5.335697795341235
30.10562980050412 338.1392281814648 14.616829910408756
37.40453577347826 348.00894098387744 -2.8777463869015025
31.840310201322005 337.4816050823017 11.080418469213052
52.23455847549208 342.2368840232256 5.8585492789650235
35.625179572030774 337.9637024224605 5.288188510876188
33.29133100996955 356.4579054185097 -0.08023070265617821
28.76052833620172 347.7307615734398 -1.4441482338847262
30.94759824150125 354.392136363034 -2.7605421577082554
36.06750102758048 344.9863840574755 -2.7399390980422664
34.70200724874872 343.02759222944684 -2.744278451930053
45.277459652654045 344.3712169743907 1.9759897763076497
41.53522444743894 346.9457553140579 4.389932363271212
50.62956592282264 337.49798913047147 7.920951587023368
51.669194903981335 337.8504504779791 5.487778543639826
38.535205743008866 346.02703344728593 -2.9466953581586712
47.79783720971981 344.2082659767602 5.713713797709146
35.51197771746804 355.2519185496342 -1.8608518606090512
29.4254840478604 356.41849768140764 14.55724745999008
42.07281881822896 345.8334137578089 13.000701757051097
26.485899498946573 351.1704967026413 19.622999587740626
30.90977067521061 343.2206941377864 0.16497266232295169
40.48162799956587 335.81183749783105 13.340866849392778
27.753766714098987 350.0175563104335 -1.5361507843944486
22.308908695626517 357.08999039603 11.94057737703069
28.884403122951714 351.7583909181696 -2.814251713657149
34.912698116339094 354.3247800107175 18.418867339521434
24.886113479021457 341.6955327174022 13.861284939230025
19.805811616758152 355.7789448594248 11.138131620347247
21.953392517662977 356.0417195881956 14.974294097620904
28.903661326984835 344.3731111658563 2.083701596678237
36.068188199561575 338.23369163290624 2.470021507007717
24.817660899552006 356.15135852245885 13.615086479785974
49.814605965401256 343.20208612545764 3.909641367834689
41.228063378145805 354.1209328390951 13.492253547774396
41.17487255479594 349.9384026263827 12.318962107862339
17.73872794151786 353.3024151517085 7.808571980299107
24.87765941848774 340.43874841440277 11.841074438625695
33.111907597185954 342.51620264728416 -1.2410140214756331
44.40236563912926 345.4063827015344 12.19687488188765
23.268484313929733 355.5607127796434 3.748349535428648
48.098501136611155 342.89275070263244 10.979444092602304
24.206156844545596 342.381253601977 6.9896929765419324
34.40809744101532 352.6843419625008 -2.8207876309614055
42.384857953082715 353.3404307565568 7.492182762365411
36.10780295763324 358.2863178795543 4.721072602708436
POLYGONS 750 3000
3 8 337 3
3 290 7 3
3 3 7 10
3 3 10 8
3 4 8 11
3 7 13 14
3 7 14 10
3 13 22 23
3 13 23 14
3 77 27 281
3 34 363 35
3 168 39 357
3 37 45 41
3 40 44 349
3 349 44 45
3 46 38 47
3 38 32 47
3 239 49 283
3 351 283 49
3 46 95 351
3 15 8 10
3 15 11 8
3 14 15 10
3 16 11 15
3 17 12 16
3 16 12 11
3 24 15 14
3 26 16 25
3 30 17 26
3 26 17 16
3 30 27 17
3 36 25 28
3 28 25 24
3 29 25 36
3 29 26 25
3 29 30 26
3 34 35 28
3 28 23 34
3 35 36 28
3 37 29 36
3 37 41 29
3 41 30 29
3 32 38 222
3 363 40 35
3 349 37 36
3 45 37 349
3 42 222 38
3 296 48 32
3 283 43 239
3 47 32 48
3 48 357 310
3 49 46 351
3 296 32 20
3 42 46 49
3 42 38 46
3 222 216 19
3 310 306 45
3 45 306 41
3 310 50 48
3 48 50 47
3 48 296 357
3 44 303 50
3 80 303 40
3 40 303 44
3 36 35 349
3 349 35 40
3 41 306 33
3 33 306 39
3 41 33 30
3 45 50 310
3 45 44 50
3 47 95 46
3 351 95 303
3 33 39 281
3 310 357 306
3 306 357 39
3 166 355 34
3 34 355 363
3 355 360 363
3 363 360 80
3 272 303 80
3 40 363 80
3 272 351 303
3 272 283 351
3 293 315 258
3 293 249 315
3 43 187 239
3 232 171 267
3 31 222 42
3 222 31 216
3 216 209 19
3 19 209 232
3 171 232 209
3 42 239 31
3 239 187 31
3 6 188 314
3 188 170 314
3 34 23 166
3 166 23 22
3 216 31 187
3 315 234 258
3 49 239 42
3 234 249 262
3 249 234 315
3 243 249 188
3 188 6 243
3 19 232 20
3 3 291 290
3 7 261 13
3 7 290 261
3 354 6 314
3 6 338 251
3 290 291 220
3 354 338 6
3 12 17 18
3 17 27 18
3 251 338 292
3 293 188 249
3 6 251 243
3 296 168 357
3 232 313 270
3 270 20 232
3 168 296 146
3 77 365 160
3 20 146 296
3 20 270 146
3 168 126 39
3 270 114 146
3 146 126 168
3 146 114 126
3 77 327 27
3 77 160 327
3 0 291 337
3 337 291 3
3 27 327 18
3 9 317 2
3 2 317 159
3 9 329 317
3 1 307 305
3 321 113 307
3 144 113 275
3 275 113 321
3 298 323 321
3 321 244 275
3 321 323 244
3 244 323 346
3 279 144 275
3 346 340 269
3 279 374 348
3 374 255 161
3 319 282 292
3 269 319 255
3 280 369 341
3 341 369 282
3 354 104 338
3 30 281 27
3 30 33 281
3 18 271 12
3 12 271 9
3 18 329 271
3 271 329 9
3 254 263 280
3 15 24 16
3 16 24 25
3 240 5 301
3 232 267 313
3 313 267 227
3 5 185 256
3 266 341 340
3 240 210 5
3 210 185 5
3 221 201 256
3 201 224 256
3 5 199 301
3 199 224 284
3 336 140 221
3 193 221 140
3 362 140 336
3 189 202 324
3 336 221 185
3 263 362 322
3 185 221 256
3 221 193 201
3 224 199 256
3 199 5 256
3 308 322 208
3 201 156 224
3 156 226 202
3 208 362 336
3 185 210 336
3 175 163 203
3 203 163 176
3 175 226 163
3 163 226 176
3 201 176 156
3 156 176 226
3 303 95 50
3 322 362 208
3 208 336 183
3 183 336 210
3 334 240 301
3 152 193 140
3 224 156 202
3 280 145 254
3 254 145 266
3 280 341 145
3 145 341 266
3 254 219 263
3 263 219 215
3 254 195 219
3 288 167 195
3 215 152 140
3 139 354 314
3 95 47 50
3 220 139 290
3 206 143 136
3 136 143 142
3 195 135 288
3 288 135 211
3 195 254 135
3 192 134 169
3 192 213 134
3 142 143 182
3 182 143 158
3 160 136 142
3 142 182 375
3 325 366 206
3 366 143 206
3 158 143 366
3 366 227 158
3 329 316 238
3 104 198 338
3 338 198 292
3 104 319 198
3 198 319 292
3 305 159 238
3 238 375 305
3 266 135 254
3 316 235 327
3 327 235 18
3 316 329 235
3 235 329 18
3 169 134 228
3 316 375 238
3 316 142 375
3 329 238 317
3 317 238 159
3 160 316 327
3 160 142 316
3 375 182 305
3 305 182 1
3 350 67 285
3 285 67 173
3 223 348 337
3 348 0 337
3 133 172 300
3 223 259 2
3 2 259 9
3 223 4 259
3 259 4 9
3 202 242 324
3 324 242 172
3 202 226 242
3 242 226 172
3 227 285 158
3 280 263 322
3 176 231 203
3 231 164 203
3 247 167 207
3 207 167 213
3 126 137 39
3 39 137 281
3 164 231 152
3 152 231 193
3 152 179 164
3 247 207 179
3 179 207 164
3 215 179 152
3 172 225 324
3 324 225 229
3 229 225 174
3 225 172 133
3 300 344 133
3 344 287 133
3 228 342 169
3 264 268 342
3 342 268 169
3 218 335 364
3 225 133 278
3 278 133 287
3 268 347 364
3 364 347 218
3 347 147 218
3 278 287 131
3 131 287 138
3 225 123 174
3 225 278 123
3 129 131 138
3 345 128 344
3 218 127 335
3 335 125 364
3 364 125 214
3 129 138 127
3 128 335 127
3 127 138 128
3 287 344 128
3 128 138 287
3 123 278 131
3 218 273 127
3 273 129 127
3 147 273 218
3 129 123 131
3 348 374 0
3 0 374 161
3 324 289 189
3 76 132 289
3 289 132 189
3 352 282 369
3 352 292 282
3 151 205 76
3 205 132 76
3 76 289 229
3 229 289 324
3 307 159 305
3 307 113 159
3 189 132 121
3 364 120 268
3 268 120 169
3 364 214 120
3 120 214 169
3 319 118 282
3 319 269 118
3 118 269 340
3 341 282 118
3 118 340 341
3 229 174 117
3 117 174 295
3 104 356 161
3 161 356 220
3 104 354 356
3 255 217 269
3 365 241 206
3 206 241 325
3 365 137 241
3 227 325 313
3 227 366 325
3 313 325 114
3 241 137 126
3 270 313 114
3 241 114 325
3 241 126 114
3 311 361 245
3 223 110 348
3 144 279 110
3 110 279 348
3 311 245 109
3 248 107 111
3 107 331 111
3 331 320 106
3 106 111 331
3 111 106 245
3 361 236 245
3 245 236 111
3 111 236 248
3 251 361 243
3 243 361 311
3 109 245 106
3 330 119 171
3 284 190 199
3 284 121 190
3 1 343 307
3 255 104 161
3 255 319 104
3 1 182 173
3 173 182 158
3 11 376 4
3 4 376 9
3 11 12 376
3 376 12 9
3 220 339 161
3 161 339 0
3 220 291 339
3 339 291 0
3 175 184 226
3 226 184 172
3 175 300 184
3 184 300 172
3 220 356 139
3 139 356 354
3 214 192 169
3 164 207 150
3 150 207 213
3 203 178 175
3 192 260 178
3 247 179 219
3 219 179 215
3 167 247 195
3 247 219 195
3 175 103 300
3 300 103 260
3 175 178 103
3 103 178 260
3 288 102 167
3 167 102 213
3 288 134 102
3 102 134 213
3 4 101 8
3 8 101 337
3 4 223 101
3 101 223 337
3 144 110 2
3 2 110 223
3 164 150 203
3 203 150 178
3 248 236 352
3 352 236 361
3 262 373 234
3 173 158 285
3 170 98 314
3 98 139 314
3 97 149 360
3 13 371 22
3 13 261 371
3 258 94 293
3 258 326 94
3 21 371 93
3 93 371 261
3 151 117 350
3 299 293 94
3 98 170 93
3 93 261 98
3 359 91 355
3 355 91 360
3 359 97 91
3 91 97 360
3 166 90 355
3 355 90 359
3 166 96 90
3 90 96 359
3 265 100 89
3 139 88 290
3 290 88 261
3 139 98 88
3 88 98 261
3 311 109 262
3 265 180 99
3 298 343 264
3 304 75 100
3 84 252 75
3 84 81 87
3 84 75 81
3 81 75 304
3 84 97 86
3 86 252 84
3 283 83 304
3 97 87 149
3 97 84 87
3 149 83 272
3 272 83 283
3 304 83 81
3 81 83 87
3 360 149 80
3 80 149 272
3 149 87 83
3 20 78 19
3 19 78 222
3 20 32 78
3 78 32 222
3 23 116 14
3 14 116 24
3 23 28 116
3 116 28 24
3 206 136 365
3 365 136 160
3 281 137 77
3 77 137 365
3 229 117 76
3 76 117 151
3 252 89 75
3 75 89 100
3 234 122 258
3 265 89 122
3 309 326 92
3 352 312 292
3 292 312 251
3 352 361 312
3 312 361 251
3 148 155 373
3 326 309 94
3 99 73 265
3 73 100 265
3 187 246 216
3 187 74 246
3 246 74 196
3 330 171 209
3 100 79 304
3 79 257 43
3 208 107 308
3 216 72 209
3 257 71 43
3 43 71 187
3 257 74 71
3 71 74 187
3 262 69 311
3 311 69 243
3 262 249 69
3 69 249 243
3 79 100 73
3 99 358 73
3 147 68 273
3 273 68 372
3 123 372 174
3 372 295 174
3 350 370 67
3 67 370 295
3 350 117 370
3 370 117 295
3 123 129 372
3 372 129 273
3 331 107 183
3 183 107 208
3 68 295 372
3 141 253 196
3 74 52 196
3 72 216 246
3 183 85 331
3 183 210 85
3 300 66 344
3 344 66 345
3 300 260 66
3 66 260 345
3 125 65 214
3 345 260 65
3 320 331 318
3 240 85 210
3 345 63 128
3 128 63 335
3 63 125 335
3 85 318 331
3 318 64 162
3 318 85 64
3 64 85 240
3 262 62 373
3 373 62 148
3 262 109 62
3 62 109 148
3 148 320 60
3 109 106 148
3 148 106 320
3 214 59 192
3 192 59 260
3 214 65 59
3 59 65 260
3 304 58 283
3 283 58 43
3 304 79 58
3 58 79 43
3 257 57 74
3 65 125 63
3 63 345 65
3 119 330 61
3 61 330 230
3 64 240 334
3 358 368 70
3 70 368 191
3 358 99 368
3 132 276 121
3 119 61 276
3 276 61 121
3 155 191 368
3 368 99 155
3 155 148 60
3 60 191 155
3 70 57 358
3 358 57 257
3 162 56 318
3 318 56 320
3 56 60 320
3 301 55 334
3 141 332 55
3 334 55 82
3 74 57 52
3 54 57 70
3 82 162 334
3 162 64 334
3 82 53 162
3 191 60 53
3 56 162 53
3 53 60 56
3 54 154 82
3 54 70 154
3 154 70 191
3 53 82 154
3 154 191 53
3 57 54 52
3 52 54 332
3 293 51 188
3 188 51 170
3 293 299 51
3 51 299 170
3 119 276 205
3 205 276 132
3 141 197 230
3 230 197 301
3 141 55 197
3 197 55 301
3 330 253 230
3 230 253 141
3 215 362 263
3 215 140 362
3 280 277 369
3 277 308 248
3 308 107 248
3 193 177 201
3 201 177 176
3 193 231 177
3 177 231 176
3 121 61 190
3 190 61 230
3 279 217 374
3 374 217 255
3 244 328 275
3 275 328 279
3 244 217 328
3 328 217 279
3 308 277 322
3 322 277 280
3 352 277 248
3 352 369 277
3 141 52 332
3 141 196 52
3 55 332 82
3 332 54 82
3 199 190 301
3 301 190 230
3 153 297 147
3 295 68 297
3 297 68 147
3 21 294 299
3 299 294 170
3 21 93 294
3 294 93 170
3 21 237 371
3 371 237 22
3 227 267 350
3 350 285 227
3 173 343 1
3 347 153 147
3 153 250 264
3 264 250 268
3 153 347 250
3 250 347 268
3 96 237 274
3 274 237 21
3 173 286 343
3 343 286 264
3 286 153 264
3 266 340 346
3 346 323 211
3 2 302 144
3 144 302 113
3 2 159 302
3 302 159 113
3 228 233 298
3 211 323 233
3 233 323 298
3 22 212 166
3 166 212 96
3 22 237 212
3 212 237 96
3 67 295 297
3 297 153 67
3 96 274 200
3 73 194 79
3 79 194 257
3 73 358 194
3 194 358 257
3 96 200 359
3 92 204 86
3 86 204 252
3 92 326 204
3 204 326 252
3 299 186 21
3 309 274 186
3 186 274 21
3 309 186 94
3 94 186 299
3 86 181 92
3 359 200 181
3 181 200 92
3 180 265 122
3 373 155 180
3 180 155 99
3 189 353 202
3 284 224 353
3 353 224 202
3 200 367 92
3 92 367 309
3 200 274 367
3 367 274 309
3 284 353 121
3 121 353 189
3 72 165 209
3 209 165 330
3 72 253 165
3 165 253 330
3 253 72 196
3 72 246 196
3 373 180 234
3 180 122 234
3 269 333 346
3 346 333 244
3 269 217 333
3 333 217 244
3 252 115 89
3 252 326 115
3 115 326 258
3 264 342 298
3 298 342 228
3 211 108 288
3 228 134 108
3 108 134 288
3 153 286 67
3 67 286 173
3 359 181 97
3 97 181 86
3 233 228 108
3 108 211 233
3 266 124 135
3 135 124 211
3 266 346 124
3 124 346 211
3 307 112 321
3 321 112 298
3 307 343 112
3 112 343 298
3 151 130 205
3 130 267 171
3 119 205 130
3 130 171 119
3 178 157 192
3 192 157 213
3 178 150 157
3 157 150 213
3 267 105 350
3 350 105 151
3 267 130 105
3 105 130 151
3 89 115 122
3 122 115 258
