# vtk DataFile Version 3.0
A great-looking cell
ASCII
DATASET POLYDATA
POINTS 373 double
33.504564385468655 354.6117179563026 -3.2211152285845333
41.45112649965575 356.7644090599727 0.9174029124647226
30.50861086359537 357.57469824753684 0.34239619755987316
37.05911397410282 359.27368883731197 3.1609893496864006
36.116177563471545 340.07126127714344 8.469499002916736
27.029891360634227 345.7546596802106 -1.2073973044045725
28.618427660580043 356.6018500813847 1.9322641926394064
33.52927412463681 359.5220699672099 2.60752894490503
39.025906771603985 358.1521057669388 5.378528710686059
30.618609523121425 358.0953924524723 2.963261205042881
35.12898743136419 359.2887169266544 5.415852170376786
37.19128561410121 358.8079487598695 7.460745461995445
26.70852751638888 356.8819940387497 4.042096920475237
29.26331016897033 357.6255591653106 5.529217360947105
32.0954346890815 358.80611239737976 5.444203639421608
33.80411041575936 358.6868887853371 8.228668488465225
36.20567892271365 358.1551671881832 10.220940139523364
39.313827671063244 357.6860860983096 9.63726463783919
34.735179610787 347.8859642168503 16.497565806278967
34.40232600441178 350.13971271696687 16.37976264462226
21.858681921107202 353.0266375326333 3.6755437527871146
24.161086427958622 356.9273856308232 6.001948715815495
26.828985350608384 357.34898228813097 7.270350201314328
30.70252428028655 358.1186783533991 7.777450102396851
31.578273843748157 358.13579757567527 10.222786455378621
33.84616101486926 358.2996398025211 10.85286020046323
37.7650760442889 356.84675203276777 11.975881762370499
28.780454967339324 357.27293479892217 9.625045612984476
32.62083601085352 357.14768280282726 12.170182953297164
35.14799107255995 357.5526942938246 12.83466192168253
31.19922238993444 347.82456629542617 17.319867100832916
32.35085609459421 351.1957090255448 17.168388004923443
35.01851301752658 356.3513661464475 14.711230608827872
25.519398625442314 356.3851003786174 10.034402998606554
27.647929098142473 356.5271828617045 12.47764366221289
30.26867710619521 356.985687993063 12.061202288233238
31.496496298233858 356.17581932385434 13.397916653679804
35.8693252752253 355.0973226167323 15.831880991414973
27.004406655512813 355.7241510264449 15.561425196154829
33.289957873650266 356.27111783206016 13.975882855707857
28.623344832622 346.27086739075366 15.971569199762932
29.517489884698357 353.94068660661253 15.898246142151805
31.673287140675228 355.1630615838625 14.991659206057689
30.409586350581126 349.64512392829124 18.133811387606293
22.119573541797752 347.59346691247157 0.5387461896797608
31.489888843063365 344.2719162658737 13.529852484799965
30.436548170249708 343.87725940402083 11.583329210283932
34.418603665589046 344.2699931156381 10.220017994636706
29.245201193116465 343.91682651895303 13.560155798714456
47.84029866545008 339.81599177996026 2.7132106664855344
20.345223437272757 348.4075347305265 20.416887755432484
36.539967658040155 342.461402630481 14.22729504618917
36.119321320961525 358.5585608407081 -1.8142019426673235
47.66171270598 337.44090877071716 7.0751275367085205
33.94217013217386 357.3779415545172 -3.1806239536312564
45.39176579535634 344.98360549084333 10.69141953711494
50.682156412675475 340.7555589029408 6.811955259098018
51.12997974039413 339.8628385783933 8.44335413949681
49.91526326971472 340.07170288598087 2.5071231328692343
30.10072852604249 345.17157741448773 14.930701736864208
19.446694036463036 344.8835027480495 14.971689088371173
41.525007038066136 342.59301215054137 13.881256051675388
38.73840267322775 354.9890710959242 13.112133237085137
41.87558593996451 350.41441310402337 6.494359082662654
43.49134092057466 348.33403281796205 6.790545021325649
26.733658280344496 345.03108897237485 16.007226414704412
23.87093842364595 356.42604628724564 16.454923887558326
32.05000001613333 343.5705712974449 9.31733719003352
23.370819671560902 346.4891370663753 20.40385230140509
16.80523417058758 348.8732173028951 10.52196514925745
16.888793424117974 348.31602377403965 12.820461220386473
19.158352481916506 352.2444158436233 10.767009372840644
18.138676660788143 349.7441759781629 17.917956659666984
37.72653509851871 331.63853964055073 9.254779773074828
26.65120185682063 354.48434711310256 -1.1630690240774142
21.61206294441225 343.34056678117236 12.914323425895233
21.723258711855134 354.5835917727614 9.922918179915355
43.76161456498658 333.3556572916883 8.083236590217707
20.99980602998197 353.80456715290654 11.933428446259091
44.56268804389027 348.7557900204446 10.672128488569392
23.505567514177923 353.1712776597515 1.3833659875713966
19.688130442540853 347.4532598062909 2.883594842372172
41.49396859842525 329.95744279589553 9.392485360438666
30.023315058894504 352.2656190000829 17.632300979658353
21.344055959765566 353.8024863720875 8.111819441070706
18.987535195407265 352.40564680650914 13.302342306872784
24.924453663046606 353.2158378896846 -1.1546491077598051
26.810418766696472 344.31124872211313 11.073872301028524
43.84982624002735 334.954055345402 9.038253816875594
24.012964313178426 344.35451564385534 14.996731257190232
35.66176620654875 359.18183141765877 0.6427260086558293
41.40036152778372 341.07080267180055 -2.8970595705259985
25.682687295250073 351.9445653595813 20.508170526656034
21.18172217117971 351.84183422671055 19.08447543027881
31.807193394531403 348.3136408322009 -3.148809718617926
25.61066769481457 346.5720781876151 19.367115000574525
37.4801131053338 333.272332119532 9.974294771234659
39.532656864364476 345.55411398505703 11.622148995851513
41.76708594078703 329.8718840912335 3.938540230184338
41.35493182049778 355.1490795291762 -0.5390264789125466
41.51878980327818 344.40601133800675 -0.5648999716573069
37.107048114397976 332.7042650618054 7.1921075497365035
40.187362564205 356.44020765421527 -2.3087420243951686
41.76707557232435 338.3494472900509 -2.888669043401997
21.525109768506827 351.64792876186453 1.7272524013909716
40.09293154410485 348.7709507347296 1.7859782977002256
41.30736820436712 350.9412936316696 2.446188421726382
38.01292390021527 350.5445502284088 15.182521566392207
19.840364880243044 343.4731580508938 8.555717533925192
28.899105410107286 357.54890889447415 7.5495848312393345
43.5382226953587 344.3496355267873 12.833427318907457
17.215289692463486 347.3635622802 15.532831724043998
37.816318634430175 343.6345241972867 14.713814021309583
45.79090455531994 343.84556896931826 3.332800859777223
37.90359681397871 340.14698077733306 14.395138143173385
22.54207602405679 343.0983136037433 10.015120487700926
20.78167170813961 345.8262548177306 19.832190470116853
42.4342603836323 331.4484172097846 1.0034807412964455
48.543820576344764 341.08758750890576 3.905952380021031
37.55548442147138 352.28415327108246 15.619274191661605
49.21313776891087 341.67272955083774 8.732467366012864
51.794559567650644 338.41131980887576 6.240808749897661
47.82679611294687 341.2427575541484 11.521095831957114
38.62723808295337 344.5953245376401 13.433323020415214
41.67904467227738 333.61363919254154 -1.1183826192821988
40.11603669646344 341.1799539080903 15.356844469681151
46.502951111795355 338.75045280851623 9.177466061983486
43.11878792615972 343.0925126866172 -1.6595571197435288
40.720745391805586 352.33608277775454 13.184636279108211
43.0471396001271 331.52218229023725 6.90869275184063
23.25451506494157 350.0177370220646 21.30395029209707
38.0065623265156 354.14184763778644 15.184886258134174
50.30788757395315 339.48560483053876 10.854109319031647
27.56821059901197 352.6738775866646 -2.203099932555518
36.747743358798346 338.55836696874286 4.333064647874631
32.88984275162517 344.21435183304305 11.704718182412524
42.31990558971132 352.8332093390918 11.24020285128619
19.47127443653459 352.23711815861566 16.087178152779416
17.607701083947823 350.6168006524186 11.898257174760534
17.99191678604182 350.94224108435577 6.473089856497847
37.868880191076094 343.6065082092373 -0.633051198464606
27.523985364481003 350.6257072131318 -2.7364733805298695
46.00269439426555 345.1749252310169 8.193831840772301
41.64189229736105 330.93911054030616 11.356321722950133
21.69975590466091 354.1165944678495 16.57640370840013
43.49636902437271 334.71976428046145 1.4935470783912892
40.91855952691442 344.96820339057473 13.60493801715447
37.54812194332083 336.3356030027627 2.36448807461465
46.2077820590548 348.0324371706639 6.184310157406958
48.848309590241705 338.24228737506235 3.087541566876125
28.641181509960546 343.17186198943125 9.574390144659757
39.333601258679806 334.70690423510223 11.525518541636178
20.770663972445735 353.4763863372521 14.36736157413333
18.784320649389937 346.2156161718765 18.23132102334109
42.607391695637034 352.57850397081125 4.114673112656501
41.221867739347225 354.74550581836775 12.944792319702275
32.502126183778145 351.50569842653096 -2.72149888763807
51.227242356147165 337.80783193669964 8.929341132192533
20.596143548764022 343.212733720544 10.789041417656193
38.56907036863043 333.8427588518288 -0.08830508323411776
49.99133469084555 336.65198097416084 7.381974061779287
22.95672256097178 355.9676238924101 8.45392450880533
26.383815767384917 348.57466911615967 20.482016150402256
43.159619425080976 332.4248852766519 10.097712846267692
45.27571143290627 342.7256768030909 0.7155159888007421
22.87078203040124 350.66512033136087 -0.478079646472453
41.09762725390941 353.7566865955988 -1.462954419826166
43.79203613565548 337.65923269178114 9.600294107589196
40.91415137584038 329.18865780228026 6.725078536391926
50.60308539594454 340.5067030756001 4.686955442977136
44.04485698406834 334.78301078254975 6.258982497062654
39.22820415521893 331.39673153058664 10.980576010936339
16.90654390746336 347.7898055219564 7.781326879881918
44.56514515668611 336.95234809103687 3.7213380660507913
37.824141363829746 337.37676867384135 -0.6704288447490352
25.411070880810723 344.17996473976007 8.88004892406904
44.02996755249592 339.75495522127534 -1.1817961489636308
41.732598451597575 350.690078839196 9.388926285447901
34.967231943950445 343.0922800036171 6.355601579745196
21.67566703189238 344.02923225065905 15.201303187285564
43.20420479482269 355.67207958034174 8.037511398256681
19.338775321492015 351.02170935725445 3.3967471464147727
30.688843640486535 346.7110428496833 16.030385971973605
24.46754269399722 345.6264831403763 0.6528682881278915
40.384171791199364 338.75137928031967 14.54116519092956
36.15441994880092 340.97858589736006 12.457016683116697
43.09041702765892 355.22102080171214 2.9765303556854183
45.73571431284929 339.55863270256566 1.998857724903531
37.544707130834446 335.8101537409199 5.523788123582575
28.309393177338645 344.9643650505882 14.793075501051362
38.82540972124426 341.8074165657472 -2.6313907670494308
44.28326821798092 337.4368789876483 0.897239802532444
17.547800012960412 350.7398220489235 9.271248533779481
32.01300441834219 345.17639511623884 -0.9598734106737865
36.45238075294216 339.5040825069066 10.678501213481235
19.55891091222848 352.20807477837235 8.419606731302306
37.800830759554614 335.81808300233143 8.776670641238058
40.32405825774724 337.0986730109605 12.72518473627971
43.403870482255996 332.7432970088213 3.867469973660331
16.968436060785073 346.5684851911488 10.85876733762812
39.819616104623016 343.7428296848644 15.448928786542623
44.007840815248265 334.76429669850944 3.814227704574284
40.00297779313695 335.8737569501428 -2.805734799744596
35.56570649609812 342.609626640132 4.7058003906279575
34.36657315873958 346.119984115599 15.13067307805703
24.771003079149303 356.98082949151757 8.016273318082279
39.781192588193356 345.0129329145874 -0.36178280661484863
43.923448669129236 336.35235810638835 7.864384773054875
42.96214061588909 336.4413578531789 -1.3002021299195854
46.840633599325265 341.65344253724686 2.802645327681959
36.78464876638416 339.26666482130236 1.5853756155850764
32.700084114301085 346.95779004037735 16.49491274098131
37.926695289301115 350.02037884474254 -2.601371752548395
46.88889219998505 342.7144674208522 7.185529614038903
37.387586350796084 340.51868329701955 -0.9241438868725342
30.398795842722116 353.5771386834699 -2.7614815118255804
36.99149488525104 338.2566310379325 7.041994379807065
32.72426910762101 348.9142176989596 17.26717485708757
38.29505438691789 357.9893884201899 0.1839849838452661
38.29351191489244 337.65028415356306 11.147848775983983
45.41219120951016 339.662601240219 11.473071348595182
42.72434817482086 335.2853168217168 11.945457769736239
39.53610535827919 348.361855854482 11.459512972255638
43.09284958516986 344.869297091983 0.3711301530234959
43.67822504085327 341.3029098943042 13.142362317396657
35.233277151784726 343.5014521434112 12.20742950596564
37.45247016608641 333.09488966100895 3.4643314852584375
36.41871596275945 347.0627567160328 14.873508940122804
41.28428157461475 346.00556583768366 0.24205148621342215
25.1514590178625 344.3844705949019 5.846383536499838
17.42237734458219 345.99539984318955 13.242714756818415
31.388951025176038 343.37637470100896 4.572766502605827
22.402097165661008 354.60654224965646 5.959694354968824
43.51430371437148 355.0922764712091 5.845582681732336
29.325973419551882 347.77019569543796 17.237330311910974
35.378063727243116 341.9374137173374 7.83956471142195
38.907918948775 352.1930308797023 14.371841717482726
38.467976928871806 330.08536509644125 5.032803175254441
27.001886467890795 344.3666104954635 1.5200101043310017
17.567714962196167 345.038132380761 9.11024735637421
29.134251652600817 343.1316064705765 5.022525414066179
32.215372991024296 345.44619218329586 15.146702636084255
39.157673378351916 339.0817269238121 -2.8611008226891532
37.98644478196816 357.54990484100904 -2.0209144858165002
24.845771709951972 344.64608140568697 3.2672559870713163
28.785680518193246 357.334428014043 3.611806329118514
36.29042925704266 344.8356995016982 13.899385156140399
18.73623089178228 344.20883976343134 11.577687776517058
33.74415484885786 344.8451945773391 13.532101686306058
40.28466045952084 331.6284624448703 -0.7038428277259936
34.8612411682816 349.2305282611092 -3.2405035847887884
37.27515570437039 338.3285399036241 9.193518122295947
31.837102983947133 358.67936553836086 1.3049905410560139
20.152650254336248 344.29874234190646 4.955338798314103
39.531982672031134 357.91546449371083 2.762482159918626
46.96533265625029 338.7356235753745 4.589389030700514
25.989023419390946 355.2556747182984 0.9863761811197542
27.143158486192302 343.7762690337596 4.176369624161507
36.6653056331034 342.036078855159 1.2480891500696654
44.53702984221399 345.99969308359033 4.173379903455923
24.489796506445035 344.16270877707257 11.862725470493752
43.155392882499044 352.7002311758512 6.167706083989363
37.57201000540885 346.55771197033096 12.698445881441625
31.9306705714849 346.1819095270622 -2.7151890802965992
36.844762172469856 347.40049650577475 -1.8420107859519683
36.40846253218678 349.19569780568196 15.692896319592302
39.26147002954519 358.0321083264666 7.453896119041442
24.090136409005606 353.89474492480406 18.607480361068973
46.65189636556263 342.90480049449866 9.587250507558153
20.51963609760597 352.47535652913865 6.0367255214729365
17.64294952611457 350.30295356843203 14.659913834986584
38.02108166540276 342.1191124254189 16.010508732668058
34.58997449461107 344.50062869328616 2.1831582111986547
23.40275987977159 352.2488659492087 20.294639332116578
39.05117292067111 353.1291487314347 -3.081606829870423
36.16446382077189 344.2523395275224 1.117109891249287
37.108468645141805 356.37821564127444 14.348621514202707
22.73037960343302 343.4944560278557 7.068440674069064
26.965099288598168 347.0789660920718 17.771139897889203
37.406817903061715 339.24835474818246 12.421660643910183
42.45646109922437 348.6790333910828 10.884885796535409
39.09333275165905 330.4821761739102 1.493685025803192
48.8453703694485 337.3218368283095 9.535719140666549
40.40224413889477 343.3988527497802 -1.788177686969327
42.01728492803836 340.38890839301155 14.400192985269982
28.761254554511332 355.182529149093 -0.681741848986309
31.319668791809875 356.58538817950836 -2.235731649807167
38.58549317074875 329.9792650697648 8.32260952993614
22.304734341725972 345.4929265271585 2.7144118973701827
17.599541507548544 348.81026829522875 4.720265230086443
47.67719139360354 338.29994151413695 11.815957166956224
34.35479617993896 352.36839784208036 16.598411703930235
46.731361463559935 347.8211035719412 9.875849046646092
42.00379938633897 346.62691046963715 2.5019929762402757
20.70660626756407 349.7163907876127 1.22961675958953
44.926356521512545 337.84255412540296 6.800678545871163
35.36316817140683 341.9646126114928 10.038971671768886
42.169292065555034 353.51895509166513 0.9205758192288463
27.62555231128373 354.2011760473612 18.65181134505941
24.837742208358545 345.4023618013038 17.8351651319581
43.02759556788958 347.8661223666557 5.2158455064056
33.70863023071245 355.5518431637664 15.922101589135428
41.53581605397899 350.8037023292491 4.328635893740359
34.05742683812493 344.35703850447334 4.387281053965138
17.850565129495575 346.36024513180286 5.08045444410411
32.252475490598904 353.8559645437088 17.129904919920417
36.248707577747666 351.26753027377356 16.225468259166256
29.568741934131456 344.30356204714974 -0.04187459169870072
38.17516197573289 348.4936145899921 14.13478377214529
24.50611078967833 347.83335153244053 -1.68089071958603
23.035379878805426 344.2962620529819 4.707724185611712
42.560226419770885 356.1544451551196 10.457926870414335
41.88997021061884 357.4886303265026 4.1598959347538225
36.487904151007136 353.2936853625135 16.98231742291737
34.0969446400413 346.3762098809385 -2.1190462623501296
30.318341026096327 342.8934827515777 6.990841526194275
28.153095528116044 348.89879500148083 18.429764206937172
36.142791181191896 343.51097555141814 3.079025661236947
39.42797343451612 346.3610953666944 1.3609247768409793
42.64917812717267 338.5689178528356 12.577704228775877
40.13964639247546 350.0544378337996 13.961738182472713
18.108358388944453 345.0935407372647 6.983307975048824
39.8350093195863 355.8385603626114 11.43245234798565
40.50993739711628 350.97227857583135 -0.6050551101538024
41.3913751884785 357.1351204281946 7.308127539277151
29.723628768585815 348.3869899965635 -3.1890795645007963
32.87053181950782 343.7412110304584 6.6681247541403135
41.360683976781345 332.73437041364184 12.312368203236762
38.89774585291145 348.22577232156664 -0.4380528262983794
34.60652353841894 343.8298046977539 8.325471415140267
48.98855741560119 341.8550012420362 5.975805363192095
35.79291224776135 340.7219598102215 6.012492774475487
33.05492018936323 358.89400210018374 -0.613461620434304
29.943698791772253 346.6057443484223 -2.067473785333094
25.364691703002652 350.7235061105599 -2.884618190269221
21.79037828178643 344.7186598964803 17.574955089713647
36.22879718696046 345.6027199587481 -0.4072158761627856
44.34481719123764 345.0313194444378 2.076924679179965
40.89601057266415 349.01659251934893 4.159399904495096
25.66130362818663 355.20016649220736 17.421183494303058
49.35354611535236 336.96723415429676 4.9916767987021675
38.17117332584443 346.0347745809688 -0.3812169738675608
45.903799722104196 344.6551660989575 5.694725684210565
36.7896926802573 355.7932679992185 -2.76425080833458
29.612077380174696 355.9280456854559 14.175062880496853
41.80703669588557 346.32858346423865 11.739851702150684
28.21166902167211 350.9471997501665 19.245264668179882
50.79318332192951 338.4998915995234 3.807577556794962
32.1928532116587 344.2141316876152 1.8539094535203575
38.80248110376699 338.4941868753875 13.106399129324357
27.606907072569918 348.4328950448169 -3.0463774105164148
22.577324430762364 356.2201874696628 11.267260923542256
29.602462201906423 350.53610430754736 -2.849112661129105
34.5868732915324 354.23132765125973 17.099037441279002
26.849741406811937 344.53786804987806 13.419907143338099
20.714858758923082 353.15658016172125 9.848731639149348
22.159625303230893 355.40958139921213 14.025401241030092
29.390683638692465 343.49524637687335 2.763021599520749
36.372306127902405 341.1304399749141 3.5113303571792613
24.761722574053632 356.47027360508224 13.327334619258412
46.99230837177294 342.46845682408974 4.866008784465606
39.7670961845178 353.8088961642076 14.161500862514957
41.1426794908844 350.4947754867504 11.682024763367691
43.76688782851229 348.7675143897225 8.614483116117187
28.35691335048606 343.7580729871615 11.87910761162575
34.21868652074351 344.9618625787272 0.248787482449062
44.58459718121925 347.23214352361407 12.462981720236701
23.997745562175805 355.1003980105781 3.605106627462203
45.43638129847818 342.41322980622283 11.564815790434789
27.636599532158257 343.6077608568646 6.749096858592668
35.71660937924794 352.31866360881327 -3.2533206222418025
43.13394800312076 353.2470547729458 8.323879757008763
37.16318700173834 359.1079798168881 5.377387505462329
POLYGONS 742 2968
3 285 6 2
3 2 6 9
3 3 7 10
3 12 21 22
3 12 22 13
3 62 26 276
3 33 359 34
3 313 37 353
3 36 42 39
3 38 41 344
3 344 41 42
3 234 316 278
3 43 83 346
3 14 7 9
3 14 10 7
3 13 14 9
3 15 10 14
3 16 11 15
3 15 11 10
3 23 14 13
3 25 15 24
3 29 16 25
3 25 16 15
3 29 26 16
3 35 24 27
3 27 24 23
3 28 24 35
3 28 25 24
3 28 29 25
3 33 34 27
3 27 22 33
3 34 35 27
3 36 28 35
3 36 39 28
3 39 29 28
3 31 43 217
3 359 38 34
3 344 36 35
3 42 36 344
3 291 305 31
3 278 40 234
3 316 43 346
3 291 31 19
3 217 211 18
3 305 301 42
3 42 301 39
3 305 291 353
3 38 298 41
3 35 34 344
3 344 34 38
3 39 301 32
3 32 301 37
3 39 32 29
3 42 41 305
3 31 83 43
3 346 83 298
3 32 37 276
3 305 353 301
3 301 353 37
3 161 351 33
3 33 351 359
3 351 356 359
3 359 356 66
3 38 359 66
3 288 310 253
3 288 244 310
3 40 182 234
3 227 246 262
3 30 217 43
3 217 30 211
3 211 204 18
3 18 204 227
3 43 234 30
3 234 182 30
3 5 183 309
3 211 30 182
3 316 234 43
3 229 244 257
3 244 229 310
3 238 244 183
3 183 5 238
3 2 286 285
3 6 256 12
3 6 285 256
3 350 5 309
3 5 333 307
3 285 286 215
3 350 333 5
3 11 16 17
3 16 26 17
3 307 333 193
3 288 183 244
3 5 307 238
3 291 313 353
3 227 308 265
3 62 361 155
3 265 107 306
3 306 107 119
3 62 322 26
3 62 155 322
3 332 286 2
3 26 322 17
3 8 324 312
3 105 106 338
3 297 106 323
3 293 318 105
3 105 318 328
3 328 318 341
3 341 336 264
3 274 370 343
3 370 250 156
3 314 365 193
3 264 314 250
3 275 365 336
3 29 276 26
3 29 32 276
3 17 266 11
3 11 266 8
3 17 324 266
3 266 324 8
3 140 258 275
3 14 23 15
3 15 23 24
3 235 4 296
3 227 262 308
3 308 262 222
3 216 196 251
3 196 219 251
3 4 194 296
3 194 219 279
3 331 134 216
3 188 216 134
3 358 134 331
3 184 197 319
3 331 216 4
3 258 358 317
3 4 216 251
3 216 188 196
3 219 194 251
3 194 4 251
3 303 317 203
3 196 151 219
3 151 221 197
3 203 358 331
3 4 235 331
3 317 358 203
3 203 331 178
3 178 331 235
3 329 235 296
3 147 188 134
3 219 151 197
3 275 336 140
3 140 214 258
3 258 214 210
3 140 190 214
3 283 91 190
3 210 147 134
3 83 31 305
3 215 133 285
3 128 362 136
3 190 140 283
3 283 140 206
3 136 362 177
3 177 362 280
3 155 128 136
3 136 177 371
3 320 362 128
3 362 222 280
3 322 311 17
3 311 324 17
3 164 127 223
3 311 136 371
3 324 233 312
3 155 311 322
3 155 136 311
3 371 177 63
3 126 167 295
3 218 254 1
3 218 3 254
3 254 3 8
3 197 221 319
3 319 221 167
3 275 258 317
3 37 131 276
3 159 226 147
3 147 226 188
3 147 174 159
3 242 202 174
3 174 202 159
3 210 174 147
3 167 220 319
3 319 220 224
3 224 220 368
3 220 167 126
3 295 53 126
3 53 282 126
3 223 337 164
3 259 113 337
3 337 113 164
3 213 330 360
3 220 126 290
3 290 126 282
3 113 342 360
3 360 342 213
3 342 142 213
3 220 122 368
3 220 290 122
3 213 120 330
3 330 118 360
3 360 118 209
3 122 132 120
3 213 268 120
3 268 122 120
3 142 268 213
3 343 370 0
3 0 370 156
3 319 284 184
3 61 125 284
3 284 125 184
3 348 193 365
3 146 200 61
3 200 125 61
3 61 284 224
3 224 284 319
3 184 125 114
3 360 209 113
3 113 209 164
3 314 336 365
3 314 264 336
3 224 368 110
3 110 368 55
3 94 352 156
3 156 352 215
3 250 212 264
3 361 236 128
3 128 236 320
3 361 131 236
3 222 320 308
3 222 362 320
3 308 320 107
3 236 131 119
3 265 308 107
3 236 107 320
3 236 119 107
3 257 357 240
3 102 274 343
3 303 326 231
3 315 231 326
3 231 315 240
3 357 231 240
3 307 357 238
3 238 357 257
3 279 185 194
3 279 114 185
3 250 94 156
3 250 314 94
3 63 177 363
3 363 177 280
3 10 372 3
3 3 372 8
3 10 11 372
3 372 11 8
3 156 215 0
3 215 286 0
3 215 352 133
3 209 187 164
3 187 255 173
3 242 174 214
3 214 174 210
3 91 242 190
3 242 214 190
3 170 173 295
3 295 173 255
3 283 127 91
3 3 90 7
3 7 90 332
3 3 218 90
3 1 102 218
3 303 231 348
3 348 231 357
3 257 369 229
3 12 367 21
3 12 256 367
3 253 81 288
3 20 367 80
3 80 367 256
3 146 110 345
3 86 165 80
3 80 256 86
3 351 78 356
3 161 76 351
3 161 84 76
3 76 84 355
3 260 89 75
3 133 74 285
3 285 74 256
3 133 86 74
3 74 86 256
3 260 175 87
3 199 247 230
3 18 19 217
3 19 31 217
3 22 109 13
3 13 109 23
3 22 27 109
3 109 27 23
3 361 128 155
3 276 131 62
3 62 131 361
3 224 110 61
3 61 110 146
3 247 75 60
3 260 75 115
3 348 307 193
3 348 357 307
3 315 150 369
3 87 354 260
3 354 89 260
3 182 241 211
3 182 59 241
3 241 59 45
3 89 65 299
3 65 189 40
3 211 241 204
3 189 59 40
3 40 59 182
3 257 244 238
3 65 89 354
3 142 55 268
3 268 55 368
3 345 110 366
3 366 110 55
3 368 122 268
3 326 303 178
3 178 303 203
3 135 248 45
3 178 329 326
3 178 235 329
3 295 255 53
3 53 255 340
3 315 326 67
3 329 67 326
3 257 240 369
3 369 240 315
3 209 49 187
3 187 49 255
3 299 65 278
3 278 65 40
3 189 48 59
3 112 246 51
3 51 246 225
3 354 87 364
3 125 271 114
3 112 51 271
3 271 51 114
3 364 87 150
3 364 48 354
3 354 48 189
3 296 47 329
3 329 47 67
3 59 48 45
3 288 44 183
3 44 294 165
3 112 271 200
3 200 271 125
3 135 47 225
3 225 47 296
3 246 248 225
3 225 248 135
3 210 358 258
3 210 134 358
3 275 272 365
3 114 51 185
3 185 51 225
3 274 212 370
3 370 212 250
3 328 212 323
3 323 212 274
3 303 272 317
3 317 272 275
3 348 272 303
3 348 365 272
3 47 135 67
3 135 46 67
3 194 185 296
3 296 185 225
3 148 292 142
3 292 55 142
3 294 104 165
3 20 80 104
3 104 80 165
3 20 232 367
3 367 232 21
3 345 280 222
3 342 148 142
3 148 342 259
3 259 342 113
3 84 232 269
3 269 232 20
3 140 336 341
3 341 318 206
3 297 154 106
3 223 228 293
3 206 318 228
3 228 318 293
3 21 232 161
3 161 232 84
3 84 269 195
3 354 189 65
3 84 195 355
3 181 269 20
3 81 181 294
3 175 260 115
3 369 150 175
3 175 150 87
3 184 349 197
3 279 219 349
3 349 219 197
3 279 349 114
3 114 349 184
3 241 248 204
3 204 248 246
3 248 241 45
3 369 175 229
3 264 328 341
3 264 212 328
3 108 321 253
3 259 337 293
3 293 337 223
3 206 100 283
3 223 127 100
3 100 127 283
3 228 223 100
3 100 206 228
3 140 341 206
3 105 338 293
3 146 123 200
3 123 262 246
3 112 200 123
3 123 246 112
3 345 97 146
3 262 123 97
3 97 123 146
3 148 363 292
3 345 366 280
3 183 44 309
3 309 44 165
3 119 131 313
3 313 131 37
3 366 55 292
3 222 262 97
3 97 345 222
3 291 306 313
3 306 119 313
3 19 306 291
3 19 265 306
3 2 252 332
3 332 252 7
3 2 9 252
3 252 9 7
3 13 245 12
3 12 245 6
3 13 9 245
3 245 9 6
3 298 83 41
3 41 83 305
3 309 334 350
3 334 86 133
3 150 46 364
3 364 46 48
3 227 265 18
3 18 265 19
3 340 160 53
3 160 282 53
3 315 67 150
3 67 46 150
3 45 46 135
3 48 46 45
3 282 132 290
3 290 132 122
3 356 152 144
3 356 78 152
3 152 78 85
3 144 152 137
3 137 152 85
3 356 144 66
3 144 267 66
3 355 71 78
3 78 71 85
3 130 68 162
3 278 95 299
3 299 95 68
3 278 162 95
3 95 162 68
3 137 93 144
3 68 130 50
3 204 246 227
3 93 72 50
3 50 130 93
3 351 76 78
3 78 76 355
3 144 93 267
3 267 92 298
3 298 92 346
3 92 162 346
3 60 335 153
3 299 68 335
3 299 335 89
3 85 270 137
3 72 153 50
3 72 111 153
3 60 230 247
3 93 137 72
3 137 270 72
3 199 239 247
3 321 108 239
3 239 108 247
3 86 334 165
3 165 334 309
3 22 205 33
3 33 205 161
3 22 21 205
3 205 21 161
3 321 304 253
3 253 304 81
3 89 179 75
3 75 179 60
3 89 335 179
3 179 335 60
3 321 239 172
3 172 239 199
3 321 172 304
3 139 192 195
3 71 138 85
3 70 270 138
3 138 270 85
3 69 172 199
3 72 270 111
3 70 138 69
3 70 111 270
3 70 69 199
3 195 71 355
3 195 192 71
3 192 69 138
3 138 71 192
3 269 139 195
3 172 69 192
3 115 108 277
3 277 108 253
3 108 158 247
3 247 158 75
3 108 115 158
3 158 115 75
3 300 148 259
3 148 64 363
3 148 300 64
3 153 111 60
3 111 230 60
3 121 160 340
3 282 157 132
3 282 160 157
3 49 149 255
3 255 149 340
3 64 63 363
3 49 209 118
3 118 58 49
3 330 169 118
3 169 58 118
3 111 70 230
3 70 199 230
3 181 139 269
3 132 57 120
3 132 157 57
3 57 157 121
3 120 56 330
3 120 57 56
3 56 57 121
3 347 169 121
3 332 54 286
3 286 54 0
3 54 343 0
3 340 347 121
3 340 149 347
3 121 157 160
3 169 330 56
3 56 121 169
3 347 58 169
3 347 149 58
3 343 54 52
3 52 54 332
3 310 229 277
3 277 253 310
3 338 302 63
3 63 302 154
3 338 106 302
3 302 106 154
3 90 218 52
3 52 332 90
3 338 300 293
3 293 300 259
3 49 58 149
3 162 92 130
3 63 300 338
3 63 64 300
3 115 277 175
3 175 277 229
3 106 105 323
3 105 328 323
3 343 243 102
3 102 243 218
3 343 52 243
3 243 52 218
3 1 254 312
3 312 254 8
3 312 186 1
3 154 297 186
3 186 297 1
3 346 162 316
3 316 162 278
3 274 166 323
3 323 166 297
3 274 102 166
3 94 263 333
3 333 263 193
3 94 314 263
3 263 314 193
3 91 103 242
3 242 103 202
3 103 208 202
3 187 176 164
3 164 176 127
3 127 176 91
3 233 261 154
3 154 261 63
3 233 371 261
3 261 371 63
3 350 325 333
3 333 325 94
3 350 352 325
3 325 352 94
3 145 191 173
3 173 191 187
3 145 208 191
3 187 191 176
3 176 191 208
3 350 141 352
3 352 141 133
3 350 334 141
3 141 334 133
3 117 145 198
3 294 181 104
3 104 181 20
3 81 294 44
3 44 288 81
3 171 327 151
3 151 327 221
3 327 163 221
3 172 289 304
3 139 181 289
3 170 129 198
3 91 176 103
3 103 176 208
3 188 101 196
3 188 226 101
3 304 289 81
3 81 289 181
3 192 139 172
3 139 289 172
3 221 88 167
3 221 163 88
3 154 186 233
3 233 186 312
3 311 180 324
3 324 180 233
3 311 371 180
3 180 371 233
3 198 201 170
3 170 201 173
3 198 145 201
3 201 145 173
3 98 117 198
3 168 129 82
3 82 129 163
3 129 168 98
3 98 198 129
3 226 237 101
3 237 98 168
3 101 237 287
3 287 237 168
3 82 171 287
3 287 168 82
3 171 143 327
3 327 143 163
3 171 82 143
3 143 82 163
3 202 124 159
3 145 117 124
3 159 281 226
3 117 98 281
3 335 116 153
3 153 116 50
3 335 68 116
3 116 68 50
3 237 226 281
3 281 98 237
3 196 96 151
3 151 96 171
3 196 101 96
3 297 99 1
3 1 99 102
3 297 166 99
3 99 166 102
3 366 79 280
3 280 79 363
3 366 292 79
3 79 292 363
3 170 77 129
3 129 77 163
3 170 88 77
3 77 88 163
3 167 207 295
3 295 207 170
3 167 88 207
3 207 88 170
3 171 73 287
3 287 73 101
3 171 96 73
3 73 96 101
3 208 145 124
3 124 202 208
3 66 339 38
3 38 339 298
3 66 267 339
3 339 267 298
3 130 273 93
3 93 273 267
3 130 92 273
3 273 92 267
3 117 249 124
3 124 249 159
3 117 281 249
3 249 281 159
