# vtk DataFile Version 3.0
A great-looking cell
ASCII
DATASET POLYDATA
POINTS 368 double
390.9949213556934 113.94608318627468 79.61480174391232
391.039922255011 111.04596588835267 79.22268831444839
389.1692456384802 112.33593194551929 78.86335314530263
392.8129611403629 118.0613759969487 81.89984572230753
387.9606961404041 107.60870696636555 79.81193023155971
390.5823308922025 108.38189598266722 79.50911649624003
388.5521710379121 110.12928434557155 79.10524128587284
386.8748880025872 112.13046688899776 78.98408685662463
393.1636127232124 112.14473718404086 80.15653324661126
388.2101417044334 114.44434887734944 78.73952071156299
393.3907113138992 114.3704483083824 80.86404392063532
391.85759309753684 116.14238103132503 81.09764447991495
390.9461371585354 118.0151331897774 81.19416884396337
386.5438444178681 104.81141975805626 83.66300835064673
387.32366789098523 105.77792753874955 81.66902963104252
389.9988289242968 106.1514531683978 81.07078024471653
392.06750319182873 107.28959762201792 80.9187968957105
385.7479692693321 109.52810460251348 79.66374022871135
385.7542664860518 107.06109306279512 80.44200290885502
394.74401816352434 111.01653073847115 81.03370388792997
385.4873381269419 114.42883789176757 79.05496984185761
394.9734017170514 112.92233934548273 81.35225466331353
386.83641501482737 116.75124644401691 79.00554987813582
389.5188992080921 116.75165420856409 79.86139279099666
393.8463439350104 107.45105656804792 81.59878410889448
394.7999479787167 107.2596055663101 83.59636300301821
395.5515845842865 109.11416775569705 81.83559350488933
396.94125648467775 111.4767522410053 81.4150381447716
384.2454530283384 116.76171917566133 79.55619693279918
396.9001130420168 113.97472316292277 81.33442819075586
387.8829852442198 118.50311354560222 79.66939735861683
387.5761706499298 120.24369370235037 80.51584579934158
389.46724068316917 119.17690785121759 80.64018712220864
391.46732161369505 120.14037576196388 81.66454867435486
392.40843828451466 105.66248526085072 82.89569906011559
383.38225771757146 110.07477308352134 80.37106719298725
396.96089365479435 108.34810271962424 83.73970908398547
384.23624244039996 112.04223006655351 79.56924322899866
397.7433220641724 109.60241776388551 82.3746469470329
381.7617168600033 111.89962927289977 81.15517001040496
382.85894997216946 114.44516865574035 79.98153185697743
381.9151081395101 116.94127757272084 80.86034019752331
398.63245217919473 113.013202855149 81.97644484657685
383.6020753010604 118.42928642577392 80.81681641508261
398.686603669049 115.02056270625552 82.37131846266004
398.4636473901393 117.02740108047684 83.29048529839108
385.6915424722814 118.90464389347456 80.14538818901603
396.8693037247106 118.11160182255689 83.03936768103289
389.3366091074268 121.37814226069176 81.10082130745151
390.73143205895315 122.17731520766486 82.21611137773357
398.1259340822972 108.1305890277749 85.32783554768264
381.9497892733477 109.19700607885909 81.73424952169181
399.1375341997077 109.11074632821247 83.904486379852
380.2406561146614 112.72106915722732 83.0419333427359
401.23164564488843 110.68708609807679 84.63246767834764
380.8492059868985 114.63830444262742 81.8963981721363
380.9332374675129 116.97257486349848 83.4924960076903
400.48476651988244 113.45742640584754 83.59675339429877
382.33201288989807 118.9643332696159 82.45637072668929
400.2537367828858 115.90723331338434 83.60212267728828
384.1642084936797 120.18865331743568 81.62923503985944
385.86332280637384 120.85655338347996 81.04750869233627
387.17469980865917 122.25976689413068 81.43143106234861
395.8469716070659 119.60171630542537 84.14063605475789
391.49568522099776 104.53891600142025 85.2346441534797
382.5450373347667 107.20314171391297 82.33340535922301
396.2626234396461 107.21510645153607 85.62282528265924
397.9883095098256 107.66520224179496 87.30914249217386
380.49041710639483 110.50227628169363 83.26895029300347
400.24952807143825 108.42453220910672 86.12616107539088
379.5339763104104 112.04695710491126 85.10940991999682
401.35142467917905 112.87671398446878 86.04830062358148
379.82825189052306 114.59978578139416 84.43780201327283
379.9020607203615 116.98569206151302 86.57708855044726
380.80905906747705 119.68245941470643 84.74665446738183
401.33921099228746 115.46168475272006 85.85536257645487
382.61113887255874 121.50453198742342 83.23559960153443
400.10127637346557 117.72142119220665 84.86351597724538
386.36848609292065 124.8228514257816 82.5308417369225
398.9443720766054 119.21569772805466 86.30768776899419
384.84607837072093 122.42538840880725 82.05678752563074
397.1884437843029 119.71076671413985 85.65134941322103
389.0115078711681 123.39386648478599 82.27208610450178
391.824967878295 104.4498222208936 87.55899373015312
384.56448483653406 105.83031953306121 82.31239780913214
395.81674624804396 106.29629658950863 87.96120983723358
397.64169472176445 107.08529647861202 89.86294494673399
381.28864226007 108.17572626386624 83.8332016422909
379.9973692277444 109.49613329510726 85.68547858038168
400.1568931047628 108.0339698059447 88.83124356216199
379.53926357455333 111.26436650493136 87.63854183168922
401.38455001289475 112.32115715036345 90.94028945645658
401.385924452312 110.77052348132443 87.90883680013093
379.28819672480165 113.91084506572453 87.04031330550539
379.5683266592939 117.79893203590272 89.70418703161116
379.2935927434854 120.49298486776313 87.72084089790526
401.42844513755887 116.25889325566808 89.83821440994481
380.54127708403627 123.02981194280041 85.44379351280503
401.071001946252 117.92579493970264 87.47529017843031
386.86184069108043 127.81837687584417 83.92875762845757
389.22932180595296 125.74386971439189 83.34078638893466
383.0304195907118 124.42517235655686 83.15330785720033
397.3760506831741 120.33803813663839 87.30094790640294
391.04963227078554 123.79079646950912 83.43104694794852
394.08822744109943 121.23900839832741 84.82033111637101
384.5519231356014 104.59239743381528 84.89212202510551
382.50477791436583 106.02450536021377 84.18008634186913
380.88571788351516 106.9462118770058 86.10963022231581
397.17907191059004 107.12838320437017 92.69411958712308
399.68930416050983 107.95669072168498 91.58816135137116
399.0116201762516 111.78399411825185 97.71907428290153
377.9320736733338 122.97047679667848 89.60933456539534
379.820751564362 130.45062893081348 90.40750612018266
400.9204281659512 118.74639755570867 89.93429335759286
388.27789523227926 129.9620984924437 86.08636067238025
397.16839336772136 121.07301922818674 89.38903491718118
383.6904858669655 128.67979807776476 85.25016268339111
391.4459546019251 125.7732435438923 85.13933182929148
389.5532877078891 127.59346261146338 85.04487648397004
394.382817272237 122.37551057054851 86.84361623288758
387.10681752101124 103.91989413602617 86.03857291396908
382.26373976023683 104.5391600949726 86.39656253627575
392.35567075267505 104.4000506216256 90.04403439110133
380.7057757228641 105.53998847348296 88.49551719304766
394.78870020150976 106.02968037831451 90.83161315756188
394.66126908662875 106.26914009117569 94.32066126270549
379.6778996246319 108.44582149470935 88.52595420075197
396.9069449823158 107.94973794792573 95.50112251758154
379.5679896774736 109.21665211618381 91.32967274353211
379.2541046784178 113.02188283056738 89.76966590795287
379.3830491049309 113.09339147316265 92.51326054675803
396.42199740987127 114.59993839474197 98.78585268184807
397.9726928360225 117.1312070378214 98.29594001241685
397.58236907084245 120.79144173504196 93.9081850978442
377.3316235693543 124.86525746215128 96.72548497493982
391.5074875021487 130.73558426896182 89.36701771258885
395.90243717793663 121.44518721853665 87.81904381375102
392.29239603476174 121.74828317827003 83.39680132751478
389.564074309167 103.69028828907155 89.34096642341942
390.843230962041 103.79068148190123 91.5384212514503
382.7239568867794 103.99145518551005 88.8979366713531
392.5981814349729 104.77500991691498 92.6165763524871
393.9119694528599 110.23655942049433 99.00416061780095
393.71534829840175 113.28377663915744 99.00019243219275
379.41126298914486 118.04234934064621 92.77080372720805
392.2266307759042 115.97801443285961 98.95181649610025
394.13194014803287 122.59639887814443 96.54492407509463
394.4742543581027 123.3048624573609 92.09864688536874
394.7758145595079 122.66714933454672 89.48960338203851
393.6444640635569 125.32638182333145 90.6683098006739
384.94202539284214 110.94791641833604 98.92722905952986
388.6428220062577 103.93165404981907 92.19404411513501
392.97812886466767 107.89124557060715 98.73494399985087
377.04910313835774 121.94655596562595 92.0958248407766
378.9880260462037 123.01232772747248 87.49305090384493
391.1236151669003 132.83127703474665 89.65428109541766
390.0963903264606 134.19131808140838 99.01716230624866
385.7999235326301 136.68080741495564 93.70910022246497
386.0207269062427 103.63171672835867 91.42856321496159
388.0683485853962 137.01798675076927 98.8131767295934
381.897870587293 136.57882201350233 95.56601248881019
383.3339168701777 130.72198655411196 86.00717516912756
383.2251694107234 134.216060966624 88.01425274585009
390.6522224877019 104.08271733821539 93.39918507590423
390.55786154707437 136.90214863844824 95.53029978252205
388.8501944819167 136.51412133783006 93.25387568664979
386.5245077778043 104.47446470299893 94.37929294277555
378.8611450447702 132.6513126143608 96.15493381410279
392.2375854243249 132.35300112187696 91.77867543681991
384.63932956102803 136.48335914627629 91.87143918238384
389.1164521981887 104.61896720801076 94.79758822744428
392.9164668042244 132.40968969446692 95.48843765655437
392.0799096588089 130.77097073700398 98.99414640166097
382.6302952954672 135.28518905536467 98.85081253524875
391.8361879442704 104.91058567289679 95.4898046842266
380.68274418677646 130.4456620524989 98.93550215136334
386.52690481910247 136.32910354559218 98.18563891498806
385.07164055465205 134.8250409533652 98.99912208630127
386.6829550911713 135.72461880928446 90.76875382793406
386.8787911290218 103.49901627313307 88.81760310267215
390.1792706377519 130.41483794153427 87.63054566098238
387.76416257515916 137.31012699050515 96.39233442924245
380.15430756519754 135.0141497404658 95.06835476121401
388.0023375570034 134.73081394999377 99.0065388717828
390.5107414631089 136.607965374451 98.56346620507256
392.3414628598638 127.0208755437417 98.260815822451
393.147807707621 129.10138619676832 96.98113746752604
388.298498703422 103.6292235670359 87.66643683947618
381.8253026417535 105.1585225525089 93.07839304364227
389.31465221932996 132.69434467320568 87.92093090965287
377.76943613524134 125.21016845838498 89.95648220156005
381.47042263542875 130.2906545573099 87.28968295310483
383.8586373531666 105.73973306706718 95.15988676674688
386.0770418586449 129.464641109397 85.02039282926258
392.7578195682566 126.67243115485547 89.07593286641932
387.3037366006789 129.27624149019394 98.98228108450158
380.1569645274952 133.78146499455028 98.36094522931346
379.18292434859626 129.25373762660757 93.05437939246266
381.24411919287036 133.14668865344893 89.02683489977791
386.3235741474465 106.1911214828829 97.12760211240237
382.78921711774075 136.37267518133643 93.44484844591199
384.16024129818265 136.73066972812015 96.68838590519505
389.99492036949607 134.6743148318047 90.58390139543398
389.27837651949636 105.6366754875241 97.23330153794377
396.40045953110956 111.71937221139284 99.0082206253824
392.35247815973315 133.5326045920772 98.72646486814423
393.1626645508657 127.6867942111941 95.0300963936138
386.1739892366841 132.10481995743336 99.19380186767091
378.3887361759255 122.46860736756837 97.21060962835885
389.4860639483428 131.8701190467014 98.99472230864765
392.1629124169371 135.2189147346568 96.4083921976712
395.2401225760642 108.33285393808598 97.63226390517222
381.4063422771622 136.05059515273166 97.18604850988991
395.3309558566873 122.0513089424958 94.05373993004032
380.31203483334724 107.78175836693904 93.90066967605355
393.91910204685877 124.11275356940949 94.1439106061064
401.26874372016124 117.52089340223172 95.22316315719863
378.943164860844 127.13398427262004 97.43346379131172
396.3836843839108 120.89541595502881 96.06699646473498
382.54718089383346 107.92416762323477 96.00942156349059
384.31918588801904 104.55459240683022 93.04775000149809
376.71592955361336 124.89034315334852 94.59345573183629
378.960839447157 119.00907099889947 94.47888986897772
395.1617882686376 107.24045457315624 96.09136750228028
379.6541468585733 115.36251700712654 94.09551390961853
395.8266177943206 120.82183960674377 86.07238026545956
390.170269069711 108.16871684762778 98.95143759516897
380.91146699598903 113.75225358157822 98.97365695643347
401.42034922748104 114.91310139650932 92.3786024801211
393.1334369968548 131.48785068575 97.68448255703152
393.7847804925795 105.25663376396665 88.43924117622956
387.76899960897697 104.90067802730476 96.05192307515831
389.6235149121183 103.902097848331 86.54676421428313
401.01323306891527 111.78870542660215 95.81504033336054
384.14963966824655 106.85533203575444 96.75557730285935
379.69376206529057 110.6912362335318 93.36257773287589
379.9106756202871 132.68223790414487 90.9999822183223
401.4043155965865 116.23461070543172 93.8978384402321
393.87215944154843 106.37303214438973 96.95477253305206
380.24227658509415 112.028080797529 97.89670389376873
385.80431521889363 118.37564429834782 99.05477925126723
397.85714679973233 113.12019805237917 98.56740064261076
383.2238075204658 132.5055876020013 86.8752256477393
394.38849209646025 115.27667765985825 98.94928626785926
399.3764295733698 118.53795010896383 96.5556358017339
387.20834173573115 108.82624291688084 98.97171054544204
385.3287062811784 114.08318876378354 98.9363002082014
401.3966976809757 113.9950493825138 88.40460885630728
400.2695300855001 113.14505969923852 96.87834144554104
391.00467437341047 111.41234139047334 98.9823969686698
379.96320986458136 128.2644114673586 88.599647442888
399.29905209181425 109.66499358045908 95.85412247888016
379.559344323565 112.68808277800758 95.20448895892306
392.9445628490526 123.84182208212306 97.97917784567613
392.5777432776766 128.14084201593667 90.6484384218879
382.36547963504177 115.12562561008404 99.05584209012517
381.56897687988544 126.14111405074635 85.12442405584237
382.0947349555114 125.28142152383622 99.05030743353407
401.3246762205722 112.71579445423544 93.61366110246142
380.1167845012012 115.03613689191417 97.21849528834142
387.2077262375623 119.81680816938797 98.95819966345964
396.69642680569217 118.67112883784175 98.94318302595444
398.07194043535935 118.84836416734129 84.3297304187003
384.11480087213255 129.3535122461172 98.98123754978808
380.143678746554 119.15039994483492 97.07856223036976
391.7421733325262 135.1470549039644 93.57299627067898
387.52060622779004 116.63528584738823 98.93519767045454
380.10120791820697 106.57584073117889 91.04425904315309
376.8999382779747 122.55088914012214 94.7873882975497
387.8305020483282 111.9932458724989 98.90721199374306
379.19298042755264 125.55334616456638 87.78334112313958
384.32166762316496 126.03217960174436 99.04129149619482
379.1950384033021 129.85527452730804 96.14222688972578
380.622256597288 120.96301852006576 98.2724797772125
379.8255656629167 124.44762164265333 98.9453406680218
388.53553084545604 124.03982253436814 98.9965567708597
376.8079379047606 124.69072881018883 92.19815378567547
381.51116916798327 117.87855601237602 98.1690195592879
384.42292767053465 117.02638738502075 99.03727107601883
401.29767630803315 109.92442990896734 93.39320811276
378.59091480527337 120.05568144681146 96.09275254515381
399.42373001368964 111.06280950473858 82.45977845914834
393.856804722527 105.65883907089713 85.85669153027476
390.4652721246521 128.44061196384817 98.84790985649076
389.2986391699002 122.01171640006449 99.08093251011684
381.3332992306845 127.36103553641095 98.9239066712647
378.20247862362567 120.07280261331806 90.82554049164662
389.91602831478224 116.42673975001797 99.0739842609404
391.01807999422016 124.90041201540794 99.02580837783017
384.06515586388946 120.04575947005877 99.1047814477464
380.10231682348996 117.8456639746952 95.58103018719204
377.52441246391925 119.88703563771215 93.5525594901988
393.0744790209348 118.76888263538946 98.99578300790002
387.6787917436088 126.23924163112281 99.12186876477583
382.4698373357279 110.20271381044371 97.77580208962942
394.9993744072144 118.09315078620064 82.50171467361966
392.4230181931381 121.6622712190415 98.89749970180416
396.46503953710476 116.18638230124812 82.21297958130752
393.02444392761197 125.71608898445703 96.40807953964432
389.252184230344 104.45818814972334 83.65800830584519
383.1134480852749 132.64420975321514 98.99907807423384
393.1897009740987 126.4379442222266 93.27106837019942
384.6657948233322 103.7183273330148 87.36349037235107
397.6212936890265 119.57526267492733 97.65053927082353
395.2516941622709 120.17572636791762 98.42568976188215
399.81696872486157 119.53378330497644 94.30741758300545
399.1205146574971 119.61356452094944 88.63400527319233
393.55497789189235 119.77812974309076 83.11629900671704
395.1691568039167 117.2295647888559 98.9950511279119
391.65793969135 113.75386845281874 98.93591191346901
396.30139483315224 121.51922003401201 91.73044012768186
393.72392573625723 124.75979300865883 92.53957888116938
399.05884996903177 120.12530244205456 91.47295648427003
395.16158238375505 114.73591314897362 81.52630970354977
401.29656940680695 117.85594221232716 92.44597129924412
399.33345542958523 114.42000230891541 98.06709564065942
391.37768426120755 128.14250747819972 87.44368468604462
381.07991419900566 127.76924182127146 86.75266737382077
382.65381603360237 112.59893153445951 98.98932340410109
391.7369708897015 105.91600253658738 98.14476393346901
401.2863578072911 114.64768567286112 95.54924786073047
379.2031212417911 132.1534359443311 93.29455054541842
380.58750857119963 134.6419307664516 91.75459283996676
386.27694091029883 123.07347232953914 98.96271203836768
377.99641521668235 126.89674868696142 94.43862519369159
401.44605878739236 114.37002991586131 90.38605036180299
393.1442300222182 109.41578868756761 80.31334687479915
385.3838450863251 131.3727254789356 85.49690740989334
399.16330654527485 108.05654137562642 94.00052524059465
401.4145205343202 115.91660318047246 87.88559754295498
389.67740268886536 114.34877499379647 98.99786962196605
382.89063150553545 123.30305165341213 98.91583399302279
388.1050230285271 134.69501208783618 88.92540722525801
393.13300758545194 124.95701215564952 87.64338169502084
394.13526587459353 116.28931671168785 81.59978623454161
380.7147189007593 110.17151170286859 95.73857473161208
400.31888949169837 116.58441713049915 97.20284217286851
379.5091817373351 111.33926089475338 91.33288121015588
384.6979028109495 103.39354780937649 89.53468811776528
390.24246748748516 118.75197947794699 99.03462526396898
381.96380076379404 106.47953876999246 94.73580773185519
401.36402842823884 109.57031324863068 90.52948168400222
397.2057368124554 109.76620778105377 97.49960807700329
379.473373219993 110.655964097589 89.71566956786396
398.2507561263562 120.00678946518966 95.75072434108449
392.9163304728858 123.42599369679779 85.08442523524496
389.05298922518307 110.09928706852708 98.88995704017982
387.6021860462587 114.2740230875906 99.16635015561691
381.3137494058686 104.49803073561164 90.60476938110779
393.1229496014002 129.5038272305324 93.45683496580837
379.48332664027663 115.46014259123154 91.2840749791261
384.449376680523 108.3077080235637 97.93880759405056
392.0181199790489 109.42204497775167 99.00410486818528
383.8850235737599 108.05100105840698 80.95273178330626
388.213719917457 107.06916992646698 98.27741910882858
392.60168755532885 130.22304310538922 91.22873813202999
379.8628760279774 128.71461015797195 98.01671662280833
383.39180056645455 135.5004883955602 90.06641440174312
378.5144669671996 127.25818919353893 90.87934047409541
385.85698002491546 133.97910539705867 87.72375697356617
395.7454441396085 109.93251420383685 98.41813481103665
387.78438215382624 103.55502849714244 90.45141116810292
379.1246124417757 131.62441062235567 97.74937929156874
383.387445873713 103.82591912737529 91.19382084419367
385.8657622437649 127.69788478111998 98.9347121341549
387.3453952474087 132.22357521599963 86.43955086702472
384.10107872418416 126.64318393683854 83.60106789608155
379.4550455056603 115.44127474131871 88.87117989225332
POLYGONS 732 2928
3 11 0 23
3 6 1 5
3 9 23 0
3 11 12 3
3 3 12 33
3 4 5 15
3 4 17 6
3 5 1 326
3 2 6 7
3 2 7 9
3 17 4 18
3 14 18 4
3 16 5 326
3 23 32 12
3 13 84 14
3 14 84 18
3 25 24 26
3 7 37 20
3 22 46 30
3 22 30 23
3 13 105 84
3 24 25 34
3 34 25 282
3 281 52 38
3 38 26 27
3 38 27 281
3 38 52 36
3 37 39 40
3 37 40 20
3 31 48 32
3 25 36 66
3 66 36 50
3 52 281 54
3 52 50 36
3 39 53 55
3 39 55 40
3 43 58 60
3 43 60 46
3 46 60 61
3 61 60 80
3 61 80 62
3 48 82 49
3 84 65 353
3 66 50 67
3 69 67 50
3 50 52 69
3 54 57 71
3 53 70 72
3 53 72 55
3 71 75 247
3 58 74 76
3 58 76 60
3 85 66 67
3 85 67 86
3 89 86 67
3 67 69 89
3 70 90 93
3 70 93 72
3 74 95 97
3 74 97 76
3 124 85 86
3 124 86 108
3 109 108 86
3 86 89 109
3 90 129 93
3 103 137 49
3 140 121 302
3 124 108 125
3 127 125 108
3 114 316 118
3 137 103 345
3 137 345 104
3 137 307 33
3 138 122 139
3 128 214 235
3 103 117 345
3 117 316 333
3 117 333 345
3 1 2 0
3 0 2 9
3 2 1 6
3 6 5 4
3 23 12 11
3 7 6 17
3 7 20 9
3 22 9 20
3 22 23 9
3 33 12 32
3 32 23 30
3 34 16 24
3 16 326 24
3 37 17 35
3 7 17 37
3 28 22 20
3 28 46 22
3 31 32 30
3 84 353 18
3 353 17 18
3 353 35 17
3 40 41 28
3 28 20 40
3 41 43 28
3 43 46 28
3 46 31 30
3 48 49 33
3 33 32 48
3 34 282 64
3 51 35 353
3 51 39 35
3 39 37 35
3 55 56 41
3 41 40 55
3 56 58 41
3 58 43 41
3 61 62 31
3 31 46 61
3 62 82 48
3 48 31 62
3 87 51 65
3 65 51 353
3 87 68 51
3 68 39 51
3 92 69 54
3 54 69 52
3 92 54 71
3 71 247 92
3 68 70 53
3 53 39 68
3 72 73 56
3 56 55 72
3 57 75 71
3 57 59 75
3 73 74 56
3 74 58 56
3 76 101 80
3 80 60 76
3 78 80 101
3 78 62 80
3 78 82 62
3 49 137 33
3 84 106 65
3 83 64 282
3 106 87 65
3 107 88 87
3 88 68 87
3 92 89 69
3 88 90 70
3 70 68 88
3 73 72 93
3 94 95 73
3 95 74 73
3 101 76 97
3 99 100 78
3 100 82 78
3 100 103 82
3 103 49 82
3 105 121 106
3 106 107 87
3 126 88 107
3 90 88 126
3 114 118 99
3 118 100 99
3 117 100 118
3 117 103 100
3 302 121 105
3 83 122 138
3 123 107 121
3 121 107 106
3 123 126 107
3 117 118 316
3 120 302 105
3 123 121 140
3 151 138 139
3 152 211 142
3 119 104 345
3 0 11 10
3 10 11 334
3 10 8 0
3 15 14 4
3 16 15 5
3 21 19 8
3 10 21 8
3 334 313 10
3 313 21 10
3 295 334 3
3 3 334 11
3 307 295 3
3 33 307 3
3 299 15 34
3 15 16 34
3 27 19 21
3 27 26 19
3 29 27 21
3 297 29 313
3 313 29 21
3 334 297 313
3 295 297 334
3 36 25 26
3 26 38 36
3 29 42 27
3 42 281 27
3 297 44 29
3 44 42 29
3 45 44 297
3 47 297 295
3 47 45 297
3 63 295 307
3 63 47 295
3 299 34 64
3 66 282 25
3 57 281 42
3 57 54 281
3 59 57 44
3 44 57 42
3 45 59 44
3 262 45 47
3 63 262 47
3 45 77 59
3 77 75 59
3 79 77 262
3 262 77 45
3 63 81 262
3 81 79 262
3 104 63 307
3 299 64 232
3 232 64 83
3 230 83 282
3 85 282 66
3 85 230 282
3 247 91 92
3 77 98 75
3 306 98 79
3 79 98 77
3 81 102 79
3 102 306 79
3 63 225 81
3 225 102 81
3 104 225 63
3 138 232 83
3 124 230 85
3 98 113 96
3 306 113 98
3 102 115 306
3 104 119 225
3 307 137 104
3 230 122 83
3 124 122 230
3 136 115 102
3 119 136 225
3 225 136 102
3 141 139 122
3 125 141 124
3 124 141 122
3 143 204 131
3 143 142 204
3 136 148 115
3 119 148 136
3 120 105 13
3 151 139 163
3 163 139 141
3 151 166 158
3 170 166 151
3 174 170 163
3 163 170 151
3 125 174 141
3 141 174 163
3 199 192 166
3 174 203 170
3 143 249 142
3 148 149 147
3 333 149 148
3 119 333 148
3 119 345 333
3 26 326 19
3 8 326 1
3 75 329 247
3 247 329 96
3 75 98 329
3 329 98 96
3 24 326 26
3 8 1 0
3 228 325 96
3 96 325 247
3 228 91 325
3 325 91 247
3 132 131 315
3 96 314 228
3 96 113 314
3 310 312 115
3 132 308 131
3 115 312 306
3 306 312 113
3 314 113 312
3 146 296 304
3 19 326 8
3 296 284 339
3 301 298 215
3 215 298 146
3 304 292 308
3 308 292 145
3 292 339 145
3 277 290 259
3 296 288 284
3 266 287 339
3 339 287 145
3 266 330 287
3 287 330 145
3 95 286 111
3 144 291 286
3 293 288 283
3 266 278 246
3 331 289 323
3 289 277 278
3 293 275 288
3 288 275 284
3 293 323 275
3 275 323 284
3 331 273 289
3 289 273 277
3 331 323 271
3 271 323 293
3 150 269 246
3 249 330 269
3 280 268 291
3 259 290 224
3 224 290 144
3 94 286 95
3 285 271 263
3 284 260 339
3 339 260 266
3 132 261 308
3 308 261 304
3 132 303 261
3 261 303 304
3 289 260 323
3 323 260 284
3 331 257 274
3 274 257 285
3 331 271 257
3 257 271 285
3 273 331 274
3 97 256 101
3 97 270 256
3 246 278 255
3 339 292 296
3 296 292 304
3 135 254 316
3 301 149 254
3 298 253 146
3 146 253 296
3 298 288 253
3 253 288 296
3 129 130 350
3 259 252 239
3 130 235 252
3 245 269 150
3 305 244 216
3 244 303 132
3 143 243 145
3 145 243 308
3 143 131 243
3 243 131 308
3 146 304 218
3 218 304 303
3 110 241 204
3 204 241 131
3 110 315 241
3 241 315 131
3 235 337 128
3 235 130 337
3 337 130 129
3 266 240 278
3 278 240 289
3 266 260 240
3 240 260 289
3 259 255 277
3 277 255 278
3 204 342 110
3 342 211 127
3 277 264 290
3 290 264 280
3 277 273 264
3 264 273 280
3 216 237 314
3 314 237 228
3 216 320 237
3 237 320 228
3 246 318 150
3 246 255 318
3 110 342 251
3 251 342 127
3 125 238 174
3 211 152 238
3 310 133 312
3 133 305 312
3 199 245 351
3 351 245 150
3 226 354 203
3 203 354 199
3 226 245 354
3 354 245 199
3 89 341 109
3 91 279 341
3 341 279 109
3 235 214 335
3 335 214 219
3 211 360 142
3 142 360 204
3 211 342 360
3 360 342 204
3 142 352 152
3 152 352 226
3 142 249 352
3 352 249 226
3 145 309 143
3 143 309 249
3 145 330 309
3 309 330 249
3 219 351 294
3 294 351 150
3 199 234 192
3 192 234 219
3 199 351 234
3 234 351 219
3 318 239 294
3 294 150 318
3 188 220 192
3 158 166 220
3 220 166 192
3 315 336 132
3 216 244 336
3 336 244 132
3 110 251 233
3 233 251 279
3 203 231 170
3 170 231 166
3 203 199 231
3 231 199 166
3 246 347 266
3 266 347 330
3 246 269 347
3 347 269 330
3 312 305 314
3 305 216 314
3 133 344 305
3 303 244 344
3 344 244 305
3 219 294 335
3 335 294 239
3 174 319 203
3 174 238 319
3 319 238 152
3 239 227 259
3 259 227 255
3 239 318 227
3 227 318 255
3 252 235 335
3 335 239 252
3 203 319 226
3 226 319 152
3 130 252 224
3 224 252 259
3 269 346 249
3 249 346 226
3 269 245 346
3 346 245 226
3 211 223 127
3 127 223 125
3 211 238 223
3 223 238 125
3 128 267 214
3 267 188 214
3 290 222 144
3 144 222 291
3 290 280 222
3 222 280 291
3 128 343 126
3 128 337 343
3 343 337 129
3 214 340 219
3 219 340 192
3 214 188 340
3 340 188 192
3 213 146 218
3 123 267 126
3 126 267 128
3 303 344 218
3 218 344 133
3 90 126 343
3 343 129 90
3 147 310 148
3 310 115 148
3 213 218 133
3 146 213 215
3 215 213 147
3 310 213 133
3 310 147 213
3 301 311 149
3 149 311 147
3 301 215 311
3 311 215 147
3 144 350 224
3 224 350 130
3 286 94 144
3 94 350 144
3 93 367 73
3 73 367 94
3 93 129 367
3 94 367 350
3 350 367 129
3 109 328 108
3 108 328 127
3 328 251 127
3 140 348 123
3 188 267 348
3 348 267 123
3 302 338 140
3 338 179 158
3 188 348 363
3 363 348 140
3 151 361 138
3 138 361 179
3 151 158 361
3 361 158 179
3 338 158 363
3 363 140 338
3 179 302 120
3 179 338 302
3 216 336 320
3 320 336 315
3 106 84 105
3 320 258 228
3 320 233 258
3 258 233 279
3 110 248 315
3 315 248 320
3 110 233 248
3 248 233 320
3 188 363 220
3 220 363 158
3 324 358 276
3 285 217 274
3 274 217 134
3 134 208 274
3 134 268 208
3 208 268 280
3 300 263 207
3 285 263 175
3 175 263 300
3 276 221 324
3 324 221 134
3 276 268 221
3 221 268 134
3 321 197 272
3 272 197 324
3 321 112 197
3 283 195 293
3 195 207 263
3 134 217 324
3 324 217 272
3 116 193 99
3 99 193 114
3 116 327 193
3 193 327 114
3 251 328 279
3 279 328 109
3 276 190 111
3 111 190 270
3 276 358 190
3 190 358 270
3 228 258 91
3 91 258 279
3 91 341 92
3 92 341 89
3 298 185 288
3 288 185 283
3 298 186 185
3 185 186 283
3 207 195 209
3 209 195 283
3 114 180 316
3 316 180 135
3 114 189 180
3 180 189 135
3 207 177 300
3 207 183 177
3 209 183 207
3 198 191 112
3 201 176 181
3 201 177 176
3 176 177 183
3 300 196 175
3 300 173 196
3 300 177 173
3 173 177 201
3 186 172 283
3 205 209 172
3 172 209 283
3 171 186 349
3 301 254 349
3 181 157 201
3 201 157 200
3 186 206 349
3 349 206 301
3 186 298 206
3 206 298 301
3 316 194 333
3 333 194 149
3 316 254 194
3 194 254 149
3 202 265 168
3 171 349 168
3 168 265 171
3 357 178 359
3 321 182 322
3 322 182 200
3 357 198 322
3 322 200 357
3 270 317 256
3 256 317 116
3 317 191 116
3 327 242 359
3 242 191 198
3 112 250 358
3 358 250 270
3 112 191 250
3 186 229 172
3 172 229 205
3 186 171 229
3 229 171 205
3 321 236 112
3 112 236 198
3 321 322 236
3 236 322 198
3 196 212 182
3 196 173 212
3 212 173 201
3 205 210 184
3 205 171 210
3 210 171 265
3 272 167 321
3 196 182 167
3 167 182 321
3 178 165 202
3 202 165 265
3 184 164 181
3 265 165 164
3 164 165 181
3 359 162 357
3 357 162 198
3 359 242 162
3 162 242 198
3 285 356 217
3 217 356 272
3 285 175 356
3 356 175 272
3 359 332 189
3 189 332 202
3 359 178 332
3 332 178 202
3 191 161 116
3 116 161 327
3 191 242 161
3 161 242 327
3 182 160 200
3 200 160 201
3 182 212 160
3 160 212 201
3 183 159 176
3 176 159 181
3 183 184 159
3 159 184 181
3 181 165 157
3 157 165 178
3 265 164 210
3 210 164 184
3 274 208 273
3 273 208 280
3 205 156 209
3 209 156 183
3 205 184 156
3 156 184 183
3 135 355 254
3 254 355 349
3 135 168 355
3 355 168 349
3 138 187 232
3 232 187 120
3 138 179 187
3 187 179 120
3 178 169 157
3 157 169 200
3 178 357 169
3 169 357 200
3 202 155 189
3 189 155 135
3 202 168 155
3 155 168 135
3 324 197 358
3 358 197 112
3 299 13 14
3 14 15 299
3 299 232 120
3 120 13 299
3 111 154 95
3 95 154 97
3 111 270 154
3 154 270 97
3 291 153 286
3 286 153 111
3 153 276 111
3 276 153 268
3 268 153 291
3 327 365 114
3 114 365 189
3 327 359 365
3 365 359 189
3 293 364 271
3 271 364 263
3 293 195 364
3 364 195 263
3 99 366 116
3 99 78 366
3 366 78 101
3 196 362 175
3 175 362 272
3 196 167 362
3 362 167 272
3 317 270 250
3 250 191 317
3 116 366 256
3 256 366 101
