# vtk DataFile Version 3.0
A great-looking cell
ASCII
DATASET POLYDATA
POINTS 248 double
31.771169609729668 349.3460448202404 7.959037949062054
28.26838314467269 351.21946994205285 7.901637749096226
32.001466555168875 349.9126015569499 6.023793040177469
36.18202045010428 349.29824743070344 5.707139019125627
30.277068169283776 350.58770522742014 6.9738052409341975
31.229952815383438 351.62248055600963 5.135019511937319
38.57769856856883 349.05707646272015 4.361948889624559
40.67705158797037 347.7575264124958 5.295734642587191
35.16761894412798 352.8063519221141 2.683112675952774
36.714233701223954 350.5962973712663 3.3476360258938533
38.98584144017817 350.04204566554483 1.9456334180373847
40.429797967500875 348.29371805862183 2.923515239857687
36.62356993700264 354.6525701308856 3.274048690220401
40.34268904290258 351.8437467650028 1.1182994044740076
43.93582498736857 351.2157966975066 2.8183194406183776
45.0765155350732 352.0241666875885 6.167644856566715
44.511101126928764 350.13774227794863 5.113710487127293
38.15558383863287 352.7790744307579 2.2296744785355456
42.42318843877631 352.18735713568793 1.2026010935953053
43.6214165532367 353.5922025111535 4.50434701392205
34.21701645445615 355.48000484289 3.5533252490493252
38.86248517401148 354.9748466766937 3.8878179803975654
41.117055686751456 353.5491105223199 2.7749900909642786
41.01963889570697 354.7477836098202 5.21749597058239
36.651045449502696 356.4889788308942 5.145949763156661
39.28132594552661 356.38300191025945 5.87458121574924
29.484755735136016 354.98898363859735 6.55910046724998
31.120797081191906 356.64271401999974 6.676500246351451
33.572948145579424 357.0550482345648 6.221941388397531
29.659843448208978 349.6885209315015 9.202095874512551
35.92139945727638 348.67895586229605 8.68229069481945
27.827980977177496 350.5880448105016 9.664199245193577
44.34188114897781 353.70577305519015 7.0270815876202555
42.6670137343898 354.90174308700165 6.859565326030221
41.07361988819404 356.1801483638124 6.76935932400453
27.525211594650017 355.7212739167583 8.325863585593934
31.828416682790817 357.7106940699833 8.185082042757337
35.94920337849339 358.17951691124625 7.28302692428631
37.965753014320725 357.7054956092389 6.772055032195
29.98721057052082 348.85617713472914 11.200397962692026
28.208689969228168 349.4783297798137 11.085480438132246
34.03739328671806 348.41723505696257 11.137698410808683
38.66619367635299 347.7335352563092 9.666989996137138
40.94709711587821 347.5082418220021 7.993938486235699
45.17802078543892 349.91607689048624 7.829133846032971
26.688287706498365 352.07607087106544 9.312166294865909
45.43901695064304 352.48088015615605 8.663906794069204
43.71979561267813 354.47010951133217 9.229438949189742
42.12340126070638 356.5873727130262 8.502957925360764
29.47345864641491 357.283940267584 8.182810106635339
30.6640123044276 358.23853361315935 9.51645465508604
33.862721046982095 358.5714703986053 8.523089965883168
35.889139359971544 359.31393051888284 9.392685520501336
37.852906480206194 359.0207024289667 8.311322737266014
39.985117552475856 357.8953859805935 7.7635263803680825
28.926925280387433 348.6271674329147 13.448230679729214
27.080305682798574 349.8134027780708 12.541866483274275
36.72417354237282 348.3543576070611 11.410117448621884
26.62061740584093 350.8532458410412 11.053645699739404
41.231899348330614 347.0897594023646 10.764380132625327
43.55348099904689 347.8267624619105 9.177007239722561
45.83036626385185 349.1227778897083 10.72240864715443
46.44104455486744 352.06891824002275 11.215286497057962
44.24037808030838 354.16877346250914 12.154043734856963
42.71758538880266 356.51405671500555 11.039195765396528
25.942635275914462 354.2305581551845 9.281937790154053
25.906612700650516 356.4727301872656 9.952854478901322
41.17504807207549 358.3653917609231 10.031103634209266
27.682166385390236 357.3540588020328 9.533231917878972
30.727225070613883 358.8093792889275 11.169040821784135
34.052698157053364 359.3137242095075 10.695781094681568
32.31897717402775 358.32728893273634 10.086124438593227
36.038589838478515 359.62493503306615 11.650574951153619
37.78732154684051 360.08637690112477 10.312733429470667
39.34486971060726 359.1198325578974 9.525452141602724
31.381650726393538 348.0647325142669 14.71503360041803
33.53257590022615 348.2428399085092 13.656812796064182
35.36197029515528 348.2751188243884 12.932813647599007
37.135272016016465 348.2508759187878 13.65182283097979
25.655177820604038 351.13566744606294 12.946024916007426
39.01225092115764 347.6896116641999 14.898540797602276
41.462822110216 347.10886091829366 13.672063490452352
43.78723123050731 347.5011224665271 11.970980112003012
44.387363957025826 347.8870428354821 14.875935520405358
25.0214383479987 352.74855872649323 11.18399105024194
46.75109865051662 349.877382466235 13.6441759416777
42.93669954435837 356.5503707760147 13.81929590516408
24.760127832041682 354.97983996098185 10.86878749902563
24.58626924207635 356.82542221199736 12.082554513678904
41.69151207073457 358.6849030236013 12.591488363691793
26.902805158649304 358.26029837778486 11.542134561515555
29.096414683200045 358.74274892933727 12.307882323109814
29.066076275678892 358.21667190055985 10.331276950883831
30.851872713342633 359.096725098131 13.148977197143545
34.18357117658691 359.5386445814992 12.885756995886625
32.458284678766546 358.9094948943714 11.976956727597013
37.85255635708376 360.14673228731937 12.418306996459513
39.637614504464445 359.5937694169844 11.511798141651251
29.554734974068747 347.930966258253 15.82604678248725
26.55313799803238 349.7256743272335 14.405205528884586
35.38589535440797 348.2685744977643 14.832001203595278
37.12843197249923 348.2949703517514 15.54366858338044
41.30925823051189 348.0039966938433 16.798947163834278
24.033066791531805 352.48738749348126 13.41443585791553
43.85063972924407 353.52542058862275 18.09996910332967
42.0385652320971 358.8547291564855 15.210594318839188
27.694708123997685 359.14550882214184 13.54949883571547
29.33598170533104 358.96654475003106 14.115696157982297
33.79559587091695 359.80118648460456 15.11443699037517
32.50603757730828 359.07470818133595 13.781681811847854
36.386986784962126 359.7969210932031 14.19051084391589
39.40500896115816 359.8233527596927 14.41625870961101
27.483522725147544 348.13679133609446 15.847344383385138
31.257954555520225 347.9112015518161 17.135923977382042
35.72094053272591 348.3463400759748 17.235281338733625
37.18889854637156 348.83102228665587 19.254949687085848
42.23620222153511 354.68905428901985 19.376658915876476
23.363485500108858 354.53176559880967 12.617198850581582
22.601581145791286 356.88868582616755 14.368166751917514
24.93828932420918 359.2041693190825 17.513530052668866
38.90624444705654 359.7948733617531 17.4330484436395
42.83865972270137 356.80119213156775 18.903854556448522
25.276896872785414 358.768235948188 14.220925378613126
28.0029964588969 359.1905694122378 15.903068507400405
31.037770633376827 359.1751237394533 15.638824558631006
33.07163490060652 359.7527576713172 17.260385235908004
26.299393508598943 347.57118041355307 17.594297695258902
33.37666731118504 348.1534896060439 18.425666872978677
35.18563333372775 348.44655911920023 19.457363834968973
24.73053920491379 351.29547256500985 15.136613128641699
38.154166488613214 350.07059440114045 20.990678394209265
22.76392654827117 353.70854156784696 15.688208947088759
20.28971442459289 354.20303197389495 18.234758695093223
39.55059610489124 352.64183805889434 23.366422136117937
41.8478675088723 356.6380193474816 21.491063011479174
40.23740819589861 351.30150687958786 20.732162124594307
39.84537115415187 358.63246052120985 20.20775316551147
28.189056033852932 359.2369236896956 19.069666994342985
31.057755681755285 359.2470728634963 18.459597834777774
35.81100062556886 359.8087279711486 17.094068442611594
28.725074493729085 347.12382758904494 18.05881589215559
31.107760036891193 347.7830767049492 19.801793619799394
33.52698910057406 348.44367888751384 20.948412929813696
36.058297282916655 348.8610899371964 21.400542687469944
25.425317230276033 349.32642849815346 16.522161768009713
24.094323219770462 351.50264768089073 17.9027557826898
24.84187692873219 352.5362628342837 26.300872355900488
30.64574447901931 358.5944964765283 21.58236066598407
32.91607922260848 357.0823001423027 23.59998590370291
35.89870462843265 358.62259316869506 22.779440125678118
25.128501473005272 359.31159239655443 21.282173847122905
33.81690313560604 359.5711268632758 19.973486911600148
26.562136666198246 347.2730526791121 19.604751424176325
25.190232779543383 348.01305789459565 22.238718407164495
31.281683768450314 347.9918881662805 22.998401330176797
34.23989181365567 349.0255588795775 23.68121527356922
37.378695034399676 350.2850782555542 23.605288872127755
24.178151691101213 350.539085504299 20.477862508013068
24.827152060676354 348.7515123963259 18.97669209824291
36.8707879726042 353.0892317685979 25.03222388580477
23.058721219924337 353.2265309612062 20.31217726549434
29.077057774419636 354.0561494150971 26.18616221965756
28.549637129422727 346.8364452085209 21.275127747401818
24.52030439084961 351.4829731288994 22.923208136885236
26.363568166035016 350.06653103179957 24.772258648708448
33.801240604263654 353.418911731295 25.330656623775912
28.262254928249526 348.22731957698977 24.031459188441943
30.36827541840321 349.5553703378599 25.541091590076974
33.64989833317849 355.72592300916557 25.26064270103595
27.960757732546025 359.08729161522353 21.461806348812676
21.429900687170203 358.7052017638884 21.01979370948076
27.299798990835033 354.09870556962136 28.440359822043874
28.599331304328658 356.7392908760928 26.49734366967886
25.28067664923954 357.22901382406974 28.059900538248172
41.82429972494929 358.05218381662553 19.796464091955226
39.1148007231861 350.7592254326944 22.343148243002656
31.405376426240494 355.35785848282933 25.62208031732437
44.70770475035719 351.0598057114498 18.860258351387262
41.47168538996302 353.6784627745739 21.485679584795303
41.64338100934578 358.82703380033735 17.865504040685728
44.87804544561068 351.85116788048276 4.416117224838224
35.41889854342788 355.56199793097744 23.88139742177939
35.1939969601245 351.00854340783604 25.286576181756757
42.122604786029164 349.95222452512 18.999997816215437
33.82709810099709 349.3266932506532 6.898344152566171
41.85924839706601 349.67709439978745 1.1159648612200312
39.66374526737725 348.99054431107106 19.28162338632656
38.337204796676374 348.37797263427376 17.159950981225325
45.06732067026359 353.4032825729896 10.295203663981221
43.47536429781335 354.07149448174863 15.45195721240045
43.83796059288136 349.0959772590699 17.403530747654653
42.3088467367166 352.3863420654637 19.415086240576716
31.5873675689344 348.39464429064117 12.35672443627735
33.4426691683141 348.156527184159 15.995848399234184
37.05838666246824 359.125442119485 19.833626214194176
45.839827589050294 352.5278439545152 14.088152698540108
46.127060846988044 350.86207831954107 9.472157870816616
38.14639091923323 355.23546691246275 23.849067498054417
38.97416727972563 347.4721705619605 12.34322997437262
30.995518437561678 352.4285909756569 25.9337539602694
47.248001893497715 351.4592767455824 15.44194379647933
27.832281853893118 358.80017130896135 23.875970334120044
38.50671701558108 348.38351186109594 6.95949636067044
42.70966918440596 355.1020131544754 17.5888298937142
42.72153119273491 348.80804292131984 3.7674441657234197
33.45422990608932 348.9102240586478 8.952423657743918
31.705836523737013 348.66844971693513 10.067985768458046
45.495229998483275 352.28856937819523 16.559605996657357
43.20421092295178 353.1477807928866 2.442362178631679
31.521582765404982 355.60769239429453 4.669023186816608
28.20887029786074 349.6411341705867 25.496707421754092
42.99684305813976 356.817319505501 16.499309449470424
45.47288129823699 348.24198854322003 12.792253382591632
20.546977994658903 355.8403817996915 15.776113496854867
24.425432287688654 354.27175152359166 28.88316639275985
30.317803115836323 353.5915831298672 4.694778101314201
33.740051609568226 350.52584291793 4.29689125450876
46.17658320962386 349.7720818096403 16.617080240417327
32.42642916733743 348.5977923104511 25.045479890008632
29.571068850190127 359.31882423332837 17.26340733302092
23.482959488781063 358.52719481409923 15.755084431324759
23.138195351295845 357.4690458840117 26.40509825308202
39.758689721853635 355.0960947173214 22.23961168882994
37.105987040428346 356.6870703735528 23.227437652349973
23.062564965842547 358.704070374096 22.950579646417268
38.135531588832954 359.21061814808166 21.69592734277721
29.243964406461433 352.4683774587113 6.174597740140437
27.476186934015686 353.4339903620669 7.523169392539028
38.997546392589484 357.4889097128105 22.82279711612325
33.25542340043393 358.88642157712184 22.25422580645077
23.22805205194421 358.9781929211961 19.267483865882912
19.509584053077774 357.02919247196274 19.29989420249177
32.3536088251222 353.1948955945334 3.385963504391815
22.316655027378918 352.82932447749266 18.011881234428763
40.53224148801401 359.42258047066144 16.23420947377622
24.55896007927663 358.64082040724657 24.867553252143928
32.83951832607071 350.6682174518185 25.141308516553693
43.07237585324451 348.41062171535566 6.464661645089107
21.448032510382188 357.2308603029875 24.373652585192463
22.60771554375927 355.19798009435516 26.936247297061726
20.661579777543363 355.44752006382583 21.416960635819386
21.47342801812109 358.4166658622804 17.276433144340594
26.66533521185296 358.23812313022273 26.031558294609106
30.149125573329357 357.03110213775915 24.040342597964557
19.144316034876724 356.6308874905554 17.17020652452905
22.361386436194685 353.8210514344328 23.837167827011363
37.62692140122432 359.8414523109252 15.78013380737535
28.183891299837523 351.6156161484025 26.416941702197434
POLYGONS 492 1968
3 29 4 0
3 29 31 1
3 4 5 2
3 216 2 5
3 7 6 11
3 9 216 8
3 10 9 17
3 6 10 11
3 237 7 204
3 11 204 7
3 11 185 204
3 237 204 16
3 13 10 17
3 12 20 24
3 21 17 12
3 21 12 24
3 22 17 21
3 22 21 23
3 25 21 24
3 23 21 25
3 27 209 26
3 28 209 27
3 29 0 206
3 44 16 15
3 15 19 32
3 46 15 32
3 44 15 46
3 33 23 34
3 33 32 19
3 19 23 33
3 227 35 26
3 25 34 23
3 26 35 49
3 26 49 27
3 27 49 36
3 27 36 28
3 28 36 51
3 28 51 37
3 28 37 24
3 24 37 38
3 56 58 40
3 40 58 31
3 33 34 48
3 47 33 48
3 47 46 32
3 32 33 47
3 25 38 54
3 54 48 34
3 34 25 54
3 55 39 192
3 39 206 192
3 55 56 40
3 79 58 56
3 84 45 58
3 58 79 84
3 47 48 64
3 63 47 64
3 67 54 74
3 67 64 48
3 48 54 67
3 35 66 68
3 35 68 49
3 57 78 77
3 83 81 82
3 61 62 85
3 63 64 86
3 84 87 65
3 67 74 97
3 89 67 97
3 89 86 64
3 64 67 89
3 66 88 90
3 66 90 68
3 112 99 55
3 55 99 56
3 79 103 84
3 103 79 129
3 84 103 117
3 84 117 87
3 89 97 111
3 105 89 111
3 105 211 86
3 86 89 105
3 100 101 114
3 79 99 129
3 88 118 122
3 88 122 90
3 122 119 123
3 112 144 99
3 186 135 130
3 129 145 131
3 116 121 134
3 119 150 137
3 125 151 139
3 127 128 142
3 137 147 138
3 138 147 151
3 153 158 152
3 126 152 158
3 126 158 144
3 154 142 155
3 142 143 155
3 160 157 163
3 140 162 152
3 153 152 162
3 158 153 157
3 154 167 166
3 163 153 164
3 153 166 164
3 0 4 2
3 4 29 1
3 23 19 22
3 184 205 0
3 0 205 206
3 29 40 31
3 31 45 1
3 38 25 24
3 39 40 29
3 39 29 206
3 45 31 58
3 71 36 50
3 50 36 49
3 71 51 36
3 52 37 51
3 52 53 37
3 53 38 37
3 54 38 53
3 40 39 55
3 57 41 30
3 44 61 60
3 84 65 45
3 65 66 35
3 35 227 65
3 92 49 68
3 69 50 92
3 92 50 49
3 95 71 69
3 69 71 50
3 70 71 95
3 70 51 71
3 72 52 70
3 70 52 51
3 72 73 52
3 73 53 52
3 54 53 74
3 74 53 73
3 77 76 41
3 59 60 82
3 82 81 59
3 82 60 61
3 87 88 66
3 66 65 87
3 90 92 68
3 91 92 90
3 93 69 91
3 91 69 92
3 109 95 93
3 93 95 69
3 94 95 109
3 94 70 95
3 110 72 94
3 94 72 70
3 110 96 72
3 96 73 72
3 74 73 97
3 97 73 96
3 79 56 99
3 100 77 78
3 78 101 100
3 102 81 83
3 88 87 117
3 107 91 106
3 106 91 90
3 124 93 107
3 107 93 91
3 124 109 93
3 108 109 124
3 108 94 109
3 108 110 94
3 97 96 111
3 111 96 110
3 113 75 193
3 129 131 103
3 131 117 103
3 117 118 88
3 122 123 106
3 106 90 122
3 123 107 106
3 123 124 107
3 125 108 124
3 125 139 108
3 139 110 108
3 114 128 127
3 144 129 99
3 131 118 117
3 119 137 123
3 138 125 124
3 151 125 138
3 126 112 140
3 141 127 142
3 126 144 112
3 130 156 143
3 145 129 144
3 152 126 140
3 158 145 144
3 155 143 156
3 157 145 158
3 157 160 145
3 156 133 159
3 162 154 166
3 153 163 157
3 163 164 146
3 153 162 166
3 227 226 1
3 20 232 209
3 227 26 226
3 209 215 26
3 28 20 209
3 24 20 28
3 184 3 30
3 7 202 6
3 42 30 202
3 7 43 202
3 43 42 202
3 43 7 237
3 198 57 42
3 42 57 30
3 43 59 42
3 59 198 42
3 237 60 43
3 60 59 43
3 80 78 198
3 198 78 57
3 59 81 198
3 81 80 198
3 75 55 192
3 193 76 100
3 76 77 100
3 187 101 80
3 80 101 78
3 81 102 80
3 102 187 80
3 140 112 98
3 98 112 55
3 140 98 113
3 113 141 140
3 115 114 187
3 187 114 101
3 187 186 115
3 187 102 186
3 141 113 127
3 113 193 127
3 143 128 115
3 115 128 114
3 186 130 115
3 130 143 115
3 135 186 183
3 162 140 141
3 143 142 128
3 141 154 162
3 141 142 154
3 184 216 3
3 18 208 14
3 14 208 19
3 18 22 208
3 208 22 19
3 9 10 6
3 8 17 9
3 8 12 17
3 26 215 226
3 215 209 232
3 8 216 232
3 232 5 215
3 5 4 226
3 216 5 232
3 226 4 1
3 5 226 215
3 65 227 45
3 1 45 227
3 41 57 77
3 41 205 30
3 55 75 98
3 18 13 22
3 22 13 17
3 98 75 113
3 30 205 184
3 205 41 206
3 206 41 192
3 192 41 76
3 192 76 75
3 193 75 76
3 217 83 85
3 44 237 16
3 44 60 237
3 82 212 83
3 83 212 85
3 82 61 212
3 212 61 85
3 14 204 185
3 14 16 204
3 18 185 13
3 18 14 185
3 46 196 44
3 44 196 61
3 46 62 196
3 196 62 61
3 10 185 11
3 10 13 185
3 3 6 202
3 3 216 9
3 30 3 202
3 114 193 100
3 114 127 193
3 12 8 20
3 62 195 85
3 189 207 195
3 217 190 83
3 83 190 102
3 86 189 63
3 86 211 189
3 189 195 63
3 63 195 62
3 149 194 151
3 151 194 139
3 102 183 186
3 102 190 183
3 104 203 116
3 104 189 203
3 203 189 211
3 133 197 159
3 159 182 156
3 156 182 155
3 159 165 182
3 148 181 149
3 159 197 181
3 207 104 177
3 116 203 121
3 121 203 211
3 104 207 189
3 46 188 62
3 62 188 63
3 46 47 188
3 188 47 63
3 120 136 179
3 134 178 116
3 135 191 178
3 178 191 116
3 190 177 183
3 190 217 177
3 177 217 207
3 159 181 165
3 130 175 156
3 156 175 133
3 130 135 175
3 175 135 133
3 133 135 178
3 121 174 134
3 134 174 136
3 121 179 174
3 174 179 136
3 105 179 211
3 211 179 121
3 14 180 16
3 16 180 15
3 14 19 180
3 180 19 15
3 85 200 217
3 85 195 200
3 200 195 207
3 6 3 9
3 116 191 104
3 191 177 104
3 183 191 135
3 183 177 191
3 165 176 199
3 199 176 161
3 167 199 247
3 247 199 161
3 164 247 146
3 201 243 147
3 147 243 148
3 243 176 148
3 176 172 161
3 161 171 247
3 247 171 146
3 172 173 171
3 171 161 172
3 150 169 137
3 137 169 147
3 150 201 169
3 169 201 147
3 148 168 181
3 181 168 165
3 148 176 168
3 168 176 165
3 201 172 243
3 243 172 176
3 217 200 207
3 124 219 138
3 138 219 137
3 124 123 219
3 219 123 137
3 139 194 120
3 120 194 136
3 120 246 139
3 139 246 110
3 120 111 246
3 246 111 110
3 20 8 232
3 165 199 236
3 236 199 167
3 151 229 149
3 149 229 148
3 151 147 229
3 229 147 148
3 228 134 136
3 182 165 236
3 236 155 182
3 197 223 181
3 181 223 149
3 197 228 223
3 223 228 149
3 216 184 2
3 184 0 2
3 155 218 154
3 154 218 167
3 155 236 218
3 218 236 167
3 167 210 166
3 166 210 164
3 167 247 210
3 210 247 164
3 120 234 111
3 111 234 105
3 120 179 234
3 234 179 105
3 149 225 194
3 194 225 136
3 149 228 225
3 225 228 136
3 133 222 197
3 134 228 222
3 222 228 197
3 134 222 178
3 178 222 133
3 146 245 163
3 163 245 160
3 170 240 238
3 160 245 240
3 240 245 238
3 238 245 239
3 239 245 146
3 150 235 201
3 145 233 131
3 131 233 132
3 145 160 233
3 233 160 132
3 160 240 132
3 119 230 150
3 150 230 170
3 119 241 230
3 230 241 170
3 238 224 170
3 170 224 150
3 238 235 224
3 224 235 150
3 118 220 122
3 122 220 119
3 118 241 220
3 220 241 119
3 173 214 171
3 171 214 146
3 173 239 214
3 214 239 146
3 132 213 131
3 131 213 118
3 213 241 118
3 201 242 172
3 172 242 173
3 201 235 242
3 242 235 173
3 241 231 170
3 132 240 231
3 231 240 170
3 173 221 239
3 239 221 238
3 173 235 221
3 221 235 238
3 132 244 213
3 213 244 241
3 132 231 244
3 244 231 241
