# vtk DataFile Version 3.0
A great-looking cell
ASCII
DATASET POLYDATA
POINTS 617 double
346.6619310628868 273.09008606083086 16.69401801135134
347.531440136245 274.53238781978905 16.205326650880856
346.1165176257256 278.2333589090434 14.595351779712118
346.5229956766946 280.3067457877702 14.623156960413443
349.2288838418167 275.2345286816962 16.550196866516263
348.17018462881214 278.7136209802319 14.68657375226451
349.8000005506109 277.0133911533035 15.125783667893533
351.9725564146974 277.83689263459826 15.526567722852736
348.80966267370763 281.17211707169946 14.629366924094288
351.0589025126633 281.22842266176315 15.299774974518195
350.3536128901487 279.2748512771919 14.926940053700875
352.8321143811013 281.16533650160267 16.485098666977624
351.8878815554845 279.71817801977505 15.829303181509854
353.1972492255776 279.0742148661418 16.95958536327374
348.6474564596507 273.12570611364345 16.606111813135232
347.34776354940954 276.48887455116164 15.539241138545385
345.72963071118556 274.89557149341175 16.28610302764964
350.79422282403624 273.5362473974252 16.93518405942331
352.96930149368666 274.31914357578876 17.961197237116014
344.93082521057147 267.5871946693297 16.282157690912626
346.28755311077833 269.3569654377563 15.890335022331985
344.58887360672634 269.35252740893895 16.94443705251541
352.4821159451374 271.6843798233649 17.27948380429586
342.5587255047949 278.38553970822426 17.097354729930053
343.73816878358184 275.41686580977773 17.78280622892519
345.15351713230683 273.5510359711182 17.542387219549795
342.3816391601637 281.3520340655457 16.076255317225716
354.03311032319687 276.0443077184027 18.800272857753498
354.9241345909158 283.58938084941116 22.431044793738643
353.7213459307601 283.6289868992008 19.787586902089988
343.2765783325952 266.0345954940843 16.342604122796306
345.45793141302516 265.4562754142451 15.789383883081442
343.0892555773295 270.4691444037077 17.51732639520016
343.45950583448695 272.749465250224 18.142407132459024
354.3715000517352 274.48650404525284 19.995805666699464
353.00799770117607 284.43144481450264 24.458721647702465
341.4320518398809 266.72393962026405 17.764369315292097
343.7973628349131 263.6311656165154 15.593826248480816
348.54327024672943 263.8065446415312 15.226657877835807
352.09970061927345 262.8000677060176 15.924925859940936
355.3043192140232 267.41304151805633 18.42419045990748
339.3552096983249 267.6393340635822 18.74983938783631
341.3508469561023 271.6317422210876 18.745294462084434
355.8485033637661 269.56376130350355 19.527419429620014
339.7606965179702 275.9050729566038 20.66773307452524
356.44028421751585 271.231183020583 20.570644014799445
356.05507339857365 273.1513512144351 20.94754156216166
342.7413015558106 286.7545406240019 16.685888526625522
349.4055048242693 284.95528133376195 18.949635425909253
351.07318624690754 260.5955872011606 15.631514391558678
339.54149571439837 265.13884583351773 18.314396257780146
346.48926850514397 258.50615216688846 16.487979229087088
358.6208942346317 263.5292282814143 18.546584132751246
337.3297617038013 266.136605458072 19.267224007396848
337.61740116597093 268.3719187375243 19.648178873466026
357.91493390447977 269.7749630914724 20.583857103108638
339.87016781104114 278.8031652339258 18.68165085620134
342.2176443184853 289.0586520907593 20.699356939109855
344.50820200328985 287.6821733362735 19.270962218383865
348.98168383374855 285.93374236623305 21.332272603278422
351.7790360479549 284.7170194555911 26.42797546871912
351.88631396099856 254.30106956571612 19.791233094159345
337.88974265574626 259.65669708625217 22.55180053441692
359.37886925836244 269.75852961121115 21.929315936395213
338.13302722373777 278.60150196129666 21.446277430871287
335.2060700817922 271.6111688184935 23.76921469139657
346.39288255133846 287.71221316199177 21.933010561081094
343.45106208204777 254.19835635766202 23.858365497349123
336.3160152523814 258.9406665741536 27.16252184139102
334.0810584699952 263.98602346732355 25.77237236990819
362.30559302517196 260.45283282244077 25.19991467044219
362.06103007396746 266.3237421601074 24.246848026022516
333.2190637206476 270.63718908706244 27.03310411032277
360.03030146704265 273.4626962769526 28.09415042956955
336.00965389252065 285.1364849135778 27.52218814042882
358.3706979526657 274.49199101229607 26.82829664587813
342.70254318699784 289.20945859704966 26.524635376049616
346.2058494825422 288.2672644442276 24.901940809073718
340.5822454003409 254.4498826479382 28.142978422977855
336.056039016718 259.0202136838776 29.657520426344416
332.665664313386 268.34985057017417 28.359913590955326
360.79984861936566 256.5506493792348 29.617712994202495
363.0589514446857 264.60545275624935 29.337573658463246
362.30209906949005 269.08286314690423 27.718867869234135
336.6732766294874 281.0580869775417 26.09307526626611
337.34122267476965 277.3688225375302 29.17372269321568
335.5654392223329 275.14979819970347 29.338687468541995
357.3819884199573 276.5226489632466 30.02490539435853
355.584300731989 277.2335661803878 26.753654460572577
345.3049488424631 288.58751758174947 27.259858693191198
347.71810772682187 287.58215358001746 26.941004142681503
348.4985490151424 286.67807598270406 28.709181043902497
339.15746793508254 255.10487946515383 33.199251617268665
335.7006247749094 259.76376190818826 32.28622074767539
362.70807270451866 266.2287432272729 31.78005134388674
336.25638762354566 282.49060094631324 28.527981608293995
336.46917904763603 276.0140120664287 33.41961962964347
336.8919299823513 281.5188791074675 31.13886877065891
358.8561880736492 275.06576998825784 31.126339687256475
336.3939020249186 284.5607041701515 30.68215035066394
354.26620020300635 278.83780646344087 29.864548946662037
338.23717574798883 256.358469290649 35.92157929012372
358.16423208949846 254.61714075912215 37.54398403712964
332.6508997845541 267.77473881847254 33.23423178014772
361.3125073238241 271.8741514387338 33.48798758135459
335.4359840497129 274.80590335846574 34.96795536496062
337.10913375425 283.3905696966674 33.840416758620734
355.35095258008715 277.1128912939216 31.081710848284928
351.6331518466425 279.90343248873194 33.05050913704256
354.63520671709887 265.9423915750557 45.818859619102334
359.7785208335859 272.4894494364503 36.766612588472164
339.4116513437159 278.574883106671 37.37448854882716
357.7388709178701 273.24389357342807 37.66744850969948
355.1318514517763 276.54588420727595 35.929189163915716
346.32583521550856 287.6741847140635 32.395205760046714
353.4659005938984 278.3452545059075 32.13450539557985
348.25895727841726 281.40983196589514 36.12572798519025
354.2677454521737 272.8346573121305 42.95842592311055
339.8407482992398 275.435120860281 40.54825329568722
349.7976610179039 285.4691967408751 31.404281168277873
346.96494533064765 270.3371468102843 46.59288920142359
348.6937482908814 274.34294778003164 44.32203842738236
354.09170616607514 275.9550334090115 39.374680917827035
340.12418955400517 283.8070495678768 38.01581457228277
352.94954304990364 278.1336577792488 35.01561924475044
350.19124893792286 279.39377215648295 35.214130476924545
346.43198045799085 285.32965987737634 34.42114190309741
348.1531514727914 285.3074468424092 32.56793154783688
337.3109445499384 279.9771503946238 28.82057242972793
334.75798613946637 261.1927225155446 30.108423349339372
337.9708742125458 277.5427346148414 33.27858532784765
355.70623040065885 281.13919471569073 22.932061990150054
333.9686286824492 263.7532680660349 35.04113529920882
358.51380578272267 274.25213729689773 35.733018964243314
358.92815533426875 274.87720377146104 33.456864514513185
333.7362354324716 265.1847646247341 37.505257017332454
357.2115680110014 276.08652531611216 34.77203685689537
357.2537169018912 276.28068024704623 27.782855086107578
356.78376568897045 275.2396994079774 36.97345050413317
333.86312919279936 270.25643018265816 24.66608243547099
360.4884554599944 273.3382308303135 32.021409597564194
333.4691282139411 270.767120261155 36.796438496836224
332.53191441422354 268.03522744612934 31.004142333902465
358.0338514113728 273.9086508999937 24.366085324814705
337.42853830470455 275.94491317707764 38.46461004017005
359.44773484432113 272.18739133782634 24.186005932142194
340.3232481867744 272.86774479432347 43.66087704213425
355.27921699610613 282.7088896946278 24.988583387448767
354.52434839113306 276.66169932710073 20.533286349449728
351.0075087798301 274.3071541904242 44.248868640664995
352.41548856940096 259.9812772148645 45.778636282185786
338.06083787328237 256.93726942370705 37.95436655226735
334.9936596775188 268.4239197455135 42.24692957772246
338.9619844583892 274.11628392355624 41.92141191850453
352.7691198820269 277.53715030631884 39.37148658185317
363.03415902594827 262.4990128298288 30.244637943412314
342.8149091624227 278.3454497848992 39.26510622607627
344.0341190742393 275.27971583226645 43.22717587271447
352.8491114051026 276.51737692147094 41.35634351518718
337.25911103243203 276.1589082922379 25.428631426323562
333.14558441948003 268.0752641730142 37.42063218474919
337.08466272202213 269.66173765866483 43.72877803304981
343.94506173274993 289.0718908006753 23.525138631138674
351.5631803588869 282.17350081033277 31.905160094582666
340.4413439794115 266.443359457267 45.88022009840077
351.41525865829703 282.6886304177035 16.65046325004977
334.2716043506069 272.8803246955748 35.901035848544
335.29916272129145 274.057270652328 36.98940191445496
336.56612786278856 276.3771645408388 27.46608333408668
355.19266687499896 278.9753022349244 23.657410891482048
337.9053419488021 275.2534448646504 40.17500465770586
333.012155398223 268.3768703208547 25.860065415012105
333.9885620847847 273.01324013723655 28.101216804867647
343.23294223200855 283.0306692666797 38.03457846206714
341.2462995002393 280.4657525232646 38.111262665642165
334.3107525353104 262.35092877177806 32.52755935678179
354.6370185894085 252.46457209482182 29.081424591703765
347.2693951908727 252.6427965603938 28.361441522977536
346.4998037117319 252.76897722771594 32.10804556031772
332.9390690793071 265.93652632744664 29.466258592335468
344.9369573128591 284.6721515432796 36.46077206171277
334.2629946329527 273.2525604593306 33.98173285053731
343.35988365663997 266.8097411105889 45.46863388733047
345.3574462219759 268.5326642352916 46.587881330533364
355.2766869420263 269.47570631864113 43.65013524862096
348.3258415422412 252.50377191039712 33.44504276045886
342.98350026064134 268.27376032744996 16.90893322185857
344.4215360590916 287.680180456928 35.21810382625069
350.9692222278597 284.1006114994983 30.6253861370761
338.18211091489917 276.82964395915207 36.96995351668278
337.8839681461459 278.85346398323793 31.19708815978021
361.78958584354416 271.17047090084833 31.718067093607424
354.57468689817875 263.85779398674356 46.77988221975874
353.7107613496446 277.28713563886834 37.57999060319602
347.1637524651219 265.264018863486 14.656954726187058
341.74092085688693 276.6676041054189 18.980822822498094
356.7835268178685 275.7561236580878 25.677509870539197
338.6097772929896 266.0304434264461 44.609758865692996
343.306723682015 258.67251636664577 16.926635280519104
362.1415184001588 270.040610123434 33.695727118032245
338.7233723831438 256.9763223349403 23.897374452473684
334.1443952030238 266.8270588278242 39.87630775292943
362.30082803544974 270.1838584718636 29.61001800182301
353.39673047542885 267.31186795692616 16.831109764482786
355.5258711170473 277.2252074268908 28.84736121337273
355.7500625739614 253.7999675424226 38.682930714903534
353.3443429417812 257.3730438565735 43.937889048585426
360.1566001058372 270.5391818690713 23.511174689128584
356.08050724004465 272.38200848905853 41.26778713810294
361.95655599208123 263.39968437971083 23.081309424531405
352.1853499632106 282.4230779949794 29.52228605489882
348.59193346339293 252.38178237932533 30.560744002663675
362.0338661613578 268.99832476835275 35.889567388365
357.12036384604176 272.2776387088971 39.30361984804472
359.52720401275496 256.97835139541786 22.247384544579678
349.4720862132578 254.7441402420629 19.153637204906026
357.7408640065061 270.69662026484804 40.40681521526056
359.5503385961188 269.30063174376835 39.57515779701298
335.8276109634587 260.93230304645124 39.50162241197348
337.88700745336945 271.81313761186027 20.71252191128176
336.7348913412919 258.7452055433843 37.53587791865466
356.50536708521855 270.0356686074238 42.06333131012185
332.94832495754645 266.47621244500465 35.12199900636517
358.8157062442943 267.1620442136814 43.21614468500051
351.60960213923704 284.17783402025435 18.226351480267834
336.5600377338315 273.66235596043794 41.42532367297012
356.8947377242626 268.1758829097842 43.21419526983066
357.420545740544 267.6444795741787 19.637102244284684
332.9859098726322 270.88105132279327 29.96346135170515
352.7785550837662 282.4663945573999 17.958685847105393
346.5533431161845 253.58729520903375 23.136230189841807
334.42121877346216 272.46810179310944 25.57646657661239
337.44245482542374 280.93553923664024 19.533230567091252
341.79052720573 274.1925110411801 19.35883039860368
339.4995249198628 257.4681469818597 42.50373083856847
334.4202053889911 272.59920112332657 38.14187200875853
362.55717312224624 266.81029782267393 27.026405583451414
345.91569315532814 252.9611545711038 34.3176953137564
351.23231562293 284.6896232294854 20.558520395501805
335.8989034037221 274.10373466535384 23.74780376633444
359.88950688342254 273.00047751448193 25.894121331590018
358.3411075135945 254.7036826029638 24.72949677982941
333.9194913094484 268.331853936755 24.036280410898847
350.20414036337246 262.8600304725303 45.861433055808526
357.0763840113898 260.4158885849478 44.87849707344339
356.65234347223645 263.4951922341683 16.994769669238366
354.2603971233835 259.083837244508 44.43563723052884
334.06911127160504 273.28677732964235 30.387175625777044
351.02414255968944 285.43297405810983 22.92730656173717
349.9243224928183 267.42258477986655 46.23054882755599
351.6356558707367 258.2822394975006 44.29752921875062
350.24785062898854 284.0556098071232 32.80861141609226
359.26294903381876 265.8096570195898 19.602745069132823
355.4224397719347 281.82273749654496 20.728709770971385
352.9128855797339 252.2296689984902 26.25828230100624
361.52009998812815 257.8620221478061 32.569279651578576
360.29733669672817 256.4920202895588 35.5030237749571
353.4329057848622 268.4994101746776 44.71899444955735
346.1414908668044 283.7360823136399 15.914324050683012
345.7743514720092 252.83228889938474 30.01370090676039
361.21142634828175 263.2392880750774 41.07744279955985
347.9254477011141 253.3085518817747 39.177506125949655
350.6318795909827 264.5317955019536 15.462897187501575
359.68638018499337 261.27127882209163 43.241935132671344
349.57028992556883 254.89237555737105 41.82680220009564
357.17787252230755 266.3074938109191 44.690175711954936
347.6682338071573 256.6575845100476 43.18523005545413
362.64007939168386 265.3821535176725 33.93775298050802
335.0449475362644 274.57517178930095 32.263784140273934
345.432477684957 253.27033016699798 36.98831996477468
346.5327458423514 258.602604160151 44.3894047924415
339.50044452325454 255.44621607516797 38.396234867223775
333.1120019796343 266.19343134162267 27.00505189726696
361.125007635202 267.7499590147696 38.073481885695784
340.7141133280981 254.426012612358 35.9841301956436
347.6791024135619 284.6858107404947 17.319131773832307
354.43634152698195 263.2082531100092 16.085347164106466
334.5379075579998 263.7809181826825 39.92310508014352
351.6706398127278 269.25070848637677 16.703625769940114
344.3347914688404 255.2967333160602 21.20579990487777
350.36961995711886 276.3521295931984 42.84388946961627
350.97271075741975 255.9002715782552 17.458857191028677
354.60036547664885 278.87841707399195 27.669022127358076
358.1288400867653 271.8852496416581 22.2365675952131
353.70336622680753 270.8987883968144 43.933014819011625
362.30953803797945 261.2480727351147 36.33550402757853
348.1789350711271 272.4343575031058 46.188896428610164
354.2797395789088 261.572465843241 46.30670201275587
352.8150647838703 273.0311989447052 44.92897961877537
344.85658683864705 273.72288683115863 44.860191899208324
352.0368270834037 270.6287902703014 45.49150458281616
353.98674667422637 256.03401168932567 18.29369329601359
345.2117353808914 278.54321602039494 40.303763926083185
359.36665362085466 254.7190299204944 29.997289562336015
344.28901695906154 280.3035991913385 38.435130269298256
346.10432140985034 265.8307551640657 47.00391741366656
337.62458157601833 278.26008269298734 26.89254577841621
345.98037383302807 260.55737757718157 45.791385577806686
347.86678957832254 275.9460802196002 42.690596991772395
347.8029301569779 268.11022511986044 47.135256441636365
355.0739659979307 278.9184527711121 25.701455774385405
354.8277567090685 280.86103454031456 26.616348231514166
333.6679803640592 264.42846285130963 28.061431969621168
337.96498357109095 273.76776338007136 21.78067837885714
360.1231574089463 274.0827001736147 29.97019311568276
346.918299319743 282.17942994859465 14.951662029066595
344.9714353361256 261.04845978488567 15.67674714533844
352.80396666019686 265.0306690856452 16.103541955933316
351.31406918821585 278.4271293226567 37.677872547564604
346.31828689687364 263.3694730124195 15.180490426557812
350.1036605398793 262.5605793025223 15.459028589669174
335.2712293935296 261.1254656374921 25.803181971859825
361.5619556456698 269.1708070693795 25.342930282451626
357.8316264996572 261.2150591281867 17.565759280731474
341.9168893383303 264.26210057762495 45.59684671167825
345.82958371138017 276.5605246548282 42.01024540725073
349.27661889033493 278.5712222692826 38.8815541931546
346.32791756191193 275.3453259128235 44.10753187866854
361.62292974455636 258.44985387151775 34.86708232643432
349.1164549961538 279.28975689365967 37.13331469602334
336.79405522675665 258.2196379797652 34.42847982741979
334.6354993777766 266.9506034215378 22.73957617284712
336.0724915264174 262.58204854791785 42.15074012871458
359.5819179377148 264.5313004173284 43.95619603887665
349.56083702402714 252.28435790082904 27.56217028371883
334.68494231850894 262.46632028647684 37.461155884423704
359.5613989837444 261.4714865088678 19.320192016935668
350.0057610153891 271.2264635469766 16.854129080466436
341.5642098160138 253.80920430159733 33.52780832599807
336.71849996405473 258.98197114522293 24.743426898436756
362.45833629731555 260.48593914590475 34.2836564800072
362.36240386357207 268.82149256289557 31.695322084277777
360.9269897683147 260.36487766440126 21.68538560604498
343.36973830630865 276.92396551695236 41.35187845685752
341.4601442651218 255.90639538394595 22.32484318627193
356.8659518423387 273.9826339355269 22.50006056858847
348.260753169439 283.2219478980015 15.687694022621754
335.9308303479438 274.44336393994456 38.993959369182974
337.9900027361929 281.18275732836366 36.749144121761425
339.33134387281245 276.6140978102648 38.81705136449416
338.1060580503677 263.5717954784913 19.889378911523664
337.7179901551145 272.3297779848586 43.43012712396965
351.6977778162142 254.0802043482533 41.891147300926555
337.93065047707506 276.16436861750253 22.98051717004643
361.6834160065099 259.2312133235374 37.05158590005037
332.8760750253752 269.10303276187307 34.968967261016
333.1332232175656 265.3612509819209 32.35880163733182
333.7404566304586 263.5675950203442 30.078981729600955
334.418621463516 262.44577706597676 27.986135895915673
355.5280676468006 267.74231402699945 44.51906303084679
339.62744426834473 272.9317032623849 20.10056412379328
350.05308639881343 265.16445561182525 45.63318254837065
353.84286256009847 269.5262327197914 18.05975934319591
335.2866820375017 260.7988741922726 35.25390203858302
337.2831955149069 257.17204122304213 31.732803023694668
349.54627719794405 258.2067984750412 16.01878230874243
342.46441311259724 261.66210743588806 17.039237933281186
335.9013302912346 264.80673802961763 21.501582598748666
362.95052925443565 261.76463366587234 28.35319421304605
338.8706465860768 268.1042797728296 44.79841140007804
357.0140472262477 255.52789886866825 40.501869626406645
342.4133917059468 257.2511713226284 19.66931438554848
336.35752418718704 260.9025408474658 23.652392801538525
338.2061161604953 288.81412657690777 26.31826939984378
340.74886902259794 262.01170931656344 44.92332358383265
346.94138195917566 267.0824310812304 15.653236472977033
334.20241126878364 270.10442250907045 39.597604455224364
343.8991798255702 253.20671420988944 32.203841839398805
354.9118029358724 253.97864654880183 20.685119340326832
358.73995721633537 271.3808790572265 38.5290692929307
352.2119591997688 255.79125787099835 43.13178549541903
341.77382638366635 254.43230301466917 39.909307602358716
355.1447221181802 271.1136026226955 42.7485903961503
360.6848854867031 260.0735392374297 40.29646073453463
349.52180662487626 269.9954609534468 46.04956686952532
343.2131463205804 253.33316553211293 29.252323166070642
347.96379674478123 260.03531584961826 45.06026452678809
341.6248283834257 255.5784026242289 42.58570212066276
341.5532566662271 287.8987110713376 33.08204849806386
350.95120865429817 252.23582590288316 32.69176946596646
359.5440749918292 257.22752200773584 38.978199053838
342.79774091978345 253.7760893058491 37.6182187924104
345.2355204147082 253.0163510028415 27.600409839415615
362.56799890822765 267.62417323420607 29.526390383347135
355.3477893070314 280.51349851903234 24.801965456606382
362.44113210726584 267.64837153884054 33.842531771569924
341.01723249245134 259.7953239947673 18.755139540717536
351.8453592325722 252.03309831766873 29.737356558847086
356.4147746541623 253.21685562622645 26.96317567975605
360.6692029552855 263.4380517759064 20.323386940900093
349.4932991776471 253.75001013144936 21.49730978710742
352.85943086784476 284.5374839334324 22.004066007365775
355.0973677336044 256.82255933843476 42.927818251125686
337.8110547896154 256.66858105306034 33.82373558032744
359.32214544303775 267.89633917198773 21.017252370533747
341.30926367103194 268.6678384195234 44.772909078133964
343.36753749033795 253.49151528504342 35.112352564108846
339.03790495458884 270.26557016066494 19.39037020414514
348.13658788669363 261.07669058067995 15.264602411444592
353.22950597884847 276.769807233393 17.160290036282937
339.35037568548177 261.1605811966379 20.71990684118757
349.0019617106921 258.4516621393746 44.29157398471715
336.623438320305 281.33442854140446 22.712893432973907
353.6554632519768 260.8699822674529 16.25993047681453
359.4570705737435 255.07403577114835 32.28192036427892
345.07318816127116 270.4328772152308 46.010604248927066
357.3649447503442 253.41773538141786 30.219244434294037
358.4219875320663 268.7834963435837 41.688838355936035
335.6623302712265 271.2214476774668 41.97739563302736
338.3304089189554 262.063604860162 43.845607979875524
343.45343719340485 261.8678791520195 45.7707264961979
347.21217676788996 252.8623002109554 26.080310217282285
345.92764353113796 262.9306779824547 46.898002446941135
345.94859575355866 272.08562211856326 45.75687086844319
338.0497812241577 257.4211025635571 39.922493676169395
357.1603187689009 254.91830063310053 22.178666767853976
353.59322664483796 280.69835368562053 28.564514206942924
353.34456040715503 252.81156531787326 38.104566402138715
355.79083788241763 274.1099194771604 39.00137990176219
345.116541286198 256.4061988496838 18.364483110557114
332.7721443300423 269.9727422575606 32.66339051145833
336.84445769722134 276.4858040949761 31.43334740070745
337.54915031726006 257.4541088461858 26.17581645226893
348.0885414938148 278.01510722330863 41.04717843144245
337.46982538691594 280.0950003795104 33.63705311315601
336.8322914692845 259.09527546799524 39.771502087553664
361.75169927187926 264.9085659563695 38.39505015000963
345.34569704352515 271.3371448327171 17.258791749798426
340.1226925066579 262.5079374429696 18.37199342886715
362.32841955547315 266.3722103409718 36.03055886443963
335.5062236169031 260.6655189860566 37.455135306970035
348.0074731584265 252.73259931466856 36.03789339318591
361.1216624954612 271.2011868734133 35.345559383209675
357.23472329202394 276.2540376209575 32.34386472342522
352.4976772273471 263.9810044779833 46.05104673124189
348.94907049762327 268.73701701033855 16.027617097784507
350.90354907154267 278.0437693104831 40.4117011228081
356.1682917306119 258.58503502185135 43.74342513680649
336.2014638900102 286.7701399156651 25.164931435791893
334.97821626158526 272.5804963510266 40.202275100017
335.51161575182243 262.9650280130156 23.683683446381224
348.2660582239737 264.0445431695136 46.80181370917335
350.3431272091026 272.3882542214747 45.03417339238624
341.25992176058634 276.78702821467766 40.15790735716122
344.4628972283368 279.505410071352 15.401764049129383
360.9193499182134 256.9703568356828 25.86869226413619
360.31570447237993 273.2398798516903 34.56173366798121
351.36492138818835 268.62277450436017 45.55395071153184
347.0625477776647 279.5333047482615 38.29169892932626
340.89818438046626 254.97240777780976 25.166329546701558
351.53030048381584 284.4767049334528 28.437791887181397
362.24154042740787 258.9579747813362 28.370203620014394
338.78296406568336 255.14311456456588 30.167002590489588
357.13027718787845 253.53007640646535 33.07156023910742
335.2866261561513 260.50290631644566 28.134287271596943
346.3587916761685 254.6012272803768 41.779750824467655
360.4074235917895 270.19459738042565 37.37219380950562
341.1137500299388 253.96296121598175 31.078576922716287
341.48949815105675 274.98640563329906 42.147927914114945
361.0965741393615 272.31091821620686 29.778214361703714
357.0524074326285 265.55439471366407 18.353444574465904
362.9587235493192 263.9012926907293 26.11785172621458
357.90189301855054 258.5546159393288 42.08684250888764
346.13347176633675 282.4523990852322 38.01166959728174
354.3809894628612 252.45495110905657 32.254821396784536
362.76046620935546 260.37706221842507 30.9486914628307
348.6133753528731 266.0662322673157 47.098592159883786
359.06736654550866 254.6892164578128 27.866363914739768
338.5618116878823 278.4317695037882 35.358950241268815
351.95788247670725 266.56814875845754 45.41582550421975
343.7361722265471 254.59225859810664 41.7260227228654
341.2504132690847 288.64242135196224 30.824281081119636
337.6952915642971 286.9769896461992 18.142705336936736
340.43797327720426 289.5603895569086 26.41668172500311
350.4936395977574 252.69971104767976 37.27042795550049
337.07239077731464 262.1075441713469 21.89520593320346
355.1768633625348 275.9117806027839 37.819712747832675
355.46027337105113 275.1168600527454 21.702872012655128
340.4403775717457 286.37507316750236 16.301280192762253
348.33523518996526 286.5688315033474 30.701895853854307
354.56280265318514 280.8787581493893 18.42841041570983
355.2008397226715 277.0349705217968 33.53769783563331
344.1831289903676 264.33685357149574 46.0642721399814
344.61570651766186 253.57085207415528 39.64756381326225
335.79914919169073 283.49979082755146 22.50078419261681
348.17678811364584 261.62895498346097 46.376011322391314
338.80372426656805 255.4161337350086 28.345269273211343
352.26844208948677 280.10114564672193 30.58395779410395
352.4637097206231 274.4193085213696 42.75429537201435
338.746351935853 255.70190851487573 26.61246174448762
336.30642300773684 285.5679198634784 18.942822573856855
343.7788886383274 283.9589318070293 16.009896459333785
342.4889804548146 288.5217439442058 18.345709124395174
349.9492838808534 285.99445869277673 27.05787951281226
349.9250003732312 285.6428685020638 29.505271527574706
347.0155773770106 254.43667942386003 19.884861086535523
339.35680205692034 289.26589439626576 21.02062027342521
344.04523952626386 259.389809731193 44.450164158026666
336.29139200533916 271.90018750545244 22.045440351851006
349.87086093130034 282.4516233064896 15.819058088063104
339.3481423025496 264.12162455076435 45.266814597276465
350.0569309550648 252.46114217175116 34.9296934956227
349.9020957521863 281.70697050032123 33.77842825558612
350.90470457932446 285.4493845231011 25.033039807831674
334.81303375814974 265.0414704849425 23.712462850899293
336.7372185321319 287.2222400179844 27.133506220191062
344.54184618768045 256.5078309587352 43.59013943328704
341.47760071223604 264.2826364646823 16.778991693165086
343.9872095046116 288.2611055237959 32.7623506901222
337.2648532923282 276.45078609522676 35.1396683346174
352.5240870925079 252.36482589373853 35.18380620298183
337.13559119097346 264.48220973902266 44.01082838311304
355.22801413333696 277.07565849585217 24.76293282936323
349.72343302480635 283.7489764113344 17.068311243050466
336.8420042366711 267.02957530252957 43.836188811024364
351.4873245640386 275.5996213370362 16.160942225672486
333.7187122408149 266.4299253980702 24.763116955384547
352.4035021364768 253.0416657784763 22.647420371140726
349.6462550808161 252.56649293463545 24.43918883957015
348.57766225805545 283.78252226507294 34.50662452077288
339.4729438684365 270.51029003474264 44.41880651346565
363.02368691765724 263.27514084829414 32.340358413227705
354.7588506779503 276.9943531204739 22.660676845231517
341.8955596972412 260.13038299468093 44.80390100541816
362.0626922580435 261.9730922818554 38.247598052593766
335.95021425186525 267.66167293998024 20.821746899287792
339.5036465351187 259.59294304481256 44.429770773824536
356.7212026383036 256.5938918417677 20.00723930405419
354.8638454144238 279.2325156567909 21.1120979287777
337.4763285639048 259.7355859329773 41.89971263637885
362.5780132242791 263.37849067362345 35.68854700014392
342.98170527676825 253.62270912755682 26.52422984336676
358.7901589441035 275.1088190042703 28.93761446455434
335.49904768803486 265.5006633149693 42.08743525115063
337.5216345842155 288.521420471389 23.079752510509564
341.84433154061065 271.07679467706816 44.66110924071063
340.8524753104572 279.88919900378914 16.843027051266844
338.1088252410966 285.2527283178836 34.7327303714266
336.7841464356441 270.0113185669335 20.64054628111736
339.49722838515805 288.5885832730481 31.219350310970793
358.4603843142266 262.422815300565 44.73799330817757
339.8008298907127 286.3250359670044 35.702214548983505
351.14383326041764 253.1929542955429 40.08198336708145
352.58779851880143 258.30167011119767 16.561628925417143
357.0455975765445 263.63466720060336 46.374310059036034
340.9935666089867 277.9675217412115 38.42945196967483
335.96712121635363 283.0770964591239 26.72174419621579
339.9217120243021 288.06959160339864 18.099309177043494
354.83703207238386 272.0741500340658 18.9023836245836
350.01593673633727 256.80727177767096 43.35853205744656
346.71647479550086 287.8243070358101 29.384126081846013
344.5749365188649 288.9075808203024 25.555247363604163
338.0978425163259 284.2289757127904 36.198020189296315
350.2019611533537 260.48135977325927 45.158928347790166
355.7010262389389 258.9785719880863 17.64585255486011
342.4893195024833 286.03288587678594 37.36656916696876
361.0123219465282 265.96526447615133 21.63478306455027
345.0844886574362 253.44681067243087 25.437384725999827
348.74550466304777 286.6351856991817 24.301185942340116
352.03891786171994 261.85446261465813 45.1776380317327
335.840191672847 285.7971976930512 22.09800288339247
355.82088860996845 252.96512187551318 35.72813642416687
339.89140866128605 258.273370753459 21.09584278253819
342.8052667683363 273.18230057272905 43.83042967388963
358.72400799644186 259.01346050825737 19.383006468435873
339.19336565350346 281.72760089185226 16.79098606688297
337.50787491465763 287.51738441041834 29.34153515561824
345.0063535960989 281.8603641890359 15.389745321095768
341.1172471468003 254.35413749514663 37.997756716851775
336.5011304713118 275.514285120659 36.938629754007025
343.56230353390333 288.62972623459723 30.157290678570288
341.02229884810396 269.2436530241349 17.80835122737367
337.5741749672803 278.63693983907956 24.27967649998238
341.75069951130223 257.8445862064175 44.25626823097102
336.98137473053197 283.2194043966025 18.1282329966046
354.02368051991317 253.88692929454214 41.24070667372546
361.93069719452274 258.3834919632589 30.379358605676167
347.09919449251174 286.1879017746 19.326275286687615
344.89952978310083 277.0875338096047 15.967816461843793
356.0115844422982 275.3255501936579 23.687744885262056
353.379612398984 283.06921080432204 27.12652254937877
355.61251027937874 261.57766629803837 17.026608162955327
336.11547572219564 283.29976689380135 20.566958195366695
345.1884720634321 285.23429703091455 17.70123865014905
358.29602861593577 254.37788029832544 34.84328627549211
355.4327570307237 253.47833210775946 23.862026936177664
338.2385053563792 285.346908282333 16.49426178869395
360.83479930764884 271.433295287576 25.085603644960834
339.9477928230855 255.8985149891794 40.741252229733114
360.9390383353494 268.4223308476079 22.732501209352233
347.6493192113434 271.1439156693705 16.56463314438792
346.7893059571365 273.7497594802246 45.300533801591776
354.3178311209281 274.4202853950747 41.16236875955076
338.1663583444723 286.5883469429992 32.87321764195175
341.9416518278352 287.5013934301377 35.592891472797156
348.04016923387246 256.1233969736414 17.617181020639084
344.38024818044727 288.66339801938466 21.27969794842956
333.50373300758076 272.3536162135057 32.29637750931181
335.43062722076513 274.6825557398167 26.562255953481174
343.87968626699063 271.7671817222896 45.39492361670186
341.0989193584331 284.2582063578508 16.063673539613625
351.0642596992491 266.825449952869 16.066859764418194
340.37075541774436 289.21295033710913 28.77518786453845
334.84253234835523 269.6389332187012 22.397225394651485
343.1291336275501 269.61972859059574 46.28751950807998
337.19043126124984 287.97393442931707 20.004724629269962
354.0947040873176 278.1081126686904 18.81939845669534
360.0347942594628 266.51218932744223 40.83917658694053
337.5266451813689 256.8896835338518 28.5389356072956
361.4674136411856 271.40100560129605 27.291869735102154
347.2498551541129 283.92076031473385 36.314393691587135
335.79083735545805 283.77780512674894 24.695928525150283
333.44606372384624 271.4163847150642 34.442996373082174
361.3794605142342 258.4726440031203 23.57338893166591
348.8856524510065 266.04525537913366 15.49459480933386
354.9709455095572 265.3608899758211 17.071146152762292
340.5857944722601 289.74060813159235 23.919988628341994
POLYGONS 1230 4920
3 8 5 3
3 10 8 9
3 10 9 12
3 12 9 11
3 15 1 16
3 16 1 0
3 327 590 14
3 327 14 17
3 19 21 20
3 20 21 427
3 327 22 278
3 327 17 22
3 22 17 18
3 23 578 24
3 24 578 16
3 24 16 25
3 32 427 21
3 32 21 186
3 18 27 34
3 34 27 148
3 507 30 37
3 50 41 36
3 34 477 46
3 525 538 54
3 80 228 72
3 95 97 99
3 97 106 99
3 114 127 479
3 479 127 119
3 127 114 126
3 127 126 519
3 123 174 173
3 173 174 294
3 294 174 156
3 156 292 294
3 294 448 463
3 308 319 316
3 125 116 319
3 173 463 180
3 463 448 116
3 180 463 610
3 610 463 116
3 292 448 294
3 423 436 316
3 316 319 448
3 448 319 116
3 7 10 12
3 12 13 7
3 25 16 0
3 25 0 427
3 515 399 18
3 18 399 27
3 33 24 25
3 25 427 33
3 31 30 19
3 32 42 33
3 33 427 32
3 195 56 23
3 34 148 477
3 54 41 53
3 335 46 477
3 89 90 77
3 90 558 77
3 550 90 89
3 91 90 550
3 108 124 115
3 481 115 124
3 119 494 479
3 339 118 443
3 113 124 193
3 180 126 187
3 187 126 114
3 610 126 180
3 173 294 463
3 308 316 436
3 423 448 292
3 316 448 423
3 7 6 10
3 499 9 8
3 515 18 17
3 2 15 578
3 578 15 16
3 548 22 18
3 548 18 34
3 45 43 548
3 46 548 34
3 46 45 548
3 300 282 88
3 282 204 88
3 282 100 204
3 107 204 100
3 115 107 100
3 487 115 100
3 115 481 107
3 5 2 3
3 165 9 499
3 15 2 5
3 70 451 445
3 464 510 379
3 256 380 102
3 561 510 464
3 464 379 387
3 380 360 102
3 43 227 40
3 227 460 40
3 543 355 49
3 543 281 355
3 93 79 354
3 398 49 355
3 61 517 390
3 390 517 518
3 417 510 561
3 109 469 434
3 49 403 543
3 374 290 442
3 428 400 340
3 39 403 49
3 292 156 333
3 333 156 443
3 331 385 94
3 429 426 530
3 521 530 330
3 510 501 379
3 510 474 501
3 62 329 362
3 62 200 329
3 510 417 474
3 292 333 315
3 315 333 157
3 348 69 311
3 49 310 39
3 49 398 310
3 310 398 38
3 306 356 37
3 38 398 309
3 562 400 386
3 361 386 198
3 281 215 595
3 281 61 215
3 215 61 390
3 340 53 50
3 53 41 50
3 120 299 374
3 329 68 311
3 311 362 329
3 37 356 507
3 507 356 428
3 61 291 368
3 374 447 290
3 290 447 257
3 157 289 317
3 488 288 117
3 298 121 280
3 280 121 149
3 368 517 61
3 368 291 527
3 527 291 554
3 257 284 290
3 298 280 423
3 280 436 423
3 317 121 298
3 543 291 281
3 281 291 61
3 213 112 418
3 41 571 36
3 571 42 32
3 292 315 423
3 423 315 298
3 495 419 595
3 361 198 419
3 298 315 317
3 317 315 157
3 290 288 442
3 442 288 149
3 615 307 203
3 426 524 530
3 442 286 374
3 374 286 120
3 121 442 149
3 121 286 442
3 290 284 288
3 288 284 117
3 590 435 20
3 278 601 435
3 4 15 6
3 15 5 6
3 317 591 121
3 121 591 286
3 591 413 286
3 6 5 10
3 5 8 10
3 413 599 405
3 405 599 604
3 590 20 427
3 208 117 372
3 117 284 372
3 149 488 280
3 149 288 488
3 0 1 14
3 125 319 308
3 120 413 405
3 120 286 413
3 1 4 14
3 1 15 4
3 4 515 17
3 4 6 515
3 20 365 19
3 19 365 31
3 365 20 435
3 449 334 67
3 101 92 274
3 367 328 457
3 457 328 92
3 200 489 422
3 92 354 452
3 396 274 328
3 518 324 411
3 474 431 501
3 381 274 396
3 328 274 92
3 101 274 271
3 230 67 279
3 449 531 78
3 449 67 531
3 396 328 367
3 367 457 375
3 375 457 78
3 375 78 531
3 381 483 371
3 14 4 17
3 381 269 483
3 381 396 269
3 234 529 414
3 525 603 538
3 525 321 603
3 590 0 14
3 590 427 0
3 278 435 327
3 327 435 590
3 351 466 441
3 500 314 164
3 364 410 314
3 295 482 412
3 412 482 410
3 376 485 297
3 297 485 412
3 164 395 359
3 604 535 395
3 256 344 380
3 426 273 607
3 521 267 530
3 385 429 267
3 267 429 530
3 549 266 264
3 549 401 266
3 273 426 429
3 380 462 360
3 360 462 392
3 549 264 370
3 521 330 465
3 257 469 109
3 373 462 380
3 607 260 426
3 607 323 260
3 260 323 263
3 544 265 109
3 81 255 404
3 255 256 404
3 465 330 255
3 517 254 518
3 426 260 524
3 249 299 466
3 466 299 295
3 370 250 549
3 374 249 447
3 374 299 249
3 373 263 462
3 524 373 344
3 344 373 380
3 376 553 485
3 376 401 553
3 485 441 412
3 412 441 295
3 405 183 120
3 226 223 407
3 412 410 297
3 182 482 295
3 469 249 351
3 351 434 469
3 434 351 243
3 243 351 441
3 451 81 445
3 81 467 445
3 549 250 401
3 295 441 466
3 544 323 265
3 323 223 265
3 246 244 287
3 287 244 544
3 372 284 184
3 184 284 257
3 94 521 82
3 245 615 460
3 615 40 460
3 482 314 410
3 518 230 390
3 40 352 43
3 43 352 548
3 265 226 349
3 265 223 226
3 607 223 323
3 607 407 223
3 518 254 324
3 324 254 387
3 407 221 226
3 564 214 527
3 226 184 349
3 349 184 257
3 388 467 406
3 388 241 467
3 265 349 109
3 349 257 109
3 62 562 200
3 200 562 334
3 461 236 82
3 83 383 236
3 607 217 407
3 607 273 217
3 216 217 369
3 71 236 461
3 208 216 213
3 213 216 369
3 331 94 383
3 385 212 429
3 212 273 429
3 481 433 107
3 332 209 70
3 70 209 461
3 332 389 209
3 372 221 208
3 120 183 299
3 299 183 295
3 385 267 94
3 94 267 521
3 87 204 107
3 283 207 63
3 40 203 352
3 40 615 203
3 191 202 459
3 202 383 83
3 273 212 456
3 433 87 107
3 143 196 75
3 94 82 383
3 82 236 383
3 331 199 385
3 273 456 217
3 217 456 369
3 335 143 283
3 212 385 199
3 418 476 122
3 110 369 456
3 383 202 331
3 331 202 191
3 213 418 208
3 30 31 37
3 31 309 37
3 365 194 31
3 38 309 194
3 194 309 31
3 104 199 191
3 191 199 331
3 459 202 609
3 609 202 83
3 140 446 104
3 306 37 309
3 309 398 306
3 592 208 418
3 446 432 104
3 446 110 432
3 432 110 456
3 104 432 199
3 83 312 609
3 460 252 52
3 460 227 252
3 249 469 447
3 469 257 447
3 356 306 198
3 198 306 51
3 614 38 194
3 194 365 614
3 548 352 22
3 226 221 184
3 184 221 372
3 604 183 405
3 604 182 183
3 183 182 295
3 216 208 221
3 164 314 182
3 182 314 482
3 216 407 217
3 216 221 407
3 365 435 614
3 614 435 601
3 550 114 479
3 266 455 264
3 269 431 261
3 455 483 261
3 610 519 126
3 519 251 127
3 127 251 119
3 312 71 589
3 249 466 351
3 376 270 401
3 401 270 266
3 375 259 367
3 390 230 495
3 495 279 419
3 419 279 361
3 411 382 557
3 396 237 269
3 367 259 178
3 382 411 177
3 177 411 324
3 557 382 531
3 531 382 375
3 237 431 269
3 230 411 557
3 411 230 518
3 269 261 483
3 379 211 387
3 387 211 324
3 501 431 185
3 177 324 211
3 230 557 67
3 557 531 67
3 259 375 382
3 501 185 379
3 185 211 379
3 367 237 396
3 237 178 185
3 185 431 237
3 178 237 367
3 211 178 259
3 211 185 178
3 259 177 211
3 259 382 177
3 495 230 279
3 595 419 51
3 51 419 198
3 387 176 464
3 464 176 406
3 176 388 406
3 361 279 334
3 279 67 334
3 394 556 252
3 45 55 43
3 55 227 43
3 368 585 517
3 388 254 585
3 585 254 517
3 51 355 595
3 595 355 281
3 519 610 116
3 388 585 241
3 122 592 418
3 390 495 215
3 215 495 595
3 122 476 193
3 193 476 113
3 467 241 445
3 241 214 445
3 355 51 398
3 51 306 398
3 554 543 403
3 554 291 543
3 527 415 368
3 527 214 415
3 415 214 241
3 368 415 585
3 585 415 241
3 564 326 332
3 52 389 326
3 326 389 332
3 245 276 615
3 276 403 39
3 38 262 310
3 310 262 39
3 262 307 39
3 615 276 307
3 307 276 39
3 52 252 389
3 252 556 389
3 554 564 527
3 554 313 564
3 614 262 38
3 263 244 462
3 70 358 451
3 358 465 451
3 461 82 358
3 358 70 461
3 403 581 554
3 245 313 581
3 581 313 554
3 364 500 409
3 364 314 500
3 461 209 71
3 307 601 203
3 601 307 262
3 464 453 561
3 464 406 453
3 453 406 404
3 203 278 352
3 352 278 22
3 203 601 278
3 52 326 313
3 313 326 564
3 71 209 556
3 556 209 389
3 409 511 322
3 409 500 511
3 460 52 245
3 245 52 313
3 245 581 276
3 276 581 403
3 346 132 222
3 332 214 564
3 79 608 354
3 608 452 354
3 200 422 329
3 329 422 68
3 449 200 334
3 519 116 502
3 116 125 502
3 608 422 489
3 78 489 449
3 92 452 457
3 449 489 200
3 601 262 614
3 457 452 78
3 93 129 79
3 347 348 129
3 538 603 498
3 498 603 65
3 65 139 231
3 231 139 72
3 346 175 132
3 346 347 175
3 239 65 231
3 231 598 239
3 172 247 86
3 80 179 142
3 598 159 239
3 345 103 222
3 222 160 345
3 353 175 93
3 366 408 439
3 66 162 77
3 76 570 89
3 341 408 161
3 359 197 164
3 164 197 500
3 197 514 511
3 511 500 197
3 164 182 395
3 395 182 604
3 604 599 535
3 535 599 563
3 535 520 395
3 395 520 359
3 71 556 589
3 71 312 236
3 236 312 83
3 556 394 589
3 589 394 63
3 55 283 63
3 289 413 591
3 591 317 289
3 63 207 589
3 207 312 589
3 394 55 63
3 283 55 45
3 55 394 227
3 227 394 252
3 609 587 240
3 609 312 587
3 587 312 207
3 487 100 416
3 416 100 282
3 283 145 207
3 609 73 459
3 609 240 73
3 240 75 73
3 143 75 240
3 587 207 145
3 145 240 587
3 145 283 143
3 143 240 145
3 459 73 304
3 481 113 136
3 136 433 481
3 191 140 104
3 191 459 140
3 87 433 98
3 433 134 98
3 133 138 112
3 133 136 138
3 143 335 579
3 134 446 140
3 532 73 75
3 134 136 133
3 134 433 136
3 304 140 459
3 133 446 134
3 522 512 579
3 110 133 112
3 110 446 133
3 134 140 98
3 300 512 169
3 75 137 532
3 532 137 87
3 204 137 88
3 88 137 196
3 199 432 212
3 212 432 456
3 532 304 73
3 532 98 304
3 204 87 137
3 140 304 98
3 532 87 98
3 196 137 75
3 512 88 196
3 300 88 512
3 27 606 148
3 512 196 579
3 579 196 143
3 112 138 418
3 418 138 476
3 476 138 113
3 113 138 136
3 579 335 477
3 481 124 113
3 110 112 369
3 369 112 213
3 579 477 522
3 522 477 148
3 45 46 283
3 283 46 335
3 251 519 502
3 338 174 123
3 97 424 106
3 106 424 338
3 337 439 225
3 225 439 408
3 545 156 174
3 62 400 562
3 156 545 443
3 361 562 386
3 361 334 562
3 507 36 30
3 30 36 186
3 36 507 50
3 386 400 428
3 36 571 186
3 186 571 32
3 30 186 19
3 186 21 19
3 353 93 320
3 320 93 354
3 99 74 95
3 565 56 232
3 26 444 23
3 567 444 26
3 2 444 3
3 26 491 567
3 23 444 578
3 578 444 2
3 3 444 567
3 218 529 322
3 353 320 220
3 220 320 101
3 322 529 409
3 220 151 414
3 414 151 271
3 220 101 151
3 151 101 271
3 445 613 70
3 70 613 332
3 445 214 613
3 613 214 332
3 333 458 157
3 563 599 289
3 289 599 413
3 563 289 157
3 35 147 28
3 147 131 28
3 150 250 246
3 494 119 188
3 165 499 513
3 208 592 117
3 117 592 488
3 3 305 8
3 163 188 251
3 28 391 35
3 29 391 28
3 480 229 29
3 125 308 124
3 124 308 193
3 488 592 158
3 158 592 122
3 436 154 308
3 122 193 154
3 154 193 308
3 108 125 124
3 165 229 11
3 224 229 165
3 224 29 229
3 108 502 125
3 158 122 154
3 154 436 158
3 115 487 108
3 487 163 108
3 480 11 229
3 480 253 528
3 253 29 28
3 29 253 480
3 12 11 13
3 488 158 280
3 280 158 436
3 13 480 606
3 13 11 480
3 165 11 9
3 246 287 150
3 251 502 163
3 163 502 108
3 528 253 131
3 131 253 28
3 580 147 35
3 169 384 300
3 300 384 301
3 60 450 580
3 528 131 169
3 384 131 147
3 528 169 522
3 300 301 282
3 282 301 416
3 512 522 169
3 169 131 384
3 528 522 148
3 301 384 147
3 13 399 7
3 13 606 399
3 321 504 516
3 516 504 69
3 142 179 346
3 346 179 347
3 348 302 69
3 348 347 302
3 302 347 179
3 171 516 272
3 272 516 69
3 357 321 525
3 357 504 321
3 139 242 171
3 321 516 242
3 242 516 171
3 302 179 272
3 272 69 302
3 322 277 218
3 277 325 218
3 84 128 95
3 128 97 95
3 321 242 603
3 598 168 159
3 80 72 171
3 72 139 171
3 366 152 408
3 366 201 152
3 72 172 231
3 231 172 598
3 190 424 97
3 153 225 341
3 225 408 341
3 569 337 144
3 337 170 144
3 337 225 170
3 170 225 153
3 161 408 152
3 152 514 161
3 228 142 420
3 142 103 420
3 141 612 345
3 603 139 65
3 603 242 139
3 171 272 80
3 80 272 179
3 118 153 458
3 118 170 153
3 65 239 498
3 222 103 346
3 103 142 346
3 343 159 572
3 343 239 159
3 142 228 80
3 103 345 420
3 420 345 612
3 160 141 345
3 277 201 135
3 135 201 160
3 567 305 3
3 132 135 222
3 222 135 160
3 277 135 325
3 325 135 132
3 572 84 402
3 232 64 402
3 402 582 232
3 84 572 296
3 296 572 159
3 421 85 86
3 85 168 86
3 353 132 175
3 353 325 132
3 96 130 421
3 424 190 130
3 168 85 296
3 296 159 168
3 93 175 129
3 129 175 347
3 128 84 296
3 296 85 128
3 343 572 64
3 572 402 64
3 85 190 128
3 128 190 97
3 144 170 339
3 339 170 118
3 480 528 606
3 528 148 606
3 69 440 311
3 311 440 362
3 69 504 440
3 53 525 54
3 53 357 525
3 475 340 400
3 79 454 68
3 79 129 454
3 454 129 348
3 357 440 504
3 357 475 440
3 440 475 362
3 325 430 218
3 218 430 220
3 325 353 430
3 430 353 220
3 68 454 311
3 311 454 348
3 362 475 62
3 62 475 400
3 68 608 79
3 68 422 608
3 198 386 356
3 386 428 356
3 50 428 340
3 50 507 428
3 53 340 357
3 340 475 357
3 397 41 54
3 64 56 44
3 64 232 56
3 219 303 350
3 350 303 44
3 483 470 371
3 483 455 470
3 470 455 506
3 271 588 414
3 271 371 588
3 588 371 377
3 414 588 234
3 234 588 377
3 270 506 266
3 506 455 266
3 371 470 377
3 470 506 377
3 414 425 220
3 220 425 218
3 414 529 425
3 425 529 218
3 542 264 261
3 264 455 261
3 575 542 417
3 542 474 417
3 270 376 297
3 377 573 234
3 575 342 542
3 542 342 264
3 575 370 342
3 342 370 264
3 542 261 474
3 474 261 431
3 275 577 48
3 577 59 48
3 336 305 258
3 499 336 513
3 513 336 275
3 275 336 258
3 305 336 8
3 8 336 499
3 41 397 571
3 571 397 42
3 251 188 119
3 219 397 538
3 538 397 54
3 233 24 33
3 538 498 219
3 219 498 303
3 42 397 350
3 350 397 219
3 246 206 392
3 392 206 370
3 246 250 206
3 206 250 370
3 392 575 360
3 392 370 575
3 250 553 401
3 250 150 553
3 7 515 6
3 7 399 515
3 27 399 606
3 64 44 343
3 343 44 303
3 44 56 195
3 360 205 102
3 360 575 205
3 205 575 417
3 109 192 544
3 544 192 287
3 109 434 192
3 192 434 287
3 498 239 303
3 303 239 343
3 24 195 23
3 24 233 195
3 561 584 102
3 404 256 584
3 584 256 102
3 544 540 323
3 323 540 263
3 544 244 540
3 540 244 263
3 392 437 246
3 246 437 244
3 392 462 437
3 437 462 244
3 195 233 44
3 44 233 350
3 350 233 42
3 233 33 42
3 330 318 255
3 255 318 256
3 330 344 318
3 318 344 256
3 344 285 524
3 524 285 530
3 344 330 285
3 285 330 530
3 487 210 163
3 450 188 210
3 210 188 163
3 450 210 580
3 247 268 86
3 86 268 421
3 420 597 228
3 228 597 247
3 597 268 247
3 338 468 111
3 338 424 468
3 612 597 420
3 468 130 509
3 509 130 96
3 130 468 424
3 421 268 96
3 421 190 85
3 421 130 190
3 468 189 111
3 189 569 144
3 509 569 189
3 189 468 509
3 96 268 105
3 569 509 105
3 105 509 96
3 268 181 105
3 268 597 181
3 181 597 612
3 111 189 339
3 339 189 144
3 612 141 166
3 166 141 235
3 111 174 338
3 111 545 174
3 443 545 339
3 545 111 339
3 167 337 569
3 181 612 166
3 166 105 181
3 235 141 366
3 366 439 235
3 167 569 105
3 235 167 166
3 166 167 105
3 366 160 201
3 366 141 160
3 153 146 458
3 337 235 439
3 337 167 235
3 255 576 465
3 465 576 451
3 255 81 576
3 576 81 451
3 524 260 373
3 373 260 263
3 465 155 521
3 521 155 82
3 465 358 155
3 155 358 82
3 458 443 118
3 458 333 443
3 247 172 228
3 172 72 228
3 86 598 172
3 86 168 598
3 416 210 487
3 243 559 434
3 150 287 559
3 559 287 434
3 553 243 485
3 485 243 441
3 150 559 553
3 553 559 243
3 566 74 99
3 586 600 565
3 47 491 600
3 66 596 162
3 162 596 57
3 66 58 596
3 596 58 57
3 84 611 402
3 258 491 583
3 583 491 47
3 58 66 577
3 577 66 59
3 258 567 491
3 258 305 567
3 577 583 58
3 58 583 47
3 258 583 275
3 275 583 577
3 565 600 26
3 26 600 491
3 77 558 66
3 493 91 494
3 77 551 89
3 89 551 76
3 77 162 551
3 551 162 76
3 89 570 550
3 550 570 114
3 48 513 275
3 458 563 157
3 458 146 563
3 520 146 341
3 341 146 153
3 563 146 535
3 535 146 520
3 277 533 201
3 514 152 533
3 533 152 201
3 529 526 409
3 409 526 364
3 529 234 526
3 341 161 520
3 520 161 359
3 573 526 234
3 197 359 514
3 514 359 161
3 322 533 277
3 514 533 511
3 511 533 322
3 60 493 450
3 364 523 410
3 364 526 523
3 523 526 573
3 573 377 506
3 410 497 297
3 573 506 497
3 523 573 497
3 497 410 523
3 270 297 497
3 497 506 270
3 450 494 188
3 450 493 494
3 271 568 371
3 371 568 381
3 271 274 568
3 568 274 381
3 78 486 489
3 489 486 608
3 78 452 486
3 486 452 608
3 91 479 494
3 91 550 479
3 101 393 92
3 92 393 354
3 101 320 393
3 393 320 354
3 224 238 29
3 238 391 29
3 165 513 224
3 391 248 35
3 301 580 416
3 147 580 301
3 406 293 404
3 404 293 81
3 406 467 293
3 293 467 81
3 102 205 561
3 561 205 417
3 416 580 210
3 453 404 584
3 584 561 453
3 56 536 23
3 23 536 26
3 56 565 536
3 536 565 26
3 388 176 254
3 254 176 387
3 106 593 99
3 541 378 593
3 123 555 541
3 180 187 555
3 570 508 114
3 114 508 187
3 570 378 508
3 508 378 187
3 173 180 555
3 555 123 173
3 162 616 76
3 162 57 616
3 248 391 238
3 99 593 566
3 534 438 363
3 438 611 74
3 59 66 558
3 558 248 59
3 90 91 493
3 558 90 493
3 59 248 238
3 238 48 59
3 513 48 224
3 224 48 238
3 60 580 35
3 60 503 493
3 248 558 503
3 503 558 493
3 248 503 35
3 35 503 60
3 76 602 570
3 602 363 566
3 534 605 560
3 123 552 338
3 338 552 106
3 123 541 552
3 74 546 95
3 95 546 84
3 74 611 546
3 546 611 84
3 363 616 534
3 106 537 593
3 593 537 541
3 106 552 537
3 537 552 541
3 438 534 560
3 560 611 438
3 541 594 378
3 378 594 187
3 541 555 594
3 594 555 187
3 582 574 232
3 232 574 565
3 574 586 565
3 378 539 593
3 593 539 566
3 539 602 566
3 363 505 566
3 566 505 74
3 363 438 505
3 505 438 74
3 534 496 605
3 57 547 496
3 496 547 605
3 47 492 58
3 58 492 57
3 47 547 492
3 492 547 57
3 582 560 490
3 490 560 605
3 611 484 402
3 402 484 582
3 611 560 484
3 484 560 582
3 57 496 616
3 616 496 534
3 76 473 602
3 602 473 363
3 76 616 473
3 473 616 363
3 574 582 490
3 490 586 574
3 586 478 600
3 600 478 47
3 586 547 478
3 478 547 47
3 586 472 547
3 547 472 605
3 586 490 472
3 472 490 605
3 602 471 570
3 570 471 378
3 602 539 471
3 471 539 378
