# vtk DataFile Version 3.0
A great-looking cell
ASCII
DATASET POLYDATA
POINTS 265 double
387.807055818492 126.62167356720923 83.49868026262406
391.3276735299628 124.46789274205547 86.4355923508463
391.15824893049364 122.13928351982001 83.66079588737632
384.0126469873725 123.3550857634792 78.730831269496
385.1990899107109 129.06739578973045 83.51092549299096
391.8298385372438 121.77686446919067 88.2650613460762
384.41332367636414 108.52961997359151 92.1064642683236
375.89509816481933 118.51316112513008 80.2450085611422
382.91494680289657 132.21246759648147 85.3524090971057
372.7581267592425 124.81512254832602 82.7791883997031
379.1591694028128 133.8852152080756 90.39196072847926
388.70929408235867 127.40829605868001 91.72727720583617
385.0167708518942 130.4523527634648 86.46668791218936
390.76035315306365 116.69710856727235 92.2501022874461
390.23158346563025 125.55264750394893 89.46742811892466
390.3472711626744 125.00718048579199 94.11957971717723
387.09645482382695 129.07675555580357 88.90773429227282
371.5156569031218 124.6315469566555 90.59926417164563
374.693615156843 124.49792649500236 79.8417051045359
378.3610224734439 130.7835967161377 97.76637143052126
372.28614676297195 129.2376746032395 88.39445427191347
380.7959502221772 133.72191271223207 83.38083414553834
386.6334286132487 129.43910245691185 93.53430235772804
376.06756361557046 132.53680977710167 93.10766306939591
377.965367790196 127.65353192318828 98.96803776175553
379.1607485276231 133.22239661819603 93.91749316302392
375.01676030279 118.35161793099948 98.91211849530545
375.7262029892769 125.90133824683876 78.11820868433178
373.54005093413326 122.93083561064304 81.31680458786094
378.9439384634398 121.55568136852168 98.86138156477003
375.941316303828 114.02930839549104 98.54863190839347
373.3732775085728 127.58220288544327 95.54850435540736
387.0033395500278 129.3229807000932 91.32384235086879
371.45769663763315 117.18565684930432 96.71835671882484
379.3262473152952 126.63354614485408 77.6045347917773
383.8078325998409 125.75847484881344 79.32143773523222
386.7401305082741 124.19208874193471 98.93565740583222
380.0814771667042 116.42255799455356 98.78580257772846
381.78563705111577 130.0630372541837 80.24983973659805
388.1486288397448 121.86729689795013 79.72984414441011
391.40521147196455 121.1662126355073 92.6611996568525
390.9523935483398 123.48122173098594 96.22248494661098
389.66914686171873 125.81956499982134 85.11576707880738
376.28836368724717 122.80971165727362 79.21733886631452
376.9653118188372 132.73328477214 79.64778483604967
385.0149788819449 115.12464162729252 76.92270781410942
375.10900285508444 132.9710120969704 81.27938145886498
372.11488494723784 129.4614632310664 83.44361866553312
374.4930611856955 131.10516705618622 79.02499715910083
391.5872116731852 122.24749837509187 94.40468438000778
390.35696300922825 124.96877797019586 83.66611373558865
383.35113991803655 112.81635747261562 98.21716120826507
386.9062060136606 128.51798569748195 85.82825786758974
372.3071743148928 114.35735792118122 92.17272686819871
388.4193225235591 119.51633101320772 98.27830628304595
374.1825488861593 113.0784501721382 88.12183066516518
378.39430332333365 118.16842024776128 98.96729642802015
388.8321720240907 127.30497301275699 89.2542865467615
387.78968679260333 118.6042966230776 79.56602546122562
384.9340386322826 109.6029817628056 82.89976229277924
386.16561741813814 114.16214662561839 77.95762370316396
381.64403937848635 114.36038002579646 76.9076639950363
391.4851567853758 123.85896486432092 88.8920134835391
386.9481191173442 109.44742097409117 90.9257448602046
386.0551241816849 112.29241513244263 79.15527760101028
380.42915738875473 109.21069587030021 82.45938815117468
386.8054374201791 123.10842104732488 79.47841242361538
384.76493820078315 118.53400512626261 77.57367820664713
386.40086136490635 113.47276165258438 97.83486871321249
378.199869012622 134.2104592730721 84.89774733790858
388.15876878421034 111.72138447558613 83.97015499423193
384.6255878716616 114.69707603709587 98.9550460612008
389.1732411473797 115.54628742790804 81.68586625396384
388.97857014417815 112.91797785868656 94.15661359410747
390.99187170132893 117.15919880063218 85.89003535428976
386.8116058962184 121.47972803436963 99.03707335359397
390.61824605505007 115.17243085243298 90.42685346431871
391.8166855502359 121.98484016842727 86.01304098671996
372.36257939351515 129.13540779720566 90.78965805651528
369.9286198761021 121.91939669431937 94.39800185608516
383.17855935271444 117.82290125536353 98.8811235285207
377.8384117421896 113.2918924411313 79.40091976977111
384.9866522815445 119.52845108037236 99.03999754807063
385.1316057890283 130.66843082165562 88.76780873166494
383.282089945278 130.2975750533228 97.49744392164446
373.04871960823385 116.33531556804161 84.58347596986691
382.36187925817006 115.64275268459389 98.9290041369032
385.048330911858 130.7840867059085 91.09735536517621
388.833329304127 124.31818997448403 97.3851573771971
380.33536813835633 115.56121845985724 77.506281088833
389.0181244210162 111.6816366546278 88.26733703680229
383.90484408065333 130.6112512228897 84.46141092224876
374.9812945880313 126.08767689608413 98.12223503860433
377.6402017738499 109.51942576489856 88.50238626173036
373.0460072384909 131.07867244929633 82.06313620904207
383.76813703255294 127.72025107375977 98.86848582539334
382.1836971231587 109.24345473702604 94.27999287736438
380.90885317183256 122.66889495605088 98.86836882229116
391.5481232083016 123.22125166746505 91.3228145475183
377.79087627676233 118.34513675981431 78.87117778398199
391.59290102915685 119.51923916168622 88.38561492439656
372.59701126151026 128.6401882586453 92.77200437709286
383.37107760146097 120.89667953655398 99.08619004533757
382.03265946063465 111.64447697095636 79.05953067059059
370.4984161614344 123.62976412276402 92.63722832108417
387.597310825439 115.15501494564873 97.5319837414432
390.32398111303365 117.20583886040222 94.5847581020522
378.21181716595066 111.65718209591599 80.4430238427036
377.53887997467746 133.52062082822326 92.04077551914918
379.25707723961716 108.67062720013145 91.56527354017746
388.866708016978 117.0688573208868 80.37008030428073
370.02572527524666 123.10203926393366 90.66732460195064
380.9330737227387 129.37668924112106 98.88145543481785
370.95196447975974 120.43384029254163 87.70073667352
383.9596371455876 131.54492548837993 94.68372572525104
385.7753560620945 129.1462467391797 96.6914708030242
385.8749665118273 109.03067056099637 86.79158900367185
380.2355172025489 119.66285109733926 98.98221892522996
373.2141040107725 124.51285571205966 95.96131406900777
377.606149222043 115.71668377870797 78.82538585816772
387.9503460873649 111.12112596481366 93.170738263658
385.9445092217113 125.60130479093134 80.4373482121533
378.7602456355878 132.31983183712111 96.19920700571707
387.0559394207278 111.417614455699 81.85704482500132
387.91033184693083 127.03642534631733 95.3224511493588
376.2372952033554 111.95789674407193 83.55645892951382
372.5396042376911 130.82019145968837 85.22611864093425
390.14695070151305 121.09108026464328 97.14643633060561
383.1555832879115 108.11723778760432 90.23340321263444
375.87575519915094 112.43343157739231 96.92006447190279
389.4762913502814 115.0374738613787 94.89989109984863
381.07051761654645 132.35702587813162 96.85918077643124
386.42216330405444 109.35469341427242 93.01473434152201
380.3534668316824 120.4500559156584 78.10326442856962
381.3756295094692 108.34851048993586 86.32076409850546
386.82985056676097 110.06776855120135 84.94468700627529
391.22752506811855 116.99913664647127 88.55135577787482
379.37198545273117 108.50033861656131 89.67758116785176
389.32427562987937 120.08386914586819 81.02578036715508
376.4827451971582 113.43957813078869 81.13534634015588
379.4383922751255 108.73280755132794 86.88742826643679
388.9846822280318 112.1153718879636 86.10324699247836
380.73391946029324 122.5243653723677 78.18800579592862
384.908040080297 108.48445542337308 88.85095759196807
388.8099411764861 111.39991756974679 90.2263050188711
390.41250712907157 115.02729613839159 85.91773659858661
381.8808685266914 108.18903713251922 88.42618563587168
389.8855658877297 113.54278254138828 92.06253174860049
377.96251056466986 120.86122769090393 78.88873980886743
387.5644582530588 112.5741993834577 96.01349106065771
382.3888663535923 109.32029089981252 82.62248941050245
379.9926684263672 131.98105878857038 80.20138596704433
383.54246447837033 113.14430057532105 77.6953956588038
380.6886056751721 110.42064674450275 80.59108962629482
386.27620989470284 120.33155113814045 78.93103453064283
390.96472933791495 119.6566678278786 83.29292238252795
386.6220591486666 117.92003774764186 98.98810779539617
374.56458375976763 130.25218257721335 94.31173930082713
383.06354784958444 116.53794690336531 77.00621452279186
377.1678104734879 127.64230943270107 77.40358798967624
387.65480251762216 109.95300051978909 87.97835019697462
391.367430204678 119.82443986418353 90.80012472385955
385.2266856064569 110.25606969736504 94.95716590359065
389.03420387736395 123.80932998523632 81.12448516710893
386.453951737304 126.30500646922839 98.09163980506656
377.0516971177625 131.4753889427986 95.4471275695591
389.07753693401224 117.89925047320793 96.52886842072742
378.6975832645455 109.09582961166994 84.98548265402601
379.2557309915798 109.04556472242761 93.76667081729974
385.03363243130497 112.1137428065821 97.55514283060631
376.33156060693284 110.62777003247948 94.24998300999998
373.93310849009737 119.56926204520735 81.18679306838345
373.7049195829937 114.59653264813416 97.64963149194755
391.19913843005827 119.56150156185416 85.93303621225041
381.57491245151385 113.59296792113105 98.92427261771469
371.3221315946555 119.62976800422712 97.19580206651855
387.9269637473167 114.30104554801072 80.09282972133032
380.9312046636603 125.90802203074209 98.95843730068634
376.7905676770236 120.07855036362568 98.9916906209806
390.1122068364838 113.59054244485147 88.78820619212344
372.0793117928161 114.76212278124339 95.71207306767228
377.85220836209163 123.8166199825426 98.69837793463299
383.88941250237065 110.80664297195634 80.33964520937641
373.7578204894061 117.15267650641846 98.61866264519944
390.7346997026192 119.43245010005971 94.07887933353302
375.78395296559796 129.20744648462914 96.99964020732793
389.11700104316304 113.77832171896446 83.18438593466432
374.05485360904527 132.3500495210005 87.94398150090628
377.3042911450551 109.58464044747436 91.2094410945626
380.05336521922635 112.95015407486756 78.35883541574101
380.5962082030835 134.0028012411577 87.0895831223231
381.3329579345757 108.18913017715963 91.51760548714043
375.0205910916665 112.68185788880366 86.19693341825287
375.4967809567381 129.4364896826774 77.46878593785519
375.5228633818249 115.96860763735235 81.20244748496997
378.36377910201236 109.9691608828271 82.86451547827167
374.77978836677073 111.16471132822919 91.76861118440307
378.3587472445596 113.51500665502023 98.58428423519094
373.80878448980855 117.72550659307055 82.64902557494892
383.3896190684622 132.377368742525 88.57719382415411
372.42646053408873 125.56658745820455 93.17144950426571
374.877548181431 121.43439792714665 80.35676532938831
372.2236544538469 125.66053338909845 87.78737032165911
370.17935701358874 118.87926129559236 90.91072447563712
376.0181368758872 133.34826306154474 90.46394176453727
373.0462688083356 115.19716660004029 87.13284453386454
371.4566836083282 120.70071651216571 85.29684280140084
377.6792794226531 133.57490052925337 82.18045435698667
376.47632256228826 116.50367285944576 98.965065953484
370.098109518514 121.40610584832305 89.90802208572448
377.0798180660467 133.90858180587728 87.56760974715942
386.52184393368356 116.87614249059976 78.1461727403987
383.6240240914004 108.82309216554809 85.63690928117047
377.08564077472755 110.26446317163058 85.94110084809448
380.31511310366005 128.81490409642953 78.51734779406854
383.42817885050306 127.97471226167711 80.53520894579817
377.14446051541444 111.61393540800829 81.90358133183477
374.0105408942539 127.70250341162651 78.7715378826294
388.86763501632225 126.79864634791801 86.92832989866164
381.4506586906446 125.69920083040392 78.4478908635214
379.89957815075593 118.25970605740392 77.83411852871386
375.5980177220366 111.34475088787148 88.86743064893993
372.31267950627716 128.03439083970355 81.66517040143482
373.15824410457253 126.1570945877071 80.60333827391976
369.6955719111849 121.51186184132833 91.96563613114124
385.6577668034859 127.38781884076647 81.93742629554517
377.5227695829984 130.5872914329064 78.14357699335619
374.42616298305956 122.77456006904772 98.29019094340744
390.1301461453984 117.21039216162113 83.3673886392421
380.58308861861457 108.72133767931638 84.46489504711576
382.1273273948846 111.22193428209631 96.88098083393655
370.34949966307073 119.71913415860101 95.52875875946233
373.4596270306843 113.38082664752471 90.37250065699304
373.7359363994491 113.3668142518916 94.06427809167265
375.02688446991226 133.32414470464832 84.42803855800724
371.13374538848296 117.59086402851382 88.21848196239903
381.848733175358 133.35618839690417 94.51813930178791
378.7547275604875 110.57548650081193 96.84567670086709
370.9286505498624 123.10141344017939 88.68781351184518
372.9187842507875 129.613782623576 80.08979063980311
371.7693432301684 123.02977121471142 85.74939079544193
371.3381519339194 115.75240720344598 90.58552513244132
371.2951074945416 115.51686328650727 93.65558196668957
382.23840015495705 133.17558166485753 91.85347191697174
373.5751095810499 131.13110062656017 91.24297543220126
384.14587187879465 124.18269807558502 99.03770939163196
374.56927279084664 114.6663659459619 83.70434688364581
372.41494861475934 125.26992007729909 85.34509822446059
380.5901581274421 109.86607154376175 95.544521808731
372.2690768194042 127.1407243712833 90.58792815447077
390.3720807957113 125.41004166242534 91.67308431754648
377.8936079863549 124.53688333711311 78.31300496333662
370.65255141867823 116.97796638427897 92.22722906790169
372.0311552816594 127.60477852877958 84.9469212877307
380.20261593423845 112.16377104062204 97.90330698349237
371.4082528226672 123.62192246792078 94.66177822352786
370.39208264534653 117.9688248974777 93.76841314498137
372.0686077834336 118.35913968819399 85.40178300018579
382.778276063913 120.16466521887955 77.3297682096205
371.8182185326768 121.77689410874844 96.5463361426404
369.774209000521 119.94999397574821 93.34404286156486
372.6383018422256 121.03333319815586 82.88644866247785
373.0654408842815 119.6745061398024 98.82836431097921
382.8349007441133 131.03413811022344 82.35975819914346
381.4831736416494 133.7303564988001 89.49957632536787
POLYGONS 526 2104
3 199 12 8
3 218 14 1
3 15 124 88
3 102 117 80
3 124 115 164
3 88 124 164
3 95 164 115
3 80 117 37
3 15 11 124
3 22 115 124
3 102 75 245
3 102 97 117
3 22 124 11
3 115 114 84
3 22 114 115
3 112 19 24
3 95 115 84
3 101 157 244
3 165 23 157
3 157 23 244
3 97 245 177
3 97 102 245
3 214 226 151
3 215 263 4
3 84 131 112
3 112 131 19
3 204 244 23
3 253 202 20
3 202 249 20
3 101 200 31
3 101 249 200
3 20 126 253
3 126 234 94
3 151 207 21
3 21 207 69
3 69 207 234
3 249 202 17
3 215 219 214
3 118 227 92
3 24 185 92
3 185 31 92
3 24 181 177
3 177 181 97
3 112 24 177
3 164 95 245
3 245 95 177
3 84 112 95
3 112 177 95
3 190 210 10
3 244 187 20
3 187 210 234
3 185 19 165
3 92 181 24
3 92 227 181
3 21 190 8
3 263 21 8
3 69 190 21
3 200 118 31
3 31 118 92
3 31 157 101
3 31 185 157
3 157 185 165
3 210 187 204
3 204 187 244
3 25 243 10
3 23 165 25
3 19 185 24
3 10 210 204
3 234 210 69
3 210 190 69
3 151 21 263
3 20 187 126
3 126 187 234
3 8 190 199
3 87 243 114
3 114 131 84
3 199 243 87
3 22 87 114
3 33 256 242
3 241 205 232
3 258 142 3
3 251 219 142
3 142 219 3
3 261 198 257
3 214 159 226
3 9 261 240
3 201 148 7
3 251 142 148
3 118 259 227
3 200 255 118
3 256 252 242
3 242 252 241
3 256 203 252
3 252 203 241
3 249 17 200
3 113 238 240
3 113 209 238
3 33 231 256
3 231 260 256
3 118 255 259
3 259 255 79
3 259 79 231
3 227 259 262
3 231 79 260
3 257 235 113
3 241 203 235
3 235 203 113
3 256 260 203
3 260 224 203
3 203 209 113
3 203 224 209
3 113 206 257
3 257 206 261
3 113 240 206
3 206 240 261
3 208 197 37
3 188 196 221
3 221 196 232
3 196 233 232
3 7 194 198
3 198 194 246
3 194 139 246
3 221 192 213
3 192 205 246
3 208 183 172
3 172 183 33
3 183 262 33
3 242 180 33
3 33 180 172
3 242 233 180
3 180 233 172
3 227 262 178
3 33 175 231
3 231 175 259
3 33 262 175
3 175 262 259
3 261 171 198
3 198 171 7
3 261 201 171
3 171 201 7
3 233 196 170
3 170 196 188
3 221 93 188
3 221 213 93
3 93 213 140
3 237 170 168
3 168 170 188
3 213 167 140
3 140 167 229
3 213 195 167
3 167 195 229
3 2 138 163
3 13 161 184
3 258 158 220
3 71 156 80
3 2 155 138
3 138 155 228
3 2 173 155
3 155 173 228
3 227 178 181
3 3 154 258
3 229 150 212
3 228 145 186
3 179 147 144
3 143 146 212
3 186 145 141
3 141 145 179
3 140 146 137
3 137 146 191
3 179 145 136
3 135 141 160
3 212 134 229
3 229 134 140
3 212 146 134
3 134 146 140
3 148 133 220
3 220 133 258
3 148 142 133
3 133 142 258
3 144 63 160
3 6 143 63
3 63 143 160
3 130 147 13
3 233 129 172
3 233 170 129
3 129 170 237
3 161 13 136
3 153 182 150
3 146 128 191
3 191 128 6
3 146 143 128
3 128 143 6
3 75 127 88
3 139 125 246
3 195 213 125
3 186 123 176
3 184 127 166
3 0 163 121
3 162 120 149
3 144 147 120
3 212 116 143
3 143 116 160
3 212 135 116
3 116 135 160
3 209 111 238
3 238 111 17
3 228 110 138
3 110 176 211
3 129 237 197
3 188 109 168
3 168 109 191
3 188 137 109
3 109 137 191
3 189 153 107
3 107 153 195
3 166 106 184
3 184 106 13
3 166 130 106
3 106 130 13
3 166 156 105
3 105 156 71
3 200 104 255
3 111 224 104
3 189 103 153
3 153 103 182
3 189 152 103
3 103 152 182
3 130 166 105
3 105 149 130
3 220 99 148
3 148 99 7
3 220 119 99
3 99 119 7
3 197 174 37
3 230 96 162
3 96 168 191
3 194 7 119
3 119 139 194
3 140 137 93
3 93 137 188
3 98 161 5
3 230 162 169
3 169 162 149
3 160 90 144
3 144 90 179
3 160 141 90
3 90 141 179
3 158 89 220
3 189 119 89
3 89 119 220
3 37 86 80
3 80 86 71
3 37 174 86
3 86 174 71
3 205 85 246
3 246 85 198
3 205 257 85
3 85 257 198
3 80 82 102
3 102 82 75
3 80 156 82
3 82 156 75
3 209 224 111
3 17 111 104
3 104 200 17
3 255 104 79
3 79 104 224
3 79 224 260
3 5 77 1
3 1 77 2
3 5 173 77
3 77 173 2
3 179 76 147
3 147 76 13
3 179 136 76
3 76 136 13
3 173 74 228
3 228 74 145
3 173 136 74
3 74 136 145
3 149 73 130
3 130 73 147
3 149 120 73
3 73 120 147
3 176 72 186
3 186 72 228
3 176 110 72
3 72 110 228
3 135 70 141
3 141 70 186
3 135 123 70
3 70 123 186
3 189 81 119
3 119 81 139
3 189 107 81
3 81 107 139
3 71 68 105
3 105 68 149
3 71 169 68
3 68 169 149
3 258 67 158
3 158 67 211
3 258 154 67
3 67 154 211
3 162 96 6
3 6 96 191
3 153 65 195
3 195 65 229
3 153 150 65
3 65 150 229
3 182 64 123
3 123 64 176
3 182 152 64
3 144 120 63
3 240 238 202
3 202 238 17
3 189 61 152
3 152 61 158
3 189 89 61
3 61 89 158
3 176 60 211
3 176 64 60
3 60 64 152
3 150 59 212
3 212 59 135
3 59 123 135
3 138 58 154
3 154 58 211
3 138 110 58
3 58 110 211
3 192 246 125
3 125 213 192
3 123 59 182
3 182 59 150
3 117 56 37
3 37 56 208
3 117 178 56
3 56 178 208
3 205 55 232
3 232 55 221
3 205 192 55
3 55 192 221
3 166 54 156
3 156 54 75
3 166 127 54
3 54 127 75
3 232 53 241
3 241 53 242
3 232 233 53
3 53 233 242
3 241 235 205
3 205 235 257
3 230 51 174
3 174 51 71
3 230 169 51
3 51 169 71
3 139 216 125
3 125 216 195
3 139 107 216
3 216 107 195
3 15 250 11
3 11 250 14
3 15 98 250
3 250 98 14
3 9 247 253
3 253 247 202
3 9 240 247
3 247 240 202
3 243 236 114
3 114 236 131
3 243 25 236
3 236 25 131
3 131 122 19
3 19 122 165
3 131 25 122
3 122 25 165
3 25 108 23
3 23 108 204
3 25 10 108
3 108 10 204
3 10 264 190
3 190 264 199
3 10 243 264
3 264 243 199
3 0 225 4
3 4 225 215
3 0 121 225
3 225 121 215
3 8 91 263
3 263 91 4
3 8 12 91
3 91 12 4
3 12 83 16
3 16 83 87
3 12 199 83
3 83 199 87
3 14 57 11
3 11 57 16
3 14 218 57
3 57 218 16
3 4 52 0
3 0 52 218
3 4 12 52
3 2 50 1
3 2 163 50
3 50 163 0
3 184 49 127
3 49 98 15
3 6 132 162
3 162 132 120
3 6 63 132
3 132 63 120
3 222 9 253
3 163 66 121
3 121 66 3
3 66 154 3
3 94 47 126
3 126 47 253
3 94 222 47
3 47 222 253
3 207 46 234
3 234 46 94
3 46 48 94
3 211 45 158
3 158 45 152
3 211 60 45
3 45 60 152
3 226 44 151
3 151 44 207
3 226 48 44
3 9 223 18
3 18 223 217
3 9 222 223
3 223 222 217
3 161 100 5
3 5 100 173
3 161 136 100
3 100 136 173
3 94 239 222
3 222 239 217
3 94 48 239
3 239 48 217
3 217 193 159
3 159 193 226
3 217 48 193
3 193 48 226
3 249 78 20
3 20 78 244
3 249 101 78
3 78 101 244
3 168 248 237
3 237 248 230
3 168 96 248
3 248 96 230
3 14 62 1
3 1 62 5
3 14 98 62
3 62 98 5
3 148 43 251
3 251 43 18
3 148 201 43
3 43 201 18
3 46 207 44
3 44 48 46
3 1 42 218
3 218 42 0
3 1 50 42
3 42 50 0
3 127 41 88
3 88 41 15
3 127 49 41
3 41 49 15
3 98 40 161
3 161 40 184
3 98 49 40
3 40 49 184
3 154 39 138
3 138 39 163
3 154 66 39
3 39 66 163
3 214 38 215
3 215 38 263
3 214 151 38
3 38 151 263
3 88 36 75
3 75 36 245
3 88 164 36
3 36 164 245
3 215 35 219
3 219 35 3
3 215 121 35
3 35 121 3
3 159 34 251
3 251 34 219
3 159 214 34
3 34 214 219
3 218 52 16
3 16 52 12
3 174 254 230
3 230 254 237
3 174 197 254
3 254 197 237
3 172 30 208
3 208 30 197
3 172 129 30
3 30 129 197
3 181 29 97
3 97 29 117
3 181 178 29
3 29 178 117
3 201 28 18
3 18 28 9
3 201 261 28
3 28 261 9
3 16 32 11
3 11 32 22
3 16 87 32
3 32 87 22
3 159 27 217
3 217 27 18
3 159 251 27
3 27 251 18
3 208 26 183
3 183 26 262
3 208 178 26
3 26 178 262
