# vtk DataFile Version 3.0
A great-looking cell
ASCII
DATASET POLYDATA
POINTS 439 double
224.75594467506093 259.1093824699855 37.37472730706281
227.05674285972242 258.1313624884026 38.070706338299615
226.57079960161514 260.48452287165617 38.43476067287096
224.44523309892782 261.45171777941823 38.263027157002874
222.42065931144376 254.82134700418695 36.96721190933352
227.20605438093287 256.1196849453381 38.7542928045152
220.1623300155108 256.49916822461734 36.86536463988248
222.63644208283182 257.6740009017754 36.20040161582716
220.45883195778245 258.82713802818876 36.53529032964747
222.18051967757788 260.39620670161935 37.40021438643095
228.49475125232541 259.56205380054047 39.39568520570237
220.7725645832353 261.9701916929101 38.33583185056108
222.5497079995291 262.4765504762928 38.81289178806808
226.171270851786 262.57230352111986 39.027231786509105
228.03821931286163 261.74646455704 39.57853935642328
220.8293555812504 263.64106155220657 39.199842336124114
224.37635991116895 263.4750278661628 38.99924314685057
227.34837367333665 263.3705486753198 40.10846060285703
222.7120245744756 264.5826041423896 39.10419632910947
224.52879605972163 265.3663151904304 39.026540753242756
225.813390286682 264.33937259224524 40.01944695015955
222.27001011231582 252.2083949116797 38.63850948371549
224.38403287829843 253.75316226157167 37.99439721353648
226.61865981320167 254.03624724958502 38.63203563559615
217.97024631178706 255.93504388032468 38.26746128497051
216.85884682235297 257.8474839156747 39.33212043836472
218.58294492944762 258.32425095547524 37.70700177422161
228.83004769830058 257.26702028180756 39.461259648772064
230.05362830655378 258.65251222076887 40.9025429805612
217.53339701546955 260.1590259725871 38.98727864318258
229.40552768001746 260.8232678806399 41.062726140022775
230.94886027149258 259.97909220156896 42.492093125309744
218.85075731679686 262.3715091034144 39.30831978953211
230.09407610566063 262.0363328706288 42.824015530041024
228.859968370126 262.9851302863754 41.147010552422856
217.46153828913782 263.7996507913888 40.40635514564055
219.06402369454122 264.75938926666294 39.80055219781568
227.51859863095882 264.8587475580415 41.30167403425645
220.94859318612777 265.80551788306366 39.35386309632409
225.65536336490638 266.83850441289326 40.530935172427796
223.06706620161376 266.6654600708038 39.66038273425396
220.97643366691727 250.65633049252153 40.747939353727546
223.57516500272067 250.3522505732886 40.5899109535649
225.70185969338613 250.94844722471225 41.23067046364384
217.65396822934716 253.76367601324208 40.08296689366532
216.34415899883962 255.84949463581972 39.71217784126359
219.74463920585333 252.2072718506618 39.587932425522716
225.13146639745372 252.0993082451971 39.45212362424827
227.79982363833997 252.28677640509616 40.713268083547185
215.0549250661359 257.24389396021843 40.73575407902807
231.4358890776249 255.74060743560906 43.200689516318796
215.88922328104658 259.54761938712284 40.80770488244377
231.53919847293488 257.83054653793255 42.53940338904658
232.42679774529194 259.2305733245016 43.744565846689476
236.20539777954494 257.7000551961267 43.60421728355212
216.53806009473865 261.9145724818919 40.354318101142496
231.85021416245303 261.17017801272715 44.16622133017344
231.0028034151748 263.0738117142937 44.25039416510861
237.6840778005228 260.45758131611177 44.371044811658486
217.24803289213972 266.0691964705788 41.08090145555018
229.72202327228115 264.6097855446503 42.899077693568934
219.41998446276736 266.62288740530994 40.39552684545247
221.02321965549118 267.9863153364308 40.17271740992276
223.43072583610387 268.9454472604305 40.82398881512037
225.63366923303735 269.06180459949917 42.5451784688453
218.1609163618968 250.53675796471828 43.82804776283394
218.55891309235912 251.3183558704607 41.40485103944808
219.97618525258372 249.9748857471353 42.655280755493855
216.348226167024 252.6597902039656 42.88197821032048
215.4517689213965 254.98212321540043 41.43337333881998
227.02555533523062 250.71043980964356 42.869561709647826
228.97754394979984 252.12057223435423 43.407236849437076
230.10784005740962 253.94166753985465 41.92533454080224
213.92034756145097 256.37032361141786 42.306127746616
214.05103820489308 258.7530361465113 42.750156560729316
238.55700493569543 255.66381976818457 44.577641693655075
241.0397183464454 257.05822651588176 44.6108642600958
231.81583912549246 255.67346399032428 44.90107918977792
239.08795719490283 258.19214324948734 43.3099930241734
214.71340752328695 261.48011607613387 42.141988309238684
239.28913512887698 261.65469507304607 46.294610603668715
213.55148383423986 263.72340650393016 43.24227615941181
215.6476095029598 263.8666912573653 41.55396225068944
232.5016865274052 262.76940516473627 46.13234362752352
234.33027506040693 260.0602471763034 45.34848748748603
215.17554665304937 265.9180249837647 43.066520406276624
230.79964845269743 264.7645148597644 45.264918596069535
229.64213009863633 266.3670484504696 44.42921139667447
216.35737652880835 268.36907801578866 42.733766932295765
218.63121495901828 268.6401159714359 41.10722903646506
227.95832005183638 267.17398131140976 42.79354394379684
220.91815679263482 270.2251493135681 41.73314133302516
223.49541765570825 271.0229097969285 42.84429961632162
218.0153221534464 250.12600239200967 46.29284679677493
220.45097493342683 249.10326023904796 45.06911455504028
226.0156734460963 250.01551959641503 44.960061808792766
215.2016262531256 253.20888209558402 45.510335989071734
216.70807578566877 251.56480507799645 45.141315000845324
228.06012707493812 250.64517155613038 44.66330665583537
229.4972998878192 251.78235164041035 45.79205389833513
214.56188324869206 254.81257621926045 43.69929017223215
232.6461820566521 255.23605253223596 46.89460368843225
235.54874259217078 255.16138602815946 45.44900421123871
238.01589204315735 253.94267353800717 47.20819580605034
240.93525190718242 255.04917331538803 46.66656500683747
213.38752947469166 256.82575223731106 44.289510529870995
212.74225062831286 258.72779595897146 44.74978845193252
212.75392120031754 261.0682699936445 44.28578912218964
241.9721095079883 257.951353501241 47.07963842505025
212.51966626855085 263.3503007739558 45.35488461194722
236.69912417032563 261.8027035270456 46.88048886554267
238.887890653977 262.0233083120294 48.7965369792198
213.55473919395115 265.7100219020575 45.40771089609802
231.5564461652835 264.97680467424254 47.55045680158005
230.1534540876433 266.670938724024 46.42955987784987
214.6443669037637 267.7929651669726 44.33241188390193
215.45505682126418 270.1222268979824 44.801804245531955
228.77979497864106 268.12805415783447 45.17033183368199
218.26965651285707 270.80146042303306 43.463642456481566
223.52521194268388 272.75966527770936 45.3314398276627
220.92095091867736 272.2644505554848 43.84991507117968
225.54424712773022 270.64499489697477 44.690705376810996
227.13466941678976 269.0487059014828 44.2309716929907
216.09291706481048 251.56031659000985 47.26879198251497
219.7514355032626 249.00848407983025 47.84911066614422
222.27651436357124 248.37209922335344 47.66451031986486
225.20695839826038 248.99362527392543 47.482314658347676
227.8075568696849 250.15381027400701 46.71867006637448
214.08116370401635 253.57308145485592 48.16591448804016
212.47500159352268 255.4614195126427 47.75707548480481
213.351277088577 255.02083061395896 45.879483080885805
229.7824972658788 251.3418288468112 48.47505808742014
212.14266927588469 257.38770374664244 46.53637100684761
231.7839224815137 253.40914730038858 49.03564162109876
235.22864153160586 254.17715430461854 48.211240074430314
237.30103468614726 253.3075940407807 49.956950384630915
233.36710647686905 254.98281246183882 49.39515731185659
240.3172606130326 253.74291776014337 49.80070367414312
211.89020210952646 261.7273983535047 46.85464581467096
242.2681149909429 258.70010546190923 50.26056135383684
240.93078149220676 261.37323388166027 50.76266085360227
211.82562876031278 259.67928756640185 46.14411439650348
212.51030365247607 264.07487920073385 47.48358456402809
236.2437259381722 262.1821465092583 49.60635591433033
238.3498928175514 262.24971716184814 51.551391679991134
213.3037121662082 266.43110699233335 48.17124470856793
231.95799897890058 265.23088888840493 49.98302822317527
230.36721814438374 266.79320529979185 48.809097294211874
213.87718069495267 268.42307037105303 46.450104155111475
214.8526357216492 270.7602090310617 47.4796152248642
228.9866878610173 268.4666218991678 47.54935491927674
217.30086642306856 272.1701849421784 46.33721645747041
223.5739081745015 273.6472859181183 48.41926476047618
220.42182214181645 273.42813326891155 46.75774270647863
225.85875033464 271.89153950839494 47.1321442325787
227.4440827088558 269.8798388283648 46.195916174219356
215.66622066591063 251.61412844557265 49.86559669965961
217.2725945553093 249.96461580747027 51.35684319234033
219.63314769343452 248.9538669642043 50.299639047263064
222.3312158051647 248.48254451517786 50.52397363468001
225.10114936032434 248.85375321987672 50.09398265296741
227.37719172508238 249.81239842278293 49.206912622310234
213.7293563586432 253.2280176581778 51.10019449671956
229.0365496474785 250.47277294603097 50.758007944313675
212.14941283095501 255.00668463269048 49.80054685788764
211.44410356423901 256.8329300199593 48.67265119123687
232.5917828787761 254.23737783969472 51.474422886508705
234.98445117630754 254.10132814263903 50.73407731295665
236.83355586672107 253.29167311047146 52.69395449453242
240.22551040971945 253.79697684805174 53.41181418215874
211.3984751703973 259.5580737932523 48.865098292606774
211.79455556430406 262.38299458518065 49.26928776573684
241.96828713926942 258.17583371971614 53.38748850930503
241.9477154315208 255.84211553241303 51.60090212873851
240.46033793579633 261.2611294565723 53.91620450165474
212.31390283947002 264.73712190466216 49.88765364759846
235.7583801470565 261.8729652203842 52.09238965524684
237.45455796724784 261.9443775028377 53.9476899071549
213.1538756220035 266.9475060339357 50.62482172243537
231.88205791505007 265.1873248244008 52.317998358224024
230.69211284012823 266.97568823222605 51.22810102488013
213.86320750074344 268.8636972163223 49.09342575328729
214.46450045094537 271.2899051678029 50.11969408245109
229.27231044356822 268.7485001057148 50.03743967980014
218.00420773585174 273.4485518045916 49.098942407968615
223.73550584721866 273.7519745540405 51.65450989640747
220.79427938133625 274.24127685289193 50.24291327617232
225.88875227798906 272.19826115678654 50.040594104423704
227.5209582925091 270.26445959348985 48.72444421144135
215.4943446760773 251.66218168189923 52.53637745059903
217.23649427832157 250.2434739782903 53.920315328972244
219.2546327920706 249.1765654957185 52.70736706750015
221.66921776510114 248.62124449691402 53.60284244117073
224.5476782158884 248.8096509718935 52.660293407884716
227.08282382268658 249.578687313101 51.75057620245404
213.57870568300442 253.12711011862163 53.8302373551388
211.96404574582158 254.96932975971882 52.475894343689674
229.38968706043943 250.71169043503363 53.32775069468565
231.46199642972047 252.87932358127816 53.59122611287896
234.55958770192132 254.5402604057542 52.67028944925634
235.17545726604868 254.50901145911175 54.748160900981915
211.21489902202512 259.9810703840802 52.14516031586029
237.69160522975787 253.39972071447204 55.592876756318375
210.72844618014162 257.1605865003239 50.93334234827536
211.59748647111834 262.9126585376217 51.996725384058635
239.91382946576843 258.0076854620439 57.31455634743372
239.20366769909037 260.1998023475164 56.424485109853805
211.20853244795015 261.24966081473576 50.54486921620304
212.64692361747137 265.2772935037745 51.87885015006801
235.37686214814457 261.11435793059013 53.99440099634643
236.51762335212334 260.7709961630227 56.06955439978623
213.29399310741266 267.0351190427351 52.986779575974836
231.77806827859743 264.81171501209354 54.48221550377323
230.66119161562423 266.7296214360344 53.63433227359699
213.78618325354995 269.24709491284693 51.73678237170642
215.3059338225866 271.7365100278667 53.205780539835146
229.20314969807296 268.52902476430444 52.59194735370033
218.1168915999024 273.4248006813509 52.29766823815344
223.79747826425637 273.17845609251685 54.65001378059629
221.111183221855 273.91652723752634 53.41529661738168
225.97857835275067 272.0866915560861 52.96594342678955
227.50784736467583 270.2459233619486 51.40703873928699
215.4345981545934 251.7364291717034 55.14249078637086
217.22332824334183 250.46121216860243 56.484508538713236
219.27955065640782 249.2851608601084 55.23504258057431
221.55696851112282 248.91426570880458 56.684217795443374
224.14388422750994 248.87386502678444 55.49795609562737
226.71954529190822 249.6353754390249 54.43554217628108
213.72188396122203 253.1887623793349 56.4356577152035
228.749837882418 250.46095225918606 56.16789177762209
230.55026901935224 251.80371886503033 55.410439115665845
232.80321422362155 255.2055101016186 53.962830821031545
233.59883198463055 256.43152899864555 56.38332663470985
235.873454903996 254.7506381064834 57.019465411307294
211.37316304572627 260.1304247853797 55.234417242825565
211.11404856327107 257.378087864903 53.893105967260205
211.91749575354498 262.6652458689918 54.72578032336973
211.45461831712709 261.43537353796324 53.532352135147406
212.5635650864476 264.8748241172123 53.90902694097065
232.76859142852874 261.9165989293206 57.30430463069047
213.48463688371206 266.7708295353309 55.42469225515715
231.66557527146855 264.13295970470097 56.6732243652452
230.66585121511093 266.28580452484846 55.99895451807982
213.74327184522636 269.19694898821876 54.36259121688513
216.56552266002132 272.2203226085134 56.20296526979491
229.18313979898565 268.1468667200814 55.11103345339394
218.81954778859074 273.40570011877446 55.08031306001894
223.95449375749195 272.6653335042737 57.50699745351889
221.39694888201245 273.53783489755784 56.33242821034714
225.93164214730237 271.52339597236994 55.759025800028226
227.578808229381 270.0194572444192 54.09425970213038
215.51541734730046 251.9408894209692 57.63286873664132
217.1562261296606 250.72548949696295 58.996684180865216
219.19487859388798 249.5769536468058 57.9116005341059
221.35532316900478 249.35880831637786 59.406480638242996
223.83377831669628 248.99334919309845 58.32372073268022
226.29953747835035 249.66516307613145 57.194124540528094
213.9262846132888 253.2268899401457 58.78612300118063
212.3120910129913 254.68459970949218 57.89154068429601
228.26920992268563 250.6841283763337 58.80530602177668
212.0460007870011 254.9488093767352 55.28840768399303
230.3125810743449 252.00626487606561 57.6459973900962
231.88683109612305 253.8533812345238 56.2247507118857
211.30842170913385 257.33431217279576 57.125174716867875
212.04065917305618 262.08675758549197 57.23863628649295
235.94166245074925 256.7920801264059 57.67633300482604
212.8721884052713 264.4261329212614 56.38210442165974
232.4343701208371 261.39011480293846 59.831249122231426
234.98790478177688 258.67789201120235 56.93188656438295
213.5813553268269 266.4539536044773 58.06075176916645
231.75554653279508 263.5934136379286 58.98875315949652
230.5363077803448 265.59617984566506 58.32084388537671
214.06018089436242 268.84098245668184 56.931123387122014
216.84461046603388 271.7913366418462 59.09436954818554
229.28599877668307 267.6891119733604 57.607859567996876
218.9702135464967 273.0128226655118 57.82798411851808
224.07391542522248 271.9043285726746 60.25664180247981
221.58842975813687 273.07128876777114 59.220583382545534
226.05997638586018 270.9634339042776 58.47919270516254
227.48475750799585 269.4176660503809 56.69866030271814
215.49341760932117 252.12988543818867 59.96514893174516
219.0291656926286 249.95665965120676 60.519322052723275
221.14568025164692 250.05268655545916 61.864522516301406
223.480177941156 249.44702867547804 60.98683934192767
225.84586716060826 250.01769211454507 59.853082331691866
214.03645119216554 253.44097187909162 60.890375383196464
227.59721645837553 251.34216636571017 61.29195015538852
212.94608165605496 254.5049245992361 59.83236008845586
211.78045943196608 256.11500351352 59.71531534563981
229.83362862907993 252.36061229136973 60.195568528279985
211.589222979729 258.52620745561205 59.768940655070494
232.33374215990614 256.4168579784583 59.38463477236886
212.20191325564193 261.2675475889437 60.083493562545605
211.48490126939726 259.9057488578274 57.91374071817343
212.98512235154007 263.93011615483795 59.01573542403687
230.36928620097325 261.0972173885244 61.515331090281556
214.15733075650343 265.80791954910893 60.67108946584593
231.37008710435452 262.9877855619142 60.94305509738693
230.509949064452 264.86942394322074 60.59312248527021
214.445783384388 268.81254715580155 59.852578814060415
216.7297560179246 270.3223706840147 61.557768954778716
229.24604154324325 266.94396470179305 60.041491151511146
219.15748221925858 272.05495056442146 60.5640512176074
224.09837061647295 270.7666358283607 62.682645078215614
221.76452803983656 272.10427318724567 61.97979780046437
225.80965933864553 269.86036029779956 60.92816149689027
227.6374340269968 268.87965542753716 59.27144135654126
217.18252653880378 252.34984719149796 62.890545678284525
218.98646965218396 251.0323462636005 63.02728898492082
221.13826122903924 251.05588096946488 63.60155198647475
223.04421177287261 250.56222559664135 63.18969758186917
225.33450176940693 250.6324278593398 62.33697726498882
215.50391316068777 252.56639742052892 62.06983724443711
214.5183803195871 254.0565658140075 62.498276109049876
224.373416361331 252.40694872700467 63.638870826970866
226.71900383635818 252.29763771891638 63.44149529599312
212.85103343342263 255.19727287806833 61.838322725560396
228.86018797894326 253.22182530221966 62.494454406954695
231.10330693499873 254.44261454147374 61.40937366972676
232.90051529080873 259.12518457390433 57.87896701868946
231.38454111940612 257.03308910491876 62.25844090481119
211.87986497772815 257.20794355200366 61.495337143862095
213.37903665694904 261.27074227910435 62.572237144485065
230.83155483667804 259.21917001346327 62.692871283885204
232.03673428769298 259.07757601756913 60.754144566894865
212.27986106436612 259.2298962473337 62.03438929244815
213.27644877922685 263.4572931981093 61.61586058146365
214.92163458159757 264.7769904159289 63.072303552088
228.6670841558574 261.934851840638 62.81364070718282
229.80207386271724 263.4511944435854 62.25573000052814
215.68295926648227 267.434169392406 62.425264767240954
218.1168309585304 268.3773827753535 63.69397523476848
219.48129848387464 270.7424987817819 63.100292126903234
223.7613038589178 269.1697866325671 64.00216351356444
221.98609943585956 270.3310142982395 64.00615605939537
227.66020746732133 268.1261978775545 61.7894255688287
218.20422365911813 253.01065875552297 64.37489150772923
220.25018723709485 252.282782423826 64.74935849555376
222.3328612074628 252.2910177192857 64.3497436049104
216.20481837078174 254.02142328328253 63.610710705407776
221.50279348865908 253.6162212401738 65.17935557139917
223.65398298974335 253.93700082057924 65.57108510060745
225.56452960268692 253.69256554836684 64.36636056722192
214.42521575043176 255.48763048781115 63.64471892937637
227.35182410746822 254.44983911653884 63.92581526764721
229.68721030816263 255.4095909811774 63.678967038026826
212.78378366821573 257.2307148290896 63.52305155148548
215.40692003183423 261.0293835520865 63.513138101254654
229.47804049984268 257.9327170940857 63.72733514938952
214.1331809533473 259.26135586557496 63.46332874539842
214.82862404955782 262.67223600576494 62.78037183720744
227.38517496216107 261.2370419359249 64.16235554643133
228.94807305516116 260.0169414084477 63.08973608133216
225.11738532694787 264.93971900191906 64.74374557339833
227.7854430082183 263.8417748905666 64.11420782969329
217.27948636283466 265.69461176940143 64.20882586502928
220.12862684786728 266.4448588574232 64.71022120598259
226.82839663090942 266.6457753748977 63.8064005254994
229.0079040071432 265.8509494227536 62.3976328502966
220.28485736343433 268.93297026258404 64.49332032686026
222.2368028111035 268.02802309011975 64.59984120178731
225.7116457374731 268.9416413899427 63.274320273375956
219.84574810147322 254.3761182500853 64.80801194185982
217.82682970332976 255.16737065554247 64.75074688239293
221.5384086456646 255.46064304958605 65.61239736555876
225.61783897076174 255.5115793825554 64.98112538652855
215.0451740505746 257.42620320618397 64.33931981215032
216.11252764282946 255.8750451568928 64.4340984545371
217.20087281113126 257.4010862001234 65.4811927721035
227.50591911235455 256.69581944192544 64.20615647313195
216.03964220534334 259.3083345922187 64.56322703790964
225.58173094706865 257.82578202086245 65.05518959194713
227.5036326478845 258.99535904656204 64.4338679076374
216.89381576465507 260.93434566022484 64.56996103932634
225.48762291783228 260.11682843726516 64.84378649252399
216.9204577116901 262.8922619646882 63.59689309312652
219.18755760380444 263.8349371270298 64.69137815873287
223.17541404403693 263.45236421893304 64.96140164109646
225.42960984386318 262.4632430426675 64.7953572569393
222.74744347958278 265.79428902662147 65.17168241853558
224.48234307890408 267.3380634908889 64.55312469693449
219.46983423110768 256.4149131982917 65.51382351857421
223.57939418974215 256.616276082731 65.6115948527273
219.15983528363148 258.3409019583767 66.06589791503097
221.322378196117 257.9609067336696 65.55515770148364
218.0489432284109 259.52157449197864 64.93090257940322
218.57906311406373 261.60275663228845 65.13863043448936
233.25557805632343 257.0582974344964 44.41099750103286
220.01240458464432 259.8943939143184 65.23527842878548
238.48281155642636 261.45511997476126 55.32211650783438
221.0765588394127 262.03352750507156 65.00595150978799
230.48754725004684 256.3156501594645 41.008823354198256
217.00243650993502 251.1036222433602 61.382856589346225
231.51878528614367 253.90856106928936 58.81146893398417
221.24446848797865 264.31329566704875 65.09520340097065
233.5713488886721 260.07304504371126 55.21610359076221
223.44069998854528 261.16947400175565 64.99678333714033
233.43084779393774 261.52586365491936 52.90792827053715
232.68446311059603 262.69170104575255 54.97264035809791
237.50256918487923 258.59355731099737 57.71090215929578
232.47046763809206 263.4960665971873 53.19482121360983
221.8971128760351 259.97411328742714 65.06275920192644
230.98376105731012 251.88323338725945 51.09740223050072
223.59572852770495 259.013204845738 65.65945102997306
220.69063258137768 248.65798322035437 51.787412517436984
233.87063453370985 261.36143129074674 50.442274812321614
232.62557817055887 263.27502899929243 51.29306505396622
241.8808584920493 260.1012218344684 52.162319616767554
238.70603947978384 253.29040947608516 51.47057447287675
241.43089980265486 259.11291227153885 55.869213501019495
241.78908950473686 255.8180324942715 53.624018750709794
238.46121652506747 255.72678708763564 57.40397848691552
223.74620788863916 248.5730626707327 48.94046558571858
215.54295732255576 270.6358282198868 59.766337468541366
220.96327263205575 248.54267501043952 49.085470882152215
219.1878736401314 272.26838266388336 45.04730495194573
217.5464890119771 249.91896712075228 48.789775836057935
234.2562170869446 261.4613072299052 47.97524737525039
232.5574975169609 263.03173359837996 48.91250477603083
214.90854030627062 270.87655248773956 58.04636095981916
241.3998044262207 260.82040830890327 47.8759388011278
231.0516863710095 253.01198024014462 46.934626226673196
232.2761998114978 255.18450253875338 57.68351234872476
214.57482203776206 270.82846577770056 55.78476598942501
223.5278025849524 249.01848154383262 45.060887319726746
240.98673700523995 260.004936745442 44.75879253901647
217.1688288125766 272.7603660847913 54.203826726340736
216.04865213990504 272.2465297952915 48.69417844145874
230.7407215311211 253.96306563127843 44.738688083281986
224.78636187633302 249.71038217715298 42.79572882254392
222.19498107681642 249.4589398755766 42.70625209631567
216.227976039056 272.69636993455924 50.68901836440919
228.67388481313054 254.91140493844276 39.88225288859786
225.23049917501615 256.1417578627915 37.19163533174639
241.38551977251205 256.0925560609531 55.83945383070036
219.78489108890963 253.9163082449743 37.88021573318778
219.52125933954073 260.5831103177997 37.573662203959074
239.85308651509592 254.14815159967287 56.03914203586565
241.92692261024283 256.09581158397975 49.03370896276107
POLYGONS 874 3496
3 2 1 0
3 2 0 3
3 13 2 3
3 13 3 16
3 433 4 7
3 4 6 7
3 8 6 26
3 6 8 7
3 9 7 8
3 9 0 7
3 1 2 10
3 436 26 29
3 436 29 32
3 0 9 3
3 10 2 14
3 11 9 436
3 11 436 32
3 12 9 11
3 12 3 9
3 3 12 16
3 2 13 14
3 14 13 17
3 15 12 11
3 18 12 15
3 18 16 12
3 13 16 20
3 38 18 15
3 19 16 18
3 20 16 19
3 23 433 5
3 23 5 432
3 24 45 25
3 25 29 26
3 10 30 28
3 30 10 14
3 28 30 31
3 31 30 33
3 14 34 30
3 34 33 30
3 34 14 17
3 35 32 55
3 15 36 38
3 38 40 18
3 18 40 19
3 19 40 39
3 19 39 20
3 20 39 37
3 41 21 42
3 44 24 435
3 44 435 46
3 46 435 21
3 46 21 41
3 21 22 47
3 43 47 48
3 47 22 23
3 47 23 48
3 69 49 45
3 45 49 25
3 432 391 72
3 72 391 50
3 51 49 74
3 51 25 49
3 25 51 29
3 31 56 53
3 56 31 33
3 84 53 56
3 33 34 60
3 35 59 36
3 34 37 60
3 60 37 90
3 36 61 38
3 37 39 90
3 38 62 40
3 40 62 63
3 64 39 63
3 39 40 63
3 67 41 430
3 430 41 42
3 65 68 66
3 66 68 44
3 43 70 429
3 43 48 70
3 100 73 69
3 69 73 49
3 76 75 78
3 75 54 78
3 54 58 78
3 76 78 425
3 78 58 425
3 51 74 79
3 51 79 55
3 425 58 80
3 79 81 82
3 79 82 55
3 55 82 35
3 56 57 83
3 60 90 87
3 86 60 87
3 86 83 57
3 57 60 86
3 59 85 88
3 61 89 62
3 90 39 64
3 118 89 88
3 68 97 96
3 68 96 100
3 97 65 93
3 65 97 68
3 127 95 98
3 127 98 99
3 98 70 71
3 98 71 99
3 100 96 130
3 73 105 74
3 103 75 104
3 104 75 76
3 74 105 106
3 134 101 102
3 102 101 387
3 417 83 418
3 83 417 84
3 417 110 84
3 111 420 80
3 80 110 111
3 81 109 112
3 81 112 85
3 86 87 114
3 113 86 114
3 113 418 83
3 83 86 113
3 85 112 115
3 85 115 88
3 90 64 122
3 117 90 122
3 117 114 87
3 87 90 117
3 88 116 118
3 118 120 91
3 416 93 124
3 124 93 94
3 156 128 123
3 123 128 96
3 127 99 131
3 129 132 130
3 130 132 105
3 167 136 134
3 134 136 101
3 110 143 111
3 143 144 111
3 113 114 147
3 146 113 147
3 146 406 418
3 418 113 146
3 112 145 148
3 112 148 115
3 117 122 155
3 150 117 155
3 150 147 114
3 114 117 150
3 116 149 151
3 116 151 118
3 128 164 129
3 189 162 156
3 156 162 128
3 129 164 165
3 129 165 132
3 132 165 170
3 132 170 141
3 199 166 167
3 167 166 136
3 143 176 144
3 176 177 144
3 146 147 180
3 179 146 180
3 179 400 406
3 406 146 179
3 145 178 181
3 145 181 148
3 150 155 188
3 183 150 188
3 183 180 147
3 147 150 183
3 222 195 189
3 189 195 162
3 199 231 166
3 176 209 177
3 209 210 177
3 179 180 213
3 212 179 213
3 212 398 400
3 400 179 212
3 178 211 214
3 178 214 181
3 183 188 221
3 216 183 221
3 216 213 180
3 180 183 216
3 195 260 196
3 251 228 222
3 222 228 195
3 196 260 235
3 196 235 203
3 209 395 210
3 395 268 210
3 212 213 242
3 241 212 242
3 241 239 398
3 398 212 241
3 211 240 243
3 211 243 214
3 216 221 250
3 245 216 250
3 245 242 213
3 213 216 245
3 280 257 251
3 251 257 228
3 228 258 260
3 241 242 271
3 270 241 271
3 270 267 239
3 239 241 270
3 240 269 272
3 240 272 243
3 245 250 279
3 274 245 279
3 274 271 242
3 242 245 274
3 244 273 275
3 244 275 246
3 257 287 258
3 312 285 280
3 280 285 257
3 258 287 288
3 258 288 263
3 319 291 232
3 270 271 298
3 297 270 298
3 297 295 267
3 267 270 297
3 269 296 299
3 269 299 272
3 274 279 306
3 301 274 306
3 301 298 271
3 271 274 301
3 273 300 302
3 273 302 275
3 314 310 311
3 311 315 314
3 320 291 324
3 291 319 324
3 323 320 324
3 323 324 295
3 297 298 329
3 295 297 329
3 296 327 330
3 296 330 299
3 301 306 335
3 358 301 335
3 358 329 298
3 298 301 358
3 300 331 332
3 300 332 302
3 312 339 313
3 339 307 336
3 307 339 312
3 340 337 338
3 338 341 340
3 316 346 321
3 316 343 346
3 343 313 339
3 313 343 316
3 345 348 369
3 320 323 348
3 348 323 352
3 347 375 350
3 352 295 328
3 352 328 351
3 323 295 352
3 351 328 354
3 328 329 354
3 327 375 355
3 327 355 330
3 353 354 357
3 358 357 354
3 357 358 335
3 358 354 329
3 331 356 359
3 331 359 332
3 359 356 360
3 380 357 361
3 333 380 361
3 361 357 335
3 362 363 336
3 336 363 339
3 364 340 341
3 342 344 365
3 343 366 346
3 343 339 367
3 343 367 366
3 367 368 366
3 365 371 382
3 366 368 370
3 368 385 370
3 369 348 372
3 370 385 373
3 372 351 374
3 347 373 375
3 378 354 353
3 378 353 377
3 351 354 378
3 375 376 355
3 353 380 379
3 356 379 360
3 360 379 380
3 382 384 364
3 382 371 403
3 383 384 388
3 384 401 388
3 401 390 388
3 396 403 374
3 376 390 394
3 396 378 377
3 396 374 378
3 351 378 374
3 376 394 356
3 356 394 379
3 379 377 353
3 382 403 384
3 0 1 433
3 433 7 0
3 435 24 6
3 4 433 22
3 22 21 4
3 24 25 26
3 26 6 24
3 1 27 5
3 5 27 432
3 10 28 27
3 27 1 10
3 55 32 29
3 32 35 36
3 17 13 20
3 17 20 37
3 15 11 32
3 32 36 15
3 17 37 34
3 44 69 45
3 45 24 44
3 66 44 46
3 46 41 66
3 42 21 47
3 47 43 42
3 391 28 52
3 52 50 391
3 55 29 51
3 28 31 52
3 31 53 52
3 84 58 54
3 33 60 57
3 33 57 56
3 61 36 59
3 61 62 38
3 67 65 66
3 66 41 67
3 42 429 430
3 42 43 429
3 68 100 69
3 69 44 68
3 50 428 72
3 72 428 71
3 74 49 73
3 428 50 77
3 53 387 52
3 102 387 54
3 54 75 102
3 56 83 84
3 84 110 58
3 58 110 80
3 82 81 85
3 59 35 82
3 82 85 59
3 89 118 91
3 91 62 89
3 92 63 91
3 91 63 62
3 92 121 64
3 64 63 92
3 94 93 65
3 65 67 94
3 123 96 97
3 97 93 123
3 100 130 105
3 105 73 100
3 103 134 102
3 102 75 103
3 101 77 387
3 104 76 108
3 76 425 108
3 107 74 106
3 107 79 74
3 109 81 107
3 107 81 79
3 115 116 88
3 119 92 120
3 120 92 91
3 119 121 92
3 64 121 122
3 416 156 123
3 123 93 416
3 94 424 125
3 125 124 94
3 128 129 130
3 130 96 128
3 135 167 134
3 134 103 135
3 137 103 104
3 141 106 132
3 132 106 105
3 138 107 141
3 141 107 106
3 142 109 138
3 138 109 107
3 142 145 112
3 112 109 142
3 148 149 116
3 116 115 148
3 152 119 153
3 153 119 120
3 152 154 119
3 154 121 119
3 122 121 155
3 155 121 154
3 157 189 156
3 156 416 157
3 161 126 127
3 162 196 164
3 164 128 162
3 161 127 131
3 131 163 161
3 168 199 167
3 167 135 168
3 137 173 169
3 173 139 172
3 171 138 170
3 170 138 141
3 175 142 171
3 171 142 138
3 175 178 145
3 145 142 175
3 181 182 149
3 149 148 181
3 186 153 184
3 184 153 151
3 185 152 186
3 186 152 153
3 185 187 152
3 187 154 152
3 155 154 188
3 188 154 187
3 190 222 189
3 189 157 190
3 196 162 195
3 196 203 164
3 203 165 164
3 200 231 199
3 199 168 200
3 202 168 169
3 201 170 203
3 203 170 165
3 204 207 201
3 201 207 170
3 204 171 207
3 207 171 170
3 208 175 204
3 204 175 171
3 208 211 178
3 178 175 208
3 214 215 182
3 182 181 214
3 219 186 217
3 217 186 184
3 218 185 219
3 219 185 186
3 218 220 185
3 220 187 185
3 188 187 221
3 221 187 220
3 223 251 222
3 222 190 223
3 227 193 194
3 260 195 228
3 227 194 197
3 197 229 227
3 231 200 232
3 234 201 235
3 235 201 203
3 202 411 233
3 236 237 234
3 234 237 201
3 236 204 237
3 237 204 201
3 236 238 204
3 238 208 204
3 238 240 211
3 211 208 238
3 248 219 246
3 246 219 217
3 247 218 248
3 248 218 219
3 247 249 218
3 249 220 218
3 221 220 250
3 250 220 249
3 252 280 251
3 251 223 252
3 257 258 228
3 263 260 258
3 263 235 260
3 265 232 233
3 233 411 265
3 293 234 263
3 263 234 235
3 293 264 234
3 264 236 234
3 264 266 236
3 266 238 236
3 266 269 240
3 240 238 266
3 277 248 275
3 275 248 246
3 276 247 277
3 277 247 248
3 276 278 247
3 278 249 247
3 250 249 279
3 279 249 278
3 392 312 280
3 280 252 392
3 284 255 256
3 285 316 287
3 287 257 285
3 284 256 259
3 259 286 284
3 288 290 263
3 290 293 263
3 292 293 290
3 292 264 293
3 292 294 264
3 294 266 264
3 294 296 269
3 269 266 294
3 304 277 302
3 302 277 275
3 303 276 304
3 304 276 277
3 303 305 276
3 305 278 276
3 279 278 306
3 306 278 305
3 307 312 392
3 283 284 311
3 311 310 283
3 285 312 313
3 313 316 285
3 316 321 288
3 288 287 316
3 318 393 291
3 291 320 318
3 325 290 321
3 321 290 288
3 322 292 325
3 325 292 290
3 322 326 292
3 326 294 292
3 295 329 328
3 326 327 296
3 296 294 326
3 330 331 300
3 300 299 330
3 334 304 332
3 332 304 302
3 333 303 334
3 334 303 304
3 333 361 303
3 361 305 303
3 306 305 335
3 335 305 361
3 309 310 338
3 338 337 309
3 308 336 307
3 338 310 314
3 314 341 338
3 314 315 342
3 342 341 314
3 318 345 317
3 317 345 344
3 345 318 320
3 320 348 345
3 349 325 346
3 346 325 321
3 347 322 349
3 349 322 325
3 347 350 322
3 350 326 322
3 350 375 327
3 327 326 350
3 355 356 331
3 331 330 355
3 359 360 334
3 334 332 359
3 380 333 360
3 360 333 334
3 336 337 362
3 363 368 367
3 367 339 363
3 362 337 340
3 340 364 362
3 365 382 341
3 341 342 365
3 344 345 369
3 365 344 369
3 369 371 365
3 366 370 349
3 349 346 366
3 371 369 372
3 372 374 371
3 370 373 347
3 347 349 370
3 372 348 352
3 352 351 372
3 376 356 355
3 353 357 380
3 363 362 381
3 381 368 363
3 364 381 362
3 364 341 382
3 381 364 384
3 384 383 381
3 385 368 383
3 403 371 374
3 388 386 385
3 385 386 373
3 386 388 390
3 390 376 386
3 386 376 375
3 375 373 386
3 377 379 394
3 401 384 403
3 401 396 390
3 390 396 377
3 377 394 390
3 1 5 433
3 9 8 436
3 436 8 26
3 6 4 435
3 435 4 21
3 23 22 433
3 72 48 432
3 432 48 23
3 95 429 70
3 70 98 95
3 72 71 48
3 71 70 48
3 424 94 430
3 430 94 67
3 95 424 429
3 429 424 430
3 421 99 428
3 428 99 71
3 428 101 421
3 428 77 101
3 420 425 80
3 420 108 425
3 126 424 95
3 126 125 424
3 127 126 95
3 133 131 421
3 421 131 99
3 136 133 101
3 101 133 421
3 135 103 137
3 140 139 420
3 420 139 108
3 405 418 406
3 405 417 418
3 143 417 405
3 143 110 417
3 158 416 124
3 158 157 416
3 159 414 125
3 125 414 124
3 159 158 414
3 414 158 124
3 160 412 126
3 126 412 125
3 160 159 412
3 412 159 125
3 160 126 161
3 194 161 163
3 163 197 194
3 133 402 131
3 402 163 131
3 133 166 402
3 133 136 166
3 169 408 137
3 137 408 135
3 169 168 408
3 408 168 135
3 174 407 140
3 140 407 139
3 174 172 407
3 407 172 139
3 397 406 400
3 397 405 406
3 176 405 397
3 176 143 405
3 158 191 157
3 191 190 157
3 192 404 159
3 159 404 158
3 192 191 404
3 404 191 158
3 160 193 159
3 193 192 159
3 161 194 160
3 194 193 160
3 198 197 402
3 402 197 163
3 231 198 166
3 166 198 402
3 200 168 202
3 206 409 174
3 174 409 172
3 206 205 409
3 397 400 398
3 209 176 397
3 191 224 190
3 224 223 190
3 225 224 192
3 192 224 191
3 193 226 192
3 226 225 192
3 226 193 227
3 256 227 229
3 229 259 256
3 198 230 197
3 230 229 197
3 198 262 230
3 198 231 262
3 262 231 232
3 202 233 200
3 233 232 200
3 206 399 205
3 265 411 399
3 399 411 205
3 395 398 239
3 395 397 398
3 395 209 397
3 224 253 223
3 253 252 223
3 254 253 225
3 225 253 224
3 226 255 225
3 255 254 225
3 227 256 226
3 256 255 226
3 230 261 229
3 261 259 229
3 262 261 230
3 268 232 265
3 267 319 239
3 319 395 239
3 268 395 319
3 253 281 252
3 281 392 252
3 282 281 254
3 254 281 253
3 255 283 254
3 283 282 254
3 283 255 284
3 311 284 286
3 286 315 311
3 261 289 259
3 289 286 259
3 261 393 289
3 261 262 393
3 281 308 392
3 392 308 307
3 309 308 282
3 282 308 281
3 283 310 282
3 310 309 282
3 289 317 286
3 317 315 286
3 393 318 289
3 318 317 289
3 309 337 308
3 337 336 308
3 317 344 315
3 344 342 315
3 381 383 368
3 388 385 383
3 403 396 401
3 432 27 391
3 391 27 28
3 140 144 174
3 174 144 177
3 174 389 206
3 206 389 210
3 174 177 389
3 389 177 210
3 420 111 140
3 140 111 144
3 77 50 387
3 387 50 52
3 59 88 89
3 89 61 59
3 265 399 268
3 232 268 319
3 324 319 267
3 267 295 324
3 387 53 84
3 84 54 387
3 268 399 210
3 210 399 206
3 137 438 173
3 173 438 139
3 438 108 139
3 217 431 215
3 215 431 182
3 217 184 431
3 182 427 149
3 182 431 427
3 427 431 184
3 246 426 244
3 244 426 215
3 246 217 426
3 426 217 215
3 215 423 244
3 243 272 423
3 149 427 151
3 151 427 184
3 244 419 273
3 272 299 419
3 214 243 215
3 243 423 215
3 423 272 419
3 419 244 423
3 120 415 153
3 153 415 151
3 120 118 415
3 415 118 151
3 273 413 300
3 300 413 299
3 273 419 413
3 413 419 299
3 411 434 205
3 172 410 173
3 173 410 169
3 172 434 410
3 410 434 169
3 108 438 104
3 104 438 137
3 205 434 409
3 409 434 172
3 434 437 169
3 169 437 202
3 434 411 437
3 437 411 202
3 232 422 262
3 262 422 393
3 232 291 422
3 422 291 393
