# vtk DataFile Version 3.0
A great-looking cell
ASCII
DATASET POLYDATA
POINTS 256 double
42.031562181415325 348.61220519682314 3.1602715380450297
31.284460535862564 356.7391718861455 -0.4741205815576355
42.68362056411797 353.30606425300834 6.668511021930549
38.26051814824091 355.9807425649105 3.3525992362756756
29.74828133958676 357.6758650866498 2.935781224082213
34.15313030191934 358.0197609277338 4.322168816958283
34.56381296617685 345.7160761504515 5.675848817766866
27.894508919744315 350.82072518912247 1.5175422454518255
27.400612855514964 357.4027429099167 4.448209281190888
31.703404843760477 357.8274112774848 4.899469874008965
36.65636161798692 357.06744077167747 5.818946857752636
24.255061044197447 354.7118391208629 1.8845659111977655
29.388440144458897 358.18984857938295 5.404753938912257
33.68920696632625 358.27975296509 6.744708164508144
35.478062457510816 358.2057492644661 8.35829221554612
25.515675724264277 345.01916231710464 8.702530612102738
23.185770813904917 348.09554631193663 7.069809060630387
22.959041218571244 355.75468420135627 3.9411930566098423
24.635569266340212 357.37317266933707 6.001127787638859
27.635554818649897 357.73988591842556 7.161173420470031
30.67563492761684 358.3453073262221 7.812840894293621
33.274447042569165 358.3556850848912 9.482862219291984
35.56530221869175 358.5290440042525 10.833154361207884
38.1161706784987 358.0962406576819 9.063457867573181
32.793007211960294 346.4418711789275 15.709867096527988
34.18726039203831 348.3292200013624 15.179587662409775
34.993571085461475 350.45685577901463 16.917285429466194
21.822774317053796 347.6466150502728 9.178288169629933
20.750157961069892 354.0244795650368 5.293602737549116
21.77843506602017 356.61487576449207 6.061660296712491
22.41253936056481 357.44950905202813 8.560244940720594
40.84040267627244 358.3290411285541 13.869354489809549
25.337561088343886 357.7153739669316 9.379452143532992
28.274135255912675 358.0913583805749 9.8699674372909
30.844060304108346 358.6601386176681 11.237766181746986
33.4129962859602 358.84341022999234 11.837380744782275
37.97370855414075 358.5642728361508 12.434933502178163
24.388973216604654 344.72634009556634 12.911133477930909
19.011836740761346 353.674192991984 9.859445769525674
26.688216158582602 357.75411589561884 11.528221053145261
28.496661321083963 358.14826273576267 12.108386865566708
32.224421957258514 358.5170709859373 13.75560646310743
35.09420422481733 358.3538798527663 13.882705344408443
37.91839176012945 357.46061151438613 15.762386874422148
31.849613000993386 345.92033913732223 17.640985317482478
33.87726404493555 350.00617344065415 19.733809272933986
20.034436806747784 355.7861792028547 7.981346050053455
21.609401122192054 357.65053259640774 11.167230045790195
24.22381448836076 357.2409526595502 15.10736730036247
35.29021169241082 357.4460856498464 16.331539742177807
24.309679016286662 357.8116690600526 12.21109616998902
26.94601783512031 357.85625950705565 14.06487134562777
29.770625241251572 358.16440847765176 13.831423728202658
31.135775432762056 357.68568130166267 15.483917984725709
32.02645305209362 348.3683144211245 20.24206005471607
20.02457542190285 348.6992993651828 12.83362135541111
19.249167124300403 351.36437115788686 11.99560131728125
35.241622702802076 353.87713725708875 20.339721589648168
36.39090646851937 356.5897797382991 18.005749980720655
26.224589615101703 357.27317121012686 17.299688577729103
33.18814609163664 358.1818274848242 16.02546393921868
30.244491946576357 347.1854126864197 18.936255153147222
23.149570699130976 345.69832874721254 16.329436163186593
28.68242878612052 357.1375111464283 18.850908340740872
32.74070922806926 356.6749053475393 20.10859950743782
24.84975188716599 356.15534112612966 18.965967132964717
31.339003186506574 357.24612891832504 17.88361278130444
24.851937851248803 347.73249214281475 18.952039892547194
29.733588438580405 348.43338877362925 21.560027066419376
31.971349945221153 350.38469545747444 21.815327208583458
34.07289331546397 352.23141090650853 21.434786579895842
28.9997202704787 353.68808656284824 23.922360885917964
27.459323008324517 348.1720622031982 19.469380091473226
23.70619173051645 351.13264730491187 19.464165339270455
24.76280127823763 351.33941328023246 21.72541355873847
31.501211896690535 353.3176676602115 22.543479103383827
29.481057570853434 350.90914492790364 23.535050903404567
37.041619415908684 354.87501391126403 16.4859062564354
39.2668766870482 354.9198788574835 15.803934077211368
28.007498072828433 347.7279126204437 5.443875591697494
42.362339597975115 354.7101846235869 9.171621722083755
27.047999791815386 352.6821591770214 -0.014632015810109956
37.49871331720061 355.4862874030762 0.6169161384508586
36.620401810361976 352.6233651453965 17.105595167839713
32.3611202122987 346.58600941550515 4.864777099212307
40.94634154875914 357.06566057095154 8.926371325087063
21.780484271020942 347.3703734012588 13.4179575026891
20.93292204467284 349.4178440156672 7.819317867508612
42.46606563064166 351.9437437712143 8.996018409455312
41.59586518001215 356.2550364597613 11.493254340609031
32.29205254799528 355.01563530094865 -2.8094693288344184
31.480192546479064 343.16971252088814 13.568320371622367
23.40295147034163 357.9249237646986 10.311000969542281
28.178440932695974 344.8998918443174 8.563774398525394
36.137794811246486 354.2750694439162 18.550630733066043
22.587969120329596 353.32936020437177 3.021629297361124
40.42723524001867 347.187622616831 5.600516345464101
29.110023547812485 344.02956613547866 10.524055381108242
26.65746188824774 344.4548908031604 11.196563230967955
26.59807691685864 344.2660315401967 14.397946914293316
26.11382560836271 350.14455252017154 3.2296466879509875
24.319035952351793 344.7480794863681 14.944495064341748
32.2527844478178 346.8347620149433 7.374937759410136
24.040179548008364 345.8090747012739 18.34376307397387
39.73613038357824 346.24984803198566 2.254940618086869
30.881232283913448 343.4245792145911 11.271849187537093
29.25564837890195 343.2399279080336 15.517626820284812
28.89552366064668 343.3578272007642 12.700537155047497
41.38712472033134 353.1783822731843 11.670785111387659
28.252351210846594 346.11264768880767 18.46057591242993
33.207811113106615 347.09421390119525 13.435464951560494
32.75849323170096 345.0468454924613 14.134931009882225
38.55252634039989 348.7671327721564 12.611821002300056
41.504117625543444 355.2096295607322 14.22040559712334
29.36771102279219 354.30851297197466 -1.0923320937178385
32.64602347999438 348.272420674331 17.65890789864293
35.70930349927844 357.00947367874676 2.4980645210388155
40.6278168551371 350.2936432273495 10.46847560408884
25.299021083832976 345.0884303041851 16.585667874345752
39.19706822587515 352.6611099893591 -3.1028143803844097
35.09256257430895 346.7247724465729 8.58792110319476
37.91516007110345 351.3809175757473 13.921082421636926
34.17972572088157 347.27182626628723 11.205981758939275
29.957563278339297 346.1676245559781 7.566581244511079
31.06252195367129 344.88385934831126 9.24503885753904
29.89524727373917 344.55955899956183 17.99863068969298
27.601078811174077 344.95723363135886 16.830613833106526
37.608801385868766 347.33492631230615 -3.0295552215677537
24.8367397451114 347.6393957222575 5.66753128566485
28.767613605872672 349.2003998282248 3.787498370597199
41.21085981791479 352.17981027412605 -1.5952486799925318
26.628655062915268 345.573534562123 7.117780855634356
20.48072847070914 357.4271931537701 9.403567075109315
26.37472522389666 348.55801785783166 4.873598925925824
30.211499941854147 349.2715038354049 0.9851806159417386
30.164898057027575 347.37378933244395 5.613625797717572
36.03363380844889 344.98076340038347 0.7923179161648105
34.117287267648614 352.5125084800109 -3.037683425652991
24.837204712500007 346.2842742437859 6.945178128333375
41.23246769066547 347.8755901614476 1.149828741768249
23.19239977920453 345.8530079910082 8.448457844856849
41.87411082009805 354.9240698432572 2.5070159254298505
19.293776689290166 354.3355746626438 12.53121894538051
25.352684155821215 356.77277652831594 2.9201140794658844
42.470588076649314 354.889235086418 5.34916828316877
28.249796505179198 346.36213426920926 6.65678315908617
36.90507597679822 345.3859072690119 3.4482525718012855
22.856829621467202 345.7703405384531 14.215794489484185
38.39616594035032 345.07944743770986 -0.554854752230001
23.954660629811272 352.7057401841625 1.5504246363464613
42.133207557586296 348.8188600800089 5.433519434211141
36.75146319956198 350.79056078831223 -3.2530760382390715
36.47549885775206 351.63535916616894 15.394625405003318
22.647216807374978 352.94334423160024 18.31700698503066
31.563077466171677 355.3132693499744 21.23978703482501
37.72099833958172 353.17489730782734 15.333904829732026
39.55560484937177 353.98835909643856 -0.71722828151858
27.051890101341886 354.9892431827352 22.35397373346918
31.164573047791173 352.04379416010227 -3.1218962755369306
34.37220006934694 348.5566467238812 -2.9034583731718957
36.75232423356164 354.21066276735064 -2.3209616560613653
35.66156261209035 344.6411105701105 -2.117237967384298
34.56702820327261 350.2428013029286 -2.769013269706081
29.873091203639806 355.7031119310194 22.585953962615935
22.474274842881655 350.4796465370368 17.21398290367248
24.130919476624353 351.53714545046734 3.20443010820096
26.24810766173563 346.2869418661919 18.137670457186818
19.07861755344351 352.6980018305803 14.645845703734937
43.24684329520752 351.27292611248276 7.260481097377703
37.82102451496423 345.2122293998937 1.5060862888789306
31.895569020374026 344.08278822292937 16.12604724634271
26.653521017654644 355.32801799692885 0.661012548698896
29.13605772830268 356.5777098709268 0.7592997227520932
31.28902280476961 348.917628067854 -2.0965293927494915
24.052501846932678 349.50841221524627 4.844144507228982
40.34876403938338 347.332041159998 -0.7936576711160149
38.86810293869479 345.6915989131781 4.532771347683315
35.597875538071186 352.0345999931826 19.223942646155635
36.1494855481062 349.81334923811505 14.366158797786579
42.9574165778483 351.21483454489936 2.5208166074759153
40.24823838281111 355.5197407188846 1.5346031133589628
20.116017823870354 353.274092498832 7.784005727550715
35.6837802189143 347.5748435649409 13.207235397767638
23.71375443246953 353.21039213447443 20.474508684614108
43.054792479871246 350.8052257883462 5.216539830230696
38.87874944424059 356.4548722689781 5.0152765855363635
34.07300977716521 357.5799648437743 18.273995697313236
42.7347258014196 353.6186387689518 3.8666112956182963
33.912022330866826 345.40285972899426 -0.17080078260947817
20.639135121046596 351.5575692759802 9.301439917709251
33.573578708977564 354.7735039362251 21.36765999399091
31.332539249576982 347.6742831059388 3.065696610873111
32.49910901535685 345.2636253365171 11.7575424176691
21.542750417045728 347.5433060523629 11.366727918062606
25.354661016345883 353.4409848858686 0.8306095850760624
26.494335454241448 347.1565136228593 6.2844613877718745
20.195639106550598 349.16543102907895 10.26725395318383
22.94267198525015 347.8388214913155 17.454524248795572
20.659633007355886 348.2611286966252 14.70031495420144
32.85367238371279 350.71308293618193 -3.0395644460613367
22.27130766507785 347.4323957088361 15.353376514442532
42.149227919775626 353.3524740917942 0.8284852497403481
26.589999219495585 356.50743800667914 20.018475222518106
41.77849356083471 349.9781764270829 0.19831778880072864
39.59964337247466 353.1516996776695 13.948164110235888
22.33868191391945 346.1322786056916 10.291335172695138
40.27862474539007 358.4317049672572 11.00107530949257
22.495733502152632 345.7698228990697 12.146927082988922
39.6676765701422 357.0566929175008 6.544412717342487
39.42613403925562 347.3001100931962 9.202415126866114
33.62809726180531 345.5568261779635 2.596442775587382
32.641667136777784 346.8397942823744 9.756278624437659
21.209398876729644 351.6353579026321 6.8631074209394445
22.176166460204435 351.46264176659236 4.6518540373553305
20.914550125214515 350.5121751504135 14.640001496374564
32.56293067921578 357.57260757126215 2.0257371518986074
29.069911835293322 351.09769514877854 -1.007375330183982
26.912312710738544 349.5316515254534 22.233581992490677
25.71600874380019 351.83435459978887 1.6681808938570963
34.947835632109 346.7071235161608 -2.9701487287146358
19.454114622008646 356.2289215852222 10.634929353624914
20.129918980580708 356.5074046294873 12.812997973365517
23.565863383152262 349.2623853442489 18.90282032700243
21.22461652705347 352.8135078741614 16.173298548593774
40.135758594089886 349.82560104094983 -2.879152249599413
41.98565189257622 349.40397146057416 7.61153606022244
34.53218967114975 356.40523083414337 -0.7336693349211317
29.01188421262199 357.7448201804033 16.27179606259148
37.65162936704223 345.5446488773193 6.740257980976582
25.302009597714772 349.6367622810465 20.011624248869136
37.280324265611014 346.0863866406084 9.015527110625834
32.00687130116533 346.98608621410875 0.3083658639445502
36.778658023353245 346.86046809113435 10.81206896557811
23.917498448448757 344.84331677734804 10.55184900254028
22.118393322694583 356.8941468587818 13.720190844361122
27.573984821901583 357.0541758220521 2.200972462069165
34.6261149173904 355.56939989082326 19.362773254908966
30.488193455486744 356.7445114996413 20.41774945323995
20.341072743448972 355.24422313153184 15.030961137596174
21.7593051723231 354.98006722416375 17.302348221688526
22.168370927469944 349.91979631165486 6.129359570398484
21.099726168994493 348.7578391368181 16.403783407040674
23.69705430092356 356.28522408018495 17.323048541725203
24.83268065538183 355.1665533112928 20.781081068570437
40.67396644035269 356.8517215864286 16.211000145080906
39.366895859906236 351.4917894651757 12.300941045404754
23.140014992332524 355.06750673326525 19.193017722568115
24.906568554566807 353.5829628690221 22.33673130900901
32.98177539545489 346.183078958021 -2.381201028826951
22.307947005158336 356.34209688578335 15.789970532330582
41.86265841155336 355.7822157507251 6.7840533434662795
28.483579440261828 356.5224577051227 21.004265089553268
40.955040415832165 355.9413708669198 4.262793343444369
34.47691631749463 354.670495735423 -2.4497209076895676
30.673308158620934 357.193719943511 1.2917911653354575
26.411292528755908 352.201357578889 24.210961830316062
POLYGONS 508 2032
3 9 215 4
3 5 215 9
3 235 8 4
3 4 8 12
3 4 12 9
3 5 9 13
3 5 13 10
3 8 18 19
3 8 19 12
3 28 29 17
3 18 30 32
3 18 32 19
3 28 46 29
3 31 36 43
3 50 48 51
3 94 58 236
3 53 66 60
3 59 63 227
3 227 63 66
3 103 67 197
3 68 54 69
3 54 45 69
3 166 72 67
3 229 67 72
3 68 76 217
3 229 217 74
3 20 9 12
3 20 13 9
3 14 10 13
3 14 23 10
3 19 20 12
3 21 20 34
3 21 13 20
3 22 14 21
3 21 14 13
3 29 30 18
3 18 17 29
3 33 19 32
3 34 20 33
3 33 20 19
3 35 21 34
3 42 22 35
3 35 22 21
3 42 36 22
3 30 29 46
3 40 33 39
3 39 33 32
3 52 34 40
3 40 34 33
3 41 34 52
3 41 35 34
3 41 42 35
3 43 36 42
3 50 51 39
3 39 32 50
3 51 40 39
3 51 52 40
3 53 41 52
3 53 60 41
3 60 42 41
3 45 54 115
3 48 59 51
3 227 53 52
3 66 53 227
3 61 115 54
3 177 70 45
3 67 103 166
3 69 45 70
3 70 57 190
3 72 68 217
3 229 72 217
3 115 25 26
3 177 45 26
3 61 68 72
3 61 54 68
3 115 24 25
3 45 115 26
3 64 186 66
3 66 186 60
3 190 75 70
3 70 75 69
3 237 154 64
3 190 154 75
3 70 177 57
3 57 94 236
3 75 163 71
3 76 71 255
3 74 255 247
3 202 251 63
3 63 251 237
3 251 163 237
3 163 157 71
3 71 157 255
3 255 157 247
3 65 202 59
3 59 202 63
3 237 163 154
3 154 163 75
3 202 157 251
3 251 157 163
3 52 51 227
3 227 51 59
3 60 186 49
3 49 186 58
3 60 49 42
3 49 43 42
3 75 71 76
3 66 237 64
3 66 63 237
3 76 69 75
3 154 190 64
3 190 236 64
3 69 76 68
3 76 255 217
3 217 255 74
3 49 58 43
3 43 58 77
3 64 236 186
3 186 236 58
3 57 236 190
3 65 243 202
3 65 242 246
3 48 249 242
3 246 243 65
3 47 234 50
3 50 234 48
3 234 249 48
3 243 247 157
3 202 243 157
3 239 153 246
3 238 239 249
3 220 221 47
3 153 239 223
3 229 222 67
3 67 222 197
3 38 220 46
3 241 200 197
3 200 241 198
3 249 239 242
3 242 239 246
3 47 221 234
3 62 197 200
3 87 189 212
3 87 196 189
3 27 196 87
3 153 183 246
3 212 189 181
3 181 189 38
3 213 240 212
3 246 183 243
3 243 183 247
3 11 95 17
3 17 95 28
3 95 213 28
3 48 242 59
3 59 242 65
3 73 229 74
3 73 222 229
3 247 183 74
3 74 183 73
3 153 73 183
3 164 153 223
3 213 212 28
3 212 181 28
3 73 153 164
3 28 181 46
3 46 181 38
3 214 55 198
3 241 214 198
3 164 214 241
3 196 55 56
3 56 55 214
3 38 189 56
3 56 189 196
3 220 142 221
3 164 222 73
3 240 213 174
3 174 16 240
3 222 164 197
3 197 164 241
3 214 167 56
3 87 240 16
3 27 140 205
3 140 138 15
3 16 138 140
3 46 132 30
3 30 132 47
3 46 220 132
3 132 220 47
3 195 131 138
3 174 128 16
3 174 133 128
3 128 133 195
3 38 142 220
3 16 128 138
3 138 128 195
3 118 99 126
3 213 165 174
3 182 122 232
3 126 166 118
3 118 166 103
3 5 116 215
3 44 115 61
3 115 44 24
3 44 170 24
3 182 232 112
3 112 232 209
3 102 84 6
3 226 215 116
3 24 110 25
3 25 110 182
3 126 109 166
3 126 125 109
3 24 170 111
3 122 182 110
3 124 211 192
3 192 111 91
3 170 44 125
3 61 109 125
3 126 106 125
3 125 106 170
3 125 44 61
3 62 103 197
3 62 118 103
3 1 215 226
3 135 102 123
3 123 102 124
3 135 84 102
3 56 142 38
3 56 167 142
3 7 100 218
3 100 165 218
3 192 105 124
3 105 192 91
3 97 93 124
3 106 126 99
3 105 97 124
3 95 165 213
3 107 98 97
3 50 92 47
3 47 92 30
3 50 32 92
3 92 32 30
3 111 170 91
3 91 170 106
3 91 107 105
3 15 98 233
3 15 93 98
3 99 107 106
3 107 91 106
3 24 111 110
3 97 98 93
3 166 109 72
3 72 109 61
3 200 147 62
3 138 131 15
3 15 131 93
3 105 107 97
3 120 102 6
3 62 101 118
3 62 147 101
3 101 147 37
3 211 124 102
3 122 120 232
3 118 101 99
3 99 101 37
3 123 145 135
3 123 93 145
3 145 93 131
3 192 211 122
3 195 145 131
3 99 98 107
3 147 207 37
3 205 233 207
3 207 233 37
3 15 233 140
3 140 233 205
3 212 240 87
3 198 86 200
3 86 147 200
3 140 27 16
3 16 27 87
3 196 27 193
3 27 205 193
3 55 86 198
3 205 207 193
3 124 93 123
3 193 207 86
3 86 207 147
3 196 193 55
3 193 86 55
3 233 98 37
3 37 98 99
3 102 120 211
3 211 120 122
3 228 120 6
3 84 210 6
3 129 191 135
3 191 84 135
3 129 133 100
3 100 7 129
3 25 178 26
3 25 182 178
3 165 149 218
3 165 95 149
3 149 95 11
3 6 210 146
3 146 210 136
3 4 172 235
3 172 171 235
3 121 178 112
3 112 178 182
3 8 143 18
3 18 143 17
3 8 235 143
3 81 7 218
3 7 216 134
3 228 6 146
3 225 209 96
3 17 143 11
3 171 194 11
3 194 81 218
3 11 143 171
3 171 143 235
3 226 90 1
3 231 191 134
3 149 11 194
3 194 218 149
3 171 172 114
3 10 3 116
3 116 5 10
3 81 216 7
3 14 22 23
3 22 36 23
3 96 209 228
3 96 104 0
3 226 116 82
3 231 134 173
3 134 216 173
3 171 81 194
3 171 114 81
3 81 114 216
3 1 90 114
3 114 172 1
3 3 82 116
3 112 209 117
3 117 209 225
3 135 79 129
3 195 133 79
3 79 133 129
3 195 79 145
3 145 79 135
3 165 100 174
3 174 100 133
3 231 210 191
3 191 210 84
3 120 230 232
3 232 230 209
3 120 228 230
3 230 228 209
3 7 134 129
3 134 191 129
3 221 142 238
3 238 142 167
3 177 94 57
3 178 121 152
3 152 26 178
3 152 121 155
3 94 177 83
3 117 245 112
3 112 245 121
3 85 89 80
3 31 113 89
3 225 88 117
3 89 108 80
3 89 113 108
3 239 238 223
3 108 113 204
3 234 238 249
3 234 221 238
3 26 83 177
3 26 152 83
3 94 77 58
3 152 155 83
3 77 155 78
3 204 245 108
3 108 245 117
3 245 204 121
3 204 155 121
3 88 108 117
3 80 88 2
3 83 77 94
3 83 155 77
3 77 78 43
3 31 206 36
3 31 89 206
3 206 89 85
3 167 223 238
3 164 223 214
3 214 223 167
3 1 254 215
3 215 254 4
3 1 172 254
3 254 172 4
3 36 206 23
3 23 208 10
3 206 85 23
3 85 208 23
3 252 208 250
3 250 208 85
3 2 250 80
3 80 250 85
3 122 110 192
3 192 110 111
3 10 185 3
3 3 185 252
3 10 208 185
3 185 208 252
3 184 187 2
3 3 180 82
3 187 179 201
3 0 203 179
3 224 203 175
3 225 168 88
3 88 168 2
3 225 184 168
3 168 184 2
3 108 88 80
3 226 82 160
3 252 180 3
3 158 173 216
3 0 150 96
3 96 150 225
3 0 184 150
3 150 184 225
3 2 144 250
3 250 144 252
3 2 187 144
3 144 187 252
3 201 141 187
3 187 141 252
3 201 180 141
3 141 180 252
3 184 0 179
3 179 187 184
3 82 180 156
3 156 180 201
3 137 160 151
3 179 203 201
3 90 158 114
3 158 216 114
3 137 158 90
3 201 130 156
3 201 203 130
3 130 203 224
3 160 82 156
3 224 175 127
3 151 119 224
3 156 130 119
3 119 130 224
3 224 127 151
3 151 127 159
3 156 119 160
3 160 119 151
3 160 253 226
3 226 253 90
3 160 137 253
3 253 137 90
3 137 199 158
3 158 199 173
3 199 159 173
3 159 162 151
3 151 162 137
3 159 199 162
3 162 199 137
3 104 148 175
3 148 127 175
3 175 139 104
3 104 139 0
3 175 203 139
3 139 203 0
3 159 248 173
3 173 248 231
3 113 78 204
3 204 78 155
3 231 188 210
3 210 188 136
3 188 161 136
3 104 176 146
3 146 176 228
3 104 96 176
3 176 96 228
3 136 169 146
3 146 169 104
3 136 148 169
3 169 148 104
3 148 136 161
3 161 127 148
3 248 161 188
3 188 231 248
3 31 244 113
3 113 244 78
3 31 43 244
3 244 43 78
3 161 219 127
3 127 219 159
3 161 248 219
3 219 248 159
