# vtk DataFile Version 3.0
A great-looking cell
ASCII
DATASET POLYDATA
POINTS 439 double
224.8239656414874 259.11797294901703 37.193844521941095
226.6684887053732 258.11381853917965 38.738369426555586
226.45216108865569 260.43920961940313 38.5478771071872
224.49228691678718 261.54334661467334 37.91485730545678
222.42484697552928 254.8490273687394 37.103893868017515
227.31545670496243 256.12011736036584 38.57591993162465
220.40520769428534 256.56015329014474 37.57946677860633
222.609759474076 257.60281549859366 36.658996051575095
220.57999098949887 258.66180831397753 36.91281647859128
222.21383307471748 260.3862497135692 37.21982084097898
228.61445054092212 259.59947621509326 38.97453704283484
220.7955999613296 261.91809340816127 38.21789844335411
222.5642633366281 262.66293589719083 38.30105879786523
226.12657490357023 262.54819036400687 39.00251188040487
227.9084969292092 261.6749275835895 39.63219948092381
220.73131572742588 263.8523552781433 38.49943613770228
224.42379512417537 263.638477893989 38.5587371979289
227.3992001809969 263.4007006980646 39.94749940698321
222.71417177948837 264.9038552919816 38.21314253419628
224.37296458234349 265.40409300234876 39.21124787782769
225.91768941191077 264.47264221332136 39.75101559123856
222.2876218164406 252.22186498603696 38.6793234842242
224.49020503873254 253.56886478391658 37.72220183153901
226.54356266397534 254.12977841032583 38.81854419122972
218.15337208526108 255.9450730348666 38.47931356919539
216.92122818998018 257.81420797231675 39.318497277993814
218.6034173524499 258.2327650989699 37.6767445129053
228.79078147531746 257.27291503996145 39.37866584827041
230.66787444200776 258.68565120937853 40.16038514703193
217.5588325674939 260.08591836249667 38.89361200949309
229.84714391954867 260.9675466731517 40.50687358292739
231.26643640944008 260.01945013099856 42.09224450824571
218.65875620494415 262.49961602405017 38.736008472386246
230.80299058139326 262.277405636583 42.145233306119835
228.83874066644407 262.9577341477975 41.11014579185449
217.358864743591 263.8919761700526 40.150341339327376
219.0524803439132 264.8575417454877 39.61892898820617
227.74292295847334 265.04537774501995 40.94537722559695
220.8958189038989 266.03422304983246 39.03610395531118
225.64780948745528 266.95221081519736 40.452995166467026
223.08495129478078 266.99430710962133 39.22878109493922
221.01087035576208 250.68991841322796 40.780713374380284
223.5971714679396 250.34184765294967 40.59480413042074
225.6288193939461 251.08578679371814 41.3273328454391
217.70615414803183 253.717439013253 40.09382898091755
216.68192053637014 255.89856616076978 39.98257278869142
219.82002886170358 252.26565388860868 39.67201747517543
225.01679686266792 252.29521542009763 39.66200033157707
227.27112989948262 252.86358513193383 41.247802949778546
215.5444635397129 257.2314381065748 41.05257110907116
231.59752014365841 255.61837126154668 43.03806788818788
215.68638398924972 259.5464572597749 40.5117366284688
231.83241865136443 257.7907825455628 42.235221806701226
232.50282172071275 259.24810077893164 43.595982996717424
236.6504318091185 257.5091595699148 43.413235506692175
216.52177883818226 261.9156241422717 40.225028207667904
231.91371506423587 261.1359286511205 43.933854976309476
231.32295246345802 263.15714237465687 43.90528305194952
238.145122015391 260.09225126099795 44.507790304430124
217.4065763952423 266.01860470684363 41.24254009958213
230.04945689044223 264.81235779858673 42.54171251939747
219.1994537987838 266.887945618442 39.93150874904557
220.97536343449602 268.1989900473883 40.07441636258827
223.39322747780926 268.9959252614479 40.914589398080665
225.79540114376485 269.32053856471737 42.35824345384456
218.27771436242605 250.67777960220235 43.83868652439442
218.55479412772505 251.23980562295915 41.35254889506868
219.93357659250148 249.7630855628791 42.59497692512285
216.31631981702793 252.54259204051914 42.79086580032105
215.62863454189937 254.96142583750782 41.47757882010839
226.9461911889617 250.8094045631045 42.90052693029231
229.04786385532142 251.99537144119662 43.30682547469006
229.86283375427467 254.04926317883715 41.975201965794355
214.50638015603965 256.4379221058465 42.52132616345806
213.73770170116143 258.7033966415827 42.40594029686031
239.00547078446877 255.15567560387836 44.30878647428326
241.032904518689 256.92462896194456 45.07788017919508
232.25200181102971 255.30548630716538 44.66816550984037
239.6163282344498 257.96267528580825 43.25957510756368
214.57994205947946 261.4825273928183 41.94103628122915
239.53733209598806 261.11876302657714 46.46378292080748
213.75172858926075 263.6758344056631 43.33772391725961
216.01751728695228 263.71667232744977 41.893221464109786
232.4042791843255 262.550537579435 46.008204179964444
234.66155782803995 260.4293570171569 44.59064078106165
215.2195657776668 265.8892289942442 43.06369843033687
231.27352570544707 264.9529045833302 44.98002448563058
229.78353589436023 266.45330907494525 44.28835132953662
216.32736111863582 268.3823244397525 42.69944487859333
218.80944603548463 268.43734424202273 41.507056151183555
227.95068496343245 267.20142197768945 42.76156596143445
220.96482610372652 269.9785316333641 42.0993687902381
223.4873659584764 271.0721144024183 42.903551003057466
217.9843633229158 250.0608485072391 46.24112333242473
220.54041154302627 249.42064651421296 45.118505226821014
225.97963578931186 250.14462843593867 44.99174185220824
214.97707256470176 252.95142072141644 45.373498187738136
216.45054928036143 251.222384486199 44.98789599842187
228.02836656343268 250.65277468527373 44.640615529067375
229.5898667185788 251.65740692754306 45.7218935105808
214.29414669966707 254.54720930050033 43.48867955114851
232.95761853457478 254.87091740403972 46.680680746247255
235.85382887424964 254.84526206150548 45.27537040712717
238.29498447428824 253.6035076983097 47.18211045872476
240.81847628329194 255.20773506524205 46.97914553839372
213.29947328185654 256.7335670675348 44.15819726414961
212.50826997501972 258.6655057293926 44.56155135542018
212.75919209417668 261.05892526090304 44.23023639662851
241.99499498522187 257.7443770382239 47.31372793054694
212.76388350191013 263.27253198079876 45.41287713960626
237.07312749274848 261.71990826426213 46.749506535918336
239.19035561758264 261.80782014985175 48.78911382191391
213.84622740622822 265.56146089017267 45.53029204051398
231.5057893505834 264.83692138420787 47.49926540008991
230.23816623380426 266.66707634193597 46.347010429286904
214.917977288823 267.62142125992585 44.506320861323715
215.80932771780232 269.7490853688188 45.08945116073511
228.83668752696536 268.1547359878366 45.1172683701711
218.31492412328254 270.6822256541992 43.60235874098062
223.47693454960506 272.63493399327785 45.479357738167224
220.94398468724438 271.8871867115256 44.17011293653451
225.72123287882908 270.88020010896196 44.59090297128296
227.24718330087939 269.1777396019346 44.14730971330928
216.00822191353151 251.4310224766471 47.19652295761283
219.80418035479624 249.17441088444488 47.83890800679274
222.2925395593793 248.54889480686163 47.66110488688782
225.22974966461425 248.97964010102964 47.467803001398565
227.80775424729083 250.16167221890106 46.703199382554764
213.82687137951996 253.2957171192897 48.06641845527235
212.3438918113674 255.33292426600613 47.69767878804098
213.24268570903044 254.9011103320394 45.794454482376736
229.90388721953758 251.19780446310622 48.459156730392245
212.12012637065527 257.3366072113717 46.48900811639452
231.8356153619585 253.35928432172543 49.01929595526037
235.49613095240335 253.89059866544164 48.14452920798818
237.55026569199677 253.28444288549906 49.99545134100954
233.6111497421132 254.69572386146857 49.290917298625
240.29130909508538 254.0001421739996 49.85990619214309
211.9170695427025 261.69948893269475 46.82299209215625
242.06140706951646 258.4627915420007 50.258718711408896
241.0786786236067 261.0374084210396 50.73332039218769
211.80797749627743 259.6585564817891 46.091573846393786
212.48392023910526 264.04161841421836 47.47303490287526
236.56346939574394 262.19592517787345 49.56274418594706
238.70091614325918 262.11446834694453 51.54440848664006
213.15203279946 266.39873952663856 48.159570701343995
231.79931571821234 265.0186097996904 50.01544099031719
230.64002911397222 266.8926300891225 48.75077600967274
214.146176389693 268.2193499523044 46.55438514926558
215.04419170278064 270.5065849268434 47.56376951282776
229.1842186958128 268.5662746636474 47.49550289006
217.42196060244527 271.8761371579106 46.490705579555254
223.47450053890913 273.1945522031079 48.549226300653565
220.45062380883508 272.99319231004876 46.95418288537814
225.82937129879033 271.7967449655979 47.197744653611494
227.5538690128171 269.9603271985698 46.16226742636556
215.47922379907214 251.3813648937487 49.8007713339453
217.34999618310573 250.07733628092663 51.31712154897892
219.6485281869515 249.00064986687528 50.27322732143044
222.33865604712145 248.53754707496498 50.51984436135457
225.11903740206338 248.8361466801885 50.107402803853475
227.44171531174408 249.70758002641605 49.21591526922464
213.60227446980227 253.06151433363314 51.056283643978865
229.08396197814898 250.42436805367262 50.81989763613822
212.20038510800404 254.96787726657942 49.787455946307524
211.49793490309386 256.7944707209342 48.68186744510087
232.6965108258702 254.32229850807482 51.575660194812414
235.2030817517779 253.88325640606664 50.77303475068445
237.17871693088645 253.16598203088844 52.74606374040371
240.35675303244457 254.02845414266443 53.206073631897524
211.24610805997824 259.5326800470396 48.810625168323476
211.59906623230182 262.3891993930702 49.21601941664645
241.7951525079802 257.9826487074487 53.092900519855945
241.8611197072606 255.87014180775662 51.48800319335969
240.69666739387569 260.8797040794857 53.72686674205769
212.3805032707356 264.64646205079345 49.875315023018864
236.09296568724366 261.9480465164523 52.20611470708199
237.94795354146365 261.81830279224636 54.03321005922096
213.1200391674704 266.864939336198 50.60891320021028
231.84855791850163 265.03086982582676 52.37492989740426
230.87215249189964 266.9797384242124 51.25159038998202
213.91272720833092 268.7179499632145 49.112133623847875
214.75031819741574 270.9720496001484 50.13183415457407
229.4393329212919 268.780893206289 50.03265157719437
218.15302497769366 272.9478853486251 49.20144189299951
223.6898217386688 273.4372624858922 51.66471387776256
220.82228174214737 273.5836038705884 50.311672272022
225.94324902260195 272.13942189287707 50.06938715603023
227.83788484719497 270.49645423926364 48.69809445382508
215.37894870848066 251.50891687195883 52.498212178050146
217.23269415524527 250.23113666421804 53.8850164332387
219.23114327504246 249.13908973064565 52.680295295761226
221.6613528111004 248.77525438039405 53.58925215001722
224.53821512522646 248.86900152313223 52.68622310056893
227.11631511536905 249.51151643956754 51.80612360927866
213.53367136417222 253.0444133913105 53.80319608234489
211.95149762651562 254.8932734290574 52.439911555010084
229.3649343935 250.75912754373414 53.45047279875871
231.50668931629136 252.92254453349955 53.81120203701433
234.78633065668558 254.23840007618614 52.89871554996776
235.60081861792892 254.10625184317 55.0894758324365
210.9868126898052 259.96627630897905 52.11474848689136
238.29534173366835 253.65632690553286 55.41540873401935
211.24698061134754 257.1985065317769 50.934200757167936
211.5733007045813 262.8693228423889 51.96218194005282
240.3763246751734 257.8186245582778 56.81757905103092
239.8226225407583 260.0241049149857 56.33411269136845
211.25902344383843 261.2054602322251 50.51993957187411
212.6528730308236 265.2004406741938 51.84802672267985
235.77728252509584 261.4572063380495 54.38502551682557
237.22055307469566 260.9524551142866 56.506150955058125
213.37219576052956 266.915474176452 52.94168571356268
231.90155158430807 264.7587586802049 54.60452743406977
230.67294982359488 266.62072120341077 53.67765118905623
213.7121746557088 269.1591869081112 51.7200021068932
215.33001506063937 271.58970367018514 53.173252251920815
229.33560558871724 268.52525128070937 52.609495700065345
218.20530258272 273.02087479551966 52.280955023568346
223.76285961345843 272.84748099518237 54.58650554146912
221.12409313130266 273.49055360705256 53.373112576313936
225.94974004409187 271.8981928104721 52.95066422304375
227.7706166822434 270.3801809323282 51.4170905682542
215.39647052807555 251.66478579539634 55.11382412420372
217.14553906289768 250.3324587951161 56.46709484368235
219.2352927524205 249.20370979845498 55.215569664113374
221.50932773261113 248.74279700340065 56.702839651026714
224.10909625513162 248.94615414186785 55.52642566245355
226.73400243773946 249.55352605083473 54.51603486515625
213.71046282180177 253.13148754718677 56.40870885154194
228.68062146930177 250.51283893255192 56.29933151911016
230.5122695229509 251.82171437603495 55.62368864886606
233.11084347127027 255.2948678051283 54.38305476737341
234.25082268464095 255.70734884932585 57.373474680515464
236.77156263866948 254.53467092146153 57.1753227657035
211.26678066264708 260.1084733436565 55.2115245021117
211.1686458539076 257.34582406406184 53.854219900383974
211.7963316907019 262.650545644437 54.69983830102507
211.36321276902365 261.4085831071068 53.50167003776387
212.62019442273032 264.7816104446251 53.86027344555896
232.69226428482068 261.8462330307498 57.54325923270114
213.52923311894887 266.65974791185465 55.36273807672478
231.75612342048169 264.1019285587922 56.83945717113723
230.66276335677574 266.1911699018463 56.06877086799643
213.91593958898972 269.0142754605385 54.309237557624115
216.65252910353098 271.97430426574675 56.101992511912925
229.31284607100608 268.15441721037473 55.14841099001871
218.8956838925269 272.9837669961123 54.98886937033814
223.95483716755723 272.46336953792047 57.41238159736173
221.40303075779346 273.07941982265004 56.20841484600744
226.02564572067092 271.4876162450669 55.73275361349187
227.715854821172 270.02711287696434 54.10130056878884
215.41345032134691 251.7837359034601 57.61582524962821
217.14096120301718 250.70939742320473 58.972995392583464
219.14180084730071 249.49047425910115 57.912192693282684
221.31240432421112 249.42042709477104 59.388237963408756
223.76932773367875 249.15978399425308 58.33250651609696
226.28062118607022 249.606088206943 57.27896423767963
213.955237367949 253.20767132717813 58.74673112927898
212.45619217943673 254.7309679200509 57.846527846670035
228.2383519015422 250.58960119490774 58.94957114661652
212.02772602919313 254.89135124799083 55.265961178987794
230.2723124190077 251.9486570239499 57.87398364218599
231.88787731457722 253.8118040280733 56.610286350536555
211.34357276003996 257.3092820817691 57.09384936665676
211.94999061903715 262.069953056919 57.218859062236696
236.81232481675755 256.5788402839623 57.225493185889334
212.76597012981253 264.4023578235676 56.345781719628185
232.22221979111168 261.2632259985423 59.95554972526221
235.65449468506398 258.6141008770214 57.530393388509296
213.73922166790553 266.3406765396041 57.95267171914311
231.90454654952205 263.59955175589715 59.18564210858137
230.73519606338147 265.66353841010886 58.46040545176821
214.148094284625 268.685008822181 56.83090664203972
216.9218239959594 271.5765562836582 58.93247135753035
229.4068806426273 267.70977454324463 57.66474401344547
219.04747983724306 272.58237619001073 57.65479623276202
224.07112963901736 271.76972625252586 60.14326680468795
221.5736166092999 272.57242308909736 59.00011643489498
226.0914155328957 270.8993876729568 58.43086922015498
227.69838005398609 269.5155854316155 56.72211737162016
215.38302502200136 251.96861610236346 59.955704098962364
219.03085044583435 250.04164322746826 60.48159944893054
221.10949429656543 250.13028749737694 61.80925110774415
223.3818079770113 249.91004319878365 60.84298905330906
225.80122029721772 249.99531112164493 59.91893473071837
214.12546681055886 253.48716547644716 60.82070685962373
227.4937930503953 251.30819674522803 61.37011872078692
212.96034832552704 254.45866725962938 59.781998732752164
211.85903938854702 256.1006941566629 59.65830201373674
229.7934431247076 252.22785643643905 60.42156838306743
211.477994755453 258.4917258910094 59.7645985114898
232.2337568848797 256.2194506089711 59.723495463405335
212.02814625467147 261.28607439192194 60.11559454379313
211.4052737689912 259.883311502685 57.89996451031938
212.85701216555165 263.9487685122015 58.987831612390345
230.49641192162693 261.0427427880051 61.872294248189654
214.08020348025312 265.81906403254885 60.602000804129595
231.33395251870442 262.91979724579477 61.07715871508645
230.59129902862713 264.89342605558716 60.76363958144558
214.70278304577985 268.64350445301784 59.638089638105946
216.6909277760189 270.2982182421654 61.46466225361713
229.25355003000595 266.9168229350763 60.087400044820946
219.15640609930836 271.88944420919637 60.410435811902175
223.94841992828313 270.4426433131572 62.40992576681635
221.73002048074085 271.64606539937114 61.65708701989348
226.04764305058032 270.04770115843195 60.98380146717043
227.68969260453548 268.8623664032381 59.27181963361967
217.12642819657475 252.2810411467577 62.9130483593572
218.94627212601623 250.98088814554762 63.040900788055446
221.11243353178133 251.27941118401245 63.390343006106946
222.953191092754 250.82069346429893 62.98843963712141
225.28627835078484 250.6137767265866 62.39245745109586
215.46986008556655 252.5085402960651 62.06329919926739
214.45583815598442 253.9772617492113 62.528292131041276
224.43447280508167 252.17531294454665 64.016194579486
226.25727353749403 252.801370024042 62.78367604394212
213.0671274875121 255.27989454513718 61.66757555356098
228.68234426784707 253.19685357363082 62.59493401012134
231.02597864381607 254.32147924458025 61.68636850873825
233.00588945979635 258.94149091633653 58.17550981789213
231.12159806257594 256.9302391541862 62.35923698577264
212.0325279110112 257.17870131016883 61.39952104564828
213.0932254623713 261.34136343593303 62.81719882617687
230.4628627535343 258.98663294596895 62.60381907649894
231.9609950794137 258.9230280401351 60.994306935967266
212.3877592295084 259.1547644718108 61.96143789758329
213.41179158295645 263.427548439726 61.52597914639315
215.20035877061417 264.7073958520332 62.70881269704824
228.84796906988174 261.8270804360204 63.14540202070754
229.88793102251032 263.44028235970245 62.531322469131446
215.7012716803222 267.3917290798658 62.29674729025179
217.9755482839171 268.4370823707058 63.80604517543866
219.4639645108529 270.7002284214589 62.99475420087279
223.7003584948384 269.0145323888962 63.87037876455004
221.99100761602065 270.3625394052453 63.993270671267226
227.53132074660792 267.98126255730284 61.714512974004734
218.3589292748994 253.23231745502616 63.93552860955727
220.25718192432987 252.47294140614295 64.44210969354175
222.30061953698515 252.2732536515979 64.41493258778195
216.29524323354158 254.1099765999898 63.37842927821339
221.45443052534412 253.68937571426346 65.11141728792909
223.5102172817768 254.13035022517 65.19752638556278
225.42579561595025 253.79351559477942 64.25255602209374
214.5824385117707 255.56291070358705 63.396903407235875
227.12923414861865 254.5778541324359 63.807716264720284
229.46007016096704 255.44136835631184 63.721310162317266
213.34821214655665 257.2707430280811 62.92283778846329
214.99943386591386 261.1839013066628 64.22655403159943
228.89304267459002 257.72951866742085 62.95727323143576
213.74638492978337 259.2758925334423 64.00824031153394
214.60050399760013 262.77663890020017 63.16396890808122
227.0190308921691 261.15831286161614 63.48595687302923
228.73156862240694 259.9316531501823 62.79467170936153
224.91769656983993 264.81856780666686 64.48015409550956
227.56456552801842 263.72818693136725 63.999447398598164
217.24128065594502 265.686322474679 64.11810566624709
220.03479097642128 266.4313223637595 64.80944500709754
226.6880421884148 266.5688314694959 63.79058876948461
228.70623523997898 265.6673618293127 62.259101707491254
220.2515077181862 268.92800270712803 64.45325093998237
222.2296810263581 268.0360396851216 64.9313220894108
225.40902364341738 268.5817986517754 62.8765841499986
219.8005081679836 254.42068343656965 64.9161541504137
217.91984329838448 255.318797350926 64.45806862440648
221.4733174662316 255.4990428579479 65.61448411244474
225.4336936936714 255.60216200119214 64.80025554194468
214.9545840849831 257.383250428087 64.47967524835529
216.0972729926059 255.82816180356195 64.46166127952627
217.17258081823869 257.3877002382633 65.38964076825228
227.44930057943196 256.7211688880753 64.51983720215037
216.0618033638855 259.24997289053476 64.26767173630184
225.38675767598417 257.84074371584205 64.82505075643587
227.12002997029705 258.9101763829685 63.83473880968608
216.77759788016155 260.9338411959519 64.70094278038697
225.22276189966607 260.07665761509827 64.42052592909086
216.66628760379072 262.929462636474 63.99182037009412
219.05763693218594 263.8204399414966 64.81050404803311
222.98988919780166 263.3959564793718 64.5543686616127
225.14397850506137 262.39689176610136 64.21724303242848
222.65054119586722 265.67729183044855 65.02657680885861
224.21349133561606 267.0744500832936 64.02003276458001
219.36337507018692 256.3540255182621 65.81925407916593
223.46264198705052 256.6687606105672 65.48936134912428
219.0952407767532 258.2635846015893 65.64406314719228
221.21207426097604 257.9574959217952 65.41846541184181
217.83555039129445 259.61259269660417 65.36524799785491
218.5611631737456 261.5160980240936 64.75785727347477
233.49972798261422 257.0172120529753 44.35191812296527
219.90763035494808 259.9520934179214 65.51468768870009
239.01454960896203 261.17881555398066 55.27109209903066
220.96266113839977 262.0279765365027 64.98980783884005
230.56628642830572 256.21220893043716 40.77197451569023
217.07613960069293 251.22676200566545 61.30737373301872
231.48770282964082 253.77936274194093 59.12963449011214
221.14102775076088 264.2703090121484 64.86762753991928
234.23644045790482 260.46396159339264 55.82977190831306
223.30199264690415 261.19293282098073 65.0177368681015
233.61177847743343 261.2040071724784 53.079423862679754
232.73599356776523 262.5909846779621 55.19449631167829
238.2459061706697 258.3543446516225 57.44356735033763
232.63430229275795 263.38313771291615 53.326572202907656
221.76699830886398 260.0214063581716 65.22760593692313
231.03526413520453 251.87971974086173 51.189113625783776
223.45402291751117 258.99945294388806 65.38863547101847
220.7031226153015 248.76543365846717 51.768858229186236
234.2278474633499 261.5115444908365 50.475937418354036
232.90980178985566 263.2444768764433 51.36251991836125
241.78493220253344 259.7289457964787 52.01316474404386
238.90519170281223 253.3860569887156 51.4526562472625
241.47746893507815 258.76982210312957 55.322595170085506
241.74582810386704 255.8685571812304 53.32229281781953
239.1810506899052 255.62273150043663 57.23869412330278
223.76438215672164 248.56661692366418 48.9344019863283
215.6092981956617 270.502119507873 59.606968507255765
221.00256380017774 248.72951259034355 49.06973296609819
219.12794295864293 272.34081969478024 45.071710015424046
217.56815427080107 249.93609566679334 48.75582886057319
234.46404501997935 261.20006105022054 47.849228715201555
232.82778137407308 263.01731735631705 48.876468977686045
215.1459906861471 270.5868464510329 57.87591810118487
241.57413444625718 260.4925175688465 47.9780310871885
230.99084214918605 253.02313951259669 46.89656752688003
232.30307814417546 255.0242501315094 58.11369200378107
214.7749160993327 270.56643439414 55.696362865621126
223.5362280661594 249.146466499388 45.07643240707413
240.93190268622092 259.4579407618619 45.28095080660781
217.23073255808606 272.48474052230114 54.145316962739926
216.2507834623821 271.88204801370847 48.7774172645269
231.15556805455196 253.57510278740878 44.50185628391131
224.7302174136346 249.94101923787304 42.87401030659735
222.22227670234125 249.70906814068414 42.790964761793845
216.39856756552507 272.3320529059873 50.7028963982572
228.31888073860006 255.17116437527383 40.21695274823862
225.11719543089484 256.1805616533325 37.50976850344354
241.46574051724073 256.130964940608 55.290391439019025
219.83644232423137 253.94436283295664 37.95675946666438
219.74613502854055 260.2877060443161 37.97373021999805
240.24850068868398 254.32911437597755 55.62664449975897
241.8056451460453 256.09651297900086 49.13940091123411
POLYGONS 874 3496
3 2 1 0
3 2 0 3
3 13 2 3
3 13 3 16
3 433 4 7
3 4 6 7
3 8 6 26
3 6 8 7
3 9 7 8
3 9 0 7
3 1 2 10
3 436 26 29
3 436 29 32
3 0 9 3
3 10 2 14
3 11 9 436
3 11 436 32
3 12 9 11
3 12 3 9
3 3 12 16
3 2 13 14
3 14 13 17
3 15 12 11
3 18 12 15
3 18 16 12
3 13 16 20
3 38 18 15
3 19 16 18
3 20 16 19
3 23 433 5
3 23 5 432
3 24 45 25
3 25 29 26
3 10 30 28
3 30 10 14
3 28 30 31
3 31 30 33
3 14 34 30
3 34 33 30
3 34 14 17
3 35 32 55
3 15 36 38
3 38 40 18
3 18 40 19
3 19 40 39
3 19 39 20
3 20 39 37
3 41 21 42
3 44 24 435
3 44 435 46
3 46 435 21
3 46 21 41
3 21 22 47
3 43 47 48
3 47 22 23
3 47 23 48
3 69 49 45
3 45 49 25
3 432 391 72
3 72 391 50
3 51 49 74
3 51 25 49
3 25 51 29
3 31 56 53
3 56 31 33
3 84 53 56
3 33 34 60
3 35 59 36
3 34 37 60
3 60 37 90
3 36 61 38
3 37 39 90
3 38 62 40
3 40 62 63
3 64 39 63
3 39 40 63
3 67 41 430
3 430 41 42
3 65 68 66
3 66 68 44
3 43 70 429
3 43 48 70
3 100 73 69
3 69 73 49
3 76 75 78
3 75 54 78
3 54 58 78
3 76 78 425
3 78 58 425
3 51 74 79
3 51 79 55
3 425 58 80
3 79 81 82
3 79 82 55
3 55 82 35
3 56 57 83
3 60 90 87
3 86 60 87
3 86 83 57
3 57 60 86
3 59 85 88
3 61 89 62
3 90 39 64
3 118 89 88
3 68 97 96
3 68 96 100
3 97 65 93
3 65 97 68
3 127 95 98
3 127 98 99
3 98 70 71
3 98 71 99
3 100 96 130
3 73 105 74
3 103 75 104
3 104 75 76
3 74 105 106
3 134 101 102
3 102 101 387
3 417 83 418
3 83 417 84
3 417 110 84
3 111 420 80
3 80 110 111
3 81 109 112
3 81 112 85
3 86 87 114
3 113 86 114
3 113 418 83
3 83 86 113
3 85 112 115
3 85 115 88
3 90 64 122
3 117 90 122
3 117 114 87
3 87 90 117
3 88 116 118
3 118 120 91
3 416 93 124
3 124 93 94
3 156 128 123
3 123 128 96
3 127 99 131
3 129 132 130
3 130 132 105
3 167 136 134
3 134 136 101
3 110 143 111
3 143 144 111
3 113 114 147
3 146 113 147
3 146 406 418
3 418 113 146
3 112 145 148
3 112 148 115
3 117 122 155
3 150 117 155
3 150 147 114
3 114 117 150
3 116 149 151
3 116 151 118
3 128 164 129
3 189 162 156
3 156 162 128
3 129 164 165
3 129 165 132
3 132 165 170
3 132 170 141
3 199 166 167
3 167 166 136
3 143 176 144
3 176 177 144
3 146 147 180
3 179 146 180
3 179 400 406
3 406 146 179
3 145 178 181
3 145 181 148
3 150 155 188
3 183 150 188
3 183 180 147
3 147 150 183
3 222 195 189
3 189 195 162
3 199 231 166
3 176 209 177
3 209 210 177
3 179 180 213
3 212 179 213
3 212 398 400
3 400 179 212
3 178 211 214
3 178 214 181
3 183 188 221
3 216 183 221
3 216 213 180
3 180 183 216
3 195 260 196
3 251 228 222
3 222 228 195
3 196 260 235
3 196 235 203
3 209 395 210
3 395 268 210
3 212 213 242
3 241 212 242
3 241 239 398
3 398 212 241
3 211 240 243
3 211 243 214
3 216 221 250
3 245 216 250
3 245 242 213
3 213 216 245
3 280 257 251
3 251 257 228
3 228 258 260
3 241 242 271
3 270 241 271
3 270 267 239
3 239 241 270
3 240 269 272
3 240 272 243
3 245 250 279
3 274 245 279
3 274 271 242
3 242 245 274
3 244 273 275
3 244 275 246
3 257 287 258
3 312 285 280
3 280 285 257
3 258 287 288
3 258 288 263
3 319 291 232
3 270 271 298
3 297 270 298
3 297 295 267
3 267 270 297
3 269 296 299
3 269 299 272
3 274 279 306
3 301 274 306
3 301 298 271
3 271 274 301
3 273 300 302
3 273 302 275
3 314 310 311
3 311 315 314
3 320 291 324
3 291 319 324
3 323 320 324
3 323 324 295
3 297 298 329
3 295 297 329
3 296 327 330
3 296 330 299
3 301 306 335
3 358 301 335
3 358 329 298
3 298 301 358
3 300 331 332
3 300 332 302
3 312 339 313
3 339 307 336
3 307 339 312
3 340 337 338
3 338 341 340
3 316 346 321
3 316 343 346
3 343 313 339
3 313 343 316
3 345 348 369
3 320 323 348
3 348 323 352
3 347 375 350
3 352 295 328
3 352 328 351
3 323 295 352
3 351 328 354
3 328 329 354
3 327 375 355
3 327 355 330
3 353 354 357
3 358 357 354
3 357 358 335
3 358 354 329
3 331 356 359
3 331 359 332
3 359 356 360
3 380 357 361
3 333 380 361
3 361 357 335
3 362 363 336
3 336 363 339
3 364 340 341
3 342 344 365
3 343 366 346
3 343 339 367
3 343 367 366
3 367 368 366
3 365 371 382
3 366 368 370
3 368 385 370
3 369 348 372
3 370 385 373
3 372 351 374
3 347 373 375
3 378 354 353
3 378 353 377
3 351 354 378
3 375 376 355
3 353 380 379
3 356 379 360
3 360 379 380
3 382 384 364
3 382 371 403
3 383 384 388
3 384 401 388
3 401 390 388
3 396 403 374
3 376 390 394
3 396 378 377
3 396 374 378
3 351 378 374
3 376 394 356
3 356 394 379
3 379 377 353
3 382 403 384
3 0 1 433
3 433 7 0
3 435 24 6
3 4 433 22
3 22 21 4
3 24 25 26
3 26 6 24
3 1 27 5
3 5 27 432
3 10 28 27
3 27 1 10
3 55 32 29
3 32 35 36
3 17 13 20
3 17 20 37
3 15 11 32
3 32 36 15
3 17 37 34
3 44 69 45
3 45 24 44
3 66 44 46
3 46 41 66
3 42 21 47
3 47 43 42
3 391 28 52
3 52 50 391
3 55 29 51
3 28 31 52
3 31 53 52
3 84 58 54
3 33 60 57
3 33 57 56
3 61 36 59
3 61 62 38
3 67 65 66
3 66 41 67
3 42 429 430
3 42 43 429
3 68 100 69
3 69 44 68
3 50 428 72
3 72 428 71
3 74 49 73
3 428 50 77
3 53 387 52
3 102 387 54
3 54 75 102
3 56 83 84
3 84 110 58
3 58 110 80
3 82 81 85
3 59 35 82
3 82 85 59
3 89 118 91
3 91 62 89
3 92 63 91
3 91 63 62
3 92 121 64
3 64 63 92
3 94 93 65
3 65 67 94
3 123 96 97
3 97 93 123
3 100 130 105
3 105 73 100
3 103 134 102
3 102 75 103
3 101 77 387
3 104 76 108
3 76 425 108
3 107 74 106
3 107 79 74
3 109 81 107
3 107 81 79
3 115 116 88
3 119 92 120
3 120 92 91
3 119 121 92
3 64 121 122
3 416 156 123
3 123 93 416
3 94 424 125
3 125 124 94
3 128 129 130
3 130 96 128
3 135 167 134
3 134 103 135
3 137 103 104
3 141 106 132
3 132 106 105
3 138 107 141
3 141 107 106
3 142 109 138
3 138 109 107
3 142 145 112
3 112 109 142
3 148 149 116
3 116 115 148
3 152 119 153
3 153 119 120
3 152 154 119
3 154 121 119
3 122 121 155
3 155 121 154
3 157 189 156
3 156 416 157
3 161 126 127
3 162 196 164
3 164 128 162
3 161 127 131
3 131 163 161
3 168 199 167
3 167 135 168
3 137 173 169
3 173 139 172
3 171 138 170
3 170 138 141
3 175 142 171
3 171 142 138
3 175 178 145
3 145 142 175
3 181 182 149
3 149 148 181
3 186 153 184
3 184 153 151
3 185 152 186
3 186 152 153
3 185 187 152
3 187 154 152
3 155 154 188
3 188 154 187
3 190 222 189
3 189 157 190
3 196 162 195
3 196 203 164
3 203 165 164
3 200 231 199
3 199 168 200
3 202 168 169
3 201 170 203
3 203 170 165
3 204 207 201
3 201 207 170
3 204 171 207
3 207 171 170
3 208 175 204
3 204 175 171
3 208 211 178
3 178 175 208
3 214 215 182
3 182 181 214
3 219 186 217
3 217 186 184
3 218 185 219
3 219 185 186
3 218 220 185
3 220 187 185
3 188 187 221
3 221 187 220
3 223 251 222
3 222 190 223
3 227 193 194
3 260 195 228
3 227 194 197
3 197 229 227
3 231 200 232
3 234 201 235
3 235 201 203
3 202 411 233
3 236 237 234
3 234 237 201
3 236 204 237
3 237 204 201
3 236 238 204
3 238 208 204
3 238 240 211
3 211 208 238
3 248 219 246
3 246 219 217
3 247 218 248
3 248 218 219
3 247 249 218
3 249 220 218
3 221 220 250
3 250 220 249
3 252 280 251
3 251 223 252
3 257 258 228
3 263 260 258
3 263 235 260
3 265 232 233
3 233 411 265
3 293 234 263
3 263 234 235
3 293 264 234
3 264 236 234
3 264 266 236
3 266 238 236
3 266 269 240
3 240 238 266
3 277 248 275
3 275 248 246
3 276 247 277
3 277 247 248
3 276 278 247
3 278 249 247
3 250 249 279
3 279 249 278
3 392 312 280
3 280 252 392
3 284 255 256
3 285 316 287
3 287 257 285
3 284 256 259
3 259 286 284
3 288 290 263
3 290 293 263
3 292 293 290
3 292 264 293
3 292 294 264
3 294 266 264
3 294 296 269
3 269 266 294
3 304 277 302
3 302 277 275
3 303 276 304
3 304 276 277
3 303 305 276
3 305 278 276
3 279 278 306
3 306 278 305
3 307 312 392
3 283 284 311
3 311 310 283
3 285 312 313
3 313 316 285
3 316 321 288
3 288 287 316
3 318 393 291
3 291 320 318
3 325 290 321
3 321 290 288
3 322 292 325
3 325 292 290
3 322 326 292
3 326 294 292
3 295 329 328
3 326 327 296
3 296 294 326
3 330 331 300
3 300 299 330
3 334 304 332
3 332 304 302
3 333 303 334
3 334 303 304
3 333 361 303
3 361 305 303
3 306 305 335
3 335 305 361
3 309 310 338
3 338 337 309
3 308 336 307
3 338 310 314
3 314 341 338
3 314 315 342
3 342 341 314
3 318 345 317
3 317 345 344
3 345 318 320
3 320 348 345
3 349 325 346
3 346 325 321
3 347 322 349
3 349 322 325
3 347 350 322
3 350 326 322
3 350 375 327
3 327 326 350
3 355 356 331
3 331 330 355
3 359 360 334
3 334 332 359
3 380 333 360
3 360 333 334
3 336 337 362
3 363 368 367
3 367 339 363
3 362 337 340
3 340 364 362
3 365 382 341
3 341 342 365
3 344 345 369
3 365 344 369
3 369 371 365
3 366 370 349
3 349 346 366
3 371 369 372
3 372 374 371
3 370 373 347
3 347 349 370
3 372 348 352
3 352 351 372
3 376 356 355
3 353 357 380
3 363 362 381
3 381 368 363
3 364 381 362
3 364 341 382
3 381 364 384
3 384 383 381
3 385 368 383
3 403 371 374
3 388 386 385
3 385 386 373
3 386 388 390
3 390 376 386
3 386 376 375
3 375 373 386
3 377 379 394
3 401 384 403
3 401 396 390
3 390 396 377
3 377 394 390
3 1 5 433
3 9 8 436
3 436 8 26
3 6 4 435
3 435 4 21
3 23 22 433
3 72 48 432
3 432 48 23
3 95 429 70
3 70 98 95
3 72 71 48
3 71 70 48
3 424 94 430
3 430 94 67
3 95 424 429
3 429 424 430
3 421 99 428
3 428 99 71
3 428 101 421
3 428 77 101
3 420 425 80
3 420 108 425
3 126 424 95
3 126 125 424
3 127 126 95
3 133 131 421
3 421 131 99
3 136 133 101
3 101 133 421
3 135 103 137
3 140 139 420
3 420 139 108
3 405 418 406
3 405 417 418
3 143 417 405
3 143 110 417
3 158 416 124
3 158 157 416
3 159 414 125
3 125 414 124
3 159 158 414
3 414 158 124
3 160 412 126
3 126 412 125
3 160 159 412
3 412 159 125
3 160 126 161
3 194 161 163
3 163 197 194
3 133 402 131
3 402 163 131
3 133 166 402
3 133 136 166
3 169 408 137
3 137 408 135
3 169 168 408
3 408 168 135
3 174 407 140
3 140 407 139
3 174 172 407
3 407 172 139
3 397 406 400
3 397 405 406
3 176 405 397
3 176 143 405
3 158 191 157
3 191 190 157
3 192 404 159
3 159 404 158
3 192 191 404
3 404 191 158
3 160 193 159
3 193 192 159
3 161 194 160
3 194 193 160
3 198 197 402
3 402 197 163
3 231 198 166
3 166 198 402
3 200 168 202
3 206 409 174
3 174 409 172
3 206 205 409
3 397 400 398
3 209 176 397
3 191 224 190
3 224 223 190
3 225 224 192
3 192 224 191
3 193 226 192
3 226 225 192
3 226 193 227
3 256 227 229
3 229 259 256
3 198 230 197
3 230 229 197
3 198 262 230
3 198 231 262
3 262 231 232
3 202 233 200
3 233 232 200
3 206 399 205
3 265 411 399
3 399 411 205
3 395 398 239
3 395 397 398
3 395 209 397
3 224 253 223
3 253 252 223
3 254 253 225
3 225 253 224
3 226 255 225
3 255 254 225
3 227 256 226
3 256 255 226
3 230 261 229
3 261 259 229
3 262 261 230
3 268 232 265
3 267 319 239
3 319 395 239
3 268 395 319
3 253 281 252
3 281 392 252
3 282 281 254
3 254 281 253
3 255 283 254
3 283 282 254
3 283 255 284
3 311 284 286
3 286 315 311
3 261 289 259
3 289 286 259
3 261 393 289
3 261 262 393
3 281 308 392
3 392 308 307
3 309 308 282
3 282 308 281
3 283 310 282
3 310 309 282
3 289 317 286
3 317 315 286
3 393 318 289
3 318 317 289
3 309 337 308
3 337 336 308
3 317 344 315
3 344 342 315
3 381 383 368
3 388 385 383
3 403 396 401
3 432 27 391
3 391 27 28
3 140 144 174
3 174 144 177
3 174 389 206
3 206 389 210
3 174 177 389
3 389 177 210
3 420 111 140
3 140 111 144
3 77 50 387
3 387 50 52
3 59 88 89
3 89 61 59
3 265 399 268
3 232 268 319
3 324 319 267
3 267 295 324
3 387 53 84
3 84 54 387
3 268 399 210
3 210 399 206
3 137 438 173
3 173 438 139
3 438 108 139
3 217 431 215
3 215 431 182
3 217 184 431
3 182 427 149
3 182 431 427
3 427 431 184
3 246 426 244
3 244 426 215
3 246 217 426
3 426 217 215
3 215 423 244
3 243 272 423
3 149 427 151
3 151 427 184
3 244 419 273
3 272 299 419
3 214 243 215
3 243 423 215
3 423 272 419
3 419 244 423
3 120 415 153
3 153 415 151
3 120 118 415
3 415 118 151
3 273 413 300
3 300 413 299
3 273 419 413
3 413 419 299
3 411 434 205
3 172 410 173
3 173 410 169
3 172 434 410
3 410 434 169
3 108 438 104
3 104 438 137
3 205 434 409
3 409 434 172
3 434 437 169
3 169 437 202
3 434 411 437
3 437 411 202
3 232 422 262
3 262 422 393
3 232 291 422
3 422 291 393
