# vtk DataFile Version 3.0
A great-looking cell
ASCII
DATASET POLYDATA
POINTS 408 double
84.65278914760427 255.94774949133017 72.52693797740133
88.53818661638506 261.47294201439166 65.62777425785626
96.23418365753044 258.1310180950944 72.37059230678558
91.7433234877432 257.56792171403623 68.78823318572212
85.99266888437089 262.5613969904837 65.69432758479037
96.46576151292575 259.4331948453726 77.36231927803819
85.0665585908458 270.85659528544414 66.98659070715456
93.61744477406862 262.13924905250605 66.88212486056587
92.01463078556964 270.88971854682677 67.3058501657745
94.98088484814835 266.7509479763199 78.79822726305598
85.00475462562144 274.83783496729166 69.04081520535436
92.53261187612584 273.8957770505178 71.48959083876869
87.29908519667005 254.3599639122529 77.66077273785518
93.73679480459452 264.2766921557472 84.43833065729946
92.48615239470762 274.0999124019155 85.41581152729893
81.32724643137942 262.82652923792625 85.09731944085082
90.18347210890988 259.58607569355377 84.59007732522825
92.37644861893921 275.193654719848 73.25841504054009
92.0936525049046 275.83701224308425 82.23727412017729
88.79584429556358 276.30261851715863 70.44568957870462
85.23393727257867 276.67935321483924 70.49674124164683
88.11157700663628 279.0997556402997 82.25552667560424
84.33680765666995 279.12080055100915 76.99788911109393
94.07973309471403 270.6018134919997 83.14056172975472
89.84817968266408 276.8612164555747 86.89917315571304
87.85079056847789 279.0274240066011 84.27866756087138
87.79700146565868 271.39178156602617 90.01348707188824
82.6129288550113 277.68848939326017 73.6902448992679
81.64346790556756 269.48325349908157 87.32513931909611
81.62555992174639 280.2464678427728 83.05474044143944
87.25995227499749 278.7740045937647 74.91984121690307
95.0601835655066 264.27271823927407 80.68941009528773
87.2271689331979 277.32551982303227 71.08684056516293
84.15933399311218 278.41522840726026 73.24112207120726
86.49639037140422 279.596748491517 81.28843118647974
94.53033550878935 270.82622956288935 73.26708083526215
92.79098425858479 274.9069499387159 81.1651378148242
85.18470757880982 280.0439244271081 82.11634953133331
82.96396392227251 279.27892066577624 78.11560046351441
89.29016024002526 268.5797172112389 88.57689919092059
81.96919200524952 263.3148487275814 67.61744998262981
80.25534083104206 276.93084149076213 76.6437432777688
93.60808984915202 273.1502875551664 80.48254475013155
94.34717981221199 255.4637218830058 78.36380039958141
92.21148894498843 253.79392544115612 76.2240308453111
95.20681929244849 262.218052810727 80.9144441902449
89.63252088437916 261.4534461154041 85.60266831391345
88.62960050344225 255.1474483308182 71.55193496509158
94.47274470063228 263.94417413798203 67.8229963586232
86.59405908531697 265.8033800622441 87.75522374921648
96.18203700329099 261.85713374724145 76.692544110001
96.5571471309778 258.00128786829 74.97490286384028
86.33802580203263 256.9410868667896 68.69235136394279
84.97627184771605 256.45100292517014 69.94772654675263
84.99786046202263 257.3598781736547 83.31365519543097
92.58770904645507 256.1054361710782 70.22168621851894
91.3854250416039 276.8945459697099 77.41536860961082
88.318293702172 259.63378884430125 66.46975099890751
93.79568398429092 273.41791031566754 77.11317890820645
93.27305826268193 274.360017129226 75.22103911638735
92.82564355888483 259.55725308281427 67.4940215570442
80.32426614284508 259.2018169248715 70.336104657716
89.9362407195628 270.99755745248774 66.54259283803698
87.12637648599745 279.0947865300308 76.50899939401492
75.2725909107126 265.6895927155771 80.32836975836634
81.45269153467002 265.22836242327804 67.958186094952
93.93354621816052 254.42868841628805 73.95266852160248
90.3051874429065 267.12764134119476 65.2140425200003
90.52326353613341 255.48327116958916 70.7842709829636
86.1287029893276 272.1768341192195 67.05393645241155
78.88945829764438 258.9897246875761 75.4457879284124
83.07162424375662 256.68404109185724 81.07247507850138
76.75788888836608 261.3347967584269 75.62979184326831
78.66385847878941 258.72916779735465 78.37982145460313
82.21985182895753 256.45886686455884 77.36219090526285
86.29210437398254 264.103736809308 87.08403665931235
83.09305662762766 262.1636425166114 85.80375851497283
93.78870641095328 258.1573443181819 81.73462709277416
87.10670292970477 255.22732392303232 72.2043999994385
90.7555288666503 255.96048958006978 81.31762653084046
95.96745883490506 260.90417483601567 71.51818220996492
95.45824754316652 257.6564808214944 79.6489463992815
80.68192353813657 258.4439539542947 81.86279992267283
89.50416110278894 257.7681861757975 83.44458091513913
85.58679369557 255.13339961546384 76.57863597803305
92.37307929754753 254.13297593970347 78.10944826130823
95.44569547999966 265.4549919788117 73.62026929370937
91.81180202577822 267.26458801619174 65.99456975091874
95.68461267266973 264.0333421010881 77.69176255134016
91.44222984598461 276.68440322479853 83.20712988914033
79.85819172850968 264.4908902375458 69.05187767052075
85.99968596936586 255.98851648881325 81.06976682686997
87.93355016252784 258.00331262946526 67.73520700230054
80.79257348738312 257.1655535949152 79.36476831399808
94.64172997196073 267.2393670456808 69.760435388358
95.34893857012898 262.95879930797844 69.36472053786319
82.1985153957479 256.9792047691549 72.14100817858588
86.99198445404532 275.5961979014659 90.14204062261024
77.6674070385828 268.04887499332114 72.69216614207141
91.69028362502844 274.16282182588134 87.21659447140617
88.05933260826295 264.0802175436105 65.00282178572759
84.59935528649866 279.4915169801859 78.76483082091146
95.68890386418978 261.709621373938 79.12901584666804
82.926287419573 271.4949228605475 68.13320452601428
92.1223566542689 270.4504801727852 87.43356008287931
93.32715397123961 274.2466729890878 79.01699148015844
77.08842543581966 270.4535487688641 75.88842168436264
83.22539881286619 275.53430277343284 70.58379357274764
93.11021491512007 260.2440270903211 83.46183177439204
76.91445172727438 265.52057717226376 82.61523461079491
86.4053091738885 279.71663804440215 83.14619656607098
93.3384653372836 272.01160010914646 84.76939482678097
96.12061930167691 259.7790528333022 79.47346557741442
94.58208373426079 264.3023560492385 82.65864312950947
93.54012328436869 273.1475320910792 73.19167690968156
75.71298479113179 268.67162765834627 80.44975365083451
90.75686786025695 264.9340205450124 64.9699487376493
92.467166948225 264.30232786022765 85.85137005296598
77.79507702743028 270.4741812839182 82.18749674304325
91.76834644108604 268.6974360833461 87.43282835904247
91.95777682140171 276.1713451410443 75.37720144220063
80.33588900681923 273.1311161342692 72.66960125123596
93.25504221753602 255.28452533141783 72.12641437933964
86.54801369973652 254.85996710751266 74.75206607957004
92.50708074297071 274.85514145820923 83.3422405452067
78.10781654630158 270.3601714371422 73.89203685620544
89.01895751675703 277.1350762774245 72.21073700125662
93.93519346009982 268.32456228374707 84.4463354858018
84.77574736210182 272.89090988953416 67.8374731269996
93.52498622358927 270.38293150534037 69.09143969989093
89.92406748265397 257.8339569859122 67.89095882529617
78.11715437081584 260.64481230894756 72.91466146252773
78.41201288536061 263.7564165291757 70.40946264979539
78.93426793374032 273.31367559880766 76.78278722230696
77.72240484323984 271.46185200843337 77.42050836259823
95.12205357338586 266.2190920302721 71.3798494981545
94.19413205254895 272.3330179978215 78.85010604173726
84.62952019066043 255.71766147810573 78.45688594698635
95.075590885679 268.1670476846007 76.58606753892992
89.26164093850454 278.4187513730224 79.29414455614553
78.96744189408587 274.80859795146506 83.63559248108058
81.4838923929017 278.588266647937 77.3681135889765
94.9419729344151 270.1975205461975 75.76867063238811
78.40663515684675 272.76522632448285 78.89190860070684
77.293855325313 270.98062547098084 79.59376588513335
90.34801339762764 259.4282171751569 66.71315524690301
87.54621239857735 278.824182417479 85.95953877302559
92.16303833133227 268.969226511805 66.37562139363722
94.4633552638324 268.99136212212954 70.85588959092193
91.30691344728044 275.6335589025794 86.30310176617617
88.04835370495023 279.14165110052465 80.24050973013158
87.50929961901853 273.18592133649196 90.23400126717043
92.14361467364205 272.14234587765367 86.9347572203654
89.73034901122189 272.582425612836 67.49104364371551
93.50966747111067 272.9611587448482 82.55905160578189
78.30828350186803 271.64208820429536 75.65915158244488
89.96976488411613 255.11073989340892 79.43502972727713
79.81295094070903 274.9508910807897 75.39259047713595
83.94879149836976 255.78335948123532 75.44633578449533
91.56800210671128 276.83700797758297 81.22439488346946
90.40951015346192 277.6975774432623 75.69314405207646
91.29874545755065 254.60190413198313 72.58163526926823
86.04208584576607 268.49088361825693 66.20464101719378
94.99397402947012 259.8931032569731 68.85813215822071
87.13162756388635 275.75822474449564 69.45363228680512
78.87083409323924 277.46925291308 80.15257515749857
87.89662932043015 278.9324888417477 78.12165399934216
76.64248373224967 261.8886288287095 80.65623767150328
92.78289699474033 255.89385032664626 80.50293206785256
78.81409372995883 278.44135166895694 83.41359182032461
80.09153639281347 279.8048648484733 84.29419538004427
79.39437754158011 275.23884574415627 77.1732100854444
78.51620300730777 269.0435033795289 84.25818461149878
91.17970081064847 261.990436003331 65.32219180624372
96.50834586305976 260.5757379316765 74.40700990742786
78.8395728466151 276.84061943747724 86.67725029886279
87.00008212676862 262.39756966737974 86.48249242545714
94.84023700106411 269.8807183489037 78.48880328887697
80.05373251710093 260.71165151893075 83.56725138827252
79.39831436336397 272.77995954694927 74.20326464587654
88.34103286677599 266.9528434594505 65.1288303366961
83.56727069745673 268.78710719120187 88.0396018516758
79.28985814621144 273.2203768221409 84.89610404059601
94.06767447482083 254.41109695665324 76.01391864624391
82.90548584155543 273.6685744648926 69.1752323735284
84.8588198295761 279.7876068967913 80.581244177651
79.87325060364239 279.1266652954195 80.37418138423286
86.50244854489962 259.9516219276529 66.3391845982117
81.91997767038355 280.18728623646706 84.9716217022467
85.3047522981187 259.27410354872694 85.03890770852168
77.29458005684586 263.15561486243496 72.10733471875467
79.41954057955459 278.50082948413507 87.68843451970872
83.79499071657068 280.0192652578015 85.27451223555802
81.98865670702833 277.64247739010483 89.32064075589675
84.86371301982514 258.1108929710108 67.72615699482947
88.79276082179196 266.87089857704115 88.37946295292464
80.06049167240319 269.89259089955004 85.94024582151506
95.0649905604507 260.29888734494125 81.12605171451892
89.31031227774795 254.5117114320484 73.47724252649029
83.43111755594208 280.0567777445563 82.01888420906862
79.07745754122794 271.2131880795171 84.34273681350936
78.73800754869708 273.9432092546444 80.0444636595364
90.90114393031125 273.2267819168264 88.66673481741567
84.79805590034474 270.2336241810474 89.16701373533327
89.72382812437864 278.05557022787474 83.40466025476398
89.11882096757735 274.4103287052775 89.50469210093729
85.13956571555184 278.43223588973547 88.69117546628497
86.00897618679497 255.54875745175465 71.05540268094265
93.58046667883313 262.24840326300443 84.27667409614905
95.36875352519013 255.87431777469072 73.96623991002949
87.69393694292005 260.7407717053693 85.65411794506922
83.63740510155571 277.30335192219894 71.90701696900645
88.00340783923008 268.9481164035214 65.66709565513318
83.01749638507498 256.35912591742647 73.71564021386453
93.19127061366301 270.08169835661323 86.18353566070779
90.18832036724966 253.9688586522857 76.42856957352245
78.75887541748943 269.5293985760007 72.23808934236465
85.4429627147681 268.4583476021911 88.54992908051253
76.74628294202911 268.07653646633327 82.90782962861928
83.0892782584434 265.8883876660821 86.39853002836418
80.53259972076596 274.6060112455017 73.35256798813533
94.45252945805491 266.06605442111356 82.73289689956395
81.18189500991747 258.02886610615167 71.11781060793703
82.55300900783917 279.87402929358393 86.8606751936697
79.22298308764941 261.70238599023526 70.26597737201288
80.21151954827752 277.88283945168934 89.3182266427523
90.70857816147127 276.7992097888659 73.59124124557862
78.79060487456131 278.6706563739337 85.59876072496408
96.00501962570873 263.4203822425279 74.80240134404181
76.13106813678058 263.6936022634293 81.28080749602039
92.89300759082317 271.7080911903542 69.01575250700559
86.00107109762679 279.26894529567124 77.59856028428507
83.87184777059667 278.687433725474 75.10466944854662
94.99451286632618 267.97993665285355 73.92154053050001
83.87123024323355 258.6464887053156 84.3024957033889
80.83507189959454 276.0197557004171 89.04785303461134
76.1449887247637 269.68733276722867 77.670870727362
79.61394809359396 271.8796956219246 86.02553234337685
85.52025305691559 278.08472591997173 72.11453371149408
78.2723375376159 266.9693727372608 83.94461350377536
82.09745898321277 272.8161717033067 89.28892464560728
82.52090313020955 257.9044422536854 69.65765068068009
86.8336085088161 256.8510811630215 82.66215301915119
80.4877220063009 273.9183586091065 88.64799573447856
88.86145647131958 270.51293356821174 89.3089135414969
92.38762910912304 263.54117062093934 65.67883919081702
83.47004991705822 256.5575462742871 70.98113978282683
79.99060076682436 271.2759994146473 71.74941838690867
89.78045062702691 278.17146307347747 81.14187173688603
94.64419807157138 265.4743292531166 69.02432768621891
81.42210276976516 257.0837242711189 74.79522835836215
82.96971162276563 259.17090589670653 67.88603449216747
89.29727085026222 272.2375026358513 89.67597436478836
75.74814489423466 262.20429478978235 77.35656804911488
79.694218013545 275.3688107135426 87.5762317093358
78.84610854379686 272.75704438173983 82.8914120710919
84.48817508619325 267.2119323518331 66.53378021166877
80.95376610417692 268.53747959925107 86.38919861183292
94.42077213113849 257.2955661668891 70.17024103895498
75.65481326759097 267.0006941948516 81.86391461863091
81.62232706725354 265.4197417449343 85.65207537596818
93.49085268281563 268.08481976688597 68.03223799528881
84.62827200312039 279.95351728249136 83.59888811721052
95.23338333279574 265.94965450880045 75.90875892493521
81.55723121490087 272.1146925364656 69.8429932408119
87.1217090455278 273.5368447070616 67.88692130186578
91.75110885732575 275.7020910098397 84.68644237389307
82.87969625482448 278.893304538029 76.58251666759291
88.6990761788333 276.40310507372624 88.60967774613341
88.27051599226569 265.40720688196706 87.86248030460095
85.61648546411088 277.2406547412054 89.99893043631496
92.06071249596663 253.99127970655562 74.3047507565958
78.94070690795206 278.3746080560447 81.64725134519786
87.65837592258565 254.98259060728836 80.08698478405294
90.74238660622109 270.81175346076526 88.47116881358568
86.43553655269402 278.7972051326926 87.25109791038918
81.9958556762468 277.9196711953981 75.62037372945927
93.02790519995474 273.51558374499234 84.03766399034184
95.92764994896547 263.7191453862088 72.01875951708281
91.36554582230423 257.52687989801944 82.6548887850106
94.27403527777764 271.28075019973005 80.83062758897626
81.83890430946508 276.09773561036855 72.37511242193447
82.65290822055884 260.1298813555819 85.06321123341621
88.97456628787421 263.07264494602384 86.82049034805293
87.73921486115043 270.9356524941273 66.47837350946264
84.63536607963073 275.74528477988474 90.47553207095766
85.64284495473358 278.84169528782905 73.9629949287894
79.14711321950313 276.384234184209 78.47932921645705
81.54682106977053 279.8400193189558 81.11092206457978
87.16722173198556 267.32427471890065 88.28216980503828
92.12995112894549 275.98016184867896 79.22717963610467
79.1106472808993 259.8173022882384 71.35269097266321
82.61961628732305 256.3362645188119 79.08573653065046
81.37199301274066 259.2136724200731 83.62830987357721
83.3049321610908 268.76870751285594 67.39519293309995
83.12783788260613 279.7661016077915 79.93464648982138
89.7433068692791 264.7436473237754 87.56908549836444
84.02292183072292 263.660351112259 66.40369759343665
83.08509849305584 280.2343228633438 83.78714775782852
78.88099567083393 274.5468962952179 78.58950884656913
86.11642976983963 271.7497959136908 89.79046498275949
88.28065978828066 254.11942887822178 75.54081740701479
83.5957156869661 264.09077744708054 86.23434076907647
88.94452798223584 277.9950243968179 74.22475540056752
89.60759084676394 263.064960551916 64.9120858529081
90.38181234415421 266.38622942523875 87.8235625945301
82.68133129144037 275.9620032301596 89.93691848324522
79.73097239239134 273.5104868354361 86.81593077650437
82.28237229668882 267.46857724663204 86.58251756812189
92.10051517468112 260.6511387707013 66.35152454871134
75.23635694796897 266.8981884659858 77.69876343615852
78.03540037663119 262.71133764055855 82.59158159413202
78.15853371139717 265.7397156837762 71.05332103007254
78.38331419017595 260.04934441936 80.97110884526526
89.3513330442113 274.7628027562654 69.00438946496037
76.1455297471056 263.15216359787786 74.1732539359948
79.97871174693425 278.1522599227654 78.58088744064268
75.45397364144199 264.14596235520116 76.39942198210542
92.83736232736001 266.3269084001973 86.23201191781621
91.20699407836175 264.3838830724861 86.96837889452992
86.31836508812007 255.07290515395633 79.3782983252722
85.8807976257293 279.40515323851764 85.22166422836176
76.33337289394487 268.2863005651406 75.21813659161943
85.69977337387392 265.56121012671684 65.94613959038809
80.12827075476014 267.443969627586 85.31593725232874
75.47097479780982 263.2033744915088 79.05708638893046
78.52797350802506 276.5473318267766 82.17374508785733
93.68997891685086 271.9228519823551 70.76510154910828
84.5266581573901 279.34791571145416 87.00239250392345
88.61660964394021 278.5669883016628 76.16993434389886
90.62201180654372 276.95066647287155 85.04382110325928
78.66659479221238 274.369256473235 81.64010331408436
93.86489106504595 266.2556388955567 84.51737984788531
88.1558942010185 277.87608674948785 87.24833146178692
80.25262480224552 257.47647727058126 77.04867716232667
94.27656746299876 272.35150965315387 75.2635638063309
94.4235260762734 271.65063640279976 77.09850264727476
80.49095384981837 279.82558282614735 86.41974758339924
79.3982551416083 266.48934105146486 69.6300676980822
81.20322103445099 279.4654073768789 88.55028697592418
76.85639736355725 261.94534902316923 73.61202511209075
79.28746994515377 268.3832507374986 70.60859003038466
86.8801546818694 277.4646713429535 88.7232870653266
93.64454424280518 258.35611020692494 68.54617825045493
93.14106473129615 268.3526245396236 86.22915649724268
82.67345726215446 258.20959817953667 83.35787925736686
90.08775329796664 269.11152118115524 65.8067493486711
94.64826596654456 268.5020308903941 81.36012577585088
91.7900863595698 273.2803712533037 69.25376541770595
83.84208778704793 260.95748646858993 66.89100214232232
81.8480785618651 274.56808644076733 89.52547601754776
81.4300383446676 279.32071287486696 79.1798582760449
79.55327134669464 258.5114442948914 80.17936930516179
95.87843713477506 256.5305518406884 76.8129553398723
90.70630108973431 277.5466700037922 82.25439811887281
81.09391503860392 269.9732306335094 69.1476513784404
90.48775923734223 275.2933994012925 88.0936677690218
93.31250352566707 265.12126259306734 66.63894949808275
87.6333954896256 256.0915841324837 70.03907663770727
91.67438138750775 262.39325766015907 85.36088888604937
94.77231309214265 266.4117271953727 80.89118758470275
74.9371615480488 264.9560922084341 78.37255689269044
80.0980052207958 258.58622138952364 72.56372599911082
88.73242531514686 256.2574696336995 82.04344408340104
81.40306240343313 260.5399964767448 68.45615423368295
84.07332170912815 272.2170423666094 89.69433065106377
89.77886701047306 278.12504987620645 77.66401311847889
87.05928361587546 269.63682172580246 89.41025273118912
80.36712251045648 262.45625507402724 68.50594568868163
86.3180084512314 279.4068604768875 79.4266584461006
83.38495197171399 274.13494625298864 90.17393438226419
87.32531497045531 278.2244601931843 73.00988055187304
93.89097260199235 270.3014279657863 84.71681394089342
75.58566437432006 266.2589349320656 75.68973075997259
94.60584922031096 262.5261932539554 82.63585385225761
80.97120539558313 267.091838265325 68.53956688328354
78.81032805873814 275.5527606132071 80.18289764725927
84.73583143460613 266.4782858301971 87.41074553756586
95.11908069809547 256.3387771175753 71.98039419976121
87.61711177644845 258.17662416126717 83.92845727478985
76.4200338937696 265.57341149322565 73.78265199752266
80.9595060692901 276.53819271417905 74.40504403423401
79.1865636128214 276.8094187288405 88.47993575130704
85.70427124265447 279.0697669074418 75.83282538905775
89.56199541981803 256.90204381767285 68.96524378908185
83.13795303486594 265.8677438535093 67.15662909416305
80.5906468504423 271.61458629834465 87.8376780489347
83.85382016493702 277.41410787652853 89.65720823332892
85.04785471124754 261.74403386649135 86.18576854973568
77.61999469172065 259.82963416851936 76.96494158204595
89.0220579358191 278.038063115456 85.50665104820717
79.58767272255398 262.72478851713413 83.99945083806351
90.82448419492178 275.5623926759891 71.18263877780996
90.71815382979594 277.49704469754056 79.32390653175923
82.77179057161436 270.84244857042125 88.61476572853464
78.54012919490924 276.720113397056 84.56297890647622
81.41120533675303 273.82539800032333 71.3484725104068
83.21214079067273 278.72764636339707 88.37690481369896
92.7276563874289 275.2455678283228 77.226471050471
76.71734070117094 260.7798100360501 78.48672757522446
95.78451419028988 258.94509230852816 70.55332278789801
85.44472351036639 273.7371012970332 90.3786629815675
80.01663604821786 279.51566816440743 82.29072875794054
79.39425526074272 264.80197399998787 84.18863078529456
79.13457265501745 275.07791586829785 85.71154307786624
95.49567146414597 264.6411787506445 70.39322806845588
78.31609984597536 272.5475871943308 80.87450726071695
96.24900695781469 262.164346986514 73.18312752024315
POLYGONS 812 3248
3 109 311 403
3 396 264 247
3 396 184 264
3 308 324 260
3 260 324 403
3 15 302 260
3 260 403 15
3 184 103 264
3 324 239 403
3 103 355 264
3 341 247 355
3 355 247 264
3 157 220 179
3 143 134 144
3 133 134 143
3 125 179 247
3 157 133 171
3 155 106 134
3 155 134 133
3 121 179 220
3 236 144 134
3 144 236 115
3 239 172 218
3 172 118 218
3 310 236 322
3 403 239 109
3 310 115 236
3 322 236 106
3 106 236 134
3 125 322 106
3 218 118 115
3 115 118 144
3 155 125 106
3 133 157 179
3 125 155 179
3 179 121 247
3 247 121 396
3 396 121 220
3 341 312 98
3 380 322 98
3 98 322 125
3 155 133 179
3 218 109 239
3 196 172 324
3 172 239 324
3 312 380 98
3 355 375 341
3 312 190 380
3 355 294 375
3 294 385 375
3 103 294 355
3 6 284 162
3 11 348 392
3 392 348 314
3 265 153 284
3 153 348 8
3 9 138 177
3 9 263 138
3 138 263 233
3 9 177 347
3 103 6 294
3 294 6 162
3 184 10 128
3 347 127 221
3 142 177 138
3 138 233 142
3 274 104 152
3 152 104 214
3 274 119 104
3 104 119 214
3 366 329 166
3 14 99 152
3 14 149 99
3 99 149 356
3 177 336 136
3 177 142 336
3 336 142 335
3 204 248 21
3 214 344 127
3 127 344 318
3 214 119 344
3 344 119 318
3 388 75 302
3 283 269 75
3 172 200 118
3 154 36 124
3 281 211 107
3 159 393 248
3 248 393 139
3 335 114 59
3 105 136 58
3 233 135 148
3 393 56 366
3 398 120 56
3 136 280 177
3 177 280 347
3 166 139 366
3 139 393 366
3 150 139 166
3 105 42 136
3 154 280 42
3 42 280 136
3 328 275 321
3 321 275 146
3 398 58 59
3 59 58 335
3 6 69 284
3 284 69 265
3 6 128 69
3 69 128 265
3 101 295 185
3 185 295 199
3 105 290 36
3 233 35 142
3 327 114 35
3 185 369 101
3 150 166 369
3 39 119 274
3 290 105 398
3 105 58 398
3 214 111 152
3 152 111 14
3 139 150 248
3 248 150 21
3 371 30 303
3 383 22 231
3 226 120 17
3 267 232 276
3 199 295 288
3 328 321 192
3 192 321 262
3 281 27 211
3 27 33 211
3 21 110 25
3 128 10 265
3 10 164 265
3 303 126 371
3 303 226 126
3 126 226 392
3 37 110 34
3 34 185 37
3 286 371 238
3 371 32 238
3 232 383 286
3 232 22 383
3 383 30 286
3 286 30 371
3 347 23 127
3 347 280 23
3 221 332 13
3 13 332 318
3 221 127 332
3 332 127 318
3 14 277 124
3 124 277 154
3 14 111 277
3 277 111 154
3 262 37 199
3 150 369 34
3 34 369 185
3 127 372 214
3 214 372 111
3 127 23 372
3 372 23 111
3 166 231 369
3 369 231 101
3 231 22 101
3 22 38 101
3 329 63 166
3 329 30 63
3 63 30 383
3 101 38 295
3 267 22 232
3 267 38 22
3 166 63 231
3 231 63 383
3 99 356 202
3 202 152 99
3 238 33 286
3 286 33 232
3 371 126 32
3 366 160 329
3 10 20 164
3 398 59 120
3 59 17 120
3 11 17 114
3 17 59 114
3 150 34 21
3 21 34 110
3 398 56 290
3 290 56 393
3 21 25 204
3 348 153 314
3 314 153 265
3 159 18 36
3 36 18 124
3 159 89 18
3 18 89 124
3 314 19 392
3 19 164 32
3 392 17 11
3 392 226 17
3 303 160 226
3 226 160 120
3 164 20 32
3 32 20 238
3 11 327 348
3 11 114 327
3 396 107 184
3 184 107 10
3 220 281 396
3 281 107 396
3 184 128 103
3 103 128 6
3 392 19 126
3 126 19 32
3 142 35 335
3 335 35 114
3 335 58 336
3 336 58 136
3 164 314 265
3 164 19 314
3 329 303 30
3 329 160 303
3 120 160 56
3 56 160 366
3 124 266 14
3 14 266 149
3 124 89 266
3 327 35 148
3 148 35 233
3 119 305 318
3 171 41 157
3 406 201 143
3 171 287 41
3 143 299 133
3 133 299 171
3 143 201 299
3 262 298 192
3 199 29 298
3 110 262 321
3 110 37 262
3 308 257 324
3 324 257 196
3 308 28 257
3 257 28 196
3 402 170 29
3 140 395 326
3 201 331 376
3 201 406 331
3 141 351 38
3 141 316 351
3 111 23 154
3 154 23 280
3 211 20 107
3 107 20 10
3 29 288 402
3 326 165 376
3 154 42 36
3 36 42 105
3 235 382 254
3 316 287 165
3 165 186 316
3 376 299 201
3 295 38 351
3 186 288 351
3 186 272 402
3 276 141 267
3 267 141 38
3 41 316 141
3 157 381 220
3 220 381 281
3 28 386 196
3 171 299 287
3 287 299 376
3 118 406 144
3 144 406 143
3 351 316 186
3 204 330 89
3 330 24 149
3 28 181 394
3 28 308 181
3 175 395 404
3 404 395 140
3 381 157 41
3 295 351 288
3 199 288 29
3 169 227 170
3 326 272 165
3 165 272 186
3 165 287 376
3 169 326 395
3 169 272 326
3 276 27 381
3 381 27 281
3 272 169 402
3 402 169 170
3 287 316 41
3 186 402 288
3 382 191 175
3 337 227 191
3 191 227 175
3 199 298 262
3 185 199 37
3 170 227 337
3 298 188 192
3 298 29 188
3 193 225 235
3 33 238 211
3 238 20 211
3 225 191 382
3 397 223 339
3 339 223 337
3 192 223 328
3 328 223 397
3 275 328 206
3 328 397 206
3 381 41 276
3 276 41 141
3 200 255 118
3 118 255 406
3 227 395 175
3 227 169 395
3 170 337 188
3 188 29 170
3 192 188 223
3 223 188 337
3 175 254 382
3 175 404 254
3 382 235 225
3 370 350 240
3 285 401 97
3 97 401 151
3 193 339 225
3 406 255 331
3 331 255 140
3 33 27 232
3 232 27 276
3 181 308 377
3 200 182 255
3 376 331 326
3 326 331 140
3 248 354 159
3 159 354 89
3 248 204 354
3 354 204 89
3 159 290 393
3 159 36 290
3 240 386 394
3 394 386 28
3 275 333 146
3 333 268 24
3 285 387 306
3 370 365 401
3 39 305 119
3 356 205 202
3 205 97 151
3 394 365 240
3 240 365 370
3 97 270 285
3 206 387 270
3 270 387 285
3 151 26 252
3 240 243 386
3 243 235 254
3 386 237 196
3 237 182 200
3 204 25 390
3 390 25 146
3 268 205 356
3 342 206 270
3 270 97 342
3 350 370 306
3 306 235 350
3 24 356 149
3 24 268 356
3 268 333 342
3 181 203 394
3 203 365 394
3 285 370 401
3 285 306 370
3 255 182 140
3 140 182 404
3 24 390 333
3 333 390 146
3 204 390 330
3 330 390 24
3 386 243 307
3 307 243 254
3 152 202 274
3 202 252 274
3 203 300 365
3 300 401 365
3 146 25 321
3 25 110 321
3 97 268 342
3 97 205 268
3 342 275 206
3 342 333 275
3 89 330 266
3 266 330 149
3 26 300 367
3 367 300 203
3 289 39 367
3 26 244 252
3 252 244 274
3 26 367 244
3 235 243 350
3 350 243 240
3 237 386 307
3 307 182 237
3 182 307 404
3 404 307 254
3 302 219 260
3 260 219 308
3 302 377 219
3 219 377 308
3 289 217 377
3 203 181 217
3 217 181 377
3 193 387 397
3 397 387 206
3 401 300 151
3 151 300 26
3 151 252 205
3 205 252 202
3 274 244 39
3 244 367 39
3 269 195 289
3 289 195 39
3 269 305 195
3 195 305 39
3 203 217 367
3 367 217 289
3 235 306 193
3 193 306 387
3 196 200 172
3 196 237 200
3 225 339 191
3 191 339 337
3 193 397 339
3 16 108 359
3 359 319 283
3 318 305 319
3 13 208 374
3 374 208 108
3 13 359 208
3 208 359 108
3 197 374 108
3 215 156 12
3 90 368 224
3 224 368 364
3 90 40 368
3 368 40 364
3 108 16 279
3 399 73 313
3 73 70 334
3 8 129 261
3 261 129 148
3 129 327 148
3 123 158 0
3 261 249 357
3 1 187 4
3 313 178 311
3 282 15 178
3 16 210 379
3 224 131 190
3 131 362 70
3 318 117 13
3 13 117 359
3 318 319 117
3 117 319 359
3 13 113 221
3 221 113 31
3 13 374 113
3 113 374 31
3 116 100 180
3 100 1 4
3 95 163 7
3 249 94 135
3 135 94 148
3 249 261 94
3 94 261 148
3 283 296 269
3 269 296 305
3 283 319 296
3 296 319 305
3 261 357 87
3 87 357 116
3 228 86 263
3 228 278 86
3 86 278 135
3 168 156 85
3 85 156 215
3 158 84 137
3 137 84 12
3 158 123 84
3 84 123 12
3 363 83 379
3 379 83 16
3 363 279 83
3 83 279 16
3 215 198 271
3 92 194 187
3 163 95 80
3 80 95 278
3 168 79 156
3 156 79 363
3 168 279 79
3 79 279 363
3 0 78 123
3 123 78 198
3 108 77 197
3 108 279 77
3 77 279 168
3 388 76 282
3 282 76 15
3 388 302 76
3 76 302 15
3 75 377 302
3 282 189 388
3 189 54 379
3 31 88 9
3 9 88 263
3 88 228 263
3 40 349 364
3 4 187 349
3 362 250 70
3 70 250 334
3 137 74 158
3 334 250 74
3 74 250 158
3 334 93 73
3 87 147 261
3 261 147 8
3 87 346 147
3 147 346 8
3 178 313 82
3 197 112 102
3 102 112 5
3 197 81 112
3 112 81 5
3 250 362 96
3 173 145 1
3 334 74 93
3 278 405 135
3 135 405 249
3 278 95 405
3 405 95 249
3 72 131 70
3 137 91 71
3 71 91 54
3 346 67 180
3 180 67 116
3 346 87 67
3 67 87 116
3 2 378 258
3 258 378 122
3 2 209 378
3 378 209 122
3 183 66 209
3 209 66 122
3 183 271 66
3 66 271 122
3 54 242 379
3 379 242 363
3 54 91 242
3 242 91 363
3 40 65 385
3 385 65 375
3 40 90 65
3 65 90 375
3 388 176 75
3 75 176 283
3 388 210 176
3 176 210 283
3 123 301 12
3 12 301 215
3 123 198 301
3 301 198 215
3 363 273 156
3 156 273 12
3 363 91 273
3 198 161 271
3 271 161 122
3 198 68 161
3 161 68 122
3 323 162 180
3 311 167 313
3 313 167 399
3 167 325 399
3 92 384 358
3 3 68 384
3 384 68 358
3 190 132 224
3 224 132 90
3 190 312 132
3 132 312 90
3 115 310 64
3 8 62 153
3 153 62 284
3 8 346 62
3 62 346 284
3 224 364 61
3 61 364 241
3 93 71 82
3 92 57 145
3 145 57 1
3 92 187 57
3 57 187 1
3 102 88 31
3 163 60 7
3 60 3 145
3 122 55 258
3 258 55 3
3 122 68 55
3 55 68 3
3 7 245 357
3 357 245 116
3 7 173 245
3 245 173 116
3 194 349 187
3 194 53 241
3 358 52 92
3 92 52 194
3 358 53 52
3 52 53 194
3 197 77 81
3 81 77 168
3 81 353 5
3 353 183 209
3 3 130 145
3 145 130 92
3 3 384 130
3 130 384 92
3 5 51 174
3 174 51 2
3 51 209 2
3 5 50 102
3 5 174 50
3 50 174 228
3 377 49 289
3 289 49 269
3 377 75 49
3 49 75 269
3 249 48 357
3 357 48 7
3 249 95 48
3 48 95 7
3 358 47 78
3 78 47 198
3 358 68 47
3 47 68 198
3 283 46 359
3 359 46 16
3 283 210 46
3 46 210 16
3 374 45 31
3 31 45 102
3 374 197 45
3 45 197 102
3 215 44 85
3 85 44 183
3 215 271 44
3 44 271 183
3 183 43 85
3 85 43 168
3 43 81 168
3 2 80 174
3 221 360 347
3 347 360 9
3 221 31 360
3 360 31 9
3 311 391 403
3 403 391 15
3 311 178 391
3 391 178 15
3 346 212 284
3 284 212 162
3 346 180 212
3 212 180 162
3 313 352 82
3 82 352 93
3 313 73 352
3 352 73 93
3 353 209 51
3 51 5 353
3 325 361 317
3 317 361 310
3 325 64 361
3 361 64 310
3 190 315 380
3 380 315 317
3 315 72 317
3 388 189 210
3 210 189 379
3 82 71 345
3 345 71 54
3 81 43 353
3 353 43 183
3 399 389 73
3 73 389 70
3 399 72 389
3 389 72 70
3 100 4 323
3 323 180 100
3 163 400 258
3 258 400 2
3 163 80 400
3 400 80 2
3 375 338 341
3 341 338 312
3 375 90 338
3 338 90 312
3 385 297 40
3 385 323 297
3 297 323 4
3 82 293 178
3 178 293 282
3 82 345 293
3 293 345 282
3 12 320 137
3 137 320 91
3 12 273 320
3 320 273 91
3 137 292 74
3 74 292 93
3 137 71 292
3 292 71 93
3 224 291 131
3 131 291 362
3 224 61 291
3 291 61 362
3 115 259 218
3 218 259 109
3 115 64 259
3 259 64 109
3 380 373 322
3 322 373 310
3 380 317 373
3 373 317 310
3 364 251 241
3 241 251 194
3 364 349 251
3 251 349 194
3 241 246 96
3 96 246 0
3 241 53 246
3 246 53 0
3 282 234 189
3 189 234 54
3 282 345 234
3 234 345 54
3 327 230 348
3 348 230 8
3 327 129 230
3 230 129 8
3 317 253 325
3 325 253 399
3 317 72 253
3 253 72 399
3 116 304 100
3 100 304 1
3 116 173 304
3 304 173 1
3 109 229 311
3 109 64 229
3 229 64 325
3 72 340 131
3 131 340 190
3 72 315 340
3 340 315 190
3 7 309 173
3 173 309 145
3 7 60 309
3 309 60 145
3 362 222 96
3 96 222 241
3 362 61 222
3 222 61 241
3 341 216 247
3 247 216 125
3 341 98 216
3 216 98 125
3 158 213 0
3 0 213 96
3 158 250 213
3 213 250 96
3 0 207 78
3 78 207 358
3 0 53 207
3 207 53 358
3 263 86 233
3 233 86 135
3 174 407 228
3 228 407 278
3 174 80 407
3 407 80 278
3 167 311 229
3 229 325 167
3 102 50 88
3 88 50 228
3 3 343 258
3 258 343 163
3 3 60 343
3 343 60 163
3 40 297 349
3 349 297 4
3 162 256 294
3 294 256 385
3 162 323 256
3 256 323 385
