# vtk DataFile Version 3.0
A great-looking cell
ASCII
DATASET POLYDATA
POINTS 452 double
84.74961363552237 241.4173259427975 75.72435288392745
76.41389281173659 232.28190023269823 86.67021718948558
81.10607182172744 228.75610064003112 89.17537609603532
82.70062825558037 227.40186245933236 65.98538991198153
71.4783036027028 225.82008994380104 85.18244313544152
85.67412701487162 225.82153548278123 86.75735409044967
80.00801476098263 218.95100362463904 75.7758609498317
87.81459477027262 225.3340154801231 82.54743982337133
88.21695602635612 242.97323596046724 72.73528316307721
72.40925356226055 217.76069801183772 81.56357908811032
96.86922091381125 246.74378909596692 76.28074386328352
89.5537935003576 229.321102036552 71.35084784026643
76.55989083133866 231.16466775771934 67.82403598987192
97.0439489275013 244.3009561303429 79.01359732319574
74.09461027834756 219.36777920266994 72.46932665057541
89.01933100973308 244.26307336889042 80.47827811196876
80.77823208422238 234.08301080129954 87.17527642035567
70.34541300786897 230.97759017564414 76.19501850075365
73.95290017804315 225.28381197317395 86.83341748418222
96.01502169405508 248.00208419325574 77.14970464584418
82.45259275520625 221.21108473292372 84.81902266429849
70.0526974239622 223.21149371026252 70.29761227586103
72.96933711238337 231.22505094967346 84.18970456517994
78.98170521169834 237.46877742073315 70.71968555498867
74.88266157899686 217.2115787906625 77.7154005539311
77.30121067192856 230.90008946725203 87.83645652362337
77.84648505937817 217.57482808716435 77.53632301525084
77.08065200360252 234.74619821548268 85.50919647769372
69.37021445449042 228.82775230529037 81.81297459477604
72.85662797535495 234.14794789092173 77.28573328155876
82.38348306680248 220.00949019810884 74.18184998828531
84.80828094371536 236.7017529184243 85.56250668928465
82.72872465155916 220.60387123684853 82.9583925518563
77.94785486270474 237.43066925883946 83.35833789943285
97.15493365068578 245.19937780734452 77.34076014374982
96.18312806938128 245.02061105406975 80.06471739784413
85.70187832386559 223.8054318766082 85.39285298399764
80.71808883951722 221.0586113219113 70.49005934534689
75.80094399670507 233.39579256753268 85.4205402513656
75.77748856090302 220.18862264278388 85.26224571262122
68.55341934334658 226.06851249511726 71.12998189533562
89.01287895206094 246.46420585863387 78.80851160195353
70.97219721014261 219.79211290601805 72.44649686655397
67.7734757427974 220.73817499788146 74.71811669952756
84.05642132524666 220.57997583640798 78.37625071754893
88.13692055992595 244.7722792335221 78.97421210601298
85.58457911936652 222.50474238072056 73.76837963454123
79.36941762699291 234.19964308115397 67.44436804148249
84.17651712730957 226.92225241739618 88.009051883006
94.20473603655462 236.99611587969258 80.94365360693797
79.5657887567473 226.47334402543206 66.26892548302554
75.28861913143203 217.3434207531598 82.26751778254636
74.953716178793 231.08324944205953 86.2598772944147
90.03384393523356 240.59168165383312 70.8970228748499
77.60872464478037 236.04923866835247 70.53692506778502
67.65205721861342 226.97391491964297 80.5748854933483
95.47789928729988 239.83869236919395 80.53856874049994
81.69076958977014 231.61952651275192 88.4225129479059
79.54889745923462 230.69071752361592 89.00741954373564
82.52360902638812 236.30847561989088 68.20698248886339
75.7965751563176 229.61082931235083 87.28870715511381
87.30536641537509 224.0817160405748 79.95388827468217
89.36098225209494 227.54262986843148 82.16745764796698
73.0088597945794 226.9292549383576 68.8356617049649
66.35684375455511 225.66735057297973 77.3045275298189
76.50747551886717 238.35561970377069 78.54248025154762
92.48844666148851 249.06011041115687 78.15512635659933
92.04753214160343 231.9253170077878 80.10581205537203
95.92863385539538 243.50911347959328 79.98174597200682
89.94284070190008 247.6904171156939 76.29605679600995
86.54153592025591 241.53340439131284 79.65692433587591
91.25823532559713 237.29310690065387 70.82695642298816
88.99770315045369 238.73481752620975 82.77773728797779
75.20006237720673 236.38810658693907 75.07152219276858
77.33653532718661 224.58859634037404 67.49343431850147
91.28168279374621 246.0954305275159 72.12790819770852
78.7306417201649 239.5116496192522 76.58261074614903
87.2200907802433 242.87974993451365 78.35173132179939
95.64260524729363 244.9210051145267 73.18021029233039
66.58628122884708 224.61240434267972 79.82259979008174
89.50238037069424 245.69499527241535 80.10029516299112
79.7609476225138 219.6041843453784 72.86452073933644
95.00804406015399 248.07603394952258 74.32486513601938
76.89620857900381 225.2407084685149 87.71008806846565
84.42037057650232 221.11464980060697 75.87911286250616
86.46312407798379 224.3326486282742 71.5703401866881
80.57652701446416 220.4920791675017 85.05436715438024
96.44352221560969 246.4988652616358 74.35712817695274
79.07535275326165 226.70494653769686 88.81760245852944
76.62721813749108 228.09234730018142 88.18660877000868
88.19394105540668 242.71866162338898 80.08476927703963
85.43180318053894 228.38480019162313 67.27845293257008
82.67506245862388 240.50377617980382 74.29169192501163
97.1376056619721 245.38939157027386 75.63191640363593
74.56821113421194 236.4153453489196 77.03475017917006
68.83376192030921 229.13653357652362 75.65733312707304
80.33826177816499 238.38186595058863 83.64724094842597
96.87678098132058 246.85025999024057 77.80147272015606
81.57055462101404 239.8895723865713 72.73619353885132
91.4743906490542 243.40387915377357 81.4495046880222
96.92041398804909 242.74600671593123 79.13352829970147
71.47330929747886 231.24082732857735 81.40676903873529
95.75911978826733 247.3952329502372 78.7669370076108
95.2210483571732 234.75646508364167 77.26072945624843
88.84918339949382 236.77565634148212 83.8135698387636
76.39899223741385 237.5023540807179 81.44893094433135
85.93267552614707 222.43085362331007 78.10600995595046
84.63485949918885 234.25109645731268 67.47280416179565
86.01528757035094 222.97071205788075 82.55993222696463
83.05687979721418 240.7844819437501 76.06987621758705
83.47778412122572 221.37283600220627 71.94893197249613
81.86034976787259 236.76992440020413 85.87194282772484
69.18835648011253 228.56326123499758 73.04908232764397
93.1394336815922 246.09059273087217 80.26315185924608
74.6134916413146 235.70105049363175 81.93514981707456
86.2937422195379 233.05928953367803 67.63147292236393
71.33176006641715 232.29819911632725 78.53061838329538
78.46378836552326 238.92255256478848 81.76251086758519
77.04945234855032 233.81869803470275 68.93075173835311
71.25928343546718 229.58997805908794 83.35356942406186
89.1439230588608 233.8035993639237 69.629055467405
92.09478486083823 243.12987093603658 71.27704792093358
92.14748958474958 234.07524319634874 81.49835290905169
88.47764644357726 246.14607917465926 76.84284117652362
94.37464578292149 247.45865383374982 79.5665624293275
92.9331210657839 238.49524366590245 71.34780707353195
78.8193882321573 235.90523963538342 85.3126175218412
83.7553175184932 229.461355422535 88.20662350865048
97.37293344063903 243.17271531915605 77.63912714029124
71.2831704323877 220.57839388257153 84.49039070438823
86.61681172269819 230.08085810585027 67.8333673217545
90.65757851674037 230.68590082429398 72.14825935215063
96.6628134870566 245.95522792010652 78.98662388482632
81.72985167268963 225.09166989090835 66.83382435520996
84.1813095288251 222.75765778845948 86.28165182569403
74.6360656619527 232.16125739590015 70.27734237334549
87.28503763166175 226.05571844803978 84.99182511806626
94.30100968617272 233.87826879004686 75.28358954183278
89.27666699379915 245.14382443067544 72.8051167756925
85.55748588056855 224.59079062541718 69.54508146412945
91.78662338679527 241.29625312814298 70.97291327091128
77.37674630197748 222.69772477157377 68.63479114534165
75.79277538743156 218.62190309248226 73.40413909928239
89.49670866312395 240.1742488474336 82.00889613237432
84.72279094947311 239.6478963000124 82.65560211442465
74.33976686693224 229.39420961395695 68.84115502708802
81.67700625042757 220.2807729396813 72.26130008552835
86.68582432330771 242.7539495375849 76.5200746868745
97.10468654334862 241.59316248827662 76.05711490496189
72.28931234126966 232.84501817407985 74.7336756369694
96.90698435338282 241.44200286881372 78.21011281291788
75.74731758844976 236.11206243219354 73.07019573529752
90.43161135405295 237.5166684304305 82.87166891024374
82.28570465361017 219.68741190997798 77.11239752253277
86.60531985181194 231.30326062965023 86.41722837422572
88.35078145864807 225.66299570270067 75.77418331293964
79.99020132645762 236.38119560648727 69.227526952213
84.13514851748798 221.03759274413136 73.88403727577773
72.33244725110991 224.1620403665352 86.07717364018004
96.18711172943361 243.18905936799408 73.45149521987962
89.72237244339571 243.0325476613058 81.233681178704
91.49196125197439 248.10580128914327 74.8572680163524
91.41982052657478 239.40390745849186 70.99294773622746
91.73737579685658 247.29004531241168 79.98934197120359
80.32828513505947 218.92048000908704 80.38386365123603
76.66284694511475 237.77036525279343 75.33173707693335
67.96163118155874 221.08847980934976 81.56252447889291
97.124110392036 239.39497483342456 75.90231708954857
78.40348344884161 238.74698905506662 74.63413910944982
94.29862982187086 248.55717095600275 78.06675132523768
93.07560747446917 233.46073758524537 80.03886191468862
94.23114222064324 240.8950836981788 80.91337467788995
78.33126215807634 221.59154293830534 86.55099236704986
77.69004615400172 228.80513050604713 66.47210929439487
95.57111664835926 238.23830577327132 72.8711506284836
91.85822335954879 244.87715375369703 80.90744322509806
77.47597736162118 238.7754554513518 80.32622211369143
96.8651019476178 244.4915439372699 74.40599559994148
90.68028498807485 244.30328754477048 71.69645594951812
85.84425573414673 240.30176292690535 81.37995311954408
73.38627664676443 222.35475693100452 85.810496157952
80.10573392561555 239.65118128217406 74.00587986834412
81.82766781126273 225.9797655170325 88.40999020502285
94.11953188081358 238.94323269206862 81.20195684125261
74.09259455499429 233.7137610099364 83.43667834531148
82.78209449516343 221.84248759862544 69.9972879069
75.3592612545678 220.66997755084893 70.6169254975282
94.61179422191879 236.50685188072976 72.8948160520965
73.48195254097072 229.90360302153346 85.80295625372939
93.07329033600064 243.9907713052331 80.82203361203656
82.29847350527437 229.4166308218785 65.35978509214456
73.58903362859802 218.83650653527778 83.91279092357026
91.69235592418582 232.263855001055 72.93507353834707
91.31330463122676 248.33737918596668 77.09857640378594
72.0568150211675 217.9900768724047 76.70587853684971
83.20645437527556 240.13915732202273 81.31890985648266
90.4277646975411 242.44546009968792 71.15368967141326
93.5107699865099 243.71167303220915 71.60006339936506
77.70638051656125 223.31323663711075 87.38927979490619
73.47862527036281 220.3927384223208 85.04828270030995
92.63812588806164 240.09562095954726 81.92542714251906
94.10896782350477 245.05935428847235 72.22497383074392
94.7425657179055 248.66542931405033 76.07031519270983
81.84697049796544 239.55208604218492 82.71721734384047
90.998635072608 230.35334175160597 80.1237538205899
66.99639222582213 222.771875401673 80.59622304780196
78.43482365311922 235.2009023585559 68.93380541618399
88.51082652907016 226.72992931973218 83.70816681194192
85.09252302453785 222.71926994744965 71.7643307569202
96.77003827259992 237.47706198587474 75.72580307371823
75.71431097554392 227.23108045254324 67.56014494838675
89.90013495619421 227.88327903909723 79.50557994641767
68.45617971679867 228.62511080860492 79.89241979671831
82.80471380092555 227.7481295554694 88.75253376066765
87.51517819054706 232.7139586674128 85.62388362174114
78.82926292844098 220.15377887927752 71.1991113680115
79.28798784846249 219.2576832041056 84.09792779275199
80.55863298974519 233.04000158322833 66.11001903294537
67.6279944364992 226.92768150823412 73.00315716275614
72.57674246135025 228.68068965333921 69.65710596801942
90.81279249043163 239.27034689814798 82.30737763512006
89.35485865070177 243.2926179825233 71.78425241678468
88.0780936328664 225.6352259070583 73.83315760795759
81.52576736117982 237.5764295113907 69.43053423404686
84.3961926230792 223.103126947973 69.9952623849568
74.58291679495451 236.42767215911692 79.71448484227697
78.09047041928746 238.0902682508524 72.62405217476584
92.93263478864353 235.38588253448222 81.34587885192094
83.10972152377222 239.70175134567393 71.95997085954147
87.48650701216765 244.25318649835378 77.27543479740451
90.39532339303821 244.64939234079998 81.01873876962783
86.3651223355789 228.5098963529781 86.85206295400201
86.77537454746712 242.55831671975824 74.27848674490804
85.64828485628891 239.4171342451896 70.87968865210418
69.07678373119357 220.52445485563237 83.55834644870984
84.48669826488667 221.50945064471819 82.74618664616332
72.24970724387707 228.609631009532 85.23989499592543
88.9417661610667 230.36596105582706 69.76438856208235
84.63531660431966 221.26581583425136 80.75743440134585
67.48906828775492 223.71282078642048 81.98655227650256
89.59623901810939 238.56205358835413 70.60913341007829
80.04572727487678 240.279877535249 77.91024809004253
90.09649877353942 231.75591995720512 70.57546278460903
72.64071905747856 221.26573858292173 70.28154667275656
96.50811035169542 237.3720426559308 79.00765411643042
93.00437728183398 236.50402220759648 71.77191930879282
86.31150060331015 226.3261714396114 69.2979455292357
85.8832089305914 222.41722545558426 75.87847809187227
90.15116485087026 230.18624113324498 82.7306574537248
82.16553164528784 219.6592994866551 80.08827652550639
80.27669685819717 219.16596613882447 82.4102082618133
93.49860011190349 248.69494095503262 74.93090701056029
92.4719689478602 244.8827200151814 71.64738980188467
76.35774369318014 235.52885386902156 83.81327200957102
92.9399094522579 248.97181135942756 76.49327069890333
81.50858718079924 240.4842244430148 79.14365560585296
74.07431756133477 235.0037069234997 74.95805871099446
77.67273068189037 218.28748113267002 83.3983821621117
84.79254653567817 226.7715109249868 67.5738838374963
84.29226833716535 232.12777787224707 87.49286517342432
79.16994593784727 222.65758891642608 68.54295374270083
85.10807163978122 231.44032020226405 66.9261955252565
74.23540171856712 233.74584597264402 72.73844968488578
71.6471444977313 232.62067237442764 76.677071066497
70.8089731695098 225.71839459674385 69.50772129707805
86.47557889903757 238.509393024131 83.50987345794294
91.11603590783012 246.0727998724115 80.5348041034689
96.05923111186249 247.8468906732773 75.55990452946651
70.78119926554781 229.42544886004688 71.87739393597018
72.33175201784316 218.7305483505181 74.26933634368748
96.86910224273727 240.26949043650242 74.6804947554835
83.4549790520191 240.8226118256923 77.76085728830127
88.14892464444276 239.92244187675857 71.03681551065891
94.95783366177469 235.3864568428392 74.08796480718951
74.36936474212858 228.31355328081432 86.75455614448572
67.74004347150887 223.55461856258702 71.59413023101676
67.10318491727779 222.62801003603445 73.40216733834177
95.42496492522149 238.22005643467995 80.17138159251998
72.5929929368647 232.74899376819616 82.52101347342456
80.45741209909177 229.17839065348682 65.42403422144302
83.32734516804416 238.72302214286233 83.7813303663534
87.31009527422079 234.7331646043386 68.34458255236791
69.99554003747247 219.11998167464102 75.0571866861457
83.46069924403507 234.60304015950078 86.9282794381422
87.59207571695808 237.9616457966426 69.99212671871405
93.64120179125153 233.32968938020466 77.59877600455215
68.90939183361756 225.79703304104663 83.13340396500148
87.45080031402722 241.27227379668645 80.93314002821708
66.84981603087707 225.04890470602783 73.46243489569483
77.3887136697146 218.32651939408387 74.57316874094606
73.63150676883828 235.35425403310924 78.63189449650538
66.8798341230894 221.8929394871027 78.70407811183605
84.11866557366059 225.22327264853175 68.0094163932059
94.66286211571321 234.25846329679794 78.8819974063042
87.1663938799298 224.0001626186881 75.83754750986614
80.22833868553381 221.97184468055664 86.55773699872401
74.65963911183806 218.01372506400824 74.93867015163838
84.63940414657782 240.83727288066268 79.57663683616673
89.50474714526223 227.27216546012048 75.61710779157083
86.08460319115271 222.57090203966902 80.3438753931474
83.20764323815206 240.54704800536385 79.4431752329312
87.1238334300954 236.19558297865962 85.09720738013056
90.8565739530705 235.0797617142675 82.68815315594343
68.35499926827369 219.72459377389654 77.26083322323217
78.95532081070958 239.67796893500457 79.41064746114516
87.46861705123766 236.56816691363866 69.02655826300186
97.14094583429805 240.06821578167686 77.36001799761901
75.67326428331779 234.52009282291863 70.97242134967996
80.25222192286458 218.7337189473634 78.54826511822411
71.1914765954684 223.32694783952607 85.14753085848182
96.73403352610195 238.668222199571 74.28161408311736
77.90228688279765 233.4328432732142 86.65873386117252
92.47023720908477 231.8161857363131 75.66197107504041
81.31184606015107 240.5079685267719 76.51387877728867
82.56667638907126 233.14713623764084 87.59376285449166
93.30200711059996 248.00528486684135 73.41278666622388
96.64694021890851 241.61620552462054 74.04259832623225
71.73194130246718 218.87365766537386 83.21544992564488
88.4421246265915 228.5671638500227 84.58851326989607
95.41173418134308 236.65003603956373 79.97553524661997
75.41285829738553 222.78237658837574 69.17128475784023
90.03321720728901 232.63943954515847 83.43562081689012
83.75175812059459 224.42712026884257 87.19737626564938
87.6339003928283 244.29765501495805 75.6137321279801
91.33665979834399 248.14965741806986 78.82227487584585
79.04340658796646 231.6392921603372 66.1755933595953
92.26479484060408 231.6631789898709 78.47998594713232
76.04102419637553 229.15820683085602 67.61608402074764
92.93515033269153 248.04556550345117 79.44499852597859
66.30052280150726 223.1829926715645 75.8763025285697
96.00321895133608 240.04395667084015 73.3944423053917
75.93265787030042 222.87972846649043 86.88586655908271
95.30861321587241 241.66310872885177 72.81091265576866
85.5605341084281 241.69555200452243 77.9246102158786
92.40232138458362 237.60695073444577 82.14580811941836
88.48235806710412 245.52331873661296 74.89102167523473
90.84279707863729 241.38183438805436 81.72268383084592
81.96425721699671 234.05270091966437 66.81612550253992
95.78874086226324 235.6815753947403 75.5862557249712
85.32123748802479 230.3686529977175 87.3730902127799
97.0592838504528 238.33471477142265 77.43303026060248
77.007684176793 219.47366026851194 72.00045342811396
91.17808038374481 234.587019286609 71.13696109394368
69.15827440103808 219.9040999607532 73.42227683743798
72.8826407624306 234.1452170179302 80.49678763528048
70.43151877516779 221.12448375412635 70.92124954193729
66.20191861052194 223.80947367138924 77.96506838682778
75.33868522531853 226.72259127640348 87.65167524879669
96.54557971225898 239.54619274164435 79.05506337605968
80.63242568843508 239.86224772915168 81.44607436036598
78.65471322358121 218.0181573076768 80.55757719205546
95.85407119673727 241.54445266951717 79.8554704550544
92.99771323117255 246.45785635320823 72.39804961585459
87.12819163398879 241.21233537081588 72.31819526147584
89.12281838751372 236.22480901362277 69.84959127813335
87.6620899433538 228.94224083291095 69.23842714031541
69.68820671263991 229.973569582011 79.00767209896956
95.15517492208991 246.11096103300633 79.73471462572338
70.91261728892596 228.0370735096553 70.54555919935473
96.4836769509465 236.38958649847294 77.32551886273214
69.75256820713886 229.92233143157563 74.52504294284202
87.7003244375974 229.92488702710892 85.91290735308485
90.89964047631238 229.40508955841653 77.276857943888
80.90869266964484 235.38026374802286 67.72874655480693
89.41503588529562 227.62623925491624 73.15593524917502
72.9594083065625 231.85431748539756 72.42447905736054
94.15502806814357 237.89077974351022 72.12481942437583
80.72724835229899 238.59726119176366 71.17493252186212
90.13941194710233 247.30697789990683 79.76381972039859
68.19906410618938 219.89675459678992 79.53402074380999
78.36119904352883 219.65552414748038 85.19835203790922
87.4607164943647 223.89243764826657 77.9151817498086
92.8985289171523 240.17620435073928 71.25848081993912
89.80043784033377 227.53455972072368 77.55013691095009
70.25126961224525 218.58033174119439 79.27072201961688
88.74689357472367 225.6512879295731 77.81180179876633
79.76307688830792 223.77310678907784 87.73199470947569
68.88261757424225 219.40349650122099 80.72793456631968
79.93511936421781 224.17679893239082 67.20392548536779
77.40935481139431 226.67864979396785 66.5001293298337
66.68799274724601 226.53637611730773 79.01262974993283
84.15244057354131 221.87563107414388 84.58165795575754
96.95225154221585 242.94341535618304 74.7312313962886
87.79265841091636 231.7493565010803 68.54524800852134
91.81069344794714 247.46731843871788 72.93946372728287
66.29467353779744 225.36026638437463 75.36386232837766
88.94784069506 241.41933539336497 81.27376745031818
93.56995103556734 241.88978815308923 71.73843538168833
76.43634775598436 217.08633516085845 79.96056497247747
87.87354945405865 240.04120404046571 81.9427995582673
89.4418299640694 246.90415767154587 74.85095814290523
91.42727539529072 232.49817620156523 81.58612889252757
75.5889666606613 218.27330887805215 84.0867653110141
89.7742062508424 247.71326904689468 77.98595862132566
88.67757124965853 226.06348754193934 80.39961864863773
94.38673598287512 239.77495135399022 72.16749000361224
93.12097291045174 232.97411759608528 74.1435859028531
70.02015195333091 219.19653051567565 82.21315020848263
72.74766499956107 224.12936741054594 69.25213363604293
77.69425644679262 221.20208150776443 69.93468959933905
90.72527928457538 229.69433134843516 73.99269289287773
86.10808830812093 234.0065226073906 86.10301880784627
83.48606541770307 232.83139110362126 66.65865408664699
94.83689065565144 243.42321397179992 72.33524737961044
94.42179722352796 242.79142336530268 80.53441852312261
69.99972506240046 224.45611419333906 84.5708020272826
90.26318460119816 228.92435658748255 81.16744808559088
88.07637640980819 244.29036044501123 73.91956543491254
71.08372101852049 230.54914720320875 73.37461404988134
77.81924855934963 232.84432233693389 67.34035763536261
74.3723133839603 232.41916906535226 84.91134039001643
94.66758178449523 246.58136157250948 73.18129978697701
83.62576681750443 229.61291651992252 66.0519655522771
90.37135623920096 246.97718486656274 73.29875005721634
74.79664322033977 225.0976758283179 68.33141790971672
67.16726946570029 227.2479649565806 75.04516250230888
93.4971396796093 234.4233815867831 72.95082574765912
88.89995462702278 241.7207392101902 71.68031199429223
77.17937682627371 217.24463188851678 81.64492727861546
68.72897485821287 221.29738682868074 72.10257727994659
72.6673342142573 217.33978909237095 79.05580470751241
97.1399063516351 243.80650108055224 75.96260004868888
86.91333994786153 224.38367881392332 83.9461699532607
94.75153048120087 244.66515800119862 80.6492876442966
94.51991164197287 235.27150600856655 80.20802085583131
82.15651317946161 222.4496600828654 86.35574478966451
81.91309403740028 223.13574073803198 68.52003006822378
72.96952518289976 227.02018279150997 86.07571793516311
72.37239437486635 230.1089107467856 70.90114513082851
76.22659423075518 217.53749265530456 76.1112324044622
81.90950378334821 224.0459401750462 87.61743040595096
82.12115935656044 231.48720453295948 65.8109767387176
85.02682420009782 240.77579678644565 73.25164384259294
67.73108520155901 228.18249047486785 77.98065990098775
69.11413605307875 222.74712149008172 83.83406368194338
67.35752427390966 225.3703889608092 81.56447623888167
74.32533351541028 217.1091711403425 80.12484072110956
88.08398571223832 226.92304790036334 71.32631918880958
70.5594218022043 227.7779789229671 83.84495115859146
69.14511047549439 229.5802022250678 77.21142212550811
96.09840622226709 236.8106949647054 74.03405799761109
88.55510625950888 234.13624102350258 84.69175666002293
95.77860971360583 235.58809495144027 78.90021876396357
78.6124758472678 229.05476975205102 89.00711779085971
83.15113251444207 238.29992352208757 69.88066000129207
86.9615473494265 224.01752967660468 73.71616069989895
70.08583442855429 218.68385287863876 77.05526273042489
67.05461659830071 221.21873836885257 76.62722632382683
85.51160876321228 236.95460028099794 68.83787472421633
88.53472351527901 231.34989667699827 84.87757620163592
92.8002584080879 242.1091763321831 81.28553693264108
79.38916973433346 232.27614448840623 88.03324021216363
POLYGONS 900 3600
3 233 432 353
3 0 432 92
3 8 417 353
3 407 138 8
3 265 389 179
3 353 417 272
3 99 160 336
3 123 323 229
3 90 45 77
3 389 143 386
3 90 15 45
3 70 77 333
3 333 77 147
3 77 229 147
3 104 72 265
3 179 70 297
3 389 287 179
3 336 143 220
3 143 72 220
3 297 333 271
3 90 70 287
3 160 386 336
3 336 386 143
3 240 71 354
3 15 160 230
3 160 99 230
3 297 195 179
3 240 284 272
3 240 354 284
3 272 284 233
3 147 0 333
3 192 342 416
3 342 354 71
3 389 386 287
3 287 386 90
3 312 400 192
3 312 362 400
3 70 333 297
3 179 287 70
3 323 407 232
3 232 407 8
3 8 221 417
3 8 138 221
3 221 138 178
3 353 232 8
3 353 432 232
3 323 335 407
3 147 232 0
3 125 245 71
3 272 417 53
3 77 70 90
3 220 334 200
3 104 441 302
3 123 335 323
3 229 323 147
3 323 232 147
3 123 229 45
3 229 77 45
3 272 53 240
3 53 417 196
3 0 271 333
3 232 432 0
3 121 196 178
3 15 90 160
3 90 386 160
3 233 353 272
3 265 72 389
3 389 72 143
3 284 448 233
3 417 221 196
3 196 221 178
3 220 200 336
3 200 450 336
3 302 152 104
3 152 334 220
3 196 140 53
3 104 152 72
3 72 152 220
3 404 189 450
3 189 175 99
3 99 175 230
3 175 266 230
3 390 123 69
3 163 266 113
3 113 266 175
3 324 163 328
3 200 171 450
3 450 171 404
3 75 252 178
3 178 252 121
3 413 390 161
3 393 193 69
3 328 66 324
3 390 69 161
3 230 266 80
3 266 368 80
3 75 352 252
3 251 202 82
3 193 393 324
3 334 152 302
3 93 34 421
3 97 132 34
3 178 138 75
3 45 41 123
3 411 315 82
3 82 315 251
3 113 175 189
3 87 82 267
3 82 202 267
3 384 315 352
3 161 254 251
3 352 75 384
3 335 138 407
3 140 121 387
3 193 66 254
3 387 121 197
3 121 252 197
3 53 162 240
3 53 140 162
3 390 413 138
3 171 56 351
3 169 124 102
3 411 201 352
3 123 390 335
3 335 390 138
3 423 357 113
3 423 35 357
3 252 201 197
3 413 384 75
3 384 161 315
3 352 315 411
3 93 421 177
3 450 99 336
3 450 189 99
3 411 87 78
3 68 35 423
3 113 189 423
3 423 189 404
3 80 41 45
3 132 357 35
3 251 315 161
3 169 102 19
3 230 80 15
3 15 80 45
3 163 113 328
3 251 254 202
3 202 254 169
3 328 113 124
3 13 34 132
3 393 41 368
3 368 41 80
3 328 124 169
3 267 19 10
3 10 19 97
3 87 267 10
3 10 93 87
3 169 254 66
3 97 19 102
3 97 102 132
3 102 357 132
3 138 413 75
3 163 324 368
3 368 324 393
3 113 357 124
3 124 357 102
3 403 201 78
3 78 201 411
3 252 352 201
3 78 177 159
3 161 384 413
3 69 193 161
3 403 78 159
3 87 411 82
3 387 372 140
3 140 372 162
3 13 68 100
3 123 393 69
3 123 41 393
3 403 387 197
3 403 332 387
3 163 368 266
3 66 328 169
3 169 19 202
3 202 19 267
3 421 382 177
3 197 201 403
3 196 121 140
3 395 366 125
3 351 100 68
3 404 68 423
3 416 396 192
3 192 396 312
3 416 137 396
3 396 137 312
3 366 174 187
3 270 167 310
3 66 193 324
3 340 167 306
3 332 316 330
3 330 316 270
3 125 366 245
3 245 366 187
3 330 270 310
3 330 395 332
3 177 382 159
3 382 316 159
3 332 395 387
3 387 395 372
3 162 372 125
3 372 395 125
3 330 174 395
3 395 174 366
3 159 316 332
3 159 332 403
3 424 319 49
3 49 319 277
3 293 285 103
3 312 137 285
3 285 137 103
3 416 273 137
3 240 162 71
3 162 125 71
3 442 424 293
3 442 319 424
3 440 310 209
3 440 174 310
3 277 244 348
3 277 319 244
3 277 348 56
3 56 348 351
3 103 442 293
3 103 359 442
3 170 285 293
3 334 302 227
3 177 87 93
3 87 177 78
3 93 10 34
3 34 10 97
3 209 338 440
3 338 359 103
3 306 167 148
3 148 167 270
3 193 254 161
3 359 338 209
3 167 209 310
3 171 351 404
3 351 68 404
3 440 187 174
3 440 273 187
3 442 244 319
3 171 183 56
3 56 183 277
3 183 49 277
3 306 148 150
3 150 348 306
3 68 13 35
3 35 13 132
3 174 330 310
3 270 316 148
3 148 316 382
3 293 424 170
3 424 227 170
3 348 150 351
3 351 150 100
3 359 244 442
3 359 340 244
3 100 128 13
3 148 421 128
3 348 244 340
3 340 306 348
3 137 338 103
3 340 209 167
3 340 359 209
3 13 128 34
3 34 128 421
3 334 227 49
3 49 227 424
3 148 128 150
3 150 128 100
3 200 183 171
3 245 187 416
3 187 273 416
3 440 338 273
3 273 338 137
3 148 382 421
3 49 183 334
3 334 183 200
3 71 245 342
3 342 245 416
3 312 326 362
3 312 285 326
3 326 285 170
3 298 400 362
3 448 444 233
3 448 305 281
3 281 305 354
3 448 284 305
3 305 284 354
3 265 301 104
3 104 301 441
3 301 401 441
3 313 255 271
3 255 349 195
3 248 204 391
3 204 211 362
3 96 203 349
3 349 203 195
3 96 280 203
3 203 280 195
3 92 181 313
3 367 226 181
3 294 155 375
3 375 155 298
3 294 222 155
3 155 222 298
3 195 144 179
3 179 144 265
3 195 280 144
3 144 280 265
3 302 122 227
3 227 122 170
3 302 391 122
3 122 391 170
3 349 117 96
3 349 304 117
3 192 242 342
3 96 111 280
3 271 109 313
3 313 109 92
3 271 0 109
3 109 0 92
3 391 321 248
3 441 449 321
3 321 449 248
3 281 107 448
3 449 318 248
3 231 136 318
3 349 255 304
3 111 96 126
3 253 114 184
3 184 114 344
3 253 105 114
3 54 151 226
3 65 304 76
3 383 237 355
3 355 237 11
3 383 242 237
3 237 242 11
3 88 89 83
3 313 241 255
3 255 241 304
3 313 76 241
3 241 76 304
3 106 44 84
3 84 44 153
3 106 238 44
3 184 38 253
3 248 318 62
3 36 381 108
3 154 401 259
3 96 33 126
3 126 33 253
3 96 117 33
3 32 249 238
3 280 31 265
3 280 111 31
3 153 30 84
3 253 27 126
3 126 27 311
3 253 38 27
3 27 38 311
3 107 337 59
3 59 448 107
3 301 265 31
3 31 401 301
3 83 376 88
3 156 23 367
3 367 23 226
3 156 54 23
3 23 54 226
3 444 448 59
3 86 20 425
3 425 20 381
3 86 32 20
3 20 32 381
3 311 16 126
3 16 111 126
3 12 135 118
3 320 414 74
3 74 414 210
3 414 63 210
3 153 6 30
3 30 6 81
3 246 91 355
3 381 235 108
3 108 235 238
3 381 32 235
3 235 32 238
3 110 146 37
3 37 146 81
3 110 30 146
3 146 30 81
3 322 5 48
3 322 36 5
3 5 36 136
3 52 1 38
3 38 1 311
3 52 25 1
3 1 25 311
3 57 127 259
3 127 48 231
3 294 445 222
3 222 445 85
3 294 46 445
3 445 46 85
3 337 363 59
3 59 363 156
3 337 47 363
3 363 47 156
3 127 57 2
3 248 406 204
3 204 406 211
3 248 62 406
3 406 62 211
3 271 300 297
3 297 300 195
3 271 255 300
3 300 255 195
3 61 7 108
3 26 388 24
3 26 350 388
3 326 204 362
3 401 283 259
3 111 16 283
3 274 347 89
3 89 347 83
3 274 18 347
3 347 18 83
3 224 426 292
3 262 307 135
3 135 307 118
3 307 54 118
3 108 299 61
3 61 299 106
3 108 238 299
3 299 238 106
3 135 365 262
3 262 365 149
3 135 428 365
3 249 308 153
3 26 6 308
3 308 6 153
3 48 5 231
3 5 136 231
3 6 26 289
3 289 81 6
3 26 308 350
3 86 250 32
3 32 250 249
3 243 14 42
3 233 228 432
3 432 228 92
3 233 444 228
3 65 225 105
3 65 94 225
3 88 443 89
3 89 443 25
3 88 2 443
3 184 410 38
3 38 410 52
3 184 22 410
3 410 22 52
3 211 373 362
3 362 373 298
3 211 375 373
3 373 375 298
3 149 256 262
3 149 29 256
3 256 29 94
3 367 223 156
3 156 223 59
3 367 444 223
3 223 444 59
3 85 208 224
3 224 208 110
3 85 46 208
3 208 46 110
3 262 256 151
3 156 206 54
3 54 206 118
3 156 47 206
3 206 47 118
3 48 182 322
3 182 2 88
3 181 76 313
3 54 307 151
3 151 307 262
3 151 165 226
3 165 65 76
3 63 145 210
3 135 12 145
3 304 176 117
3 117 176 105
3 304 65 176
3 176 65 105
3 111 283 31
3 31 283 401
3 322 134 36
3 36 134 381
3 322 425 134
3 134 425 381
3 65 165 94
3 191 9 51
3 149 408 17
3 81 289 341
3 18 331 83
3 39 172 331
3 101 356 28
3 24 194 296
3 344 290 29
3 29 290 94
3 344 225 290
3 290 225 94
3 325 409 47
3 47 409 118
3 325 12 409
3 409 12 118
3 101 278 344
3 344 278 184
3 101 22 278
3 278 22 184
3 39 370 172
3 172 370 86
3 39 257 370
3 62 394 211
3 61 375 394
3 394 375 211
3 399 260 37
3 260 426 37
3 135 145 428
3 136 207 318
3 318 207 62
3 136 7 207
3 207 7 62
3 22 188 52
3 52 188 274
3 22 236 188
3 188 236 274
3 47 217 325
3 325 217 431
3 47 337 217
3 217 337 431
3 375 371 294
3 294 371 106
3 375 61 371
3 371 61 106
3 173 12 325
3 226 168 181
3 181 168 76
3 226 165 168
3 168 165 76
3 11 437 355
3 222 85 437
3 292 139 224
3 224 139 85
3 292 246 139
3 139 246 85
3 292 133 3
3 3 133 50
3 292 426 133
3 11 131 400
3 400 131 192
3 11 242 131
3 131 242 192
3 91 130 355
3 355 130 383
3 91 261 130
3 130 261 383
3 281 120 383
3 383 120 242
3 120 342 242
3 367 228 444
3 28 119 101
3 101 119 22
3 119 236 22
3 246 355 437
3 437 85 246
3 17 356 116
3 116 356 101
3 29 116 344
3 344 116 101
3 298 364 400
3 400 364 11
3 298 222 364
3 399 186 320
3 399 341 186
3 186 341 14
3 383 115 281
3 281 115 107
3 383 261 115
3 115 261 107
3 105 225 114
3 114 225 344
3 92 98 181
3 181 98 367
3 92 228 98
3 98 228 367
3 4 438 286
3 286 438 28
3 4 236 438
3 112 415 95
3 95 415 433
3 17 263 149
3 149 263 29
3 17 116 263
3 263 116 29
3 94 73 256
3 256 73 151
3 94 165 73
3 73 165 151
3 204 67 391
3 391 67 170
3 204 326 67
3 67 326 170
3 415 64 433
3 89 60 274
3 274 60 52
3 89 25 60
3 60 25 52
3 57 58 2
3 25 443 58
3 58 443 2
3 28 55 286
3 112 358 40
3 274 427 18
3 18 427 4
3 274 236 427
3 427 236 4
3 428 219 358
3 358 219 63
3 428 145 219
3 219 145 63
3 433 212 356
3 356 212 28
3 433 55 212
3 212 55 28
3 166 434 239
3 239 434 286
3 50 279 3
3 50 173 279
3 279 173 325
3 431 279 325
3 112 218 415
3 415 218 288
3 112 40 218
3 218 40 288
3 401 214 441
3 441 214 449
3 401 154 214
3 214 154 449
3 441 321 302
3 302 321 391
3 14 269 42
3 14 296 269
3 269 296 194
3 303 43 282
3 397 374 9
3 79 380 64
3 64 380 433
3 79 55 380
3 380 55 433
3 320 243 398
3 398 243 21
3 24 420 194
3 9 374 420
3 420 374 194
3 25 451 311
3 57 16 451
3 451 16 311
3 3 412 91
3 431 261 412
3 412 261 91
3 303 447 43
3 43 447 329
3 303 291 447
3 447 291 329
3 303 446 374
3 374 446 194
3 303 282 446
3 446 282 194
3 303 369 291
3 291 369 166
3 303 374 369
3 253 33 105
3 105 33 117
3 329 346 64
3 64 346 79
3 329 291 346
3 346 291 79
3 24 429 26
3 26 429 289
3 24 296 429
3 429 296 289
3 166 377 397
3 397 377 374
3 166 369 377
3 377 369 374
3 449 361 318
3 318 361 231
3 449 154 361
3 361 154 231
3 350 250 257
3 43 343 282
3 282 343 42
3 43 419 343
3 343 419 42
3 12 327 145
3 145 327 210
3 12 173 327
3 327 173 210
3 129 317 191
3 191 317 9
3 129 397 317
3 317 397 9
3 180 309 129
3 309 434 129
3 288 276 329
3 329 276 43
3 276 419 43
3 320 186 243
3 243 186 14
3 17 439 356
3 356 439 433
3 17 95 439
3 439 95 433
3 61 394 7
3 7 394 62
3 331 18 180
3 180 39 331
3 329 385 288
3 288 385 415
3 329 64 385
3 385 64 415
3 419 345 42
3 42 345 243
3 419 21 345
3 345 21 243
3 21 275 40
3 40 275 288
3 21 419 275
3 194 282 269
3 269 282 42
3 36 422 136
3 136 422 7
3 36 108 422
3 422 108 7
3 261 402 107
3 107 402 337
3 261 431 402
3 402 431 337
3 376 182 88
3 112 268 358
3 358 268 428
3 112 408 268
3 268 408 428
3 63 264 358
3 21 40 264
3 264 40 358
3 342 120 354
3 354 120 281
3 79 435 55
3 55 435 286
3 79 239 435
3 435 239 286
3 210 379 74
3 74 379 50
3 210 173 379
3 379 173 50
3 84 247 106
3 106 247 294
3 84 46 247
3 247 46 294
3 397 234 166
3 166 234 434
3 397 129 234
3 234 129 434
3 2 213 127
3 127 213 48
3 2 182 213
3 213 182 48
3 166 205 291
3 291 205 79
3 166 239 205
3 205 239 79
3 39 199 191
3 191 199 129
3 39 180 199
3 199 180 129
3 172 198 331
3 331 198 83
3 172 376 198
3 198 376 83
3 127 339 259
3 259 339 154
3 127 231 339
3 339 231 154
3 259 314 57
3 57 314 16
3 259 283 314
3 314 283 16
3 58 57 451
3 451 25 58
3 398 21 264
3 264 63 398
3 50 378 74
3 426 260 378
3 378 260 74
3 112 360 408
3 408 360 17
3 112 95 360
3 360 95 17
3 81 215 37
3 37 215 399
3 81 341 215
3 215 341 399
3 431 190 279
3 279 190 3
3 431 412 190
3 190 412 3
3 37 185 110
3 110 185 224
3 37 426 185
3 185 426 224
3 4 158 18
3 18 158 180
3 4 309 158
3 158 309 180
3 119 28 438
3 438 236 119
3 84 157 46
3 46 157 110
3 84 30 157
3 157 30 110
3 428 408 365
3 365 408 149
3 289 142 341
3 341 142 14
3 289 296 142
3 142 296 14
3 276 288 275
3 275 419 276
3 434 405 286
3 286 405 4
3 434 309 405
3 405 309 4
3 133 426 378
3 378 50 133
3 9 436 51
3 9 420 436
3 436 420 24
3 322 430 425
3 425 430 376
3 322 182 430
3 430 182 376
3 191 392 39
3 39 392 257
3 191 51 392
3 392 51 257
3 74 141 320
3 320 141 399
3 74 260 141
3 141 260 399
3 320 398 414
3 414 398 63
3 388 51 436
3 436 24 388
3 350 418 388
3 388 418 51
3 350 257 418
3 418 257 51
3 153 44 249
3 249 44 238
3 11 364 437
3 437 364 222
3 425 295 86
3 86 295 172
3 425 376 295
3 295 376 172
3 257 216 370
3 370 216 86
3 257 250 216
3 216 250 86
3 249 164 308
3 308 164 350
3 249 250 164
3 164 250 350
3 292 258 246
3 246 258 91
3 292 3 258
3 258 3 91
