# vtk DataFile Version 3.0
A great-looking cell
ASCII
DATASET POLYDATA
POINTS 561 double
319.7440942501102 123.2199827710467 29.713117881498217
318.42018570290026 127.52860448519542 27.3574773488017
316.78979063179224 120.9646374889785 30.081547306865147
318.9818620264598 121.22579618160496 30.213881514519613
315.8771984889959 122.27481460187431 29.079491732156995
317.7879507954996 122.60829196042562 28.970277552209346
321.5252854281968 123.78174831408447 30.558490413341524
316.24975935316803 123.87178036876355 27.97611385991526
318.64206093137614 124.9554256015501 28.299273179088214
320.49663614942887 124.94180649961076 29.555411864683016
316.46974594181575 126.08249058743333 27.309467889505264
321.988233439182 125.73764979660967 30.373068645556042
319.62397774995105 129.48254631239422 28.39498436378447
320.5042607074611 127.05281335744051 28.978387697056288
318.0221623420834 119.41441814950139 31.147295705583918
320.85722143379144 121.94306423739526 31.010255543567453
323.21048462776423 124.40747111534607 31.661839418295607
314.43676525535454 125.23846279446857 28.00801345971769
314.6460952995386 127.38960134653676 27.598071634358337
316.4071460476924 128.06819321226388 27.210367131878453
322.23338856852115 127.76292186016315 30.461584382698955
317.39999393657826 129.71318239142064 27.583112761653712
321.3280841713266 129.11025740510252 29.503645858493588
313.43494133129275 119.18018799144033 31.492734034682822
315.7301671967007 119.29081761958868 31.2042136400267
320.2105585661863 119.92709266743717 31.611632158093155
314.3396820168604 121.1361052773331 30.118712685289566
322.21419367114606 120.86153650982519 32.352176540890625
327.16633159191935 123.0690218172437 34.216896842053714
324.30455997484444 122.39406563183101 32.98810244960143
327.8015848513576 125.78062900423286 34.23417545049358
314.2854740913187 123.22864873220024 28.88839335776642
312.7368578647789 124.63994758727128 29.199148834233505
312.88886382357373 126.63304762700766 28.64612181973549
323.52284736054753 126.57869158719313 31.60052523603524
325.3335970012099 125.34251374700186 32.99558961620914
326.5092102820901 127.32386446427164 33.59767526662969
313.2602189625876 128.8141149470683 28.61628823440343
315.2666737194661 129.4195836854446 27.898151260270296
323.4451241826718 128.39028404151165 31.601584414355784
324.88213894144116 127.83804543121362 32.58986579781811
316.1357806292968 131.12264455137327 28.466697210148492
320.87098661314593 131.38790982309078 29.909659685417218
318.20079317224884 131.54482982042128 28.906804841355736
317.0151973914518 117.83231034059803 32.44982318641257
318.195314413809 116.7837412862039 33.44956024706322
314.80282840069253 117.60771250948096 32.48849077348675
319.2033312781095 118.12217931258793 32.52121966386027
321.51327242906444 118.57988482167687 33.3453554246611
323.6252890080525 119.94063625595908 33.994227184426215
312.07212927083486 120.98554871776105 31.208469427868845
311.14561904164475 122.62245566650655 31.295225685760208
312.4757522959292 122.70376018775252 29.962065443927766
329.4251699494682 124.20221910964419 34.96195153286013
331.480184469546 124.79967894353793 35.66415488467341
311.2858796325333 124.31527123673492 30.602143653869415
333.401871532227 125.28437371508062 36.61681304348674
311.5410750154413 125.93010936032583 29.79013104479424
311.73733727716785 127.81510394637625 30.03618991491579
329.8869390781556 126.39394729697567 35.378120659271396
333.63640189221206 127.02181861636892 37.050799344287704
312.1431040767656 130.13027953272606 30.171952227797625
323.89874443259566 130.0148846975837 32.72546636776832
326.0526619508916 129.26412609081677 33.80106055967148
328.1972673403078 128.34800746428107 34.846533256120836
314.2055971482006 130.90983904561045 29.169812689348838
322.3183876163552 131.34256137928347 31.80701672423813
322.46761502633257 129.70950242569506 30.892625546754168
318.88454081917337 133.34330481286156 30.562716122641824
321.1761317298521 133.3001209539375 32.11552248293784
316.1261696577165 115.97713593753521 34.129542471120985
318.57829486301955 115.57392750633487 34.705326358898645
319.96520247094617 116.90889107860237 33.98732841336888
313.8725351365056 116.52522232071364 33.741370977893034
312.714346027753 117.70747469103013 32.90604987835253
321.5855901681183 117.03006061636285 34.777920658731595
311.42974648963815 119.3202348017994 32.51277801511439
310.1799311783255 121.39081293209635 32.720167308873286
323.1798623081763 117.9980793277251 35.13151277706856
324.85633682786005 118.98767423704531 35.3736744543947
325.82657272344284 120.67454265561328 34.56870697109984
330.83958865490956 122.8304016468683 35.733849319229975
332.77525540830055 123.28587318543977 36.48479621442104
334.7546284864638 123.74194375245347 37.381045185350125
310.51601394940644 126.3077684751197 31.68216516053564
335.33164365036095 126.03277575636722 37.80336517823451
310.7197645229691 128.95699364083535 31.798819920598568
331.9363906564138 126.76479747581982 36.30215159122088
311.35560644430205 131.2744400612402 32.09781511719192
327.1090606623993 130.3225722101953 35.15042797847441
325.2245404576285 131.40183536887753 34.65919093491329
330.48321050703447 128.47970790924398 36.26406564569834
332.56782159236786 128.51331530125623 37.225457462221
334.59615838162404 128.31322007073572 38.02407499943492
313.09827153071234 132.29996102230373 30.695829786488083
313.90893981307613 133.97550768921792 31.509829416160574
323.3501792929775 132.4036590225749 33.24688707244682
317.4143652303577 134.7520570140227 31.32123233473139
315.89901365480006 132.95925729461177 30.241381664324333
319.2851322513058 134.98321691411553 32.23443560868228
320.74045627777843 134.9491474875895 33.472939436352824
317.30274669589977 114.87457484666868 35.7742564152279
320.4839506198579 115.83103937901446 35.60580086511861
313.7801401413245 115.53557839306941 35.34482374576027
312.16479903923573 116.69051158166937 34.54504744307165
322.46372950130944 116.33245941965949 36.303435999627176
311.1263311570861 117.95133099963422 33.77677107553729
326.7594471184061 119.05228261359862 36.01708253842995
334.4118423918801 120.57956507675686 38.633687534095735
309.8679105192111 119.33258131371595 34.029193107102905
309.05225080657704 121.03039028614317 34.58066821681784
332.02529933581275 121.34998270470723 36.535896384956104
333.8958246927854 121.80054691068204 37.48973970355668
336.1205393309288 121.99320373963548 38.73147580062181
309.07408384525985 123.02262806236868 34.28001623112107
337.9419719869165 123.65745251329278 39.141436971406264
309.0870198048351 125.43458665068552 33.84132101465431
336.43639270425757 124.21144690012446 38.19853455139449
310.081499050771 123.83712110848184 32.31713987126781
309.59922487896097 127.83360418798121 33.64164458259128
310.24570197431177 130.0837769710215 33.85819289503798
310.9008802521973 132.26972828249032 34.15254879338055
326.95465297599065 131.90559510894343 36.227943319514885
325.33631600026956 132.71382505630558 36.212690353891645
329.02145122403834 130.60390050404663 36.38434909326508
331.3160637210625 130.2835611705718 37.405710182430354
333.40085017683924 130.19527543163886 38.389654941642355
335.59855768575136 129.99176830132765 39.37949281773039
337.8366061440705 129.57273236308515 40.231273552146796
336.7029407372064 127.86733525773256 38.95800649071717
312.31468422898683 133.29850954246538 32.62676250011271
313.30288931794723 135.3635125356102 33.0284737533945
323.872001398445 133.1928637857279 35.269099091567554
322.2997341038213 134.16617492969954 34.14373649211418
317.4201921696052 136.13268861989584 32.95079421177984
315.4508514206157 135.29376132726108 31.861178617606353
319.3383489953922 136.0303419498128 34.173891242717175
321.14837781713794 135.60433061784175 35.16561632066878
315.5545196164272 114.87036506850777 36.46691487966147
317.2735519420229 114.08634480040942 37.48440521747926
321.0896128769986 114.9041633851324 37.64605132827413
313.470516451847 114.60974758200342 37.42988000144075
311.79441447807943 115.79931034957342 36.437673329798436
323.1115995272333 115.6735288187312 37.98926900126621
324.84319001170866 117.35208913114442 37.2591045838626
310.2153767168555 117.5039938008709 35.641857309166085
308.68765109030016 119.56667448328105 36.00013224597277
327.7024453289002 117.86860222376718 37.834143117889674
338.08449914704727 122.05298772723766 39.83131232691691
339.4230071662578 125.07194758521688 39.80473100055021
309.30789948942555 129.00513135606775 35.336042041387124
309.7121734215508 131.12748299816985 36.16057776837419
339.05304826832617 127.4170622294699 39.94991688268223
339.8083700122229 129.3427358284575 40.59400084201468
310.6057271391844 133.24243846148588 35.86135408232349
311.71696333961125 134.3638721131349 34.546441415118586
313.0288241684077 136.26388730337612 35.38802081526076
324.3923920866486 133.89647561323753 37.126661982924446
322.7059976819891 134.66030926011908 36.18763193906041
328.4376803858699 132.62265960360324 37.766069866229124
330.2288499928138 131.80184573534206 37.82921659148729
333.9881566434154 131.70757041071536 40.22393055044924
317.4833320210072 137.00125472451327 35.288865143348694
315.26537597607876 136.4861947998857 34.085750665987355
319.6221803233657 136.66827510079034 36.30713388117397
321.49841935120327 136.06249253014263 37.16771290268453
331.8982036541515 131.79525468883617 38.923190898607224
315.2925569397645 113.1817461759605 40.7651054952637
315.3533697020134 113.92877382594617 38.54329455086877
317.30139933636013 113.3234683057011 39.571562710942715
320.66270296645814 114.0693262215526 39.48979312769199
313.37014621033626 114.21212694903247 39.798823667070934
311.57775558559297 115.27105336114347 38.65913801445733
322.40876287694465 114.67351676896823 39.542037857298425
324.32043923141293 115.82754259590496 39.57114508710868
310.20226309929194 116.31225873477749 37.54495751816019
326.5483087189458 116.6857399887969 39.60235065748666
328.9473239040386 117.15377654062762 39.76375928537934
330.7488267461884 117.81203222158541 39.80263540944458
337.2659038559168 120.63379660701 40.52115774522017
308.86776014950016 117.93470894319543 37.8911110386637
307.81700787250503 120.35906828021076 38.34393349839816
339.2062632448748 121.2283170964465 41.045439688975186
307.59719626870793 123.3461953904464 38.702786666869194
308.1882310863574 121.96060506218542 36.26878513050496
307.9561137936458 126.25027890588524 38.378360295594796
341.229981687736 124.36113451635646 40.82888827532902
308.33329945200114 124.50955311329048 36.17667061710293
308.8199228916099 128.827127446657 37.41691124624398
340.66685619237904 126.20682163223535 40.712239949937086
308.6378329627267 127.01543531991629 35.74207757904163
309.1186661226579 130.9529080200757 38.905940501318156
340.9317286542186 127.94871588263777 41.33081738644712
340.91128217144245 129.950110086802 42.093730880128845
310.09532034639784 133.14872781522425 37.89188121572343
326.3023472268234 133.27610270509567 37.71704774783399
339.0853466511271 130.937077754729 41.48120007218187
311.37685494616267 134.93996537583521 36.7956139116467
312.88693613723376 136.63909188375618 38.03430489579443
325.03584883618976 134.41027333575724 39.157969238896506
323.12059869370813 135.15610866461415 38.215493964963464
327.5461543090816 133.8316124296139 39.9787343677814
336.66284218756067 131.7614473278441 41.26568586449455
317.8491752547327 137.570449021895 38.11660507341872
315.19005700672113 137.3550868304872 36.64196583332744
320.15322807700704 136.9896649205385 38.16008914450617
321.6905880511817 136.42720520269108 39.250592926139596
313.4218509665986 113.66954373386062 42.18280247758482
315.22877386155915 112.7812231700737 42.8635638370009
317.46387446284376 112.90226921081594 42.05199022951618
321.2804464277133 113.87488443463876 41.3922404194323
311.22727377415123 114.89601267781084 41.27890804220156
323.32877520415144 115.03364919875511 41.51141622951663
308.1096237991905 118.38705957356184 40.65168452211829
309.7322215991571 116.3775632361219 39.595016215573345
327.83727597320626 116.56953689778501 41.75684466940094
330.4919694490181 117.2202610387903 41.883065073584774
338.32039181998636 119.6797628498998 42.172066409678656
340.46423987881604 120.2791820577622 42.63765244759994
307.4562049559062 126.32139477836519 40.988394770690924
342.6121076650498 123.70956629595592 42.53515762989413
343.70414357447225 125.07396701965465 43.58495254978772
307.36859430492103 124.9931261847404 39.802772315407864
308.2517525892676 128.59729878761473 39.98633731546978
342.300287678312 126.13522730608041 42.17348358446268
308.6679248797423 130.7821349105727 41.59095116305223
342.4166659009357 128.51688848524716 42.94106012560701
341.91183829845687 130.48669417048723 44.03542442394301
309.74120758317855 133.04698940343783 40.48304294807715
340.25950977679446 131.74047578091154 43.15045961330175
311.05585416156987 135.09645687985358 39.32088700689186
312.7253062556367 136.70453006182922 40.81702327927893
325.4717719585653 134.86152063710554 41.49581616565726
323.3973799790785 135.47464214505428 40.416878876124784
327.6611255901335 134.5707421205148 42.70514070608631
336.9143643083253 133.37047313238511 43.45079261412087
338.46430064069733 132.3425719043969 42.63819568411057
317.4181275067611 137.97620020809555 41.12518988962687
315.0545401661875 137.77407008981544 39.47851841723316
319.7900030351584 137.3610301856627 40.13848904149296
329.83343024139725 133.94246513131654 41.649858768520396
332.05462546718405 133.17717360318906 40.85106581746454
330.0385571775906 132.98321178682085 39.43212997576527
334.33939120131305 133.39817833831412 42.47853619305872
313.7395639098596 113.25134281107063 45.010138849248676
316.59005134731507 112.46947733065159 44.49809600285017
318.925272696954 112.74422892160494 44.00262923800304
320.8239771711556 113.56785833665221 43.52887655280578
322.3691156717018 114.41925445098481 43.03895103920675
311.8303954695441 114.05399324595805 43.44721518569
311.4022267997184 114.20832199304633 45.13270040256282
310.1595232112133 115.61005003375142 43.81224060756878
324.1442495370335 115.41728937508856 43.858421113551636
326.5892210978272 116.20503314291294 43.72757852990575
328.907341958269 116.55578413152628 43.9532346511439
309.4800691187195 116.50693991286029 41.71594294869436
308.548520613192 117.59443233352877 43.26743360112637
331.5455384818901 117.07348745789356 44.78580267045868
333.89069552546493 117.43846657528367 44.428629302471506
339.39343058587383 118.58842070097981 43.908385956660865
307.6095110302793 119.80897078498873 43.08016134243286
341.115349454352 119.95296811909489 44.89667799104023
307.2667777445009 122.4124000232224 43.439320603885136
307.50126053337635 121.37002435893736 40.90822748579012
307.342063873432 125.47998170337328 43.8665830275832
343.46421986107606 123.3414290577406 44.68307153857325
344.12725491434776 125.38934793255501 45.63553735609659
307.2465250483243 123.98580607302316 41.27705908938601
308.02500546836404 128.30461312493662 42.71010756453864
343.66831795325714 126.98978790407163 44.08263615810375
308.656692711117 130.49404622468973 44.32362870052027
343.2785919149423 128.96808319943435 45.05205117370648
342.46351111019925 130.7050347412136 46.276084990751386
309.6062539814137 132.8146804783067 43.20338925869915
340.96443340071426 132.19065055625214 45.29283989082676
310.80381465704056 135.04756399145012 42.0560483902667
312.5800712775895 136.55418536031797 43.659965579741716
325.5986558042038 135.06861299143642 43.971737792413734
323.54133145022814 135.6492677415254 42.78733437213312
327.70252073683446 134.85625470967233 45.18169546614144
339.1866246999801 133.41321760424367 44.26745721848578
317.21960246274824 137.85385356269325 43.974549063052905
314.8192414444186 137.88140535945968 42.40589772265043
319.62903403183986 137.56418028413097 42.72447158695192
321.6877539274102 136.65140737543078 41.5545887881076
329.7678356113573 134.5895404401115 44.01863877980766
333.3664585438129 134.33322111027533 44.32289605226185
331.86106383126867 134.1113503869659 43.05880214226748
313.92222019460587 113.34598217663921 47.944752764243574
315.97681496090263 112.51174305111813 46.963067269759016
318.3544294646627 112.48563178909778 46.223867134989696
320.4526722722675 113.16891182269576 45.57195214654464
322.2159765413165 114.30418947872404 44.91140776283905
311.93879344596496 114.05287095330736 47.06081768073041
310.18066067152927 115.32170789056184 46.34940027731241
325.712786461664 116.04340506473386 45.74640247130513
327.557987278564 116.34327878142363 45.37404137033533
329.2787890693701 116.61832261879835 46.24760791827871
308.80829025568676 117.02276804461542 45.529834239636116
331.2569507241655 117.09874250954677 47.61856803950584
333.9277585737956 117.38047625021427 46.771980934937886
336.5112744588948 117.75762994417794 47.08189248770736
338.3837077999298 117.98763224346685 47.23971843956499
339.8419443183266 118.54973651760083 46.189326830931805
341.2948514978018 119.97222483692829 47.27105924557122
307.83565984562154 118.67967309190496 44.849000111400514
342.5620023309451 121.55444847246302 45.99224756164981
307.39117622902944 120.64723757971673 45.41160385591137
307.5186798523001 125.84116755440024 47.01775762574074
343.503916736328 123.58105208594748 47.14801873733665
307.16776796659354 123.2172740828316 46.109543182265874
308.0647143057878 128.07619661665947 45.501886255316315
344.11029661835454 127.39138579517378 46.08296071624641
308.8475889859849 130.19348750672256 46.96656025547176
343.3699776815461 128.85470789778614 47.363316390404556
342.1990812476124 130.36073983291345 48.31896600625281
309.7094365833292 132.4442823038669 45.900503361408056
341.1665560811464 132.03915682622613 47.66600750036405
339.6181425207981 133.61106747820514 46.68530721278743
310.86009840606164 134.66779347576687 44.82205626292954
312.68772492981185 135.98450375989717 46.393966261312016
325.6385579258308 134.93034978925672 46.41840066053415
327.7231551043043 134.53289738710313 47.584688909301214
337.4215642543891 134.21206524249857 45.727051480593076
317.1199191073112 137.21350339536906 46.67917781386333
314.7679844005447 137.38153929830162 45.244206610124145
319.4156051940164 136.96559332557683 45.32827195679118
321.58176830670334 136.44856600567732 44.03964299000877
329.7777840302567 134.7945151094037 46.401807920629274
333.5783344309971 134.52111254462048 46.20727348197256
331.71355613996576 134.6487330504913 45.23244405135897
335.2072050927905 134.1460394058829 44.86316990468438
315.7462215547236 113.0481074559554 49.38765401848643
317.9188618361331 112.73265449215207 48.53510206594755
319.9268820752351 113.26470533400128 47.67963833014045
321.82387096732515 114.06399826929743 47.06983286520952
312.3521924686292 114.12454494598471 49.25079538707258
310.5995483056778 115.12548639265776 48.58825453241627
321.25690483887223 113.91988556847522 48.85672044028449
322.97596479186643 115.23739169464854 48.92172232999001
325.1848695223224 116.15677893599545 47.952464222296854
327.27320431209 116.47147415020918 47.19410817018544
309.10291877237347 116.81207066369807 47.94705860610996
326.8898448534028 116.8325531305124 49.31999221798471
329.00706287696505 116.88172482820768 48.52159813028758
330.71083027882247 117.4150507375821 49.99044221292971
332.9906072840477 117.68662978473156 49.34624203662141
335.37792532434395 117.8970165359182 49.04384223710439
337.586625058867 118.4314629649057 48.841342986544504
339.7596502111503 118.66860490402973 48.446874545871445
308.0207412836931 118.80234231222914 46.94840805718291
340.8006614229101 120.46937713355341 49.52174554036581
341.69712240839607 122.13062232582578 50.318880651700006
307.5124694153361 121.13726966953195 48.00996151012213
308.001670789782 126.20050539385018 49.567841666599215
342.7376010625911 123.86260663102962 49.550624810090206
342.3212486637785 121.79868281595253 48.36910423521809
343.6988084992768 126.26108820019597 48.24348248089048
307.4147296207512 123.77506210618964 48.85987305471799
308.1819288250085 128.09161187311003 48.11755672084262
341.94854576496385 126.06918048313378 50.66124224619064
309.1564480803818 129.82697895026166 49.384236056268804
342.2240150999835 128.5165201661544 49.540072353258964
309.93591338153766 131.9798875924313 48.48840327535349
340.50050011501855 130.89854408016888 50.08778568612992
339.5804539567078 132.8915076349126 48.78026329100606
311.0372347595436 134.15700126090192 47.499967671893074
313.0755249968656 135.09761221936532 48.83391630970279
325.6574345768153 134.27689494008277 48.76883840793689
327.69881492263244 133.85412916046516 49.89743383842905
335.3617775944121 133.70232615175678 49.791105603505216
335.51251225238167 134.27750123283 47.17957087846397
337.7166613074896 134.1040841664192 48.27111408199782
316.9959534184919 135.9456991236448 48.989623343396254
314.84552984943986 136.55125932962008 47.81550585614409
319.24609347087426 136.09820664714732 47.81079794570412
321.4476737979207 135.83884202821594 46.52103300775205
329.8575246055099 134.23087304654908 48.790346529864706
333.7339317894554 134.27931905819582 48.16616069239732
331.834316029708 134.39155603301708 47.474178329327465
315.39073058446644 114.45535305334543 51.44998494745867
317.61621372432757 113.65379383880517 50.670805805334815
319.6719062060086 113.45125638139206 49.79117307072309
313.00883775513194 114.74594942073122 51.18333341113
314.051194785064 113.83188200852098 49.89214359672044
311.33758329563176 115.2186963250506 50.3929804818103
321.3121769773179 114.60112579221833 50.6039673961641
322.8926717886725 115.97091366872424 51.37256353862787
324.79987072481623 116.56672604818564 50.22630843556461
309.83431246132756 116.51174196485618 50.25496229805939
308.30595124463207 118.82474924725624 49.8593620381756
328.54084637166795 117.57943066767352 50.60354798129844
330.09745915566396 118.36776804107147 51.943150475563954
332.21808438499846 118.18670454207134 51.49313904395013
334.3728737703614 118.5663137966073 51.05719282663725
336.5832663245941 119.04251562129531 50.72734491062158
338.79439655858425 119.6391128538381 50.33933016644196
340.00032098901596 121.50528690899694 51.77424861099091
341.2049193323664 123.76892788615062 51.42206476519257
308.08712947484844 121.76161013355433 50.67766628587093
308.2890051751396 124.41147824205994 51.35220050362577
308.4809499722659 128.10268886079353 50.154148071118605
309.5434334336349 129.10551047341346 51.57899100674914
310.50307232760775 131.2119442228571 50.846736055513546
324.89157870333844 132.33270315908425 52.03489653093285
327.3661827111575 132.71843683405675 52.19040287031621
338.1048184523308 130.235016734805 52.42620197686633
311.6382865419225 133.30183739824852 49.92975940030118
313.87059923212416 134.07416786122235 51.002058458720015
320.96630652542956 134.07403451426444 51.36434589128753
323.5280362908619 133.76674481006978 50.2735693058725
316.62935991017355 134.21009607825144 51.06738317309748
315.01259556341654 135.5505095313532 49.81827182444933
319.0182588023773 134.9965575580067 50.09084626789886
321.30652872526167 135.0042691708758 48.98499612433447
315.8848040627755 115.54780716907096 53.334591935593
317.5339028852375 114.8284177449229 52.60864209107184
319.41153158005534 114.56926924368369 51.6001346467347
311.5147275461505 116.43280542339814 52.2192615216386
313.9986182140367 115.99562008078516 52.76165961969995
320.95529714992426 115.76511936930319 52.391359792926494
322.25495310333315 117.10798573232371 52.95460259904433
324.33202664508684 117.75685480325768 52.391119719368824
326.1760195334276 118.79719190564765 52.627955453002286
328.0187740809895 118.63487512241666 52.39398215471953
329.57547631240817 120.30016500535075 53.319173386112446
331.4520546476263 119.384436023016 52.78715165533207
333.3493600007898 119.55611470180756 52.75776317416447
335.51504228277355 119.82352583585661 52.55492603582485
337.66300139561673 120.43618688053296 52.22573710817387
309.65738233481693 117.8934310824823 51.857647455032094
309.4050738127601 120.06003666563322 52.25880115110339
336.3734968396696 121.34178793184292 53.53830539665316
309.4398111358204 122.5906721415362 52.921987574443854
338.06423101331876 122.42649183851444 53.28485599758676
339.731096749046 123.56150659565824 52.846551920924036
340.1545733267677 125.6464521206215 52.494332235311234
309.82734329734194 125.1850728550032 53.40351932729613
308.8488394310368 126.8462272407722 51.72929893432273
324.0609547515728 130.77679186324116 53.60911316498233
340.4399947631346 128.21679868820434 51.678500419663166
311.503866224066 129.9530836774884 52.764668225718324
313.78074314110194 130.48697539221382 53.4891037281386
326.0307761217307 131.47179924110665 53.48577126510667
327.9709726541841 131.30515928885666 54.4031125468276
334.1350578933277 131.75366116813396 53.4229961569994
312.6214837871664 132.04923447483236 51.943939030888245
315.0823865328296 132.39852022107704 52.52783479813846
320.0378023298514 132.25259020207864 52.78879600636986
322.50280094783295 132.28935898727363 52.35031193224522
329.48736562434294 132.3342162704188 53.10645415862756
333.9809489364971 133.20044057849077 51.83728309806503
335.9960484404766 132.1873577665701 52.04053726269722
337.9784316758975 132.5225923867193 50.388958504004606
318.84727095038403 133.61545637011523 51.66899265063383
329.7608745569225 133.27383039960503 51.13492866881587
332.3357599032956 133.83949770540406 50.04911155001641
319.2269106809431 115.66228083629397 53.16361709621163
315.2154802860119 117.14018129911362 54.319620767904354
317.62139213034294 116.68189938151026 54.18400889174917
320.24750233028885 117.46236349998834 53.90195584786697
312.9781350509433 117.6484078754983 54.06538334026648
312.3129007965355 119.48088661089356 54.78424600126032
322.4502912017328 119.19672450897629 53.83348506892947
324.94640546093154 119.79340237518147 53.62955734460731
327.099239888314 120.22918666312943 53.42141716154898
331.98767892221207 121.03808005206065 53.72270773525729
334.3391126049511 121.36288841355277 53.74982451123335
310.9017700138164 118.59249963045026 53.49442302434111
328.0448511013029 122.11972186928674 54.19675630695424
330.3163983682243 122.49539621718198 54.47144881869048
332.8623993861712 123.41812258745578 54.681868711994625
310.94196689489945 120.89642693193206 54.0733436426137
335.8121906307112 123.50280150830918 54.14692666647316
338.1038596761645 124.76540807268681 53.50251453976405
311.39299683213756 123.36014815249588 54.640447344230154
336.2080611903788 126.15021935671172 54.10143422370296
338.27525178723636 127.29562559126906 53.14966915449203
312.0193603855782 126.00388041359015 54.813251048219314
336.2477728654427 128.6149372644439 53.92256550708386
312.698148274205 128.51596308444417 54.441817635161826
310.5137078080168 127.71065326295022 53.38921808059493
314.8139684903348 129.02984580733946 54.69647495881532
321.5053392103666 130.39420734732158 53.87468254952827
332.5147540418331 130.78094044053802 54.147503675380364
334.2433613085887 129.75221775552868 54.50932604891904
335.82528302585206 130.5972292645018 53.42094932122713
316.18161111865766 130.51091898971336 53.88041775928686
318.7700799865805 130.34194303215787 54.005013795218964
330.4492339476105 130.8089786866547 54.305456637907774
331.811044964845 132.38614335314855 52.647877740677814
317.58548350949593 132.37453879997108 52.86291453908344
316.54177413364005 118.44856091097991 54.948949228565205
318.4749727651446 118.88927530796943 54.886667566791736
320.3436112224002 119.5654763743289 54.610025269201024
319.07440484720485 121.0856087147829 55.224970548689384
323.63423270676344 121.41211307477799 54.43693242815468
325.81846053582115 121.7990323764957 54.22232525914308
312.93528919423466 121.43900715309276 55.45717733120915
321.3899904852739 121.29496506377798 54.87098733196077
328.8334102559591 123.81297344653025 54.82535982090256
330.58557775096676 124.69034752452085 55.044933536564194
322.57812349696974 123.33220645138351 54.983398100584836
324.5644462062415 123.16279429752964 54.71821306038338
326.62145062679343 124.07481390777546 54.92871953739507
334.3713053197888 125.28965110979158 54.76479430499624
324.1697012093078 125.19466969408188 55.017275084517024
314.48230553375265 126.93142676198792 55.31548324920532
326.2785414215207 126.88552771470262 54.9227319683599
332.43823190085476 126.02950866404377 55.167440033174586
334.2530245569072 127.41348144510887 54.62043101320509
321.5483839437986 125.61716842930652 55.13217629715705
323.40536733544144 128.07414235442434 54.56593649133858
326.08131088264855 129.5404287834536 54.42737148645324
331.89064440053147 128.6026087760699 54.78097798931131
317.09296977176245 128.1517336102038 55.235082710632
320.19030296439 128.06523446171917 54.80272596256142
314.53956553765477 119.38344570733693 55.18964000980469
316.84936310985603 120.37694325451652 55.54850871895147
315.143046012649 121.65839363845151 55.55680383643648
320.1377800359708 123.33093831666065 55.544991473712095
328.60219752081025 125.79922815188084 54.945590311707214
314.2050875578789 124.01503630032838 55.374557740212886
326.49932098330675 117.5184168065763 51.37204678528314
325.8283497661613 133.40971441848893 50.64417873671236
316.3490927967145 125.57957931419651 55.53523353854766
323.51000504635573 134.81544742283782 47.67384612469919
323.6488584122396 115.2533557854636 46.40496029153637
323.58297737792174 135.565423114834 45.2519023246601
337.8555246385599 118.10720975269757 45.48419316823966
335.75697399864833 117.78196902356471 45.04111274510026
318.76775861664123 125.6584218462619 55.46525533716608
342.1395379167503 121.6735851082599 43.61029378825062
337.1281639525458 118.54511371699225 43.53712530244934
335.0617205752646 118.21466619156226 43.07430709552207
332.9555860761404 117.74316537942767 42.63952146858867
319.60080636357907 113.11303017943072 42.273667751156616
341.07906746915523 122.24298392491357 41.59649117918033
336.32427646724693 119.09732131584394 41.62512904023622
334.3022128482956 118.68455778451072 41.18108021751503
332.32911993812246 118.21884432246362 40.59925541301072
330.46740549811506 126.74258392680292 55.05468281711861
319.28982636408165 113.30061842528903 40.491960419085146
328.8133436892513 128.58034275476663 55.078449284568926
339.56834942241585 123.05831419202669 40.25372850998792
335.4144087268449 119.918958567188 39.90814749981476
333.61348413673306 119.206442970856 39.37729671418889
331.8089600501331 118.76804790952451 38.76740525113116
329.9194764729117 118.30892336845224 38.23740482387962
319.1440250967745 113.88729516363269 38.47036581176206
337.57276149995727 125.73019017911055 38.80341968356367
332.8092305262954 120.21851292255731 37.9791800182844
330.9648639942504 119.77896988241832 37.29091186271937
329.0057923618447 119.28301399008359 36.546004224407895
319.02947332922264 114.65684699135294 36.512441560166806
329.9995513187379 121.08313973725555 36.09817876206649
328.01095432114045 120.8877791442655 35.35785191646727
317.2196392006964 123.09857084331003 55.655839061315184
329.13331251875024 122.37942330994136 35.16022004471861
322.4586504469513 122.65480257301618 31.65520660830808
325.44274934127986 116.00982591126659 41.67505489188531
POLYGONS 1118 4472
3 0 5 8
3 3 5 0
3 5 4 7
3 0 8 9
3 9 8 13
3 6 9 11
3 8 7 10
3 9 13 11
3 10 1 8
3 13 1 12
3 14 3 25
3 26 31 4
3 0 6 15
3 559 15 6
3 559 6 16
3 4 31 7
3 6 11 16
3 7 17 10
3 11 13 20
3 20 34 11
3 10 17 18
3 10 18 19
3 13 22 20
3 19 21 1
3 22 13 12
3 24 2 14
3 48 25 27
3 25 15 27
3 559 16 29
3 28 29 35
3 31 26 52
3 36 64 30
3 30 64 59
3 37 38 18
3 18 38 19
3 20 22 67
3 39 20 67
3 39 34 20
3 40 34 39
3 34 40 35
3 36 35 40
3 65 38 37
3 41 43 21
3 22 12 42
3 42 67 22
3 98 43 41
3 46 24 44
3 24 14 44
3 44 14 47
3 14 25 47
3 72 47 48
3 23 50 26
3 50 77 51
3 558 28 53
3 51 55 52
3 59 87 54
3 54 87 56
3 52 55 32
3 56 87 60
3 39 62 40
3 62 63 40
3 40 63 36
3 63 64 36
3 37 61 65
3 65 98 41
3 66 42 69
3 69 42 68
3 70 44 45
3 70 45 71
3 46 74 23
3 70 73 46
3 72 48 75
3 76 23 74
3 23 76 50
3 48 49 78
3 78 49 79
3 558 81 555
3 558 53 81
3 51 77 118
3 51 118 55
3 55 118 84
3 55 84 57
3 56 85 83
3 85 56 60
3 83 85 117
3 84 86 58
3 87 92 60
3 60 93 85
3 85 93 129
3 62 66 96
3 62 96 90
3 63 89 64
3 91 87 59
3 92 87 91
3 59 64 91
3 61 88 94
3 61 94 65
3 96 66 69
3 73 104 74
3 138 103 70
3 70 103 73
3 76 109 77
3 106 74 104
3 74 106 76
3 78 79 144
3 77 109 110
3 551 552 111
3 555 111 552
3 555 81 111
3 108 551 112
3 551 111 112
3 111 81 82
3 111 82 112
3 108 112 113
3 117 550 115
3 117 85 550
3 122 159 124
3 64 124 91
3 91 124 125
3 91 125 92
3 92 125 126
3 92 126 93
3 93 126 127
3 93 127 129
3 129 127 128
3 88 121 130
3 88 130 94
3 96 69 133
3 132 96 133
3 132 123 90
3 90 96 132
3 160 125 124
3 160 124 159
3 166 126 125
3 166 125 160
3 161 127 126
3 161 126 166
3 202 128 127
3 202 127 161
3 95 131 135
3 95 135 98
3 103 142 104
3 168 141 138
3 138 141 103
3 145 104 142
3 104 145 106
3 546 551 108
3 546 108 545
3 179 545 113
3 108 113 545
3 179 113 148
3 113 115 148
3 148 115 544
3 152 128 153
3 122 195 159
3 128 196 153
3 121 154 155
3 121 155 130
3 132 133 158
3 157 132 158
3 123 132 157
3 131 156 163
3 131 163 135
3 242 160 159
3 166 160 242
3 141 172 142
3 167 171 168
3 168 171 141
3 140 173 170
3 140 143 173
3 173 143 174
3 145 180 146
3 175 142 172
3 142 175 145
3 144 176 174
3 144 147 176
3 176 147 177
3 146 180 181
3 146 181 184
3 179 148 182
3 186 149 189
3 192 152 153
3 192 153 193
3 196 193 153
3 154 194 197
3 154 197 155
3 157 158 200
3 199 157 200
3 199 195 157
3 201 195 199
3 202 196 128
3 156 198 204
3 156 204 163
3 159 201 242
3 242 241 166
3 166 241 161
3 243 202 161
3 171 207 211
3 171 211 172
3 167 207 171
3 173 174 212
3 214 211 255
3 214 255 213
3 214 172 211
3 172 214 175
3 176 177 215
3 214 213 180
3 220 224 221
3 226 269 224
3 224 189 192
3 224 192 226
3 224 269 221
3 226 192 193
3 226 193 227
3 229 227 193
3 193 196 229
3 194 228 230
3 194 230 197
3 199 200 233
3 232 199 233
3 199 232 201
3 232 234 201
3 198 231 238
3 198 238 204
3 201 234 240
3 201 240 242
3 208 245 244
3 245 208 209
3 250 251 249
3 249 244 250
3 255 256 213
3 255 251 256
3 215 216 254
3 254 216 257
3 213 256 260
3 213 260 263
3 265 220 221
3 265 221 266
3 269 226 271
3 269 266 221
3 271 226 227
3 271 227 272
3 274 272 227
3 227 229 274
3 228 273 275
3 228 275 230
3 280 236 235
3 231 276 282
3 231 282 238
3 234 279 285
3 234 285 240
3 250 294 251
3 250 293 294
3 293 244 288
3 244 293 250
3 256 298 305
3 298 251 294
3 251 298 256
3 297 257 299
3 309 265 266
3 266 269 312
3 314 271 272
3 314 272 315
3 274 280 318
3 317 274 318
3 317 315 272
3 272 274 317
3 273 316 319
3 273 319 275
3 323 318 280
3 280 235 323
3 276 320 325
3 276 325 282
3 279 322 328
3 279 328 285
3 243 331 235
3 331 323 235
3 293 337 294
3 336 288 384
3 288 336 293
3 338 334 335
3 335 339 338
3 298 350 305
3 342 294 337
3 294 342 298
3 343 340 341
3 341 344 343
3 344 297 299
3 344 299 345
3 351 304 356
3 304 306 356
3 352 351 356
3 356 355 352
3 309 266 357
3 357 362 360
3 266 312 357
3 362 314 315
3 362 315 364
3 317 318 365
3 364 317 365
3 315 317 364
3 316 363 366
3 316 366 319
3 371 323 331
3 371 372 323
3 372 365 318
3 318 323 372
3 320 367 374
3 320 374 325
3 322 369 377
3 322 377 328
3 370 371 378
3 329 378 371
3 329 371 331
3 336 385 337
3 383 384 380
3 384 383 336
3 386 338 339
3 386 339 387
3 389 337 385
3 337 389 342
3 391 344 345
3 391 345 392
3 342 390 350
3 351 352 397
3 397 352 398
3 398 352 355
3 440 436 360
3 440 360 362
3 362 364 440
3 364 365 453
3 363 403 407
3 363 407 366
3 524 410 404
3 410 368 526
3 410 524 368
3 524 404 405
3 371 370 372
3 370 453 372
3 365 372 453
3 367 408 412
3 367 412 374
3 409 410 414
3 409 414 413
3 375 413 414
3 375 414 376
3 414 410 526
3 526 376 414
3 369 405 455
3 369 455 377
3 370 378 456
3 383 418 385
3 380 419 383
3 380 415 419
3 420 386 387
3 420 387 421
3 389 430 390
3 385 418 389
3 424 391 392
3 424 392 425
3 390 430 431
3 390 431 399
3 432 428 429
3 429 434 432
3 437 481 438
3 436 440 477
3 402 481 441
3 402 441 403
3 443 404 439
3 404 443 405
3 443 444 405
3 403 441 446
3 403 446 407
3 446 441 442
3 446 442 447
3 439 404 449
3 404 410 449
3 405 444 450
3 445 486 452
3 445 452 451
3 452 370 451
3 452 486 406
3 452 406 453
3 370 452 453
3 408 447 411
3 408 411 412
3 411 447 491
3 448 454 491
3 411 491 454
3 411 454 413
3 454 448 409
3 409 413 454
3 405 450 455
3 455 450 490
3 455 490 456
3 456 490 451
3 456 451 370
3 419 461 418
3 458 415 459
3 415 458 419
3 457 460 459
3 460 420 421
3 460 421 463
3 463 421 422
3 418 461 468
3 461 462 468
3 463 422 464
3 464 422 423
3 464 423 465
3 465 423 424
3 462 472 468
3 425 470 469
3 466 471 470
3 425 466 470
3 466 467 471
3 467 473 471
3 432 434 473
3 434 474 473
3 436 477 474
3 479 477 406
3 481 478 480
3 481 480 441
3 439 512 513
3 439 513 443
3 444 543 489
3 485 486 445
3 485 445 484
3 485 479 486
3 486 479 406
3 442 482 487
3 442 487 447
3 448 488 483
3 448 483 449
3 439 449 483
3 444 489 450
3 450 489 490
3 489 484 490
3 490 484 445
3 445 451 490
3 491 488 448
3 459 492 458
3 492 459 493
3 493 459 460
3 460 463 494
3 494 499 495
3 494 463 499
3 465 469 497
3 462 498 472
3 462 517 498
3 517 519 498
3 496 502 499
3 463 496 499
3 496 503 502
3 496 497 503
3 497 504 503
3 469 504 497
3 469 500 504
3 469 470 500
3 470 501 500
3 501 470 471
3 498 519 522
3 503 506 502
3 503 504 506
3 511 502 506
3 505 473 476
3 473 474 476
3 478 522 507
3 511 506 512
3 505 510 509
3 505 476 510
3 474 477 476
3 512 508 513
3 508 543 513
3 509 510 514
3 510 479 485
3 510 485 514
3 476 479 510
3 478 507 480
3 516 512 483
3 483 512 439
3 543 541 514
3 489 543 514
3 489 514 484
3 485 484 514
3 482 515 487
3 487 515 488
3 515 516 488
3 488 516 483
3 493 495 518
3 517 518 519
3 495 520 557
3 499 520 495
3 499 502 520
3 557 522 519
3 520 511 531
3 504 508 506
3 500 501 521
3 471 505 509
3 471 509 501
3 508 521 543
3 541 543 521
3 521 501 541
3 501 509 541
3 511 516 531
3 541 509 514
3 507 525 515
3 525 531 515
3 515 531 516
3 1 13 8
3 2 4 5
3 5 3 2
3 5 7 8
3 0 9 6
3 1 10 19
3 2 26 4
3 3 0 15
3 25 3 15
3 34 16 11
3 31 32 17
3 17 7 31
3 21 43 12
3 12 1 21
3 24 23 26
3 26 2 24
3 16 34 35
3 35 29 16
3 36 30 35
3 31 52 32
3 33 17 32
3 33 37 18
3 18 17 33
3 38 65 41
3 21 19 38
3 38 41 21
3 42 12 43
3 70 46 44
3 45 44 47
3 47 72 45
3 23 24 46
3 27 29 49
3 49 48 27
3 50 51 52
3 52 26 50
3 30 59 53
3 59 54 53
3 55 57 32
3 57 84 58
3 33 32 57
3 57 58 33
3 58 61 37
3 37 33 58
3 66 62 67
3 67 62 39
3 66 67 42
3 68 43 98
3 43 68 42
3 45 72 71
3 74 46 73
3 78 75 48
3 77 50 76
3 54 56 82
3 56 83 82
3 60 92 93
3 88 61 86
3 86 61 58
3 94 95 98
3 98 65 94
3 99 68 97
3 97 68 98
3 99 100 69
3 69 68 99
3 101 138 70
3 102 71 72
3 104 73 103
3 102 72 75
3 75 105 102
3 75 78 105
3 109 76 106
3 79 80 107
3 107 144 79
3 114 77 110
3 114 118 77
3 113 117 115
3 113 83 117
3 116 118 114
3 116 84 118
3 119 84 116
3 85 129 550
3 119 120 86
3 86 84 119
3 89 122 124
3 124 64 89
3 121 88 120
3 120 88 86
3 130 131 95
3 95 94 130
3 134 97 135
3 135 97 98
3 136 99 134
3 134 99 97
3 137 100 136
3 136 100 99
3 69 100 133
3 133 100 137
3 139 168 138
3 138 101 139
3 142 103 141
3 143 140 105
3 145 146 109
3 109 106 145
3 184 110 146
3 146 110 109
3 149 544 115
3 187 114 184
3 184 114 110
3 115 550 149
3 190 116 187
3 187 116 114
3 150 119 190
3 190 119 116
3 129 128 152
3 152 550 129
3 150 151 120
3 120 119 150
3 154 121 151
3 151 121 120
3 155 156 131
3 131 130 155
3 162 134 163
3 163 134 135
3 164 136 162
3 162 136 134
3 165 137 164
3 164 137 136
3 133 137 158
3 158 137 165
3 169 167 168
3 168 139 169
3 172 141 171
3 175 214 180
3 180 145 175
3 148 544 182
3 544 537 182
3 183 184 181
3 183 187 184
3 185 187 183
3 185 190 187
3 188 190 185
3 188 150 190
3 188 191 151
3 151 150 188
3 191 194 151
3 194 154 151
3 197 198 156
3 156 155 197
3 203 162 204
3 204 162 163
3 205 164 203
3 203 164 162
3 206 165 205
3 205 165 164
3 158 165 200
3 200 165 206
3 195 201 159
3 208 207 167
3 209 208 167
3 167 169 209
3 249 211 207
3 560 212 174
3 177 178 216
3 216 215 177
3 217 538 179
3 263 181 213
3 213 181 180
3 217 179 182
3 182 218 217
3 267 183 263
3 263 183 181
3 186 189 224
3 224 220 186
3 219 222 267
3 267 222 183
3 219 185 222
3 222 185 183
3 219 223 185
3 223 188 185
3 223 225 191
3 191 188 223
3 225 228 191
3 228 194 191
3 196 236 229
3 202 235 236
3 236 196 202
3 230 231 198
3 198 197 230
3 237 203 238
3 238 203 204
3 237 239 203
3 239 205 203
3 284 206 239
3 239 206 205
3 200 206 233
3 233 206 284
3 241 242 240
3 243 161 241
3 235 202 243
3 209 536 246
3 246 245 209
3 248 210 212
3 207 208 244
3 244 249 207
3 212 252 248
3 211 249 251
3 251 255 211
3 262 263 260
3 262 267 263
3 264 267 262
3 264 219 267
3 264 268 219
3 268 223 219
3 268 270 225
3 225 223 268
3 270 273 225
3 273 228 225
3 236 280 229
3 280 274 229
3 275 276 231
3 231 230 275
3 281 237 282
3 282 237 238
3 281 283 237
3 283 239 237
3 283 284 239
3 233 284 278
3 285 287 240
3 287 241 240
3 286 243 287
3 287 243 241
3 245 289 244
3 244 289 288
3 252 253 295
3 295 527 252
3 296 253 254
3 254 257 297
3 297 296 254
3 257 258 300
3 300 299 257
3 303 529 259
3 303 259 261
3 261 304 303
3 307 260 305
3 305 260 256
3 310 262 307
3 307 262 260
3 308 264 310
3 310 264 262
3 308 311 264
3 311 268 264
3 314 312 271
3 271 312 269
3 311 313 270
3 270 268 311
3 313 316 270
3 316 273 270
3 319 320 276
3 276 275 319
3 324 281 325
3 325 281 282
3 324 326 281
3 326 283 281
3 326 327 283
3 327 284 283
3 278 327 528
3 278 284 327
3 328 330 285
3 330 287 285
3 329 286 330
3 330 286 287
3 329 331 286
3 331 243 286
3 291 292 335
3 335 334 291
3 337 293 336
3 289 332 288
3 288 332 384
3 335 292 527
3 527 339 335
3 295 296 341
3 341 340 295
3 350 298 342
3 341 296 297
3 297 344 341
3 299 300 346
3 346 345 299
3 349 303 304
3 304 351 349
3 350 353 307
3 307 305 350
3 358 310 353
3 353 310 307
3 306 309 356
3 356 309 355
3 355 309 357
3 357 360 355
3 354 308 358
3 358 308 310
3 354 359 308
3 359 311 308
3 314 362 357
3 357 312 314
3 359 361 313
3 313 311 359
3 361 363 313
3 363 316 313
3 366 367 320
3 320 319 366
3 373 324 374
3 374 324 325
3 373 375 324
3 375 326 324
3 375 376 326
3 376 327 326
3 528 376 526
3 528 327 376
3 377 379 328
3 379 330 328
3 378 329 379
3 379 329 330
3 385 336 383
3 332 380 384
3 382 334 338
3 338 386 382
3 339 340 388
3 388 387 339
3 389 390 342
3 388 340 343
3 343 523 388
3 343 344 391
3 391 523 343
3 345 346 393
3 393 392 345
3 396 348 349
3 399 353 390
3 390 353 350
3 396 349 351
3 351 397 396
3 400 358 399
3 399 358 353
3 398 355 360
3 360 436 398
3 438 354 400
3 400 354 358
3 438 401 354
3 401 359 354
3 401 402 361
3 361 359 401
3 364 453 406
3 406 440 364
3 402 403 361
3 403 363 361
3 407 408 367
3 367 366 407
3 411 373 412
3 412 373 374
3 411 413 373
3 413 375 373
3 455 456 377
3 456 379 377
3 456 378 379
3 417 381 382
3 418 383 419
3 417 382 386
3 386 420 417
3 388 422 387
3 387 422 421
3 418 468 430
3 430 389 418
3 422 388 523
3 523 423 422
3 392 393 426
3 426 425 392
3 395 396 429
3 429 428 395
3 429 396 397
3 397 434 429
3 398 435 397
3 397 435 434
3 436 474 435
3 435 398 436
3 431 433 399
3 433 400 399
3 437 400 433
3 437 438 400
3 406 477 440
3 438 481 402
3 402 401 438
3 446 447 408
3 408 407 446
3 409 448 449
3 449 410 409
3 416 417 457
3 457 459 416
3 458 517 461
3 461 419 458
3 416 459 415
3 425 469 465
3 465 424 425
3 426 427 466
3 466 425 426
3 427 428 467
3 467 466 427
3 468 472 431
3 431 430 468
3 467 428 432
3 432 473 467
3 434 435 474
3 475 433 472
3 472 433 431
3 478 437 475
3 475 437 433
3 481 437 478
3 476 477 479
3 480 482 442
3 442 441 480
3 443 513 444
3 513 543 444
3 487 488 491
3 491 447 487
3 492 517 458
3 494 495 493
3 493 460 494
3 462 461 517
3 464 465 497
3 497 496 464
3 473 505 471
3 498 522 475
3 475 472 498
3 478 475 522
3 512 516 511
3 506 508 512
3 507 515 482
3 482 480 507
3 518 517 492
3 492 493 518
3 557 519 518
3 518 495 557
3 557 520 531
3 520 502 511
3 504 500 521
3 521 508 504
3 525 507 522
3 525 522 557
3 557 531 525
3 2 3 14
3 25 48 47
3 29 27 559
3 559 27 15
3 53 28 30
3 30 28 35
3 29 80 49
3 80 79 49
3 556 80 28
3 28 80 29
3 555 556 558
3 558 556 28
3 82 81 54
3 54 81 53
3 89 63 90
3 90 63 62
3 554 101 71
3 71 101 70
3 554 71 102
3 140 102 105
3 144 105 78
3 553 107 556
3 556 107 80
3 552 553 555
3 555 553 556
3 113 112 83
3 83 112 82
3 123 122 90
3 122 89 90
3 549 139 554
3 554 139 101
3 140 554 102
3 140 549 554
3 143 105 144
3 548 147 553
3 553 147 107
3 547 548 552
3 552 548 553
3 546 547 551
3 551 547 552
3 152 149 550
3 157 195 123
3 195 122 123
3 542 169 549
3 549 169 139
3 170 549 140
3 170 542 549
3 144 174 143
3 178 177 548
3 548 177 147
3 540 178 547
3 547 178 548
3 539 540 546
3 546 540 547
3 538 539 545
3 545 539 546
3 179 538 545
3 186 544 149
3 186 537 544
3 192 189 152
3 152 189 149
3 536 209 542
3 542 209 169
3 210 542 170
3 210 536 542
3 212 210 173
3 173 210 170
3 215 560 176
3 176 560 174
3 535 216 540
3 540 216 178
3 534 535 539
3 539 535 540
3 533 534 538
3 538 534 539
3 533 538 217
3 259 217 218
3 218 261 259
3 532 218 537
3 537 218 182
3 220 537 186
3 220 532 537
3 247 536 210
3 247 246 536
3 247 210 248
3 292 248 252
3 252 527 292
3 254 253 215
3 215 253 560
3 258 257 535
3 535 257 216
3 530 258 534
3 534 258 535
3 529 530 533
3 533 530 534
3 217 259 533
3 259 529 533
3 532 261 218
3 265 532 220
3 277 232 278
3 278 232 233
3 279 234 277
3 277 234 232
3 246 290 245
3 290 289 245
3 247 291 246
3 291 290 246
3 248 292 247
3 292 291 247
3 295 253 296
3 301 300 530
3 530 300 258
3 302 301 529
3 529 301 530
3 302 529 303
3 532 306 261
3 306 304 261
3 309 306 265
3 265 306 532
3 321 277 528
3 528 277 278
3 322 279 321
3 321 279 277
3 290 333 289
3 333 332 289
3 291 334 290
3 334 333 290
3 340 527 295
3 340 339 527
3 301 347 300
3 347 346 300
3 302 348 301
3 348 347 301
3 303 349 302
3 349 348 302
3 368 321 526
3 526 321 528
3 369 322 368
3 368 322 321
3 333 381 332
3 381 380 332
3 334 382 333
3 382 381 333
3 347 394 346
3 394 393 346
3 348 395 347
3 395 394 347
3 395 348 396
3 405 369 524
3 524 369 368
3 381 416 380
3 380 416 415
3 416 381 417
3 457 417 420
3 420 460 457
3 424 523 391
3 424 423 523
3 394 427 393
3 427 426 393
3 395 428 394
3 428 427 394
3 496 463 464
3 107 147 144
3 253 252 560
3 560 252 212
