# vtk DataFile Version 3.0
A great-looking cell
ASCII
DATASET POLYDATA
POINTS 476 double
79.59032821415158 45.59995631397944 55.34505043427259
75.45230747074781 48.36355072987047 48.19984263291997
74.35200624148756 50.74452059768659 47.898503381420724
76.51573843270891 43.94636271528563 52.809950757293244
80.70080999317217 46.74686821659331 56.73578448031995
75.87539590727717 46.93425665266284 49.03419591044612
63.51317562053953 47.881903071392955 56.43896071320582
66.29674877941021 45.18661225934961 64.14459316186199
63.50168193617197 48.52766871144073 53.75996257980823
80.34757415194895 51.535676598317266 54.61582814131155
62.709653999701665 48.907610471326436 58.902045390707904
72.7649226668874 45.41716372542537 50.42281701664003
74.3849561195199 47.46574447123766 48.57164348277663
75.79600276617485 50.19712426158287 48.287218898207726
62.13519114727507 49.582860099750256 55.5084219637094
64.81008051702095 50.67421210144543 49.869083799415044
74.55523079453005 43.189070941001276 65.30915236432669
69.43115605060025 60.83152378901205 47.18603485247055
74.83699489850186 43.257363295065474 53.21307662871671
57.18433627466558 52.167853858279855 55.84719147402261
79.30893595626462 47.58706159443397 51.35015830045961
72.02188105149776 48.528798621288395 48.241114177375316
70.31964283846176 43.07332720848771 62.529781240973584
74.39827334281824 41.69165323586757 57.74511093920738
79.10544479263031 51.17882607789259 51.09598740374873
75.15616395227757 52.216578493690626 47.843996203674955
70.68876196026993 46.04813093756311 50.07850743188404
80.18986673599699 44.56808289437848 57.90585921362465
71.66128509623817 44.63554278487398 65.51991115598469
76.98510723161097 51.455033912745954 66.75726746892938
68.58525511932571 61.90043295835078 65.30145422671195
76.6349634016974 41.507989087314954 59.464303850193346
79.3079263789061 55.57838259142471 49.29777475677301
68.62121315342279 43.70740314620542 58.008594838104905
72.43342416031281 42.08097048510779 58.522000458205426
77.01139265707079 43.340372302441764 64.734750545033
72.33798169860106 43.002844260541366 53.847164653973394
70.68088597241899 43.27762336298314 55.578769385198754
68.1137465200491 44.41417559787424 62.663085342979784
78.56809919501053 48.587693681716374 49.92662005236055
65.29353340063632 45.80149733912024 56.654456553700705
79.48972767694593 46.630983922036854 53.262780781784585
71.83575102355556 60.07767332375704 45.79059518796072
71.23358261588572 44.5130292528148 51.89334759966316
74.71660274716147 41.75524410122618 63.22827843959976
68.41112297756409 43.9401928893583 55.94551559439424
66.36101195990663 65.38863325813757 58.446967740518254
73.81443433047085 63.55914280245668 64.38839760701246
80.95609281670146 48.86143786043499 56.811490591373804
78.42949410554905 44.456511583780646 53.374674940950676
69.62965682732244 65.16447126662409 56.27195821503024
71.52470709939743 46.38751839006435 65.53608697744879
75.45613746058595 44.800770017093825 65.77006049388841
80.99720722640551 56.98881692556744 59.0070712844717
75.49936311527752 63.35765011251454 64.49589854034838
75.82806064852038 58.87471954897931 67.31362634216133
76.63722153801766 42.14047390691452 56.68228554064663
72.11480652093168 42.73300978797546 64.79024013348501
61.02832862287101 53.55917214273892 53.26729124773485
71.1198503714828 66.65239440259457 59.244030411915716
68.13775305786378 64.18829378532996 62.03714072292525
68.9251775038164 43.599571402772085 60.02509104426128
72.46815921736089 68.26079810773649 58.91599350618844
58.5338006561776 57.585086596036476 57.551849542501806
69.92082493116361 63.184652973745244 63.38415634178045
69.98630006886586 63.56730188926074 48.148767883046496
62.8483796574393 59.57919738077632 53.76900798130311
62.84448181836888 61.99853450505762 59.52697651531639
75.80831457417699 45.626701438940536 50.40088207946871
64.27194185433795 46.73687454881296 58.53358150568801
70.17671096686915 65.98708314354433 52.93614619721699
74.06586343916955 71.2866586850739 48.229977393334266
69.0843123747545 64.92523065951767 54.58879439076276
61.64595789974448 59.94873276738854 64.25788279015555
64.90882763053524 63.24351031101699 53.93264086415499
65.84873322843579 55.54622688618957 67.07663406667768
64.33981201420553 52.87574018792987 50.53202603960578
61.616944306563 59.07830522784091 66.2829744111834
76.58383952437602 43.3243285635724 54.55978338429109
60.064007015946416 51.18648840334468 54.79428052396112
80.32487353861151 47.736074775459855 54.94517386998569
62.08631914711423 60.77807831672951 56.5964049174175
74.34578234798016 45.237927546557614 50.895566889860184
66.87782300762167 44.50963466439466 58.247285129932
78.78437899125703 59.8934698066672 64.763484990393
68.5556389221372 45.43092086825359 51.97829285286404
66.44162522826583 58.90339603584963 48.17460841573983
75.95394185099342 62.51791473696929 42.24621480384323
78.54868457684023 42.47040934967544 57.92063349860516
80.0646568519824 51.05767488753703 63.841639991126456
64.54237280232654 59.98856228957784 52.415604782371794
70.41157880973662 65.19224046182055 59.32779167172867
72.2288679045465 68.76990962330453 44.31388446971276
83.36912048672053 64.30864754308286 53.84874464443304
62.78845787206539 61.90744791833554 57.75304718628271
76.19970816975253 69.97337720917871 59.23352411382278
79.9777515118534 67.26993636472163 59.109184116484926
68.58136429284652 64.27026009221805 52.53395576579854
74.853886306181 71.18356526871938 46.22992269863221
80.59400776881486 59.31639652388136 46.72860234475156
80.38298987186654 58.00662492881963 60.578940623374635
77.82544521203107 63.31463653659346 42.63445558097733
73.7512208776625 69.03558763420227 43.3046451909143
75.6686047764941 41.28443758743451 61.35776712247639
63.571413470320195 63.47383060150338 60.294805376957676
63.854898395335304 61.35453394199813 53.876671987635916
72.91605765613043 51.38937182574288 47.27880755297718
65.36005865870644 45.528070372971875 58.384018673959666
80.03738539380795 51.321564903688326 52.73047291748905
68.82867739604899 54.89986000916603 46.642363863054825
79.432166902109 49.712651134957966 51.11844226664513
83.82923082862011 60.92186513244525 49.85306247190884
68.36558894396765 64.68728175494206 59.95987194114418
73.1579369824368 69.40192014988004 57.01908427697924
71.25593071139735 42.25901409774468 60.26244139725578
76.66016098210605 47.43018179917371 67.29456685533334
57.7844661130138 57.663633766058396 60.638077856563434
66.41180169391994 65.28700465547205 61.10450041339078
83.26243829391191 64.80578089838298 51.895871793073766
73.85993785047357 71.02430971900351 53.32615885409895
68.26772097511822 62.80323253649375 50.30575984134621
63.824095643022225 47.589938577327814 62.65960094621361
80.72296977676085 65.75551688010918 45.55424508402521
79.24791040058473 42.74909990810235 60.2517802118897
64.19786324437013 59.65486676347946 66.87140899037934
76.75729289282995 71.5215568481318 46.93515987074747
72.82711997114073 70.79090264400908 49.64199134723022
79.59384981481182 70.1164728970178 50.89160854626942
77.48114599115999 66.3878038393627 42.354429862662606
80.17817665438633 55.06000251472365 52.16676356408239
71.63761714014554 55.43749644945164 67.26779393250071
81.68089538831569 66.8263728241329 55.33878959947741
77.42243877424069 45.91085881171871 66.08167142526658
83.90679165320098 62.39703192367672 55.31967932968742
75.97301912032492 71.71118638504481 51.544002236954356
80.46885054863996 68.68449406935076 48.976005193422665
75.18728543962735 64.3049292532482 42.25049949433752
72.88918544465854 57.88320231391757 45.69767532535182
79.00184695212947 59.18470454999423 45.74542635280117
74.30220683235439 46.1947077758748 49.60436460496803
57.44186222357004 50.04141197392751 60.46652917010083
55.29272949540693 52.333827829059906 59.672318039232415
83.04370837426899 62.554465323137045 58.17059296961908
59.01677972236101 50.64426408318776 61.83481753482211
63.54494072766681 56.898463103297566 66.56446699656327
66.8475212522011 60.483654985594406 66.84789554669622
72.0926206141417 70.11041439876759 50.71153786656522
69.9886732409771 47.928755285719554 66.98680286630379
56.23426863065993 51.59847279954437 61.471899310248986
81.66788908831654 47.22212806804258 58.96971378026609
65.80628939014748 53.172067374424195 66.7253985984151
75.74782556321345 70.87281247884896 44.28840836576696
81.21580235114926 44.84876895030137 60.899857007586945
79.9261041177073 68.54463147540895 44.96370141729799
80.35036907251273 63.85833247700345 44.62140043645077
81.36262609038836 66.91983723338646 48.17597930635828
73.95404334212635 64.9262476575753 62.63895099417188
77.27329166213256 53.31981283377771 48.840596060484856
81.98211009535294 66.35604635114892 50.16734462947433
61.39713118042167 51.78660992455587 53.34694490191468
70.41036988077117 57.262008862092806 45.88410978562844
80.82605897251612 68.48410259222285 51.86536158030437
81.17371774523717 48.71070740343994 63.87483115042526
79.17719799898325 65.05128702179042 43.03649819746998
80.43331804903724 44.822235961350074 64.60893369059794
79.37769109886808 69.01091824653913 57.408043245062785
74.60966350679853 66.83411716386318 42.27610467767831
77.05082161252916 48.52899768164849 48.92230587569575
56.313279605976994 56.06012062895711 58.7872668258011
70.49122434394795 48.04399289743183 48.673178235500664
81.54355111378857 48.68283857136539 60.364382261596674
59.2378233690166 56.83410248712602 62.60961326249751
78.16680098276692 48.19302006473612 66.53262113030192
77.39509479847206 55.195521829391865 48.14921072968278
82.5366664564742 58.22464814557803 58.85120649856814
65.9309232916338 58.011355715955546 67.81484485417525
81.70935563348252 63.0465442315544 46.11707021053935
79.60433201031545 51.12955472010735 65.76776573043121
65.80447362641091 45.76516813015148 65.97270628928253
73.98122609400336 50.46948604280119 66.58637146114835
60.660831252769036 58.24186346711233 63.923471791218525
57.10634856701462 55.44896150617638 55.77290756124309
77.98462044463193 50.765252060977566 49.570789826653915
60.39183708406814 53.9724577212816 64.10789236012278
66.6819364258883 44.736891283367875 56.2377558442213
77.72826896123807 70.72087456500701 45.18841850655045
80.6061205898771 51.511352388087495 56.58187063660028
80.3568150181702 53.355132107068314 54.392360730460894
66.18093632500084 61.03049437650095 50.906120552701644
60.92042435280372 49.55851610824742 59.028906436476724
61.48396295207466 57.833659851426674 53.95022339088201
72.45812940784113 66.72902855338307 43.75228361711436
66.24178285439044 44.95914258568443 62.01387517199664
74.54373428103915 42.38585979241896 55.32643542371908
63.22374803202787 62.09414044081397 61.46772626901777
69.19580207459097 53.13097672939819 47.3708127478775
80.94101150174197 61.08775235339399 45.93384575991851
65.5965110854761 54.641539915973574 48.971019739792055
76.51743999721944 51.63893909593226 48.69831687294045
79.16871782413105 52.908249277114614 50.86235322884402
67.49433721069094 63.121836460381985 63.71955154508996
68.3420188447312 48.973089272706765 48.958603102971715
65.76374511540612 47.550605803498144 67.19616677547727
72.8580874532866 48.639623452000144 66.36185423118691
80.97943747098367 56.58708368092991 57.007308192549345
79.16481166511474 44.51508974118406 65.30120485474404
70.1737410522385 53.28679507957776 67.27788156065601
65.3527793786244 45.46570461911263 60.13423751341134
74.45644887511257 59.48549828701514 45.3622073186038
79.27489954958052 70.16164732101366 52.96163501145977
71.20132640801506 62.551897253246054 45.925095438872596
76.21376644548599 71.67106455059489 49.758782891994905
81.23746182967587 57.45416872721763 49.653782281556865
72.21961584437761 51.59092609748542 66.27621792539706
63.30467877001099 56.04527813040604 52.01496734327786
80.47901303590939 46.63335108334069 65.70437458744233
63.54515022460423 51.34520424971774 50.776871441578535
75.40313261320792 44.23727418910701 51.55486403221055
71.09059454314094 68.14899404618161 45.783330506929545
82.74884105691748 57.53901658913342 56.973964901644564
67.00168345712946 64.26694791007692 54.230331457048706
78.15602061607748 50.29702873614897 66.21067588654827
65.14065483447462 47.11380341075693 52.55707597642531
63.9421245716437 62.19918798746713 63.32226827903093
68.44960258809091 56.78558684719838 46.2413693707945
73.93911322628873 56.663859423585166 67.12036395262243
76.20560973693587 60.74988554598702 43.39063545345788
73.55708164875877 62.05769711527647 65.97555007968309
69.85214785081051 49.477166399028626 48.157236921949654
78.62707519704838 45.88493100561905 51.793159047712656
64.26018067964566 46.77081574208712 64.78008775748593
64.79786832497473 64.6079866501399 60.02055560182807
64.4866951222917 56.132012134948184 50.805805940242635
68.25826458955649 44.450337097785145 53.897643627992466
83.32395467326855 63.75564180683998 49.724152191747955
74.04198387848594 71.24604343794121 51.239062428547456
72.77255463018506 55.46103626074513 46.07930199972867
80.817022874612 67.48728661323203 46.38631906193033
63.5586843453178 50.578738063945465 66.38276466102418
68.06750832046608 58.680931022752034 46.19550125098824
59.11815136565515 49.80828755623482 59.26117437358588
62.23757457456548 55.84907599319365 53.23263333159092
69.88287073947717 46.13198991751763 66.02773031690984
74.90509282810592 46.7713214237142 66.57182668489887
78.63641911889259 52.08701094631404 66.59818905773756
64.95823554213939 61.44956868158881 66.08861936882471
56.7412604495319 55.77467470669363 62.90107400908467
75.56802924705372 54.66934674513654 67.14487198752468
71.72950331204586 69.57237116080485 48.442425456407314
67.70345243221915 65.0626118908939 56.21379699104113
82.97748864911787 58.65416686140039 50.27624642198269
80.22160248351446 53.447271616454735 63.54690055953163
61.73329382124645 52.87239446020456 65.3354638841384
73.72547019150358 70.57203332567859 55.35192416289644
73.46931732716159 44.092586583009734 51.834868968748324
70.76035311959859 66.41150993198113 57.50606787501974
71.33002224273353 49.825318112098806 47.70897011308725
69.9121314437885 44.6963628549748 64.77392474027447
73.47817291627507 53.444313901382294 47.119923837187
61.99215382119926 50.472945919123845 65.35577159401728
75.91431542421589 71.42758524507539 53.513558430630255
58.64657930521976 50.5208750289393 57.066244444249755
73.36362217976517 45.071607058691434 65.49146106844815
81.05266499813601 67.04122998678709 57.00468124224475
77.6998268336228 68.56043506849119 59.766914648332445
56.484600752793 50.79442270011283 58.581187140388394
80.53961591589814 51.120869574546305 60.29573348822471
78.14267003823385 57.72616197000367 66.41515405401003
69.27850452079332 51.127391289892486 47.431842336522834
69.98403338170203 65.1007590554698 50.60401717944159
71.82259762572184 53.62338704680372 66.74013059099492
79.23657978570469 54.00809033902392 66.73643014205774
72.60622201696312 47.174338423160506 48.930535946763364
70.35227220398036 57.63117918206491 68.0824115826949
67.78744341300762 49.30932120340512 67.99655095883566
58.692010123782914 56.906171980142055 55.68701658908009
64.13052551947163 54.436150957549714 65.93509539593013
79.71850725279464 52.67612405099927 65.28719231632346
67.98682061941592 44.728066765423016 64.57332002208575
70.40679425207162 66.6994274492878 48.260398003452
62.52584033446982 52.0246587474403 51.942831370531664
80.28568204754094 54.52046084767061 62.00230445239323
55.889283006753374 53.52484817212746 62.766465842683736
80.4106329849676 54.553729462287606 57.2894417457964
67.91172304954618 47.49532383614016 67.40464295436657
70.76897047017486 55.2271082355687 46.41376437231948
84.2870340993027 59.377383144172015 52.51326590242445
66.36426446369208 61.93452827661591 64.99677201145727
74.50947293287635 62.33431713834793 42.799737389334545
78.18568579528335 69.01543012992073 44.01728939748255
66.35703657667105 49.274696444951886 49.78848609596763
76.67969526610912 58.725698753798625 45.12068560856669
71.8198956496588 61.31013885898645 66.9808883715115
78.98164432912431 61.1272373030994 44.009533160924946
65.43407153080504 56.99952406045938 48.955965424611314
66.05704405484892 60.0378125536627 49.43405294354706
76.08374955716819 68.85703460025871 42.3912857717644
81.49978041662229 45.430711584027605 63.49727648979348
80.06947034559177 54.373045720554956 65.05152613735727
84.48168900812584 61.01856919950289 53.9588869537185
63.092143518824756 48.857511128827255 63.83692508726515
75.9339237398329 70.8778253322169 56.01516161418843
82.5777840861409 65.06466018992718 56.08873332658314
69.92024139250137 44.13108276153419 53.86758290695465
66.97937969240414 50.90615533309507 48.785077965766305
71.69649903762722 66.12327507403292 60.949155921245335
65.94909157001779 52.4589039255675 49.358318910954864
79.28950101285368 69.92265451696294 46.38952300168827
80.55032611675026 68.51911535501422 54.77518641641482
80.02408147171096 49.45015148527466 65.75613571204916
64.10967717374777 48.430498503227334 52.161814349187615
69.90661598236413 60.45480050367772 67.26199171981982
73.4894330561854 65.31376220071093 42.63341808392945
67.9510355711038 56.57526298604608 67.77550827378177
68.17009935670251 58.7284695187569 67.94824218869084
59.98884837134126 59.09505053870442 59.4107642542063
70.01648544607593 50.617238169629594 67.55596417934923
62.993038348886614 54.47928947078907 51.55205030424001
62.618421452661224 60.84124508631709 54.99892623129875
79.53092640215526 57.0599534869971 62.77372800417396
80.79053238123895 64.7514255708727 58.71993692452912
80.13524679906418 53.145840376056015 52.47021815953016
77.08092421567602 45.11766576396133 51.67361978590224
68.96137875966544 47.12106395953564 50.02183568850902
80.31739611617326 52.41342366107926 61.47326139795045
65.00629337773331 48.68559822930504 50.99990033689183
72.41902212683863 61.9108566449675 45.00736686465024
63.97315856653926 47.27911668163756 60.70136637671268
67.46115997642762 60.892166089164206 48.78483639576194
83.58097315526378 59.83284307689324 58.345557776237406
61.600706577573675 56.98259675202707 65.2760679973791
64.86286513913349 63.54350192986127 61.79130379816892
66.43729207579062 64.13387459353407 62.67015456357374
75.51990865166312 54.832494256775476 47.294782085243824
71.04938621702004 53.25434481589636 46.92992046968525
77.19050807931127 53.29381796828436 66.74852053307154
63.728686824759905 52.21387407822425 65.8803885393872
81.59828376481637 64.91897506496908 47.29506459530164
74.98373674247283 69.09394292112523 60.393726868166794
84.37576480387781 59.69441547161317 55.58483376252784
78.56448942244526 65.57711381633158 60.42178368747596
63.646738287305844 62.31242762497654 55.919107189734014
71.60015439629035 64.42475182716406 62.4709336826937
61.72173943374353 60.35884088953686 60.90452058172422
80.01124312081454 56.493861155191226 61.39336320074716
73.64546174153371 49.098330679053596 47.7258219294554
67.91234761464794 54.35221383519074 66.97628605752291
77.6468093007355 55.39343544797759 66.76564466592829
67.47042583533273 53.09714201027413 47.865804023601044
61.69471712688955 60.5429502238713 58.543861784057604
70.62633844393712 68.09403552963362 51.10141959350286
72.42761432680992 42.45938291445326 56.44936693100429
69.60667969772193 55.44648145454898 67.53070878553905
79.70753719468843 43.52818202090647 63.210139116316796
80.94281438554891 56.341893145382016 54.88987454852592
75.83851067597953 49.45088787257808 66.931954710109
67.81040605947835 51.93408113016109 67.53853366045412
72.23638187971284 63.70363013335926 64.2980532725685
79.89497721794002 58.740476185890564 62.19593500596495
82.08388866992341 57.10549996794824 52.06564370426291
60.9728977288713 49.573259201963886 60.581131585883384
82.03148161857547 59.473622025016184 48.017807405102985
55.36031730222519 53.51843066027197 57.854089455792135
73.86173223619615 41.43567296958868 60.40402253572825
63.4217935306357 49.88207020407238 51.68772050236265
62.0277472196929 50.38730150572289 53.4186129604455
73.19695720751817 46.7512255757684 65.87104086336075
79.8742891351412 58.09743510116693 47.84745285834331
63.85676645492039 49.05780402285361 65.92688925667655
65.42834919503376 64.26122115747071 56.07917084020144
79.19067360103739 63.45835210658801 61.869762285603606
59.97817572573374 57.94145180734722 55.61221945690611
80.38986502238602 54.5549435612843 60.04298753173806
82.87243822741266 61.09607645434508 59.856971108722405
84.1523037268852 61.212815427810064 56.97380520923641
65.0782496804788 61.815773115370355 52.56595823544272
80.65395815299782 60.328807401906495 61.41591652099518
59.84165309618631 55.91553492782144 54.465546401590295
62.98790930441783 53.618555959764294 65.49191772675036
60.001342175536145 58.75231269654281 61.747848996137876
60.8345037890971 49.781692430052665 57.36808865930449
56.16988244218368 56.193422498614105 60.810962895645694
58.048224161858776 53.014779345175285 63.47378567373923
72.9715902518877 63.70676603709665 44.0341563258337
62.44278021988661 60.94278599930521 62.98205639582306
71.14187746122224 51.356304745874354 47.1412427195434
67.26056622065776 54.82307020320375 47.794438169509895
73.0486919346111 70.26652844705583 45.639761330428456
77.09656646318687 64.9076459596223 62.91669811616359
60.49034908305207 51.87428832265264 63.74519450029138
80.58278333404486 52.35459986474749 59.129784946286215
81.70590858553174 47.07463071419256 63.90022375466408
80.01993957983889 66.74215690052165 43.966101486045034
64.42398467905913 54.523575315832375 50.54300083628876
80.01637951520114 55.655611470843695 63.536552308189506
72.1964009430885 57.30806966418773 67.5863118483731
68.81383864258348 62.00395107868083 48.6308954989367
77.71476007862991 71.20395350248803 51.59081410785118
73.68897741089631 67.30857018620716 61.20248364253266
78.62978350760918 70.96614330887246 49.059189473372
61.232517136843214 59.70217243520968 62.76997697349705
67.03007694755411 44.43967309280219 60.62877475058932
74.81048269567353 60.76131390319333 67.36020992092047
79.1842002551339 55.818846455389426 65.5317253283005
72.39129941061464 42.06199592195494 62.27610964827286
77.17200013706682 70.3174597714381 57.77164515265622
69.85975288902031 59.31691412450732 45.921871516834386
62.83511125698378 48.91209435178847 61.564351692757604
62.28143779752007 54.983496158205796 65.02307581734647
72.11376118580444 69.95711090939133 53.092090894543546
70.12168430520626 64.33379720235955 61.20823153896077
72.84388886445907 59.49479174195509 67.83299334460072
78.2311869871715 70.59990620439972 55.20258948162534
80.57638329690704 56.42162215853143 50.85549796130833
81.01637317605542 49.9591929403064 59.095797497891674
77.70957525024878 46.62612702535344 50.110712174881925
81.80205332786267 47.427797007378196 61.868042718945716
61.37470734046971 50.01857022730829 62.834724078422354
73.6493602097022 61.29635143471043 44.26329496579995
82.64949555085677 62.19868208433352 47.57107198669721
80.13394949657702 48.78359946160641 52.94089308301447
73.37582188439593 54.0687862320353 66.60812957794008
65.28442067834068 50.58375580569208 67.26566095458423
64.68317369433707 46.8199900940513 54.69146634764184
70.43828868142784 66.45646176500072 55.12582458310908
70.946607479592 65.22288865795402 45.748598599451064
67.82769220261044 59.848193647488 47.56409049709553
77.8643069950661 71.0541083730274 53.33653488201561
79.2796947157154 57.48729588455629 64.20819586652014
70.94567830414779 67.85260356987479 53.63270579963328
60.701082592187774 56.00386037795712 63.835555511065266
70.38427223643318 43.02802076843542 57.82476286751988
79.84140425716453 61.23205424144936 62.605542530668714
75.05762728516844 52.15844687317232 66.35353301814894
66.62354188437855 62.97206396083113 52.364153050229525
67.94591886173096 46.08096174742598 65.99198507074738
82.04323751558842 66.34585740427565 53.423337304360736
80.90103580863762 62.019478762597195 60.316990278921814
77.52844273660911 56.991351803896386 47.08901893777176
83.34708395198234 57.55486206754148 54.39944479278736
55.20781071164827 54.27068994750604 60.719404626424215
74.98529772629419 57.20746463732633 46.049978784113726
65.50781147331396 63.17562474415955 63.782947102590335
63.941458815785 63.683885807339585 58.22688001612427
68.91736112778551 65.0418824764179 57.924733871814425
74.62847457527756 70.26118405833083 57.984708408229906
80.91433584882945 49.90515237956532 61.542052683141286
61.45508733724911 59.501632371472766 55.26852514760098
81.79622678380075 59.28833868478824 60.40916051251422
63.46519386249851 57.72722658345497 52.400708514228775
60.35928969450276 59.50503501918218 57.09415638769468
77.5878295113376 59.63627890171263 66.54406151899708
80.4563104099118 49.95742159558244 54.757857878651464
70.97484444905776 62.23133226947215 65.629128635705
76.18585301623011 56.67193991332317 66.71644051347911
76.35845341391978 61.11715059162332 65.89259314581035
65.25662145161647 58.679573096376174 50.46262423862551
75.93547884164016 66.591538513441 61.00426085548525
66.60029373187187 46.01456988176134 52.17555465497364
79.78321228761745 63.904157317469874 60.26942349132041
66.5067903589871 45.2532998165015 54.174943221217504
59.02546814364274 55.11437106105599 63.37613098484438
78.6776190615129 43.36516682716917 55.75866932655314
58.762807507863265 53.61917739499031 54.35013770324972
77.78920422523213 62.325583605217176 63.747911464613374
62.296786588364135 49.03794149376362 57.05412100658007
63.074357742544805 61.16455725607153 65.17088463913517
71.75957324244455 68.56291508288908 55.85477143263026
77.7930907461367 59.78508982601305 44.36672717730272
66.84936099930152 47.310492156082546 50.679136521004054
84.05961165858275 62.43342480083321 52.418644810040426
66.78226437835667 56.47183226382791 47.15549380869455
64.77958353313923 61.95624542495712 64.65205888971485
71.18355102756372 49.70478770195259 66.56701689842744
77.35751181851369 41.884085682430644 62.18942474545644
64.82989339775084 46.0509240446923 62.41506021516627
POLYGONS 948 3792
3 50 255 424
3 255 444 91
3 410 112 60
3 117 332 60
3 112 46 117
3 91 444 112
3 60 112 117
3 64 60 200
3 64 410 60
3 112 410 91
3 91 410 305
3 424 70 72
3 112 444 46
3 46 444 249
3 223 472 442
3 305 410 342
3 332 331 442
3 442 331 223
3 97 72 70
3 342 156 305
3 331 194 223
3 223 194 384
3 220 72 97
3 220 249 72
3 249 369 46
3 220 434 74
3 74 434 375
3 466 223 384
3 466 472 223
3 74 369 220
3 318 105 66
3 375 90 105
3 105 90 66
3 194 104 67
3 341 81 94
3 472 245 287
3 124 145 245
3 245 145 287
3 220 369 249
3 332 117 331
3 117 231 331
3 315 349 450
3 450 349 81
3 315 343 349
3 400 384 343
3 145 124 175
3 124 245 466
3 466 245 472
3 231 443 104
3 231 46 443
3 144 175 124
3 343 384 194
3 443 94 67
3 194 331 104
3 66 449 190
3 349 94 81
3 349 67 94
3 400 343 379
3 379 343 315
3 190 371 447
3 369 341 443
3 443 341 94
3 318 81 341
3 318 447 81
3 77 124 466
3 144 124 77
3 171 430 180
3 81 447 450
3 450 447 371
3 400 73 384
3 384 73 466
3 73 77 466
3 443 46 369
3 332 200 60
3 472 287 442
3 442 287 200
3 341 369 74
3 332 442 200
3 443 67 104
3 349 343 67
3 67 343 194
3 64 30 453
3 287 145 30
3 231 104 331
3 64 342 410
3 74 375 105
3 66 447 318
3 66 190 447
3 70 269 97
3 269 120 97
3 188 456 90
3 456 449 90
3 90 449 66
3 120 328 188
3 188 434 120
3 190 449 241
3 456 232 449
3 74 105 341
3 341 105 318
3 97 434 220
3 97 120 434
3 144 75 175
3 75 313 175
3 65 120 269
3 311 273 411
3 411 292 311
3 311 292 453
3 411 227 292
3 292 227 453
3 453 357 64
3 357 156 342
3 227 357 453
3 328 295 188
3 188 295 456
3 328 86 295
3 295 86 456
3 434 188 375
3 375 188 90
3 424 72 50
3 62 467 255
3 255 467 424
3 62 59 305
3 305 59 91
3 62 255 59
3 59 255 91
3 377 241 58
3 58 241 317
3 64 357 342
3 444 50 249
3 249 50 72
3 156 54 388
3 54 227 455
3 84 358 432
3 227 47 357
3 357 47 156
3 227 54 47
3 47 54 156
3 129 359 354
3 247 421 433
3 421 213 433
3 46 231 117
3 225 130 421
3 421 247 225
3 51 203 147
3 186 283 390
3 354 187 129
3 283 186 187
3 187 354 283
3 287 30 200
3 200 30 64
3 435 242 147
3 147 242 51
3 435 257 242
3 242 257 51
3 414 186 390
3 345 256 106
3 411 225 55
3 414 48 186
3 186 48 452
3 61 431 114
3 43 303 85
3 303 233 85
3 85 233 460
3 303 45 233
3 233 45 460
3 110 39 182
3 431 37 351
3 431 45 37
3 37 45 303
3 351 36 193
3 303 43 36
3 206 316 213
3 316 274 147
3 114 34 363
3 114 431 34
3 34 431 351
3 45 33 83
3 83 33 61
3 45 431 33
3 33 431 61
3 48 414 149
3 129 199 32
3 56 23 193
3 193 23 351
3 145 311 30
3 30 311 453
3 51 28 262
3 262 28 57
3 51 257 28
3 28 257 57
3 363 404 114
3 363 44 404
3 404 44 57
3 123 88 27
3 85 26 43
3 169 272 26
3 37 303 36
3 36 351 37
3 34 351 23
3 23 363 34
3 110 24 108
3 108 24 199
3 110 182 24
3 24 182 199
3 88 123 31
3 243 366 262
3 262 366 51
3 243 203 366
3 366 203 51
3 56 78 462
3 56 31 23
3 23 31 363
3 257 22 57
3 22 61 114
3 345 21 256
3 256 21 169
3 345 272 21
3 21 272 169
3 262 52 243
3 243 52 132
3 52 35 132
3 38 61 22
3 22 257 38
3 44 16 57
3 57 16 262
3 44 35 16
3 274 284 147
3 147 284 435
3 274 202 284
3 284 202 435
3 460 184 40
3 40 184 83
3 460 45 184
3 184 45 83
3 388 370 340
3 432 437 370
3 197 393 232
3 232 393 317
3 197 76 393
3 393 76 317
3 130 395 273
3 273 395 411
3 130 225 395
3 395 225 411
3 76 280 317
3 213 270 206
3 206 270 130
3 213 421 270
3 270 421 130
3 380 79 14
3 14 79 365
3 345 12 272
3 26 272 11
3 11 43 26
3 236 285 160
3 160 285 109
3 236 334 285
3 285 334 109
3 108 9 452
3 452 9 186
3 108 187 9
3 9 187 186
3 407 327 121
3 327 10 69
3 69 107 207
3 207 107 83
3 69 40 107
3 107 40 83
3 4 80 48
3 48 80 452
3 18 254 217
3 12 139 272
3 139 11 272
3 313 314 175
3 313 273 314
3 314 273 311
3 69 6 40
3 69 10 6
3 139 12 5
3 5 12 1
3 149 4 48
3 149 27 4
3 469 222 325
3 20 39 110
3 0 4 27
3 6 14 8
3 175 314 145
3 145 314 311
3 452 420 108
3 108 420 110
3 207 327 69
3 43 254 36
3 43 11 254
3 254 18 36
3 36 18 193
3 58 317 280
3 49 0 462
3 80 4 0
3 20 110 420
3 420 41 20
3 169 323 201
3 201 323 469
3 323 85 469
3 415 20 229
3 229 20 41
3 80 41 420
3 420 452 80
3 193 78 56
3 193 18 78
3 18 3 78
3 322 49 3
3 3 49 78
3 78 49 462
3 13 167 1
3 13 182 167
3 167 182 39
3 315 116 379
3 379 116 171
3 315 63 116
3 56 88 31
3 56 462 88
3 139 82 11
3 11 82 254
3 82 217 254
3 88 462 27
3 27 462 0
3 217 68 322
3 68 415 322
3 139 5 68
3 68 5 415
3 415 5 167
3 167 5 1
3 322 3 217
3 217 3 18
3 50 444 255
3 229 41 49
3 415 229 322
3 322 229 49
3 39 20 415
3 415 167 39
3 61 401 83
3 83 401 207
3 61 38 401
3 183 408 430
3 143 240 360
3 252 408 183
3 129 321 199
3 199 321 108
3 129 187 321
3 321 187 108
3 199 157 32
3 157 25 333
3 25 2 106
3 106 2 345
3 25 13 2
3 2 13 345
3 12 345 1
3 1 345 13
3 49 41 0
3 0 41 80
3 82 139 68
3 68 217 82
3 57 22 404
3 404 22 114
3 201 304 268
3 268 304 348
3 106 385 334
3 334 385 268
3 106 256 385
3 385 256 268
3 471 86 239
3 274 356 422
3 313 352 273
3 273 352 130
3 352 206 130
3 206 346 356
3 206 352 346
3 346 352 313
3 469 290 201
3 201 290 304
3 469 325 290
3 197 386 348
3 348 386 109
3 197 471 386
3 386 471 109
3 435 278 257
3 257 278 38
3 435 7 278
3 278 7 38
3 377 275 371
3 371 275 63
3 377 181 275
3 275 181 63
3 252 259 336
3 7 192 38
3 207 401 192
3 192 401 38
3 246 171 116
3 360 417 143
3 360 407 417
3 325 364 15
3 121 327 475
3 475 327 207
3 121 230 300
3 181 168 63
3 171 461 430
3 430 461 183
3 171 246 461
3 192 7 475
3 475 207 192
3 19 463 79
3 19 181 463
3 463 181 377
3 8 423 6
3 6 423 40
3 8 222 423
3 368 259 300
3 300 259 417
3 461 246 382
3 382 183 461
3 371 63 450
3 450 63 315
3 180 379 171
3 180 400 379
3 180 330 77
3 77 330 144
3 180 430 330
3 206 356 316
3 316 356 274
3 407 300 417
3 407 121 300
3 300 230 368
3 368 230 202
3 116 63 168
3 180 77 73
3 73 400 180
3 7 230 475
3 475 230 121
3 346 313 75
3 10 407 360
3 10 327 407
3 417 389 143
3 252 183 389
3 348 306 197
3 197 306 76
3 348 304 306
3 76 306 15
3 15 306 304
3 232 294 197
3 86 471 294
3 294 471 197
3 144 330 408
3 408 330 430
3 304 290 15
3 15 290 325
3 408 276 144
3 144 276 75
3 280 364 365
3 336 238 422
3 422 238 368
3 336 259 238
3 238 259 368
3 382 143 389
3 389 183 382
3 201 228 169
3 169 228 256
3 201 268 228
3 228 268 256
3 471 224 109
3 109 224 160
3 471 239 224
3 224 239 160
3 274 422 202
3 202 422 368
3 109 195 348
3 348 195 268
3 109 334 195
3 195 334 268
3 202 178 435
3 435 178 7
3 202 230 178
3 178 230 7
3 79 159 365
3 365 159 280
3 79 58 159
3 159 58 280
3 333 258 236
3 236 258 334
3 258 106 334
3 336 422 150
3 150 422 356
3 382 148 143
3 213 473 203
3 203 473 147
3 213 316 473
3 473 316 147
3 75 150 346
3 346 150 356
3 460 458 85
3 85 458 469
3 460 222 458
3 458 222 469
3 85 323 26
3 26 323 169
3 267 428 84
3 84 428 358
3 411 402 227
3 227 402 455
3 411 55 402
3 402 55 455
3 358 376 432
3 432 376 437
3 358 448 376
3 376 448 437
3 53 372 283
3 53 344 372
3 372 344 281
3 243 355 203
3 355 29 433
3 8 310 222
3 222 310 325
3 8 364 310
3 310 364 325
3 455 451 84
3 84 451 267
3 455 55 451
3 451 55 267
3 14 365 8
3 365 364 8
3 247 454 225
3 267 55 454
3 454 55 225
3 283 372 390
3 336 150 276
3 276 150 75
3 455 464 54
3 455 84 464
3 464 84 432
3 247 335 347
3 336 378 252
3 252 378 408
3 336 276 378
3 378 276 408
3 433 335 247
3 433 29 335
3 267 403 428
3 267 347 403
3 454 247 347
3 347 267 454
3 129 413 359
3 359 413 212
3 129 32 413
3 413 32 212
3 212 367 361
3 367 438 138
3 89 446 324
3 40 423 460
3 460 423 222
3 252 389 259
3 259 389 417
3 344 394 281
3 394 428 403
3 89 324 251
3 251 324 281
3 160 406 42
3 42 406 17
3 160 239 406
3 406 239 17
3 394 403 298
3 281 324 372
3 372 324 390
3 403 271 298
3 403 347 271
3 271 347 335
3 236 441 333
3 333 441 438
3 390 266 414
3 414 266 446
3 390 324 266
3 266 324 446
3 89 251 277
3 277 251 298
3 281 394 251
3 251 394 298
3 277 298 271
3 106 258 25
3 25 258 333
3 29 244 335
3 244 271 335
3 42 137 160
3 160 137 236
3 137 441 236
3 182 157 199
3 15 216 76
3 76 216 280
3 15 364 216
3 216 364 280
3 177 244 221
3 221 244 29
3 132 215 172
3 215 309 172
3 271 244 277
3 277 244 177
3 44 474 35
3 474 31 123
3 428 319 358
3 358 319 344
3 428 394 319
3 319 394 344
3 14 465 380
3 380 465 10
3 14 6 465
3 465 6 10
3 177 221 309
3 309 221 172
3 328 426 86
3 86 426 239
3 328 17 426
3 426 17 239
3 449 214 241
3 241 214 317
3 449 232 214
3 214 232 317
3 86 294 456
3 456 294 232
3 172 221 355
3 355 221 29
3 25 198 13
3 13 198 182
3 25 157 198
3 198 157 182
3 241 377 190
3 190 377 371
3 79 463 58
3 58 463 377
3 360 189 10
3 10 189 380
3 360 240 189
3 189 240 380
3 203 179 213
3 213 179 433
3 203 355 179
3 179 355 433
3 89 177 309
3 89 277 177
3 19 362 181
3 440 168 362
3 362 168 181
3 32 173 438
3 438 173 333
3 32 157 173
3 173 157 333
3 414 170 149
3 149 170 416
3 414 446 170
3 170 446 416
3 309 162 89
3 89 162 446
3 162 416 446
3 149 152 27
3 27 152 123
3 152 353 123
3 65 396 120
3 120 396 328
3 65 17 396
3 396 17 328
3 380 261 79
3 79 261 19
3 380 240 261
3 65 210 17
3 210 42 17
3 70 350 269
3 269 279 65
3 52 262 16
3 16 35 52
3 35 474 353
3 353 474 123
3 265 362 19
3 338 457 264
3 388 340 457
3 457 340 264
3 261 240 265
3 265 19 261
3 329 219 339
3 279 269 350
3 253 409 467
3 424 429 70
3 409 350 429
3 429 350 70
3 467 409 429
3 429 424 467
3 338 445 62
3 383 425 191
3 65 279 425
3 142 320 437
3 441 291 438
3 438 291 138
3 441 208 291
3 350 248 279
3 248 71 387
3 161 436 158
3 161 308 436
3 279 218 425
3 425 218 191
3 320 302 263
3 412 308 209
3 209 308 161
3 412 301 405
3 412 260 301
3 301 260 253
3 387 218 248
3 248 218 279
3 405 165 412
3 263 308 165
3 165 308 412
3 235 146 409
3 409 146 350
3 146 248 350
3 235 211 71
3 397 399 211
3 416 152 149
3 42 208 137
3 137 208 441
3 307 399 135
3 397 134 260
3 260 134 235
3 397 211 134
3 134 211 235
3 340 96 264
3 340 320 96
3 96 320 263
3 210 65 425
3 425 383 210
3 263 131 308
3 308 131 436
3 263 302 131
3 131 302 436
3 158 135 161
3 412 427 260
3 260 427 397
3 412 209 427
3 427 209 397
3 161 127 209
3 209 127 397
3 127 399 397
3 158 234 337
3 399 125 211
3 211 125 71
3 135 399 127
3 127 161 135
3 307 125 399
3 307 135 237
3 215 162 309
3 260 119 253
3 253 119 409
3 260 235 119
3 119 235 409
3 248 126 71
3 71 126 235
3 248 146 126
3 126 146 235
3 172 115 132
3 132 115 243
3 172 355 115
3 115 355 243
3 62 113 467
3 467 113 253
3 62 445 113
3 113 445 253
3 286 111 470
3 111 234 470
3 42 418 208
3 418 226 208
3 136 288 383
3 226 418 288
3 288 418 383
3 353 205 35
3 35 205 132
3 205 215 132
3 253 445 301
3 301 445 405
3 337 155 158
3 158 155 135
3 337 237 155
3 155 237 135
3 133 299 470
3 470 299 286
3 133 339 299
3 299 339 286
3 264 165 405
3 166 128 136
3 128 289 392
3 353 152 297
3 297 152 416
3 392 122 154
3 154 122 337
3 392 237 122
3 122 237 337
3 438 367 32
3 32 367 212
3 191 102 166
3 387 151 102
3 291 208 226
3 31 103 363
3 363 103 44
3 31 474 103
3 103 474 44
3 138 99 367
3 367 99 361
3 138 196 99
3 99 196 361
3 138 293 196
3 293 154 196
3 71 98 387
3 387 98 151
3 71 125 98
3 98 125 151
3 263 165 96
3 96 165 264
3 54 464 388
3 359 439 354
3 354 439 219
3 439 339 219
3 440 282 246
3 246 282 382
3 440 148 282
3 282 148 382
3 219 174 53
3 53 174 448
3 219 329 174
3 174 329 448
3 436 118 158
3 470 234 118
3 118 234 158
3 264 95 338
3 338 95 445
3 264 405 95
3 95 405 445
3 302 93 436
3 302 133 93
3 93 133 470
3 387 92 218
3 218 92 191
3 387 102 92
3 92 102 191
3 133 302 142
3 142 302 320
3 361 250 212
3 361 111 250
3 250 111 286
3 191 312 383
3 383 312 136
3 191 166 312
3 312 166 136
3 101 136 128
3 118 436 93
3 93 470 118
3 388 457 156
3 289 296 151
3 166 102 296
3 296 102 151
3 329 373 448
3 448 373 437
3 329 142 373
3 373 142 437
3 212 250 359
3 359 250 286
3 388 464 370
3 370 464 432
3 339 439 286
3 286 439 359
3 448 100 53
3 53 100 344
3 448 358 100
3 100 358 344
3 101 154 293
3 293 226 101
3 136 87 288
3 288 87 226
3 136 101 87
3 87 101 226
3 196 419 361
3 419 337 234
3 111 361 419
3 419 234 111
3 133 374 339
3 339 374 329
3 133 142 374
3 374 142 329
3 383 326 210
3 210 326 42
3 383 418 326
3 326 418 42
3 305 398 62
3 62 398 338
3 305 156 398
3 53 204 219
3 219 204 354
3 53 283 204
3 204 283 354
3 237 153 307
3 307 153 289
3 237 392 153
3 153 392 289
3 226 468 291
3 291 468 138
3 226 293 468
3 468 293 138
3 307 185 125
3 125 185 151
3 307 289 185
3 185 289 151
3 437 459 370
3 370 459 340
3 437 320 459
3 459 320 340
3 337 176 154
3 154 176 196
3 337 419 176
3 176 419 196
3 246 381 440
3 440 381 168
3 246 116 381
3 381 116 168
3 338 398 457
3 457 398 156
3 215 391 162
3 162 391 416
3 215 297 391
3 391 297 416
3 353 164 205
3 205 164 215
3 353 297 164
3 164 297 215
3 166 296 128
3 128 296 289
3 101 163 154
3 154 163 392
3 101 128 163
3 163 128 392
3 265 141 362
3 362 141 440
3 265 148 141
3 141 148 440
3 148 140 143
3 143 140 240
3 148 265 140
3 140 265 240
