# vtk DataFile Version 3.0
A great-looking cell
ASCII
DATASET POLYDATA
POINTS 927 double
355.55437227376194 266.3421207086894 42.733846462922884
353.59161900999595 265.9210767669859 41.87906055645148
354.93966179792926 264.83982478168093 40.92466146537576
357.8764931007599 266.1508282578272 43.05287913199693
353.30934621379805 264.00435671366233 41.94632531323478
354.1977629479244 262.78932724128924 40.63138784443639
357.1013204767832 264.8267847976573 41.56647857597495
353.4927402128451 266.5014419858265 43.6697553912724
353.59836331092833 260.95907067617713 39.988763875252864
354.75444073031736 259.89057213218433 39.969918668012646
355.44859329090195 261.3715222975814 39.86897535110419
356.28079213299 263.13025690090217 40.47769652426806
357.1292525598282 261.33932184254377 40.76986007606245
357.7361606042223 262.77999308872114 42.01720970198518
354.87720238259254 267.8293711770821 44.53898638085586
357.0040363930195 268.02138510371304 43.77992203360745
351.794989583299 263.8685004142171 42.43439443294738
351.9403884052569 262.04905170927765 41.44105144680312
351.90366430246024 259.9437923880625 39.972002515352784
356.26803171747787 259.7267869373438 40.423666914596986
358.53282343848934 261.1714250082282 41.63260381443399
352.5270647704502 265.12260307927824 43.03575201463127
350.9039748097544 264.69484802165294 43.47339679623079
359.2096437294994 264.4890478798685 42.433850695176
351.70748446468525 266.1175020586979 44.33626034950555
358.9073480478208 267.3182345834979 44.160988010607966
356.3492925893641 268.89045218543333 45.683381700176916
349.78748698002573 262.1282309801045 41.438831401912246
348.59941282226276 262.6272952688355 42.65473883162974
348.18072612684165 261.29731120147466 41.1103330334994
350.06897484368614 260.5794957793792 40.577331268340764
348.2849460304255 259.67148008391683 39.29811579212043
350.32815331443055 259.4283085446257 38.99965387647306
351.7789675422706 258.2228155372859 38.741564498893055
353.5572965551736 259.2613844178693 38.95646173070331
353.7280696706787 256.9199561496732 39.12053594332941
355.294872752861 258.5041222552607 39.32660182339017
355.8657531028858 256.79420683435 39.1449406600774
357.16037402018156 257.98585122197056 39.904238468366984
359.3288677617075 257.7650069328022 39.883501773767634
358.37944595487545 259.78327517216854 40.44441716834894
350.28590603462845 263.4900004196302 42.233709019365506
349.1754095272707 264.1862628996292 43.64322426089859
360.23076642578917 259.28926052387504 40.36547591994162
361.7216964383981 260.1521984571812 40.469982813328826
359.98549541533606 260.9432641369122 40.825335775940495
349.743200856879 265.8654468151995 44.59164275538728
361.5651776320738 261.9510744184208 41.34690352388232
359.7652030615457 262.25734180352066 42.35430020219946
361.2671984206433 263.6653693298727 42.3563868599016
361.00124148966245 265.43195611364916 43.07311945475514
360.6854753471376 266.6253609902338 44.60393216817531
359.5703278402503 266.1032321468375 43.339552979297274
350.91179942408945 266.77656402689195 45.812954815906124
359.5466107626447 267.5352398902367 45.62492345806347
358.2072836869975 268.4619487312812 45.412043401346274
346.0270104610006 260.0977206506436 40.80914942414471
346.96132717384415 257.4157393672048 40.127738891201886
349.6633523836864 257.3755154580927 39.404322079316984
348.4180522919826 255.22953443154884 39.88847346564934
351.5814321971879 255.93706673532094 38.577033582860984
350.4521376848083 254.0961095440024 39.23456017708028
352.5096638202903 253.59966533992852 37.44675804392382
355.13551941984065 254.89328252857348 38.232960692916116
354.930153354235 251.9684051048673 38.32745640749452
357.9694975664575 255.5966249326129 39.37674588429556
361.42191837523177 254.23075177257073 39.802427280544585
360.49426981341537 256.1835882462242 38.90056503624103
346.5892712274699 261.7361195864991 42.70626693965041
347.200498453482 263.5975709282119 44.10544634788847
361.7443651272008 257.8188263676456 40.14886996463735
364.20737790078937 257.8151111471844 40.5901251422314
365.609871025193 259.96270597514456 40.535515890360486
363.3695389850721 259.4186859242476 40.24306974819206
346.6782031421442 265.4963973510855 44.53296030562887
348.1661853896535 265.12232358983937 44.41888046686507
363.4743590718674 261.2122481182202 40.83021897168309
365.2793600359423 262.189483916584 41.58951742912856
365.0704200054974 264.0955538607333 43.10483562926084
363.26674916994824 263.21879108376635 41.70007215779192
347.9999686092871 266.5726922912618 44.94249254279755
364.04205220066484 266.09365503098604 43.981722831713874
362.79346649061694 264.67273213873426 43.15874375163854
362.61915926265505 267.502836912071 44.89489656384149
362.22948319924944 266.10089036590756 43.89684293031402
349.0037954058136 268.868012618207 46.42056107223482
350.738208918862 268.626004869793 46.431249358642326
361.06955542175615 267.66856406671843 46.29568647863778
359.56263689076894 268.90166325666297 46.64661231160298
352.68796593182674 267.7032327654952 45.46152285475734
352.50422333631764 269.4733144730168 46.52014301861254
357.8596895216278 270.0608626053446 46.59977672032291
354.2929410515106 269.1790935562069 46.184145276021006
343.3969067153826 259.0728066460648 42.64363047894095
342.62000832225834 260.65837483348827 43.98741958240135
342.4467479079359 257.7260231610164 43.9107613489382
345.2991090372267 255.83423085895726 41.10017998128998
346.39426740552034 253.93120122120519 40.53009414708662
348.7864306596836 252.5557213475803 40.618782990209304
350.9052079467995 249.24609565388405 40.9202633751189
349.7774639008463 247.68825496620588 43.417024431022
352.51084190851253 247.28482727814307 42.42194947723841
361.5876044870355 252.1796141399001 41.03483556708111
363.43450837613784 250.97050259833102 42.40860584000025
365.8004858932679 252.92194036195588 42.573469261202035
363.8827242810856 253.22013698732556 41.077249722545744
344.20898771851995 261.2606526759303 42.348095491415805
342.88042745241364 262.54674085142943 45.14457703416555
344.9639304374583 262.6008196328169 44.30229825267879
366.31176048169857 257.5442472365997 41.5312288793964
367.3161636386758 256.3689593990695 43.43884358269397
369.42545019663163 259.6151449808294 46.28402763454031
366.7683350505885 259.64975388567393 42.88106945494319
345.6497614593126 264.31121436212527 44.91018815154114
343.8964425594415 264.4407676741635 45.09792861864319
345.18551879726846 265.75890229686524 45.33948346337193
366.83899707353004 262.25282347228057 43.41863124203107
368.97200180629983 262.0745687417247 45.964261259516846
368.79795134160145 265.1166563236186 46.88862454299035
367.8976645953902 263.8455152008047 45.080026136938116
346.4648972664518 266.84355137324616 45.614393680275036
346.1336522093759 268.13140553594474 46.792059250269936
366.99725389131873 266.9995304083364 46.855856921160424
366.13971690843204 265.4203188627353 44.90860107896002
347.6752890414766 269.09944019952934 47.37876390992407
364.72823751363944 267.9960159726115 48.08436430562153
364.60710134964194 267.1244994234647 45.88085490993464
347.66640754344905 268.1662567697434 45.73807575621164
349.5271090434591 269.3203217665834 48.06396761285737
362.9023827063206 268.2272031218029 46.85946067373552
361.18895160055024 269.03977257263097 47.83225847551185
363.10907614891624 269.5946246835456 48.43014567652581
361.4925649575068 270.8483563535801 48.896344892792214
359.3080082933025 270.31871660917255 48.41323785556722
351.2616329653419 270.4998456850229 47.47369136202893
360.0938810401843 272.3076078701301 49.24443199100469
358.44578752225794 271.8808915521811 49.13074935787383
353.6053604372918 270.3770988338689 48.15344266098281
355.82738419076816 270.1719790599871 47.28206236033529
344.2512390297231 254.7503150776099 42.63382470101204
341.3711143457148 256.880818814384 45.870303763210494
341.8137503516961 254.20743971191922 46.30084408889801
346.0992644482611 251.23273548264174 43.80278288949885
344.4318712409519 250.68203485238809 45.67093152338671
347.7075986831031 249.10031630250415 44.96045108848623
345.52716878235594 248.63138279417984 46.97447763516904
350.38588249130925 246.43558012373796 46.04216090305579
350.19708049634875 244.62940247705868 48.53834905119782
352.85873595444207 245.23707515742998 47.71005312790641
354.0076983380701 244.48756893008516 50.09201259932725
356.89729790507215 247.0696086235751 45.67579444173724
363.34815773380626 246.80215456304546 49.471458463787215
370.53941896097564 257.1561008302885 48.56688448653371
368.5829206644557 250.61851127890276 45.16624979266675
340.74809127673785 262.63691863052924 47.60123356425757
341.4898890117528 261.0881708025317 46.040584515890785
368.18190070026293 254.68094749593942 45.34646007228282
370.4894997005527 259.5463790203327 48.489459125260076
341.7629380196756 264.5097300823933 46.37191970989872
343.8226088817718 265.9059046481337 46.6237625572928
369.7877453184847 263.23073865222403 47.693913132478784
371.51679420586095 260.8006755725786 51.5561057217092
369.6514711484543 266.8975124892226 51.291906114462265
345.08556116347216 267.0039790469507 46.23960273797957
344.33898322216174 267.73979073212024 47.605002754766666
367.9479576444074 267.90788311740687 51.19161343183173
368.9866588152442 266.8690287544288 49.01373647699155
344.9442352971315 270.30044507091554 50.76365564062677
366.23888304504175 268.77239251027254 51.17190328599937
366.75512689424414 268.354385834565 49.26832462187511
345.75335634707295 269.5976715642596 48.49574196673777
346.77287509349344 270.67051979435945 50.10627951847478
364.71394911107006 269.5324124670752 50.07516503887935
347.9169820722155 270.7929988307435 48.5225076462243
362.9413008422678 270.61746111661637 49.97749497025653
363.8113871321543 271.23061629691875 51.47808394360595
361.74739615933294 272.1249636146582 50.83110982986936
350.6849736176131 271.9173008777401 50.67975929730323
349.9384158212368 271.1166394597022 48.98985589308599
360.2705919926054 273.3742804927541 50.579742567359546
351.9098820207943 271.82720974761327 49.03093023725074
353.82311584890283 272.2977257517121 49.493019106694824
356.9158503575135 273.69940338988386 50.33122764008283
357.1135376632403 272.8539586832342 48.97167221418933
355.472609944232 271.8835713267371 48.374715887505936
340.59101040137494 254.61221036400818 48.69498081870258
339.4358168650538 256.9253266895773 51.869599596464475
340.6671285394711 257.1133666745675 48.362534956696884
339.1043182589303 252.14223629889628 53.114270682029264
340.53427933338776 250.0837975074613 51.82121860459951
343.22416062230207 248.8799145341182 50.60319745848205
342.86404230843397 246.77542727752186 54.95297604425223
348.9663280928355 243.3292805389517 55.485923542624356
356.1302292710463 244.645843837976 54.56367011973326
369.5254976258249 249.18232860878288 57.4350784206443
370.8124733897201 254.82770700954438 49.97968844879688
339.0474698278557 263.34856947859976 50.28886670056568
340.4254791597828 264.65835025292887 48.800489330876516
341.4626833165048 267.52945485388204 50.89120894313595
342.1481233650107 266.627848258064 48.37218163425411
343.53587949018834 268.63435878967357 49.62015603499022
368.9323433658082 267.5396025062168 57.14237711633185
367.44032776253476 268.6052846946728 55.41887292469955
369.07201619949075 267.64285549035617 53.45334456419389
365.5357031141586 269.84349567168675 54.349769200664525
366.8536773384667 268.68270463320215 52.98531537115071
364.3703298354797 271.38409896371866 53.45080189930264
365.24336252967765 269.8978668699313 52.25472094720252
346.4611363357535 271.6969990336109 51.773555539225036
348.54994144018303 271.5518373109323 50.707705797901724
363.35336313480013 273.36295665427537 52.645486485605254
349.7436643295817 272.4916830894345 51.92369018407272
361.3362819153134 274.27160178788336 51.66413972972643
351.2595181298679 272.855014396055 52.17854891736534
359.40576132404567 274.3856868213071 51.536714639459866
352.4418823275476 272.646094781127 50.815957733819225
355.5297713388726 273.09483195614774 49.919736240046
339.3373656927092 252.43847433215035 55.85419379515997
339.68138884700505 254.2569581909764 57.640732582880624
340.2382151662517 250.4198006491147 57.3393280544642
340.22920866570456 253.38700679143776 61.55290190691426
342.2103750212817 249.44580113750146 58.834747021435376
343.5640944427761 249.51194896732602 65.73090147115954
353.4890154541244 243.95613677696537 62.86573657686135
352.2221736532548 259.5544809917733 72.3923345288254
358.39091919022013 259.1520877697281 72.3327355528122
339.28372354228253 260.15537674292847 50.88001699613932
338.5914497399048 262.28405725323967 57.23125584669621
338.29934592190625 263.81596089200144 54.66010942114012
339.9780336942335 265.5155578678442 51.150536965009934
339.62608011557205 267.5281120860289 54.38109760911219
341.0648684543421 268.7738825289541 53.18038593062895
367.7524483973549 268.1100480547204 60.33134609348855
371.8028701233936 262.5518704027319 59.63457439437903
342.91378845541817 269.58699611175524 51.87631730131703
342.9654991622066 269.83349684444795 54.39932028188342
367.01558997292545 268.9202233789358 58.15582320869526
365.14217619778594 270.1057952221096 58.34600637056832
364.3893113764771 271.4504232473209 57.29754714385488
365.6233984773008 269.992656153018 56.49461877094062
344.5037706850804 271.1481704028069 52.96954122275027
346.2886115853319 272.50463500729114 54.03322291650161
364.57581662969875 273.11682711564026 56.2012949011392
364.46986938191714 271.3064461233925 55.40708473480064
364.05204301407235 272.79093044571465 54.52554283606393
348.26650867774885 272.48559204439624 52.82201817415865
363.9437608351859 274.86416190477667 54.806793953012175
361.8235000090074 275.155023552271 53.6421921059279
360.1980042159457 275.21121173485244 52.75093184632545
357.5923633417792 274.44624517636504 51.50683154864763
355.8543711925967 273.9414603438022 51.53476246345469
339.5774166073767 258.8235481574179 63.31458117883092
339.3563940233772 263.5967306409344 63.116962902693764
339.1612220075683 257.0700071707006 59.92816394819963
350.28945636666214 262.5789929183661 72.21173997791952
347.34667600485983 265.7630889140234 74.02563545578904
353.2292402480267 264.04903863646 74.14188046025772
338.81915939877626 263.33477991374747 60.150137122323805
360.3284640165095 268.6263311065841 69.45655888934294
365.83285568115485 269.29815975854757 63.306088816120585
341.1050084953146 268.8087905718876 55.70018579660769
344.50815472337246 271.4921542987812 55.40790533642208
342.9235645257873 270.2254858707429 57.16209479269974
365.4516568714648 269.5644746275632 60.5760885557357
364.3251658056154 271.74196707549 61.492972308924095
364.3606590791427 274.38416849892906 60.15640072711292
364.45617004599876 271.67770684208006 59.311543040610644
364.66662790902296 273.13695361223796 58.06011950355003
363.99020723975406 274.8975843781357 57.33677812710011
361.74908613600735 276.18086466975694 56.241528020331764
350.1307242569591 272.7290303355503 53.56967347154041
358.5111471476162 275.0640760459393 53.029076843133794
354.1177976767631 273.46140877967537 51.080624826637774
356.3673309343408 275.3108005830399 53.03796991521676
343.58465593874337 268.58135612153944 69.95075102098147
351.48900427611284 270.33598269857754 75.18508707024185
340.58076029869824 268.46985247449334 63.400794706916
359.19432859791897 270.78741475952376 69.56562216743966
338.3342913002699 265.94146654152496 60.32925133027301
340.92929911801036 268.7048185063515 58.43770758843285
363.75823704878314 271.05282111335646 63.87203248381597
362.3690567526038 271.68251549912424 66.14079141407575
343.47741233730716 271.42670262343626 59.583628744179244
344.4201780553269 272.10942392447663 57.50052968206734
364.064816094103 273.732091421817 62.91161116851089
362.13846932355847 276.1079199864891 60.92193014669751
346.3398787713874 272.63541192373907 56.479190572078835
362.78020200042766 276.22128545190213 58.722167819232155
348.60182849124715 272.7069858269544 55.24123147637821
359.833063055003 275.3414238726177 54.54809631287049
351.6657252199083 273.8359215845147 53.677734969129105
352.73337130415683 273.86096062720594 52.24142289158913
354.3958349336372 274.67167082566755 52.645666170700366
342.76651678858883 269.19268796714886 66.06927542062905
360.8666190550014 272.4578374101496 68.3515067939254
361.1752221802092 273.78153494679947 65.89018488654735
361.7246689082175 275.26103540210033 63.56547811819848
346.1210833848284 272.91586372421267 59.177250935615604
348.39135598959734 272.78979610368856 57.659986835568425
359.78584504587366 275.34467182214536 61.478121977643966
360.229960079884 275.79018908800106 58.89605961058756
349.83706842068034 273.3461948532267 56.69598284404485
359.01874069344194 275.7141820474243 56.6088434778974
350.8205371323246 273.35921718761335 55.34314672237539
357.6770277508561 275.5913093159466 54.82396031081655
352.583871506012 277.47873218476565 54.72192449532142
352.592425912663 275.5805208522366 53.156185144162535
354.5553103597473 276.960945361327 53.061575986938756
356.02128642821845 276.6065358439783 54.574351377345835
349.50690475954383 272.1252952126452 71.26226442315567
344.96180232760054 272.62766206334913 66.64151538453272
354.194660079339 254.10848009757072 71.87140810428329
351.4963048404581 244.4092333459969 66.27423324981446
349.3840266721793 269.6263876732987 76.50959551025284
345.14374856705194 249.7022644628384 67.10342401720773
356.9425471308373 277.5745272784492 65.6693838723631
357.2419892047293 245.04845280530836 53.15466157323639
366.74249271255053 245.53003086937937 65.40623860359354
362.3919849884046 247.88139863576194 68.09958600624475
357.13046276828317 247.33664922119655 66.19898528682388
352.7429682431375 276.46933935799655 68.65960172194764
358.81234873903054 274.47106318929013 67.02566588859105
364.72099638657426 247.11722995197056 48.10630746484922
350.61339185820486 277.0097728894872 65.39291819277501
367.48408206662214 247.09576859111067 47.88114569934953
365.2983349546897 243.94627644654312 61.92172667461599
363.6931763316373 244.24300237481464 65.7528949372167
348.9342546641575 273.072652921256 64.16899008627614
364.9657378490032 245.6026480227614 67.23131637691229
353.48012548707794 279.30993594584794 65.1025967167147
363.7847609695838 243.56148539210378 57.97304663232139
367.9697530208713 251.37774574040657 65.39527934936967
358.63302855313384 252.47037901517635 72.80566277289938
359.3807967786644 245.41426025474073 63.852055945431275
368.63282284935354 252.66209476618263 45.21710897000324
349.79933420190315 273.15648588000465 61.77402808636675
366.9684818176112 244.7317579808023 61.308468240142815
359.67783604879736 246.51623871360886 65.95465971875761
368.0160253299895 246.8307282480281 64.83860072215288
357.9280215257104 276.10535366838843 64.93032378488302
342.84702545982805 253.62031745768198 71.63943722900315
370.0048872723642 253.807705945236 62.8395897744175
348.9131616657815 245.82730728369393 47.40402351449986
367.84513676682917 245.58988014451052 56.485450144586274
350.67260202516985 274.7791661282626 61.78022634171773
352.5534803831803 257.72452637075736 71.70189755229492
361.0223123328184 250.308869524292 42.20318496994486
356.78983798116684 248.55304374185621 41.489923058524326
360.91538838482103 252.4161270196598 39.36828049022913
357.8238421513665 249.91236989242944 40.29385612767265
362.20935933333453 245.38225610953558 51.575238667348884
365.27272789890577 244.7276389811611 65.87762051019546
349.38149480636224 250.58625579684636 40.19992439412397
371.9818561787898 262.14825375467217 52.86532754203955
349.2959540509517 244.1195774305769 64.70204044939396
352.72150127538 248.47446756044513 40.728037388167884
367.5258614407107 265.41069550792895 45.852311071278415
354.4128812695299 248.50297461482486 41.1685373115238
345.8249716025186 244.40621778320588 64.39396997690343
359.16030270706 249.11920594523707 71.20906010689883
357.5684948107814 251.34310423905075 38.85958724401488
357.2580756448828 251.0013463061682 72.43496581849391
370.1131546016214 265.0352598978695 48.452240887341624
358.9330950659168 249.4011484835393 41.87331889087786
355.8624736975192 244.62756091970715 56.36959190888463
358.8741695045785 248.09595520712205 45.456198098411136
359.8674341445686 250.84727568777714 39.94759946614977
344.5895485058262 259.6435331828736 41.714976039738744
369.0504220553889 267.61886246859103 55.35499112494794
368.83310736372556 249.54878421412604 64.91265542078077
371.83045340652575 262.2182061150041 61.44001628478401
354.65054970101505 277.6807792933974 68.36383505978922
369.9769588459406 249.98184480414085 50.20705357888916
344.8786386640948 243.92616624204612 53.453348581207045
369.95195669094846 265.5995413869174 60.754840701763044
343.7521120545759 244.0652240544411 60.229355712835385
343.50993081164654 245.83115672806386 63.9235879852395
362.988777626914 243.67775980387793 60.87379058148474
347.0609472481267 243.63279371463545 59.00232297873177
369.4306324150603 266.79232104120615 59.288264806000065
358.14935302586906 276.5920652764665 58.20415167232945
346.33187586525753 246.92986324286682 47.74788788643494
343.69642102403105 251.91735907182454 71.27095893327046
355.96019407676977 245.07662205532841 52.04084646106488
350.970033783075 277.95244708552036 61.63892396660371
370.70825940509843 265.49908067753285 50.268207430138084
350.40123417460694 273.4668126752984 58.37741987613616
368.4122661732948 253.99831816516217 67.86346711757069
363.12144167557057 255.8770759831071 41.07444182265699
349.8882442511499 243.3199113374469 53.24042103780738
345.381374844018 243.55958424534793 59.60981335378308
370.242232343992 266.0033016569103 57.60077614596789
343.9384749878326 243.33763039723874 56.505914523880385
347.0074979069482 243.79418603755644 60.90607235407684
369.47443050125366 250.21329737949628 47.90548184521893
362.03232601659516 244.26060361013336 65.67475842886338
344.5423468585108 244.43052489805444 63.577882938157295
343.6727069926489 244.49027052506545 54.91902021159296
370.8201504891239 265.73756701153155 52.68337170654695
368.8833582150291 248.05607028009246 63.486133272634305
347.07523461852696 243.59402556780498 55.85246962155823
342.8835371480066 245.5221607879114 59.2911833828196
343.9051207433304 266.6828513994298 73.12636313893302
342.96356191034147 245.11092574215752 56.94231591646396
347.2241141587877 246.1063895993938 66.46306361665745
343.27759328796986 245.4481288624927 61.8937761892688
355.3952661524203 247.00281272823477 43.30400341418957
355.11991550052 252.7176101751366 72.52237546606483
343.0241726694633 258.53437501829245 70.91511201652807
356.96423738594194 277.2137345136627 56.44655042636336
356.8574663409985 278.1749999634569 64.03799495921781
359.26551061192794 275.27116517070147 63.40970377014867
353.23904288915736 244.64885298973076 65.59452799310789
366.58989611061264 248.18699299386898 68.61692634324243
351.3013255394232 243.73939598543564 62.69325285175475
344.03899416781974 246.5567809802418 51.22554587722968
351.37305013085677 275.3882757298495 54.97769327981136
347.493591807334 244.65744291981466 64.77377098962461
357.94669159441963 247.95418390419363 43.53139001354442
350.13021708556215 243.4509139147536 57.484454283774184
351.2965748442076 253.91716794138625 71.27919854658539
354.7749232569744 279.5630610472807 61.31922693555683
345.81652567008786 243.56006963809614 57.44242500035474
369.53394278391664 248.20818883986604 56.11173135584848
353.6878119223319 243.745971537293 53.17720061257002
353.3629371508094 250.88454872542616 70.09776248768796
339.8852964306601 263.0744706828854 48.90941916228089
371.50340236158814 256.7570927193008 60.80712441429683
370.8530024386351 263.8032846559935 49.33148085289131
367.2622473535247 252.64176075650795 67.60240702219234
366.6805724751726 244.75126864298647 63.70392419155846
344.64492395417585 258.1668935510611 40.97287473514137
340.3369098905279 260.78664993568316 47.62636501626216
366.4245766523725 263.85153735437314 44.2100937214332
338.9517834407993 261.7398338929745 50.60342354512285
350.21798401305637 252.40179968811248 70.78420314683623
356.9462938538855 253.40282273667495 38.879457729942146
352.84214518032184 251.45726618416393 38.073585992750395
371.9630720133145 259.91633448933084 62.829288524291734
346.6795650816921 251.9033850008995 41.49519199479705
364.11377050551977 249.69065844976947 43.49852722712917
350.936472188621 251.48804368450672 39.052447535276535
348.2217687995048 250.06502886624804 41.97133286068657
362.87846610924026 266.2592399552137 70.31659487299166
351.674156757092 243.4007072414349 53.19111010049576
346.83814980847797 255.61335434872004 40.58316864880517
349.94640704351957 255.6529353711175 39.06622414714533
351.094389202151 243.88032701259687 64.55650229680965
360.44481368789394 245.3599092355399 51.650551163413226
367.92365292121383 262.2120625148519 44.77592751167405
362.89224443067155 248.39069577138739 45.39640703440577
361.4415865434061 247.1412337473772 48.01385876452702
367.2839795739261 267.85292397160526 64.94637863182432
358.7703431727691 247.15866292429928 67.20125663645247
364.4266995431415 244.06981536573096 55.784896132804505
368.9988458985324 266.841818553246 61.133075474820366
370.4573559355821 266.2996548735777 55.38586935371808
364.9908811776736 268.5729557766607 67.08112755327988
368.20021269233916 266.7150448263298 66.2537189887323
358.6030920309146 246.2428418609861 49.73264479574449
358.27528430142655 245.33258505643067 54.33064819560138
371.48366167105127 259.5849525139681 66.6888966915108
347.4918674300102 272.965857302787 66.83550497238387
366.59746336654354 267.54929567596673 67.12203555830924
365.9464544362633 265.9460369904752 68.54439871235732
351.9284557528416 266.075625107334 74.60271021969979
356.9548276614053 246.28818814000417 47.35284565590987
353.55295112966326 245.97522914159495 66.53869381252522
368.0244707135881 260.68037682033463 44.61169892382636
362.4514251429763 249.04895469426452 43.83622389353906
342.0308406234128 268.53521963371384 64.5503172161431
356.1174998200405 273.3398435573154 69.87277884234805
352.2047857310472 274.1601982981376 68.70510640711363
355.59505488306667 270.18946054471894 71.56617002688482
347.3240442709387 273.2121233181191 61.808312747252685
340.8170155701302 266.21716631709495 49.710962503324716
366.9409083635599 254.37436332844564 43.3876338842613
340.8838952922661 261.182653903878 66.46828405515653
370.78871721247 256.8215650098181 50.34895836214694
363.5192961604808 275.41112998378287 62.09543494114692
344.4791840055849 247.7505807990973 65.31026752616383
341.91369163043566 262.6641826217466 46.45752244620363
365.15747445515234 261.11756408038525 69.51490138865653
353.6594950620574 271.29225452488345 71.35810818419012
355.3024100036621 271.893874029405 70.6963736476
341.3749484072281 257.3250998445605 70.23711531216699
343.6355750292798 271.48586966395453 65.33527079079099
363.269173644693 249.1590602028412 69.16399091483876
370.40193805722737 261.72292946579773 68.81909969275966
343.81629536496143 271.85483201503484 63.357435290049544
364.20177986258085 247.10778259519117 67.95154770060638
349.820252528 273.2712070504765 66.21361551577311
363.8696052840155 243.89708290234495 63.91053728067003
366.83669179395497 248.77631438833362 45.070291535550304
367.714504441146 256.7643078831363 70.0081531376991
348.77857624995715 273.2813443477112 59.82903723720753
368.5797638204584 256.5360412297583 44.61218391343162
351.7930687745958 278.7428792009487 63.84100407278457
340.4316771388032 259.4356243176588 68.22586645930964
344.31486215934547 254.95860182860773 73.26986032323731
342.4202781438871 262.5232585717905 68.76156408120517
355.2192694497235 246.54804915470618 45.239726561769096
368.2022830580821 246.72842110281408 62.02393449129668
367.3695294203815 257.9706225722187 42.90306890889303
345.43137735832045 244.4709161238172 51.065338671744804
343.53246767413333 256.7929321100037 42.33749220951086
362.15193817164646 243.8914528794541 55.90631725429068
350.8766312734912 274.61733065603545 65.07060167695445
343.3517127814127 260.6320821894249 69.54296650582835
344.69998314709454 259.6667676139838 71.0884588211022
367.8021564854215 245.58679597443327 59.096670341859436
342.30627019377084 259.15986887004885 43.75697969255274
370.1920351468634 258.35033391824516 47.282302143880045
370.6988947146944 255.92321708555815 65.74896353962417
354.7472794382822 275.0670124071755 68.68364992031891
342.4756410048771 269.82011551475466 59.03391982896004
343.17047997886044 271.2053760657037 61.83538893361633
356.9838936041881 271.27347551422287 70.11477964233877
357.05814169953027 267.10264355348846 71.93316162431404
342.0212684901636 259.08307912107045 45.18025417517989
351.58063118350714 243.3936085376741 55.27332806000246
347.1386431592942 243.5166583728065 53.582343435223876
339.4952234594316 260.67523668791654 59.186463118057155
345.02889815620836 254.30506033917425 41.395607976214386
353.8183608918644 247.10124507448975 67.63797258538267
342.67254104421596 256.22799615781616 71.72843048282408
338.4956944941686 264.75385307008315 61.68721657301688
360.20517901644405 262.32888809483245 71.38293109109384
340.216229561608 263.29057445233894 64.92423048631602
338.5623551690871 266.10742926720945 55.2837551128629
338.7057501623687 265.9089568852054 53.217996397700375
363.47670205187717 244.47559390011685 53.69133920038901
358.2620881346602 248.0687085663432 69.22698229891573
354.0161737706058 249.16214891085303 69.39171912745547
357.91094617648344 276.57794112948255 62.54147873031655
354.1526753440903 266.74925460714644 74.1142933615736
339.80334023265095 267.32939193634246 52.348673878702215
339.3036514533641 267.531261383687 56.66074748215726
347.34680028967284 245.45021114251068 48.60876282066352
338.866394107048 267.40413684458946 58.72391971980231
345.7766900143434 262.8528582557279 70.60738705275234
357.65275105617485 264.67527529876685 72.91877110592151
359.7221921588203 264.76253817904757 71.11378887731718
339.82251478369903 261.6055095859547 49.28192482894193
339.780282996371 254.4882155781301 50.328000127060605
348.61310643601126 247.14940382783436 44.995742807806856
345.3151726259814 253.14402326406892 42.31595241453943
339.13946598642536 258.43350987805314 58.592805719200044
342.82364086315584 251.9415270825946 46.376062914584026
339.5374450962677 255.88846585095104 56.20204129793249
339.26585790497285 259.86901087828807 56.857656248684236
339.6397960575946 256.4278889586372 53.31164472644464
340.1977916218701 255.11617621353815 61.760607418616594
357.8364534910597 255.432544892475 73.48633122606492
358.10433549059644 276.69862003079953 60.19586141735082
338.87877554538454 257.72463832197326 56.58669381429451
350.6155976545055 274.2191144880276 60.18394963073001
339.1777387929334 253.85403027468075 54.26840560646883
339.0561199856987 259.77865725472924 52.99983331008789
339.7838822812585 253.2532455679609 59.49929489590501
355.3932380969955 278.87206571209197 66.095148121402
339.5380187752371 252.25099137912045 58.123631265350625
339.02013798167144 256.9701247498466 54.74279010244748
339.6705650267231 254.3445886934819 55.65641874094854
367.4767735658567 246.7085865309486 51.882132144787796
363.4978011581507 244.7919731660297 67.3618283588205
339.67416145467445 256.9650930219544 63.56676536785449
339.0028135481884 258.5289370092598 51.81671416502865
343.15622829739374 266.60070072828813 69.41725921390973
343.0883521001509 269.0115902114374 67.92861924419888
340.0462379167762 255.98617884264965 50.33635273833401
339.2149277352992 257.92896094569994 53.270377009109225
339.4843386667306 254.7296906363359 52.228659164863814
340.73154414741674 255.65731179762182 47.16203069950301
344.6693542175425 272.811983097729 61.63706395109897
371.5963321875299 261.74368539016064 63.27454630885803
344.1116470484642 250.4597258750154 68.12827362082365
339.8532629873231 255.19749841581526 60.0368601590002
350.3768912540635 275.67394254046945 58.64756622765227
340.191636402152 259.46923456066145 48.92172396785882
367.9986341628379 258.75735916509313 69.05641374462367
368.4401346206393 261.0397722631917 68.94794264722474
342.82657814880395 269.84115658737954 63.59742792857467
349.90058935703587 267.10763553201656 75.40957209925449
355.73079548706824 268.0105975399727 72.42484156175215
366.40687750710674 244.91643585588415 54.32388271031389
341.5029816979721 253.17102385823068 67.6787206620022
356.91664132640324 278.190057174142 58.76321804375118
343.528968121479 267.93644536211417 72.44856707751701
345.138934102145 252.988202983964 71.92498905032627
339.2340116709772 256.39922925401066 58.16910040746856
355.1035353942836 244.52160198089396 61.56934527029174
365.6059125278924 244.02690791513047 59.73056227564328
341.19879527551734 250.39228564018097 49.46071739962446
347.27851866501345 268.09500172556733 75.80900866184194
347.051095223038 271.2032887056741 72.00994481292093
350.80840230200744 274.6777094550848 56.83321895573698
369.758657793001 255.02928311350814 47.594485382392804
339.63374402264674 256.6961262836762 61.882127100738565
368.19533970237853 258.2732281017518 44.371864064141846
362.6005527365529 258.9869871551673 71.48288107503741
338.54699115266817 264.18917669104854 52.21567687237805
358.65440150290897 263.36737550043335 71.84969299763613
353.10779743203267 278.7580932529463 57.25997651784696
338.98812729371457 261.1392142401933 54.82060241028936
339.479853318503 268.1714629131632 60.82774024047863
339.70543965754854 258.02154833209175 50.3362579237851
364.92842010714907 248.33066663609833 69.45554307435548
339.7055302779283 255.37415328522624 54.39910881656748
343.39824240813573 252.69534854650036 44.02856187661006
354.6464850863853 245.47321806306206 48.53669701698757
359.4226021512635 267.398902264792 70.7200067738943
338.6459195445926 261.98943877279913 52.33296474060505
348.526390599414 243.81298590568173 50.895401566764555
345.62734627225996 272.2028956759527 68.30990445789053
342.1419850253226 255.34864240722837 43.743607811182144
342.5739483900962 251.2950795311156 65.49881863638963
340.6491543956357 259.05090902136965 46.82927767719073
341.74722923693923 252.34716543502543 48.28825977279885
340.2027072027175 250.16320984676153 54.6380600575155
344.07907493216976 248.5119412319242 48.5443448833819
343.2701208367604 247.3375185981235 52.65390705810762
340.22215547379466 257.5496715905077 68.16922520598212
340.5539604711342 251.19580915353737 62.40188545692334
343.22336925903545 249.64342885773107 63.66928626262613
342.5574970940021 251.4871218020589 67.01409723224421
341.1475916367066 252.74581691310655 63.32845124038631
343.9107881366815 263.0517206073275 70.48533117786413
356.339927211105 259.2741677524509 72.16555946143143
341.2441625642432 259.2880656012081 69.59999732216934
339.8402541167948 259.3038001438571 65.00939812620311
341.2721523943375 267.33103474557754 65.50837457617507
364.7240481395202 269.6844946967378 64.72629256077683
341.6137572401512 265.5150020461153 66.72228171062099
350.9044014022981 277.06423205223166 56.69419814378437
341.1913828009109 260.9413188962245 68.12717755873572
340.8009801066193 255.1562489721487 66.64871967764245
339.80248356897744 257.4461469918797 65.3297056264258
343.2636133059017 247.36134005056957 57.701530597961316
355.4983014864756 278.8177637858415 57.28543990283182
340.0171449753361 261.1219801701506 61.79437312803144
343.3381263058146 265.7551365456588 71.43901812905084
346.4841990840954 244.1637917155365 62.98026743013288
341.348161504314 263.06398751128506 66.58115290353359
354.96879400869375 278.4006488818215 55.16095092577316
355.19372388383067 246.17037489577552 46.99833654621248
338.505329523415 266.3987500783802 62.996981099522245
342.78693931094347 267.25347216752965 67.66752864957076
353.2537749562146 255.49435624978162 38.020625666668856
345.140278471683 257.7547325747184 72.76863630093466
347.45233852779415 252.6890626573027 70.57378132079788
354.67220318071674 244.86845460728614 64.38681657105455
360.59366189991636 259.1181677099967 71.94298067643676
342.07027039444864 269.3954659530293 60.950426253438685
359.7795273824464 254.80800018250605 39.29593160816256
351.21399549323326 261.0510519083378 72.14528458063569
356.90823827055357 245.56119164368536 58.49678863859854
370.25418960081123 253.7025902074991 48.4488501203772
370.2388380368037 263.84392150743435 66.53466235101577
354.14347611146474 243.86944498208697 58.07846604123559
344.95586819888723 269.63030793490145 72.31329772888877
350.0712684083186 248.57774208589237 69.71501832381175
369.5377392888256 257.08668255101446 68.6887869043973
350.7929198148032 257.5365424302267 71.96971231539514
351.4753517227668 243.61975995954703 60.69429954014981
343.628502675008 270.92297227642064 67.93503424708024
350.95703217446464 273.97904924011897 63.21162004602485
366.41820724459126 260.2142350734925 69.70869057824257
359.94271965737886 245.13952205514312 65.37089165564738
350.48123537260074 246.80305744354223 67.28819285419395
369.01636593277664 263.60622564975154 46.30544484300858
343.65062409329295 245.39552035943802 52.904402553197954
345.4024052783216 261.3253420648333 70.462534044567
342.93962223794614 249.8864600898321 47.721315598412005
345.9161315313487 248.15589680885702 66.49453087315977
345.10010408516365 245.9387433388524 65.17164749263934
352.42331021816847 278.36020022284475 66.81133909489891
352.0120209171413 245.60398984961296 67.52707525532875
370.72608349670986 253.13032361954686 51.064761672113335
351.5751730217052 263.271246842737 73.35165354768408
352.14593614437825 244.38336915718753 49.322531092536636
346.82837795008845 259.57468274481573 71.02884819028826
361.3583916848552 256.01979706701957 40.3758005808196
366.76915208480426 264.2957155568538 68.41657752575779
342.70275205786794 252.13370874159702 69.4885194965909
339.8350546357956 252.56434457267923 50.32277185251551
348.21082386088324 263.6415565511174 72.83156613722792
342.10504882577493 249.08367667731366 56.13075428298851
347.82032159766914 247.0582978847334 46.657478317493236
343.6589853770641 261.7817433656371 43.934198126199604
348.0170097626687 243.4311593650304 57.47948308603344
365.3481770490274 255.2984703654899 42.1914487970635
368.10273805770305 255.45171871040523 68.40539845523472
368.9986347020101 251.4989116307179 61.454827405823586
340.51202330234764 251.25985370371026 59.97521098442332
342.851674661426 264.81168465254797 68.63002397607565
344.77561091568566 246.76531311234962 48.97417259856999
364.7942001878534 256.57334945386685 68.95620840649454
351.4493347521799 246.7341925282125 44.16138515180701
343.48002760296947 247.6527398455046 60.396679090412505
345.2209971760327 267.68539909642885 74.05853016410971
370.9603320181152 254.7040571795383 56.90755587342968
346.97616829347623 251.1056686192807 69.55012509789668
370.98494978939783 254.0298266038795 52.5720598670805
349.1367266282757 243.73982302804666 62.6404014058225
355.83389606595904 249.7251206711766 39.578895418487775
342.1979351765763 251.05029850673287 63.947391977885765
344.08898200165123 247.79076080685905 63.36249118642237
368.31053634608907 253.12098114462083 66.33767317162012
365.94471573148496 247.5892050521739 46.89146934442514
356.6362947169136 249.35386526918919 70.18920722004319
368.8108750918579 247.7940327877221 49.341616695073206
354.13225975425985 262.68864461057296 73.06983385840871
345.4033122496666 243.61971271165348 55.27647944683109
369.70791583607155 252.72191526752954 46.841202144475126
355.02517801614897 264.99233899828425 73.95059922813068
342.29399845335865 248.97000060001903 53.50834193770929
371.49043300561726 263.4701794007943 58.197254210852144
370.16043898761865 251.04472332580022 57.1109250031492
340.29271553954817 261.24201386291 64.69799545442528
352.36805041515606 243.56503157635635 58.09952399110342
348.599088562175 247.5529792750517 68.26201902943153
369.5844279601781 265.78150646530383 62.560678974500114
340.2985342128351 259.6060549673066 66.59031618794057
354.6086171548189 279.3825342070093 63.31169297337379
356.95689329453575 274.5274095394256 68.46952788800445
343.8488694665417 243.79731508609484 58.37959509604162
364.44232568490975 270.1164708627797 62.240198790371586
366.7948218603736 268.72180104301464 61.72248037672227
359.9515107916711 249.21002701324275 43.9908132501534
357.3195885553111 253.4402734019247 73.10235781394074
356.93071420710174 257.4939577966653 73.31936828713931
363.1639755458472 273.4158686537558 64.91991534800945
364.7910031430948 256.5770606409608 41.222039646608614
350.7706409732267 243.30644653674673 58.97809872824723
371.6855930509368 263.6278564243289 54.37164357142116
351.442779311621 244.0200167939393 51.21925655870759
356.743173753685 278.85924044285645 61.387674762446295
364.54998574676404 248.49289853785473 44.77320229275237
342.529935050689 249.9007526495516 61.74287311359334
353.21087029001455 250.00419579089817 39.544468652214654
359.7312792652325 257.0602626553055 73.41790001314699
370.88055217789594 255.47106225795375 62.18953219135912
345.1723317260876 251.38862748846384 70.09181710656458
359.23182386807923 253.2330572924209 39.227086063447466
352.93566183818706 252.60925395499876 71.11159713801842
354.9487011575184 251.05032175035785 70.84187093597171
363.87490055919244 268.91487698087 67.99972696787432
364.1663232756425 266.1047481920377 69.5545610173277
369.39678852899027 250.8282626934982 59.51347616265935
344.8198567781365 265.56068849953533 73.47911186894956
371.2747793756995 261.8817762368282 66.55046616000047
351.4905266070691 248.02969295578768 68.37063778759229
366.21149541989456 256.0274813710989 68.69187468290968
362.5956308551454 262.88382601864106 71.08637979295561
370.99646948418354 260.15632627297276 49.98545853259869
368.90224613979177 252.14327137164068 63.50958607377877
364.92425217057473 245.46054546065525 51.532726591167204
371.4613292694358 263.38197817476487 51.441404467290724
355.18998172770074 255.1889803620739 73.43967659506303
353.2914905196069 246.34900346924982 45.07610751700413
371.36744863670145 258.55674347228074 50.430627170645145
370.33712908557754 259.6214827107382 68.26800334527574
369.8816634456725 255.09545802986565 67.16946037623612
365.5641939340968 250.14649763037508 69.32982676693429
371.21255139462806 256.75331650973715 64.38605458309361
353.98770178630417 272.97671532513283 69.9120043066608
369.80289424303896 261.2318102794859 47.612834441815
369.54525612533473 257.05439839762505 46.134593952179614
372.01632093616956 258.91954006461896 52.53512525324005
349.6466900074064 245.16163512980103 66.45390480418014
368.331541333304 248.06770587539765 66.97182914889717
358.1571666953343 246.60703696313163 64.77096521177053
369.2201598440756 265.1403982111293 66.3599729776055
340.43382195388176 255.0578064192854 63.67398205810055
352.85313789541937 279.2193108091706 59.21261071586968
347.6771211953646 262.24034670979074 70.8431174808029
367.61455874553354 265.5130616768368 67.46834391938143
360.6530678626067 270.4841130568491 68.892444563192
357.74148887626984 268.59344625381453 70.72482875477367
359.56303977146916 261.1181971886704 72.06570879576748
354.78202035268333 279.5728958971273 59.38164685969925
364.22631879698935 259.86892185788923 70.32302118243064
347.42052449798854 272.31995524016133 69.58553840898539
369.04457340323665 263.51840698146356 68.26248155634687
341.40380622225723 252.75899447734574 65.42638011875663
351.95602327473944 268.12469082404505 74.6454996390261
360.9608750895389 244.43368081134517 63.22519818480415
361.16349867721107 255.78425297005793 72.61662678385395
364.8987692243501 267.6472986896206 68.52194275589181
362.9401715405262 253.5532449589956 70.30714674588293
365.69237311251464 252.30232717443374 68.21520696920105
371.8771408120739 260.5388656905879 58.80810410644682
371.5989642129887 259.34055686918776 64.67987786179374
351.69614651689494 271.6447273102366 72.837514674172
363.2687691846082 264.6395091221786 71.00939323080992
370.9886239243353 263.89754916605006 61.64250342215126
368.7069001749715 247.1449264027551 54.72974844175012
362.20359589142555 270.0461042801444 68.16916012888956
351.6079208537996 273.59054780519534 66.75103594774215
365.0697568157795 251.58989705406728 41.6346069819491
368.29726880039664 267.8572805205617 58.730563991856734
370.7207632244095 264.667350235242 59.15177524351791
361.37751070406154 250.4859221940349 70.41722821397722
363.38342560237004 257.26379052814394 69.97361902543413
369.01125726400454 249.54736063838158 62.07670782761995
361.0203504427064 266.18485007571024 70.72505560688559
366.2583331943664 261.04993204745074 42.01886551459399
354.3948455672642 257.94817016045124 72.35891681948183
371.9283977492432 262.1277395744812 57.01477839475161
368.89283498240684 247.22643020439693 57.248186270460145
351.04285014245283 278.2233854511741 59.23915352077521
364.0568549054616 262.32668817073466 70.13038772474334
352.84411765099003 279.2999161118933 61.14337757775398
366.6890527814619 254.20761700558117 67.37501868428153
360.4649800387796 246.62610454245657 50.18395018482646
361.41764861390135 246.4290972126822 67.02184356390592
369.68843115639146 248.53141645007804 52.21696938038491
363.7313420450327 251.83648925443063 70.00726698203692
355.76088212621335 245.8341823814094 62.972516814258356
367.79076128565396 252.59483330616015 43.68653015296326
351.88362600712907 272.1536501185121 70.25469231617048
358.43290746888977 273.19515842225144 69.49856009571806
345.7764776409756 249.67245365660722 45.1215734196049
371.2768716260543 264.44645458773493 56.97166159049103
351.56191987323405 250.05399399132392 70.37953271173944
361.1235037522676 248.09915198346894 45.916601690541924
370.4714931828952 252.94968778050597 58.20933619127947
360.6748002035147 248.29468729182827 68.93454129313533
362.1276495286068 255.043094491328 71.06398656856145
371.29498562734045 257.4712162452262 66.76631036634136
370.6535872691992 252.75950100802694 55.25990202526726
359.56615463897947 244.41255390826888 56.289814133263526
361.7738195805041 252.7184440852057 71.28305753239147
365.82906600085 257.91238627738704 69.58859219005583
359.67596102333283 274.72705386550666 64.86032021415217
367.86994991237265 267.5553022512487 62.65016310687338
370.79951088368387 261.7359458795397 49.401217400762945
356.5681508150382 245.86278416242308 49.299191320181265
345.87470056361235 264.1444153256656 71.94102129251556
349.57315869115456 255.20127659421934 70.63100594692268
360.61107878676864 244.5823096460076 53.51000415173435
356.1309053963193 263.23805698671237 73.78865027971946
356.6190773089069 276.4403570343826 67.16082766863961
350.0960941105222 272.39919656152705 68.35873337815859
369.06816797275894 248.101937740105 59.59393961889149
345.69583224865903 273.1021841994517 64.28191161765942
367.65116076035696 250.72843157513674 67.42206682272584
371.8760983095714 258.18100495971 59.44796707940415
357.2485273993439 261.21539412866827 72.2101159451743
360.3779877481809 244.328573634634 60.73983153462337
365.98223947322214 250.45208259783712 43.21289218024852
349.082588014209 243.52764711444837 59.60003595877775
339.56720284220137 265.1715768434032 65.46698332689922
356.35329597212984 245.26449345550026 60.25842296225647
368.7732979909096 266.2168141632788 64.54919659776132
368.36432492270825 248.22293569764798 46.69506858181831
372.0842823087524 257.9402138494122 54.587272597905574
347.72062659193 270.0774463123205 75.45248943345908
371.9059844668834 259.3871679098129 56.84883694532652
371.44095016844165 256.6314025045484 52.15290818233164
341.0177435346383 254.8155232014807 69.66411035239129
339.74855488296794 267.0316071015385 64.52766111083776
354.25293822703696 243.88530640637015 56.22552231201455
351.01641004578727 268.6771103012171 75.99721678403623
361.6340845381869 257.2110963349293 71.7865079002686
366.1859716595623 244.211445386265 57.19764580123865
355.4320851613548 246.09214834779368 65.85737810198778
362.83820401119806 267.80182108032454 69.43920590209382
370.2109709355558 264.05376237447075 64.48962205623074
370.5297872665169 251.44308493845446 52.255306402457485
363.93899294797257 269.844639277892 66.22475014313173
349.03004947197877 271.057636317961 74.06257393965495
371.95028008639605 260.70999181310395 54.25156747787382
371.59787319190104 256.8361121226027 56.98640810028264
359.8554023835556 254.15332771698723 72.59867783882312
357.27998357619833 245.65671534117575 56.66364926649973
351.1675012646676 275.7717795465582 67.20460590921228
349.34912410708984 267.49552713491084 45.62857118322654
361.1798827052768 243.8806887860666 58.46340228550689
353.7893120871011 269.73619754365257 73.56952186662879
350.29939586769814 264.43382498319414 74.13622736495047
370.21079775202816 253.05030343443073 61.058077689806204
358.5169949522976 273.1106795463305 50.33991008181392
361.02917761292497 263.63127422409724 71.16540221663504
358.8265505147022 247.09051513250517 47.761722610460154
361.67344559501544 261.21252796518604 70.67306176508262
370.20381943160413 254.4780497030004 64.6463532948291
356.2965118938658 248.06534683910124 67.75269274704775
352.6663976195795 255.55073930325148 71.65202586469745
355.6290577158706 244.58732753608055 58.01367881911704
365.759002602208 269.0801600901474 65.66295056027548
370.5380711587566 252.22697558344407 49.45934487309484
356.3962879668179 265.8789142765156 73.10359657040749
348.194735299187 257.53987296556323 72.09264183843104
352.45354318421556 261.94551187084915 73.0102682412338
358.649248582368 245.7536246068386 62.01757417371818
344.90035646073466 243.67069657446208 61.65905240658533
363.4301262736772 247.57016481503513 46.89998927652673
346.95590313665144 269.54363927734187 73.87913435441683
358.52369917953627 245.48330333883064 51.726648817832206
348.5090294368958 249.9622841891838 70.498586097786
366.2831273645035 262.29566105898994 68.72490770165976
350.13003270898616 276.24526562294244 60.7637948781609
354.68895268642154 260.9003638015667 72.46924735358286
364.1395984123062 254.6153367613373 68.90076329073838
350.28026400013204 276.2623853082253 63.14231566193328
349.6408874582292 260.001267478229 71.65702109484079
371.01775273415404 255.4366781824035 59.367766275380376
358.45156020819525 265.9917260258546 71.6196100933191
354.1312290321259 244.04143283634855 59.94829975063736
360.03924160696477 251.358183306128 72.55096025758486
365.0482158451685 264.263265262757 69.34536682668183
346.2233724007981 249.58944247493616 68.75786624947901
357.311099310468 271.1104458410205 48.22930395934674
366.16583410079096 246.62268912818556 49.20722775187631
346.8361338555542 255.06442858654444 72.31502517341612
371.9189137960914 258.0584329417156 62.22647493939888
371.36055953884477 255.46360965301423 54.74383677411465
358.6922613443349 245.18382210689964 58.97324276856072
369.9823030330506 249.71134322123254 55.0230636083658
339.3686120718834 258.8178984222647 60.79779025568467
366.51092299909556 246.3061259572767 66.95033722064979
338.92583656736855 258.90437413680496 54.87662037929151
345.0015598463797 271.24728895133836 70.26174089357444
338.38069758759093 265.2227747221649 57.5791681956136
371.6947928887767 260.4521594799168 61.092099306677625
POLYGONS 1850 7400
3 7 0 1
3 1 2 4
3 1 0 2
3 21 7 1
3 14 15 0
3 21 1 4
3 2 0 6
3 3 6 0
3 7 89 14
3 4 17 16
3 4 16 21
3 5 8 17
3 5 17 4
3 4 2 5
3 10 9 8
3 8 5 10
3 11 12 10
3 5 11 10
3 5 2 11
3 11 13 12
3 11 2 6
3 11 6 13
3 0 15 3
3 8 18 17
3 10 19 9
3 12 19 10
3 12 20 40
3 12 13 20
3 13 6 23
3 23 6 3
3 53 24 46
3 24 53 89
3 3 15 25
3 15 14 26
3 27 29 28
3 17 41 16
3 30 31 29
3 30 29 27
3 27 17 30
3 32 31 30
3 17 18 30
3 30 18 32
3 18 33 32
3 34 35 33
3 34 33 18
3 18 8 34
3 36 37 35
3 36 35 34
3 8 9 34
3 34 9 36
3 38 37 36
3 9 19 36
3 36 19 38
3 40 39 38
3 42 41 28
3 16 41 22
3 16 22 21
3 41 42 22
3 40 43 39
3 44 43 45
3 40 45 43
3 40 20 45
3 22 42 46
3 49 47 48
3 13 23 48
3 23 50 49
3 23 49 48
3 46 878 53
3 52 51 50
3 52 50 23
3 3 52 23
3 25 54 51
3 25 51 52
3 3 25 52
3 89 53 86
3 55 54 25
3 15 55 25
3 15 26 55
3 29 68 28
3 31 57 56
3 29 31 56
3 58 59 57
3 58 57 31
3 31 32 58
3 32 33 58
3 58 33 60
3 62 61 60
3 33 35 60
3 63 64 62
3 28 68 69
3 28 69 42
3 39 70 67
3 39 43 70
3 72 71 73
3 70 73 71
3 70 43 44
3 70 44 73
3 69 113 74
3 42 75 46
3 76 77 72
3 76 72 73
3 44 76 73
3 44 47 76
3 78 77 79
3 76 79 77
3 74 80 75
3 82 81 78
3 82 78 79
3 49 82 79
3 49 50 82
3 84 83 81
3 84 81 82
3 50 84 82
3 50 51 84
3 878 85 86
3 51 87 83
3 51 83 84
3 54 87 51
3 88 87 54
3 55 91 88
3 55 88 54
3 90 89 86
3 92 14 89
3 92 89 90
3 56 106 68
3 101 100 99
3 68 106 108
3 68 108 69
3 109 71 72
3 109 72 112
3 113 114 115
3 113 115 74
3 107 114 108
3 116 77 78
3 120 163 121
3 74 120 80
3 78 81 123
3 126 125 122
3 126 122 123
3 81 126 123
3 81 83 126
3 129 131 125
3 129 125 126
3 83 129 126
3 83 87 129
3 130 131 129
3 87 130 129
3 132 131 130
3 130 87 88
3 128 86 85
3 133 135 132
3 133 132 130
3 88 133 130
3 88 91 133
3 134 86 128
3 86 134 90
3 136 135 133
3 133 91 914
3 180 137 134
3 90 134 137
3 183 182 883
3 92 90 137
3 184 138 137
3 92 137 138
3 92 138 26
3 184 914 138
3 148 147 146
3 146 760 148
3 94 155 107
3 114 159 115
3 107 158 114
3 199 164 159
3 166 165 162
3 118 122 166
3 169 168 165
3 169 165 166
3 122 169 166
3 122 125 169
3 171 170 167
3 124 170 173
3 124 173 128
3 170 171 173
3 172 168 169
3 125 172 169
3 125 131 172
3 209 173 171
3 174 175 172
3 131 174 172
3 174 176 175
3 174 131 132
3 174 132 176
3 209 178 173
3 128 173 178
3 132 135 176
3 177 178 209
3 128 178 134
3 135 179 176
3 135 883 179
3 135 136 883
3 177 180 178
3 134 178 180
3 215 181 180
3 137 180 181
3 137 181 184
3 216 184 181
3 182 183 216
3 184 216 183
3 184 183 914
3 154 197 158
3 198 200 199
3 199 200 164
3 162 165 203
3 205 204 202
3 205 202 203
3 165 205 203
3 165 168 205
3 207 206 204
3 207 204 205
3 168 207 205
3 168 172 207
3 171 167 208
3 171 208 209
3 175 210 206
3 175 206 207
3 172 175 207
3 175 176 210
3 245 209 208
3 212 210 176
3 245 211 209
3 209 211 177
3 176 179 212
3 212 179 214
3 270 213 211
3 270 211 245
3 177 211 213
3 179 883 214
3 177 213 215
3 177 215 180
3 883 249 214
3 291 215 213
3 883 182 249
3 272 181 215
3 181 272 216
3 250 216 272
3 216 250 182
3 188 619 217
3 217 619 219
3 234 235 240
3 198 234 200
3 201 202 236
3 239 238 237
3 239 237 236
3 202 239 236
3 202 204 239
3 167 240 208
3 240 261 241
3 240 241 208
3 243 242 238
3 243 238 239
3 204 243 239
3 204 206 243
3 244 246 242
3 244 242 243
3 206 244 243
3 206 210 244
3 241 245 208
3 210 246 244
3 210 247 246
3 210 212 247
3 248 247 212
3 248 212 214
3 271 248 214
3 214 249 271
3 213 270 290
3 213 290 291
3 273 271 249
3 215 291 272
3 250 273 249
3 250 249 182
3 230 260 231
3 235 261 240
3 235 231 260
3 260 279 262
3 263 232 236
3 236 237 263
3 265 264 266
3 263 237 266
3 263 266 264
3 237 238 266
3 261 283 286
3 261 286 241
3 267 265 266
3 238 267 266
3 238 242 267
3 242 268 267
3 242 246 268
3 246 269 268
3 246 247 269
3 241 286 288
3 241 288 245
3 245 288 270
3 270 303 290
3 248 271 289
3 272 292 250
3 250 292 273
3 283 297 286
3 264 284 280
3 264 265 284
3 298 286 297
3 265 287 285
3 268 287 265
3 267 268 265
3 288 286 298
3 269 287 268
3 288 301 303
3 269 247 289
3 247 248 289
3 288 303 270
3 303 416 290
3 273 304 271
3 290 306 291
3 291 306 292
3 291 292 272
3 292 307 273
3 295 321 294
3 295 294 281
3 300 299 285
3 287 300 285
3 298 301 288
3 287 269 300
3 269 289 302
3 596 303 301
3 289 271 304
3 302 289 304
3 308 304 273
3 306 290 416
3 305 306 416
3 306 305 307
3 307 305 644
3 292 306 307
3 307 644 308
3 307 308 273
3 783 595 309
3 297 495 298
3 285 299 296
3 299 300 554
3 298 495 386
3 298 386 301
3 495 556 386
3 380 554 300
3 302 409 380
3 302 380 300
3 269 302 300
3 409 302 304
3 301 386 596
3 308 409 304
3 303 596 416
3 409 308 644
3 416 596 634
3 416 634 305
3 603 305 634
3 305 603 644
3 495 335 556
3 534 554 737
3 578 556 903
3 554 587 737
3 554 380 587
3 556 578 386
3 386 578 596
3 578 634 596
3 409 644 639
3 811 634 578
3 603 634 811
3 587 409 639
3 639 603 781
3 578 903 811
3 24 89 7
3 7 21 24
3 22 46 24
3 24 21 22
3 27 28 41
3 41 17 27
3 68 29 56
3 69 74 75
3 75 42 69
3 75 80 46
3 93 94 106
3 113 69 108
3 108 114 113
3 120 121 127
3 120 74 115
3 115 163 120
3 158 199 159
3 159 114 158
3 163 115 159
3 159 164 163
3 199 158 197
3 196 229 197
3 234 240 167
3 167 200 234
3 234 198 231
3 231 235 234
3 235 260 262
3 283 262 282
3 534 299 554
3 409 587 380
3 737 587 781
3 587 639 781
3 47 44 45
3 45 48 47
3 639 644 603
3 45 20 48
3 20 13 48
3 124 128 85
3 85 127 124
3 136 133 914
3 170 124 121
3 136 914 183
3 878 86 53
3 170 121 164
3 164 121 163
3 127 85 878
3 121 124 127
3 883 136 183
3 127 878 80
3 80 120 127
3 164 200 170
3 170 200 167
3 878 46 80
3 19 12 40
3 40 38 19
3 37 38 65
3 65 63 37
3 26 138 91
3 35 37 63
3 26 91 55
3 49 79 47
3 47 79 76
3 227 925 228
3 227 257 925
3 617 140 187
3 219 221 694
3 224 904 895
3 859 857 873
3 918 860 857
3 896 854 919
3 919 850 896
3 280 281 871
3 848 926 917
3 339 843 321
3 874 918 857
3 321 835 339
3 321 295 835
3 835 295 296
3 911 833 875
3 832 919 876
3 848 908 874
3 875 833 829
3 882 827 908
3 854 910 890
3 742 882 908
3 294 822 277
3 294 321 822
3 819 854 896
3 153 851 820
3 820 851 104
3 912 812 902
3 194 845 810
3 844 309 821
3 873 809 859
3 224 808 904
3 865 829 804
3 804 829 905
3 911 803 833
3 803 828 487
3 258 806 868
3 842 904 849
3 104 800 105
3 105 800 103
3 104 851 800
3 800 851 103
3 799 844 472
3 281 798 871
3 258 868 798
3 795 806 884
3 880 794 275
3 821 309 794
3 859 792 848
3 848 792 926
3 792 233 926
3 818 791 905
3 791 814 905
3 833 790 829
3 829 790 905
3 833 818 790
3 790 818 905
3 798 281 294
3 812 912 795
3 149 838 383
3 383 838 900
3 833 803 818
3 818 803 487
3 309 844 783
3 783 844 462
3 780 849 225
3 275 786 880
3 802 796 233
3 804 834 782
3 277 779 258
3 258 778 277
3 277 778 294
3 258 798 778
3 778 798 294
3 7 14 0
3 103 102 105
3 102 66 105
3 232 801 236
3 236 801 201
3 232 379 801
3 801 379 201
3 886 782 812
3 907 254 776
3 855 836 452
3 867 819 772
3 772 819 896
3 118 362 160
3 857 769 873
3 873 769 161
3 857 860 769
3 111 767 157
3 111 117 767
3 767 117 160
3 919 879 850
3 919 832 879
3 857 859 874
3 859 848 874
3 917 793 765
3 765 793 830
3 487 764 818
3 847 791 764
3 764 791 818
3 809 233 792
3 792 859 809
3 157 761 152
3 151 915 757
3 769 860 761
3 761 161 769
3 797 817 920
3 920 817 870
3 837 157 767
3 767 160 837
3 884 754 795
3 795 754 812
3 884 886 754
3 754 886 812
3 808 889 759
3 161 755 837
3 837 755 157
3 161 761 755
3 755 761 157
3 814 753 905
3 758 161 837
3 194 749 845
3 749 805 845
3 912 748 795
3 748 789 868
3 749 827 882
3 868 747 798
3 798 747 871
3 868 789 747
3 824 735 456
3 824 809 735
3 735 809 873
3 855 773 869
3 773 777 784
3 825 435 901
3 825 745 435
3 284 732 280
3 280 732 281
3 732 295 281
3 869 575 796
3 808 759 731
3 259 728 263
3 263 728 232
3 259 836 728
3 728 836 232
3 280 727 264
3 264 727 263
3 280 259 727
3 727 259 263
3 38 39 65
3 39 67 65
3 831 920 870
3 855 869 722
3 722 869 796
3 827 718 831
3 827 749 718
3 718 749 194
3 845 805 502
3 904 712 895
3 895 712 256
3 904 842 712
3 712 842 256
3 898 738 709
3 763 708 887
3 708 756 887
3 917 765 742
3 742 765 887
3 918 831 703
3 703 831 870
3 827 701 908
3 908 701 874
3 827 831 701
3 221 699 739
3 760 698 101
3 101 698 100
3 760 146 698
3 698 146 100
3 920 831 718
3 718 194 920
3 716 189 190
3 874 701 918
3 918 701 831
3 805 693 756
3 756 693 882
3 805 749 693
3 693 749 882
3 863 720 520
3 221 739 694
3 145 144 688
3 619 687 219
3 687 221 219
3 707 739 699
3 918 703 860
3 860 703 195
3 907 681 894
3 907 776 681
3 736 613 147
3 149 680 148
3 148 680 147
3 149 736 680
3 680 736 147
3 256 679 895
3 895 679 254
3 256 881 679
3 679 881 254
3 195 678 892
3 892 678 870
3 195 703 678
3 678 703 870
3 145 673 143
3 770 669 721
3 721 669 752
3 770 677 669
3 669 677 752
3 740 64 705
3 913 674 721
3 507 666 327
3 327 666 335
3 507 906 666
3 905 697 804
3 804 697 834
3 905 753 697
3 697 753 834
3 223 664 910
3 664 704 852
3 889 663 840
3 224 907 663
3 901 661 825
3 825 661 752
3 901 721 661
3 661 721 752
3 910 659 890
3 890 659 863
3 910 720 659
3 659 720 863
3 474 846 327
3 310 462 846
3 846 462 327
3 901 913 721
3 254 686 776
3 686 839 776
3 830 662 763
3 919 656 876
3 876 656 890
3 919 854 656
3 656 854 890
3 254 655 895
3 895 655 224
3 254 907 655
3 655 907 224
3 66 654 67
3 67 654 65
3 66 744 654
3 654 744 65
3 914 91 138
3 746 407 745
3 407 730 759
3 225 652 780
3 225 741 652
3 652 741 865
3 840 663 894
3 894 663 907
3 776 672 681
3 784 683 902
3 902 683 912
3 784 777 683
3 834 667 782
3 105 691 104
3 111 468 117
3 468 112 116
3 143 823 145
3 145 823 144
3 143 142 823
3 823 142 144
3 894 681 649
3 92 26 14
3 252 853 646
3 645 148 760
3 783 924 595
3 274 660 924
3 252 257 640
3 638 699 221
3 716 191 687
3 687 619 716
3 785 636 774
3 636 637 774
3 647 633 695
3 853 643 633
3 633 643 695
3 310 614 462
3 462 614 783
3 310 665 614
3 278 925 257
3 631 647 293
3 719 252 640
3 640 251 719
3 251 630 719
3 719 630 723
3 251 637 630
3 630 637 723
3 665 274 924
3 808 731 628
3 220 626 774
3 774 626 785
3 626 706 785
3 222 624 707
3 707 624 739
3 222 706 624
3 624 706 739
3 706 623 739
3 220 694 623
3 623 694 739
3 637 622 723
3 191 621 671
3 191 716 621
3 621 716 190
3 190 620 696
3 696 620 145
3 190 673 620
3 620 673 145
3 839 641 627
3 627 641 695
3 189 619 188
3 189 716 619
3 141 618 185
3 293 665 486
3 486 665 310
3 222 616 706
3 706 616 785
3 222 625 616
3 616 625 785
3 626 220 623
3 623 706 626
3 118 670 119
3 119 670 117
3 118 160 670
3 670 160 117
3 633 647 631
3 631 853 633
3 622 637 636
3 636 861 622
3 665 924 614
3 614 924 783
3 849 628 225
3 258 611 806
3 806 611 909
3 258 779 611
3 611 779 909
3 741 225 731
3 225 628 731
3 143 609 142
3 829 788 875
3 875 788 741
3 829 865 788
3 788 865 741
3 276 653 605
3 605 653 279
3 602 842 849
3 35 648 60
3 60 648 62
3 35 63 648
3 648 63 62
3 550 604 923
3 196 601 229
3 196 612 601
3 601 612 228
3 110 691 109
3 782 600 804
3 804 600 865
3 782 886 600
3 111 768 599
3 152 597 768
3 768 597 156
3 597 714 156
3 660 595 924
3 594 700 255
3 854 591 910
3 910 591 223
3 854 819 591
3 591 819 223
3 650 589 743
3 641 588 274
3 274 588 660
3 588 700 660
3 785 586 636
3 785 625 586
3 586 625 684
3 636 586 861
3 861 586 684
3 910 664 720
3 902 581 784
3 762 580 662
3 580 667 834
3 762 662 830
3 581 902 667
3 881 583 255
3 255 583 594
3 743 576 913
3 576 625 222
3 869 751 575
3 575 751 793
3 67 682 66
3 67 70 682
3 141 573 140
3 140 573 187
3 141 185 573
3 573 185 187
3 582 653 276
3 780 602 849
3 584 473 880
3 185 570 187
3 570 572 186
3 647 569 293
3 293 569 665
3 647 274 569
3 569 274 665
3 641 568 695
3 695 568 647
3 641 274 568
3 568 274 647
3 577 598 253
3 577 253 590
3 188 685 189
3 188 572 685
3 187 579 617
3 187 606 579
3 618 685 185
3 251 566 637
3 637 566 774
3 251 598 566
3 566 598 774
3 187 570 606
3 606 570 186
3 640 921 251
3 640 522 921
3 251 921 598
3 598 921 253
3 218 563 217
3 549 608 563
3 549 562 608
3 923 571 562
3 219 561 217
3 217 561 218
3 219 694 561
3 561 559 218
3 561 694 559
3 559 694 220
3 226 558 612
3 558 571 923
3 217 557 188
3 608 572 557
3 557 572 188
3 571 567 186
3 186 567 606
3 567 226 606
3 562 555 923
3 923 555 550
3 562 549 555
3 731 553 741
3 741 553 875
3 553 730 875
3 604 612 558
3 558 923 604
3 598 552 774
3 774 552 220
3 598 577 552
3 552 577 220
3 555 549 590
3 608 551 572
3 572 551 186
3 551 571 186
3 563 608 557
3 557 217 563
3 227 550 522
3 227 604 550
3 562 571 551
3 551 608 562
3 563 218 549
3 550 547 522
3 253 921 547
3 547 921 522
3 577 590 218
3 590 549 218
3 253 547 590
3 550 555 547
3 547 555 590
3 558 226 567
3 567 571 558
3 142 609 546
3 546 609 139
3 146 545 100
3 100 545 144
3 146 688 545
3 545 688 144
3 218 559 577
3 577 559 220
3 185 544 570
3 570 544 572
3 185 685 544
3 544 685 572
3 255 686 881
3 881 686 254
3 842 541 893
3 893 541 909
3 842 602 541
3 541 602 909
3 839 540 776
3 776 540 672
3 839 627 540
3 540 627 672
3 743 702 650
3 650 702 901
3 743 913 702
3 702 913 901
3 539 605 279
3 646 276 605
3 613 538 147
3 260 537 279
3 537 539 279
3 231 536 230
3 231 198 536
3 536 198 229
3 230 529 537
3 228 925 529
3 529 925 537
3 230 537 260
3 278 539 925
3 925 539 537
3 539 278 605
3 278 646 605
3 601 530 229
3 230 536 530
3 530 536 229
3 228 530 601
3 530 529 230
3 530 228 529
3 719 528 252
3 252 528 853
3 719 643 528
3 528 643 853
3 786 535 880
3 893 584 535
3 535 584 880
3 825 752 533
3 884 527 886
3 886 527 780
3 884 602 527
3 527 602 780
3 252 526 257
3 257 526 278
3 252 646 526
3 526 646 278
3 780 652 886
3 612 604 228
3 228 604 227
3 321 725 822
3 822 725 471
3 321 843 725
3 673 593 618
3 189 685 593
3 593 685 618
3 141 548 618
3 141 609 548
3 548 609 143
3 97 523 96
3 96 523 139
3 97 546 523
3 523 546 139
3 257 522 640
3 257 227 522
3 618 548 673
3 673 548 143
3 779 518 909
3 909 518 893
3 779 584 518
3 518 584 893
3 191 638 687
3 687 638 221
3 189 593 190
3 190 593 673
3 814 692 753
3 763 662 692
3 283 282 297
3 282 574 297
3 471 517 822
3 822 517 277
3 653 516 282
3 516 574 282
3 279 515 262
3 262 515 282
3 279 653 515
3 515 653 282
3 471 725 514
3 514 725 843
3 808 628 904
3 628 849 904
3 768 512 152
3 152 512 157
3 768 111 512
3 512 111 157
3 510 592 866
3 486 310 846
3 846 489 486
3 277 517 779
3 514 472 766
3 832 841 506
3 531 506 841
3 473 517 484
3 484 517 471
3 112 503 109
3 109 503 110
3 112 599 503
3 503 599 110
3 879 832 506
3 151 350 815
3 350 531 841
3 585 531 757
3 110 496 156
3 156 496 768
3 110 599 496
3 496 599 768
3 283 261 262
3 261 235 262
3 845 510 810
3 845 502 510
3 753 494 834
3 662 580 494
3 494 580 834
3 686 255 839
3 582 489 516
3 516 653 582
3 462 491 327
3 327 491 507
3 462 844 491
3 574 489 846
3 574 516 489
3 844 821 472
3 821 766 472
3 489 582 486
3 486 582 293
3 473 483 880
3 483 766 821
3 782 482 812
3 812 482 902
3 782 667 482
3 482 667 902
3 565 490 816
3 297 574 474
3 152 478 195
3 195 478 860
3 152 761 478
3 478 761 860
3 156 476 110
3 104 691 476
3 476 691 110
3 198 475 229
3 229 475 197
3 198 199 475
3 475 199 197
3 327 335 474
3 779 473 584
3 779 517 473
3 846 474 574
3 766 471 514
3 766 484 471
3 293 470 631
3 631 470 276
3 293 582 470
3 470 582 276
3 826 729 469
3 888 524 867
3 752 677 524
3 111 599 468
3 468 599 112
3 398 758 385
3 838 466 885
3 885 466 150
3 838 645 466
3 466 645 150
3 871 632 280
3 280 632 259
3 871 891 632
3 632 891 259
3 789 748 464
3 464 748 912
3 452 891 463
3 751 461 793
3 793 461 830
3 751 762 461
3 461 762 830
3 464 777 463
3 463 789 464
3 193 460 876
3 900 841 460
3 900 459 815
3 815 459 885
3 900 838 459
3 459 838 885
3 452 458 855
3 777 773 458
3 458 773 855
3 871 457 891
3 871 747 457
3 457 747 789
3 683 777 464
3 464 912 683
3 232 455 379
3 232 836 455
3 453 816 828
3 259 452 836
3 259 891 452
3 898 451 826
3 826 451 885
3 451 815 885
3 463 777 458
3 458 452 463
3 150 365 885
3 885 365 826
3 365 729 826
3 463 891 457
3 457 789 463
3 117 449 119
3 119 449 116
3 117 468 449
3 449 468 116
3 533 752 524
3 524 888 533
3 710 746 533
3 533 888 710
3 347 357 705
3 357 740 705
3 909 542 806
3 806 542 884
3 909 602 542
3 542 602 884
3 915 564 757
3 817 797 564
3 59 446 61
3 61 446 60
3 59 58 446
3 446 58 60
3 813 497 724
3 97 59 98
3 98 59 61
3 795 443 806
3 806 443 868
3 795 748 443
3 443 748 868
3 100 442 99
3 100 144 442
3 61 441 98
3 61 62 441
3 103 346 102
3 103 469 346
3 346 469 729
3 142 442 144
3 99 441 740
3 59 445 57
3 57 445 96
3 59 97 445
3 445 97 96
3 738 440 851
3 851 440 103
3 738 469 440
3 440 469 103
3 98 439 97
3 142 546 439
3 439 546 97
3 926 438 917
3 917 438 793
3 926 575 438
3 438 575 793
3 740 437 64
3 64 437 62
3 740 441 437
3 437 441 62
3 65 436 63
3 63 436 64
3 65 744 436
3 840 650 435
3 435 650 901
3 723 477 719
3 719 477 643
3 723 635 477
3 477 635 643
3 72 807 112
3 112 807 116
3 72 77 807
3 807 77 116
3 519 155 94
3 629 508 635
3 629 408 508
3 723 498 635
3 635 498 629
3 723 622 498
3 498 622 629
3 861 485 622
3 622 485 629
3 485 408 629
3 766 483 484
3 484 483 473
3 627 508 672
3 158 481 154
3 154 481 155
3 158 107 481
3 481 107 155
3 707 480 222
3 222 480 674
3 707 675 480
3 480 675 674
3 196 434 612
3 612 434 226
3 196 543 434
3 434 543 226
3 692 662 494
3 494 753 692
3 155 519 617
3 794 880 483
3 483 821 794
3 95 511 93
3 93 511 94
3 95 519 511
3 511 519 94
3 139 505 96
3 95 93 505
3 78 433 116
3 116 433 119
3 78 123 433
3 433 123 119
3 155 432 154
3 579 543 432
3 432 543 154
3 543 579 226
3 617 579 432
3 432 155 617
3 606 226 579
3 799 507 491
3 491 844 799
3 635 500 643
3 643 500 695
3 500 627 695
3 57 431 56
3 57 96 431
3 649 916 894
3 916 589 650
3 109 733 71
3 71 733 388
3 109 691 733
3 140 615 141
3 139 609 615
3 615 609 141
3 672 509 681
3 509 649 681
3 408 485 525
3 525 485 861
3 408 509 508
3 508 509 672
3 847 429 791
3 791 429 814
3 847 708 429
3 429 708 814
3 894 916 840
3 840 916 650
3 627 500 508
3 508 500 635
3 917 427 848
3 848 427 908
3 917 742 427
3 427 742 908
3 154 426 197
3 197 426 196
3 154 543 426
3 426 543 196
3 825 425 745
3 745 425 746
3 825 533 425
3 425 533 746
3 149 424 736
3 863 520 424
3 160 428 837
3 160 362 428
3 428 362 385
3 837 428 758
3 758 428 385
3 840 420 889
3 889 420 745
3 840 435 420
3 420 435 745
3 690 419 852
3 419 520 720
3 690 378 422
3 417 642 704
3 696 415 190
3 671 621 415
3 415 621 190
3 223 414 664
3 664 414 704
3 223 447 414
3 414 447 704
3 339 411 534
3 296 299 411
3 411 299 534
3 534 410 339
3 534 737 410
3 410 737 724
3 863 424 193
3 101 406 760
3 699 405 707
3 410 724 560
3 675 404 674
3 675 417 404
3 404 417 770
3 824 717 809
3 809 717 233
3 824 802 717
3 717 802 233
3 613 521 504
3 835 296 411
3 411 339 835
3 403 638 191
3 203 398 162
3 203 456 398
3 699 638 401
3 690 400 192
3 690 422 400
3 400 422 713
3 762 581 580
3 580 581 667
3 520 419 192
3 192 419 690
3 820 104 476
3 476 156 820
3 671 397 191
3 397 403 191
3 396 405 897
3 418 150 406
3 824 391 802
3 415 696 504
3 504 671 415
3 855 722 836
3 722 455 836
3 192 400 521
3 521 400 713
3 405 699 401
3 726 392 422
3 422 392 713
3 726 403 392
3 379 391 201
3 726 422 390
3 390 422 378
3 456 201 391
3 192 389 520
3 389 613 736
3 105 388 691
3 388 733 691
3 613 389 521
3 521 389 192
3 162 385 166
3 456 391 824
3 802 391 379
3 852 378 690
3 852 393 378
3 538 613 504
3 504 696 538
3 405 376 707
3 707 376 675
3 405 396 376
3 376 396 675
3 403 726 401
3 401 638 403
3 726 375 401
3 726 390 375
3 375 390 897
3 390 378 393
3 802 374 796
3 796 374 722
3 713 373 521
3 713 397 373
3 373 397 671
3 397 713 392
3 392 403 397
3 393 642 897
3 897 642 396
3 71 388 70
3 388 682 70
3 66 388 105
3 401 375 405
3 405 375 897
3 374 802 379
3 393 897 390
3 642 393 704
3 704 393 852
3 388 66 682
3 760 501 645
3 645 501 150
3 760 406 501
3 501 406 150
3 649 408 525
3 649 509 408
3 456 735 398
3 398 735 758
3 201 368 202
3 202 368 203
3 201 456 368
3 368 456 203
3 56 367 106
3 106 367 93
3 56 431 367
3 367 431 93
3 852 734 664
3 664 734 720
3 852 419 734
3 734 419 720
3 107 689 94
3 94 689 106
3 107 108 689
3 689 108 106
3 856 493 153
3 153 493 851
3 493 738 851
3 153 394 856
3 153 714 394
3 394 714 892
3 763 387 708
3 708 387 814
3 763 692 387
3 387 692 814
3 148 610 149
3 149 610 838
3 148 645 610
3 610 645 838
3 412 447 223
3 385 162 398
3 763 513 830
3 830 513 765
3 763 887 513
3 513 887 765
3 150 418 365
3 365 418 729
3 890 364 876
3 876 364 193
3 890 863 364
3 364 863 193
3 869 658 751
3 751 658 784
3 869 773 658
3 658 773 784
3 729 363 346
3 729 418 363
3 166 362 118
3 166 385 362
3 746 710 361
3 521 373 504
3 504 373 671
3 911 359 803
3 803 359 828
3 675 358 417
3 417 358 642
3 675 396 358
3 358 396 642
3 64 360 705
3 744 366 360
3 361 710 359
3 359 911 361
3 888 532 710
3 888 453 532
3 532 453 828
3 347 406 357
3 357 406 101
3 118 356 122
3 122 356 123
3 118 119 356
3 356 119 123
3 740 355 99
3 99 355 101
3 740 357 355
3 355 357 101
3 751 488 762
3 762 488 581
3 751 784 488
3 488 784 581
3 770 354 447
3 447 354 704
3 770 417 354
3 354 417 704
3 758 353 161
3 161 353 873
3 758 735 353
3 353 735 873
3 98 352 442
3 442 352 99
3 98 441 352
3 352 441 99
3 705 349 347
3 347 349 363
3 349 366 363
3 826 450 898
3 898 450 738
3 826 469 450
3 450 469 738
3 102 348 66
3 66 348 744
3 102 366 348
3 348 366 744
3 418 347 363
3 418 406 347
3 363 366 346
3 346 366 102
3 142 439 442
3 442 439 98
3 360 366 349
3 349 705 360
3 93 431 505
3 505 431 96
3 617 519 140
3 140 519 95
3 730 553 759
3 759 553 731
3 95 615 140
3 139 615 505
3 505 615 95
3 815 451 151
3 151 451 898
3 876 460 832
3 832 460 841
3 147 342 146
3 146 342 688
3 147 538 342
3 342 538 688
3 520 444 424
3 424 444 736
3 520 389 444
3 444 389 736
3 756 369 805
3 887 341 742
3 742 341 882
3 887 756 341
3 341 756 882
3 684 340 861
3 861 340 525
3 816 337 668
3 668 337 772
3 816 453 337
3 337 453 772
3 711 856 394
3 502 336 510
3 510 336 592
3 799 877 507
3 193 424 383
3 383 424 149
3 589 382 743
3 743 382 684
3 589 340 382
3 382 340 684
3 879 377 850
3 676 371 560
3 560 371 843
3 371 514 843
3 711 817 564
3 564 915 711
3 850 787 896
3 866 454 585
3 506 531 454
3 454 531 585
3 668 787 395
3 395 787 492
3 492 430 351
3 336 502 430
3 377 492 787
3 787 850 377
3 906 384 903
3 384 497 813
3 817 372 870
3 870 372 892
3 817 711 372
3 810 343 797
3 797 343 585
3 343 866 585
3 866 343 510
3 510 343 810
3 285 479 265
3 265 479 284
3 285 296 479
3 479 296 284
3 295 732 296
3 296 732 284
3 335 344 556
3 556 344 903
3 344 906 903
3 472 877 799
3 730 332 875
3 875 332 911
3 730 361 332
3 332 361 911
3 847 331 708
3 708 331 756
3 847 369 331
3 331 369 756
3 592 330 866
3 879 506 330
3 724 329 560
3 560 329 676
3 724 497 329
3 329 497 676
3 455 722 374
3 374 379 455
3 710 532 359
3 359 532 828
3 797 423 810
3 810 423 194
3 797 920 423
3 423 920 194
3 746 361 407
3 407 361 730
3 688 381 145
3 145 381 696
3 688 538 381
3 381 538 696
3 896 333 772
3 772 333 668
3 896 787 333
3 333 787 668
3 668 395 816
3 816 395 565
3 565 328 490
3 490 328 922
3 565 351 328
3 328 351 922
3 297 474 495
3 495 474 335
3 565 326 351
3 351 326 492
3 565 395 326
3 326 395 492
3 336 325 592
3 492 377 325
3 325 377 592
3 377 879 330
3 330 592 377
3 915 324 711
3 711 324 856
3 915 709 324
3 324 709 856
3 507 323 906
3 507 877 323
3 430 502 338
3 454 866 330
3 330 506 454
3 430 492 325
3 325 336 430
3 737 421 724
3 724 421 813
3 737 781 421
3 421 781 813
3 903 384 811
3 811 384 813
3 898 322 151
3 151 322 915
3 898 709 322
3 322 709 915
3 625 576 684
3 684 576 743
3 585 757 564
3 564 797 585
3 709 738 493
3 493 856 709
3 922 413 490
3 413 847 764
3 497 323 676
3 676 323 877
3 472 320 877
3 371 676 320
3 320 676 877
3 666 906 344
3 344 335 666
3 847 771 369
3 922 338 771
3 771 338 369
3 384 906 497
3 906 323 497
3 772 319 867
3 867 319 888
3 772 453 319
3 319 453 888
3 816 318 828
3 828 318 487
3 816 490 318
3 318 490 487
3 413 922 771
3 771 847 413
3 811 775 603
3 603 775 781
3 811 813 775
3 775 813 781
3 867 651 819
3 819 651 223
3 867 412 651
3 651 412 223
3 677 467 524
3 524 467 867
3 677 412 467
3 467 412 867
3 351 317 922
3 922 317 338
3 351 430 317
3 317 430 338
3 371 320 514
3 514 320 472
3 339 315 843
3 843 315 560
3 339 410 315
3 315 410 560
3 913 314 674
3 674 314 222
3 913 576 314
3 314 576 222
3 490 607 487
3 487 607 764
3 490 413 607
3 607 413 764
3 156 334 820
3 820 334 153
3 156 714 334
3 334 714 153
3 674 404 721
3 721 404 770
3 447 312 770
3 770 312 677
3 447 412 312
3 312 412 677
3 745 311 889
3 889 311 759
3 745 407 311
3 311 407 759
3 224 345 808
3 808 345 889
3 224 663 345
3 345 663 889
3 805 399 502
3 502 399 338
3 805 369 399
3 399 369 338
3 597 152 195
3 796 370 233
3 233 370 926
3 796 575 370
3 370 575 926
3 151 757 350
3 350 757 531
3 525 499 649
3 525 340 499
3 499 340 589
3 649 499 916
3 916 499 589
3 600 886 652
3 652 865 600
3 815 448 900
3 900 448 841
3 815 350 448
3 448 350 841
3 900 316 383
3 383 316 193
3 900 460 316
3 316 460 193
3 595 872 309
3 660 899 595
3 660 700 899
3 899 700 594
3 583 313 594
3 275 872 313
3 872 595 899
3 794 309 872
3 872 275 794
3 275 864 786
3 786 864 583
3 275 313 864
3 864 313 583
3 853 862 646
3 646 862 276
3 853 631 862
3 862 631 276
3 872 858 313
3 313 858 594
3 872 899 858
3 858 899 594
3 893 715 842
3 842 715 256
3 893 535 715
3 715 535 256
3 839 750 641
3 839 255 750
3 750 255 700
3 714 657 892
3 892 657 195
3 714 597 657
3 657 597 195
3 892 372 394
3 394 372 711
3 641 402 588
3 588 402 700
3 641 750 402
3 402 750 700
3 256 465 881
3 786 583 465
3 465 583 881
3 786 465 535
3 535 465 256
3 436 744 360
3 360 64 436
