# vtk DataFile Version 3.0
A great-looking cell
ASCII
DATASET POLYDATA
POINTS 640 double
146.39927306923911 194.6268254638375 41.71019390354242
148.24439803821113 194.7749026204503 41.26389600014163
144.0408570457736 196.255729410079 43.21082198933454
147.47206743353865 193.34659852615567 41.62028319570753
149.25980524300965 192.98732302995555 42.04915865719465
145.9169685981054 192.7634677459787 41.77723183248903
151.4315412107166 193.47210337338538 42.42776440467679
144.37352997512457 194.24571404193534 42.30933273260662
150.17316691990908 194.96070583759055 41.65819196359112
142.84599869917295 194.88491498636878 43.482833947120305
148.97420629704652 196.28322632400892 41.593413135123086
147.07306760618454 196.6936470751094 41.41190088394711
147.52291753119144 191.75615003296383 42.081048973029496
147.4976504508037 189.96846824338394 42.73080690246329
149.25702641811733 190.7616390633975 42.319803069126905
149.08397816701228 189.31299971926092 43.92349970793065
150.8006205908196 191.7412924670056 42.46709618799495
153.19043208780369 194.04300892535352 43.75894483856326
142.55701878345388 193.02886826973665 43.03784225920723
143.04258375908512 191.37784929958784 43.41692219872345
145.74680400786667 190.6798135571665 41.82143903591488
151.695768842581 195.4749488302486 42.89310062300612
142.5074964650526 196.48900407988708 44.785449414577016
149.58578796526916 188.45618452662 45.72838976886443
146.18528214251623 188.73400245413058 45.157128344529575
147.31973784644998 189.13246068755058 44.0937994946699
147.90622825796223 189.06881019241283 45.513784007573285
141.4647284735176 194.07128252096874 44.850826441945266
143.32323443465253 190.48473710283227 44.679656906584285
141.36960325600182 195.58839863372455 46.532445252289726
149.39238057454418 200.59533977152716 41.073350996410554
146.82353660258212 199.32763616514183 40.756030970434466
143.23089137097125 198.1001755261225 43.24605135800411
151.44811027488873 188.7168984575993 46.3741644748705
146.73035334258572 188.83286671838343 47.10411396280879
142.45271170172043 190.73187769233792 46.29463949819296
154.4798031103413 194.25059930413903 48.100415528283534
140.84075186963838 194.7742913957773 48.19476715944045
141.3058535169562 197.59016416661228 46.425391390264416
151.53031147628826 203.56085775537932 41.37791327624228
152.36311210915275 203.00993579081472 43.76274972817666
149.88782974719334 188.29015332289288 47.55994945820966
151.6836275447048 188.5650734983074 48.48176645742191
148.22380496932976 188.39686368852412 48.43346703961356
153.95305832968327 193.12596667602583 50.311471924822165
141.23213598292617 196.66882805459667 48.19846570996105
153.9611315643732 194.14235182149093 52.21401461543133
151.93181774135843 205.44582978478533 43.252223577977354
146.41759950257273 204.69365373633028 35.90944361992455
143.31750045134288 201.4239343567748 38.877600536892906
139.5503055951869 200.34929195379272 44.91124722748821
152.91862524428123 189.9787125041499 51.84443611640457
149.73839647354015 188.25613998357852 51.91591346917918
150.61398178160638 188.66886723867597 53.840094206121606
140.44421367528713 190.76273771819072 53.407361948746306
150.2815656570916 196.60557464210692 59.65803367173397
152.03873030306684 197.14375366432617 59.415430857876146
152.3617037065029 205.26388300581925 53.507425393721846
139.43546796588225 199.17050667597692 49.94139689532877
138.35196564518327 201.15128191610268 49.80090394958222
140.60424786242965 199.26248472257052 46.38651084764579
139.12354524558674 200.25331742494106 47.68386123538628
147.13365498718863 188.83742958277773 54.875799300292286
151.57442875664864 195.0395172377766 59.143312320183924
140.80596192076226 197.6176839288173 49.802690463151606
137.78354554251248 204.4526705788045 39.679749529821294
144.11042628805183 203.39128402786125 37.106761597625706
139.06648583341274 212.7921993210995 38.528504078699896
145.69998614259424 220.3196126349858 50.62484953789518
143.34277802627932 217.99511104421973 58.324667791963506
153.2224897345595 197.82284672557955 44.050781695526425
157.08784474394554 214.95593975378816 52.38713602221405
150.77124144475164 223.54989164812793 49.88258764110374
151.06919051946275 217.08301124501756 64.9660019194707
154.77264596070802 215.25689634647762 46.841929206661646
153.03365717834686 218.68439322537532 64.52981403852381
154.53546877884602 198.88366030598905 46.136384454753404
157.90496749355626 217.47948113575487 50.71287832156189
150.8687664258201 221.92161507164153 62.45738938303936
155.07708785536542 198.03699196175856 52.48014271079997
145.47929135115837 218.79077260427795 39.06035473374018
138.24782259341032 201.42872799877216 54.4011185741587
153.62754304560096 222.84524950351894 61.62201649419808
157.66258317932534 216.4304537108005 60.782466979961924
155.37903412147514 199.30057441693074 50.99167154328959
145.76283004671106 219.79710981362211 49.18961873448462
154.0384228207808 197.568775063647 57.228067465584765
149.14320144914018 221.4564831952221 46.359926946580046
142.26239440000285 217.64211464992238 54.24196084015438
155.0774382687121 198.61554369786901 54.24832212342418
146.3372815680407 218.4586030323838 65.54182334673162
150.29080030417558 223.72735339159448 55.04324841108473
155.1060570099738 197.73267362324106 47.213580785781225
155.75762531073624 198.47937011021526 49.05019309951026
154.54641888399965 197.14144257162093 55.37293788332912
154.0945029273224 223.45754872665157 57.56581377556977
154.95290498737938 222.72977683400393 49.464384689536104
154.56731234410876 199.05652027557613 56.03403387240577
157.3698812653621 219.27081590721508 60.05981175739957
147.14430596253575 214.04995071070465 67.0214487809741
153.16902625883844 213.8284099494385 63.25690369105183
148.62433653375598 222.27213427212277 58.78763689491062
147.28303219110833 221.05643167599914 50.243748110384445
144.67833899065732 219.412940161198 56.81639396429921
152.99726595523822 196.17431214553858 44.1745985654741
149.4471637289265 223.45268772609032 53.18678657861763
143.97798641502388 207.67624867494268 34.257280266127474
152.94934856066416 210.585765664258 48.70071586598744
140.09584378742494 193.8918715314733 53.15872958727294
153.7239771804275 199.1208613671995 44.78491038554634
139.78037501074832 200.72810710109474 42.426156757728045
142.44766181701598 204.28437755992448 36.26358037691144
157.23551989480845 222.25346708762325 55.59732116298677
153.96393978977898 218.68696621925508 44.12838229478425
152.45298734740223 206.944728254229 49.2314305386721
149.4963016445123 215.20586977963345 66.49791022787672
151.27144721560748 220.77371768171983 45.42263877727341
150.68649119213956 208.06586975177797 38.323369606015184
147.9344386873341 189.75332444990062 57.15944242671752
153.23321315084354 203.779666298902 53.38778981589656
146.06250551325505 207.5764144353623 34.80085171041305
155.78753179390944 222.6034997601685 59.502192405998116
152.01820589010322 218.54090934109132 43.52448525366812
153.36695709034674 223.99319219075966 54.70213896765528
152.38130818635523 206.44148072882157 51.397276492087656
158.6240210197447 216.78587263218984 53.79339002785591
139.63012467486618 208.14153632729918 36.51598440614886
142.1183131494628 190.6711903395581 56.65450978325139
139.50758707542244 208.79005105250525 57.4552217504994
152.98115110694113 220.96558756463338 63.5948156935273
147.86955579816802 219.5025325914714 63.61433187168323
149.1311041691156 222.52677369828956 48.38401826140407
144.9304196626764 202.13150024670063 38.28727231099018
145.59069905845504 204.8524811578459 62.62632233988335
153.46478024097365 203.7505291039489 47.62268235836695
137.14397326861808 204.24493573618716 42.16874975527542
149.417236772858 206.37674330136988 62.681535090590096
138.2733204234219 204.72844920001552 58.08775698761575
144.20289727667418 209.70822265930295 62.445973929539186
151.52037774202626 209.51526420058826 61.456268749100836
148.70881619997502 206.77232930970362 36.49028034243131
154.70110876240113 217.7379094427209 63.70968378170561
150.33814168087943 212.62610398353345 36.627429679620256
145.7659116682898 189.1453005815886 56.88039321009185
137.41230626169906 211.86032899428574 43.49245327679683
142.18955675106162 211.5449677044951 63.05679591469749
151.8551329122069 207.24661712723446 56.93725316486208
145.1708513013755 202.9029284883533 62.7765968829666
140.31583099516445 209.30607887508972 59.460382633639725
157.5420565317463 215.00076730897442 54.21965297272742
137.85915331931128 201.52572548407744 48.23713245042632
143.68566662264658 205.77567066761165 35.35877019139752
151.29009700323545 212.99670122107517 38.378413712971714
141.6587010819764 198.94883061550786 44.58845123362053
154.03122544927137 202.69054012711436 49.83515044838969
156.54408674898457 217.5238539525552 47.6935830642722
148.8785652468393 196.11457572481314 60.16812147074273
139.40958253374188 207.6594211971539 58.910864285699056
151.55528301156662 212.16088037993012 41.11675657137195
151.83889017009577 202.99960850258122 59.442504509658434
149.73412657353313 201.53589294581315 61.24046094464607
141.3945680798083 203.2645830377877 37.735786060688184
158.87560198487304 218.63053321733622 54.53419813694182
139.1990283102258 205.85036778219026 59.37783951757543
156.15890717772808 218.36899539124892 62.245149613006475
146.86110081192166 199.44812454174595 61.68571242400853
137.90823362014393 212.27418193717043 50.50261527680413
140.6550696651103 198.40952937493063 51.24381238075433
147.0552544983726 216.7107553432887 67.58295183712376
149.62308626359737 204.87185747780453 61.72867419947497
150.62175284509922 203.0904973089855 61.2186976045273
145.62886311809945 214.079208056729 34.15004631292458
137.70301960471252 202.498924910462 53.17381464207738
136.34805720463086 205.93813609058074 50.39779473218369
152.22584501526848 208.6302701145449 47.4996608994239
138.52394003721557 202.38994502493338 41.00652324199962
152.54565642361425 204.57714471299104 45.57445327685009
138.36695251030395 212.53445710173028 52.2704764071565
147.7211187022106 201.44012919515745 39.40535277160399
152.19698845837303 207.45554068352325 54.511995921025644
153.17698364814436 202.4617316418022 57.29447827213835
142.30148272547348 206.54998132806097 60.825216140351124
142.11321202636634 218.53838986574695 40.17924746377528
141.02376033128994 190.60055018563403 51.78073669027419
153.21458250374013 203.94011657257613 51.77690274247599
151.03619826537468 201.4226154530968 60.37224405096058
151.14645796722235 208.18886820663943 60.08825712638752
140.71310640199889 197.7926098447646 53.04689531014578
141.47167357491415 213.24015871640617 58.78190049839759
140.5053417050552 198.855446335623 56.29070792439555
155.69506064507422 217.019868145342 45.84500231781033
142.4282169942217 217.85793008663228 37.62611071670297
152.64412366292282 191.73932898854233 43.324686391197694
139.30061235021105 201.05546941179574 58.625856458553336
153.33582649339078 216.1791879669226 64.4083515329245
139.66838230353332 192.08185897731047 54.46288145826708
143.5555058205586 193.62704331863867 59.591624616411465
152.1650597151197 206.91062794290914 52.99072032684765
155.61690696607732 214.03689159039698 60.344920898335346
136.75390162865034 204.12288967748728 46.865748285527964
153.07877438199736 194.09274915784079 57.83727825571757
153.88198385492376 195.04049333843494 45.75255120844604
139.54958457666362 199.38196446517676 54.3684872770198
139.55235508810358 203.24648857408738 39.24125762579449
150.8976664719788 198.865607821721 42.08430523740456
141.9436523964843 192.2860153362344 58.35810478883342
140.87975031386352 192.21024105982815 56.21647585607583
139.28269932152278 206.33980263043526 37.114813644041355
152.4199100962734 209.7344207720587 55.87193173349548
143.68117408132457 189.34770422038625 56.8434475052509
148.18874005529398 209.6072027794641 35.30269275813972
155.17008695282016 200.6231014129432 49.369169596874464
141.52050816886268 195.18347729225343 55.729926034281185
151.45913665906443 214.66547302452355 64.75661698204118
138.01663393853534 211.02239730035257 39.592525607261045
155.19792608054797 215.67881127742484 62.55563639051172
141.99501569332685 190.1249619303927 53.32935561358349
139.06478588100163 200.3458539368568 56.4673364932246
146.44719486263645 206.7097299703373 63.271559903684675
139.92973479320688 215.37702835866557 38.630391549848895
144.63032128626477 188.376094038552 49.618582319938405
151.28318714914934 224.22479896854034 52.28032783923333
152.2332748602031 205.36590972953323 55.67857952844906
142.8829680542451 189.75997087154158 55.004999000366205
142.8111199510469 218.7278170000615 45.77819499144544
139.60725960557377 215.4303453950642 48.35715845217481
151.41038889833598 208.62389962546692 40.5274721609184
151.18736664512278 214.8976657594292 40.887390854563996
154.51108470181768 221.24522720670814 62.78881158808884
141.1140705512576 193.97345524472883 57.027091176379216
143.25577485939652 213.59624242371814 65.11144116742548
137.90388991277072 202.66589744563424 57.026414564950834
149.86177486851784 208.11495707081517 62.92720530839146
156.62867980281774 219.5010394254851 47.23624010608732
140.3699431245295 205.1994498171569 61.29188621073772
137.6848251866353 204.9534822773964 56.44048124576285
152.34059754167518 209.1642601747607 54.03409113499023
145.587300308419 200.86464833548817 39.067605472602054
158.531121842501 217.87880991335894 59.59735959690708
143.8147992730658 215.94918126428487 65.42637217053709
136.15896589534273 207.906999690927 47.893891775439904
158.68491930442335 217.97757783697347 56.23199033605473
145.65245850107155 192.82971383765712 59.9022094806884
154.7758711278964 212.5480093809385 59.371635649340895
144.84892424252894 219.1996685880847 59.41165450896099
148.23567830284196 202.5510403859396 38.3848476617099
147.45010997223437 220.30074157050007 47.57850863413673
157.33213490457803 221.31410989752126 60.05597660385902
153.927809593755 199.75209260565342 58.041665582216986
149.31756635480832 218.6598134150981 42.53281870858816
153.30959083303173 196.1195353194193 58.40447238061621
145.00799563517737 196.36607313635903 60.61818804183888
144.30476907243664 217.74855434314887 64.5637104320408
141.87755908231406 215.864759017133 58.622500540213146
139.31282444543467 215.4299167688128 41.08030589629939
146.04346212016358 188.67683355562278 51.011211270097746
146.40249895364616 219.32994106576686 42.815645308377086
147.56572237283166 188.86196638060923 52.47730283205759
152.28004227011624 212.60602517956667 44.505617871961704
145.8847066769844 190.8435735278751 59.56732781128862
158.31590759587473 216.80286914777872 58.316632832381764
138.42917029431797 211.16395116095458 38.0382586846032
150.18926715716907 200.04807301826932 60.96072564850406
140.48475704103086 207.29125554871254 60.345944047766835
154.18003627252804 224.04770424261693 51.84364840211053
150.1681457695367 223.24366733767897 59.06626301014051
149.70890554060935 217.357326556993 39.8874990093059
141.96981050773238 217.93022429708333 49.28976857695058
139.6209232609593 216.2149067532267 43.250305900272295
152.36699439197966 199.21376150819802 43.4706002357398
157.825041135707 219.65503367125967 50.879794547349746
155.80177857670625 223.1535804176104 51.38046644845258
139.35294172992664 215.53023987402904 45.68209817581473
152.20780856278822 222.88749174503818 47.67923651762524
158.53062256350623 218.81868991349532 58.27327019977716
152.24218309478226 207.04608716162574 45.27846164953142
146.44612455043472 189.72341152711957 58.40802257311429
136.56310728132792 210.5250329959994 46.00769479973879
142.38566107259342 198.0479291894708 59.5931906900327
139.81008708486775 210.86283551729917 36.83170330103366
143.2607710291429 189.11093019853578 50.13965705818033
151.97165715766818 223.94554726496284 56.85585736478579
138.64491759750723 214.39300596725224 47.11862452718138
147.10649634419886 217.10797708158415 36.03911965856693
140.2020632615577 193.89655230725097 49.77512743337809
154.97495764987676 212.88854206681197 51.865439105268656
155.44887165859961 219.17497453071897 45.497867416028335
154.44815725367343 222.5403908414204 47.41670896265337
143.82298826354054 219.03199117484786 53.92410510803897
137.309232896065 203.84609199698855 54.4292634065058
138.8565338023067 203.32284297206058 59.86471760393501
153.02245500057472 189.84774003008712 49.567851681124324
140.72702717946558 211.1261340559094 57.54566572801117
140.9046330362767 217.38010261219063 47.15899187363852
142.94338493075992 190.35903520642188 58.306485460344426
153.91815522497114 195.57625741275461 56.53201166369273
142.385726221486 218.33741237343588 47.58219095623779
136.43544810557023 209.24510499480382 43.10361303465434
154.0674954888701 212.83657470453736 48.68077411645792
158.40325626485372 220.1553214444991 55.394162797159915
140.21630537461272 199.65470105336126 57.78811031779941
143.10442606368264 189.14887345159065 48.00541893062939
152.84755510146513 206.01898224908481 47.44397370773487
156.60391511249037 221.58542981778254 49.146428692327355
146.95318975906864 220.31805586732582 59.35141157403535
146.40448435534356 201.33627843261394 62.34439591866116
144.1638421829457 188.45979076052313 51.47259881104174
146.59490092788252 202.31780229986583 37.497068722193504
153.8918036299727 223.3210421710919 59.52315799663607
137.44050596514415 206.83104255854997 38.05150123868726
152.33878457914068 189.32413968447892 53.82000188856512
155.46514331306017 213.4852382700422 57.566202612556516
138.65196506423035 211.3860519008912 53.94645398678855
154.66695116006366 213.70738095633342 62.01489357923781
153.49458653531 220.19615630170804 44.18894565812945
154.40221456452176 211.71586020317065 55.56938073037212
141.15843354168842 203.09437351305894 60.86291568078205
148.52067425649318 200.29893133556666 61.818920085208845
152.90383658452788 191.70905006218504 57.2445375984676
153.76065362328168 211.90718589527387 61.15402678956694
153.17391312177745 189.8748870000567 47.2516633978908
154.37296885177832 216.72993713073933 44.25276218784958
152.9227969191151 204.90932454856403 49.544476551425895
151.4495488651117 188.9703315311296 55.31040023353474
148.53178854856026 219.82157761240768 44.957827035554
150.21264080494996 223.4406408448684 57.60462921363799
142.07679362706668 215.0741563895017 35.2801274233023
150.4559698115726 207.00215641762884 61.108746186913095
142.03911452523437 201.41565848257358 60.77857562463773
148.3225635381937 221.33258807637085 61.47043153250265
151.61825654074232 188.62284146409752 52.449471280027446
141.89940083379594 209.0010673460721 61.44187173547126
144.65912530818903 189.56951792772452 58.68504800781254
141.88895895206065 190.1932383309027 49.94510453544149
151.74373482416667 210.11551700687986 41.449946524783115
138.0478880882692 206.8397306279561 57.56968839145703
154.32044577618694 195.28019108427372 50.37456294385969
150.80176396281504 204.92185352861605 59.99762941246016
141.7808252021261 195.4383421284412 57.210053593188036
147.62131439617465 219.25303467974942 40.41393833797241
154.48242940785144 200.61661283167348 45.765145364744434
149.6402005151685 210.36710596893036 63.57020726488157
143.58425256639347 189.03570592418117 53.26912512378654
153.06578394067037 214.16147132785338 45.04496337593784
143.8377541737079 207.6216589120466 61.833047801640994
147.86995357376725 196.60374256462546 61.11020696588548
138.06837043643628 202.18150054330258 43.57811778151928
151.6433853254342 209.2497091577382 58.73530773997543
155.36621468754242 223.07569292231625 55.712926458651864
148.5011608273437 208.78773921584153 63.86394897575369
157.1677615865377 215.016305166657 58.68499006267389
146.16349249680647 211.8962804312795 34.34069668715588
151.56973060697752 190.88626079800628 58.83875441130664
150.12080216124073 222.8913318320404 60.47466788617776
139.0670969003663 214.2816918149825 50.8954249090117
151.66690758466393 188.5424899813286 50.65302591609889
136.3002262677231 207.7429530239126 41.88165893656124
142.6324157085399 217.4562280616853 56.14208662804971
149.8700702667464 188.18771101744701 49.57634686313644
152.19329598025703 213.44644008864992 43.00451106209072
149.62544642764058 198.77415160721625 61.73954066336861
157.32792505206956 219.8803084586195 49.027597192260075
149.53842100569818 188.89040061587838 55.68365172671233
152.02972146369385 211.52918148560138 63.58019670671033
143.30789791752363 199.87544618225905 60.30849464721189
151.94107897619935 224.01162312122884 59.346071662886494
154.0229570323347 202.21487228436678 53.24522992777195
147.56538186029698 190.71747895255135 58.89726240333521
136.98720053133763 210.7477677382471 48.93940175725285
148.05834001908383 198.29646189695197 61.70866921109137
144.5010713800134 189.2422951671419 44.68942650640555
145.63308482227242 219.26450431599656 45.815968026209234
138.24164511297644 209.51098301368387 38.1344766114762
152.861003884049 211.55237893491736 46.18356307127855
141.4415034312818 196.99801275711553 56.408672631116104
147.44810451293006 210.22897862244807 64.17292410320202
139.10185898595662 204.67644224931888 37.62484480894799
154.56186469370942 200.4659651869066 54.69082346405237
145.15766248381271 216.0512763374538 34.40920867311852
140.33831118565305 194.92219699037366 51.381197913091846
153.23316751882166 209.56908859612653 51.72365677375609
143.2804540827384 215.89466800376172 35.426997218939476
155.95514187501522 222.95484716770437 53.41761019606132
151.18902676131665 210.43126826919575 39.44917183030697
153.4756962743703 210.58758282255064 53.2756684271829
141.70571469362656 216.41716769112787 36.71056277016421
148.62695051461137 203.87581316887355 37.34716370028959
140.36629997996295 193.8494302733902 55.26573006538199
143.02424217200178 202.81543385169303 60.563278345008705
141.5875278822031 214.02787411385557 61.20319011532178
152.5883621139656 208.82569144649443 50.27999087605516
141.29110366906704 216.0135052088321 54.528937815545234
143.80819019017315 201.49427981194296 62.040906025796886
147.54361753847087 193.163893689774 59.83376782177847
143.22619193929287 195.91586452810668 59.98354746324495
158.6911259991053 219.58821915073767 56.99146180082553
141.45166075197184 211.36334307581367 60.22543978268112
150.5400051222846 219.8943337256525 64.54641956135686
144.00405529492028 203.70743316413942 61.784808908961594
144.38158590507842 209.66206587838954 34.58125498197225
150.38160750288398 202.15934305494224 41.26831427183353
154.83832615782413 212.1092153000546 53.79650234996069
140.60230249445988 216.89981462067945 48.80474457498941
144.04511855978703 211.5838916095553 34.633761361990594
151.50717267856936 206.23378021516618 40.59676310131447
153.12225531003662 202.31760569635912 45.877392502439875
140.28835083971535 215.72519404922707 52.41766373332543
144.65596519404798 188.55463350429642 55.063195547303174
142.69284042762922 189.64246448154273 51.654291601388806
153.00448011436131 203.5444648369929 54.96925079331936
148.71459921767106 222.58886404032566 56.476996583676936
140.29513879155274 216.5341079496808 50.37950730745858
144.62732839028718 214.9645544141459 67.48470422752246
150.43122045957034 196.84650650409222 42.192025316422225
147.96722311926024 188.35994278674428 50.428386538246784
147.73186236821908 214.71426856017771 34.4505394140075
156.2404265509798 221.153055508327 61.87147514946821
139.65957412657065 191.90085425079636 52.35799537783273
142.0974813590365 208.19608317889902 35.1312237429261
146.9651414639866 208.4309850849219 63.5255354251617
137.8755132658427 213.16131714074157 45.93490753578087
155.14629118733959 199.71484876395337 47.459292652057464
143.74721601143813 219.05632363592227 41.316358394917486
157.78675998838492 221.05851723283732 57.97274419616084
148.69960453149105 211.1655840392038 64.83217397556795
141.47237190310483 196.47418156240207 54.498538487838346
146.45189969602757 188.47357860153988 49.10334398462841
154.2795580815397 200.80931760242166 56.345605490011415
148.5912560412039 215.7753453134012 35.9691563023775
148.7796589719705 217.94448048554003 65.6437694923866
156.2000424096585 214.94399447632728 49.56645271237962
146.0103695046969 219.53688188023034 61.57659374699957
151.323398542519 199.93623822057566 60.01680632050971
136.46063417522373 206.3285356293936 40.78624580004817
142.45485253785552 200.19740114731152 40.18320548635296
156.17999462367752 222.70339491038044 57.29663526032784
144.91785666244505 206.620578388645 62.70361192261654
154.57059501798582 196.14599154287478 52.29585029312762
140.76958134291465 199.93724076351805 43.49464433054542
153.9370164488463 201.95957941918277 55.331123458732044
140.5267665892983 201.77763842879986 59.884150988284034
150.30223661850832 192.0175035101773 59.68860094232545
148.59112961856366 202.7475709705506 62.28046395405953
141.92539155876406 199.49004739482365 41.99156411888008
142.92846275520063 215.95072134861363 62.99023524269242
150.63555305947216 215.45421624791865 38.42284827033976
144.2658731437199 217.57906124817063 36.795366320377504
151.94186409167745 208.27054324556192 42.79734700715673
156.06392881780283 221.35050597516778 47.353999835158824
141.91404189969666 194.6163478173182 58.684297148064594
146.7599440731418 203.2780817659461 63.300195952931
154.69455613716835 197.02116959887215 53.736899563436694
143.38413499636556 189.37320072794455 45.91343175914733
152.00845323678567 215.7961013354102 43.36825480010647
145.12885196683024 188.57610129025826 48.04360318121757
145.40051081823873 195.9470774763364 42.20118118099154
137.7383000484796 202.13559856181132 46.420541527021975
148.95016454910382 212.32534267127795 35.46639141064863
138.2151590474563 208.34939417006677 56.055433046654706
137.47769357320584 211.87213879895702 47.33268829939319
147.53093213894235 221.63611062038163 52.00316914858355
144.10374598024146 199.74666164388626 40.73504510405887
140.9721432503927 205.71597899368706 36.28035948164771
137.684171729254 202.25684756461345 50.67736954427935
150.84501593926046 204.4791812785885 39.9700358916022
150.8559572081736 217.0546498848048 42.03516848175176
149.25400538232927 220.95399182722312 63.258106658638596
144.10988543552358 197.88525308008607 60.73355870602117
150.4764796861189 210.6180378195621 36.87130450546978
140.74228663499414 213.73189547818922 36.12587984393753
143.9811326670261 190.0178789558191 42.916557272477355
138.81103822828797 200.25358633250747 50.97734378589765
157.3515774296833 221.7418832727551 51.07011117445283
154.2688659794968 195.18108223260646 54.28760186427527
147.45015373515045 212.11005062249487 65.6050265937689
147.91533225812293 222.0832450304953 54.02047264073651
143.13546325513084 217.65094800790862 60.58257058637461
153.51473263394936 191.3290757050636 50.487632531945614
140.72277836545217 197.88816308520532 54.92707423240241
157.58260546686375 215.39541000967296 56.206023675602715
152.60732816718192 210.5131971333938 59.911452788841196
153.79012567189503 192.9280677198203 53.91980196821997
143.95416094224487 219.48752218463954 50.78962652267245
146.52188894110054 195.79032313980147 60.51318083450476
153.74257566579394 211.15674118112608 58.33440526208676
140.6834127328146 209.58904181580425 35.56784091857853
137.9978937469753 213.28683374632175 48.46811008142891
140.2449593909227 211.85516939732395 55.304853689171175
154.96537378703974 196.4774501731082 48.7600031420481
147.89970334878802 205.09811920948073 63.11959002798459
141.31049125813672 198.35629339655017 57.966505711260865
143.12362347371288 218.69552584758054 38.84346797141055
147.69150415110684 218.208816858264 38.19983233252778
142.44450721807496 218.5759829371937 43.40111889142405
145.79541093776947 219.3135902962045 40.878852825704115
150.26878222625336 205.31332326258385 38.5352782324643
145.62136118092116 208.15161986652518 62.35338469656462
153.8440199853184 197.2976516275876 45.669584339126345
142.06821757844725 216.01751166690252 60.92319698398267
136.9497830033061 208.8433679066803 40.35978800561715
148.54175337437115 191.80735902602532 59.68304246764467
149.13345874892906 193.3579089936546 59.95963143667767
145.9411495188651 209.67412844904723 63.21265931552584
141.2260235954061 195.6953719128008 52.85146662062221
140.1332729338929 213.5351470585983 53.548068570005306
150.61038266569585 193.65412969991783 59.81508209759457
149.58873012960814 194.88762433098762 59.493213121518195
150.92086973356012 198.33838222115 60.597175769564515
144.2603417933803 218.2491977397726 62.44056771163878
151.99137933301327 192.84096420270933 59.11802580973296
140.8378716663376 198.69224741305746 48.17921925866993
142.26485398330703 213.8183183738984 63.19169103774743
153.5908041356275 193.5408183791945 55.857387323388394
145.88200070191527 219.97632871404983 58.11879855444135
143.71751606193703 205.63333173922558 62.019410234947536
145.94281351933245 220.32821230959865 54.78927977250117
147.2187984091215 220.6774585868973 56.86481618655253
150.8501165938904 189.06921659501052 44.70420391097359
139.89634668245293 191.61853490328136 50.028243101697754
155.18011568096392 219.94487924952583 64.01594785524316
141.08462328519252 194.9361142900753 54.2772654969363
153.71680436774784 213.43841443605345 46.6778206088761
152.0773080694152 197.38590101174822 42.96515358313118
146.1489830505076 218.28573115300975 37.331837725235985
146.64947374708458 194.32346501698416 59.96806031297506
148.84479351110176 222.9272312373125 51.38645268125546
145.11655840819722 199.61990242763852 61.388054049970556
141.16246179215312 199.9161546496055 59.44748703742704
138.8703971515879 200.40836930349553 53.23285842699497
149.53723459438348 190.32518888080614 58.63935094970138
158.32922553292062 219.46901008854317 52.813481916620276
144.97129425637743 197.92597202271563 42.09206276560545
151.34136129606912 206.89057887722123 59.13161914610903
152.79355811269673 190.17817447965015 55.543247654079416
139.36283395662076 199.44957391816808 52.124255796099185
151.71347009268408 204.7782915551003 57.76617706255107
154.37046787478857 201.68146670361003 47.62520377193252
149.56091886437838 189.16609376910395 57.38795026098654
150.04424278408266 212.53825031966892 65.22807496505412
138.2681377325154 212.95166190363827 41.03432178533112
146.3160120802756 209.61851763357558 34.139904537975255
155.9487270688842 213.68012461850356 54.51672565009111
152.32111822212204 203.9350254436466 56.3753280706314
141.1897595147004 192.32264248326592 46.332833406928785
138.4109292064945 214.30639965612613 43.40297072004645
154.10408314386822 202.58153001306277 51.55652175233692
148.6184359899544 213.34907620911181 66.34121014120788
148.89622791499855 198.1233108588939 41.653116562221726
136.40015012052783 205.3987854756444 48.060127402910005
154.0201117464966 221.7139099691751 45.723937562577646
148.91482838494244 188.68578639103052 53.758492886927584
145.8072869695541 219.38907288801664 47.67774792391947
149.2325934415411 197.5043829698355 60.75193639964475
145.97268753997272 220.62977807466308 52.344017519683945
137.29939807394936 210.8266107616874 41.49244421343243
153.91174285623458 191.70310075276385 48.601907261828764
150.3033529899409 219.81340601035043 43.82839629116605
153.13239515742933 191.90365001077683 55.23682739350762
139.00086788188807 210.22330248893473 55.875471312065464
141.862374230778 196.54095139436458 58.37658810216302
153.04822258279557 200.93500871137564 44.25594932432469
136.69501660364955 205.5181497862216 52.87590776134828
141.35149375789615 191.0500729941987 48.0625543604057
144.7694370113471 188.5993402040684 46.44112250428868
154.8904955632693 201.34598254024223 51.337763382905116
144.10509067502363 218.82152261362464 48.03310238622865
140.27075155528482 192.88938663681563 48.03855580141593
148.1374798843947 194.71248853843107 60.83953274645338
136.57281202275007 207.786311567528 52.54475480436528
152.77957113993133 189.7846583782633 44.81539798578288
135.9562211969486 208.04862744801528 45.287677551392726
138.85089981868921 214.24971939175958 39.73338493519769
152.4041383787119 200.95353488859138 59.22318183667858
139.65665807829694 193.31249188826683 51.31816803776408
152.2823660147951 208.51782684009734 52.563169344165125
144.9407915198935 211.0133263788321 64.66457702711263
154.12796840761155 196.21654588613762 47.22376761823648
145.8401844029785 189.25765753700003 43.365374822280664
141.06084824229168 217.5951449365735 41.59425662236143
150.27748453512 214.59866729184455 36.05593338079127
137.389397860662 210.40900256230768 51.87078484443568
141.31993213239696 217.48409035285542 39.015398536788986
136.34371894097893 208.6284725334239 50.373041848911406
151.8989539836591 209.33715629093956 45.095516359595706
151.1698454017536 189.80868617725037 57.059550035962296
152.75650471478713 224.14101296510682 50.007868511462526
140.9980203727604 213.9367193755553 56.41270429893295
141.2817247369431 190.87031090589926 54.87101111369287
142.48915899456907 204.53516251451973 60.966484335724594
138.25607400480547 201.34827959623777 52.0288414018868
149.72284842631367 202.92511407558385 39.588553394782174
141.69168696890023 215.81860952457373 56.43006436718609
157.92839495822193 221.6269958055993 53.61545501741939
145.53089253697 188.4499453394418 53.033431024078816
140.14183590542797 216.6751145256585 40.031107579347065
143.66029012787365 213.67132434116212 34.979539834658226
140.85321211742436 201.32233344586365 40.03734912664373
137.601615117771 209.22406517910042 54.30602494109715
151.48702722742635 201.18161986896476 42.41385013456068
140.8830552327564 196.6958087515911 51.3415519686522
151.5551590250065 223.34260085234928 61.23068411768618
153.57239904046617 192.07682082534885 52.08990098783498
153.85403812597553 192.26121954029864 45.841093387968215
144.31992878855206 192.0281505300165 42.64854946069185
136.1016193996212 206.46394736122727 43.395133760922846
143.7188995477768 191.28019959162796 60.101531879024556
150.40309834047102 222.12084083581055 46.8098318437987
136.80513215790765 204.10310545435092 44.732523635573976
147.07531229843784 191.72785318364137 60.04317175540962
140.69563207454837 195.7644947625785 49.780067693016704
154.9842920068839 200.0244940924666 52.85693022014714
137.25386040602348 203.4921744693784 51.81084676021802
140.8899103935338 217.4952753393802 44.48743976788601
151.90369806397186 211.08091637812393 43.48046007567976
153.2432565321046 191.0048366111337 53.753954215406516
152.53898024807623 199.00816603124827 59.61183823397974
151.7476993564309 213.11727610147673 64.31001289060215
144.18472550020172 219.1046908807593 43.82986105881332
148.19879241561517 207.23161783552032 63.329696100038674
148.49619887230364 188.76394536364924 46.89481386111643
153.48614627926045 197.86448846927595 58.809771916255436
141.91718255784005 217.54540496666064 52.23973276159543
145.13673603208176 194.86456472962126 59.84651749811773
135.98339180653153 205.93222637925618 46.052030315255045
149.32044571268023 216.76799222828586 37.20500843952768
137.17154821967546 203.199031154891 49.04230606030735
142.06130633550538 211.07240492575195 35.07484592523948
155.16468577319978 197.23377993017834 50.6784771361717
145.23436342634085 212.5679839282167 66.76004026871237
143.64068815794113 198.98415393039926 42.157021905202775
151.1654129743521 189.88884287400515 42.99892019673349
145.6713466115419 218.87979726563916 63.600236298007935
149.65273650801785 208.7184384417353 36.61141150399377
140.95213455810193 193.93674851120014 46.76695059608782
153.47144793837032 210.9171040064065 50.769807362762634
142.30601748536037 191.98375149037878 44.75333014750632
146.19797088106324 197.68104220637622 61.228114908476655
144.75633532078933 217.26918770680248 66.66596903742408
136.87854339461347 206.69696653520316 55.074508767491956
144.43494047591892 218.8326913365981 61.03362114529642
POLYGONS 1276 5104
3 1 4 3
3 1 3 0
3 1 0 11
3 3 12 5
3 4 12 3
3 8 21 6
3 8 6 4
3 4 1 8
3 8 413 21
3 10 413 8
3 1 10 8
3 1 11 10
3 455 531 11
3 12 13 20
3 12 20 5
3 12 4 14
3 14 4 16
3 603 19 18
3 603 18 7
3 7 5 603
3 603 5 20
3 413 522 21
3 547 10 11
3 25 26 24
3 25 24 577
3 13 577 20
3 577 13 25
3 13 15 25
3 635 543 27
3 27 18 635
3 18 19 635
3 9 27 22
3 9 18 27
3 547 11 31
3 547 31 30
3 531 461 31
3 531 31 11
3 24 26 34
3 443 32 153
3 59 61 58
3 60 61 50
3 50 61 456
3 369 165 636
3 217 300 193
3 189 217 202
3 300 189 490
3 3 5 0
3 0 5 7
3 9 7 18
3 23 26 15
3 22 27 29
3 192 6 17
3 15 14 630
3 24 34 563
3 25 15 26
3 619 34 26
3 15 13 14
3 13 12 14
3 217 189 300
3 4 6 16
3 21 17 6
3 192 16 6
3 202 217 81
3 560 269 598
3 507 552 55
3 156 552 345
3 413 10 547
3 156 567 506
3 63 506 505
3 156 506 55
3 55 506 63
3 501 506 567
3 63 509 200
3 42 291 355
3 614 601 481
3 44 601 477
3 345 567 156
3 55 56 507
3 63 56 55
3 355 330 52
3 454 563 34
3 345 483 567
3 358 414 43
3 393 567 524
3 567 483 524
3 527 193 300
3 300 490 527
3 477 51 291
3 552 156 55
3 43 34 619
3 506 501 505
3 567 393 501
3 26 23 619
3 23 41 619
3 355 52 358
3 51 355 291
3 51 330 355
3 619 41 43
3 43 41 358
3 509 318 200
3 614 51 601
3 614 310 51
3 53 52 330
3 51 310 330
3 330 310 53
3 477 555 44
3 555 36 44
3 584 362 323
3 362 53 323
3 323 53 310
3 533 584 323
3 42 320 291
3 42 33 320
3 584 533 318
3 318 533 557
3 505 441 509
3 505 501 441
3 614 481 557
3 601 51 477
3 614 533 310
3 310 533 323
3 352 318 509
3 52 53 550
3 550 53 362
3 529 584 352
3 584 318 352
3 533 614 557
3 355 358 42
3 42 358 41
3 318 512 200
3 441 352 509
3 481 512 557
3 557 512 318
3 481 601 46
3 46 601 44
3 23 33 41
3 41 33 42
3 529 537 584
3 529 352 441
3 320 555 291
3 291 555 477
3 36 555 602
3 602 555 320
3 257 414 52
3 52 414 358
3 550 257 52
3 426 43 414
3 584 537 362
3 257 255 414
3 62 593 257
3 257 550 62
3 255 257 593
3 62 118 143
3 118 62 362
3 62 550 362
3 367 276 118
3 118 537 529
3 362 537 118
3 2 22 32
3 22 153 32
3 60 153 38
3 7 9 2
3 2 9 22
3 2 531 455
3 2 32 531
3 7 455 0
3 455 11 0
3 569 517 630
3 517 33 23
3 2 455 7
3 320 33 569
3 569 602 320
3 414 255 426
3 56 250 620
3 192 630 16
3 630 14 16
3 33 517 569
3 437 46 336
3 441 500 529
3 602 569 192
3 569 630 192
3 473 295 512
3 630 517 15
3 15 517 23
3 473 512 481
3 437 473 46
3 46 473 481
3 295 200 512
3 250 200 295
3 620 248 615
3 248 572 615
3 560 598 40
3 40 598 39
3 620 250 86
3 393 500 501
3 501 500 441
3 63 250 56
3 63 200 250
3 56 620 615
3 56 615 507
3 336 44 36
3 336 46 44
3 598 269 204
3 204 269 522
3 248 180 572
3 63 505 509
3 369 360 317
3 369 317 165
3 40 39 47
3 262 317 360
3 360 507 262
3 442 305 317
3 47 404 447
3 47 39 404
3 345 369 636
3 345 552 369
3 165 317 305
3 40 405 560
3 560 405 340
3 507 360 552
3 552 360 369
3 317 160 442
3 572 180 159
3 598 204 30
3 30 204 547
3 611 173 625
3 81 172 589
3 589 172 611
3 81 289 172
3 172 289 611
3 185 432 572
3 185 262 432
3 442 160 170
3 442 169 489
3 442 170 169
3 262 160 317
3 289 81 231
3 169 170 337
3 185 160 262
3 185 170 160
3 337 159 535
3 159 180 535
3 169 337 327
3 615 572 432
3 572 159 185
3 159 170 185
3 159 337 170
3 211 154 564
3 31 178 30
3 178 590 30
3 184 154 322
3 615 432 507
3 202 528 534
3 534 528 589
3 202 81 528
3 528 81 589
3 589 463 59
3 59 463 625
3 589 611 463
3 463 611 625
3 328 440 527
3 527 440 193
3 328 316 440
3 432 262 507
3 547 204 413
3 413 204 522
3 443 629 32
3 32 629 531
3 443 461 629
3 629 461 531
3 622 394 196
3 28 635 19
3 28 452 35
3 24 370 577
3 527 364 328
3 301 452 563
3 278 559 394
3 562 35 301
3 449 229 205
3 338 229 449
3 294 605 205
3 577 470 20
3 470 28 19
3 534 187 202
3 599 503 187
3 605 259 242
3 206 205 229
3 587 127 206
3 534 471 58
3 58 471 59
3 534 589 471
3 471 589 59
3 294 332 605
3 205 206 127
3 332 259 605
3 332 276 259
3 276 143 118
3 527 278 364
3 58 510 64
3 64 510 45
3 587 195 54
3 242 196 605
3 196 205 605
3 202 478 189
3 587 206 195
3 29 38 22
3 38 153 22
3 562 543 35
3 408 333 280
3 280 333 301
3 635 35 543
3 408 183 333
3 183 216 54
3 127 294 205
3 229 338 212
3 374 490 189
3 490 278 527
3 478 425 374
3 374 189 478
3 599 167 64
3 599 187 167
3 167 187 534
3 54 195 417
3 229 212 387
3 478 202 187
3 342 306 593
3 524 242 393
3 242 608 393
3 483 251 622
3 251 636 467
3 45 510 38
3 38 510 60
3 609 64 45
3 64 167 58
3 58 167 534
3 520 212 425
3 37 284 609
3 609 45 37
3 338 374 212
3 212 374 425
3 342 216 408
3 223 342 407
3 608 259 367
3 367 259 276
3 229 387 206
3 37 45 29
3 29 45 38
3 635 28 35
3 332 294 209
3 28 370 452
3 543 633 27
3 27 633 29
3 280 306 408
3 306 342 408
3 524 622 242
3 524 483 622
3 60 510 61
3 61 510 58
3 37 29 633
3 28 470 370
3 370 470 577
3 452 370 563
3 563 370 24
3 367 500 608
3 608 500 393
3 242 259 608
3 543 566 633
3 345 636 483
3 636 251 483
3 490 559 278
3 212 520 387
3 387 520 108
3 108 195 387
3 387 195 206
3 64 609 599
3 338 559 374
3 374 559 490
3 425 503 520
3 518 562 333
3 562 301 333
3 599 379 503
3 599 609 379
3 379 108 503
3 108 520 503
3 562 566 543
3 284 379 609
3 242 622 196
3 467 394 251
3 251 394 622
3 394 467 278
3 526 636 165
3 503 425 187
3 187 425 478
3 205 196 449
3 196 394 449
3 394 559 449
3 559 338 449
3 20 470 603
3 603 470 19
3 231 235 289
3 165 305 526
3 526 305 392
3 526 467 636
3 526 364 467
3 278 467 364
3 454 301 563
3 301 35 452
3 611 561 173
3 611 289 561
3 334 613 447
3 174 107 390
3 390 107 634
3 174 373 107
3 484 347 208
3 597 312 580
3 597 558 312
3 384 315 208
3 208 315 484
3 311 315 541
3 484 315 311
3 621 288 482
3 482 288 553
3 285 384 634
3 565 267 482
3 411 621 267
3 267 621 482
3 359 258 613
3 613 258 373
3 359 343 258
3 258 343 373
3 298 430 285
3 285 634 298
3 574 236 179
3 179 236 208
3 574 384 236
3 236 384 208
3 235 335 638
3 447 275 47
3 275 174 302
3 588 234 316
3 588 181 234
3 404 226 447
3 383 334 226
3 226 334 447
3 368 277 240
3 586 391 504
3 411 225 354
3 354 225 486
3 575 230 145
3 43 426 34
3 34 426 454
3 426 220 454
3 280 301 220
3 220 301 454
3 580 568 597
3 277 459 420
3 420 459 486
3 277 368 459
3 459 368 486
3 181 588 514
3 504 406 354
3 504 391 406
3 406 391 621
3 193 231 217
3 217 231 81
3 335 458 638
3 292 188 586
3 389 253 188
3 188 253 586
3 263 181 331
3 263 234 181
3 504 177 312
3 312 177 580
3 504 354 177
3 396 389 188
3 188 292 396
3 504 487 586
3 558 292 487
3 487 292 586
3 193 290 231
3 638 458 597
3 597 458 558
3 580 166 368
3 368 166 486
3 166 354 486
3 263 163 234
3 128 157 148
3 148 157 263
3 561 568 173
3 312 558 487
3 487 504 312
3 558 458 128
3 128 292 558
3 407 342 593
3 177 354 166
3 166 580 177
3 354 406 411
3 406 621 411
3 456 150 625
3 625 150 59
3 456 61 150
3 150 61 59
3 148 263 331
3 292 148 396
3 292 128 148
3 280 220 306
3 148 331 396
3 263 157 163
3 163 157 335
3 255 593 306
3 54 216 587
3 587 216 223
3 331 181 344
3 181 514 344
3 575 375 474
3 306 220 255
3 255 220 426
3 419 496 218
3 305 147 392
3 147 398 392
3 146 179 208
3 389 396 145
3 489 450 442
3 442 450 305
3 489 133 450
3 443 434 461
3 461 434 49
3 443 596 434
3 434 596 49
3 456 346 50
3 297 277 144
3 144 277 420
3 209 127 223
3 223 127 587
3 276 332 143
3 143 332 209
3 173 582 240
3 240 582 368
3 173 568 582
3 634 380 390
3 390 380 574
3 634 384 380
3 380 384 574
3 347 146 208
3 618 419 218
3 529 367 118
3 529 500 367
3 235 638 289
3 638 561 289
3 597 568 638
3 638 568 561
3 514 436 344
3 514 133 436
3 436 133 218
3 375 419 349
3 232 139 341
3 344 436 496
3 496 436 218
3 375 349 341
3 344 496 138
3 235 137 335
3 335 137 163
3 137 290 163
3 169 136 489
3 232 618 136
3 50 153 60
3 143 407 62
3 62 407 593
3 398 147 133
3 316 234 290
3 234 163 290
3 223 216 342
3 302 114 322
3 302 174 114
3 114 174 390
3 613 583 447
3 174 275 583
3 583 275 447
3 341 349 232
3 232 349 618
3 174 583 373
3 373 583 613
3 613 158 359
3 613 334 158
3 368 582 580
3 580 582 568
3 392 388 328
3 392 398 388
3 388 398 588
3 272 225 293
3 290 440 316
3 290 193 440
3 147 305 450
3 450 133 147
3 240 548 173
3 173 548 625
3 240 623 548
3 384 401 315
3 315 401 541
3 384 285 401
3 401 285 541
3 408 216 183
3 290 137 231
3 231 137 235
3 333 183 518
3 335 128 458
3 335 157 128
3 143 209 407
3 407 209 223
3 179 146 222
3 222 146 535
3 47 275 176
3 176 275 302
3 209 294 127
3 327 139 232
3 575 502 375
3 496 419 502
3 502 419 375
3 232 136 327
3 327 136 169
3 496 502 138
3 138 502 575
3 179 222 57
3 57 222 409
3 302 322 134
3 134 322 154
3 535 532 337
3 337 532 327
3 535 146 532
3 124 390 574
3 331 138 145
3 145 138 575
3 618 349 419
3 302 134 176
3 176 134 405
3 138 331 344
3 322 124 184
3 184 124 57
3 398 514 588
3 398 133 514
3 328 388 316
3 316 388 588
3 489 136 618
3 532 146 347
3 319 363 139
3 139 363 341
3 363 538 341
3 518 183 417
3 417 183 54
3 327 186 139
3 139 186 347
3 327 532 186
3 186 532 347
3 417 573 518
3 366 119 409
3 409 119 57
3 366 184 119
3 119 184 57
3 390 124 114
3 114 124 322
3 409 542 180
3 180 542 535
3 409 222 542
3 542 222 535
3 284 518 573
3 57 197 179
3 179 197 574
3 57 124 197
3 197 124 574
3 562 518 566
3 518 284 566
3 405 536 340
3 405 134 536
3 328 364 392
3 364 526 392
3 566 284 37
3 373 298 107
3 107 298 634
3 564 84 211
3 633 566 37
3 573 108 379
3 195 108 417
3 108 573 417
3 371 246 324
3 17 104 201
3 201 104 497
3 357 103 288
3 286 549 448
3 549 116 273
3 70 104 522
3 211 421 536
3 451 473 437
3 541 479 311
3 241 260 479
3 145 396 331
3 497 76 92
3 538 213 115
3 221 91 123
3 497 104 70
3 102 525 131
3 131 246 102
3 377 89 610
3 241 479 125
3 269 70 522
3 269 109 70
3 576 92 488
3 488 92 93
3 36 488 336
3 36 576 488
3 627 488 93
3 482 85 565
3 85 102 246
3 564 610 84
3 97 89 377
3 89 94 451
3 295 86 250
3 295 94 86
3 198 83 215
3 336 627 437
3 336 488 627
3 627 79 437
3 79 451 437
3 21 522 104
3 104 17 21
3 340 109 560
3 560 109 269
3 109 340 76
3 76 340 421
3 89 451 79
3 93 84 627
3 311 243 484
3 484 243 319
3 311 198 243
3 243 198 319
3 74 430 298
3 602 201 36
3 201 576 36
3 421 92 76
3 421 93 92
3 213 73 115
3 73 75 397
3 363 319 100
3 451 94 473
3 473 94 295
3 76 497 109
3 246 87 324
3 324 87 116
3 246 131 87
3 201 497 576
3 497 92 576
3 131 72 273
3 131 525 72
3 72 525 221
3 192 17 602
3 602 17 201
3 430 71 285
3 285 71 541
3 109 497 70
3 248 427 180
3 248 97 427
3 427 97 377
3 621 88 288
3 288 88 357
3 621 391 88
3 88 391 357
3 476 69 253
3 253 69 357
3 476 244 69
3 252 508 444
3 444 508 476
3 130 329 431
3 431 304 244
3 101 516 304
3 329 101 304
3 304 431 329
3 443 110 596
3 50 346 110
3 359 453 343
3 130 429 397
3 130 90 429
3 357 69 103
3 103 69 244
3 102 68 553
3 553 68 482
3 102 85 68
3 68 85 482
3 73 397 429
3 429 115 73
3 244 513 103
3 103 513 516
3 244 304 513
3 513 304 516
3 297 570 277
3 297 604 570
3 570 604 623
3 102 460 525
3 525 460 475
3 102 553 460
3 460 553 475
3 307 66 48
3 75 129 397
3 82 78 129
3 129 78 397
3 565 371 224
3 444 498 389
3 389 498 253
3 444 476 498
3 498 476 253
3 536 421 340
3 67 214 539
3 372 499 214
3 115 168 99
3 538 546 474
3 474 546 99
3 538 115 546
3 546 115 99
3 412 99 168
3 429 90 168
3 168 115 429
3 476 639 244
3 244 639 431
3 476 508 639
3 639 508 431
3 431 631 130
3 130 631 90
3 431 508 631
3 565 551 371
3 371 551 246
3 565 85 551
3 551 85 246
3 553 515 475
3 475 515 516
3 515 103 516
3 252 90 631
3 631 508 252
3 618 218 489
3 489 218 133
3 604 607 623
3 607 346 456
3 252 637 90
3 90 637 168
3 637 412 168
3 103 515 288
3 288 515 553
3 184 545 154
3 154 545 564
3 184 366 545
3 545 366 564
3 474 628 575
3 412 230 628
3 628 230 575
3 78 466 397
3 397 466 130
3 78 329 466
3 466 329 130
3 590 464 39
3 39 464 404
3 590 495 464
3 464 495 404
3 341 424 375
3 375 424 474
3 341 538 424
3 424 538 474
3 538 616 213
3 213 616 100
3 538 363 616
3 616 363 100
3 391 591 357
3 357 591 253
3 391 586 591
3 591 586 253
3 516 410 475
3 516 101 410
3 410 101 325
3 39 400 590
3 590 400 30
3 39 598 400
3 400 598 30
3 48 386 307
3 386 495 590
3 211 536 154
3 536 134 154
3 84 93 211
3 93 421 211
3 230 239 444
3 444 239 252
3 230 412 239
3 180 439 409
3 377 366 439
3 439 366 409
3 49 237 461
3 307 178 237
3 293 224 612
3 277 570 240
3 240 570 623
3 215 194 100
3 100 194 213
3 213 194 73
3 73 194 75
3 625 199 456
3 623 607 199
3 199 607 456
3 256 371 324
3 293 612 272
3 155 77 430
3 530 125 77
3 637 252 239
3 239 412 637
3 50 438 153
3 153 438 443
3 50 110 438
3 438 110 443
3 548 623 199
3 199 625 548
3 249 256 324
3 307 245 178
3 178 245 590
3 307 386 245
3 245 386 590
3 82 416 121
3 412 628 99
3 99 628 474
3 49 161 66
3 161 376 462
3 66 151 48
3 75 141 519
3 75 194 141
3 141 194 215
3 112 592 382
3 382 592 472
3 592 530 472
3 125 71 77
3 77 71 430
3 346 175 110
3 110 175 596
3 495 386 140
3 140 386 48
3 346 607 135
3 135 607 604
3 539 544 254
3 420 272 544
3 411 402 225
3 225 402 293
3 411 267 402
3 402 267 293
3 98 164 83
3 83 164 215
3 75 519 129
3 372 279 126
3 210 140 120
3 120 140 48
3 254 268 578
3 272 612 268
3 268 612 578
3 495 117 404
3 453 359 227
3 376 203 65
3 596 175 203
3 203 175 65
3 117 495 140
3 226 404 117
3 117 383 226
3 155 430 74
3 453 465 122
3 266 249 465
3 465 249 122
3 293 296 224
3 224 296 565
3 293 267 296
3 296 267 565
3 297 554 499
3 539 214 554
3 554 214 499
3 175 346 135
3 135 65 175
3 284 573 379
3 427 377 439
3 439 180 427
3 219 469 67
3 469 279 67
3 65 135 433
3 433 135 604
3 418 151 462
3 266 339 249
3 249 339 256
3 596 161 49
3 372 309 499
3 309 376 65
3 372 261 279
3 279 261 67
3 372 214 261
3 261 214 67
3 309 372 126
3 418 462 126
3 383 468 152
3 486 282 420
3 420 282 272
3 486 225 282
3 282 225 272
3 144 539 554
3 554 297 144
3 144 420 544
3 544 539 144
3 89 79 610
3 610 79 84
3 219 571 254
3 254 571 539
3 219 67 571
3 571 67 539
3 468 383 117
3 469 626 279
3 469 595 626
3 97 86 94
3 94 89 97
3 120 48 151
3 399 540 120
3 120 540 210
3 399 351 540
3 540 351 210
3 377 610 366
3 610 564 366
3 339 494 256
3 256 494 422
3 339 80 494
3 494 80 422
3 383 152 158
3 158 334 383
3 371 617 224
3 371 256 617
3 617 256 422
3 433 499 309
3 309 65 433
3 626 399 418
3 343 521 373
3 373 521 298
3 343 74 521
3 521 74 298
3 612 493 578
3 578 493 422
3 612 224 493
3 227 266 465
3 465 453 227
3 158 152 227
3 227 359 158
3 620 86 248
3 86 97 248
3 339 492 80
3 339 266 492
3 415 457 351
3 351 457 210
3 457 468 210
3 219 581 385
3 461 237 31
3 31 237 178
3 499 356 297
3 297 356 604
3 499 433 356
3 356 433 604
3 112 435 423
3 423 435 121
3 435 95 121
3 617 422 493
3 493 224 617
3 47 176 40
3 40 176 405
3 230 511 145
3 145 511 389
3 230 444 511
3 511 444 389
3 79 627 84
3 283 415 378
3 378 446 283
3 219 385 469
3 210 632 140
3 140 632 117
3 210 468 632
3 632 468 117
3 266 624 492
3 492 624 283
3 415 579 457
3 80 523 446
3 446 523 283
3 80 492 523
3 523 492 283
3 579 445 152
3 152 445 227
3 445 266 227
3 283 428 415
3 415 428 579
3 283 624 428
3 428 624 579
3 219 594 581
3 581 594 578
3 219 254 594
3 594 254 578
3 626 403 399
3 399 403 351
3 626 595 403
3 403 595 351
3 446 491 80
3 491 422 80
3 624 266 445
3 445 579 624
3 446 381 385
3 446 378 381
3 381 378 595
3 544 272 268
3 268 254 544
3 77 155 361
3 101 329 353
3 353 329 78
3 311 350 198
3 311 479 350
3 350 479 260
3 123 348 382
3 382 348 112
3 123 95 348
3 198 350 83
3 83 350 260
3 321 74 343
3 116 314 122
3 116 549 314
3 314 549 286
3 198 313 319
3 319 313 100
3 198 215 313
3 313 215 100
3 365 308 95
3 95 308 121
3 365 82 308
3 308 82 121
3 423 299 112
3 319 480 484
3 484 480 347
3 319 139 480
3 480 139 347
3 273 287 549
3 549 287 448
3 273 96 287
3 287 96 448
3 123 281 95
3 325 365 281
3 281 365 95
3 241 274 260
3 423 98 274
3 475 410 91
3 91 410 325
3 77 270 530
3 530 270 472
3 77 361 270
3 270 361 472
3 435 112 348
3 348 95 435
3 101 265 325
3 325 265 365
3 101 353 265
3 265 353 365
3 382 264 123
3 123 264 221
3 121 247 423
3 423 247 98
3 121 416 247
3 247 416 98
3 365 600 82
3 82 600 78
3 365 353 600
3 600 353 78
3 453 122 321
3 321 343 453
3 260 238 83
3 83 238 98
3 260 274 238
3 238 274 98
3 325 281 91
3 91 281 123
3 82 228 416
3 416 228 519
3 82 129 228
3 228 129 519
3 592 112 299
3 299 530 592
3 448 233 286
3 286 233 155
3 448 361 233
3 233 361 155
3 376 207 462
3 462 207 126
3 376 309 207
3 207 309 126
3 376 161 203
3 203 161 596
3 581 191 385
3 385 191 446
3 581 491 191
3 191 491 446
3 273 585 96
3 273 72 585
3 585 72 221
3 74 190 155
3 155 190 286
3 74 321 190
3 190 321 286
3 422 182 578
3 578 182 581
3 422 491 182
3 182 491 581
3 264 96 585
3 585 221 264
3 122 556 116
3 116 556 324
3 122 249 556
3 556 249 324
3 472 303 96
3 96 303 448
3 472 361 303
3 303 361 448
3 423 395 299
3 299 395 241
3 423 274 395
3 395 274 241
3 519 164 416
3 416 164 98
3 378 171 595
3 595 171 351
3 378 415 171
3 171 415 351
3 530 162 125
3 125 162 241
3 530 299 162
3 162 299 241
3 96 271 472
3 472 271 382
3 96 264 271
3 271 264 382
3 141 215 164
3 164 519 141
3 541 149 479
3 479 149 125
3 541 71 149
3 149 71 125
3 385 326 469
3 469 326 595
3 385 381 326
3 326 381 595
3 87 606 116
3 116 606 273
3 87 131 606
3 606 131 273
3 468 142 152
3 152 142 579
3 468 457 142
3 142 457 579
3 307 132 66
3 66 132 49
3 307 237 132
3 132 237 49
3 122 113 321
3 321 113 286
3 122 314 113
3 113 314 286
3 462 111 161
3 161 111 66
3 462 151 111
3 111 151 66
3 399 106 418
3 418 106 151
3 399 120 106
3 106 120 151
3 279 485 126
3 126 485 418
3 279 626 485
3 485 626 418
3 525 105 221
3 221 105 91
3 525 475 105
3 105 475 91
