# vtk DataFile Version 3.0
A great-looking cell
ASCII
DATASET POLYDATA
POINTS 1097 double
199.70942306477218 180.76089792549857 20.935207604219105
177.21133377271212 182.1621917890298 19.55736272675321
183.64707342277987 181.64248995646162 21.081198870396125
186.46271262416562 179.4168036326162 24.24847661610586
204.48081020112986 183.9449467927445 17.92810979855241
195.05257845097418 181.0969857432444 20.527384128305638
162.31190695975 184.68081661647764 15.975068073046378
165.62005390301533 181.73452303750983 18.792907830399418
180.74405143074227 183.55221186510067 18.387622274970738
186.5114015394113 186.37391947630402 15.245272223446987
187.79366522670054 182.94785353747773 18.888780560249852
195.3855492727594 183.87041508231468 17.00521202020923
202.96862575338812 186.93904380352726 15.138694344703637
207.11453207230542 188.54964584888748 14.266081655646708
171.80202042396698 189.80567323472638 12.385732165589648
176.2136648548364 187.86106859018108 13.750115211134455
181.42943884163236 186.85400859625332 15.037964822132805
190.91154301673092 184.96573622335546 16.134432823680143
196.4826630130822 189.96055187367895 11.90059346913998
204.99209630145003 191.77998735341083 11.622782842240538
211.70557396933012 189.62174661581156 14.168574803068655
217.3469912166859 188.32100256117542 19.61163457784679
152.63162185982262 191.77014041543768 30.709211877150082
174.0638021146511 193.68976062383902 10.826303308068137
177.91591449434958 191.56086732212344 11.613676024627324
187.0659216453835 189.8192284085073 11.981169390210338
200.9860122032059 190.22264794703267 12.563292415044364
213.0884751965331 193.72911161288508 12.542320024378853
191.9943043260314 190.39661366597952 11.220751513992994
195.03604543243569 193.43596546831674 9.889325530395078
198.5733684429542 195.9937551390256 8.606337019241735
204.9198405996713 195.58940262042358 9.470515582636141
209.61858318395423 195.7057107280609 9.455936350239611
213.69033137795236 198.43453375413364 10.599100714522733
219.79739706152588 195.56540190509338 16.302327477001953
227.55120334747997 196.06776408112188 24.959381734789808
152.08787233021138 194.8842113356796 19.378716661996314
176.96476922770535 197.390889812579 9.505580254088494
187.44227015949417 196.98780441556957 8.695890043982182
192.2107114290342 195.95335932674521 8.84351803106646
195.34889232705513 199.27968542350777 7.364791167319826
169.78384576791623 199.99357823726976 9.501442460433934
179.17831994601332 200.92993661014435 8.25173103985819
183.11518287782673 199.02545358027325 8.649278634757897
202.03340218322788 198.7586684056709 7.820840908987357
207.16560485249855 199.8514933554081 8.287312808872775
219.7091238618203 199.94162451717781 14.064254743087787
223.66130864382208 204.6646816559032 16.007123045678814
150.4137582805978 208.08329190744672 25.72097800333396
151.85799269952645 205.83782386522591 21.653245864787518
154.19701187940709 203.5733663410826 17.957437640782178
163.6919425632084 201.30636997315 10.930931382121766
167.82132360179597 203.60231325046755 9.497523423716105
174.21152706932787 201.93929747275146 8.440514030943602
182.73871061092447 203.85618325144003 7.28941701870928
187.30822337128038 201.89258470697692 7.14150378029166
192.298999386613 203.03880673441515 6.374205291728679
204.21000014940427 206.94656794619425 6.429922277177945
211.49710064933674 202.82324740870118 9.187630596417863
158.27047938336685 210.53086121438145 15.375152057682737
178.0602681474923 205.46671192767187 7.21224214059428
188.9928549870985 206.35534775111088 6.164512754746591
195.64068816277398 205.90578678710926 5.844440114949487
199.13304287447434 202.50442854533964 6.555332432365044
212.27290566624126 207.50239993123284 9.268992498538287
220.07416577067917 204.78076355331422 13.689057284185628
184.39033267668918 207.9380067559657 6.486651478410206
202.36265896501163 211.3805755124316 5.92508427163705
208.23860878301477 208.4030949486741 7.484038160060386
220.33836593935257 209.48204341235913 13.571293083506989
229.01504652321285 211.38882273003637 23.66250810712158
152.77467150652143 218.64944432641687 30.813844584084958
162.21686959025195 214.7585110534493 12.510618006585291
165.69473353214477 212.59936078088975 10.497761063496469
170.44595709305761 212.54134984444204 8.394815456132921
179.91748488861933 209.93806631361198 6.358276296808652
183.8336329919258 212.5431421929701 5.883909111708674
188.09389390373818 211.03078571664872 5.759375511566949
192.6562380745609 209.49435883183807 5.485878687022296
197.30056780238303 210.5844924901862 5.5024670195387255
214.579695865373 211.86300519795265 10.42985025093557
227.14425894717849 210.8284028272024 19.278600067908584
156.13174961186974 220.8430887611089 36.40213128796221
158.9146110668973 215.66266195625533 15.458165896967344
167.9302109985104 217.33447055738475 9.583473036381013
174.64627209217636 214.8700137652814 6.55188120529635
180.02421552445333 215.20701679988971 5.923631766801545
187.01576814567377 215.66197264710058 5.553560152531585
191.7049723328651 214.22611702258283 5.35773822365368
196.44942679699392 214.90482708297 5.508292047751879
201.09391076450848 215.82314576336213 6.010355991847177
207.06774764427712 213.07538780881808 7.022061670476238
211.07874810890402 215.18909774119626 8.863037954273402
222.59462713539799 213.38192279757624 15.368600550923462
157.77277280957142 221.31417063369204 18.325860719870093
163.4620977059419 219.03701613517705 11.719287324607746
172.5244417887906 219.49875826844007 7.603121226426769
183.50092425940252 218.7290353567612 5.808591467944681
188.33483009534385 220.29852652059176 5.251201487234148
193.14740052607317 218.93371961214115 5.304010772102096
198.04855784703219 219.29086959678196 5.630515619391194
201.85167244283002 219.79521268933985 6.4416285022445345
205.51274480147814 217.68223066983703 7.038211079682756
209.51459497934587 218.8340648960651 8.440672188562184
214.87577891762126 217.0523716459881 11.047019056403562
225.6273852650499 215.0093652854772 18.157046958863255
159.89643028707528 220.35483364762314 14.628304572316386
169.30899451457086 222.4198132994179 9.894604488396352
180.41958991448925 222.05607845996036 6.295254321242723
184.8403601969842 223.59620792062276 5.958578773927987
199.8093713183298 223.5704039220162 6.517874535577347
204.71077683089464 222.56884830055498 7.375569564097569
218.77435273310337 219.10060490850836 13.868190650271819
156.50650950470734 224.9185619113481 25.04939839879557
159.3190936615015 224.76080593552987 18.419969855032495
165.27314642341392 223.19585631366678 12.44019123953047
179.43663602029423 226.00553967444552 7.042258677600425
183.2560270434208 227.8567607097197 6.8970986047221885
188.24046409667946 227.30916390994705 6.693233815807953
191.6380654215695 223.84534939165505 6.167056925813787
195.86749582480599 227.05876843394373 6.787010329234276
202.6301696796379 226.65815721804123 7.657615367928193
206.5685360706215 226.3639154753088 8.897479887315361
208.9396673342852 223.05959272375227 8.917915988718732
213.03657708250918 221.00620887174475 10.018040934046805
216.02456805559362 223.40580847926435 13.059202381998452
223.98208991733625 221.05569259022352 19.520583238786966
172.6809049067345 226.2800360154064 9.674545695635983
195.90804899201618 232.2681692957634 7.661144000330707
200.25276360562668 230.20220028715434 7.40725693994546
211.940344358459 225.697097059697 11.056401324479635
221.54005491042204 224.47513921621146 18.08348877289657
204.77495854689033 230.34155547975737 8.843248976553289
209.07752966600665 229.34047081760198 10.949259576040845
218.27124029323642 226.79429139117383 16.218320479447808
190.36815682804618 237.84310230768568 9.001005659574082
195.44348701861674 237.03489141299644 9.127889416816227
199.88113382634634 234.74211389207068 9.122503163680872
204.35616450640808 234.36004315341887 10.670814331643417
208.61553230347548 233.83390404034205 12.877699132341023
212.4387301105067 231.48902723452227 13.607261718366548
223.04754907311292 229.61914659004626 24.836088219442544
175.37747346268057 234.65803861464298 10.587890400321193
186.54694738439707 236.39068155092232 8.355578954807992
197.82645832051884 240.6788527710654 11.326612480380788
214.04450300645098 234.67745166870256 16.826384583557253
219.34472547166024 230.4668762448745 19.23525593565473
184.48827622204305 240.22797655503518 10.269047668006847
206.02768849000412 238.29456699379674 13.494137298529676
211.37834539044823 240.34131029357792 18.50444296138
220.36305424362405 233.28685867751025 23.247809033608355
174.73877292002834 241.70400294316545 16.02225977165206
187.6136070342742 244.56043641738245 13.723855535208761
199.4459656455523 245.20838849916984 14.861266482530855
201.27074946685812 242.33996053114745 13.129897730415664
214.42770982549297 238.07774219165572 20.06006183200962
183.39034010356556 243.5236308133211 13.501769796339339
204.7016104998831 242.6121091599375 15.4990619200819
178.09094429997165 244.887602185651 17.052050786676602
186.98873671008826 247.5958106647988 16.982630668152158
194.8233185405836 248.90808101892682 19.305761557956025
202.58065593328436 245.75160448592442 17.292224386065246
211.15295231782238 242.6489555406878 22.124906960352625
175.96472303411431 245.9323272835997 21.02230022627216
182.3981476849011 249.48833353095077 20.92129859665941
175.15304235963367 247.63578912710727 25.39370019340574
178.77475247014033 248.96807514580186 23.29407730272077
225.74190522723347 190.5006670310207 28.323793439467423
224.9605912082874 191.6169668623608 23.781264177310252
224.94920842509993 223.76830293901875 23.09887845113398
222.3507663247756 227.1236924648299 21.24328182813105
214.317017595482 240.68045917790062 23.790350806888352
200.8632409130801 248.85066001252608 22.346018769201912
179.68144774399002 180.58500234276616 23.675267456864407
205.99110679591257 178.2536104876312 27.248297164259
226.17464115264465 202.46182953758606 19.084369930167096
204.6544198077735 246.3945995030999 20.89655259891916
192.55876601888446 178.2861518359866 25.122373757756936
165.1712839502543 180.79541158555398 26.67518683119074
208.36249504315722 185.72334660477702 17.250084059446223
227.92654932403036 194.35751541222314 29.01454095363731
149.97160874345045 204.16417338133348 27.867577805139515
230.6141158082938 206.04649538731954 25.62594555053905
157.40169491626762 226.87967631887065 29.181419224496505
164.60976680164333 238.23555039635295 27.21879891206975
166.878415763772 241.48382929412875 25.99274259937827
211.92915931150287 182.3159208212935 22.54828117658203
229.98054982199386 199.96096561593723 26.776197141951148
155.4642247278622 223.1883142451754 31.80201196563954
225.29093179417578 226.0623158072183 27.211626310404323
222.33261285320748 233.41370091128823 27.921678898874664
214.30149299333272 185.51088800241712 20.380133164629065
230.2597217827635 214.4811961582077 29.27517836911813
223.61158268099743 231.99250501228923 31.84359274951323
160.083233071656 231.19139252015566 28.422214137035734
210.57623934840703 245.10661104509862 25.53084614594036
203.17021298534422 249.08440011575723 26.563772795300984
196.33366146869926 250.5877132799916 23.389704905898252
182.97432506117048 179.36716118447075 27.212117530744173
195.31008497659656 176.07124792128235 34.07177749595779
157.83612943336493 186.6623139400917 32.17531706925686
220.32100981003632 184.1704029739598 32.323601235591994
229.98253238890996 197.9739774642467 30.709341596545066
150.9655686707248 213.63564833288834 31.801642768976485
231.13056763645767 201.73336710301433 32.723407174823386
221.95595388904894 234.9905964777237 33.62668280477715
213.98828161247815 243.27426639236486 27.806126273553698
197.58450684576482 176.25307967424044 29.947110031442758
212.32339634335324 179.58512693009382 28.112657267783053
223.29281790934346 187.35133378624857 34.774297252339935
150.12417501542424 206.73033514994992 31.851979417408245
230.44127312322934 211.94488135070472 33.466195845299175
224.2383824204189 229.86298213597513 35.55432493269753
166.12401153850823 239.233311701055 31.49413267851504
195.61791853185514 251.5059515457662 28.17593709791345
188.9682495887317 177.6733189109955 27.24286376505628
179.827091204496 180.01552680384813 30.35348179324711
201.3685873897302 176.5089168267567 36.68097020770825
208.73237926171814 177.93939161691947 30.741527704779756
228.31092493866777 194.6851181978662 33.40193505217063
227.84454566910918 222.418389681947 29.05276891174545
225.36265027494682 227.76114313915426 31.666225431715972
159.60745704090658 228.87962027160478 32.691861668656095
218.1096509791607 240.40765224536042 31.567224845208155
162.6295745368736 235.06284831529695 30.70490645896993
208.84498396879547 247.28330052785745 28.861793482846217
184.0669058845152 251.28651597547196 24.49778561786334
191.12927030011895 251.7926844159878 27.075642917857547
186.198031041908 178.09592695077464 30.635197379327483
188.57867909793765 178.81107173969298 39.214472472770275
176.19453957881993 179.84504310422642 27.21935100117653
167.43461562245622 181.2717328377037 30.885610107584384
161.2780880616483 186.88742182640226 35.204640681009344
151.46551843618013 209.82942182787875 35.201966536233805
216.95787760226847 241.04284042542076 35.90867743389948
159.2981319375597 191.00848033934048 37.262863435185764
151.4936177225471 202.88164621794732 34.3891040604552
226.13709483755136 198.27117204644907 41.76733507924123
229.40607607380377 209.82878816887097 37.57548585963117
227.77029199861812 219.60355416051198 35.160654752122554
158.5393224591969 224.92788075386937 35.43511669623157
226.0565539752414 220.90473089741698 39.06589877042845
221.78869754737147 233.61424886041152 37.49357807369931
170.6124034471027 243.77129960580407 33.706296473630395
168.42722792825512 242.7909388277568 29.681102338811765
178.98811298244718 182.0792803658598 38.980394582672275
171.08422774836905 181.73234089838965 33.799535859689634
203.6602632977178 177.9572486136417 40.27399011818036
153.13609856507875 205.9764058233988 37.96671255957516
230.68921103841387 205.31409019410268 35.526639964925195
224.5881888380588 213.11940659442428 44.27510629867818
219.25409564157147 237.4366894169956 38.144969340706545
211.9870920313811 245.43659661790187 31.50569972940327
194.27604693682264 252.24445139315262 32.541989999154836
184.6379189506091 182.4521932479488 42.8240379899814
174.9491582984236 182.38134480611734 36.32087866108787
167.3713648722764 187.90363245223745 39.52142772170624
211.28643012824315 185.2446619031037 46.414659600876384
159.98190855770966 198.98148324904227 42.63177701258656
223.4778755905229 198.20013475859952 45.97001926737155
224.90066666450733 225.423853866073 37.809158922329246
161.64271249788254 228.35884819478264 37.0426584039805
189.72266866413185 252.29279008940256 31.23148556305711
196.98550739651066 177.2333879725212 38.8653519185388
213.9852389646237 183.69963482635015 43.48529248060394
219.4267290244214 189.06680724504724 44.8981882038666
156.0844839637351 202.11420431586797 40.19988909482396
226.55852090664806 203.27066266492028 43.0087516486865
225.92589958537897 208.34254782900732 43.421453870672686
162.13794491157483 232.20120553001132 34.45123536196835
205.5551681153613 249.18168603720878 36.41085190308611
205.22092635659644 249.663302378551 30.95729830563359
180.4665494262974 250.6139908396653 26.75942126002184
189.1872434916396 180.96626422912775 43.143593099477506
192.8933477575787 178.7647377993379 41.48609074236496
165.3740187972363 191.90586509475014 41.1963379795237
222.59229040015896 229.5692803202661 40.03011722357839
216.65893129802873 236.07461028317488 43.88007234744484
165.06822059297917 235.88024461962803 35.1289715485281
212.70709878016802 244.09621097376774 40.50682934397043
208.77904011988386 243.55246300522492 43.4559606020075
176.98121887529058 248.7432814296756 28.989285871303736
188.22790071970678 249.652839397237 38.26987537830656
176.49677793852163 185.33667298173472 41.121651870063715
200.64200744760268 182.5343397637592 46.372355435889276
158.3657824762252 205.78751976413983 42.6865392392899
225.90673292769205 216.91826421267487 41.313001667331406
168.42185503187497 239.9075812727476 36.05444368481986
198.22358248683523 250.9104420656807 34.28850959445438
171.25036151593093 188.43225374930944 41.30482282013038
207.0152480318745 183.25887441016275 46.569167710936824
224.12666220179847 223.34385526506162 42.23459684489627
167.4819203540006 236.08481396074123 38.86640009467942
200.79998963416966 249.30508970247055 37.63842643517376
180.0652108547396 248.3190049464383 36.671352502990224
195.3182105597286 180.33634509616056 44.44715448209395
172.853660165426 184.94392138916444 39.06866192962783
218.8318310329 194.23646511603886 48.734614852214165
215.62940098190114 197.51444709051233 50.661126925601636
153.5418109264676 212.7944071861695 38.12648297947528
223.38609658108717 219.344136161403 44.21834412715596
192.17199043369877 249.71053791571703 39.7622897004586
192.18443622800868 182.87619397770058 46.165496023945565
175.44978847777728 188.89823061789605 43.39004224021152
199.15480335201 185.34326592797913 48.81383012308624
208.22698815940916 187.23261848750488 49.00343617692695
220.11591428308262 198.86787958073376 48.91935974704592
215.7625403364636 232.13288761411286 46.82950448362767
204.3148154173683 244.42160934114145 44.74169155845381
196.94737676160813 249.0216589228008 40.53056938575923
173.44531847456227 193.23999308079408 45.05213379848494
180.0848935078087 188.2084635876952 45.24424539501035
195.58951208940078 187.0974097735613 49.62863640618597
164.3807696940896 196.3624179539949 43.54496930086019
177.93974076235426 191.990664453876 46.39838157689374
180.12155182729356 194.32797024872684 48.715208271901936
184.02858504411293 194.8470322426089 49.943771193651564
186.2663981971805 188.93793493849964 48.22410018490076
191.12146690555122 187.06760412804542 48.44758270074923
199.78330780640334 188.55107684644892 51.69207152563975
169.36028751661257 196.43458911491757 45.26411156545797
189.63991459976526 197.48365758459357 52.18153173035553
197.12971794429612 192.42956159781602 52.42041536793459
209.69299873984778 191.39830732223825 51.03107294509661
161.77212794065352 202.61130133985083 44.610315508936026
172.61254713619255 199.6751968506702 47.32554021264805
212.4237790351626 200.6233171808974 52.6667224166483
162.65787709673896 207.37117182091487 44.76681904037741
177.2676582828607 200.9554851730973 49.014071270248806
181.51151597240136 202.1714487599878 50.449914386595744
195.68990388602572 200.38900637430078 53.61641615899428
155.2363099621782 209.2193460882862 40.80787954499119
159.5385766976597 216.0606149702434 42.1360103802052
159.65696491467617 211.2051742246916 43.095638305751386
164.2350227036027 212.30552132585098 45.27582725670148
166.69429353472609 207.97232263675374 46.968709602248545
174.02215067285834 204.3412416792032 48.61828251109943
178.42641834185255 205.27465671916627 50.065699159124314
187.52444372299684 204.16421147078066 52.14492837067399
213.54468611224345 205.0353300791593 53.04554826791283
168.7972733042099 212.19055247600693 47.40443853606934
182.99564589670928 206.2390242940906 51.28523146803115
190.4729078032432 208.5295324078981 52.93812562333773
173.15074872371395 212.29426760320905 48.93413095586108
179.49887890280178 209.472769245157 50.64290148784233
198.71691052156567 208.45525954330725 53.547164924809444
206.00415135738768 207.36626244433475 54.01003636944947
180.02867170199696 213.6757977195176 50.63357203761514
184.07400439271117 215.69371689961662 51.65872163264408
190.20897954827566 216.6862944794665 53.12127299373817
191.66422484832265 212.94798616478994 53.15411698360885
198.8926738648538 212.8268454198024 53.58199658510585
207.60080391834816 211.7208631962019 53.81185865196292
215.17196692272182 214.10001907250216 51.466797689650306
163.46120399759067 217.41267841029082 44.23474800270544
171.00711744522587 216.65836431434468 47.60585279146199
180.28455326458482 217.69455853400757 50.51286544632957
195.15671056108874 216.0223406766113 53.548854023838274
200.13903355814986 216.80255775376384 53.8777863755089
219.02770591156332 215.73555003464867 49.51175936292493
159.0816243827252 220.2585231731282 40.275404537826276
167.4659490598025 219.75668797681234 46.08715162532293
177.63737515988086 219.82446893011962 49.51301106803765
180.59694583968326 221.48099181297295 50.53636183863337
186.71612099602658 219.17090014927686 52.56967472287615
190.561164406164 221.16407036571067 53.170143783258254
213.28809317911023 218.09130932274644 52.27398967735656
180.80839967364625 225.63444640555005 50.176918722369365
208.40354074615072 226.04098947126087 53.242522559916644
211.05918484015444 222.05580535815977 53.365043721405904
161.10265999018 224.25975754720335 39.56014417673265
162.37006231403217 221.5766259714174 42.86299491320584
174.03994103591802 224.57372853839493 47.79133912764539
184.81948875462876 227.6750470775083 51.192847319690266
193.13762192322915 225.35367034528423 53.068583050167945
200.76323290260882 225.8176201396488 53.40306873694424
215.60313818346174 228.24662525481196 49.49715036986422
221.21983946931408 223.11801220963275 46.03038413909013
165.76582104778294 224.26125293815952 44.69558458726199
170.3554512650577 223.33288420790407 46.634688372083346
176.8213024686474 227.81002172978793 48.36997760359114
212.87476257174941 237.46886515267983 45.890011084070665
181.1093196507386 230.4041780709912 49.089151183229575
199.7071630464586 244.6892008111695 45.23951475886137
189.13339316081007 240.73208412180318 47.78902530152389
192.70249345474656 229.65932695136237 52.52103675678787
206.3779756110908 230.0832770630132 51.996238680634995
209.72130437531143 231.7198027004136 50.82181266843299
212.12439109841824 228.27836030830127 52.30040291180848
172.10473445725614 227.7877293514042 46.099185273428475
171.4812141953188 232.2366418597454 44.0282074752316
175.270866633924 231.51369070242058 46.47560251016019
185.58188549161036 231.75201238163592 50.27095195210735
178.75075680923487 234.10006536915805 46.949316844164294
191.05842396688863 233.35726703341967 51.267660221343064
201.6200046733257 230.1681190876514 52.248143662609124
195.57128895635248 233.09475286275708 51.98534835912923
188.77889229901373 229.7140457656095 51.75626395686167
214.42444049604634 224.33637076825616 51.567718891598574
221.3396637316855 226.86124794851693 43.60831746682689
204.55571390198872 223.15151861451918 53.77650093063154
197.0738650782568 228.64474009007043 53.01344458749247
164.12245445768465 227.65622254965064 41.239920718723724
167.86697246519887 228.9071551045946 43.81029545887068
197.17295163395872 224.40671729307053 53.643102067651455
188.56249544282431 225.23973508683346 52.510339174611595
183.22711585090693 234.71390888697314 48.34047092323582
187.57814524089687 235.2314153163138 49.660627554706096
216.99110490937755 220.32247889341608 50.26270643169062
207.3789195000161 219.64952121352692 53.91260108966298
199.8043971054688 221.29260966566025 53.86429624014688
195.16638467685493 220.8060415165859 53.500650356311155
196.23826221168082 237.58090540784056 50.06146742671215
184.52766356875384 222.99199187126638 51.887932936254195
177.23464620101387 223.32694224119078 49.2561450245696
199.89125049035536 234.39713682762482 50.90763085617858
204.3134860067602 233.41663986149658 50.768098254116644
183.24960523311455 219.40422698201317 51.40661675252046
173.87308341280874 220.5502669133414 48.15967057916471
211.77375921965978 212.37406803609338 52.877364611201074
209.7173412910348 215.90652141991185 53.57711926327954
204.6539650565503 215.47026652854265 53.91170010730282
176.0916842154743 216.10723178049258 49.40976597656553
170.81365475930804 236.54420644036446 41.534724905316025
175.001601316657 235.8122310701362 44.614577645882335
177.53069842872688 239.6280992963391 44.0913172081921
202.80306799745452 210.93495531745177 53.734158443090024
194.88895061577807 210.7209237259705 53.39479779469469
180.96788345966618 238.06389465523387 46.06657966554045
187.6240898173808 212.79272577431354 52.44664140037697
185.57822869327353 238.51812456149258 47.45400156896418
183.4483219292896 211.07002782594878 51.421734391343
176.76577761804865 212.03304992903543 50.158212861694814
191.3498776260779 237.27954309082278 49.56259483786195
167.00491435081668 215.65823794326496 46.09680841741985
221.74110453970096 211.82599770808997 47.46717309118758
209.22926491912008 177.51689910709845 34.640276268320456
214.98765787115755 209.12569971695623 51.953721829219965
157.2932877808799 191.09634836136448 15.229190707326687
172.90152007622297 179.19234921307623 25.788259442666437
173.97842686654658 180.66462664197604 18.86047409367169
167.87734463502215 180.50084899347812 21.323858359815656
202.11591511767216 206.6931440367546 53.745092052334144
203.15795083140128 237.32895579853948 49.24249238631405
180.97386838623314 180.30146661054073 36.67987176285101
154.58378310077862 185.48464989195344 24.901247940425076
153.4250171115547 192.75691157884606 33.90597317835978
152.75828848762845 191.72504487387022 18.139338224538857
153.22620816527657 209.46460891669855 38.1138625519027
155.55302795316868 205.7427808355742 40.59353183586739
184.33424131203577 188.43415746408465 13.642229598893033
203.85601327508508 182.8214151625249 46.717372566854074
167.78428565081148 181.88379609706962 34.35663384583753
175.51930463042595 208.5901710654082 49.41584699545883
165.08623287158633 186.29740499769377 36.85795549743341
162.0187228669329 182.85935627397762 19.030030610704856
166.96255390544133 193.8842663040922 43.81999444366415
162.14563321629194 191.51316145049975 39.44250896988693
157.81104875792556 193.81934629494148 38.80483572960361
163.66236368829382 182.26442616561073 30.281434480840847
150.34397062419418 191.86803636962583 27.721703340410127
175.76676001967408 183.56157279791282 38.97057108565395
207.78118555913983 235.72286971233726 49.3186731217553
218.7449778941858 206.92726751105153 50.01476928264516
224.5841810387641 195.644994622394 43.94613318692824
225.51994908537714 192.31251602377162 38.373697583755494
222.2701847427837 186.90005171155008 37.87547123910263
171.87230181171122 183.15610091230883 36.641906352814836
219.88233453054113 225.75977543077622 46.2156421397951
220.38501833871732 209.28614283046392 48.59910001674723
212.13346166081544 234.41325406112696 48.2802026479072
170.0308019278216 186.3121891465299 39.286434845123395
164.9319040332168 209.29306987311708 10.672180186865033
203.86994715217747 202.70796569733548 54.14922416739162
159.5309989521909 207.83422528479932 14.013894395568393
199.15088873587214 204.01373857190592 53.672227382755246
194.4289951989229 205.5456477162123 53.494579046141496
214.60258383792964 179.68079252732193 37.44655490250661
154.9110041188075 193.19893254344757 16.65875072553573
163.2875714455807 197.90465301777186 10.52611419366908
155.60580360479292 185.6716896087267 17.6946757232164
218.58829934523482 237.58878058188765 41.3731390839694
164.75191895898212 232.01563560001756 38.64861151250414
161.32439374320919 187.19124116749592 13.387005851898676
214.67696852722898 238.74779899774066 43.7855062805108
160.26668160960907 194.40132083201567 11.700200005172013
168.2840322039363 179.75748442025966 27.847520558995054
171.2583230432226 208.14788757107505 48.015737829643
220.32497659451982 186.6139281941554 24.49580957085822
165.86121124866042 180.39905333633007 22.684563401602805
198.30095848416667 176.27030672550202 35.79194028926032
166.22430121930768 184.048475364377 14.875684643721408
172.78153919431378 186.834958692217 13.948104581100248
149.7498172141975 210.14863938452203 32.32771706651043
150.7877462808285 216.20390173835492 28.828964278624806
216.8880857930973 202.56856667840594 50.98433414444501
152.79885236150352 190.77749158518182 21.181277045792474
164.26755060918944 191.4183745019969 12.242405415736261
227.99125956186043 198.3831991317032 38.52196209844578
209.35286975800332 178.2522161159373 27.646126201637035
153.0840293666257 189.05414353891578 26.15959713290173
203.02908807689218 197.78212903269824 53.221290970870974
180.03033702819508 198.07101659547007 9.018765215335353
200.06376762435767 200.2956084054095 53.66531254218678
158.67017946795295 184.39932259784825 30.108941196920927
191.29670912540757 201.72541077830246 52.93208713624241
168.25314617323457 244.2055962358679 26.61125211892351
155.09436074978728 189.45412266240965 17.8839604458542
219.84009295782784 191.37892656594263 47.38500825612477
189.29749372476635 177.4059917275833 36.43789028609582
220.00690017405685 222.0731622960915 49.014904344974155
168.4843767884634 188.9169274540149 12.599947193133461
154.53238791214602 200.57795769744192 16.781685130782677
205.61530677826806 177.24800281097325 30.479754526884186
157.6056057352316 183.9918761458143 23.983738325770492
157.13353806877936 197.88039610297912 13.564182458501934
169.19290792415623 203.4896721098854 47.312098889448045
152.0946214124339 202.82067697142153 20.530262858583576
150.12908471574957 201.08132719796316 26.962359860613898
156.55638773113952 213.30945175262596 40.97483200021132
209.08627148055368 181.08861282374244 22.846107527886673
214.88802106309953 183.76345346969998 22.727904929311155
179.4771974317744 189.10292341840577 12.980412928533116
164.6065072493894 220.78208453244542 44.736703869692974
222.2271553025322 190.38080489659214 42.30744193271888
198.58546067490474 231.7142282851937 52.481305170026424
177.92274454279328 237.04418476189227 45.76751162423575
166.00784577311703 230.44368181003887 41.465082969935985
225.1697374649337 212.1269489644169 16.926942821420976
177.80699456097423 231.11386505738807 48.18705860599902
187.38566708788247 222.21328277426568 53.61169832719824
197.95398987534418 181.30433131712488 45.28033820385187
198.5696723385543 196.59850693269962 53.46871380817302
193.91483991812942 195.8479314246977 52.612149019782514
228.6251877771616 201.6737779721208 38.62953965561514
227.78190020145064 204.68109054470338 20.598250189057104
226.29334296288812 222.44572185969557 36.346338092721865
222.23096192071984 200.69334701494788 47.581905607805425
225.46354318524072 205.41343252674454 45.50520522448179
202.2460578686168 175.57419015475028 33.524474115361585
197.5568624786259 218.73219556469286 53.84557674717199
226.50818658639596 225.14453266261026 30.336856285348944
196.16665753625426 242.93823204140546 46.94684278170265
161.38568154339276 214.33790226451072 44.30752964485037
229.2174004011418 218.5586904360451 27.694519786766033
182.67413654151764 236.69607321469894 8.832437482473878
199.77224570841204 240.63521576534066 48.097074997834135
165.23531968284138 204.35264590293798 45.89424517020548
169.2298707876088 199.9276137633696 46.52692656018515
211.2576337430181 178.17298041101603 37.40291797376697
185.79970648893513 230.01252129973258 7.288301005046817
207.6762206127976 199.19045573389863 53.352500195191574
196.1606765070938 178.6565805010039 42.046798704041585
224.58042379085623 193.50051727140723 41.264721661012295
211.1276246087766 195.92459187063554 52.178251720170294
223.4164171217908 189.85077269739597 38.619176772788784
207.439416891469 180.74466960097757 44.66206458748521
201.634056811725 193.30776385717178 52.463226047274816
208.77235956565772 239.6387274520195 46.58360775547112
165.06551191327299 188.1423743430935 13.374746575274946
224.20771327843377 216.3729248810787 44.141811076525556
224.21180856162206 210.18652476076429 45.99257992698369
228.10742486821715 209.15964172997516 40.66889822515335
172.4390182507811 190.65638158030123 43.20099495106599
210.98874806969843 245.90483007476078 34.51638356712782
185.3085359955507 199.5470786780928 51.34013854270119
201.6185167424954 214.00494116388268 53.90060764039997
226.88638942162433 191.91917452331182 31.619688976107625
228.38038372464464 199.3304402997464 23.926491097705775
218.37491752186426 228.1962427915305 46.323252578247235
231.58158106009446 200.616052204558 29.71244225972231
166.0344649158707 200.39326323439414 45.311592274670744
177.45029353361065 194.36719172177268 10.3398659068044
201.85926217299618 247.28386410117398 19.702670116869168
209.20582056151105 229.31258567620142 52.77356992203709
171.1937999124169 209.06668081577718 8.395450387740633
157.69290462532985 194.6430177195047 13.697043869728908
216.47934404195158 205.930187348707 52.26493539986784
172.95810925001783 196.41269243573115 46.320163199353075
214.30289643335863 192.90372602178735 50.27265000649528
164.88699570327043 183.67085964056236 33.88376187231112
168.3789901698366 190.03806143104447 41.328127726931086
209.07061570264588 203.83715511390506 53.89621418175539
216.37319964659352 241.75784627659974 29.667764257624345
216.90500155289553 190.3760628124939 47.955821557127614
217.435021672483 185.66837471975535 43.14250212495552
170.76475827287345 192.7040198994239 11.210096555692715
203.5602217354951 248.27487771989908 39.21742048296711
192.73482574383144 190.97982936752626 51.31775872057421
204.35234434225748 227.14282600568512 53.28758670890204
152.5616804084804 196.04069986400108 32.954652325171004
217.00608853784325 182.76068262031418 39.87289318408465
160.8431447444977 190.9833662212875 12.906973596439844
180.70303513937796 197.99079190100244 49.728018713362545
178.08371542524512 186.68599672964848 43.19721207186197
176.43980244459144 196.37033825672185 47.502304891459055
216.5082673187235 181.6106216948102 30.179049535164467
169.09606308395715 183.31888406998925 16.677685549934154
167.8632466560881 232.85635295711646 41.634843796987866
214.88829986464768 242.4728437162805 38.30014573155246
193.86427425249448 187.0803505282366 13.838557521447207
157.42605199248683 201.22401640581305 14.61711770006433
181.7225492267869 181.71534535720795 41.25927203912248
150.61626100347672 197.73061460536056 22.371913383624843
213.20538556131746 231.09656102086268 49.75230373107671
210.3729246120122 218.927101254475 53.33189788886185
193.545105302901 240.596502625942 48.36364437392292
211.48824595382484 225.175412709419 52.577185854178666
204.86516434062165 190.06522049687678 50.98438339373917
183.6084769057369 245.0999330132885 43.46595926804911
190.0681006293419 187.72054171100768 13.680886760522895
193.85371537284496 248.81853089729222 42.38097436475172
182.327500830536 190.60189757937212 12.179432431049502
222.8937914027766 187.77730522941616 25.789714857320156
188.12688602514226 232.653777403309 51.18204984348848
188.38937048453406 237.96890243501147 48.6885408414232
188.13340043108587 193.05091134276853 50.49737323333659
182.91506156457845 179.18904603708935 30.52396001639222
190.84288397081664 204.97827872438307 53.35727362055835
158.3463781640781 202.1967433750485 43.4722534999271
219.84592938290962 190.17415501531428 19.64459364821157
155.3239761781948 194.09391695096653 36.416058381585955
163.3787377803431 189.18732928044025 38.33314791302592
193.77991347873814 184.97122394290108 48.04608335470762
169.54360252882083 191.9675554968996 43.209996454504065
199.53009785600264 176.21171900219207 33.36207822162254
173.96088760843926 186.8034921348433 41.3450651272336
192.02372805332 244.07662053009247 46.405098419050674
202.09398216518238 182.10010292374503 19.048220964800766
168.79641664322784 184.30741430626614 36.850853940818446
184.33481164712043 203.02642533728434 51.32259260292847
199.65470773890394 178.7849757395297 23.5933584248826
198.47973968343132 247.21092993209248 43.20161572707715
225.335602679621 189.38403070634982 32.02897316737156
183.45120139277807 251.48367680722245 27.455861214676773
220.37194031543004 184.6622448749402 36.82096254463474
195.8207043303273 177.20066385584119 26.773585042638672
212.8414430340109 188.65925861523436 48.99329865790366
160.59916215071908 194.06999695375848 40.82681334751323
217.08350173794688 232.89716328835976 17.62137167350256
187.8410223831706 184.7245708083605 45.72120336858584
206.3592442593253 194.552373308045 52.42519828772504
220.7563762901461 216.07079297443033 14.536468944300038
182.24749269814674 191.0847401243318 48.14642409949917
219.94013391856444 236.37144628202392 26.321345796236894
224.94942809777532 199.7443008332265 18.78618328781478
202.36477022186367 232.4743313084259 8.875844358265777
192.82232147123426 176.79438287776736 29.481368813558912
160.49822036272337 229.9086390968894 20.38290537239026
170.65454556000202 245.090558560349 30.580229223384887
178.78790887508148 180.76964762965352 34.70429457683011
163.88441882239178 236.7767922451972 24.56695065351498
193.4877278606977 235.55120583671766 51.22231744857869
162.4672774282737 234.68187626969637 26.015507109457612
196.2213143170935 189.5596107491862 51.71099094302561
189.32377666230212 189.62272025985544 50.39288934156414
203.92619148233908 181.34630259216485 20.923348178697413
221.0634048895681 203.14755314855373 48.87810905487438
170.65157788885162 220.0765059286323 47.187699882481986
192.59875273797743 198.82937182545132 53.072893634076635
206.03142360727227 238.38854926184933 48.070802424063515
183.08053643070542 188.60662703211338 46.73190312699
199.7698255655268 237.5079923916457 49.63026743369357
210.0370741278539 182.03618674786898 44.03775224669726
207.35676327130997 177.92438347406102 37.83728282245159
207.03221110807021 232.69256361560082 50.62890342001665
212.3704245547335 228.85886771169265 11.636360118472801
212.52967521830044 215.12079072914386 52.66195820305875
209.72623550721764 178.76825223301162 39.54537196867939
222.942212454632 234.79384510523184 30.84353213295547
214.32019369508083 221.21640949569763 52.58844658289497
187.0116245725794 216.05102089486562 53.08493058792112
188.3600822682082 200.70273108080642 52.51040176381248
219.63489960099594 237.85161350549 34.220709659091874
192.7742868180126 218.6693657254241 53.33670016441047
186.41387894749968 208.55694774211779 52.05643207942714
217.6651693721971 239.93273092473777 27.356087951970075
208.71205277597673 247.2949727969948 33.285401658826316
215.3224533316189 242.9261410348236 32.03469952726121
218.12092773216983 224.60602846326765 48.47547451848672
221.24383629515904 232.56806179635126 40.62668690665533
212.5647970085804 180.54253128789836 25.056489115512075
196.370976859788 183.413371185683 47.06817369243305
219.67478138269752 234.88836913605365 40.89759699930161
160.73444532787417 232.04465747425928 31.656280676773104
231.96502069484154 204.63469626766266 32.277062481695474
191.37520178924186 243.8337654440036 12.516178067250246
200.36867924494186 177.44938554776695 39.80422969953126
163.08891197064563 227.38136551968483 16.078199198982485
191.92236492434955 182.53294610396736 18.825548420136798
230.2567974344607 203.11185197815064 26.111072674510616
214.10063341752448 205.06334164945545 10.351841058406938
184.02417623877236 184.29698623697138 17.751944830894924
225.53118199184735 194.9690839344245 21.148280860115104
217.64295618037352 210.6899634695128 11.822943070681314
231.05974583519037 211.12642100451615 30.384898716656174
203.38785537169068 185.58363832058296 48.74305268035696
228.6610999400841 202.69087214889106 23.13275160421423
193.66558052704087 179.31387166416735 22.610121783469108
158.7318226926412 222.55964171019554 37.900790250599776
232.11850752199015 206.99222222179915 28.155374333350156
226.48459086646406 206.48345682194443 18.690390453329144
199.63984610800546 177.47947911415213 26.316942698931722
191.1257515516318 194.35450056272936 51.594347024795226
177.62165968253984 236.69938662050905 10.603253152439715
191.63732354572414 250.78713185816585 22.661812505761215
185.15389572784176 191.95000517632596 49.278341240982535
220.6542726076125 235.9779724678773 35.87087678177904
192.1500783012847 179.83975224533486 44.56358441625736
151.7071070838426 213.38791355098328 35.358706595668174
171.35005414994427 240.7596061618653 39.52129598173061
183.59365103850845 215.53526950056533 5.7969170186921035
173.27844166502732 232.60445811540345 10.902707042810974
194.5346059431619 212.29897866649333 5.137334330119129
187.0271029311506 180.4603858159826 21.12628506314097
182.75676120033518 179.59474285038877 33.86316695558532
158.5071156236885 228.4995632994029 25.46967730992332
220.48949496988462 219.43239325593308 47.54978749983492
179.47417049310172 243.87505049879152 43.53445679860058
227.72488468855713 214.25889836424875 21.273344532992898
163.22280836386744 224.49577950380427 42.190104175826676
219.3629213303787 223.0578962327633 15.367531248287664
161.00877959221285 218.85982172438645 42.51687494612053
204.4747936378818 176.95219010977428 37.25772875646496
228.43253693755 221.41061168808994 32.31418150674333
220.84968918470102 237.2048110747074 30.197659242472643
182.5175666789461 249.85010129956288 34.35951736856186
221.9855393741793 195.85291942465284 48.26913028817691
172.84564239999162 245.14654058723866 23.46049979155039
186.3473340269761 180.0849934148978 41.31502556130469
183.32698080496596 241.76739096473653 45.448967873570204
167.1971915408709 241.35594976584994 23.133679960890323
190.78985604948983 227.49600915615125 52.500423103001076
190.04035422508122 217.2664020131411 4.9245333396609565
219.43668821140443 231.5004006250818 43.221399686776195
227.33875743715606 212.1189643421174 40.92153607540105
188.042397154565 251.92576138708424 24.449715691090073
191.9366040110221 227.0534348407467 6.7773916591938
173.82302184035925 236.3179002382717 12.440489088339886
218.5808572043289 191.40924689361586 17.59130391294151
214.70648841326147 227.92394198989868 13.383660538180271
225.45787650389838 226.8061195588934 34.65139190964841
190.95117900391526 247.09511505380252 42.87898801853879
186.35341895203396 241.2517587769304 46.403577867567556
225.02256711979038 218.0822885210434 18.60448730482472
214.41551551907435 191.09580188570735 13.905875822422855
230.89739372441008 208.78947057100788 34.60844956447953
204.26977326103827 180.9792579722882 44.099538322157315
209.20730937217044 226.1694318616781 9.792714397006153
229.22471839198494 218.84870622275642 31.17738128736842
206.60874741981283 180.0827222460501 23.301755454542732
227.29558238750226 218.16908616626708 38.29924572880463
186.65922768402544 196.120502888344 51.429339717051846
165.95155305322785 236.77238151418896 19.190362774228753
206.71703583574106 231.97921731752797 10.822284486481433
176.3783543006262 248.01959672935465 31.9381636782305
215.16597154517623 182.4502102194338 25.497658660906183
180.30112689279903 218.74031532054667 6.116194802570653
179.6952094141681 250.4289678204842 29.7608944307324
163.92189143524237 234.7220563710509 19.070192124099357
214.8991695254677 187.40224454042854 18.247240829131858
162.1520419582004 182.28462717127098 22.601630458349412
220.7224371640318 188.95498034602278 22.293731790607186
150.84292915416273 206.31633754253247 35.20581029042207
179.6614878773669 179.87268424850458 27.113880195771713
171.29150788974349 216.0656898174445 7.820840404861577
205.19849344371596 176.93864522097772 33.9154251863869
173.94295174706286 239.09245019544582 42.276897829753295
174.1222683402752 247.3612464812078 28.264848630329983
175.2442166392008 242.54184736866443 41.32690236974521
229.92726427709894 212.93435442599042 26.20741369108197
223.36148030841747 186.82659141689217 30.013761641038737
172.6761844267504 246.44334891938544 34.58902139451216
201.79086030807736 204.80532720744387 6.2703405103249255
229.31271014633683 215.99338221365113 33.282661327836514
230.50760784295235 201.73294573427685 35.820396434903344
221.55390065463573 221.19637874306846 16.387307727824627
180.33773506625175 240.81904296111225 44.74364329527013
218.4106360943525 211.17288962889936 49.949412204773225
226.55275776588803 198.8730645610535 21.256391815107985
216.1687813904843 217.0694327472567 50.98169876862058
226.75207591432496 193.0241308662776 26.459465998322674
192.3465109469695 206.0792537736861 5.0881337464111
229.5025789722349 198.6053554095951 35.509247907324855
212.20020363584135 180.41208913525733 40.685976377198045
210.52984277487397 208.2542520499785 53.42656098554481
165.5010668858428 238.79851005452792 23.100098275018304
222.46132973444705 216.01034462751883 46.40758606805595
231.3590358236626 203.84857400001604 29.067487639084444
189.56065172236765 178.34086887843586 24.350924263396912
217.30314458433153 234.5895136640661 19.92575252359517
225.66131794216162 200.45946989034476 44.67268600418631
196.58640253684123 178.932611827542 23.66596939467655
189.2400586974566 235.24752164779125 7.896958240068459
222.74221474162678 207.22498384691193 47.07988249222229
201.7963366234192 195.97940172414002 9.001508077893634
160.4315558683327 231.55982805777168 23.196767003070573
225.64097386775737 220.2787867866494 42.15424529604328
199.67779752013706 226.90705946312184 6.8268559276312155
190.28197328065679 177.23600339217734 33.3764435961178
223.64851187470018 226.47751813521157 41.12808280876143
225.95156469164215 220.94134092693324 22.003982595643702
224.14322345121943 226.74910815417914 24.005200280306628
226.79038203514824 223.96763086856686 33.465533201387345
172.39911880076124 243.17810180332725 19.934983731154848
207.9021625427328 182.75683439235192 20.649273085258464
230.2114527514057 208.71995432438274 24.505949376195876
226.9353791222381 195.26401557535075 37.77198677814527
180.41628732986229 184.47918406735835 42.79265380674737
228.94961223457503 215.8155515110496 24.726275365233608
207.89263806288247 222.77816508232786 54.131921149779245
163.04876531942523 199.58619673389703 44.02417763917697
203.3058672218727 219.27701994081232 54.044197716154315
221.39474191096258 230.1892240485538 22.076420499596953
171.5312566848519 180.1052070642662 28.89849524475112
195.0844188624163 250.816513267424 36.77279869307838
224.30696742122737 229.93479071729158 28.61757185208652
157.13950950375872 196.977333692064 39.358271423226306
215.412774198786 186.97009798037396 45.96921857297711
161.29013691899578 228.0742654762911 18.081473873767603
183.82825010571779 180.37334156579482 38.71460716249773
226.53931424550422 223.2735852406863 25.96527921359876
190.94341322161634 251.2830536521168 35.575853710097384
202.7104783359657 177.54250231662803 26.830880347792608
209.93587019095713 179.07813748866658 24.743655485378437
186.23409010086766 252.362325910431 31.142783932709694
195.2893589934441 196.1314248817902 8.603171642110896
196.24944717046714 247.29580909411527 15.71367703426055
207.8453302331448 179.69194650214698 41.66983680230564
156.79363859111905 224.17435831177923 20.860906301244725
185.90735661520196 177.77243560004675 27.15167724017719
179.06391047196269 249.48424476482637 32.56303179946462
216.46675129342285 192.85244185917742 14.773887955358754
217.29803081843198 181.5691106704518 35.00770946415998
220.84831412204775 227.46482751803828 18.30315651055048
223.2167586049437 232.78592260913223 34.68615700994604
217.52144659314663 185.71444575109837 23.14544672172966
170.53528103094715 181.38121811762377 19.853245958546353
180.315664228441 182.03307787084066 20.706187817304716
186.7556478980756 178.3934739337612 35.410600931213395
175.39771105187972 180.8438830085027 31.87698127245304
185.86962769368566 205.02792805980985 6.884803951254793
153.26987580920516 220.5784739078207 33.97095229592907
177.38494188114632 245.9752688608765 39.329016843601295
222.009809450596 193.44772203448835 45.447249057717606
187.38981276690464 243.9757814990148 44.88654043034671
166.73488719782833 194.88455706327824 10.553444546875143
216.0517160170582 230.7514620263847 16.072332010223843
228.35452409392528 214.9732121583884 37.20250868817028
177.256680505609 212.32347606891054 6.058319462019314
155.55311477987243 217.06889405495934 39.63007910055922
227.3027917726873 220.46074060587648 24.75775744521537
184.12427530909272 249.32397864684253 37.77962504765867
197.11891593036484 251.5176710080653 31.2942635208238
149.54089534017237 207.23209926454575 28.70278192122588
223.5146474323204 224.240849304504 20.30296884752514
221.793174844747 192.87772101441266 19.950195199778037
188.65672013830473 241.40305856342135 10.933931581897841
219.66653088763175 184.71035409576024 27.234534770997605
168.73625045292732 238.8682398432353 39.670141326330544
199.28553806437262 250.33582224232083 26.09435515707294
213.4225090899682 244.30015195944648 35.77913021559415
180.09855871710366 238.6250993718354 10.897961686857265
202.66787794904408 178.81834404428224 23.956843150707716
216.9413938956739 199.2260309593242 11.736954128785069
212.7452600622281 237.71083316584807 17.566713422977468
186.35434264756563 251.02823500270802 34.202818810266955
192.69474683325544 252.0910221105887 29.741573562979934
225.8966277792905 191.394924402972 35.295555636975585
170.4216337832384 242.62697456368358 36.941417481567655
165.44775924823 233.70653773442618 16.860592331849766
175.96802570858034 247.18509441579104 34.88565898460293
173.00691079790587 244.68010118849108 37.546758450971225
184.63775256590992 248.79569667086065 18.72610092040414
183.02455057482354 250.96327551438395 30.537611352476656
192.14617371613167 177.08110222104676 37.38752952940692
190.5019930552707 180.22844779684792 21.91347693409763
181.06031062876704 251.08724969268812 23.55581707356246
177.80506775692874 184.85528587114595 16.616583283166204
151.03330547261965 193.87671573896029 24.45840414078916
183.1610672433078 180.04701728916595 23.980236154645006
221.99961070889307 207.0233216366428 14.95954213581617
228.41548450917034 206.25684572912817 39.917674244058475
196.43352794170707 240.50434111114217 48.48531619457551
152.6108544492795 210.77222044056145 22.04041402299184
172.55524812297904 222.91060792891076 8.601563999891948
210.38290227923335 237.13387823516024 15.683065779050613
149.8072295369494 209.94828899487388 29.447578979902563
208.0901912598742 240.39428373654113 16.373330982044333
201.72106830695466 238.45976839459848 11.440051354381781
153.18106861668448 202.4207124025174 37.610388145462444
210.9920078970189 184.54928071884058 19.52405828003645
201.6460997551845 193.63386530303288 10.20765922178416
198.30020154468355 186.92923263209045 14.627133216382006
198.07273260788767 250.21826489119988 20.346122338673876
221.51194548254875 198.34413048328346 16.41678995467362
205.7678115379666 186.11678105636778 15.959168865259127
161.10128073063967 184.41111659365825 31.58219041000528
229.30332057775348 196.87412318858256 27.74975724454391
169.58971348403585 186.14711245944127 13.887000611482865
150.9031375605238 195.26930514513396 28.790638073987115
154.12434955111456 221.87985224767473 27.43432855336732
172.03283622717325 237.83647497067707 14.442688896600862
154.6893669832616 208.3842104681021 18.260989356633296
154.3799104796128 188.06212349896654 30.583081699822124
168.81100219075273 234.82000498800966 14.814981719194913
152.53319336968735 217.85629190677815 26.305176631272808
197.7519328314321 249.96157449730575 37.29155509381358
202.05590949030952 250.3309321915911 33.94824146134285
220.39118794216918 186.96591503766152 40.55704567259492
156.34486974098374 217.5563438772952 18.903643944772142
151.9833035943138 199.4732293818047 33.6183469506353
166.82843506257362 236.07361890166848 16.566283872576797
199.43257789748955 179.41937896360204 42.74928479139095
190.4513276559347 249.18389225581282 18.87009951066794
169.70372048793294 232.72127846208434 12.996568773353262
209.9924837605296 187.19013036995113 15.203786829054222
216.55548570736713 207.40510873214788 11.323265918492483
164.4323272613147 206.23245546870615 10.859503796974737
166.84789876120868 200.67343911137723 9.92923834657821
223.39701108209613 197.24429041986807 18.573339038722914
191.85708795313323 246.62224253952002 15.658985087209262
165.01785857383157 227.1082837216745 14.352467879737384
193.70704446184934 251.47571802844934 25.266790087817498
216.0044070900651 220.22367869407935 11.56134109117717
221.71578898286552 202.48922105386964 15.028266283091726
157.71200556512403 225.99718434982734 32.29035907786222
172.93050922516963 197.63979785976355 9.491530741454449
171.19992129809222 230.59643773170987 11.630063000751646
204.0495246767488 214.50478255840187 6.311674073520833
160.42976802267745 201.35314911225657 12.476836508092374
168.20050742402054 241.58545524339738 32.803548685706204
179.07519511424522 230.3118310261267 8.087425968663249
171.48952370888793 245.36627675717767 27.367531851317157
172.00463990579678 234.2444612956206 12.50021674639587
150.61631385303514 200.0232684697585 30.304295384198912
150.46988835710957 205.01001210027195 24.642920162817273
174.99713328935056 190.6733820397636 12.034601148807651
158.27954633738725 188.42621541787756 34.944861329970415
186.84894446826104 250.47521404309788 20.70848935020786
203.5061587082793 240.50529902755545 13.258988007807742
164.00137863523227 229.92278257102743 16.33894877558194
202.0405564590175 244.04593418943585 15.130488833968547
161.97736246748184 232.28782868889508 18.944042818714745
195.46309746651986 246.58956327888242 44.290063925187866
173.52771960142712 246.63356521911953 31.30391970224105
167.92803051320644 240.9817539041074 19.97214132926319
212.0531861529784 218.01658859433599 9.749591934776733
198.55543633870454 192.5824702201637 10.528787633777506
215.35535512369646 189.34315204170596 16.175927288463235
163.40861542893296 235.1140324758792 22.001186122443897
207.2998091855208 220.59144032202755 7.558315809261735
218.58089969806528 213.96341926011522 12.837555654614071
166.3133040459996 240.58218804612622 28.626322978964
216.76916816290154 196.51210377943946 13.119569639717609
192.1400552879688 193.1214589658559 9.669541756722273
209.45792419946844 245.39795774000467 40.685530790006474
184.15862996071942 196.17393112907666 9.425154769311161
210.78645336167898 211.21155426597429 8.314068341874247
173.40777207856362 184.09974086383764 16.588168992737632
206.8084829950509 242.56193820699372 46.06424721627726
204.01344823741238 189.3966507495473 13.434135883794939
190.88401406370062 199.2530828537118 7.166051238013458
166.45604649114642 220.51944872867412 10.830161022743855
202.08100865668874 242.76881723097463 46.474680195815516
191.87712618828502 234.20740385098205 7.707200411562187
212.47229535768096 240.79243519856763 43.75351036342274
188.16975263445545 232.28806507164427 7.41451501922127
186.4516267677227 247.4494880747744 41.36764034366598
186.47015723752517 252.28565458721795 28.02044471176262
169.51531611267174 179.77234875416067 24.401612440579882
174.83009749293674 230.73274514668083 9.368005011632553
185.0327885653871 246.09758404677717 14.808602252256856
155.7908781005449 190.32223736719584 33.80433805927244
214.47892781839934 235.12054231037132 46.38660924958207
167.5173746872084 230.8057406029848 14.133783971658481
183.75778096923096 186.29853340592345 45.16994693901212
209.10029088675313 191.747516865234 11.476422753940339
156.13174139134023 185.15407296323752 28.162450728133297
198.62910793980973 243.47443958300926 12.587522125415363
150.01257674595223 198.2542772032792 26.07958631795961
197.5775233135586 181.76244031433473 18.515823388654457
202.35673665099404 176.6548422421514 30.142221632415865
155.08446129011057 197.47300243777167 16.213185443822066
174.55214480434427 205.6005192641837 7.365002678435445
198.77389778118263 199.12045718183407 7.551103134690331
180.66781707018018 244.56939738428332 15.003171695778756
162.63985879318076 221.77365545324915 13.541378996001564
210.05931413674585 205.75542347336796 7.946741216091082
159.00063347437003 227.44209280839402 21.6171992242699
230.61937996841215 209.94545815786614 27.40947141368437
211.49106555682258 234.39948746169856 14.564382989570417
159.81521310330086 222.67948181682587 16.775003129004084
195.70407954399712 222.544233770496 6.059740897741429
223.96349440601293 202.62255196320757 46.188490722796395
179.47057965139768 247.35005187248703 19.755085970649464
203.68725142783487 202.82091633729542 6.88658363700585
169.4780362918589 243.24521559647866 23.725747178830932
193.2327648991382 241.01212233366877 10.684025831297454
177.26969787751884 250.07876441254737 25.9718992268703
212.30280634833022 186.8883888212566 17.15040822087185
216.15233854561146 202.51678126217192 11.439058603569531
192.0054253615808 230.05905232050594 6.979390899959024
152.37089583188748 199.88603182269372 19.296496045571526
151.14536666140873 213.24141960115156 26.521440338938984
149.64040802027503 203.3435236331523 31.30106476876021
224.28122758324247 209.12853914715996 15.955326391230347
187.51209885298553 239.24488502422975 9.103444077569282
181.63412279696087 241.40390234446082 11.686626199811577
175.87319095665546 223.30512319890315 7.667368727960943
189.49231339518235 177.06694160107872 30.178899888070823
171.09914887757583 240.38412752216647 17.391871163950782
181.6043121134906 247.43080692516028 40.86059990310268
168.45786237321101 238.13036084973993 16.672232049401785
176.13994845265995 238.23633430777244 12.701024054410563
153.52046172776076 198.99216826549156 36.69926524941278
174.29658716915452 180.39821362158685 22.73708684974261
208.42408103730142 216.2272411080276 7.495464604080989
175.23949264314848 244.01496392275453 18.44709176555855
222.82475453723754 217.7736136162052 16.3974086503668
226.63281731717882 218.0376200376483 21.151252817387164
228.68103488963604 207.257851611126 22.147269284369422
231.81839963746796 207.91239674299544 31.4252012690089
205.51010897568642 209.94780915482485 6.564905195246178
207.15608918356412 193.61492041356726 10.342595143193867
168.5217248040512 226.72071978261098 12.058873845734436
158.2631985531851 218.7195641553133 16.85210934517707
155.09936369688498 220.58064570722647 22.62063321315977
176.30068369587573 227.3687785705097 8.147084718415002
213.1610004637985 178.79973338552347 33.28829743097391
177.28076015753757 218.9583389254914 6.598554014214243
198.73696190495608 237.76266979405912 10.18630234551134
186.00658994220723 242.6417174652073 11.869831726358909
155.66255820268944 224.35787074549313 28.36824779023729
160.04427392250935 212.7433638285725 13.610053582430409
217.6099389838546 237.39601824939206 23.271839865988873
164.46247394990334 215.94086609827815 10.37628416572777
195.5255829601823 244.11703902790066 13.213557888344592
212.9222224093446 240.54421786540644 21.057488994552738
199.1662493530504 247.74650080448095 18.4465468257033
205.09563951265164 244.77208545744108 18.005304012215387
168.00996782993144 208.45255053209917 9.509221196256673
210.6572485505213 199.1400795605013 8.886142247652927
159.01480408575313 184.74475833150808 19.493897072001335
160.6461031701747 204.84787536312575 12.911286777015203
160.38716220209733 182.75876165744393 27.716825336274443
167.51385371358768 191.81024053711954 11.23978650724171
155.1574129638375 186.84385041310432 21.554682672996016
155.6226258130414 213.1147153956113 18.649530124533296
181.25816802021654 206.73296833094668 6.459469184690142
150.6179071320302 201.87264826026524 23.581253973126913
171.5555982941271 205.82926259442385 8.245004665397932
208.09871798961424 244.8937615692423 22.55544067631555
161.80498087524222 209.8679562548002 12.2929447039693
152.63543449979286 217.00756466059647 35.51842356218147
207.5316658316764 204.40243365177454 7.504022675981771
160.15686080206777 197.95992907457574 11.765813603244954
166.20195390434733 197.80750075633796 10.177577315181395
199.30805927084714 213.17515120934658 5.677221050146659
153.32009220086127 215.67959693418854 22.19478977514055
200.14558378129325 206.9335114967575 5.125374494528745
177.07839260471908 232.67243403934637 9.086421999688588
210.73179319815907 237.2741530121709 48.266688290387
207.68509380235147 243.27207861396872 19.05457095087234
216.0815572091373 240.0700857426059 40.8991738812445
223.0403871977938 200.68767702842456 16.828186088826158
158.62020821807798 187.5346859605822 15.855111582577042
209.60233943123075 246.17325071457574 37.448942632226334
170.69921408890423 202.7355815824245 8.230942742546691
212.01896426936173 246.19306999801037 28.21815053042308
182.51564751940649 246.72800528044166 16.948808019723796
179.15220875627173 241.99702091776547 13.656880670938161
168.77268695976838 226.26797639964065 45.91978638516621
201.45611336391565 247.14145983148242 41.65000912981809
200.07925338104326 183.72184027758155 17.561200604493514
189.4012056224027 248.71101728586106 40.730156470518544
188.27227634823936 223.83776260089695 5.6543528978767
195.60590795290048 202.6633529994666 6.46062592635238
189.32159104846292 193.24600073968344 9.967294830872685
157.34384421400705 206.0887067231549 15.387139207393442
181.9556162990145 224.9218576543166 6.290831726547312
185.20888855481343 193.68336378014845 10.461522231346803
180.8923945995001 195.07199705228794 10.060089939775242
183.51504515642281 232.65373230357176 7.7782213921787795
204.46056142369744 240.94145078002035 47.264627820990334
169.7022750649259 195.45602920060304 10.23041223243959
179.3359358786529 234.63297895307335 9.364620088855169
163.57967449711276 194.5496841366328 10.99897384666236
162.02025638880852 224.4306129184795 15.513953533924063
203.90708464717457 248.1046623065334 23.638949423609073
206.3074239368761 249.13082743214056 27.611355889306694
206.57944746375424 247.26611556712024 25.03556780526399
212.55665803699014 242.98394530008758 24.78386900651444
206.3828022945704 247.0437759349361 40.95564534789466
174.64390987599734 209.42910763295887 7.083549226459206
161.03423633844557 217.4579965745659 13.47525945245477
200.10947868300744 250.5241606962191 30.185527806003815
POLYGONS 2190 8760
3 18 28 29
3 1078 25 1081
3 25 1078 28
3 32 33 27
3 37 53 42
3 38 43 55
3 175 1065 47
3 60 42 53
3 54 42 60
3 42 54 43
3 55 43 54
3 56 55 61
3 66 77 61
3 78 61 77
3 79 62 78
3 74 73 84
3 76 75 86
3 77 76 87
3 78 77 88
3 77 87 88
3 80 92 104
3 96 84 107
3 98 87 97
3 88 99 89
3 100 89 99
3 89 100 90
3 101 90 100
3 102 90 101
3 98 97 109
3 97 108 109
3 99 98 119
3 101 100 110
3 102 101 111
3 101 110 111
3 103 123 124
3 116 108 1009
3 118 109 117
3 110 121 111
3 122 111 121
3 111 122 123
3 123 130 124
3 188 82 240
3 184 224 213
3 240 261 222
3 222 261 269
3 273 229 274
3 278 287 213
3 276 212 242
3 241 260 291
3 278 292 287
3 370 402 261
3 402 482 261
3 298 297 306
3 495 298 306
3 311 314 303
3 314 643 315
3 640 318 317
3 640 302 318
3 315 643 316
3 318 312 588
3 571 547 324
3 324 327 285
3 324 547 327
3 331 285 333
3 333 285 327
3 327 334 333
3 327 547 335
3 327 335 334
3 334 335 340
3 340 434 334
3 354 334 434
3 434 361 354
3 361 379 378
3 402 378 403
3 292 598 423
3 17 10 9
3 150 190 141
3 194 183 222
3 212 221 193
3 180 202 219
3 213 224 278
3 261 240 370
3 276 260 212
3 224 269 278
3 278 269 482
3 482 269 261
3 278 482 292
3 291 377 300
3 377 291 399
3 598 292 482
3 38 1078 1081
3 39 1078 38
3 45 31 44
3 45 32 31
3 73 1053 72
3 76 66 75
3 76 77 66
3 932 117 116
3 967 1002 118
3 128 120 1002
3 128 129 120
3 129 132 121
3 132 122 121
3 132 133 122
3 130 125 124
3 965 1002 967
3 136 128 965
3 965 128 1002
3 136 137 128
3 137 129 128
3 870 941 943
3 135 136 965
3 139 140 133
3 148 138 889
3 889 138 137
3 886 139 148
3 148 139 138
3 154 889 144
3 197 160 705
3 165 166 163
3 640 254 273
3 302 640 273
3 314 310 303
3 643 314 311
3 319 312 304
3 298 579 297
3 314 595 310
3 593 595 315
3 315 595 314
3 316 593 315
3 320 571 313
3 565 593 316
3 322 533 588
3 557 322 319
3 608 557 319
3 593 328 595
3 595 328 325
3 557 532 322
3 532 533 322
3 501 532 557
3 495 326 298
3 516 547 571
3 329 593 565
3 329 328 593
3 503 330 532
3 532 330 533
3 501 503 532
3 326 582 551
3 335 547 516
3 487 335 516
3 336 516 325
3 336 487 516
3 337 336 328
3 328 336 325
3 341 337 329
3 329 337 328
3 476 505 330
3 503 475 330
3 475 476 330
3 473 503 501
3 473 475 503
3 339 582 326
3 495 339 326
3 343 340 487
3 487 340 335
3 453 487 336
3 453 343 487
3 337 453 336
3 442 475 473
3 582 346 473
3 346 442 473
3 432 343 453
3 344 453 337
3 344 432 453
3 431 344 341
3 341 344 337
3 476 427 342
3 475 345 476
3 345 427 476
3 426 345 442
3 442 345 475
3 346 426 442
3 355 434 340
3 343 355 340
3 422 355 343
3 432 422 343
3 347 432 344
3 347 422 432
3 348 347 431
3 431 347 344
3 348 431 429
3 350 429 342
3 350 349 429
3 427 350 342
3 351 427 345
3 426 351 345
3 346 352 426
3 352 421 426
3 420 352 419
3 353 419 437
3 422 418 355
3 356 422 347
3 356 362 422
3 417 356 348
3 348 356 347
3 427 357 350
3 357 349 350
3 358 357 351
3 351 357 427
3 420 421 352
3 361 434 355
3 362 418 422
3 363 362 356
3 363 414 362
3 413 363 417
3 417 363 356
3 364 417 348
3 364 413 417
3 365 364 349
3 420 409 421
3 414 418 362
3 367 414 363
3 413 367 363
3 374 405 365
3 411 374 365
3 410 404 411
3 371 370 360
3 414 372 418
3 413 373 367
3 373 413 405
3 401 374 404
3 404 374 411
3 375 404 410
3 375 401 404
3 400 375 410
3 389 379 372
3 372 379 418
3 380 389 372
3 414 380 372
3 382 380 367
3 367 380 414
3 373 382 367
3 405 397 373
3 396 385 401
3 401 385 374
3 375 395 401
3 376 388 398
3 391 389 380
3 391 390 389
3 392 382 373
3 397 392 373
3 396 394 385
3 385 394 397
3 390 403 389
3 406 393 382
3 407 406 392
3 392 406 382
3 415 412 396
3 386 416 395
3 416 415 395
3 423 598 390
3 390 598 403
3 424 390 391
3 424 423 390
3 393 424 391
3 406 428 393
3 407 430 406
3 430 428 406
3 394 433 407
3 416 443 415
3 462 443 416
3 470 462 387
3 730 428 430
3 546 383 542
3 196 1096 271
3 83 1095 72
3 72 1095 95
3 83 106 1095
3 1095 106 95
3 60 1094 75
3 308 280 1093
3 162 1092 171
3 171 1092 206
3 162 195 1092
3 1092 195 206
3 1091 225 195
3 225 1090 271
3 271 1090 196
3 225 1091 1090
3 1090 1091 196
3 196 1089 172
3 172 1089 176
3 196 1091 1089
3 1089 1091 176
3 443 1084 546
3 932 1083 117
3 1083 143 967
3 117 1080 116
3 116 1080 108
3 117 109 1080
3 1080 109 108
3 253 815 288
3 301 309 815
3 62 1077 56
3 56 1077 40
3 62 63 1077
3 1077 63 40
3 109 1076 98
3 98 1076 119
3 109 118 1076
3 1076 118 119
3 968 1075 282
3 282 1075 301
3 968 742 1075
3 1075 742 301
3 12 4 1074
3 309 1073 293
3 1073 383 308
3 143 545 147
3 147 545 862
3 545 1086 862
3 158 1071 151
3 225 1069 195
3 195 1069 206
3 225 252 1069
3 1069 252 206
3 159 921 152
3 149 1063 162
3 462 1062 558
3 558 1062 381
3 462 470 1062
3 1062 470 381
3 142 1061 971
3 971 1061 932
3 142 1086 1061
3 1061 1086 932
3 67 1060 79
3 67 57 1060
3 90 1058 89
3 89 1058 79
3 90 67 1058
3 1058 67 79
3 1085 1057 41
3 45 1055 58
3 57 68 1055
3 1054 71 203
3 162 1052 195
3 176 1091 1052
3 1052 1091 195
3 60 1049 54
3 54 1049 66
3 60 75 1049
3 1049 75 66
3 83 59 1048
3 33 1042 58
3 58 1042 45
3 33 32 1042
3 1042 32 45
3 52 1041 1051
3 176 1040 161
3 161 1040 157
3 176 1063 1040
3 1040 1063 157
3 153 1039 161
3 155 1038 171
3 171 1038 162
3 155 149 1038
3 1038 149 162
3 95 1036 72
3 72 1036 73
3 95 84 1036
3 1036 84 73
3 72 1034 83
3 83 1034 59
3 72 1053 1034
3 1034 1053 59
3 83 1048 910
3 910 1048 1059
3 152 1032 156
3 156 1032 147
3 152 857 1032
3 1032 857 147
3 137 1031 889
3 889 1031 144
3 137 136 1031
3 1031 136 144
3 96 1030 85
3 96 1009 1030
3 1030 1009 108
3 223 234 673
3 673 234 251
3 1009 1028 116
3 1009 127 1028
3 1028 127 971
3 83 1026 106
3 106 1026 94
3 83 910 1026
3 1026 910 94
3 115 1025 107
3 107 1025 127
3 48 884 49
3 1059 1048 884
3 67 1023 57
3 57 1023 68
3 67 91 1023
3 1023 91 68
3 81 70 1021
3 93 1019 105
3 804 1018 151
3 151 1018 158
3 804 163 1018
3 1018 163 158
3 85 1094 74
3 171 1035 155
3 151 1014 902
3 103 1017 102
3 102 1017 91
3 103 92 1017
3 1017 92 91
3 902 1011 151
3 151 1011 804
3 902 1013 1011
3 941 870 975
3 975 870 905
3 862 1008 147
3 147 1008 156
3 862 1071 1008
3 1008 1071 156
3 147 1007 143
3 143 1007 135
3 147 857 1007
3 1007 857 135
3 1006 69 93
3 17 600 11
3 600 28 18
3 46 1001 65
3 33 58 1001
3 857 998 135
3 135 998 136
3 998 144 136
3 44 996 45
3 57 1055 996
3 996 1055 45
3 163 995 158
3 163 166 995
3 995 166 164
3 166 999 272
3 272 999 281
3 166 165 999
3 999 165 281
3 119 993 99
3 99 993 100
3 993 110 100
3 114 992 94
3 94 992 106
3 114 1088 992
3 992 1088 106
3 179 805 4
3 58 988 64
3 64 988 68
3 58 1055 988
3 988 1055 68
3 106 987 95
3 95 987 115
3 106 1088 987
3 987 1088 115
3 158 986 1071
3 1071 986 156
3 158 1070 986
3 986 1070 156
3 40 985 30
3 30 985 44
3 40 63 985
3 985 63 44
3 1051 984 53
3 53 984 60
3 1051 1094 984
3 984 1094 60
3 237 534 267
3 262 822 253
3 282 301 822
3 11 981 5
3 5 981 0
3 11 1074 981
3 981 1074 0
3 144 979 154
3 154 979 153
3 144 1037 979
3 979 1037 153
3 730 609 718
3 968 1012 609
3 609 1012 718
3 32 27 977
3 977 27 20
3 317 976 640
3 976 254 640
3 277 974 307
3 307 974 470
3 277 381 974
3 974 381 470
3 862 1014 1071
3 1071 1014 151
3 156 972 152
3 152 972 159
3 156 1070 972
3 972 1070 159
3 262 227 969
3 280 966 279
3 280 558 966
3 966 558 381
3 546 964 383
3 383 964 308
3 546 1084 964
3 964 1084 308
3 95 963 84
3 84 963 107
3 95 115 963
3 963 115 107
3 85 1030 86
3 19 961 26
3 26 961 12
3 19 13 961
3 961 13 12
3 308 960 280
3 280 960 558
3 308 1084 960
3 960 1084 558
3 68 958 64
3 92 80 958
3 958 80 64
3 43 957 1082
3 1082 957 1081
3 43 38 957
3 957 38 1081
3 38 962 39
3 38 55 962
3 962 55 56
3 17 689 10
3 17 11 689
3 689 11 5
3 39 955 1078
3 1078 955 28
3 39 29 955
3 955 29 28
3 33 954 27
3 954 46 34
3 185 953 244
3 244 953 213
3 185 184 953
3 953 184 213
3 104 952 80
3 93 69 952
3 102 951 103
3 103 951 123
3 102 111 951
3 951 111 123
3 29 948 18
3 18 948 26
3 29 30 948
3 103 947 92
3 92 947 104
3 103 124 947
3 947 124 104
3 946 1013 753
3 383 944 542
3 697 1021 182
3 157 940 154
3 154 940 889
3 157 148 940
3 940 148 889
3 226 939 164
3 235 938 232
3 232 938 200
3 235 973 938
3 938 973 200
3 92 958 91
3 91 958 68
3 49 936 48
3 48 936 181
3 49 1050 936
3 936 1050 181
3 287 931 213
3 213 931 244
3 287 243 931
3 931 243 244
3 934 905 902
3 905 1013 902
3 91 929 102
3 102 929 90
3 91 67 929
3 929 67 90
3 928 971 127
3 1085 927 23
3 23 927 37
3 1085 41 927
3 47 701 175
3 81 1021 701
3 46 925 1065
3 1065 925 47
3 46 65 925
3 925 65 47
3 124 924 104
3 104 924 112
3 124 125 924
3 924 125 112
3 197 923 214
3 214 923 227
3 197 705 923
3 923 705 227
3 975 922 941
3 115 1088 922
3 41 919 52
3 52 919 51
3 41 1057 919
3 919 1057 51
3 51 918 52
3 51 1044 918
3 918 1044 1053
3 80 917 64
3 917 69 65
3 20 916 13
3 13 916 179
3 20 1000 916
3 916 1000 179
3 934 915 905
3 905 915 975
3 934 928 915
3 915 928 975
3 23 937 14
3 14 937 15
3 23 24 937
3 937 24 15
3 52 1068 41
3 41 1068 53
3 52 1051 1068
3 1068 1051 53
3 160 914 705
3 159 939 914
3 914 939 705
3 753 912 870
3 870 912 905
3 753 1013 912
3 912 1013 905
3 412 606 433
3 606 384 433
3 1059 1027 910
3 910 1027 94
3 271 908 270
3 270 908 293
3 908 288 293
3 288 907 293
3 293 907 309
3 288 815 907
3 907 815 309
3 1059 906 1027
3 1059 1004 906
3 19 977 13
3 13 977 20
3 49 903 50
3 903 1048 59
3 188 901 71
3 113 1027 901
3 20 949 1000
3 202 898 187
3 187 898 35
3 202 180 898
3 898 180 35
3 200 897 232
3 4 896 179
3 179 896 13
3 4 12 896
3 896 12 13
3 1065 895 46
3 46 895 34
3 1065 920 895
3 895 920 34
3 12 1074 893
3 893 1074 11
3 12 893 26
3 26 893 18
3 186 891 191
3 179 1000 891
3 891 1000 191
3 116 1028 932
3 932 1028 971
3 148 888 886
3 886 888 149
3 148 157 888
3 203 1004 887
3 887 1004 48
3 172 894 197
3 197 894 160
3 172 1039 894
3 894 1039 160
3 31 19 892
3 892 19 26
3 1009 885 127
3 127 885 107
3 1009 96 885
3 885 96 107
3 48 1004 884
3 884 1004 1059
3 948 30 892
3 892 26 948
3 542 883 546
3 546 883 412
3 542 606 883
3 883 606 412
3 1086 1083 932
3 1025 975 928
3 928 127 1025
3 69 881 65
3 65 881 47
3 69 1006 881
3 881 1006 47
3 1001 917 65
3 198 880 3
3 3 880 2
3 198 173 880
3 880 173 2
3 173 1016 1
3 173 230 1016
3 267 882 268
3 249 238 882
3 236 890 248
3 248 890 266
3 236 1015 890
3 890 1015 266
3 1 878 8
3 1 959 878
3 878 959 15
3 226 877 272
3 272 877 166
3 226 164 877
3 877 164 166
3 105 719 81
3 81 719 70
3 105 1020 719
3 164 873 1070
3 1070 873 159
3 164 939 873
3 873 939 159
3 710 869 287
3 287 869 243
3 710 872 869
3 869 872 243
3 1067 270 1093
3 253 867 262
3 262 867 227
3 253 214 867
3 867 214 227
3 886 865 145
3 145 865 155
3 886 149 865
3 865 149 155
3 46 864 1001
3 1001 864 33
3 46 954 864
3 864 954 33
3 861 1067 279
3 214 860 197
3 214 1096 860
3 860 1096 196
3 423 859 292
3 292 859 287
3 423 710 859
3 859 710 287
3 126 855 169
3 169 855 170
3 126 131 855
3 855 131 170
3 207 625 199
3 288 853 253
3 253 853 214
3 288 1096 853
3 853 1096 214
3 1012 852 294
3 282 866 852
3 211 848 238
3 145 847 140
3 847 146 134
3 1085 846 1057
3 1057 846 1087
3 1085 1046 846
3 846 1046 1087
3 845 742 968
3 718 769 425
3 769 872 710
3 294 843 1012
3 294 871 843
3 843 871 872
3 177 647 215
3 647 207 199
3 8 838 1
3 1 838 173
3 8 2 838
3 838 2 173
3 184 653 224
3 224 653 194
3 282 852 968
3 968 852 1012
3 1012 843 718
3 144 998 1037
3 34 832 954
3 954 832 27
3 146 834 134
3 134 834 131
3 146 170 834
3 834 170 131
3 831 871 294
3 215 830 3
3 3 830 198
3 215 228 830
3 830 228 198
3 94 829 114
3 94 1027 829
3 829 1027 113
3 40 826 39
3 39 826 29
3 40 30 826
3 826 30 29
3 874 825 969
3 969 825 262
3 874 866 825
3 825 866 262
3 257 305 290
3 305 696 290
3 262 866 822
3 822 866 282
3 220 821 189
3 189 821 169
3 220 851 821
3 821 851 169
3 941 819 943
3 819 1088 114
3 257 264 818
3 266 817 258
3 266 1015 817
3 141 816 189
3 193 221 816
3 816 221 189
3 253 822 815
3 815 822 301
3 231 814 246
3 141 813 150
3 150 813 146
3 141 170 813
3 813 170 146
3 421 812 358
3 358 812 410
3 421 409 812
3 258 811 324
3 324 811 571
3 258 313 811
3 811 313 571
3 409 810 400
3 400 810 368
3 409 369 810
3 810 369 368
3 71 842 188
3 188 842 82
3 71 1054 842
3 842 1054 82
3 160 827 921
3 160 1039 827
3 827 1039 153
3 1020 851 809
3 245 808 283
3 66 841 54
3 54 841 55
3 66 61 841
3 841 61 55
3 70 806 1021
3 1021 806 182
3 70 990 806
3 806 990 182
3 170 802 169
3 169 802 189
3 170 141 802
3 802 141 189
3 399 800 276
3 276 800 260
3 399 291 800
3 800 291 260
3 32 1024 31
3 31 1024 19
3 32 977 1024
3 1024 977 19
3 140 991 145
3 145 991 886
3 140 139 991
3 991 139 886
3 169 801 126
3 126 801 1020
3 169 851 801
3 801 851 1020
3 804 946 997
3 114 829 989
3 989 829 113
3 291 797 241
3 241 797 286
3 291 300 797
3 797 300 286
3 943 796 950
3 31 795 44
3 44 795 30
3 31 892 795
3 795 892 30
3 996 44 63
3 267 791 237
3 237 791 259
3 267 994 791
3 791 994 259
3 155 790 145
3 150 146 790
3 3 789 215
3 215 789 177
3 3 876 789
3 789 876 177
3 250 787 435
3 787 359 435
3 185 786 184
3 786 946 753
3 79 1060 62
3 62 1060 63
3 204 783 202
3 783 219 202
3 61 782 56
3 56 782 62
3 61 78 782
3 782 78 62
3 168 781 167
3 167 781 180
3 168 35 781
3 781 35 180
3 359 780 353
3 353 780 366
3 359 408 780
3 780 408 366
3 353 437 778
3 778 437 463
3 428 777 425
3 425 777 718
3 428 730 777
3 777 730 718
3 967 793 965
3 965 793 135
3 967 143 793
3 793 143 135
3 437 785 339
3 437 419 785
3 126 776 131
3 126 1019 776
3 776 1019 112
3 39 962 40
3 40 962 56
3 192 774 211
3 239 848 774
3 774 848 211
3 871 772 872
3 872 772 243
3 871 945 772
3 772 945 243
3 201 771 209
3 201 858 771
3 70 770 990
3 990 770 192
3 70 809 770
3 770 809 192
3 718 843 769
3 769 843 872
3 57 773 1060
3 1060 773 63
3 57 996 773
3 773 996 63
3 165 768 281
3 281 768 945
3 165 933 768
3 768 933 945
3 786 753 950
3 74 1041 73
3 96 765 84
3 84 765 74
3 96 85 765
3 765 85 74
3 198 764 173
3 173 764 230
3 198 216 764
3 764 216 230
3 210 763 233
3 233 763 248
3 210 236 763
3 763 236 248
3 75 849 86
3 86 849 85
3 75 1094 849
3 849 1094 85
3 425 767 424
3 424 767 423
3 767 710 423
3 178 1045 761
3 1000 760 191
3 191 760 21
3 1000 949 760
3 760 949 21
3 870 759 753
3 753 759 950
3 870 943 759
3 759 943 950
3 281 758 272
3 272 758 874
3 281 831 758
3 758 831 874
3 86 757 97
3 97 757 108
3 86 1030 757
3 757 1030 108
3 871 755 945
3 945 755 281
3 871 831 755
3 755 831 281
3 139 754 138
3 138 754 132
3 139 133 754
3 754 133 132
3 179 891 805
3 805 891 186
3 920 856 34
3 159 914 921
3 921 914 160
3 133 748 122
3 122 748 123
3 133 130 748
3 748 130 123
3 989 819 114
3 750 824 174
3 82 850 360
3 82 1054 850
3 850 1054 299
3 249 746 238
3 238 746 211
3 249 1022 746
3 746 1022 211
3 27 745 20
3 20 745 949
3 27 832 745
3 745 832 949
3 286 751 241
3 241 751 239
3 286 848 751
3 751 848 239
3 126 744 1019
3 1019 744 105
3 126 1020 744
3 744 1020 105
3 0 656 863
3 4 805 656
3 130 740 125
3 125 740 134
3 856 739 34
3 949 832 739
3 739 832 34
3 247 828 747
3 946 1011 1013
3 946 804 1011
3 110 993 120
3 120 993 119
3 1002 737 118
3 118 737 119
3 1002 120 737
3 737 120 119
3 260 741 212
3 212 741 221
3 260 803 741
3 741 803 221
3 705 736 227
3 705 939 736
3 736 939 226
3 205 835 193
3 193 835 212
3 205 242 835
3 835 242 212
3 250 735 286
3 238 848 735
3 735 848 286
3 277 307 734
3 276 734 399
3 0 792 5
3 946 731 997
3 997 731 185
3 946 786 731
3 731 786 185
3 374 732 405
3 405 732 397
3 374 385 732
3 732 385 397
3 254 729 273
3 273 729 229
3 254 820 729
3 729 820 229
3 163 728 165
3 163 804 728
3 728 804 997
3 297 727 306
3 306 727 259
3 297 844 727
3 727 844 259
3 874 726 866
3 874 831 726
3 726 831 294
3 193 816 190
3 190 816 141
3 220 724 749
3 749 724 239
3 220 803 724
3 724 803 239
3 112 952 104
3 360 722 371
3 371 722 354
3 360 332 722
3 722 332 354
3 125 721 112
3 131 776 721
3 721 776 112
3 402 720 378
3 378 720 371
3 402 370 720
3 720 370 371
3 1020 809 719
3 719 809 70
3 150 790 1035
3 1035 790 155
3 194 716 183
3 194 796 716
3 716 796 989
3 10 714 2
3 2 714 3
3 10 876 714
3 714 876 3
3 78 713 79
3 79 713 89
3 78 88 713
3 713 88 89
3 98 733 87
3 87 733 88
3 98 99 733
3 733 99 88
3 902 738 934
3 934 738 142
3 902 1014 738
3 738 1014 142
3 158 995 1070
3 1070 995 164
3 86 711 76
3 76 711 87
3 86 97 711
3 711 97 87
3 299 709 233
3 233 709 203
3 299 1054 709
3 709 1054 203
3 273 708 302
3 302 708 295
3 273 274 708
3 708 274 295
3 205 707 242
3 242 707 251
3 205 673 707
3 707 673 251
3 971 712 142
3 142 712 934
3 971 928 712
3 712 928 934
3 317 706 643
3 643 706 316
3 317 616 706
3 706 616 316
3 115 922 1025
3 1025 922 975
3 229 875 274
3 199 263 875
3 875 263 274
3 533 703 588
3 588 703 616
3 533 321 703
3 703 321 616
3 47 1006 701
3 701 1006 81
3 142 704 1086
3 1086 704 862
3 142 1014 704
3 704 1014 862
3 1022 700 990
3 990 700 182
3 1022 788 700
3 700 788 182
3 82 699 240
3 240 699 370
3 82 360 699
3 699 360 370
3 5 698 876
3 876 698 177
3 5 792 698
3 698 792 177
3 240 926 188
3 188 926 183
3 240 222 926
3 926 222 183
3 697 779 175
3 319 696 608
3 319 304 696
3 211 695 192
3 192 695 990
3 211 1022 695
3 695 1022 990
3 69 694 952
3 952 694 80
3 69 917 694
3 694 917 80
3 168 693 35
3 920 779 693
3 693 779 35
3 161 942 153
3 153 942 154
3 161 157 942
3 942 157 154
3 2 692 10
3 10 692 9
3 2 8 692
3 64 691 58
3 58 691 1001
3 64 917 691
3 691 917 1001
3 149 888 1063
3 1063 888 157
3 5 876 689
3 689 876 10
3 239 774 749
3 749 774 192
3 750 174 863
3 182 690 697
3 697 690 187
3 182 788 690
3 690 788 187
3 247 687 217
3 217 687 263
3 247 913 687
3 687 913 263
3 152 686 857
3 152 921 686
3 686 921 1037
3 207 702 982
3 204 685 249
3 249 685 1022
3 204 788 685
3 685 788 1022
3 222 684 194
3 194 684 224
3 222 269 684
3 684 269 224
3 251 683 242
3 277 734 683
3 710 767 769
3 769 767 425
3 186 681 824
3 824 681 208
3 186 756 681
3 681 756 208
3 295 682 302
3 682 284 304
3 376 569 307
3 399 734 569
3 569 734 307
3 408 679 398
3 398 679 376
3 223 678 234
3 206 252 678
3 225 677 252
3 270 1067 677
3 171 676 1035
3 223 725 676
3 338 675 341
3 429 431 675
3 675 431 341
3 365 674 411
3 411 674 357
3 365 349 674
3 674 349 357
3 205 725 673
3 673 725 223
3 321 672 565
3 565 672 338
3 321 505 672
3 672 505 338
3 377 717 300
3 717 408 359
3 349 671 429
3 429 671 348
3 349 364 671
3 671 364 348
3 408 670 366
3 366 670 369
3 408 398 670
3 670 398 369
3 190 669 193
3 193 669 205
3 190 725 669
3 669 725 205
3 579 323 637
3 637 323 305
3 284 696 304
3 366 667 353
3 353 667 419
3 366 420 667
3 667 420 419
3 312 682 304
3 353 778 359
3 359 778 435
3 976 311 808
3 808 254 976
3 462 665 387
3 387 665 386
3 462 416 665
3 665 416 386
3 247 747 913
3 913 747 284
3 290 663 257
3 257 663 264
3 415 662 412
3 412 662 546
3 415 443 662
3 662 443 546
3 234 1064 251
3 206 676 171
3 558 660 462
3 462 660 443
3 558 1084 660
3 660 1084 443
3 533 659 321
3 321 659 505
3 533 330 659
3 659 330 505
3 418 658 355
3 355 658 361
3 418 379 658
3 658 379 361
3 321 752 616
3 616 752 316
3 321 565 752
3 752 565 316
3 306 657 495
3 495 657 463
3 805 750 656
3 656 750 863
3 318 655 317
3 317 655 616
3 318 588 655
3 655 588 616
3 319 654 312
3 312 654 588
3 319 322 654
3 654 322 588
3 311 661 643
3 643 661 317
3 311 976 661
3 661 976 317
3 1088 688 922
3 922 688 941
3 1088 819 688
3 688 819 941
3 140 666 133
3 133 666 130
3 140 740 666
3 666 740 130
3 950 796 653
3 653 796 194
3 120 798 110
3 110 798 121
3 120 129 798
3 798 129 121
3 412 652 396
3 396 652 394
3 412 433 652
3 652 433 394
3 21 836 191
3 858 756 836
3 184 651 653
3 653 651 950
3 184 786 651
3 651 786 950
3 168 762 856
3 945 649 243
3 243 649 244
3 945 933 649
3 649 933 244
3 943 648 796
3 796 648 989
3 943 819 648
3 648 819 989
3 199 799 647
3 137 646 129
3 129 646 132
3 137 138 646
3 646 138 132
3 1093 1073 308
3 216 840 230
3 255 246 840
3 779 645 175
3 175 645 1065
3 779 920 645
3 645 920 1065
3 1035 644 150
3 150 644 190
3 644 725 190
3 131 721 134
3 721 125 134
3 557 641 501
3 641 551 501
3 145 639 847
3 847 639 146
3 145 790 639
3 639 790 146
3 247 664 828
3 920 693 856
3 856 693 168
3 257 637 305
3 257 818 637
3 792 636 177
3 792 702 636
3 636 702 207
3 93 642 1019
3 1019 642 112
3 93 952 642
3 642 952 112
3 209 635 201
3 591 833 635
3 635 833 201
3 134 740 847
3 847 740 140
3 209 633 868
3 209 771 633
3 633 771 167
3 255 650 245
3 216 715 650
3 309 632 1073
3 1073 632 383
3 309 944 632
3 632 944 383
3 863 631 0
3 0 631 792
3 863 702 631
3 631 702 792
3 565 630 329
3 329 630 341
3 565 338 630
3 630 338 341
3 949 739 21
3 429 675 342
3 342 675 338
3 384 743 430
3 430 743 730
3 384 845 743
3 743 845 730
3 4 628 1074
3 1074 628 0
3 4 656 628
3 628 656 0
3 542 944 627
3 627 944 742
3 296 626 289
3 289 626 303
3 296 283 626
3 626 283 303
3 807 868 219
3 302 623 318
3 318 623 312
3 302 682 623
3 623 682 312
3 232 622 235
3 622 256 275
3 235 621 973
3 621 817 1015
3 21 620 762
3 762 620 856
3 21 739 620
3 620 739 856
3 266 619 285
3 285 619 324
3 266 258 619
3 619 258 324
3 275 313 638
3 638 313 258
3 817 638 258
3 320 624 310
3 505 618 338
3 338 618 342
3 505 476 618
3 618 476 342
3 228 839 715
3 715 839 820
3 228 799 839
3 228 617 198
3 198 617 216
3 228 715 617
3 617 715 216
3 433 615 407
3 407 615 430
3 433 384 615
3 615 384 430
3 407 614 394
3 394 614 397
3 407 392 614
3 614 392 397
3 858 613 771
3 771 613 167
3 25 612 1081
3 944 611 742
3 742 611 301
3 944 309 611
3 611 309 301
3 25 610 9
3 9 610 17
3 25 28 610
3 384 627 845
3 845 627 742
3 730 845 609
3 609 845 968
3 165 728 933
3 933 728 997
3 398 607 369
3 369 607 368
3 398 388 607
3 607 388 368
3 542 627 606
3 606 627 384
3 177 636 647
3 647 636 207
3 420 605 409
3 409 605 369
3 420 366 605
3 605 366 369
3 470 604 307
3 470 387 604
3 604 387 388
3 36 603 1003
3 1003 603 1050
3 603 980 1050
3 254 602 820
3 820 602 245
3 254 808 602
3 602 808 245
3 725 644 676
3 676 644 1035
3 18 893 600
3 600 893 11
3 410 812 400
3 400 812 409
3 959 597 899
3 959 837 597
3 597 837 7
3 833 596 201
3 208 756 596
3 181 1005 210
3 210 1005 236
3 181 935 1005
3 1005 935 236
3 283 594 303
3 303 594 311
3 283 808 594
3 594 808 311
3 820 839 229
3 861 234 678
3 678 252 861
3 264 784 591
3 52 918 1041
3 1067 956 279
3 279 956 280
3 1067 1093 956
3 956 1093 280
3 279 599 861
3 861 599 234
3 279 1064 599
3 599 1064 234
3 400 589 375
3 400 368 589
3 589 368 386
3 866 726 852
3 852 726 294
3 17 610 600
3 600 610 28
3 265 585 909
3 909 585 591
3 265 818 585
3 637 818 584
3 584 818 265
3 293 587 270
3 270 587 1093
3 293 1073 587
3 587 1073 1093
3 223 583 678
3 678 583 206
3 223 676 583
3 583 676 206
3 270 677 271
3 271 677 225
3 289 581 256
3 256 581 275
3 289 624 581
3 581 624 275
3 346 785 352
3 352 785 419
3 9 692 16
3 16 692 8
3 437 577 463
3 463 577 495
3 437 339 577
3 577 339 495
3 307 604 376
3 376 604 388
3 1051 575 1094
3 1094 575 74
3 1051 1041 575
3 575 1041 74
3 197 860 172
3 172 860 196
3 339 785 582
3 582 785 346
3 288 908 1096
3 1096 908 271
3 161 573 176
3 176 573 172
3 161 1039 573
3 573 1039 172
3 595 578 310
3 310 578 320
3 595 325 578
3 578 325 320
3 176 1052 1063
3 1063 1052 162
3 794 463 657
3 657 994 794
3 368 574 386
3 386 574 387
3 368 388 574
3 574 388 387
3 970 837 1016
3 202 570 204
3 204 570 788
3 202 187 570
3 570 187 788
3 779 568 35
3 35 568 187
3 779 697 568
3 568 697 187
3 180 567 167
3 868 633 567
3 567 633 167
3 421 566 426
3 426 566 351
3 421 358 566
3 566 358 351
3 252 564 861
3 861 564 1067
3 252 677 564
3 564 677 1067
3 787 300 717
3 717 359 787
3 310 563 303
3 303 563 289
3 310 624 563
3 563 624 289
3 591 585 264
3 585 818 264
3 435 561 250
3 250 561 268
3 435 794 561
3 561 794 268
3 300 560 286
3 286 560 250
3 300 787 560
3 560 787 250
3 637 584 579
3 579 584 297
3 279 966 1064
3 209 868 555
3 551 554 326
3 579 298 554
3 554 298 326
3 868 567 219
3 219 567 180
3 264 663 784
3 784 663 828
3 582 473 551
3 551 473 501
3 219 783 807
3 579 554 323
3 323 641 608
3 608 641 557
3 117 550 118
3 118 550 967
3 117 1083 550
3 550 1083 967
3 325 548 320
3 320 548 571
3 325 516 548
3 548 516 571
3 143 1083 545
3 545 1083 1086
3 749 544 220
3 220 544 851
3 544 809 851
3 334 543 333
3 333 543 332
3 334 354 543
3 543 354 332
3 221 541 189
3 189 541 220
3 221 803 541
3 541 803 220
3 268 735 250
3 696 305 608
3 305 323 608
3 268 538 267
3 267 538 994
3 268 794 538
3 538 794 994
3 994 537 259
3 259 537 306
3 994 657 537
3 537 657 306
3 323 554 641
3 641 554 551
3 241 536 260
3 260 536 803
3 241 239 536
3 536 239 803
3 237 553 807
3 284 531 913
3 913 531 295
3 284 682 531
3 531 682 295
3 364 530 413
3 413 530 405
3 364 365 530
3 530 365 405
3 391 529 393
3 393 529 382
3 391 380 529
3 529 380 382
3 358 540 357
3 357 540 411
3 358 410 540
3 540 410 411
3 1006 528 81
3 81 528 105
3 1006 93 528
3 528 93 105
3 201 596 858
3 858 596 756
3 375 589 395
3 395 589 386
3 393 526 424
3 424 526 425
3 393 428 526
3 526 428 425
3 395 525 401
3 401 525 396
3 395 415 525
3 525 415 396
3 762 836 21
3 591 635 909
3 361 523 354
3 354 523 371
3 361 378 523
3 523 378 371
3 167 613 168
3 168 613 762
3 402 527 482
3 482 527 598
3 402 403 527
3 527 403 598
3 379 1072 378
3 378 1072 403
3 379 389 1072
3 1072 389 403
3 175 535 697
3 697 535 1021
3 175 701 535
3 535 701 1021
3 265 524 844
3 555 553 524
3 524 553 844
3 191 521 186
3 186 521 756
3 191 836 521
3 521 836 756
3 249 882 534
3 534 882 267
3 186 520 805
3 805 520 750
3 186 824 520
3 520 824 750
3 906 71 901
3 901 1027 906
3 833 1029 596
3 596 1029 208
3 14 586 23
3 23 586 1085
3 14 1046 586
3 586 1046 1085
3 1082 572 37
3 37 572 23
3 1082 24 572
3 572 24 23
3 238 562 882
3 882 562 268
3 238 735 562
3 562 735 268
3 6 1043 1066
3 24 522 15
3 15 522 16
3 24 612 522
3 522 612 16
3 621 1015 590
3 199 875 799
3 980 900 935
3 22 590 900
3 900 590 935
3 263 552 274
3 274 552 295
3 263 913 552
3 552 913 295
3 980 518 1050
3 1050 518 181
3 980 935 518
3 518 935 181
3 50 517 49
3 49 517 1050
3 50 1003 517
3 517 1003 1050
3 921 827 1037
3 1037 827 153
3 1003 983 36
3 897 580 232
3 1048 903 884
3 884 903 49
3 857 686 998
3 998 686 1037
3 227 736 969
3 969 736 226
3 933 506 244
3 244 506 185
3 933 997 506
3 506 997 185
3 555 524 909
3 909 524 265
3 1081 612 1082
3 1082 612 24
3 42 502 37
3 37 502 1082
3 42 43 502
3 502 43 1082
3 37 927 53
3 53 927 41
3 783 498 807
3 807 498 237
3 783 534 498
3 498 534 237
3 1044 601 1079
3 1079 601 50
3 59 1079 903
3 903 1079 50
3 183 716 113
3 113 716 989
3 809 544 192
3 192 544 749
3 51 930 1044
3 1044 930 601
3 51 1056 930
3 930 1056 601
3 113 1033 183
3 183 1033 188
3 113 901 1033
3 1033 901 188
3 215 1010 228
3 228 1010 799
3 215 647 1010
3 1010 647 799
3 935 911 236
3 236 911 1015
3 935 590 911
3 911 590 1015
3 973 904 200
3 200 904 978
3 973 22 904
3 982 823 174
3 174 823 863
3 982 702 823
3 823 702 863
3 534 775 249
3 249 775 204
3 534 783 775
3 775 783 204
3 766 723 217
3 217 723 247
3 766 664 723
3 723 664 247
3 664 668 828
3 828 668 784
3 664 549 668
3 668 549 784
3 272 634 226
3 226 634 969
3 272 874 634
3 634 874 969
3 207 982 625
3 210 854 181
3 181 854 48
3 210 887 854
3 854 887 48
3 376 679 569
3 828 556 747
3 747 556 290
3 828 663 556
3 556 663 290
3 217 539 766
3 766 539 982
3 217 625 539
3 539 625 982
3 218 436 766
3 766 436 664
3 436 549 664
3 1056 515 601
3 601 515 983
3 1056 576 515
3 515 576 983
3 1043 514 1047
3 514 1045 978
3 242 680 276
3 276 680 734
3 242 683 680
3 680 683 734
3 766 513 218
3 218 513 174
3 766 982 513
3 513 982 174
3 601 512 50
3 50 512 1003
3 601 983 512
3 512 983 1003
3 899 511 14
3 14 511 1046
3 899 559 511
3 511 559 1046
3 408 510 679
3 679 510 377
3 408 717 510
3 510 717 377
3 799 509 839
3 839 509 229
3 799 875 509
3 509 875 229
3 507 438 1066
3 576 592 438
3 438 592 1066
3 200 504 897
3 897 504 1045
3 200 978 504
3 504 978 1045
3 879 900 980
3 1046 497 1087
3 1087 497 592
3 1046 559 497
3 497 559 592
3 36 496 879
3 507 1047 496
3 71 494 203
3 203 494 1004
3 71 906 494
3 494 906 1004
3 203 493 233
3 233 493 210
3 203 887 493
3 493 887 210
3 959 492 15
3 15 492 14
3 959 899 492
3 492 899 14
3 6 491 7
3 6 559 491
3 491 559 899
3 625 490 199
3 199 490 263
3 625 217 490
3 490 217 263
3 178 489 970
3 178 761 489
3 489 761 7
3 858 488 613
3 613 488 762
3 858 836 488
3 488 836 762
3 970 486 178
3 178 486 231
3 970 814 486
3 486 814 231
3 1087 485 1056
3 1056 485 576
3 1087 592 485
3 485 592 576
3 1064 484 277
3 277 484 381
3 1064 966 484
3 484 966 381
3 592 483 1066
3 1066 483 6
3 592 559 483
3 483 559 6
3 277 481 1064
3 1064 481 251
3 277 683 481
3 481 683 251
3 1047 480 1043
3 1043 480 1066
3 1047 507 480
3 480 507 1066
3 208 1029 218
3 983 478 36
3 983 576 478
3 1056 479 1087
3 1087 479 1057
3 1056 51 479
3 479 51 1057
3 980 603 879
3 879 603 36
3 824 499 174
3 174 499 218
3 824 208 499
3 499 208 218
3 784 477 591
3 591 477 833
3 784 549 477
3 1044 474 1053
3 1053 474 59
3 1044 1079 474
3 474 1079 59
3 1041 472 73
3 73 472 1053
3 1041 918 472
3 472 918 1053
3 629 471 256
3 256 471 289
3 629 296 471
3 471 296 289
3 435 469 794
3 794 469 463
3 435 778 469
3 469 778 463
3 399 468 377
3 377 468 679
3 399 569 468
3 468 569 679
3 296 467 255
3 255 467 246
3 296 629 467
3 467 629 246
3 909 466 555
3 555 466 209
3 909 635 466
3 466 635 209
3 807 465 868
3 868 465 555
3 807 553 465
3 465 553 555
3 553 464 844
3 844 464 259
3 553 237 464
3 464 237 259
3 283 461 245
3 245 461 255
3 283 296 461
3 461 296 255
3 22 460 500
3 500 460 879
3 22 900 460
3 460 900 879
3 879 496 500
3 500 496 1047
3 231 459 178
3 231 580 459
3 459 580 897
3 235 458 621
3 621 458 817
3 235 638 458
3 458 638 817
3 178 459 1045
3 1045 459 897
3 624 456 275
3 275 456 313
3 624 320 456
3 456 320 313
3 275 457 622
3 622 457 235
3 275 638 457
3 457 638 235
3 1045 514 761
3 761 514 1043
3 232 454 622
3 622 454 256
3 232 580 454
3 256 454 629
3 629 454 580
3 629 452 246
3 246 452 231
3 629 580 452
3 452 580 231
3 597 7 491
3 491 899 597
3 8 878 16
3 878 15 16
3 16 450 9
3 9 450 25
3 16 612 450
3 450 612 25
3 290 451 747
3 747 451 284
3 290 696 451
3 451 696 284
3 285 449 266
3 266 449 248
3 285 331 449
3 449 331 248
3 331 448 248
3 248 448 233
3 331 299 448
3 448 299 233
3 332 519 333
3 333 519 331
3 519 299 331
3 360 850 332
3 230 840 814
3 814 840 246
3 761 455 7
3 7 455 6
3 761 1043 455
3 455 1043 6
3 216 650 840
3 840 650 255
3 973 446 22
3 22 446 590
3 973 621 446
3 446 621 590
3 978 445 514
3 514 445 1047
3 978 500 445
3 445 500 1047
3 36 447 496
3 496 447 507
3 36 478 447
3 447 478 507
3 245 444 820
3 820 444 715
3 245 650 444
3 444 650 715
3 970 441 837
3 837 441 7
3 970 489 441
3 441 489 7
3 837 440 1016
3 1016 440 1
3 837 959 440
3 440 959 1
3 814 439 230
3 230 439 1016
3 814 970 439
3 439 970 1016
3 507 478 438
3 438 478 576
3 500 904 22
3 500 978 904
3 833 477 1029
3 1029 477 549
3 218 1029 436
3 436 1029 549
3 332 850 519
3 519 850 299
3 844 508 265
3 265 508 584
3 844 297 508
3 508 297 584
