# vtk DataFile Version 3.0
A great-looking cell
ASCII
DATASET POLYDATA
POINTS 577 double
189.6243925176277 101.4668560816496 15.017774905640222
190.2633450215503 90.63241657676782 16.654681889134306
187.8292819388577 89.00474991782268 9.381235381136674
202.8486509080255 86.17484159760399 11.866487249599608
187.80258367989245 89.57433821393379 12.618324504141361
187.4012477417373 93.00586813685874 -2.9211112551096727
193.89002164285213 88.06496099527978 -3.157147932233889
192.08136754789342 85.16965620042606 7.805063727716946
194.60071138717197 91.73070233264323 -2.961743605573205
200.44359866239827 85.04274202189151 3.8811492150746765
199.83569799079248 104.19463291991106 4.342184758846483
200.59366473152022 87.23217946424514 -2.8857543975917506
203.02366474142903 85.89603833365142 3.3894809793306777
197.214399983079 84.6209815899552 4.293834493348241
191.90137315774763 87.76916748085797 -2.971625938493566
189.4933606548474 87.34250495156019 15.03596606254379
205.67004448306926 96.27649023779736 4.194120555113276
186.48784238076837 92.61673083974168 1.5475048937271707
194.66698020696927 85.22182587015718 0.06688775198329339
192.0968505383111 94.62202446934606 -3.1445232537054566
200.3743603378741 85.3477279586071 0.15167249841293926
188.91989121226536 87.50379364904873 3.515597379707528
189.69509552193313 86.49034182421777 10.748337848073724
193.74860674690268 90.64404495019922 17.834056232093715
200.6240999255538 86.08723483712063 -1.461517454087375
184.6761554216815 98.03661359533845 -0.5023010080196311
189.97400646588864 100.9078300007999 -3.2352417529915094
198.51961307765012 102.18068439844946 -3.2306250105706575
187.66328253723736 105.84089737621444 -3.1479830775973654
192.07212799853235 97.6274406041719 17.333741134770857
185.42719180950934 98.97954682877 -2.950604697446243
190.8291350583632 85.60705367635956 6.262790661410939
191.8265224003988 89.63636310469649 16.88627121436463
186.48415063545306 94.45874891739146 14.769906099846608
200.82072228384507 100.33780037164867 12.90762313399973
184.7451637402998 104.81119198635348 -3.212231834849133
199.55115367240293 109.52843658737085 -1.7542119753215861
196.14784169991898 90.93153033005217 -3.1692803423387055
196.00494678328414 106.4008887750754 -3.0103403645623805
193.79752412097406 89.9930386645707 -2.937021879799236
188.1879875082612 97.76388673688386 16.45807755959159
199.81821146383848 102.72038563550116 5.5164919857214025
188.5193423278376 88.42979207093784 13.586628864598078
200.8634571920928 95.90792616514653 -3.1127139335072727
203.29613303845613 93.32876674067602 -3.0004132444513534
191.66694493143444 102.93076101726956 -3.211286634243399
194.12668911921776 86.56792177901005 -2.2370412185141917
192.74990064971016 92.7037897967007 -3.0478515482736297
188.29262931138928 89.5858481814806 0.9929632717225956
205.84520117914758 89.45594012280796 -1.5140896539462787
190.3444902193305 87.358988131983 -0.8969615209424849
197.4752240482314 100.08333740277634 -3.0145150384360675
185.35023590715866 95.72070815631037 10.760111621954449
184.7975455956645 96.58282591363388 1.2839649995508742
203.44036371785387 95.94153879566802 -2.9630319887055467
193.82428220361507 102.0163455975478 -2.9911097139775618
197.79419140092045 86.36045632944557 15.850904898786997
197.99873684199525 95.09723427840606 -3.1666693454875703
203.6645193461648 87.28502359005206 15.93669756459832
199.136322789833 97.91473478909381 -3.225965860597628
185.978663037419 94.21461243257423 -1.553200823038189
198.11672866875378 92.38534836549991 -3.186099004558064
186.62051672845345 92.02067670397591 7.626768465954661
186.36549927261123 99.98802777772505 13.464620180720987
198.93195343799962 85.01284683835348 2.650410544847709
200.81397103841354 103.37872889151679 -2.998543990656798
191.48210283539095 105.05133097072913 12.379581487304614
201.88897063877806 100.01258165826884 -2.0093914616064144
192.89209684923074 85.10032514798944 5.249753872277318
186.69633497633703 92.18099000522953 10.843440032187102
190.29206324616442 116.58954758786959 2.0020894389820807
201.63551016092094 90.95439348581323 -2.9906447953448496
185.28453112255778 95.58661858546914 3.537818977868667
202.55718014172646 85.91304931297455 -1.228146338730884
194.86490694575963 99.97656357357897 -3.0813481524191477
196.5645567383858 84.58337482646827 6.677141712627299
192.45088853492655 100.30405280462855 -2.991763792083025
193.0103011244055 85.87474596348513 14.85453914277185
195.6593493871294 87.14372901666427 16.776043440502594
207.10699420156948 88.45840013602559 4.204554373077788
188.8012428946756 91.09087933129837 -3.1302497982221285
188.66113143967598 88.925250738167 15.154079093622734
206.62784282604468 87.92340259320004 10.673883051511803
192.09145897518195 85.40929689066186 3.4213942907328847
187.01838320794198 91.10964356026643 4.549084923268267
201.8430197931696 85.605488123955 8.10523681047305
199.63088178496878 101.79788960186242 11.5992527167472
185.7269899842199 94.22229986468807 7.499402706189631
202.0188285423046 98.41749294918229 -2.9384204453330582
200.52034789178592 85.52375738549523 10.616894378386048
198.02369964754277 104.44782193061745 -3.0248606886534644
196.02923828678252 97.3472314690633 -3.137087594520143
187.36906428818418 92.04229100207105 -0.3394933330195787
189.90057644636246 86.20696712893556 8.30467363901236
203.37837384351897 98.99107637852802 1.760225432687006
202.11502612148593 101.54513529532913 -1.3750390353682715
196.06350977570045 102.52815483388702 -3.013619478386094
183.76962154661848 99.80265340511721 1.5310155650915322
200.61280350030708 87.36317433929965 15.655831087372214
195.15000741461512 84.59197168899544 4.510625938478921
207.77415564893252 89.08556252566339 8.47234989847247
204.86841044799831 97.46872817273024 0.4258147984395722
197.6841375065674 84.81732123297948 10.84804620493629
195.85001728132963 95.39403135974919 -3.138084896530009
208.2166482273394 93.03873792409249 6.298418967315873
208.2266820329885 92.48491880417195 3.9374476695065024
206.76070844834464 92.12658500180807 -1.8546404298532972
199.9630185584533 90.8077440328833 17.26471833326929
206.9298033801378 94.99110993524317 5.082223330696954
186.09797286210056 93.10973676279168 8.685577513078327
182.2714091429755 114.81997411219905 2.121861977923312
192.8817546706157 85.10242409535661 11.622834976481274
186.1341771407103 92.9893273062742 6.198260548524504
194.19736767215713 84.61737722206088 7.386750116201909
203.90138452310634 86.44069257394618 1.5995176704088039
203.05703815327647 99.47643493160606 -0.6889827228320472
208.35690749515442 91.72813582246128 11.077895705641822
195.06952044644868 104.45580709736298 14.865145519177602
189.02643492778412 95.88389016709246 16.98836008442036
195.4197796653768 94.12858411101159 17.536802930280505
203.04175145148716 98.32756540000709 11.384675601591965
187.19692418313133 90.99660206781678 6.754957556219863
200.3408455061186 100.52989385342765 -2.913131168777277
194.63424760436735 97.75386855546797 18.92815741437999
199.7058866221688 93.12498449089347 17.43970330659902
192.49061641711197 95.96233822183233 17.779845483354467
190.00939815835025 100.3697024643796 16.39725145806575
201.73527019089056 103.89957858664393 -0.06791325730309361
198.2388170664849 97.46519110382737 16.453917618152385
193.33333389469226 97.86302431191105 -3.119619285180642
204.4816606248218 91.10705416373224 -2.9767252045278574
204.5807096004256 86.58365113786222 4.393901435531456
200.47437644704846 86.0085201754933 13.247932788487699
205.92481108923516 93.00098670266846 16.24065743601578
197.64360639997753 103.45964147239494 11.380631243307064
191.3192074232262 85.76989019489541 1.7852041887402619
195.91251941146973 106.35113832563324 7.575438347742467
198.58896384218733 95.36639791183401 16.820381003088112
185.3771516306731 95.4010336589815 8.874424376283548
190.23300246670902 94.09077108312178 16.993929709841307
186.23645469958987 93.23995814542005 12.881627626045098
195.6879500205206 84.67359156321 9.079633737316053
203.8124050479915 86.2219629678113 6.779797910494174
187.41503687084472 90.16188654581612 10.997603199410234
195.15002268414017 100.8847608590438 17.227512886391835
187.01923830898156 91.2237638895423 2.1848283885262902
205.73548784586845 94.45342751029666 -2.534111434639692
194.1081053465035 104.27332391032581 -3.060847534101621
190.72434020491383 107.56777059594076 7.790071834157369
196.60511948210186 95.22406655044067 16.997459366962946
184.37855229476784 99.91408457980671 4.597641848434449
195.61336655608494 93.36745721258931 -3.1124317992275197
188.96773056760304 110.93239928947071 6.566425445154143
189.81996514095195 104.13815102894436 12.266956657083908
191.30860266629986 90.47347645495432 -3.0278622475245243
196.7951363387027 111.07078122144267 3.6635913792058648
195.98959510974927 89.40748197533017 16.93754997920992
186.24910260749454 97.81350839362 14.82325977093403
191.11418802680643 85.84821029601763 12.147437054183124
199.38566268837164 101.17619093835056 13.864375503888361
191.9860268962411 94.29909426843243 18.15057591112715
201.16587748828098 94.70791696161365 16.60616266502147
193.74629300741 95.09983791423227 17.945973008136505
193.60798054639037 96.89581044599026 18.10916106122976
195.3073856927514 96.24487413816136 18.09781544635859
182.0339026517169 109.06917396863565 10.827175676594246
197.6133401819917 85.01449669257845 0.14109027211311367
201.11574280638723 89.1056486642353 -2.9045776941296184
188.4307260569052 88.23887778336704 11.41347715982052
186.6891137049371 101.52491723728625 11.780133897770583
180.7659108255872 101.9155971755613 6.889519625048195
184.6277014398845 111.79213544839666 -2.8973921923296224
172.11862432369466 108.66033478067445 -2.9424536385279048
204.45403268323247 86.5438327374478 9.37920907926751
187.2748662371765 101.24212665893174 -3.033082484870346
186.97770995860984 106.80890066352133 8.264619856522112
187.9339405876467 88.99888329922568 5.609207351813594
197.75687455195677 111.32742555458229 1.8201889474097583
202.37273118757076 106.19926239931982 -0.09333674014733317
202.30710451578148 92.33359152281017 17.916890804252148
196.20914937380303 85.0800952941738 13.12588115252652
192.75664850866056 112.22101408628612 -3.0650662172546377
204.42608745325268 92.76752015076686 17.629500498340292
190.638422045848 85.9100045099152 4.088007543206748
194.28741985286067 116.74012042440653 -0.5675287138581235
171.79167642734933 110.35318889738461 -0.14693837263028006
187.54111829441297 104.56004069283956 9.472882105640231
175.26598466219627 112.77665542392059 2.9189186103051936
202.48656808943554 107.28495502058362 -1.280405218501797
194.98433450409857 99.26132053951882 18.280929094683113
196.3429020888608 114.7744545448622 -0.34070756196935026
193.29130447827913 114.52631909958328 4.574615093014068
192.32145341344463 99.28669241160284 17.603858065054204
184.35361292300394 114.34435292541869 -2.6252528058804736
199.09904665537235 84.97266574456852 8.141314702906952
206.40674975129988 88.29727965089256 1.1474426447197486
199.90515766912355 105.13570592564109 -2.9288798867577497
192.45977110640575 85.71330482380485 13.207482803626213
179.04655445411234 104.31216528970349 8.533546706319395
192.27283336025562 112.65129342280471 4.730485028779438
185.5458848126604 95.8631935856146 12.81332449121941
201.72842454963538 108.42420111333806 -2.770663317753362
185.9412752825507 94.27818836328728 10.814932484710216
189.32025301893705 88.6906171090725 -0.3426844100324078
184.89254546612625 110.15220157072118 8.883583918582103
191.6763966040013 115.88065539790452 -2.9619675791622466
173.76239985515372 111.55512116345919 -3.185746669590127
200.5604346626075 85.0715772902171 6.682630586490287
173.79810520587563 113.71287615934094 -0.14437268794611202
187.06526218112774 91.00052287545826 8.857647739460118
192.17796187325055 116.52726262169568 2.766846228828116
195.6267312058146 91.92366464284771 17.060815935779512
197.30524570918692 104.93145473825757 7.602533713106019
185.0389607864588 97.80400846124742 7.610887510982994
199.18112184239885 107.00936341245442 -3.160064509396538
180.41310263506432 100.52469762357876 -0.9575175425432272
200.94822253897894 103.34939721623955 2.41348547530645
179.0726751196621 108.80648377775162 9.90861672544795
196.01051703953254 104.41060664325282 -3.0583482901438663
205.79909333160847 95.1351660040233 10.40169104342277
183.78079579355327 114.6350648718492 3.164748106336123
171.9477644315218 109.8312032468876 1.711328374065036
171.85252511139072 110.8431931684159 -2.202838451699427
188.45411877422336 89.91997713573797 -1.0693439317100066
193.85604390148404 95.38031063196811 -3.149074240586042
177.44359050065543 104.61247496629146 -3.1011138502427573
188.50005661575585 115.83572582792816 -2.992176303339302
178.22595889203703 112.7350860110471 -3.1008576294677157
192.46239905695631 108.43724703923642 -2.933669113067004
199.90694890838853 109.99383020409364 0.22689945120894622
190.9094224948708 117.00321142271642 -0.3926717809667766
190.90741917526455 106.07088617328512 9.365516352321562
192.92258865056735 117.05933220579968 0.9385438962902031
197.78757719297377 111.3393681345707 -2.8999931334433557
196.53190117978383 85.95025232855463 -1.9930296981869988
198.73854803079726 103.02662955493618 9.036080639554491
196.16174044906478 110.26526617208268 -3.1065275776422743
180.3154649266731 107.81745719039797 11.001534819305167
174.45980633964385 113.55536614072622 1.5824092097943256
176.0004976993455 111.98094289547095 4.23299594730374
195.46171598232763 114.79413482176632 2.5336463023033278
195.83377672072828 105.5512272792008 9.203328691559351
173.86867195783194 106.44010202097415 -0.33904636122882803
190.422550288864 114.74208908996462 -2.8916273094236016
199.37902605948815 109.8327814042238 2.3912877880858097
203.8285020197232 94.58606885724424 16.914896086930582
195.42934821305232 115.93135660571274 0.868615780594323
196.88960892437686 113.49120328637882 -1.651179191839527
180.82589679528667 105.52788667255426 9.869689933972472
190.024776249068 89.21353742661167 -1.905923139922066
179.98389133853206 113.12231221012985 5.8054489794371555
180.61532625157025 101.32977678986892 5.482842780181454
185.83169950610838 94.26609559526908 1.0449372735373503
191.561506356199 115.20634251459225 4.028284055280154
196.17200095598804 84.6253315204779 2.335725433647612
173.4527318167664 113.29107206213524 -2.0480019220793366
181.33869445572293 114.80993560758934 0.4010571849549971
181.46881738916852 111.8770836429329 8.040445746137667
192.12901129261047 85.98021243679956 -0.6231045633858149
184.22942879332874 113.4198371170899 6.404452400748069
193.37218489650857 98.56722468890877 18.367264772274634
190.6307338038704 101.81637602898235 16.281451290112447
176.24990307763528 106.12333166164885 5.441806648203445
198.42251312358948 105.30948260364944 5.651687163186047
178.79763627247306 113.89514773197858 3.241966577588338
193.50281037531064 84.75878870252168 9.553525868633105
208.0625791798388 91.98646487895395 12.797632825832984
194.11134919392865 109.28098607710508 6.557411252248853
201.76470784428585 99.85208532096479 10.916470897650727
199.24916169145683 107.01319805981966 3.9709876893594354
202.81274396814584 99.51185201045453 4.125932729433557
201.88247117990753 100.39845266492571 6.107014549474312
188.61257158521656 88.45878561653957 2.2066126808946547
197.49321709849477 93.24516559490964 16.95723205751633
195.93722276799264 88.30376800798196 -3.0160663251990925
196.85936825139737 96.93548931526608 17.22111381361286
173.54094155053528 111.6921259497975 3.2902589988939943
207.382674725179 88.8421357282961 11.929718852936587
206.468517197555 90.7892552766004 15.969358654764626
208.33664425293156 90.53569198289982 9.708658148373353
205.25329201343965 96.45302699251012 -1.6723796189497167
190.61308254274792 105.19788368617834 -3.05095419566016
190.25174718596875 105.22636179304848 10.722572553832892
193.3882725504953 103.83439723499477 16.05230431348469
184.5003352960652 106.35853165526852 9.663789592602715
207.30746517521345 89.751278411635 14.726100969194526
201.54318033524845 105.79037467923789 -2.236521529613064
207.5149315735778 88.71868099458588 6.3750130409754515
188.71364653394878 105.75799768664865 8.752365183465304
203.33534845644655 98.65707365309453 6.615292696198512
185.70924825829445 101.21588664155728 9.689642006286324
190.10411367645227 86.64761643941878 2.650610193936173
188.2383793274406 102.95307399188972 12.035014451802956
188.05667877246952 101.50206562668002 13.623469367640853
191.0662195525085 103.95171499992581 13.82533680681696
194.85202711092347 111.85984742274974 -2.9668278656708837
174.24990836698987 109.50533121659159 -3.1736784249776826
198.18165507490767 87.23779011586326 -3.0193579102451404
186.10876214375216 93.11065001683465 3.404087526834526
208.37066588332655 91.91387451973256 8.518755843375008
192.84717344758474 117.18293496354796 -2.0499273880474655
185.34191314070705 95.3902998980136 6.240452903872124
175.74093647873178 114.0317739432263 -0.6576441479418884
206.95989927815657 93.89057704120478 -1.0469624575263374
191.86187149256105 103.90515030532396 15.281048297537904
197.25495687849417 84.69915132644692 8.691381399212236
187.1500418776385 91.18509609297475 12.766741987432221
204.74421183856114 87.34880945654739 -0.8018159701536244
203.27893048722953 88.45369506810766 -2.9363331797879284
208.354379210786 90.49380199877952 5.966934775727102
178.99520625120266 101.6219262296442 1.6514970875643635
204.38820200687297 88.5187288887068 17.44360358047624
187.36378832134454 95.18127011498274 -3.1131407098664
192.92923262081274 104.70953368792124 13.991167724740718
200.38059926220836 89.14751688788857 16.57579875258261
189.6137877942602 87.48721064186407 1.248892293587198
192.8976828827914 106.58727134625542 -3.014068015876249
185.400676434255 113.12264374026728 -3.1093406475160776
204.30972285897445 86.97132665847126 13.67406837501669
199.8169818990377 91.59897110571873 -2.986078436879682
196.75811564919766 113.40716960324637 1.4565905090980489
191.91770674397023 102.67195724433599 16.360755835034748
190.74063610212804 102.84065851743756 15.137772652784772
176.7713961784672 103.48962603357703 -0.11128954131848598
200.96057104266728 98.15839317041947 15.048649185116792
206.26517592244429 95.60981194526686 2.414147916204457
198.94420681566208 89.71343255067485 -3.0575012004203965
196.9846367246115 99.24335335766487 17.166972967080053
185.07231697864617 97.44812473729743 10.475307740945345
178.55595444021085 109.42660816444507 8.221897544670677
192.56735154375735 106.62376253753501 9.070493355974346
191.54353399711025 92.05392977643469 17.36008499132476
182.32572633443647 101.64968900261633 -3.044396758601433
185.92873938686245 115.48429544939081 0.04718194641493358
192.15623411433032 110.302267406069 -3.0088434534150967
177.2379459750462 110.69575517109047 6.223201185639615
174.9479752087859 107.07973773442437 4.213730190926252
193.49827146715182 84.74807903957176 2.573845757649123
190.32249589781438 116.74861918141013 -2.348929901220804
188.37135908076434 116.41957296252215 -0.5393464231027764
185.43967539694367 99.30537635021449 9.225292515449471
179.35087553017522 104.18129538107566 -3.109235157423313
176.1250499804695 112.08853258486226 -2.934183615960947
177.07757620878417 109.1419132658138 -3.0966168828907312
202.45589608852174 85.81306917063934 10.001833799245288
195.51722325605712 115.89612714759774 -2.036012068964912
187.22371698399112 95.99881987216065 15.8516782544218
193.46799020033427 102.10530647299356 17.313007540008854
200.53320470146315 93.42561639156564 -3.0966624762275536
173.41603250960605 106.8673962618607 -2.661741284051756
174.8251169568117 109.83501832585934 5.304919625409736
195.86342599655134 97.91594618540044 18.168532429399068
177.8515948995884 114.47071434721154 -2.473999296369082
180.96344558159217 110.29517032929698 9.564912908447754
187.60870872090172 92.19151298847049 14.817662472194497
180.4761671846425 114.1025688150166 4.19404820262887
194.68615308352037 105.20240480712927 12.77084148712237
191.84081934935898 100.79410419243534 16.97768221528977
188.1488108117695 94.0721942015912 16.250549211090306
181.2118405563354 110.69833412829061 -3.0069799270694015
185.9659878383845 105.28422934967126 8.852581235707259
177.24318310474246 104.88068413275985 6.659387181351066
202.48569883946797 96.4507620283483 15.19141941432446
175.81668726385686 105.20681663517318 -1.8032116010566877
201.51807136130552 85.59259216642391 2.4941634403829887
179.68411256501062 111.70173704416204 7.137456483664517
178.69537472349162 106.8615618563275 8.811247705567142
196.8729546402418 101.54051046166698 16.480656357068565
190.96825617245884 95.9075028873874 17.473448709116354
185.9887160966217 96.0114665678679 14.791923025734617
177.57820796804126 102.96065913771676 -2.238315001455732
202.00528712138924 94.64361529392903 -3.0992124912607633
179.61799812859985 108.60051679584694 -3.082966811705179
195.14759104909675 113.6161216159982 4.267613749130122
204.7835689026774 96.71928755295845 5.843026593106888
188.62136167751927 104.23018335071036 10.511957336053586
189.35783170522674 92.21755140119095 16.455477642537943
172.39797965553694 112.27186212896196 0.42859154938010635
182.12419014865844 103.79292537637865 -3.2038381102086912
176.62166466836544 107.8143845180377 6.627289983841907
190.94235928860306 112.54602998684463 -3.0947880532870995
190.83634486799505 99.14888370602002 17.390408545699348
206.97431575658786 94.45988826746623 7.936853563905118
183.64362929651745 109.74945151914291 9.982257447913174
188.789746006721 87.52429820749563 9.52810055258786
194.94036555165025 107.5588083170961 6.69508536231375
196.03597069395303 104.88019319096446 11.182472666991092
183.24274078088695 115.14279026610757 -0.9266826336340114
200.92276151597866 108.0401005566169 2.690262856235935
189.66056387577203 102.75631584389764 13.61541771444655
185.1791995080372 100.44967433704069 7.239679348217457
194.99020545111895 84.68292319605129 11.285512800471832
178.79904442456387 111.04591219099301 -2.9893036942838207
204.4451638121585 97.47571338689771 3.396521001964794
183.7157116079524 110.39473412709104 -3.207431300390339
186.04809333879317 115.49735013355661 -2.4548488067158276
197.90687557459026 108.96071252203417 4.586721452365139
193.665348908852 93.03635060638217 17.571177442489837
178.72478501424914 101.72175083983274 -0.1474093743017113
195.2974773087551 113.96414714644894 -2.964760791928564
182.95480445123306 114.11724963596264 4.429533784476438
186.08049922748307 110.5987113909486 7.570281755578845
175.55395053141623 105.43518682608305 1.438412284798157
188.99996096126895 103.27238319245282 -3.198688928971556
199.34699044852763 100.72727022737813 15.478259162979098
181.7669623251365 112.84208209536693 6.315446778455253
180.14214306640505 113.2083220131594 -3.0734063067306376
204.15328853397088 96.6653757957406 11.826420860280741
199.17236047920653 98.97984988271583 15.871437899784278
194.16693874392385 106.04098039603039 10.60687529355506
182.57097010556404 99.95694873307289 -1.5691211291676295
191.7856109775058 110.11641962875782 6.562814177197068
173.34531929690766 107.47929681181535 1.8003406234034443
189.5539888451944 113.44054170565958 5.1021947008980355
182.1229656120859 108.30753229238078 -3.016736696443556
183.07774643607019 113.00915669411793 -3.0283695319646564
178.39533654928937 112.78887094007354 4.7855533675627715
183.01722838541707 107.32483074900797 10.619384471726262
189.26973883239194 115.75079286615099 4.1125736811627505
185.26433463957125 114.79382470317911 4.377255505621858
176.3019611470088 104.83784420778105 4.145956407338535
183.35158317468216 104.62796652554599 9.606129237627183
180.849224943105 100.57964095229512 1.0744197042396288
201.88714081829374 85.572896802004 5.127545510718096
194.67984368768333 84.63354563188788 5.952246426236752
187.50646580835507 89.50823086291027 7.665315420281235
183.57989957622937 111.54191898158491 8.15373593025582
187.6604200023508 108.55848474375813 -3.0874586374056787
179.2842258447235 102.80372586093927 6.333821736034711
184.43382468639868 101.99732464040383 -3.0045549249641703
180.2303678757364 114.97769955518305 -1.1371245209038405
203.9206283015697 98.16196430141129 5.00870132328419
190.82700590714353 98.45678499925826 -3.01069018445583
184.62889614925425 115.05710571038266 1.8451510185993816
185.90884712034668 99.59139613982435 11.189298944527318
187.31021647825014 115.66893310855929 2.397370019778866
189.2330029110877 86.83968994498616 5.911465568706609
188.0791725349566 108.37406808246229 7.721750748421482
189.2108389298639 110.51106950133651 -2.928002860857002
173.12390027109484 109.03131692096166 3.7383748984941305
190.6378760525672 111.75235003410288 5.712866094367747
190.00039676960472 93.96344992693479 -3.0541173962632655
190.08072746112012 97.54700195821343 17.145909119500054
197.05658272438257 104.32200094583676 9.686104286404518
179.62613080611774 114.82979592004656 1.6358208356567807
185.0877042023877 96.32414062288265 -2.645542833132466
196.98288089906399 87.91968125357297 16.58051759864502
205.52334960112012 95.18273199232439 12.254486735938153
197.95201031659218 100.37526197236876 15.830791978124191
177.9779206597938 106.48827516376011 -2.988301411934462
196.5404066298134 104.21010200120571 13.207611192406459
199.27153226918517 85.28565035631487 12.093193803521688
193.08386535966793 114.33657967888676 -3.2189601176442824
206.69365480294505 93.70246630444736 14.504973074827296
194.33253452610748 110.9642949276796 5.198561364956452
187.8851538673702 90.05328636312602 14.20595880603802
185.08780917791256 95.82377420061403 -0.4927812732652063
188.29307763415392 98.89115213948212 -3.103889917750825
207.44269161311013 91.9487586418861 14.40339184483148
201.91851364416058 100.05574714921137 8.252777607104862
195.28179942599027 102.96555667797016 16.599991232129515
182.95563647314245 103.1050561559311 8.279268858895184
200.51035633334374 99.79917413347447 14.57444911684543
207.09805153618885 93.77668650499419 12.530052475308958
196.90882668983838 85.49675137415913 14.468203446141041
189.63439277114367 98.80786083930673 16.312928384739433
204.24599537658386 97.98946780636776 -1.9898816398736305
193.79173935011957 86.37138028278707 16.555309041477532
179.36773984415217 101.67560173127586 3.5073601664545193
189.19971978851012 96.63649487708265 -3.145558058806087
206.47489699127738 95.40297755612976 -0.297015018212059
197.28148469140666 108.95506522394395 -3.173172792953862
207.3428757666932 90.58816074825758 0.0776785186167639
193.99228594930207 115.92617866658003 3.262429062549215
205.51260519219107 87.42851377319995 2.831487961248615
180.6334535409111 106.2903856384822 -3.0588080032398963
186.83493041951678 113.28277558212235 6.576851555208985
181.914428919077 100.71835028549917 3.762274410087187
204.9335797870515 87.13453023504769 11.78775285790709
177.36915994221872 103.05078574297224 2.188424301160092
194.35521358595446 106.50201916686355 8.358562481736968
206.43989012598757 87.46540111278586 8.849792372037076
194.5780404136233 108.98095545923029 -2.9792669040685498
188.53758948366016 88.01486574547626 7.738612007521458
193.07037041569225 107.88939668936884 7.450178388177106
193.02667228233233 105.80203999486395 12.26532810139437
202.1234899488484 85.7122649715948 0.7383084334659955
204.91211778431403 90.6746776465481 17.785984056738503
207.5442398116528 93.55773218843386 10.109474012332905
198.516000844991 88.77874012728907 16.807369435073607
207.66990427614584 94.31016550051086 3.080937569541094
197.72009106916482 91.02047485888265 17.191783185303148
186.70326072623453 103.32635567619647 10.200232508440456
206.00847643638363 87.50101568574202 6.912886448575636
188.12434177839208 113.26968653079007 -2.931565253035345
205.19857869594654 92.7485724180732 -2.9201040797561597
198.77310249878127 103.45693412875912 6.433334684694493
198.2839514599496 102.89504984029304 13.509307315319472
200.32716990287986 101.809984230308 7.036722018904756
187.63827390183175 115.03995634338388 4.87115535078131
172.2106325462832 108.42462553779896 -0.637667329187471
204.69007095281003 96.55103051190548 9.9689965489133
202.06046321002097 101.19884794200063 1.5140645562673951
185.46140895540384 98.22348524559499 12.642627083831927
205.20650234788093 96.33827218949965 8.267117523533697
192.86957785931295 85.33986149640232 0.9233535481500474
184.80800829847533 97.99377656162739 2.8647621509931622
196.91199487702463 106.90883371595497 5.739937460071272
207.9822540882655 90.15643380914145 12.81979637355473
199.34069634517982 86.11245662045808 14.666067495078678
188.89470963944413 90.47484951860389 15.659559724436019
180.03393777377948 101.36220360001911 -3.051200272554314
185.17388642524492 98.96887997935568 6.076831090101961
199.0336113489995 85.59512510704951 -1.8984184300780738
198.27194178138464 85.38313727652407 13.54008266811506
199.25495204373223 84.85208933908251 5.345056599698963
206.38071476674503 88.16428576046218 13.34783494965556
186.23322017980712 110.74342470829104 -2.975568526446221
187.08836711904206 97.21720158829896 -3.002985856512707
204.19465755538667 97.41881163464826 7.523929278369177
207.88718459483377 89.63903060271835 10.78727200144383
191.61760188136589 87.17917016601746 16.338855658209564
201.2854141305694 105.88629717507538 2.158658260469321
182.70495916371902 101.754509373479 6.577626945232412
181.70491643704267 114.79233679950595 -2.7593940315519654
184.82729249164137 102.9703980548115 8.3131208646969
193.760343170111 88.37022562289383 16.968394632907557
201.64383838617022 108.61134175657129 0.36211588047560994
186.63326788195178 103.49809569606919 -3.173433044436576
191.46834132208602 85.47414833500505 10.047518723036385
189.89187765622341 109.22251074845421 7.132007562959983
207.70062367969166 90.5165251133564 2.3581869340980064
185.71884905522055 94.27186012572912 4.838730269417732
196.6751240770805 102.96926316877696 14.98753711085528
195.34553044029687 85.66798321190716 15.124502042947553
193.49862215601652 100.21384968669025 17.77908278268113
181.07575461709692 102.93973293848211 8.593716864240438
198.37150092783904 111.32118321205922 -0.06464549135120094
184.90180911076834 97.60368596831552 5.148929076521938
190.72507560960847 86.4951433230889 0.32916563022760836
198.14570302314328 101.71811426527816 15.133853833805377
194.08734960739255 85.02722122693862 13.29973281991826
202.41980656855714 86.48914363187431 14.170140537380203
175.67235488593738 107.38643467101886 -3.009896784240847
192.31581054271714 104.74634644482664 -3.100745875789747
177.17028782871654 113.11049991135827 2.0330635948021825
203.5660764481685 96.74103980721456 13.682178481212148
205.15609688749842 87.60893037449715 14.785257639963314
202.4759109277491 98.56704286508061 13.37020328416821
207.71352845939697 93.22314498157975 0.9800606882269643
200.66984991900762 101.5305370409428 9.414162980791955
192.138062166797 105.54729206134463 10.67045546536865
177.64040325036868 103.20087143847486 4.627169391179276
185.19928034294563 112.23262368345559 7.228244534047377
191.09774985807448 86.24288560159401 14.164954532245844
198.7058401371999 92.04258104778745 17.489337771519168
187.91184833635415 89.44777780567675 3.165279840992576
205.8555202058698 95.50752367972758 6.772153019011069
190.2844057035313 107.90283924878392 -3.103825504997474
185.0483093774915 107.80574040715453 -3.1174266340798096
189.43777684566496 86.78738550395713 12.911355953678031
205.07113835611906 95.19351596735149 14.240630497714767
188.34047520414217 99.6475230412833 15.130910080172498
195.98055350152046 109.25526691386867 5.665271407571873
178.04254340039276 114.53161247175196 -0.08150540663773735
205.88288887532534 88.64615364807729 16.011007467546456
182.89587271124813 106.19986470478308 -2.9334463744943533
191.5641851374336 96.12593684422015 -3.1631498412317183
184.70736579490068 98.16944088301044 1.2707135606061524
190.72425863970926 92.06641727297284 -3.009361042207485
203.56878549699113 98.01907702168687 9.35564448145937
200.9377060206722 101.7913281758025 4.4153482563410495
190.05496833614225 88.98839817383349 16.091555376823436
202.24366677265633 89.20891801626944 17.491297391792735
185.32607659921803 108.07703384570314 8.807053378590357
208.22647774727906 90.37697160621104 4.04457916817583
200.0766686025411 96.84174324702153 15.96086301057479
POLYGONS 1150 4600
3 507 385 136
3 484 385 267
3 454 267 563
3 409 330 551
3 10 269 263
3 269 507 263
3 269 396 507
3 454 411 267
3 267 411 484
3 454 199 411
3 492 290 169
3 409 485 356
3 485 313 356
3 411 148 484
3 484 148 330
3 313 283 117
3 155 454 563
3 450 134 386
3 484 330 480
3 269 244 396
3 385 484 480
3 485 409 551
3 540 404 159
3 460 533 117
3 563 396 155
3 356 117 450
3 450 117 533
3 283 460 117
3 460 347 144
3 330 231 551
3 330 148 231
3 231 148 288
3 263 507 212
3 212 507 136
3 134 86 235
3 409 386 241
3 386 356 450
3 386 409 356
3 533 497 450
3 497 134 450
3 540 159 497
3 497 533 540
3 313 117 356
3 480 409 241
3 136 385 480
3 386 443 241
3 443 235 212
3 155 373 454
3 373 199 454
3 66 153 294
3 66 282 153
3 263 496 10
3 263 212 496
3 540 533 367
3 367 533 460
3 321 357 347
3 261 321 322
3 389 322 294
3 321 304 322
3 304 283 313
3 294 313 66
3 322 304 294
3 304 313 294
3 347 283 321
3 283 304 321
3 261 357 321
3 535 347 357
3 535 144 347
3 540 448 404
3 540 367 448
3 126 357 261
3 404 462 159
3 283 347 460
3 136 480 241
3 136 241 212
3 241 443 212
3 66 551 282
3 66 485 551
3 288 375 282
3 0 389 293
3 293 389 292
3 148 437 288
3 169 63 293
3 293 292 169
3 261 322 0
3 322 389 0
3 126 261 0
3 492 186 360
3 360 186 288
3 492 375 186
3 186 375 288
3 192 535 357
3 169 292 492
3 292 375 492
3 292 389 153
3 153 389 294
3 159 34 86
3 86 34 268
3 159 462 34
3 192 381 29
3 381 357 126
3 153 282 375
3 375 292 153
3 213 138 328
3 29 381 442
3 460 144 367
3 498 496 235
3 235 496 212
3 313 485 66
3 267 385 563
3 327 408 448
3 362 324 576
3 576 324 408
3 324 462 408
3 268 570 459
3 535 189 144
3 164 163 162
3 576 161 362
3 548 462 324
3 324 362 548
3 409 480 330
3 125 162 163
3 189 327 144
3 161 124 179
3 161 137 124
3 124 137 273
3 327 189 351
3 86 550 235
3 235 550 498
3 550 459 498
3 161 576 137
3 576 128 137
3 351 275 327
3 327 275 128
3 275 137 128
3 164 123 163
3 164 351 123
3 123 351 189
3 164 275 351
3 164 162 119
3 235 443 134
3 134 443 386
3 134 497 86
3 86 497 159
3 551 231 282
3 282 231 288
3 10 522 269
3 407 120 548
3 548 120 268
3 407 570 120
3 120 570 268
3 459 570 289
3 179 245 161
3 161 245 362
3 290 434 169
3 169 434 63
3 492 525 290
3 492 360 525
3 390 290 525
3 367 327 448
3 63 157 562
3 293 63 562
3 562 0 293
3 358 139 118
3 270 502 571
3 561 362 245
3 245 133 561
3 571 216 10
3 10 216 522
3 571 502 216
3 421 525 360
3 202 140 200
3 160 368 139
3 139 368 118
3 160 397 162
3 109 202 138
3 504 219 382
3 328 340 213
3 290 390 340
3 340 390 213
3 119 162 397
3 157 503 200
3 200 503 328
3 503 434 328
3 40 118 442
3 442 118 368
3 327 128 408
3 408 128 576
3 213 301 138
3 213 538 301
3 105 104 309
3 105 108 104
3 104 108 382
3 393 325 101
3 115 95 502
3 502 95 127
3 393 94 270
3 270 94 502
3 94 115 502
3 465 40 442
3 138 87 109
3 109 87 112
3 138 301 87
3 87 301 112
3 502 127 216
3 216 127 522
3 112 298 84
3 84 298 145
3 252 72 53
3 252 298 72
3 95 65 127
3 95 122 65
3 115 67 95
3 95 67 122
3 115 88 67
3 67 88 122
3 60 92 252
3 59 122 88
3 61 57 348
3 91 59 57
3 57 61 151
3 58 573 98
3 489 56 98
3 96 55 147
3 96 74 55
3 96 51 74
3 122 59 51
3 145 92 48
3 224 129 91
3 91 129 74
3 47 224 151
3 91 74 51
3 51 59 91
3 469 567 441
3 129 224 567
3 55 74 76
3 76 74 129
3 78 534 56
3 147 55 45
3 45 55 76
3 462 404 408
3 404 448 408
3 348 44 71
3 88 43 59
3 348 57 43
3 43 57 59
3 10 41 571
3 571 41 498
3 10 496 41
3 41 496 498
3 157 346 40
3 269 388 244
3 244 388 527
3 269 522 388
3 388 522 527
3 326 37 61
3 61 37 151
3 91 103 224
3 224 103 151
3 91 57 103
3 103 57 151
3 43 88 54
3 462 548 34
3 34 548 268
3 179 107 573
3 368 160 125
3 125 160 162
3 368 29 442
3 368 125 29
3 376 139 358
3 140 33 200
3 358 346 33
3 122 27 65
3 122 51 27
3 27 51 96
3 273 119 211
3 211 119 397
3 364 64 20
3 20 64 166
3 164 149 275
3 275 149 137
3 164 119 149
3 145 17 92
3 92 17 252
3 145 298 17
3 17 298 252
3 20 166 513
3 202 52 138
3 138 52 328
3 202 200 52
3 52 200 328
3 108 16 374
3 374 16 393
3 108 325 16
3 16 325 393
3 493 287 100
3 100 287 309
3 493 79 287
3 287 79 309
3 432 567 469
3 337 99 68
3 14 50 249
3 39 154 47
3 39 14 154
3 154 14 249
3 99 13 75
3 64 515 13
3 13 515 75
3 534 77 541
3 391 141 102
3 113 75 141
3 538 72 301
3 37 326 274
3 274 39 37
3 194 75 515
3 364 9 64
3 64 9 515
3 364 423 9
3 9 423 515
3 151 8 47
3 47 8 39
3 151 37 8
3 8 37 39
3 113 7 68
3 113 265 7
3 436 483 176
3 113 424 75
3 75 424 99
3 113 68 424
3 424 68 99
3 195 307 49
3 195 114 307
3 307 114 73
3 166 234 513
3 46 274 234
3 32 521 526
3 127 65 286
3 64 254 166
3 99 337 254
3 54 146 44
3 21 183 436
3 436 176 21
3 299 100 309
3 109 69 202
3 69 140 202
3 121 112 84
3 441 19 47
3 47 19 224
3 441 567 19
3 19 567 224
3 18 46 234
3 234 166 18
3 154 249 80
3 39 6 14
3 14 6 46
3 39 274 6
3 6 274 46
3 13 99 254
3 254 64 13
3 18 166 254
3 254 337 18
3 209 143 69
3 69 109 209
3 526 467 78
3 78 467 534
3 467 77 534
3 102 194 89
3 89 194 85
3 348 371 44
3 44 371 54
3 348 43 371
3 371 43 54
3 140 69 306
3 306 69 143
3 541 111 391
3 111 265 391
3 258 46 18
3 331 23 397
3 14 46 258
3 258 50 14
3 483 384 2
3 384 93 22
3 145 556 84
3 84 556 176
3 556 21 176
3 93 529 22
3 265 111 529
3 92 223 48
3 92 80 223
3 223 80 249
3 7 265 529
3 529 93 7
3 570 519 289
3 289 519 374
3 570 504 519
3 519 504 374
3 354 140 306
3 306 455 354
3 21 291 183
3 183 291 135
3 21 315 291
3 291 315 135
3 48 556 145
3 50 203 249
3 50 315 203
3 203 315 48
3 77 197 541
3 541 197 111
3 197 158 111
3 425 209 121
3 157 40 562
3 562 40 465
3 337 83 135
3 135 83 183
3 337 68 83
3 83 68 183
3 223 249 203
3 203 48 223
3 521 554 77
3 560 158 554
3 137 149 273
3 273 149 119
3 135 505 337
3 337 505 18
3 135 258 505
3 505 258 18
3 22 529 158
3 158 529 111
3 197 77 554
3 554 158 197
3 73 11 308
3 21 272 315
3 315 272 48
3 21 556 272
3 272 556 48
3 189 535 260
3 2 384 168
3 168 384 22
3 391 265 141
3 141 265 113
3 384 483 93
3 93 483 436
3 483 425 176
3 534 541 180
3 180 541 391
3 68 31 183
3 68 7 31
3 31 7 93
3 560 554 15
3 15 554 521
3 158 560 22
3 22 560 168
3 60 5 92
3 441 80 5
3 5 80 92
3 455 510 354
3 163 123 260
3 260 123 189
3 38 214 90
3 513 24 20
3 20 24 73
3 513 11 24
3 24 11 73
3 327 367 144
3 81 510 455
3 209 2 143
3 209 425 2
3 89 451 102
3 102 451 514
3 89 132 451
3 451 132 514
3 514 180 102
3 102 180 391
3 573 487 179
3 143 168 4
3 143 2 168
3 183 31 436
3 436 31 93
3 75 305 141
3 141 305 102
3 75 194 305
3 305 194 102
3 81 42 15
3 143 4 306
3 306 4 455
3 2 425 483
3 32 572 521
3 81 15 572
3 572 15 521
3 147 218 96
3 96 218 90
3 147 38 218
3 218 38 90
3 139 331 160
3 160 331 397
3 107 179 124
3 346 118 40
3 346 358 118
3 121 62 112
3 112 62 109
3 121 209 62
3 62 209 109
3 331 32 23
3 23 32 526
3 4 42 455
3 455 42 81
3 357 381 192
3 1 572 32
3 168 42 4
3 147 316 38
3 560 42 168
3 33 140 354
3 354 358 33
3 558 316 281
3 397 23 211
3 211 23 156
3 85 207 423
3 423 207 515
3 85 194 207
3 207 194 515
3 331 1 32
3 354 376 358
3 354 510 376
3 65 27 90
3 90 27 96
3 376 510 1
3 81 572 510
3 510 572 1
3 200 369 157
3 157 369 346
3 200 33 369
3 369 33 346
3 498 271 571
3 289 270 271
3 271 270 571
3 29 163 260
3 77 467 521
3 521 467 526
3 85 142 173
3 173 142 493
3 85 423 142
3 493 131 79
3 76 432 26
3 45 403 281
3 89 3 132
3 0 562 126
3 126 562 465
3 44 130 71
3 49 308 130
3 130 308 71
3 445 25 30
3 114 12 364
3 364 12 423
3 114 131 12
3 12 131 423
3 142 423 131
3 131 493 142
3 535 192 260
3 98 542 58
3 58 542 318
3 98 132 542
3 174 457 30
3 432 469 457
3 290 340 434
3 434 340 328
3 176 121 84
3 176 425 121
3 49 130 106
3 30 429 174
3 457 518 30
3 30 518 445
3 457 469 518
3 26 432 457
3 457 174 26
3 45 76 26
3 26 403 45
3 174 403 26
3 29 260 192
3 525 523 390
3 523 150 390
3 78 156 526
3 526 156 23
3 50 539 315
3 315 539 135
3 50 258 539
3 539 258 135
3 126 465 381
3 381 465 442
3 561 546 362
3 362 546 548
3 561 407 546
3 546 407 548
3 558 281 28
3 28 281 403
3 152 530 411
3 411 530 148
3 152 437 530
3 530 437 148
3 514 509 56
3 56 509 98
3 514 132 509
3 509 132 98
3 150 506 538
3 150 97 506
3 407 501 570
3 570 501 504
3 407 219 501
3 501 219 504
3 155 396 244
3 47 569 441
3 441 569 80
3 47 154 569
3 569 154 80
3 507 563 385
3 507 396 563
3 413 476 152
3 147 544 316
3 316 544 281
3 147 45 544
3 544 45 281
3 301 532 112
3 112 532 298
3 301 72 532
3 532 72 298
3 28 528 35
3 28 403 528
3 528 403 174
3 163 29 125
3 195 531 79
3 531 549 105
3 390 512 213
3 213 512 538
3 390 150 512
3 512 150 538
3 105 490 108
3 108 490 325
3 105 549 490
3 490 549 325
3 79 575 309
3 309 575 105
3 79 531 575
3 575 531 105
3 100 481 493
3 493 481 173
3 100 82 481
3 481 82 173
3 82 478 173
3 318 3 478
3 478 3 173
3 523 477 150
3 477 97 150
3 100 520 82
3 116 508 520
3 106 495 146
3 146 495 44
3 106 130 495
3 495 130 44
3 106 472 49
3 49 472 195
3 106 549 472
3 325 470 101
3 325 549 470
3 101 466 115
3 115 466 88
3 466 54 88
3 434 503 63
3 63 503 157
3 42 560 15
3 73 486 20
3 20 486 364
3 73 114 486
3 486 114 364
3 79 474 195
3 195 474 114
3 79 131 474
3 474 131 114
3 558 438 334
3 531 195 472
3 472 549 531
3 53 456 252
3 445 60 456
3 456 60 252
3 97 410 25
3 25 410 30
3 410 429 30
3 35 559 28
3 35 528 429
3 429 528 174
3 538 506 72
3 72 506 53
3 156 489 491
3 491 489 107
3 53 568 25
3 25 568 97
3 53 506 568
3 568 506 97
3 534 464 56
3 56 464 514
3 534 180 464
3 464 180 514
3 463 447 561
3 561 447 407
3 463 219 447
3 447 219 407
3 504 557 374
3 374 557 108
3 504 382 557
3 557 382 108
3 78 446 156
3 156 446 489
3 78 56 446
3 446 56 489
3 156 491 211
3 211 491 273
3 270 431 393
3 393 431 374
3 270 289 431
3 431 289 374
3 115 94 101
3 101 94 393
3 289 271 459
3 459 271 498
3 459 550 268
3 268 550 86
3 129 432 76
3 129 567 432
3 139 376 331
3 376 1 331
3 28 427 558
3 28 559 427
3 427 559 517
3 422 410 97
3 438 558 427
3 427 517 438
3 517 494 438
3 477 468 422
3 422 97 477
3 429 378 35
3 378 566 35
3 559 35 566
3 566 414 559
3 479 420 402
3 476 401 152
3 559 394 517
3 559 414 394
3 566 475 414
3 353 383 426
3 417 574 383
3 334 438 380
3 378 475 566
3 475 372 414
3 475 449 372
3 398 370 511
3 380 438 494
3 435 433 419
3 394 359 415
3 415 359 406
3 394 414 359
3 387 110 433
3 406 359 392
3 414 372 359
3 359 372 392
3 444 355 110
3 392 372 343
3 343 372 449
3 392 343 342
3 370 341 511
3 511 341 378
3 341 475 378
3 70 339 435
3 420 336 402
3 379 350 336
3 416 335 365
3 335 350 379
3 435 333 433
3 435 339 333
3 333 339 395
3 429 332 378
3 378 332 511
3 429 410 332
3 332 410 511
3 365 329 353
3 379 366 329
3 155 320 373
3 395 494 317
3 317 494 517
3 573 314 98
3 98 314 489
3 573 107 314
3 314 107 489
3 437 152 401
3 401 574 437
3 366 379 361
3 273 555 124
3 124 555 107
3 273 491 555
3 555 491 107
3 318 547 58
3 58 547 565
3 318 516 547
3 547 516 565
3 352 430 406
3 565 311 58
3 58 311 573
3 565 487 311
3 311 487 573
3 73 308 307
3 307 308 49
3 318 542 3
3 3 542 132
3 342 302 352
3 5 312 441
3 441 312 469
3 5 60 312
3 478 82 516
3 516 318 478
3 445 312 60
3 116 488 463
3 463 488 219
3 488 382 219
3 445 456 25
3 25 456 53
3 299 382 488
3 488 116 299
3 343 296 342
3 334 295 482
3 508 285 516
3 516 285 565
3 508 458 285
3 574 284 360
3 360 284 421
3 574 417 284
3 284 417 421
3 54 280 146
3 54 466 280
3 280 466 101
3 116 279 299
3 299 279 100
3 116 520 279
3 279 520 100
3 518 469 312
3 312 445 518
3 565 278 487
3 487 278 133
3 278 458 133
3 508 277 520
3 520 277 82
3 508 516 277
3 277 516 82
3 463 266 116
3 116 266 508
3 463 458 266
3 266 458 508
3 316 482 38
3 104 382 299
3 299 309 104
3 133 453 561
3 561 453 463
3 133 458 453
3 453 458 463
3 345 452 300
3 412 402 336
3 420 262 336
3 336 262 379
3 420 361 262
3 262 361 379
3 419 259 476
3 259 405 426
3 387 256 110
3 110 256 444
3 387 430 256
3 256 430 444
3 342 255 302
3 199 253 413
3 477 251 468
3 468 251 428
3 477 523 251
3 38 471 214
3 214 471 36
3 471 233 36
3 233 537 36
3 444 264 355
3 355 264 416
3 444 545 264
3 264 545 416
3 405 257 426
3 426 257 353
3 405 365 257
3 257 365 353
3 405 250 365
3 365 250 416
3 405 355 250
3 250 355 416
3 444 564 545
3 352 302 564
3 564 302 545
3 476 499 419
3 419 499 435
3 476 413 499
3 110 355 400
3 400 355 405
3 421 461 525
3 525 461 523
3 421 536 461
3 461 536 523
3 71 319 348
3 348 319 61
3 71 326 319
3 319 326 61
3 482 471 38
3 233 295 247
3 285 458 278
3 278 565 285
3 199 440 411
3 411 440 152
3 199 413 440
3 440 413 152
3 335 379 329
3 329 365 335
3 536 198 428
3 366 361 198
3 198 361 428
3 435 418 70
3 413 253 418
3 418 253 70
3 85 344 89
3 89 344 3
3 85 173 344
3 344 173 3
3 146 303 106
3 106 303 549
3 146 470 303
3 303 470 549
3 326 297 274
3 326 11 297
3 297 11 513
3 243 452 380
3 259 419 400
3 400 405 259
3 470 146 280
3 280 101 470
3 476 553 401
3 401 553 426
3 476 259 553
3 553 259 426
3 349 543 363
3 363 543 449
3 543 343 449
3 479 323 398
3 398 323 370
3 323 363 370
3 417 248 421
3 421 248 536
3 402 242 363
3 363 242 349
3 402 412 242
3 500 349 242
3 242 412 500
3 233 247 537
3 537 247 320
3 428 552 468
3 420 479 552
3 552 479 468
3 352 564 430
3 430 564 444
3 320 240 373
3 373 240 473
3 320 246 240
3 240 246 473
3 545 239 416
3 239 276 350
3 302 238 545
3 377 276 238
3 343 543 296
3 296 543 349
3 475 341 449
3 473 246 232
3 499 413 418
3 418 435 499
3 233 236 295
3 295 236 482
3 233 471 236
3 236 471 482
3 70 230 339
3 339 230 338
3 230 300 338
3 420 552 361
3 361 552 428
3 366 248 237
3 237 248 417
3 392 227 406
3 406 227 352
3 392 342 227
3 227 342 352
3 339 226 395
3 395 226 494
3 339 338 226
3 494 243 380
3 255 222 377
3 449 225 363
3 363 225 370
3 449 341 225
3 225 341 370
3 226 338 243
3 243 494 226
3 377 221 276
3 221 500 412
3 232 300 230
3 230 70 232
3 110 220 433
3 433 220 419
3 110 400 220
3 220 400 419
3 366 217 329
3 329 217 353
3 366 237 217
3 217 237 353
3 276 439 350
3 412 336 439
3 439 336 350
3 511 215 398
3 398 215 422
3 511 410 215
3 215 410 422
3 473 210 253
3 253 210 70
3 473 232 210
3 210 232 70
3 377 208 255
3 255 208 302
3 377 238 208
3 208 238 302
3 296 206 342
3 342 206 255
3 296 222 206
3 206 222 255
3 300 205 338
3 338 205 243
3 300 452 205
3 205 452 243
3 36 229 527
3 527 229 244
3 36 537 229
3 229 537 244
3 527 201 36
3 36 201 214
3 201 286 214
3 416 239 335
3 335 239 350
3 363 323 402
3 402 323 479
3 395 193 387
3 387 193 415
3 395 317 193
3 193 317 415
3 473 191 373
3 373 191 199
3 473 253 191
3 191 253 199
3 345 190 247
3 247 190 320
3 345 246 190
3 190 246 320
3 433 333 387
3 387 333 395
3 500 185 222
3 222 185 377
3 500 221 185
3 185 221 377
3 221 412 439
3 439 276 221
3 300 184 345
3 345 184 246
3 300 232 184
3 184 232 246
3 345 399 452
3 452 399 295
3 345 247 399
3 399 247 295
3 536 248 198
3 198 248 366
3 179 182 245
3 245 182 133
3 179 487 182
3 182 487 133
3 380 181 334
3 334 181 295
3 380 452 181
3 181 452 295
3 406 524 415
3 415 524 387
3 406 430 524
3 524 430 387
3 127 178 522
3 522 178 527
3 127 286 178
3 155 177 320
3 320 177 537
3 155 244 177
3 177 244 537
3 437 175 288
3 288 175 360
3 437 574 175
3 175 574 360
3 500 172 349
3 349 172 296
3 500 222 172
3 172 222 296
3 426 204 401
3 401 204 574
3 426 383 204
3 204 383 574
3 274 297 234
3 234 297 513
3 545 187 239
3 239 187 276
3 545 238 187
3 187 238 276
3 90 196 65
3 65 196 286
3 90 214 196
3 196 214 286
3 527 188 201
3 201 188 286
3 527 178 188
3 188 178 286
3 415 171 394
3 394 171 517
3 415 317 171
3 171 317 517
3 428 170 536
3 536 170 523
3 428 251 170
3 170 251 523
3 71 167 326
3 326 167 11
3 71 308 167
3 167 308 11
3 334 228 558
3 558 228 316
3 334 482 228
3 228 482 316
3 468 310 422
3 422 310 398
3 468 479 310
3 310 479 398
3 353 165 383
3 383 165 417
3 353 237 165
3 165 237 417
