# vtk DataFile Version 3.0
A great-looking cell
ASCII
DATASET POLYDATA
POINTS 352 double
176.52886793039607 318.0945034184755 87.3729129731954
176.7859171984542 320.15649990119846 87.74094350762736
175.055316833017 319.2213465398551 88.23355608605246
173.72343253418543 320.0019527735262 89.38168650701995
174.80782875746615 317.0737640442752 87.92212013850644
177.96472886852982 318.9051579994727 87.37958303065177
173.46048419204612 318.17764212330013 88.78597946992315
176.45552193713638 315.9931476478614 87.3288816177497
178.0017135341578 314.56890563347093 87.40514513074277
178.45238238584597 316.9449702298036 87.30705576972082
180.48192975418067 317.0306393771108 88.08708328058701
179.46436815618185 318.7864957429034 87.94706691187348
178.45451851577903 320.20080195680515 87.96298817765502
179.86197798863142 320.5733320609283 89.18059715109648
177.78141913890238 321.84194261643614 88.97359947599229
176.36346820928608 322.87063413913614 89.9934635838934
171.45021105075278 314.12954180601815 89.73903735443614
172.7323176253809 314.21678600991856 88.65373387177893
171.04015266531147 316.07326921308123 90.01923546753899
171.0261097600868 317.8318037168103 90.68038769907072
172.14511981523825 317.32422233568553 89.47423464410245
175.60317617872573 312.1237005127581 87.9493299626189
179.41830525491224 312.8796154346784 87.98773606349907
172.3732714694298 318.9250137708406 89.95774018086438
179.8513807014582 315.115112490538 87.95777945257716
181.34070443965612 315.55281739248676 88.51097016511585
182.06310769314817 316.89423845925256 89.12676712821371
181.05772860894714 318.65673440866385 89.05162759205658
180.97168113424738 321.6267261576631 90.39841276861225
179.4910184053561 322.53036246474164 90.31740488599313
177.77786131444117 323.51665417951966 90.60446699756841
174.89226066926807 322.8071010061803 90.76284541864898
175.37559723069688 321.3890528734757 89.10894660907911
169.42738846237697 314.7588003721782 92.68716751475175
170.25172442679087 311.1406851877972 91.90231479514654
169.92953349657535 316.4510858875136 91.59848613640962
174.66881080465487 310.370315834657 88.49882886226915
177.24122659307918 310.3217739826848 88.23314538839061
177.61380283217903 307.72121303182644 88.65753741362391
179.74976770409467 310.61799486432335 88.57091473816803
171.52322353767275 319.6046325029565 91.5364471174872
172.7206214466545 320.2980934706837 90.52270081632344
170.21661666771487 318.21021994650954 92.42825571972456
181.3797456665234 313.63039724067295 88.48230246273671
182.65998991454214 315.01261307673974 89.33153595299996
184.00628986497162 314.1702795417979 90.76489124251327
183.5166814571218 316.4507349013566 90.45272391535613
182.86243505009293 319.7105441410747 91.23489386497515
173.73361090801654 321.45883236522127 90.4674647876305
181.67124947339957 320.09929736227116 90.1454654849215
182.1259063323818 321.20142293223495 91.51860620919966
180.78448355001808 322.6883171626814 92.03049483618706
179.09738335373677 323.76592389410007 91.93485676662709
176.14180968012997 323.859406768954 91.40251170616853
169.63606856112744 312.7457842588573 93.62088751674881
169.28676803886066 316.70265544619474 93.62564170679377
168.93226937748022 314.76722207602137 95.3770051849625
169.5895064561485 313.89847434752375 98.41330212627007
169.9940056280292 308.6617319733928 91.85509754877042
168.8964536853566 308.4980096437775 95.76425331461705
177.86654709833812 304.99805180626686 89.49699727479864
170.73632250205378 319.7199889236295 93.29553342371116
181.40500730957115 309.3407643566244 89.68011321221316
182.40709648730268 304.9145413220909 94.24633271126767
185.12463507648408 313.98313996859565 92.20433526409379
186.29913688558227 312.2265485287686 97.54006328039974
184.55194390465675 318.4941871754102 97.96003811981203
184.72456774043872 315.7666535482766 92.09218870215047
183.38850759830484 321.023686152834 94.66973287801102
182.2901738762561 321.9379840655119 93.25768265873623
182.25827179054812 322.3502903366256 94.92995802548644
181.1209736876658 323.1616843756342 94.04559818564874
179.99271761178346 323.8580145077975 93.25644951432538
178.62866027929127 324.4505689951432 93.67091793862518
175.96617734252573 324.5301296262956 92.94267656949769
177.42995565523478 324.2730087532926 92.4114420548372
169.0525610763492 316.13189348613975 97.55247164462315
169.1951213118124 317.2476351525837 95.76724348571194
171.05563950910957 316.51257758501174 99.00211953088244
172.31675437554807 312.60763588494297 98.99107563292787
169.8250455328781 318.51967139305185 94.29793952559152
175.18931594167185 311.7555128474995 98.98125517760722
176.18725453199133 314.2711932114485 99.041810664205
178.56283929391535 313.34334108023205 99.0630500889193
177.34396810720543 316.84773356190055 99.06494302030411
181.07803254114603 318.2476710875542 99.00982972106284
178.8077262583795 319.30010619070924 99.02173502163974
181.96522092439744 320.83152357167114 99.0216202742656
172.34702034847726 321.1859843867165 92.36225420861523
181.1701291866604 322.91587541220395 98.02920155751933
178.23525419750527 324.7015266799776 95.52027361841175
176.94105742763085 324.5999226183267 94.20049496969365
169.7164305617201 317.97907657387736 97.71179304137226
173.5697586983371 315.23740904473044 99.02024987332089
169.93567295083054 319.08035353982706 96.05644824635802
170.37491701144273 319.88464151726305 94.74984524453454
172.45671287475116 318.82846758384477 98.98127600336467
174.64469469469236 317.5431002446769 99.02593166200157
176.32322200325999 319.3093329090865 99.07088856068425
179.6950747776687 321.6797994099315 98.9845193963127
171.4286339533911 320.83331574683115 94.24162666579926
179.99007267442676 324.3963044524186 94.90158856671407
170.8886194099416 319.6712043716946 97.71098199060557
171.71540310521917 321.3945128535454 97.08835013126262
172.5603839291721 322.7073883490902 96.72636748164865
173.4867509261944 323.6374822765889 97.60038085122373
174.8632142875626 323.97410105565837 98.32531132326659
176.32792758784134 324.4882613446072 97.91404577794609
168.65951714207296 302.8946940262944 90.26279126456997
165.6898314336179 302.8163703660026 97.27896384571082
175.2017594288227 304.0181681186281 89.02782353910892
169.43268274694557 306.9305253236558 91.32749091365758
169.08700011920894 308.6770898710282 93.72929159939734
174.94071413341504 293.6218797865589 99.16444173864186
166.16290397520527 303.25572075878875 93.27629411436016
168.70911119789207 294.85490037628307 97.72318470980026
181.3219213078645 298.3121484672547 95.77452824384804
173.55215094395948 322.50597470542914 91.96312617414762
167.627980697449 306.07883339528314 98.23771834770412
165.91695858149012 299.1768079037165 94.2093897993713
170.7171314300902 300.59189500322185 99.10470033685279
166.1821363293353 301.987196848694 98.99542907148896
169.72782030513255 295.9193372150669 98.98982386275102
173.19319085305526 293.87099558173594 90.61595229900853
167.1422739087277 297.02984699201215 93.55089330183726
179.94567555190739 302.68585275124843 99.027833427496
170.2315072127407 293.77216221129623 94.23125718248659
178.6553158562728 295.54048608668575 91.41483033808429
165.5171918781058 300.86263072975174 96.40194021078145
181.3427920333538 296.01778908344585 97.2746113135575
179.635597121499 291.83804193274636 96.15209560763998
173.5893260331036 291.08116617520284 93.61545441562386
176.86297293757355 291.89006347872925 92.20204813316374
167.2131023837365 304.6807741183732 93.2882738934542
175.26125315858442 294.516346721013 90.52834541205893
175.95013776146453 290.8949333693356 93.70514624336029
171.28184462403658 310.8106812437477 98.97011159957707
173.37013157133492 323.75372235539203 95.73440367869945
173.66860539914242 301.964190842025 89.06459838896758
177.39128386817347 290.3926058481221 96.1865915559929
177.45484738020258 293.8116217514026 91.51319350313514
174.87140892719054 324.3397808643367 96.75002694662328
172.63586062405162 298.5815069855695 99.0114623004229
175.20945157810485 295.6120058031381 99.11843270486669
172.8839748874224 293.81611634042696 99.09016002388056
177.8995405025648 301.1315593411131 90.3254019359975
173.832584370891 307.97270390846757 98.99231310618201
166.23568244715068 297.6161118111163 96.60978051315399
171.35884895974712 304.6303530662665 99.01734313723263
177.79117440660383 324.69296675264707 97.16221479006279
171.14717422256297 295.11484420831925 91.57020303271962
174.87881527365715 292.2868994745434 91.60724287755059
176.97207581896018 293.4882214700533 99.06225963013705
179.6077025306967 324.21011716560207 97.080866748598
181.41844994752228 300.0329193732279 95.88871361791037
172.1887485352716 292.7025081593958 92.57616288302994
169.0424315832103 297.2711546168817 91.20797435850793
179.3439482758008 297.02260307424353 99.01085099441627
179.78394373243353 323.3821068216502 98.54864384228927
167.19091030080435 299.6171390856451 91.74540553047123
180.70212705430578 294.2000654170164 96.375531477371
170.53370491051007 302.59043852273953 89.29282465345001
168.3352488871481 302.96891284670664 98.99803969057237
179.8236389696511 292.5641120871604 98.84186731307689
177.88196125815094 295.931278247859 99.02640014009411
166.09679278610412 303.5002265577122 95.39310249289832
170.67897336263601 298.68212676038115 99.02728854428335
175.10055293285598 297.93905176100463 90.00403735476618
180.20495012589367 301.96297278718515 91.84967491427706
181.65755204474385 303.21395637578803 93.93165626505827
180.73385245195303 298.631998070148 93.84514522949672
179.08674331331807 290.6592725600618 97.66418602029962
171.76533352740486 291.7751815267712 95.27393922903374
170.91532890223792 302.5751795214065 99.04116709158995
180.42890303282815 295.36593816162724 98.95159938428871
176.5739134863218 302.1456980128904 89.50779746792827
168.0506789334587 295.04869018542774 95.7602447728788
172.4644640908513 296.59348304719504 99.03511489601902
172.5367866891262 300.4034474727361 99.0607873303823
177.9786635492389 298.52785503118633 99.11330222602629
172.9451242862314 302.16093690320906 98.99445065816022
184.96680866657223 309.39087119099156 93.67370525506252
175.0585509866405 324.2822477133928 94.57100697574047
168.5090772606125 301.1992021678291 90.12621467800932
176.49265520459667 300.05472107834584 99.0092349085298
172.67648994588006 304.6977732610763 88.94188097143262
167.5453581246282 295.86003437301423 98.04814164205035
178.9684132273422 304.1897497202544 99.03938481468322
176.3304311932747 304.0913134970411 99.00926062129165
168.70774548062403 300.63541153732416 98.99979534803049
171.23578648487512 294.86120472821824 99.00433079967816
165.90586310474612 301.50759882424643 93.57921257566343
181.8362221720862 302.82814523406574 95.90299152565778
171.21645761500514 308.46780875961923 90.22589848996854
174.8500994713381 298.5750063482811 98.99271310903495
176.11879392240178 314.0234965806203 87.58735940087767
175.51928192613926 308.6469804134567 88.68481204082926
175.44357207279876 315.9758783556051 99.02616574681855
180.03360331168437 293.04339061594686 94.73017102954891
182.29651394788664 306.18108328846625 92.36380275101722
179.59090011195264 304.4094172038338 90.69127521792748
184.39306038023227 319.10063399771093 94.2247642127189
178.5326107464147 291.96672986458776 93.63727159165835
182.8920172799653 305.38491857050553 96.73807256098065
184.79554796050027 309.30585284063704 98.41970490323556
180.11614424431698 306.0954649245337 98.99695639444396
174.9583725945892 301.5592716246278 99.05216574904311
183.69780358125786 306.7930410020963 95.01192031679093
186.4775569537617 311.412506640756 96.09472782135487
166.17224372160615 299.5770082963946 98.7350586222226
173.7140002940275 296.2840307647794 89.96332341448523
184.0490948598459 315.4729846689032 98.99727502462791
181.37920889604555 323.43631301393754 95.98536323487149
184.95244384293582 308.64000598146464 95.08041796196115
178.78387808222848 294.3316367040426 99.0751321874863
174.80546191767297 306.4348375302441 99.00562332268409
174.7491644199185 291.5333199995647 99.03884992730947
169.3184120158497 305.03310155020245 98.9918914979968
166.59685028602033 304.45927213115385 98.17682328464217
183.57003375842658 309.10129065715057 91.67039749750121
178.159409933572 301.51573440867116 98.99607359663848
182.30257664470747 306.7469418847929 98.93699207679171
168.84663425569664 307.26152475659694 98.15943622920236
177.84394432570357 308.82014575052176 99.09638575381184
172.9081700430262 309.7406600339675 99.00111592917368
175.74425228424133 308.89583232202455 99.06325242313306
178.9927148840171 306.7285842060282 89.33880463963686
186.2367314670226 313.0703414936223 95.39660021889631
183.12931554142185 306.44058614100396 93.65101997734247
167.9720454179043 297.9484887001404 98.95376828370702
179.31507912586522 297.27118810050916 91.91448104101647
173.31954412373406 304.04731794971224 99.07731054402734
174.30899486224678 290.4057556623233 96.21647073384071
185.67701130241022 314.6799617708105 93.68623269095984
176.48653592120084 324.7418966007132 96.04697469214852
169.4006212612132 310.3536966731437 94.19395869418943
185.20217880911662 317.7824073382234 96.00344511516998
186.07560128548218 314.22354136192394 97.21272167316565
181.1051727015963 296.6418170106245 95.38142567647766
184.7857977807182 312.623982422438 91.68461569573554
170.2720242751505 299.5362539116604 89.63244141211449
178.0771611107203 298.4184486009568 90.75869478644553
181.69844030702404 316.46095136015765 99.00298202919302
170.16016595173252 311.5417959998953 98.091652527559
184.22996674826902 307.8138061211836 97.31449844825137
181.1613886923095 307.822523276567 89.8583921530994
185.79173014105464 310.7132028089811 94.59730996357806
184.80115510254055 311.0556419100057 98.81616751374078
167.41007667005277 306.1146328192203 96.01622495695644
180.4030038392906 320.02840761775883 98.99969538055926
180.9533496977728 303.8232844131404 92.15219364222162
174.93908493088287 315.27977830214354 87.74130865722613
181.44885268514008 310.44640063976055 98.99267967195593
180.66711051314184 312.1557746237687 88.5027034017105
180.56470818338104 296.78960794485135 93.45844290369995
178.63657062013945 309.17931067477656 88.54168839506914
177.70857994513165 306.7655438942048 98.98707488940228
183.07439281041385 319.0224185773163 98.97396240081228
173.42397041012035 299.20443709440315 89.57728922473588
183.11977776238996 310.0072169461661 90.55403308107854
183.7117991395293 308.1231804269794 93.09719506924365
181.48340799542294 303.97577402919745 98.659365996715
168.9238905913916 295.3717191471955 93.10884097130865
182.84556866705356 313.26191827897674 89.56220605905607
184.74055929586083 313.75063841654094 98.85667374325666
177.50091127705792 312.55376910827033 87.68901739073229
167.04860587105603 302.68443144062707 91.47130400291213
182.97884371243654 309.3983251206758 99.03720040407582
171.40481273487296 297.3136290636975 90.09522687209272
185.635827506835 312.5724914049754 93.20950271936248
176.48389731472685 297.17687960365384 99.0385245271166
180.20656372678343 311.49496877713307 98.99315841569576
180.74421092753835 313.49853371815635 99.01778509865309
168.762455608981 304.97640953610744 90.68096374328394
175.08475080243937 300.6972301240507 89.40544691379951
179.61318688270006 299.8062886524189 99.01145548253693
169.45889071891386 312.26878844304537 96.0512357603288
174.3256444903443 313.46023502202 99.06141124511744
182.60029045886387 318.37609257518005 90.25259832502006
183.6073646423727 312.012731049403 90.63547733834582
185.824464649208 309.935495090802 96.95803193937981
171.61096459590658 314.5420790091877 99.03823293990746
177.47260422330672 290.81169564190066 98.9655839058555
174.74251148075828 323.71273674331013 92.49528840070143
180.92960839038673 301.19402801516964 98.27703896919125
184.2102520435132 319.85387278067003 96.28260621646446
183.26422302895165 316.98645863223476 98.97314774473445
172.10365350709043 291.3143630423771 98.02871379812119
183.77305777463084 320.30566161210396 98.07390319335185
181.9551232305759 311.52921215166805 89.24416386596111
181.19941981161008 301.42310880936935 93.44590099357788
176.95237266528684 312.5414092490358 99.01840925906664
179.20909707791662 300.12362975076223 91.51097357915275
182.83998131472018 321.7627159426557 96.77232198170144
170.1280419478499 309.3711202140549 98.41225019399577
177.80936418540352 310.8077302894905 99.02176701895439
171.3748606781034 309.91880301520365 90.38178548758684
183.2097885381601 320.23618642191605 92.7929577617614
182.3719631143883 308.031762396632 91.0018436212619
175.84055341223828 289.8280556467267 97.87005172052632
180.8456840117522 298.102922682081 97.95849840673236
176.89595187306497 296.625557658141 90.29856092530677
176.53106734326187 299.5647525441129 90.08609106333667
174.98136542015965 306.4019431515831 88.67237263582976
170.66406729098532 304.77378810002534 89.5332040840679
179.88336524699523 294.7916260369926 93.33591793666274
178.52697698119388 311.5479316565142 87.92413062870433
172.92867203692043 317.0260942979902 99.03446385198878
185.84219541105284 315.530947877419 95.68453234747051
178.01900091339797 315.0470005239158 99.05245158906335
179.3066783665933 317.5432645004059 99.00647539432023
182.4397115748406 314.85470177946894 99.03896770591004
172.8635304664506 306.57730296886257 89.02177878074389
183.90782058233728 318.14011272347904 92.06122792672038
168.45162444786817 307.0638044977629 93.16666708835272
184.4965141333497 310.53824303534657 92.3393586606555
173.5195668839207 323.12612479426434 93.81439641807792
180.3913808919678 306.2605420903008 90.52216940860396
180.06492895351613 308.81984641431194 99.0189739761448
185.27402427137764 316.1628280791662 97.94584656365154
170.99605638242082 306.7271142372029 89.97592432544253
174.131897552609 313.7002219113231 88.02849026605917
170.3972926449439 313.26365286095313 91.51527737534339
171.93487026370266 300.7501067647927 89.18606952390509
170.2222054653213 293.55930586246404 97.45878281736792
172.9336145817575 315.8224921392031 88.64701088762057
173.01535128136723 308.48368984795906 89.23651669852786
178.13808092577858 323.5351606415311 98.66830117651475
170.34467252490998 314.91000612924927 91.05395878515515
172.61848274305459 312.78179423463627 88.84965894890499
176.0276834514872 322.9836621270854 98.9707908505505
174.16868916589127 322.64301795214396 98.91426770400341
172.64713267007227 322.1974300260498 98.17463449540253
182.49761947110426 312.068569284198 98.99976593742144
172.12176955829085 322.1487531320966 95.22654689010618
185.06242646700784 316.8723006664404 93.92807618908434
168.57351316957488 299.36527106566405 90.44026300133783
169.42409578813167 310.41915463969764 96.5529848605304
177.38502308517144 321.3514220980951 98.99115759510316
179.91928568950172 315.7341026864836 99.01300244839035
175.29068051862848 321.1526825794852 99.01643823637855
173.42720867991645 320.91047205350253 99.02648991846627
171.911981964293 320.7551505559387 98.5600121518087
171.07727949159425 320.47723587673494 95.8775274733342
170.63893443190983 318.4764335518247 98.99852035803056
171.21737579381278 311.9700245097255 90.04735219918099
174.42808290736693 319.56216591368565 99.04149133393793
172.7810749849976 310.8910273270961 89.19453967668524
171.80905859987277 306.8287246669625 99.03394007433303
179.76341722107406 308.1960361297896 89.21501817126205
178.93503889682256 302.6619214809044 90.77192543929672
174.00142430097478 311.9781991482376 88.5617497559748
POLYGONS 700 2800
3 32 1 2
3 2 3 32
3 2 1 0
3 2 0 4
3 0 1 5
3 32 14 1
3 4 6 2
3 6 4 325
3 2 6 3
3 4 0 7
3 9 8 7
3 7 0 9
3 0 5 9
3 9 11 10
3 9 5 11
3 12 13 11
3 12 11 5
3 1 12 5
3 12 1 14
3 12 14 13
3 32 15 14
3 325 16 18
3 17 16 325
3 20 18 19
3 325 20 6
3 321 195 21
3 6 23 3
3 19 23 20
3 8 24 22
3 8 9 24
3 25 24 10
3 24 9 10
3 10 26 25
3 13 27 11
3 29 28 13
3 13 14 29
3 14 30 29
3 14 15 30
3 53 30 15
3 15 31 53
3 15 32 31
3 18 35 19
3 36 21 37
3 23 41 3
3 42 40 19
3 42 19 35
3 19 40 23
3 22 24 43
3 43 24 25
3 43 25 44
3 46 45 44
3 44 25 26
3 40 88 41
3 26 27 278
3 41 48 3
3 49 50 47
3 49 47 278
3 27 49 278
3 27 13 49
3 49 13 28
3 49 28 50
3 28 51 50
3 28 29 51
3 29 52 51
3 29 30 52
3 30 75 52
3 30 53 75
3 53 31 283
3 33 55 35
3 42 61 40
3 69 50 51
3 71 70 69
3 51 71 69
3 72 101 71
3 51 72 71
3 51 52 72
3 52 75 73
3 101 72 73
3 52 73 72
3 75 53 74
3 74 53 283
3 76 78 92
3 56 77 55
3 56 57 76
3 76 57 78
3 92 94 77
3 68 69 70
3 70 71 212
3 101 212 71
3 101 73 90
3 91 90 73
3 73 75 91
3 74 182 91
3 74 91 75
3 31 32 48
3 283 182 74
3 94 95 80
3 346 96 97
3 97 98 346
3 97 84 98
3 98 84 86
3 80 95 61
3 87 89 99
3 88 100 334
3 89 212 153
3 153 212 101
3 90 91 234
3 182 234 91
3 94 343 95
3 94 92 102
3 86 99 338
3 100 95 343
3 153 101 90
3 20 325 18
3 20 23 6
3 41 23 40
3 48 32 3
3 41 88 48
3 61 42 80
3 42 35 55
3 55 80 42
3 88 40 61
3 76 92 77
3 77 56 76
3 80 55 77
3 77 94 80
3 48 88 117
3 88 61 100
3 100 61 95
3 94 102 343
3 338 99 327
3 100 343 334
3 149 153 90
3 90 234 149
3 31 48 117
3 102 96 342
3 346 341 96
3 341 342 96
3 340 346 98
3 340 341 346
3 338 98 86
3 338 340 98
3 103 343 102
3 103 334 343
3 332 103 342
3 342 103 102
3 331 332 341
3 341 332 342
3 330 331 340
3 340 331 341
3 327 330 338
3 338 330 340
3 104 334 103
3 105 104 332
3 332 104 103
3 106 105 331
3 331 105 332
3 107 106 330
3 330 106 331
3 327 107 330
3 316 88 334
3 316 117 88
3 137 334 104
3 137 316 334
3 105 137 104
3 106 141 105
3 141 137 105
3 107 141 106
3 327 149 107
3 153 149 327
3 316 283 117
3 141 182 137
3 107 234 141
3 234 182 141
3 149 234 107
3 283 31 117
3 137 182 316
3 182 283 316
3 21 351 321
3 21 36 351
3 39 62 349
3 36 347 351
3 18 328 35
3 35 328 33
3 328 322 33
3 326 347 36
3 34 54 322
3 322 54 33
3 351 329 321
3 321 329 17
3 46 67 45
3 45 67 64
3 46 313 67
3 78 344 92
3 92 344 102
3 78 96 344
3 344 96 102
3 34 235 54
3 84 310 86
3 86 310 85
3 84 339 310
3 310 339 85
3 321 17 325
3 83 309 82
3 82 309 84
3 83 339 309
3 309 339 84
3 93 307 78
3 78 307 96
3 93 97 307
3 307 97 96
3 345 329 347
3 347 329 351
3 68 297 69
3 34 345 296
3 296 345 347
3 294 337 59
3 87 293 89
3 68 70 293
3 81 291 82
3 82 291 83
3 81 295 291
3 291 295 83
3 326 296 347
3 289 62 39
3 288 293 87
3 16 329 345
3 66 286 319
3 34 322 345
3 322 16 345
3 78 281 93
3 93 281 79
3 78 57 281
3 281 57 79
3 47 313 278
3 278 313 46
3 93 277 82
3 82 277 81
3 93 79 277
3 277 79 81
3 54 276 56
3 56 276 57
3 337 235 59
3 83 272 339
3 333 311 272
3 272 311 339
3 322 328 16
3 16 328 18
3 333 272 271
3 271 272 83
3 329 16 17
3 235 34 58
3 34 296 58
3 195 265 21
3 8 22 265
3 311 333 264
3 45 263 44
3 44 263 43
3 263 289 43
3 62 259 298
3 259 279 315
3 318 271 295
3 295 271 83
3 85 257 87
3 66 288 257
3 257 288 87
3 39 255 37
3 37 255 38
3 39 349 255
3 255 349 38
3 43 253 22
3 22 253 39
3 43 289 253
3 253 289 39
3 318 252 271
3 271 252 333
3 318 267 252
3 252 267 333
3 251 321 325
3 87 249 85
3 85 249 86
3 87 99 249
3 249 99 86
3 65 247 280
3 65 264 247
3 247 264 333
3 315 269 246
3 267 247 333
3 62 245 349
3 349 245 317
3 62 298 245
3 245 298 317
3 286 66 257
3 257 85 286
3 57 243 79
3 57 276 243
3 243 276 337
3 311 242 339
3 339 242 85
3 311 286 242
3 242 286 85
3 201 335 313
3 313 335 67
3 4 251 325
3 279 239 315
3 64 269 239
3 239 269 315
3 55 33 56
3 33 54 56
3 319 264 237
3 237 264 65
3 319 236 66
3 236 308 335
3 337 276 235
3 235 276 54
3 67 233 64
3 233 269 64
3 321 251 195
3 44 26 46
3 46 26 278
3 308 233 335
3 335 233 67
3 7 195 251
3 251 4 7
3 227 246 269
3 21 265 37
3 81 225 295
3 348 224 294
3 224 225 81
3 233 308 227
3 227 269 233
3 295 223 318
3 318 223 256
3 295 225 223
3 223 225 256
3 60 303 38
3 318 221 267
3 221 244 267
3 298 219 260
3 260 219 315
3 298 259 219
3 219 259 315
3 279 259 289
3 289 259 62
3 231 215 348
3 256 225 215
3 237 65 227
3 227 308 237
3 244 213 280
3 213 246 280
3 37 306 39
3 39 306 22
3 37 265 306
3 306 265 22
3 289 263 279
3 279 263 45
3 89 293 212
3 212 293 70
3 311 211 286
3 286 211 319
3 311 264 211
3 211 264 319
3 349 226 38
3 38 226 60
3 349 317 226
3 226 317 60
3 69 297 50
3 50 297 47
3 246 208 280
3 280 208 65
3 246 227 208
3 208 227 65
3 260 213 207
3 207 213 244
3 256 205 318
3 261 221 205
3 205 221 318
3 267 204 247
3 247 204 280
3 267 244 204
3 204 244 280
3 244 221 203
3 203 221 261
3 68 201 297
3 68 285 201
3 317 200 60
3 60 200 350
3 317 250 200
3 200 250 350
3 298 199 317
3 63 250 199
3 199 250 317
3 82 197 93
3 93 197 97
3 82 84 197
3 197 84 97
3 38 196 37
3 37 196 36
3 196 326 36
3 8 195 7
3 8 265 195
3 64 239 45
3 45 239 279
3 58 193 320
3 320 193 326
3 58 296 193
3 193 296 326
3 63 203 192
3 192 203 261
3 294 243 337
3 256 215 188
3 188 215 231
3 205 187 261
3 205 256 187
3 188 220 187
3 187 256 188
3 207 244 203
3 203 63 207
3 288 66 285
3 66 236 285
3 237 308 319
3 308 236 319
3 288 285 293
3 293 285 68
3 284 192 261
3 59 222 294
3 294 222 348
3 222 217 348
3 285 236 201
3 201 236 335
3 231 206 188
3 188 206 220
3 47 297 313
3 313 297 201
3 260 199 298
3 246 181 315
3 315 181 260
3 246 213 181
3 181 213 260
3 326 196 303
3 303 196 38
3 178 194 206
3 350 175 60
3 60 110 303
3 303 110 185
3 60 175 110
3 231 180 206
3 206 180 178
3 231 173 180
3 180 173 178
3 284 154 192
3 192 154 290
3 284 300 154
3 11 27 10
3 10 27 26
3 170 292 290
3 192 169 63
3 63 169 250
3 192 290 169
3 169 290 250
3 290 168 250
3 250 168 350
3 290 292 168
3 168 292 350
3 79 224 81
3 217 162 173
3 173 162 189
3 89 158 99
3 99 158 327
3 89 153 158
3 158 153 327
3 185 304 320
3 320 304 273
3 185 161 304
3 304 161 273
3 303 312 326
3 326 312 320
3 303 185 312
3 312 185 320
3 163 160 174
3 179 157 300
3 300 157 174
3 179 164 157
3 157 164 174
3 166 122 177
3 154 170 290
3 63 228 207
3 207 228 260
3 63 199 228
3 228 199 260
3 179 184 194
3 194 184 206
3 179 220 184
3 184 220 206
3 164 214 174
3 174 214 163
3 164 152 214
3 214 152 163
3 217 148 348
3 348 148 231
3 217 173 148
3 148 173 231
3 348 146 224
3 224 146 225
3 348 215 146
3 146 215 225
3 177 143 194
3 143 152 164
3 178 142 194
3 194 142 177
3 178 166 142
3 142 166 177
3 305 202 140
3 138 161 185
3 294 136 243
3 243 136 79
3 294 224 136
3 136 224 79
3 302 167 258
3 258 167 210
3 302 301 167
3 167 301 210
3 202 139 135
3 135 139 232
3 170 230 292
3 301 134 210
3 301 140 134
3 134 140 151
3 144 143 177
3 202 132 140
3 140 132 151
3 202 135 132
3 132 135 151
3 324 287 144
3 232 216 287
3 287 216 144
3 172 131 232
3 151 135 131
3 131 135 232
3 172 232 287
3 287 324 172
3 163 130 160
3 130 139 202
3 152 282 163
3 152 216 282
3 305 238 160
3 160 129 174
3 174 129 300
3 160 238 129
3 129 238 300
3 301 127 140
3 140 127 305
3 301 230 127
3 127 230 305
3 176 126 324
3 126 172 324
3 156 124 159
3 176 147 124
3 210 123 150
3 210 134 123
3 123 134 151
3 194 270 179
3 179 270 164
3 194 143 270
3 270 143 164
3 139 299 232
3 232 299 216
3 139 282 299
3 299 282 216
3 150 262 156
3 150 126 262
3 262 126 176
3 222 59 248
3 217 218 162
3 218 248 165
3 163 171 130
3 130 171 139
3 163 282 171
3 171 282 139
3 248 133 165
3 273 266 133
3 292 241 302
3 302 241 301
3 292 230 241
3 241 230 301
3 220 125 187
3 187 125 261
3 220 284 125
3 125 284 261
3 151 131 155
3 155 131 172
3 162 121 189
3 266 183 159
3 161 240 183
3 314 248 59
3 160 198 305
3 305 198 202
3 160 130 198
3 198 130 202
3 159 191 266
3 191 128 165
3 189 120 173
3 173 120 178
3 189 166 120
3 120 166 178
3 128 119 147
3 159 124 119
3 119 124 147
3 179 275 220
3 220 275 284
3 179 300 275
3 275 300 284
3 210 268 258
3 156 240 268
3 268 240 258
3 189 229 166
3 229 122 166
3 121 162 218
3 128 209 121
3 229 189 209
3 209 189 121
3 248 118 222
3 222 118 217
3 248 218 118
3 118 218 217
3 191 159 119
3 119 128 191
3 156 268 150
3 150 268 210
3 133 248 314
3 314 273 133
3 147 229 209
3 209 128 147
3 300 116 154
3 154 116 170
3 300 238 116
3 116 238 170
3 258 323 138
3 138 323 161
3 258 240 323
3 323 240 161
3 324 190 122
3 122 190 177
3 324 144 190
3 190 144 177
3 176 186 147
3 122 229 186
3 186 229 147
3 122 115 324
3 324 115 176
3 122 186 115
3 115 186 176
3 266 114 133
3 133 114 165
3 266 191 114
3 114 191 165
3 152 113 216
3 216 113 144
3 152 143 113
3 113 143 144
3 126 150 155
3 155 172 126
3 350 145 175
3 175 145 302
3 350 292 145
3 145 292 302
3 156 262 124
3 124 262 176
3 123 151 155
3 155 150 123
3 58 112 235
3 235 112 59
3 58 314 112
3 112 314 59
3 320 111 58
3 58 111 314
3 320 273 111
3 111 273 314
3 175 138 110
3 110 138 185
3 121 109 128
3 128 109 165
3 121 218 109
3 109 218 165
3 170 254 230
3 230 254 305
3 170 238 254
3 254 238 305
3 161 108 273
3 273 108 266
3 161 183 108
3 108 183 266
3 138 274 258
3 258 274 302
3 138 175 274
3 274 175 302
3 159 336 156
3 156 336 240
3 159 183 336
3 336 183 240
