# vtk DataFile Version 3.0
A great-looking cell
ASCII
DATASET POLYDATA
POINTS 568 double
239.87055440586454 301.56777733942596 53.08485047458998
241.5140380621736 295.8009355385666 55.91219152737302
238.29977011956797 302.7153231689049 51.75241706093213
241.3358367057476 301.0644677493317 51.45679648938769
230.60336061746656 299.93807030689464 24.020238042307973
244.57128082547462 290.84565096295006 45.78590786354572
234.24118775480525 303.08201953003214 52.47184255064184
240.95591328383867 297.5004621048988 35.208151351161916
245.4347794300453 292.7854820627995 45.62720014874395
241.59516847633984 301.3258755460782 47.2468158712567
243.63900365152813 299.04082456006626 43.18036559555089
244.65059650634373 292.78036527552774 51.36363029580577
237.02016399534378 304.10005687936643 43.755559328497974
219.78861797924523 292.71791904198636 32.684809173688045
243.22846396757282 294.6615220269555 37.13265687157659
240.9285922298804 298.7027082475772 36.932368429064724
237.3310207138832 303.5366845230623 49.41353267412371
242.6161719448508 298.2270379839263 38.92587161618551
237.37171835903578 303.7471697760167 45.1556213884416
244.17316065961015 289.9518150491148 47.90426394559751
218.9978926808646 299.7673918689134 45.50454351237588
230.96503273967176 306.70420302395723 43.28176337081149
230.72342984115477 304.49456921664364 47.859134959398325
226.4499707969315 293.3391739083627 54.20209841847727
219.4943353339974 302.96844819181166 40.31766205928529
228.7802884454881 288.8249859043884 32.77958587039301
237.4803058962594 283.0641497411023 50.330252102507345
233.23261864946448 307.02168845370005 37.0550372347607
238.28050114190984 288.46402501747184 33.98580619505674
225.72885368291725 300.72607582215625 50.834343389887515
223.4441377796022 290.6785859801988 31.5598616414057
223.41778398561542 290.6396743903529 48.618115701946344
225.2958666132613 288.52031377808225 49.356511780478385
223.43666223656606 290.3713808027301 35.55248229304656
236.1175164584 285.88656576512176 56.583643252024395
219.05043193646276 293.6449789470384 44.26762613330447
236.2657469764937 304.8507181690901 38.8249864871368
229.71601009559532 286.73300526078623 35.704323785268905
223.66394803811028 290.08805327111423 46.544677684566224
243.0405159894841 296.69139850220745 53.744939596625635
224.38814273494742 294.3657221576595 52.08231074334179
242.82285653527228 291.6120759620916 34.770202768060344
226.09869711189017 281.7688566125377 45.54255303761403
227.62115425685488 284.7238878730759 39.51699068814347
228.77111267372445 282.73083165361766 40.30859139641668
233.17343710292883 303.48769563806025 50.87358837863328
234.19689305416384 283.4262301417515 40.24363149797401
239.4631652413349 297.17811471676504 32.78578298166708
226.68101180448025 307.26192230430627 37.883414026560786
225.58625669656666 298.2817017063323 52.983045045149375
219.36875601737634 297.56953260466366 45.89638336744207
225.85950936262265 286.6725219130646 42.78714438108651
240.0997666764503 285.33123993947174 43.28160045860727
233.42363232134886 281.3565653868752 43.90098796831604
225.71569660986802 282.7808011085058 48.609099059909305
222.48236523699148 299.18042735475683 48.70786244786607
225.4740898355581 286.334047695691 45.59800825431541
232.42184995823558 280.7113726353876 49.289828490030374
218.01661445441937 294.138712555093 38.3432783727521
235.79593807846086 303.54985257672075 51.627782577236616
235.49495717481804 304.83202767267045 44.550843485938046
243.2349912282766 289.09942260659386 41.464720557185586
224.74467545910957 291.3076982363647 51.40128652789523
230.094029398844 301.510406955797 53.41531822590748
243.82964899582726 294.54949378024577 53.20758275804391
243.69300514369712 297.5933742098327 40.961482874861176
237.01989032985375 284.2406610159467 41.20696883068612
243.04621968511466 288.1930108653144 46.43127167298222
237.91173852050912 302.67538747661166 37.58205614774489
232.3280329121683 305.3283732460284 31.7505268413304
228.84431059623515 291.42760095964877 26.82006743937388
244.1036545179962 293.5931675531122 38.96394564619278
243.46219323472653 289.5801256227469 52.34604957007575
243.3766578578342 296.9601961134171 39.4157400363178
226.30738564030102 306.3915373941862 31.83169982995519
236.7231004102236 298.13714049796425 56.46187782804089
217.24868610271378 297.41813114873173 36.05722014631975
227.97389617958305 279.8552943954858 46.72315427146907
240.62788165182414 296.06446515515785 33.90986392553819
218.84244759004847 297.686033897958 29.25024836155487
241.22652279944236 285.62687951345004 47.45634677188792
227.5287302665584 293.3383445707571 25.1754755888695
240.10175226083277 302.12702083956 45.38951319812585
230.06406297639523 293.1883142820323 25.553576412876993
225.16503632710499 289.5464130259857 34.55037750570779
243.27929086629513 288.42039017334315 48.19423986446232
239.53218341889743 287.6221783564657 35.86226827253484
228.4715489396772 303.86000020504645 25.952504091788736
223.39784245657364 303.1567607805313 26.418134580798235
226.95499284713821 282.084672132494 42.6019762213976
241.974850234578 296.397183827662 36.18072847022609
233.0092906558547 296.62506142322354 56.874730010596934
225.38706261378533 301.67915432780535 22.497379548753834
235.66394619734308 282.5292285128679 45.47865331987493
223.6298884066628 304.35801182791886 43.583101553855926
222.4916328037828 290.6853555394924 39.76841913027018
240.08270403620733 302.2764949549519 47.26058508675756
240.20927399682625 284.90092842079355 52.086010559433205
224.7924553119264 289.11069525875166 37.07023474396273
240.50356118935073 293.31838602316986 32.912653931815804
220.67832876053882 301.8764357690917 45.01622557870934
244.8483721968044 295.37789630821334 51.07543129045162
242.26657509000302 287.78626980283974 41.47972382438347
243.21219276427612 288.5763001194098 50.00749526123784
222.87672051031313 295.63903063288717 25.019587326554717
233.78958565628997 306.6401936965678 39.684761661357484
235.0143534750685 300.9459822823386 29.29235913294314
224.7159891780516 290.09946492283484 49.739605645457736
225.14968362807113 294.6648969269666 24.39072853096208
239.7165456939949 298.01121313404246 56.401446526060106
230.0022343888486 306.7464422229572 32.048840850375214
230.85832509483063 286.9115617729421 34.395486562183926
220.4969097707991 295.90147326562504 27.241744228333307
241.23908103507398 299.83093108763086 39.171389056858295
239.86224651195525 302.0908877361847 49.36732135205596
219.4851880034477 299.49543778478875 27.966675340175097
224.36900104957203 289.081226354485 48.05559097336898
237.37560935127078 290.14601345834706 57.868257526797365
231.80259203912306 294.2828814369766 57.81298788108962
218.54935291696398 293.656568283914 36.67134128402066
230.87156536718416 303.2803651465977 27.166849038624576
222.84842136192654 305.5140896874509 35.35027137129123
225.7520933277596 284.2079209377399 43.92765211014323
227.8192251286911 306.17448266799056 43.431509086626875
221.75976414259404 304.82010919732164 32.64509996340329
227.59866410223964 298.0840518691682 54.97356556337439
234.10774463663887 298.8314817262976 55.877694478872016
237.56846006669412 294.81081042407493 57.23212089307863
238.9411421045125 300.7239613560919 35.98561776553392
234.89808558545957 297.2987699934387 56.69974556139074
233.49512414024622 289.3004769232802 31.517225116871487
237.7315627357428 286.3915490359173 35.88752784201516
218.58634105098125 300.5746246319519 43.56906327362712
236.59500808225968 303.7201814973877 36.86997905323159
219.51268297480388 297.90257085724886 27.74588387314538
231.38305537286334 283.2282028691223 39.115940300283604
231.60010384383878 288.8540893121584 31.659131976340046
233.70750990417068 295.0657122242371 58.116644257878725
236.1109311934164 298.9650519381721 30.26557508822732
235.02112574966122 298.3651017321539 28.063498961076892
241.62881657728028 286.25350626247183 43.215351127912484
217.66456851704302 299.79773477840854 38.04845750108308
238.06864823584098 283.7081371464496 47.24531938627433
238.47809145456253 303.0276630927816 46.99233369227563
237.71069992920133 285.32802431931583 38.56906046369132
223.78117485865073 293.19676613811265 51.050838618289156
242.3632024064376 299.2493337462954 52.9666954940213
238.6274949265724 303.0640408008704 43.30249619911738
238.28130830065024 283.73511016039396 53.00327591568991
229.80956653706275 289.23025598419605 31.285675968085805
220.75486410834222 301.32275878570414 26.87021536662231
243.74488370582515 291.8465778173698 53.65089306783263
224.87313217121516 292.64606983600834 26.396980840003387
232.39038503486006 289.1902441106156 58.69055399098064
242.28499801499564 300.6230839856133 44.845860183607144
229.41895105802868 279.4769408626562 45.275872206386076
232.71822610837947 302.4090793768671 53.44779266478754
239.41033438932178 289.48084300014006 57.60050384730374
221.58329606583516 291.1283862970225 32.48466089964666
233.69795747017292 282.30630137686 42.07922583794683
232.14615254662226 284.72232681637735 55.84271540229343
219.60657624679496 294.1370505768354 30.65375396885609
245.21526266144681 295.8039926480877 48.587489466528226
224.18843294718621 299.905443648716 49.587403324527145
237.87844409912591 300.54515118914327 33.755766516499826
228.57680232306546 302.42429733191176 51.12005936962087
217.19078031000544 297.76631601272464 38.1527767959261
228.7775116686219 283.3053360005464 52.66681452257126
218.26416847348068 301.1133911117563 32.63075816383312
239.8833292024718 291.6079511439125 57.47899398410675
225.93301124480791 289.18015155053524 51.33775344229051
228.75601583949125 290.0381341736802 29.233257835908287
224.39527900251755 302.5474589951849 24.53028497044403
242.78230713536374 293.74747406451434 55.12239900017804
228.01729798701297 281.9993008587126 50.45752920443037
219.2342587756208 293.2789713839438 34.75646520560313
222.2695002505934 290.6782482383263 44.704499555687065
220.32858226624293 303.94394991847764 39.141824958226984
235.7451326960197 295.6286754660961 57.63796806244773
224.5607305729566 304.0346835763157 45.18425691667932
230.34540463097704 287.99511997736613 32.81280801603759
231.87307983892913 301.21363919738366 25.651033834620602
230.52418962359695 305.36700005795 46.15350774790149
221.10582625370634 291.4637322532218 38.182668195096376
237.48233512522432 284.32737592000694 55.240494648634495
228.10654508170737 280.2129453012086 44.137646364509
232.83801009160786 283.3327679064483 54.50615396828516
223.99040226024974 305.97294021338087 38.063490266795675
230.95696081030297 279.7337574058927 46.67192428101662
234.55825177196326 281.8927972172165 50.47103079623393
229.47837710834946 279.89300479427345 49.31392710712436
235.38024854439655 288.2074442226957 33.301391067641134
235.61065062350033 302.96539676206663 33.50215072670607
220.43466102911134 292.0069849083878 40.653737169083875
242.23707640867244 293.9110168455893 34.93083724439982
228.65320014194515 303.66888704463594 49.52878897134673
235.91467571715532 304.27460853818957 47.10083249896175
224.2444741844805 289.4495788335863 44.570656169968935
224.19185045102503 301.7252962126618 48.379174879985975
222.2291796570756 292.1436630256166 49.74584530063074
233.96277696709603 302.47388018383947 29.26287298141094
235.93213764819498 291.5556426352249 58.485789979956145
224.68130809605674 288.37563364133774 46.12834755673729
222.66511673485763 298.885182728344 24.019876593923787
240.152260157906 286.57935333907926 39.26191192443317
225.30466994969953 295.5352452618988 53.14874105065489
220.4727528681205 303.3883672262986 41.60668200875645
231.15507129664883 295.93221792686666 56.812113768402746
244.10754750670714 291.3520809875295 38.46965162136091
227.81530937188992 306.20163927142386 30.837437371809937
234.12567397052007 306.25724541732825 42.51056883687691
229.59320714638523 295.0530495204663 24.10232614874042
226.16552993320107 280.8427144252456 47.420279380430046
219.91428019019975 301.01899284817614 28.400122849798585
227.03404063596582 280.5267775046527 48.88479392991129
239.57948151742374 298.461365097787 34.326597299331304
238.65552956427524 291.02389355706066 32.28082622802991
227.84836368266946 305.0646638971177 45.90800728550751
221.64269760403317 299.33930887078157 25.416238636081037
225.2888352791912 285.35804580168184 47.979776521422224
229.4522464293331 295.1396400400966 56.51935182529524
225.66944813698586 284.778081252354 49.52475257001331
244.32279700407724 295.52829243751836 42.16738260265987
236.51126374413553 304.58504075650217 42.00543542872104
241.86164677325644 292.4776073301593 33.836678901613595
240.46797210920732 301.2808361223571 40.571961102010675
245.0489002625184 291.79912301588286 47.203711676759156
240.83064782498363 289.11170022507537 35.00016547833423
228.1654727590719 286.9949718873103 36.45362515269953
234.43352326050905 305.15506667493077 46.22429803277474
244.76222485408587 296.73977730160357 50.08290815603826
233.29742043312717 293.6166447145002 27.371398147742145
224.7288471137337 288.5935621209332 42.82287427359134
239.1982201527859 285.34039497000714 41.01945393086117
234.28492678021482 295.3359592217564 28.044470137690755
228.56209028488576 296.6700020668826 55.82426791951186
229.25992499956868 305.9756447112691 44.76356857867648
244.49693852578966 292.14955846971606 39.762935815141276
217.47169697232624 299.232948726033 36.30358432156939
229.5920724758723 285.8231394872359 37.06135694677782
227.0871388189388 297.4654499184552 22.616908073147705
226.90425253410714 303.1265391930267 48.93671420744561
240.5463163352737 300.0240328066389 54.60747792779501
224.97985913695751 293.1336470375136 52.59881564571633
230.3487421639831 297.67279876815854 56.09598682934011
244.87737999844933 291.66422588505935 43.78408187166411
225.3656417067283 287.45128135429695 47.809997324452375
227.03798023782818 295.61578562228567 55.333036753427336
218.30662156213484 293.74292539340087 40.413578388111354
244.12834192034254 290.6878094625692 50.44280063894707
219.34526134162823 303.12557135991864 37.69688112597057
226.54336943988014 290.20365036368423 30.058925087221784
243.18205987644296 299.6765954906862 50.46777894303453
223.9860524339609 298.19651732466747 50.8208211104028
223.88543700646525 305.57107796757793 40.8623521176175
235.0393019083551 303.9942466378067 49.39015334019606
231.1832716164988 283.38848251015486 53.678567811543594
225.3051751141043 288.5508625178523 39.39333190318495
221.57073191398874 303.39021386610256 42.789395624725266
227.07238090469662 289.33590447021015 53.50200822364324
229.03639396924135 307.2241531235293 41.51222796435747
223.5405075980784 290.46379107679076 33.4398624768097
238.80542054124305 287.3197521769673 57.269255643771935
226.4462883249632 286.59042413286426 40.038472968377214
233.33680002325283 287.3628105994264 57.2964500425986
227.30237794466143 295.0718555970795 23.233296629327644
239.7124248448193 285.710205217539 54.61271422707085
244.12914695617658 296.0868465362206 52.49187411771943
242.30475480847963 299.81578398978667 41.16355515032673
231.49754860602627 306.74944482465037 33.09899987776833
243.6755232113371 295.07094878601026 38.439427055990095
239.67336292728467 296.12080890346135 56.58378653488826
235.1789236570782 286.22632120559393 35.41399075987121
230.11940387923866 305.10410550206717 29.509829076482823
232.8269714615533 306.46809302236215 34.40402621410164
234.36215548594316 303.06158587214935 31.139400341848095
225.5773933058093 305.0357509520704 28.253757628912094
238.77768089486912 295.40827775638706 31.867664064468478
239.69691282611882 302.2466333839095 41.74540408273645
238.36408723624376 300.074031345481 55.41927163510389
242.67833260840447 288.0243629148151 51.762611535636815
244.21677205232456 298.69320278039555 47.43957986406898
225.27230947778872 306.85938623108194 35.59080516621661
239.84531588930278 289.7360377659078 33.51852655067928
224.78222455349783 299.2442068958266 22.37519567051905
239.11883326829732 283.92901818699653 51.239738883827286
232.06117633441437 291.36365398698695 58.48484005026371
221.7150049619044 304.0355724523478 30.081588683237257
233.38442817937386 299.5188537377446 26.262887026929082
245.27388100915752 293.5900974808991 47.64417790139404
232.3076745000314 298.32670473417056 56.04145895192136
245.07548186078 293.92538769754 49.559609601452166
241.80877922606487 286.43064091286607 45.09487211178695
228.52210032017624 308.20341279086256 37.73706903345078
231.2089900379173 284.5730029608923 37.34297134000615
242.70951984063765 290.03757998052674 36.7300556521973
228.91606954092856 304.2502416723025 47.913323058785714
241.75439078578546 286.51581919599295 50.94562413570814
243.57266218032314 292.52920565291333 36.6599838834684
238.5076318545703 302.8762688882717 40.33274278397035
235.37776272180324 282.85904517066365 42.787314575011514
235.94803404814334 282.76386574943507 52.71545931353144
241.02788607916426 286.09874087126434 52.87738672663853
217.51404733024702 295.53439832507473 41.118572892233885
231.80564178382696 300.0596629699106 55.13402533096705
217.48812869040313 296.73198890822135 42.606849159650906
227.62691547901852 300.38091148894375 53.24186334421279
233.33728486175985 301.7762483913136 27.636533504847915
226.5957502551439 287.64932132843984 37.82476825952006
221.29705630553283 293.0623309839282 29.211897846020197
220.4860249824854 291.9330377818367 43.332344009026784
224.5001267137767 296.9447357689101 52.18369895723042
222.1757403769685 294.2323440823954 50.51223453116999
244.2775010177215 294.41285958194635 40.54161928403241
235.18741115700018 304.89135029937125 35.82439186209269
223.3091988304017 302.8712624921235 45.74836194154484
230.68443299098027 289.27684573396033 57.20085601012071
219.78263776622933 302.28643146477214 42.483494551573116
224.5439420834532 306.1930387902819 32.81050152772591
229.16314200326738 290.2307562056648 56.12991013350759
222.21144822454144 290.72380153675607 42.088485613936804
227.41288388092303 307.18915010642564 33.637729456794844
225.84094864593473 304.8078399410187 44.5728340241192
241.24407133161878 287.83336830710164 37.3263698366693
225.88729448131727 295.92712295654405 23.16040055000453
230.33378353632455 290.73718308098705 28.12452290697317
235.65649308987344 290.6126981145122 31.38874424958588
218.91814345728073 299.2216714128106 29.542144016078417
223.75599379649154 304.43241563395 28.474585368968313
220.43254515137428 292.58493012475833 45.85306722522437
228.80366867602072 287.83892683870624 34.489506660401915
218.08716359726972 301.18136712471016 36.83182202287967
244.0493254677172 295.6955435638976 39.71938420041227
228.77168028490388 301.6432012902185 22.95405787878142
226.3084334154791 296.91071563850903 54.14351536268617
220.64635405670373 296.9705420164519 47.82132931471839
218.0617683170076 294.59079070819206 35.181984562837094
237.74704136536326 301.7516365545574 53.92397175912903
238.8151064631264 293.2512986232387 31.77667540755672
227.70842562499232 289.4660155729598 31.464799428219994
222.97485349309125 290.50188494539776 37.62735632331474
244.12015089974776 297.5576059030135 51.53867636736844
222.19370962059247 294.1268806212067 26.941361653634242
241.1732970384898 289.06250594502694 56.393621425426836
230.45177719654052 307.78635488337653 34.50868706244563
232.5339765016785 306.88292127695064 41.46527432274194
219.2841255820966 292.7171285180869 38.45857236231021
235.480211147133 282.46678200599774 48.16684240553754
217.59174449274076 298.33336925304724 34.34824902608098
220.15892737886733 303.4208833975522 31.54829194877576
224.67275625131853 291.4759902193563 27.978212655477794
227.83482089475604 284.9253537732551 52.90973531801609
233.08504819323815 305.5446377975477 45.10382188430536
221.530902444138 295.66616739049795 26.019789030513458
221.32279080596723 297.49394894637464 25.648436214514973
223.75696838569934 291.4309868354848 50.144472477906156
223.71757360368352 295.5727584650521 51.399334909444846
223.3889396937242 305.18713175012255 30.77768772897277
227.3691559976078 286.9156090116728 52.610043074840746
240.7594774661648 287.1031834496364 55.79531661610166
225.65275941453643 304.209186923147 26.381194489127143
231.2197323705124 307.7766312244598 40.33232227430368
235.55996615479455 294.33444997921913 29.37218327224255
225.53515490996716 305.5985950298972 30.153535294934425
232.1151804368816 297.8204503050153 24.642508083169755
221.8557734574281 291.3785102708676 47.43658052484934
218.89506913734556 302.6862261129117 33.25458531349793
232.17513718279866 294.9420802257228 25.68850442224639
236.4185141191377 296.2900480918245 30.002821317397302
225.0382923841675 287.90856153204356 44.359082475749176
244.3953557853647 292.84177848918415 41.44020918904008
241.29245972872647 293.45270742980716 56.53112903332356
236.98983190863257 289.5907345400472 32.75594938094649
221.72205874934926 291.2116715515075 36.12059159001513
222.65296222202792 305.24465948908414 39.363650971319295
227.07544803395965 301.8569628389241 22.50835577186745
241.9860706071924 300.98665061028146 49.335218354465646
223.86643750178862 289.5928190971247 38.98207672280505
242.83259060282114 287.8536590250275 44.70180724645572
222.8163959558611 297.2340955923949 24.54492374261168
221.4597775623582 304.7676453852422 37.90562460252648
228.58978095370512 296.11882152192857 22.881807901805885
221.45137330863983 304.38321736032395 40.551763685808794
225.56237485942034 305.51519741965404 42.651765753619905
221.41352875207838 302.8956014028912 27.680915098792386
228.8075728157611 299.317074758294 22.68145683178102
231.2116839818921 286.01085528015045 36.034344002214475
228.6729732700786 308.1248888637101 39.42774651369266
230.8559935655056 287.0365170147102 55.97242644947887
224.39031468668648 296.94145172718436 23.560328064837215
232.81410401830146 286.31120300589515 34.811448716825126
222.59808458996997 304.4768446470216 41.97929900130083
232.5951208394843 303.63611146649885 29.325528764041014
220.55480779584278 299.51407085924944 46.88491777127664
223.65982233733448 294.1121623696681 25.507334769013692
245.00888702324818 292.05255796260406 49.05928764812841
231.00503317794076 296.2603363131088 24.313687663093855
219.28571849938885 296.19018677660165 29.294576752288073
225.5503275749444 303.9636052034399 46.747631820214714
235.07870146676873 284.9826077475416 37.94400776458657
236.41468304146443 285.77814420804594 36.98230861596032
236.2834297306228 300.9670786427777 31.90373834079303
225.29309442915908 284.061452111491 46.28155026922247
226.6419141631442 306.74073705012205 40.79263049308236
240.03739928219125 284.61861220769515 49.48335559755903
242.26081535387755 297.46591892038975 37.46104358106369
239.32979420492543 294.4370902719767 56.97644728652702
239.9582319587944 284.7507540581664 45.743256339444855
242.89751612228855 300.37121886260746 46.48410900305807
241.36202086008967 300.8256252182466 53.23471924821773
233.43004852935988 297.19286276968603 26.506351357183874
218.18612238931453 298.26362060458064 44.15070866607169
223.2159058730883 292.14602270212055 28.31040755361922
243.94664537091123 289.5615866141398 46.0699636610063
236.04725011353915 288.0487718040762 57.79957897762985
218.7279764412885 302.4918770270601 35.4558697245188
228.7672610418094 288.41932544528544 55.10002910783218
241.07573859629997 291.0030212305775 33.691463952739504
221.9826226361206 301.298954453527 25.316124621809244
242.05099351629306 287.494927667927 53.786609687062665
229.443032210724 285.45151708222005 54.26858459201754
219.47875371298133 295.04158778052425 46.311886366973454
236.6678021644353 287.2254870776756 34.559847716062755
218.1414648949514 299.3519340956027 32.12629536882188
217.22234401250125 295.48139061332245 36.877436160800194
235.3522773666925 305.8344710041333 40.76411873654297
218.27941429198256 301.3235146074089 39.02959498928527
233.3102431914866 282.3727706960544 52.82930642029791
229.35549625400694 284.443495796054 38.501570959125885
223.538289245908 289.79970167466047 43.03689209762801
226.87017291988857 307.4991010603201 35.80681998892121
232.93042627337516 304.56887979851604 47.799317348511536
244.91148932177785 295.44168325903087 43.97591162881361
230.98471668566967 302.83671438051914 51.7396987994436
242.32792969949287 287.67504607779006 43.12029466569489
228.07837061680334 293.46646565598206 55.607149883141226
244.27904960394383 290.8364813288547 40.37658953239363
239.32073695208487 286.67593946393254 37.3568975297945
234.5764964559567 289.9454111217249 58.95901332098958
238.67884336996005 303.05478074511643 45.2138659173656
227.0652395513845 300.20746701584056 21.84137657206653
225.72360672841492 286.6414738325067 50.052753403628515
226.06811500151173 291.20844639406585 53.07170305146042
230.54816093300568 303.7650480010352 49.58055127084209
225.23741884950275 287.9615019613526 41.204233074635454
242.1399327610175 291.5524440660689 55.806856098004545
219.0727569728515 301.42068320022537 30.964531192336086
217.8845556930842 296.99254586264937 32.627735548557915
218.40659461799427 295.9237364374686 44.436587458304416
241.16579911568897 286.6359874084347 41.580322625101644
228.59552173529298 302.84247842016237 24.33150938442019
218.44054313886525 300.98417351757564 41.261510561996516
238.1798940160467 296.25681637432075 57.18296466507628
244.9754316203629 293.9096247038884 43.76077196155606
218.52463877578597 295.8601689324708 31.19919908679383
225.43083149449862 290.04033534876777 32.046719045421625
220.32826780592052 302.6561866994553 29.676532940868007
232.0944129614355 299.6653781814565 25.02377028266076
231.7051554284142 292.1357078682655 27.257820156858735
227.50730502684414 305.0299004038054 28.345890340567493
233.07218093740545 285.3781232781087 36.62583680025717
243.99618181602298 291.2315688301786 51.948420319425075
234.87397613965385 283.5918419879 55.138724497445686
226.71812655584705 288.2851792402867 35.632056635501925
226.86259167881616 291.8488135300504 26.353327569072874
242.17858090857774 286.80306057953555 46.85737018770621
220.87531263363707 292.5030878727417 31.042495071574137
236.7333909255329 283.3658536232888 54.13930136764305
231.93020757857124 307.64339429522994 35.80449288758907
217.61789295385083 296.24063025411186 34.673260081923864
234.5239614182654 300.2864360414652 27.565640234559172
226.91195155079137 284.4412223784125 51.04616492456098
222.15063304110282 296.4003835002511 49.763858933789564
234.87426375254407 306.1610070160802 37.798679751747414
233.557044347603 281.08635413467425 46.777597616879234
234.42574217650042 304.88749291702493 33.122245322748775
234.11241606064144 285.27582387801846 56.43458094030733
232.84770811858266 281.27599421012434 51.1746973976968
232.64959565150667 287.65490682602535 33.10079718122497
229.83690044712392 297.39483874050944 23.310408690699127
236.88069801552376 293.34705862781294 30.814458533387782
236.81269299446626 302.6776487235786 52.79909275526114
238.18779466639972 285.55216056187487 56.25359076092533
233.99079570806055 300.91382171799756 54.78727387622443
240.87088249138316 301.38631128543653 42.84885862907868
234.0756858052537 292.5961400565542 29.35865505904785
238.63875964554356 284.543173139213 42.35054680877209
220.02431844503226 304.0787447508727 33.06900771758493
244.19694609122206 297.34429835174876 42.61997682376923
229.91988170432322 302.1851882578114 24.955425003988946
218.08846582129377 300.65185365516834 34.41798777254823
227.2748936388206 304.1876821816044 47.42180433084541
218.4938673351139 294.75533976822317 33.077858452937484
225.29866880530886 306.36765758349196 39.40789252116157
226.6022846015599 284.42514347672096 41.36898428942909
244.36056501024154 290.67203914466637 42.21605417272425
236.04568715490734 300.38464417243625 55.07717906280983
234.07965374273698 286.73375619041286 33.843600152212396
232.9854193061947 284.31678049347914 38.25661263696902
227.89522004821316 285.99545424502895 38.18659224969564
243.0301865833108 296.33546544863214 38.161491598735296
239.60241191050577 300.94399241298055 38.447648589482675
222.11847220356472 301.1824154969839 47.10874950556268
220.34515254131284 294.5539663626504 28.54222121372184
226.8941442362684 303.15435670774815 23.846130327148312
227.0696643072445 288.94199853563873 33.482991468032424
244.04599107672453 299.24898658585465 45.83968126744441
239.81623868935907 301.8162855202906 51.41860548348235
231.70902334120808 290.4093833557051 29.835277287067846
231.71465077917406 281.7049550374168 41.46398282954037
217.29258237609614 297.32740940875914 40.54025550397151
229.98450702076852 292.13738734980865 56.509511000176474
218.5336575019518 297.54653097481145 30.66639188184932
230.66255129643446 308.1981997828961 37.458711103447605
233.75185964449122 290.7060590855641 30.486812816552508
235.345910904269 302.3874908360067 53.70424890898576
220.54702865511194 293.93570363747943 48.6417711228522
237.85149502852752 283.97623293333737 44.01647732476571
234.4434897951885 293.0859378219771 58.77045370546399
223.54959458383487 300.8921890840692 23.391989668682026
244.30425662088905 298.0090149312685 49.009416557138536
242.4355690747275 300.3875618809854 42.97107825526782
228.36328229599712 308.07987200561854 36.12434847508946
220.24627775178564 304.1810471988334 35.06277251792876
217.65802408458273 298.9435448392019 42.0684353606992
232.38834937392062 280.1657165197968 45.25469514861211
220.39430520211286 299.72687982192423 26.547873764674506
242.01751525678443 287.9983715512524 39.77402915074767
233.99460795187113 281.55334377968194 48.6741662698139
237.206318971437 293.05043137369756 57.88826430275453
222.31802627370482 303.0906882427781 44.27842930460769
242.40493431171188 287.0918082943344 48.43150330029769
232.26240036707944 307.48566211849703 38.644363324338414
235.97259928557267 284.5854999087448 39.53741436751066
243.2835836068614 289.5822612904323 39.134113422403566
226.37435887412468 290.901210676214 27.91668441455128
239.19522083333098 301.0076483334649 54.40003056222648
217.37965994924275 295.60350831234916 39.26350757003998
237.79058149592979 298.25634464996295 32.11864999034276
245.0511977251726 295.1470566461747 45.81339727968734
224.5407824959264 290.8975340133625 29.70187654393851
230.83539746179832 280.01284244045786 43.89140471810795
220.72967622745668 291.90465755351323 34.48438725583605
242.9575425679235 295.2373641380665 54.624819581230895
241.37962338130131 285.95979351807983 49.082299914477396
241.47822353773233 297.97698952891704 54.76823138293301
229.18070572966346 280.9815483421965 42.177877834445134
230.84573107408232 281.75007087485767 51.41090811036825
222.41087262252503 291.6262033521662 30.323604531783776
242.08941879920104 290.25570183760374 34.86425315436357
244.62946064436045 297.0784565943066 44.31368556271943
243.3276162662369 299.893599496739 47.99797045219876
242.85543371501595 289.78322407689586 54.57561109411664
236.74006053554578 301.77341801640335 33.578881069819374
242.42887906369396 288.7746852411717 38.20731621922123
217.9539090224505 294.57815633724385 42.63219191030922
219.91838979467707 292.1296165095099 36.42911693626441
222.19904125443048 291.0125379959721 34.419855109900716
243.74993064376574 289.3857776538149 44.1865570267637
239.89542843358038 284.580926345888 47.482409012030445
227.81519924225728 291.13937934959245 55.00130007313598
244.642540085606 297.3526557979685 46.83440661878452
219.09837580502702 292.9887197831403 42.29063771105921
217.68293969021383 299.37423619173717 39.86744711683048
237.0889789884107 302.5594857260694 35.239611812068055
229.3251468680715 304.5494507882587 27.624328550799394
229.3357347602562 299.8247055160759 54.95466061885139
224.02367763851873 289.52134477080887 41.04625260986078
POLYGONS 1132 4528
3 51 369 232
3 51 56 369
3 122 51 494
3 122 89 42
3 56 51 122
3 494 89 122
3 51 263 494
3 499 239 428
3 43 428 44
3 44 494 43
3 197 369 202
3 228 239 499
3 444 263 51
3 53 93 474
3 232 369 197
3 263 499 43
3 239 294 428
3 232 567 444
3 499 428 43
3 44 89 494
3 444 567 257
3 257 567 377
3 263 444 257
3 444 51 232
3 320 429 176
3 429 567 232
3 228 463 330
3 340 98 377
3 330 37 228
3 239 228 37
3 441 246 219
3 116 202 246
3 541 509 53
3 44 135 509
3 499 308 228
3 46 533 66
3 66 533 144
3 46 399 533
3 533 399 144
3 53 300 93
3 46 66 300
3 197 429 232
3 460 498 294
3 460 399 498
3 498 399 46
3 130 191 478
3 43 494 263
3 373 33 340
3 340 33 98
3 340 377 95
3 95 377 567
3 499 263 308
3 44 428 135
3 135 428 294
3 556 542 373
3 308 463 228
3 505 330 463
3 340 183 373
3 373 183 556
3 471 358 441
3 308 263 257
3 257 98 308
3 149 25 339
3 339 25 505
3 25 330 505
3 257 377 98
3 171 251 535
3 251 540 535
3 420 416 358
3 369 56 202
3 219 246 56
3 373 557 33
3 557 158 261
3 386 390 460
3 176 365 329
3 365 31 199
3 93 517 142
3 107 355 31
3 31 355 199
3 355 145 199
3 340 95 183
3 183 95 193
3 202 116 38
3 38 197 202
3 176 310 320
3 310 193 320
3 55 335 472
3 55 393 335
3 111 37 330
3 130 326 191
3 183 346 556
3 176 429 197
3 84 98 33
3 56 246 202
3 398 217 322
3 315 198 398
3 144 233 66
3 233 449 52
3 217 296 182
3 111 180 478
3 94 179 322
3 322 179 398
3 94 315 179
3 179 315 398
3 358 170 441
3 485 508 458
3 356 311 253
3 253 311 49
3 356 205 311
3 311 205 49
3 139 368 234
3 116 246 32
3 32 246 441
3 368 538 277
3 31 365 38
3 556 119 175
3 556 346 119
3 398 198 241
3 463 84 505
3 247 334 205
3 205 334 49
3 247 125 334
3 334 125 49
3 156 63 304
3 35 310 329
3 442 243 62
3 62 243 145
3 111 386 37
3 37 386 239
3 296 491 241
3 241 491 398
3 296 217 491
3 491 217 398
3 175 542 556
3 466 548 158
3 466 309 548
3 356 253 472
3 472 253 55
3 329 310 176
3 466 161 309
3 309 161 503
3 38 365 176
3 94 391 258
3 258 391 382
3 94 254 391
3 391 254 382
3 322 383 94
3 403 254 383
3 383 254 94
3 478 136 130
3 478 180 136
3 136 180 149
3 193 346 183
3 300 66 517
3 517 93 300
3 562 555 248
3 147 299 223
3 501 68 299
3 49 29 253
3 29 165 241
3 239 386 294
3 294 386 460
3 171 508 149
3 55 502 393
3 55 198 502
3 502 198 315
3 199 516 365
3 365 516 329
3 562 248 193
3 274 27 314
3 416 259 358
3 416 560 259
3 259 560 442
3 562 193 310
3 441 170 32
3 170 107 32
3 294 498 135
3 135 498 46
3 205 23 247
3 205 243 23
3 296 22 182
3 182 22 431
3 296 443 22
3 22 443 431
3 535 70 171
3 455 84 261
3 38 116 31
3 310 35 562
3 555 35 448
3 149 180 25
3 25 180 330
3 478 390 111
3 111 390 386
3 248 58 346
3 346 58 119
3 58 424 119
3 451 524 132
3 132 524 411
3 390 272 460
3 460 272 399
3 165 195 241
3 241 195 296
3 165 443 195
3 195 443 296
3 330 180 111
3 198 29 241
3 401 275 192
3 149 508 136
3 136 508 130
3 193 95 320
3 320 95 567
3 158 557 542
3 542 557 373
3 20 132 411
3 50 421 335
3 145 312 199
3 472 516 312
3 312 516 199
3 215 47 538
3 538 47 277
3 215 78 47
3 47 78 277
3 524 510 305
3 166 537 510
3 305 303 555
3 424 537 166
3 555 562 35
3 393 50 335
3 393 20 50
3 555 448 305
3 448 411 305
3 305 411 524
3 346 193 248
3 331 238 141
3 238 348 76
3 427 477 189
3 189 477 57
3 427 547 477
3 477 547 57
3 510 537 303
3 303 305 510
3 166 510 563
3 563 510 524
3 84 463 98
3 451 563 524
3 35 421 448
3 448 421 50
3 429 320 567
3 472 335 516
3 335 421 516
3 472 312 356
3 356 312 145
3 308 98 463
3 38 176 197
3 210 60 223
3 516 421 329
3 329 421 35
3 132 20 100
3 100 20 393
3 560 23 442
3 442 23 243
3 424 76 469
3 424 166 76
3 443 45 431
3 243 40 145
3 145 40 356
3 243 205 40
3 40 205 356
3 503 342 309
3 358 259 170
3 170 259 442
3 331 141 426
3 60 196 18
3 18 196 143
3 166 563 141
3 455 30 540
3 158 548 30
3 30 548 540
3 196 16 143
3 16 114 143
3 20 411 50
3 339 455 251
3 251 455 540
3 152 108 81
3 31 116 107
3 107 116 32
3 148 97 266
3 404 297 97
3 469 447 492
3 76 166 238
3 238 166 141
3 339 505 455
3 505 84 455
3 501 128 68
3 501 15 128
3 128 15 215
3 466 13 161
3 175 492 13
3 13 492 161
3 46 509 135
3 411 448 50
3 355 107 62
3 62 145 355
3 60 12 223
3 223 12 147
3 60 18 12
3 12 18 147
3 314 133 564
3 564 133 68
3 314 36 133
3 133 36 68
3 537 248 303
3 303 248 555
3 531 103 297
3 332 65 222
3 268 10 65
3 143 439 18
3 18 439 147
3 143 82 439
3 439 82 147
3 215 7 78
3 78 7 90
3 215 15 7
3 7 15 90
3 156 6 45
3 45 6 59
3 156 515 6
3 6 515 59
3 442 62 170
3 170 62 107
3 245 8 5
3 114 16 2
3 2 16 59
3 64 11 101
3 19 85 67
3 67 85 531
3 19 103 85
3 85 103 531
3 17 113 268
3 501 225 113
3 113 225 268
3 268 65 17
3 0 2 337
3 68 128 564
3 82 9 154
3 109 279 75
3 109 242 279
3 551 252 520
3 520 252 341
3 114 376 9
3 9 376 551
3 114 3 376
3 146 39 341
3 178 452 75
3 75 452 109
3 151 11 64
3 72 103 249
3 249 103 19
3 10 154 506
3 404 26 142
3 225 484 268
3 82 154 484
3 341 267 101
3 101 267 64
3 341 39 267
3 267 39 64
3 341 230 520
3 520 230 162
3 341 101 230
3 230 101 162
3 169 343 445
3 424 58 537
3 537 58 248
3 515 496 337
3 75 279 496
3 496 279 337
3 126 75 496
3 258 530 94
3 94 530 315
3 258 100 530
3 530 100 315
3 175 13 542
3 337 481 515
3 515 481 59
3 337 2 481
3 481 2 59
3 242 409 0
3 0 409 3
3 242 146 409
3 409 146 3
3 299 225 501
3 132 317 451
3 118 220 511
3 149 339 171
3 339 251 171
3 542 13 158
3 158 13 466
3 304 483 156
3 156 483 515
3 304 126 483
3 158 30 261
3 30 455 261
3 109 545 242
3 109 1 545
3 545 1 39
3 84 33 261
3 33 557 261
3 337 536 0
3 0 536 242
3 337 279 536
3 536 279 242
3 61 527 534
3 500 14 90
3 426 451 24
3 451 317 24
3 404 544 297
3 297 544 531
3 404 80 544
3 544 80 531
3 495 558 61
3 531 465 67
3 67 465 292
3 531 80 465
3 465 80 292
3 245 453 8
3 245 370 453
3 453 370 222
3 447 454 492
3 492 454 161
3 447 512 454
3 423 447 348
3 423 512 447
3 511 435 560
3 247 23 435
3 435 23 560
3 61 558 434
3 156 433 63
3 156 45 433
3 433 45 443
3 24 250 426
3 426 250 331
3 451 426 563
3 563 426 141
3 52 407 517
3 517 407 142
3 161 397 503
3 406 371 1
3 406 169 371
3 371 169 445
3 178 518 529
3 348 490 423
3 119 336 175
3 175 336 492
3 336 469 492
3 272 400 399
3 399 400 144
3 272 131 400
3 400 131 144
3 8 453 539
3 125 306 49
3 306 63 165
3 295 323 227
3 11 291 101
3 101 291 162
3 11 395 291
3 162 289 539
3 539 289 8
3 34 414 264
3 264 414 438
3 414 117 438
3 511 286 118
3 438 518 286
3 286 518 118
3 297 280 419
3 419 280 72
3 297 103 280
3 280 103 72
3 109 271 1
3 1 271 406
3 109 452 271
3 271 452 406
3 45 255 431
3 431 255 196
3 45 59 255
3 169 406 529
3 529 117 169
3 380 523 250
3 48 282 187
3 321 318 282
3 3 146 252
3 252 146 341
3 220 247 435
3 435 511 220
3 249 395 11
3 331 490 238
3 238 490 348
3 534 208 436
3 244 207 91
3 91 207 118
3 244 220 207
3 207 220 118
3 323 527 204
3 204 527 449
3 501 113 15
3 15 113 17
3 539 561 162
3 162 561 520
3 304 290 126
3 126 290 91
3 304 244 290
3 290 244 91
3 194 78 90
3 382 177 24
3 24 177 250
3 382 380 177
3 177 380 250
3 371 173 1
3 371 445 173
3 423 168 446
3 446 168 366
3 423 490 168
3 168 490 366
3 48 493 403
3 403 493 254
3 48 187 493
3 493 187 254
3 17 405 15
3 15 405 90
3 17 500 405
3 405 500 90
3 423 327 512
3 423 446 327
3 213 327 446
3 24 206 382
3 382 206 258
3 24 317 206
3 206 317 258
3 538 164 215
3 564 128 164
3 164 128 215
3 250 415 331
3 366 490 415
3 415 490 331
3 363 357 318
3 318 357 124
3 357 287 124
3 118 137 91
3 91 137 178
3 118 518 137
3 137 518 178
3 134 526 354
3 366 349 446
3 124 287 349
3 10 506 550
3 551 408 9
3 9 408 154
3 551 506 408
3 408 506 154
3 187 374 254
3 254 374 382
3 187 380 374
3 374 380 382
3 75 129 178
3 178 129 91
3 75 126 129
3 129 126 91
3 194 90 14
3 534 436 61
3 436 495 61
3 515 483 496
3 496 483 126
3 454 512 397
3 397 161 454
3 117 201 438
3 438 201 518
3 117 529 201
3 201 529 518
3 178 127 452
3 452 127 406
3 178 529 127
3 127 529 406
3 217 123 322
3 124 121 318
3 124 523 121
3 121 523 380
3 245 495 370
3 370 495 436
3 446 456 213
3 446 349 456
3 456 349 287
3 130 514 326
3 326 514 485
3 130 508 514
3 514 508 485
3 315 100 502
3 502 100 393
3 485 480 326
3 480 216 326
3 76 348 469
3 469 348 447
3 258 317 100
3 317 132 100
3 287 328 384
3 68 36 299
3 299 36 223
3 469 336 424
3 424 336 119
3 151 64 173
3 173 445 151
3 216 283 28
3 28 283 227
3 216 417 283
3 283 417 227
3 564 192 314
3 561 539 550
3 550 506 561
3 144 204 233
3 233 204 449
3 187 121 380
3 273 459 209
3 209 459 363
3 213 115 327
3 327 115 134
3 213 526 115
3 115 526 134
3 273 110 69
3 273 209 110
3 110 209 321
3 8 226 5
3 5 226 19
3 449 140 52
3 52 140 292
3 449 434 140
3 140 434 292
3 401 106 275
3 61 102 527
3 527 102 449
3 61 434 102
3 102 434 449
3 1 543 39
3 39 543 64
3 1 173 543
3 543 173 64
3 274 475 69
3 69 475 275
3 475 192 275
3 275 392 69
3 392 273 69
3 292 378 67
3 67 378 558
3 292 434 378
3 378 434 558
3 363 328 357
3 357 328 287
3 456 287 384
3 384 213 456
3 222 432 453
3 453 432 539
3 222 550 432
3 432 550 539
3 148 301 26
3 301 462 427
3 242 545 146
3 146 545 39
3 354 112 134
3 112 342 503
3 78 99 277
3 99 417 216
3 208 534 295
3 383 322 123
3 123 403 383
3 9 96 114
3 114 96 143
3 9 82 96
3 96 82 143
3 28 422 191
3 191 422 272
3 28 131 422
3 422 131 272
3 227 86 28
3 28 86 131
3 227 323 86
3 0 507 2
3 2 507 114
3 0 3 507
3 507 3 114
3 520 281 551
3 551 281 506
3 520 561 281
3 281 561 506
3 81 83 70
3 81 211 83
3 83 211 367
3 401 164 538
3 512 79 397
3 397 79 134
3 512 327 79
3 79 327 134
3 80 407 292
3 292 407 52
3 321 74 318
3 318 74 363
3 321 209 74
3 74 209 363
3 326 372 191
3 191 372 28
3 326 216 372
3 372 216 28
3 318 121 282
3 282 121 187
3 277 480 368
3 418 88 172
3 418 384 88
3 88 384 328
3 309 342 412
3 412 342 152
3 139 138 368
3 401 538 138
3 138 538 368
3 108 265 81
3 81 265 211
3 551 376 252
3 252 376 3
3 172 519 418
3 418 519 203
3 172 92 519
3 367 410 234
3 234 410 139
3 410 288 139
3 332 73 65
3 65 73 17
3 332 500 73
3 73 500 17
3 495 245 558
3 245 5 558
3 366 415 523
3 523 415 250
3 124 487 523
3 523 487 366
3 124 349 487
3 487 349 366
3 134 112 397
3 397 112 503
3 354 218 203
3 203 218 418
3 354 526 218
3 218 526 418
3 288 181 307
3 181 120 307
3 213 150 526
3 526 150 418
3 213 384 150
3 150 384 418
3 108 104 389
3 142 559 404
3 404 559 80
3 142 407 559
3 559 407 80
3 323 554 527
3 527 554 534
3 323 295 554
3 554 295 534
3 342 394 152
3 152 394 108
3 342 104 394
3 394 104 108
3 540 350 535
3 535 350 152
3 540 412 350
3 350 412 152
3 309 412 548
3 548 412 540
3 344 110 321
3 342 353 104
3 104 353 354
3 342 112 353
3 353 112 354
3 459 87 360
3 172 504 92
3 240 389 284
3 284 389 203
3 120 565 273
3 273 565 459
3 120 87 565
3 565 87 459
3 273 392 120
3 120 392 307
3 191 497 478
3 478 497 390
3 191 272 497
3 497 272 390
3 333 489 4
3 489 87 120
3 66 486 517
3 517 486 52
3 66 233 486
3 486 233 52
3 564 553 192
3 192 553 401
3 564 164 553
3 553 164 401
3 41 549 417
3 417 549 227
3 41 295 549
3 549 295 227
3 105 473 27
3 27 473 314
3 105 36 473
3 473 36 314
3 82 484 147
3 194 99 78
3 513 468 344
3 344 468 274
3 513 27 468
3 468 27 274
3 479 4 364
3 535 464 70
3 70 464 81
3 535 152 464
3 464 152 81
3 181 4 489
3 489 120 181
3 321 522 344
3 522 513 344
3 360 87 504
3 504 172 360
3 87 450 504
3 504 450 333
3 87 489 450
3 450 489 333
3 204 437 323
3 204 144 437
3 437 144 131
3 86 323 437
3 437 131 86
3 67 413 19
3 19 413 5
3 67 558 413
3 413 558 5
3 19 395 249
3 19 226 395
3 403 387 48
3 387 361 513
3 240 381 265
3 265 381 211
3 240 479 381
3 381 479 211
3 88 328 360
3 360 172 88
3 48 430 282
3 282 430 321
3 48 522 430
3 430 522 321
3 284 92 440
3 440 240 284
3 416 388 316
3 316 388 264
3 388 160 264
3 203 379 354
3 354 379 104
3 203 389 379
3 379 389 104
3 70 83 458
3 458 83 367
3 63 566 304
3 125 244 566
3 566 244 304
3 72 461 151
3 151 461 11
3 72 249 461
3 461 249 11
3 333 375 504
3 504 375 92
3 333 440 375
3 375 440 92
3 395 226 289
3 289 226 8
3 291 395 289
3 289 162 291
3 21 345 361
3 361 345 105
3 21 210 345
3 345 210 105
3 277 338 480
3 480 338 216
3 277 99 338
3 338 99 216
3 171 325 508
3 508 325 458
3 171 70 325
3 325 70 458
3 63 433 165
3 165 433 443
3 367 364 410
3 410 364 288
3 72 552 419
3 72 151 552
3 552 151 445
3 307 470 288
3 288 470 139
3 307 106 470
3 470 106 139
3 479 385 4
3 4 385 333
3 385 440 333
3 27 532 105
3 105 532 361
3 27 513 532
3 532 513 361
3 106 401 138
3 138 139 106
3 268 521 10
3 10 521 154
3 268 484 521
3 521 484 154
3 92 284 519
3 519 284 203
3 288 457 181
3 181 457 4
3 288 364 457
3 457 364 4
3 10 488 65
3 65 488 222
3 10 550 488
3 488 550 222
3 223 425 210
3 210 425 105
3 223 36 425
3 425 36 105
3 316 286 511
3 368 362 234
3 234 362 485
3 368 480 362
3 362 480 485
3 211 396 367
3 367 396 364
3 211 479 396
3 396 479 364
3 440 385 240
3 240 385 479
3 431 352 182
3 60 210 352
3 108 324 265
3 265 324 240
3 108 389 324
3 324 389 240
3 49 306 29
3 29 306 165
3 370 313 222
3 222 313 332
3 370 71 313
3 313 71 332
3 297 302 97
3 97 302 266
3 297 419 302
3 302 419 266
3 14 71 298
3 298 71 208
3 48 293 522
3 522 293 513
3 48 387 293
3 293 387 513
3 147 278 299
3 299 278 225
3 147 484 278
3 278 484 225
3 459 276 363
3 363 276 328
3 459 360 276
3 276 360 328
3 332 270 500
3 500 270 14
3 332 71 270
3 270 71 14
3 69 269 274
3 274 269 344
3 69 110 269
3 269 110 344
3 123 260 403
3 361 387 260
3 260 387 403
3 148 285 97
3 97 285 404
3 148 26 285
3 285 26 404
3 361 260 21
3 21 260 123
3 142 347 93
3 142 26 347
3 347 26 189
3 316 319 416
3 416 319 560
3 316 511 319
3 319 511 560
3 420 256 160
3 256 547 427
3 192 475 314
3 314 475 274
3 436 237 370
3 370 237 71
3 436 208 237
3 237 208 71
3 21 236 182
3 182 236 217
3 21 123 236
3 236 123 217
3 247 235 125
3 125 235 244
3 247 220 235
3 235 220 244
3 182 352 21
3 21 352 210
3 458 231 485
3 485 231 234
3 458 367 231
3 231 367 234
3 60 229 196
3 196 229 431
3 60 352 229
3 229 352 431
3 26 301 189
3 189 301 427
3 417 224 41
3 41 224 194
3 417 99 224
3 224 99 194
3 196 255 16
3 16 255 59
3 14 298 194
3 194 298 41
3 125 566 306
3 306 566 63
3 41 298 295
3 295 298 208
3 419 552 343
3 343 552 445
3 160 388 420
3 420 388 416
3 307 200 106
3 106 200 275
3 307 392 200
3 200 392 275
3 57 547 190
3 57 188 474
3 160 186 462
3 462 186 427
3 160 256 186
3 186 256 427
3 89 185 42
3 42 185 77
3 266 184 148
3 34 462 184
3 190 77 188
3 188 57 190
3 54 174 471
3 174 190 547
3 471 174 167
3 167 174 547
3 93 347 474
3 256 420 167
3 167 547 256
3 474 525 53
3 53 525 541
3 474 188 525
3 525 188 541
3 264 476 34
3 34 476 462
3 264 160 476
3 476 160 462
3 471 351 358
3 358 351 420
3 471 167 351
3 351 167 420
3 53 159 300
3 300 159 46
3 53 509 159
3 159 509 46
3 343 157 262
3 262 157 117
3 343 169 157
3 157 169 117
3 34 482 262
3 262 482 266
3 34 184 482
3 482 184 266
3 509 546 44
3 44 546 89
3 509 541 546
3 148 467 301
3 301 467 462
3 148 184 467
3 467 184 462
3 42 402 122
3 122 402 56
3 402 219 56
3 219 402 54
3 54 402 42
3 471 221 54
3 54 221 219
3 471 441 221
3 221 441 219
3 253 163 55
3 55 163 198
3 253 29 163
3 163 29 198
3 117 414 262
3 262 414 34
3 190 214 77
3 190 174 214
3 214 174 54
3 185 89 546
3 546 541 185
3 77 212 42
3 42 212 54
3 77 214 212
3 212 214 54
3 77 155 188
3 188 155 541
3 77 185 155
3 155 185 541
3 438 153 264
3 264 153 316
3 438 286 153
3 153 286 316
3 474 528 57
3 57 528 189
3 474 347 528
3 528 347 189
3 343 359 419
3 419 359 266
3 343 262 359
3 359 262 266
