# vtk DataFile Version 3.0
A great-looking cell
ASCII
DATASET POLYDATA
POINTS 474 double
31.993778335186857 289.01294764637066 70.8594167578098
44.109620437101384 289.81589913311126 79.83648963096279
52.5319707979932 287.6803898624192 76.64198399053151
39.87937000813231 293.30923404893076 79.70229199183345
44.66684232953132 295.62997369314195 57.84751674582183
47.87525548465548 283.16506209060594 78.40330143266995
53.13359719197522 285.3698192112452 75.16721805922234
34.347047319235116 287.9231010273211 65.81273832179497
54.36318694631681 280.1136581670134 73.0804075415295
42.797525776676544 288.1231307564486 47.00289652832663
35.66981195364726 292.408213645719 76.76669699450744
57.399853185969484 286.28835010845177 65.51220485062024
51.580465959068654 289.56867441418166 75.82893478337213
46.02933359194823 294.04750671728937 75.70004230323703
51.09849656112121 291.008800887944 75.07622168241511
44.0869060719088 296.59540490454947 71.18364938456719
35.77547957557014 293.9121071568506 58.93794670698333
49.740579769618115 292.3223231194375 57.516060589190054
44.609074970276396 297.2302805538461 67.12694450472128
47.22237670683794 294.3580006415051 60.6105774883964
50.052836341272446 293.07876776690057 71.09974867962327
47.14289966555042 296.0269340117506 64.89488428833243
55.19738848167522 290.24823573056244 65.2574076188889
47.079637504054915 295.0542068093989 72.74180092863881
51.90686289953237 292.24196120256505 70.35425920664171
47.603826157564235 295.8204827748174 71.28239847428713
51.37529136155331 292.3350668226182 72.10033798779742
49.03634705858782 294.73163137277334 70.23643547597659
48.01529642652178 296.12308548556365 66.9457457702309
45.4107923495947 296.3109822837519 64.40614185553098
49.229326639701966 294.1568203842005 66.99830335144402
45.96273094753373 296.71148932721985 70.20580449147117
50.559728507123545 292.87240943547954 66.89905447768926
44.12267071856773 293.8941347067242 77.25376083688595
46.0297856137883 292.19221385536815 77.66773475952962
49.79430358978561 292.4993469086006 60.084596583878835
42.69649289682267 295.6746160886777 54.42066521202394
52.932754412017665 291.01156954322124 72.29548044612952
41.55582386948346 296.97591332186704 68.88751484349311
52.619803575563296 286.2622779501561 56.24859214716307
50.23516778637322 293.35975705239724 68.83490971528673
34.41969170739837 291.47503094983716 57.61196059457366
53.245546033658904 291.1023108263367 61.41568699228396
48.88095094755833 278.1262815334488 63.0582969393246
56.52588167961857 288.68378394332024 66.8043817048528
53.91520364840078 290.84132844504376 69.88800727518313
33.94234871040436 286.1075506188289 69.22183659502966
50.79490608041649 286.86409290649345 78.10368459954383
49.6071733885629 290.52349336347487 76.15066392802534
43.833286711942435 295.16392959718905 75.04686270910666
30.971537074598306 293.98318212725013 65.75483768905326
52.40279046737769 291.9953724059773 67.83300103329863
48.750351806802726 294.2456468628223 72.39926793939266
53.84724447645229 290.29748649917997 58.806307103751074
54.112432771343485 289.5493804702306 73.87507705089318
52.290032249763456 290.2336305345677 74.22686825620715
43.96943479747209 278.3095409271648 68.55406205154061
41.9103847973983 292.826789108779 79.96284996390798
49.22867989792137 290.29086325591345 53.63558229126626
39.46505070264195 292.1659084400302 48.45747916990048
42.35514820428045 292.84747646740556 48.116347769226586
41.29349828352354 296.03754827074226 74.96996203776354
34.354269249767185 300.7555542502054 75.91193450271344
40.16198397517413 294.207130802628 50.653119463636514
30.38236468813457 292.024926262313 66.19628888829298
57.29229123281899 282.9596626904861 70.41372701089583
39.43799302180882 296.6660726766084 74.69222205337938
30.823997210808848 292.4988300131148 76.11533806284908
37.219907717443924 293.2839273845593 52.127855318120325
42.949273662447 293.9483162111407 49.12560932300543
37.347516795125166 294.37294728581605 54.378689550460955
34.46778817897926 288.2830863105294 63.130316061503535
33.980321842996595 286.2061685891072 71.14458456138296
36.297877742885234 290.7108790466496 77.09135454573698
55.57052677821067 282.6740582631257 59.730213396947335
30.27549366388008 294.4472300345264 67.569873091882
44.08343296998146 286.463377212225 48.895461814398594
38.88241572027041 292.78459451264456 50.37458823435736
45.089726581636484 286.2138001170928 50.66047698514561
33.055170323494444 293.2455509140853 76.48722891257701
29.765568474827738 298.5310087864009 72.13510265396634
57.109542898738 286.9438226933134 63.7039614372758
38.862358508194895 290.22463283992136 49.25965394017602
34.88904813945365 297.3010686283424 76.91405439564222
39.80785195165858 282.3669842415712 79.3573234398333
35.03909352887598 301.4506556618232 71.65582573227071
34.160584902242384 290.13145617619085 59.543246381476386
31.13846191338251 299.25821365833264 67.86672040440185
35.19869859367757 295.0652988339268 76.9141949630956
41.24201321615163 279.10638878163826 76.88500035204827
38.650993350670326 299.1890319081026 67.17296722007158
38.10000674385266 300.0333662433791 73.86103137785538
37.73549435700192 300.07616958565234 69.17512821065327
37.58089043454225 287.8171410231657 78.96456010065985
30.51182574768844 296.09745924159455 67.07887407117269
37.04642297090754 285.47939855611105 59.04468410969
52.526779739058576 279.74023020714316 60.65946526851731
31.323759129964312 291.753123969725 64.96181914823735
40.970433852598106 295.34916031662755 53.28851665079669
56.6404481360624 283.21688716174134 61.84358142512626
29.17146301102502 295.1902833268653 72.99510335107364
32.851245418835255 300.57740666174936 74.60201633604771
30.15704041325077 296.2282621002044 74.2376002350787
34.70240570384148 291.78716354208194 55.677513243052395
30.526255625135754 299.43715119518004 70.57234054357744
30.99996118450893 297.5721414423075 75.25631868769678
36.178531441231705 299.3980740277465 76.17774832305427
35.39868083910515 292.1086554404445 53.72698442074614
30.215578573081054 292.4876150326794 68.2235828696872
38.66494066531899 285.9112676820171 53.095398127511224
40.55435439570422 285.0144265002989 51.3882297935674
38.4706938062881 279.25382619071775 79.04183864336717
30.84873821822801 297.66490068000894 67.39611481017667
34.88333358588337 288.17304465943886 74.09327839575361
35.71105092812804 289.5198403990824 53.191686145310456
48.25516118382948 291.77809018576863 53.135661815215386
44.781370130341024 289.40544601749974 47.981186875463884
44.280651080058576 279.6058729162328 63.60627333631199
47.95259771179542 288.2904256645871 51.39672053120462
33.59530370795258 299.5601841952318 67.27332244929637
47.57948585711572 287.7096053740017 78.78953493602621
47.605510015272806 290.7530196873317 76.96843005894958
40.839416195553966 293.559631706193 49.000886971735724
56.54660371435154 288.43849031422155 64.3279360261788
36.612850521676805 288.94465334862747 77.7925143345242
44.2335693606736 283.9634291751051 53.029029585232514
46.319609776069875 290.320264275621 49.39088271449036
41.90682669524253 282.839494565213 56.9014682993697
51.901335647155186 290.6206324735295 57.01723444264889
34.173532238546834 287.963745516907 70.8531790005541
32.931261553040805 290.1166941533412 64.53690195614752
43.31690191737827 285.0001098577013 51.04543675449707
52.89119791055815 278.11465827899315 70.93888028468855
49.82133607892501 286.47770468826826 54.368200378311045
56.482738041203525 285.2414737237797 60.333174712238595
38.95188956561297 287.3192649169612 50.213362199290145
49.829843024482294 279.7464485158543 59.797412169890805
45.546066432895756 284.89032644666173 52.00467294939828
48.83270303060034 284.54578011972785 53.82006468838987
51.71498522141052 292.3470979324784 65.31140490620416
30.933808262923925 289.8821813616857 68.876788093497
31.1779891140758 289.8530841535851 72.99008700781911
42.021844079393745 284.05991885715144 53.400775904648675
52.230726070359424 277.10214429996915 67.11073956490574
53.564573140409784 282.1405192233797 57.95660271596328
30.52935284555506 299.812594143247 73.5167906082173
43.76628251675889 282.6632281402635 54.95767057788528
50.080293956698874 292.82179493650915 72.96423700050637
52.652879469681594 283.98743872581565 56.68917715677671
52.319031360687234 277.91183985850813 63.70305984150425
47.53515098187253 278.0256460008857 65.3121833237486
39.30086048733219 294.8164774911126 52.28761324619806
50.10551115576662 280.92750864321306 74.90662770061527
50.95442391659898 278.8432217140466 61.437668858656465
38.750926972164045 286.742828564232 79.51660334375156
40.229450706735264 284.56494998887223 53.2039813150125
47.300722986893504 284.9795257165706 52.5547181948588
39.23953980756341 291.3069727674317 79.91689567983376
51.101144208878296 286.45839299869897 55.24920489961391
48.6623893212105 282.91258113406906 55.799599292365244
43.09233601186052 277.2840210199136 71.27862451552187
51.799609428642704 285.888013263229 76.8645262183712
29.087081498984947 295.2389715499574 70.9268729226348
31.38593174310043 290.29519485330826 66.61962246514526
45.94866093632863 278.4849149095914 69.27813066872744
47.7452923055752 278.70105167106624 72.06702028963966
43.43449149344068 290.2766069296182 47.12877344730691
46.694792658024845 286.4881747291818 51.52422208722356
34.791876317410356 293.6320202138704 61.588103867395546
38.935202914965636 299.2600244929808 71.31962589004773
42.01325396741604 294.96627773818153 51.368342474163825
45.64930012606832 287.9481853155712 79.95606550910378
42.253049257136766 294.1292515162529 78.72748235373133
50.344941985641775 277.009251439826 65.19645811078325
43.78380601219731 295.86637330170515 56.178313757851264
57.15774399069827 281.5278720971162 68.91826461060377
34.40182914092156 292.05693033433295 59.86878455924668
48.335681467225946 289.040665041164 77.37091407391145
54.826308210832394 284.9093688270623 57.69070689352045
35.276789305155006 285.37301224814513 77.17311331878804
49.170966196596474 287.59563334458835 77.96629684737694
35.3074721643637 301.2530370382417 73.83464597156997
35.59452598100375 279.9155525915526 70.48620764411102
37.461797390184664 278.61445470187834 75.54522364628775
36.53212436684579 279.0180711864558 72.95177858214747
34.5443401211299 282.1212421362906 71.83784134901562
39.960982645262284 277.6668387007905 74.93961829689131
36.959327043733495 296.83135105121806 76.7822402567618
34.18570331146002 284.1458269941434 76.00891636241427
37.93227459632801 279.2317766812946 66.58914818796403
34.100770673209766 294.5580791506571 63.177860095729145
39.17675082261956 279.07261973641255 64.67661203304476
44.06961025722122 283.42463731421776 78.4552905215834
54.24772810283585 278.5049230910832 68.32822540686263
55.37563578384354 288.06202478407823 73.2991935563071
38.66340967380447 278.1833554112831 68.86896522827654
42.75755146310119 278.31452658091507 66.43751425372105
49.87720269414765 283.7478503889819 77.33956044933258
54.862314175116296 282.9550873545473 74.32308024846536
32.329933871411484 290.68394857725053 75.3102228116954
41.08566591860133 280.12005646017036 78.52213000020815
40.81898177253882 297.7419504785931 70.94174116536675
48.74238092926685 280.74561122155455 58.09557425216997
39.37366816642962 277.1571690516644 71.256590575667
53.62915414875897 279.2831735689402 62.09458847159406
34.164697626159864 291.77252826792363 75.57874446496224
35.29117126547549 280.3921833536988 72.32705324816808
37.937409927824746 281.52185965522176 62.692280581275966
35.204748993124234 281.93364517899266 66.97917154991345
36.59850256308134 279.4035268715575 77.16560128019061
46.20027107149502 279.12227952535073 63.01683038291849
57.68035556467379 283.7405738700732 66.93353402470673
41.48142758912954 278.234539112816 75.53550868386657
36.25946139416216 279.71252564910316 68.58345386951936
53.80028498118945 280.800806806697 60.18992845421806
50.372569807622064 292.96523699032036 63.981913668645184
51.69130107870693 284.28856485479685 76.64388862780623
34.0090568043167 284.1424824311612 71.42467971555192
38.32410369365434 278.2438270097234 73.77918125741454
42.928196351613 281.6577957966491 59.344141458569844
56.08444571745602 289.18512401857373 69.44181046764675
39.37970943696297 280.5624299834405 63.09000643647932
57.33607538538646 281.73527600355885 66.70577437426779
57.77128749651875 283.8218053831988 69.31923811109866
55.091844476037664 289.59298218983986 71.80756269141179
47.931883263201776 280.20822556469875 75.62559234436323
39.96673945068919 297.8489598754121 73.4026715520501
39.49780572874267 280.5943070508985 79.9562041770275
56.569706929392716 283.74301521874094 73.1441310198218
34.69548561972864 281.25131684652763 76.00817660523848
36.523368752192326 287.52992965733114 54.615822996643885
49.75734903635442 293.2938719966823 65.43133578265665
38.473503759335124 284.3763301414993 57.58357167428639
46.042764453509676 280.0931727197912 61.28428607222556
55.914351684173326 285.73491701808223 73.83056208389074
37.65424291457418 294.96113754510714 59.23258678600764
37.5762378631881 281.38324840000615 80.44753084640807
44.46757192869961 294.87993610651284 52.810660583858414
50.68641841353762 284.69682231076405 55.58140320887116
41.15531815255389 280.7070572209 61.2468230080282
37.00797587676281 278.74307921210436 71.15734472084965
37.714098782634814 294.54860360022747 77.92079195743706
33.270872207799506 298.86452465551343 76.24636102725387
30.46287966476018 295.16750816145236 69.41663467882425
32.89447131635445 296.1272793197701 76.56745475216289
34.44300745855854 282.46830520479375 73.63620261108619
37.16298320730704 283.38544501145793 62.660719245847325
34.98061024819377 285.1858709466416 66.7529172176735
40.48465750642973 295.08061248562416 77.48952931653555
37.10893160342734 288.1383421476074 51.97495398258168
40.78009168569038 285.0864896965369 79.50982163585826
47.229676830674165 289.2963469939329 50.28826857751996
35.77485427228821 285.9655980774564 63.85178118703594
55.416057602873614 281.2551425048827 62.01037594554487
46.68399966471335 293.18825263820645 52.88692566617619
29.958803077687023 297.51675257261434 68.76879019817854
42.28675135816915 282.83629635250094 78.3289133721092
39.32288754074666 278.75738513564306 76.45012380597635
46.31461655032787 282.2531559479643 78.59341123035725
34.66636831679045 281.5567119055625 70.00255444138159
43.78286296260967 278.649741551315 73.98485082893211
40.52009669176138 278.05627004254643 66.6602017412468
34.405639505314994 283.7565506435533 68.82307243166461
45.490140077963936 280.151205533756 75.94114069678078
39.92351580586552 295.60623423448266 55.130032347752184
40.08139007295644 284.0888752773474 55.18727633971298
44.30557145357296 292.0335852528377 48.2622478999868
36.290523186634935 285.80075862041906 61.11275238439077
35.81857420401002 283.40023073772653 64.82486619550889
34.01597571031603 286.61214651739664 73.12705004441125
48.07554945950791 279.7063808853463 60.88748626520774
38.39845928388662 289.3326970313845 80.2298252751182
30.94417701939754 294.7199603386499 75.11898793393074
33.652398788663 289.215716899803 73.0210230075821
55.25025385964164 279.7253793674451 63.9952875861488
35.150556962209784 284.10051519422575 78.68390460145062
42.21725510822082 296.67986177307904 72.5312208544521
40.17074406899374 283.4643678495002 57.188488880476974
40.24466571731636 297.43597176559285 66.67713138618497
46.55560853470463 289.9294557109717 78.77551185941132
55.29220514619019 290.01394705884593 62.88360301270967
43.0320432535288 279.61383053409617 76.84442956973744
41.94408608948871 295.9214937292835 57.225398397129034
57.1820207062361 284.6055301002722 71.36574153509655
34.51892328273452 287.1045871160738 67.62346788340832
46.24594972794777 281.82663659024996 56.44390887746751
49.767895264819124 291.79847070641694 74.45931095156976
51.48997757508799 279.50024804166577 73.29050885297028
33.08502266211257 289.362944390554 66.33522467673794
45.425036743395175 279.0892292350151 71.10843430673545
41.22587788756046 276.883400942455 71.26980833882571
49.93273793379429 277.73501090823527 71.83408538824239
41.29318133629612 277.03527501620624 69.22052673934775
44.0138142143682 281.5619821222804 57.26478667337197
46.50616906407577 278.27278058238744 67.67714789030587
56.07224266917029 280.03962816402844 66.6234376730133
44.027737316765446 279.94644909909914 61.585730515266704
44.57063026430359 281.73721669582943 77.87143025593055
48.55942312221339 285.6380234886396 77.96666192608033
47.23038457391959 284.604160200844 79.00975148153759
37.77962057133431 291.48757943266054 78.38683406013935
51.58383300714052 280.33523453280293 59.09033827770578
36.08203316990054 279.4787632526813 74.56253280758578
48.98074376562074 279.0093435766899 73.89444206505678
50.123351941875036 290.86336564707454 55.6128688999818
35.58506947934507 293.45400930427456 56.20573062998277
53.88088349672422 278.28620176172166 65.54152708316249
46.991575395238385 293.53800102736756 55.00582708972498
48.258575113555956 292.1483762502147 54.98468688198243
36.52403879078134 297.25761103935304 63.75849847171676
34.9239437660854 289.7451117633256 55.475278670298295
46.547416532372004 279.726311941721 73.64573319913895
37.809729706925154 284.20197352465897 79.76251556669793
53.821091839488986 278.7223961903793 63.81559746791113
44.812141178951485 279.25941799437607 65.65509309228437
49.05786773393813 295.0702176216901 68.44259396780684
29.849102526100598 297.42225538853677 73.28693527953455
50.27170663856411 288.4184476355838 76.8117974490265
42.60799079864283 289.00298148574365 80.81882999868715
47.83489399963773 277.9723809958577 69.81696959850068
36.92035492274486 280.79133215594175 64.42080462394195
53.51584256411687 291.30924306021865 65.98925401234877
50.634879614820925 277.6981030844979 63.223150258000686
49.150774994144975 281.74213027858667 76.91360387289556
55.07413533166278 289.5680517736136 60.70821156765909
42.59366868375697 295.38624519282996 76.91921887518254
46.49722056701661 283.1073845343902 53.67144979953125
38.82045115351666 295.6738734311114 61.62575737704912
34.98436763067232 288.57603126079914 57.9559516247299
40.364668492655774 296.001802845532 62.476738953064945
39.103726858290116 296.3120452639971 76.27860784954939
29.56971817102655 296.9777329934371 71.12311337901137
40.46705150023182 288.4977982038655 48.28690065001786
48.97350061705571 289.4204010756735 52.16239571748056
45.15067205326283 291.0866242328717 78.9546536648802
32.037554504516336 297.6543406380304 66.11211286410544
47.97097522187672 293.86426924529064 62.298159341093516
43.83453904187229 292.36320384419014 79.44307742102914
48.71235174450404 293.39605805764893 63.95306844609173
33.24229649497805 288.6473819813485 68.29763101480943
48.4590653353358 286.43723513394815 52.66028278592897
42.06695734410824 283.70059954667505 55.21707035969159
50.61007758501479 285.2462549739955 77.52056777133933
46.58325452097956 295.05429289646713 62.19852748131579
54.23266530373098 286.93205041716203 57.202542296379995
37.88849572324579 285.49072828914234 55.45126174037841
42.88126334014506 295.93810298673077 59.98163577803022
52.96317717510848 283.1653970677382 75.87289578296014
53.51483435909462 291.3336461479527 63.97803284870195
36.698470388802264 286.26560431656685 78.16648139878998
52.5423474212171 281.4163120175401 74.74708951274461
41.97478521526784 296.70241165513136 64.61156529584613
32.87647660237816 292.9474483884529 63.62221959721264
42.22569642114101 277.5958477129414 67.60995206796028
47.22520357317972 293.56606745965877 56.8676599839256
46.170045849391656 285.9324041305954 79.05719888084825
35.450824374490416 281.4380326719172 78.67106959340198
50.886936191445784 288.44505865133755 55.34897005470345
37.883785020804915 295.0578497239431 57.260234921360045
44.75059362466182 286.63804860906635 79.65190624526443
48.176454926085405 293.45477693582563 59.120036464770486
42.96072017981181 296.19457432550655 73.98086730026652
36.33675287993246 280.174607243151 66.53280150082442
51.61883107828085 291.45872389240145 59.36021408377405
43.677194291867906 285.2210362707344 79.1912396031956
33.85626284979268 290.7325555874275 61.78916095324981
35.26755500693412 286.85848083583284 75.72727094254752
47.47729320203887 294.74779157179984 63.74181594606139
43.824869177354294 296.22245286614327 63.92698239806772
48.38941505687269 293.12155451601365 60.911157452551365
29.807166073542188 292.19334765040526 73.77025906134006
34.796576516775666 298.1643689568372 64.75386774491152
42.62880807506563 281.19998361216744 77.57192166916697
39.85334378345306 295.7470557158203 57.3294157476623
45.41758462482848 295.7119843257985 60.43276734688914
51.681068256338406 292.2123162354848 63.01964790822854
43.46127314622222 287.4981277682759 80.20798672937956
29.35765112962514 293.45687254752625 70.96376117429539
41.375261983450024 290.76046832449777 80.3513114828608
46.10983268146308 292.14561057109887 50.40721066161705
42.550440909155625 297.19818421389266 70.52372611913678
43.99767292493594 297.6784999335983 69.06932177175656
44.667853321494746 293.9031890287665 50.593880257244734
48.578154096355924 294.78941884017075 65.25788422119398
47.79231914051758 290.691931264897 51.51378632844014
52.360725620599446 277.14050941022816 65.29889016538849
45.704286943592244 283.7318254510053 78.80466493316035
57.54083359333623 284.33626752001925 64.99084261985242
44.086289967090636 295.8418014229878 73.02773170640539
37.788597354918785 297.8525882308955 65.21728937619797
33.78428632955322 284.5636139950308 73.79424223115035
46.967474402773945 281.2392576167766 77.50406113494246
37.90147398161667 295.94339539831185 63.28858598989499
45.575680657813685 294.6358349816828 73.56823932588559
34.096819774781764 285.6202479194468 74.73781531451738
44.939186741620055 287.6430851658988 47.68225109587448
48.85516451008745 277.3778414058409 67.40664976609291
51.490520908866536 291.8513912661487 73.70367110512113
38.98441401025701 282.10758197047113 61.464774362781995
37.79082493887434 289.0593076342696 50.54111694947085
44.91428844014875 295.8008359542783 62.594906574019255
41.460406602304516 296.04881334721574 61.0954436747729
34.74915099492089 280.6902074750858 74.11301835333418
41.313122782015824 291.0951001872673 47.408461752024316
35.305861130168665 290.0173417928407 75.26857756991521
48.11013981663748 292.5562944249164 75.73735851869827
34.82131655141966 288.09885339645973 60.68756941343947
31.61490228854064 299.47231744027243 75.31673301927268
45.743486287993456 280.8610407796255 59.30120022975197
57.420237377215244 285.1409053238019 63.142791905296406
42.011120916840106 279.1668413987712 64.00247922216859
36.33260537735104 299.8242847009287 66.8748787169325
51.08323740935436 282.22391211614274 56.88486313145551
41.53222067568091 286.3129486591577 49.08663603814982
55.28155505150414 287.7350364737479 58.887956270612435
37.17778128037417 295.07316783832715 61.0321346627199
55.90738430806139 279.77802174955013 68.59302236115467
57.13319639772478 282.19341233205694 64.4151575886531
38.216986937367814 284.1206524018672 60.242521977965204
37.01836993784412 290.768676921634 51.37757467137998
45.71589473870649 295.67744455058704 71.92312624827613
55.444240924404326 279.7402419609482 70.40038890149029
46.1273677565947 296.97200915576883 68.11600888558775
47.41263433166252 293.9570901773161 73.99042374606532
51.158355402999526 291.90191323672354 61.26058086254943
53.069141298511234 288.36078333520356 57.33566770529175
45.603234233868214 295.0924362731468 55.30627627317258
52.79517603765559 288.7245002665911 74.89088189720148
45.961139030604045 296.7947165478622 66.12111734139762
44.121137712511214 297.03240792988476 65.44022998166079
32.59444908305431 300.1955560016014 69.36485149374529
44.015285749643866 295.9350938881173 61.32071414798387
30.256027565888015 290.96990622461203 70.92832637254291
40.95677817963882 287.64972917535454 81.06059455117556
50.6801465675637 276.93147981265247 69.16084092394387
36.86514295933964 300.8818300758061 71.53632503043279
32.99280481014445 300.88486888734434 71.84807030092624
35.26571658013729 296.150048368042 62.65854634918078
38.36662776156712 297.89479296285833 75.25525687036456
40.23942857444502 282.6869728450215 59.11135029951533
35.00871252954395 301.00874897571214 69.48719625066776
39.59714730286602 298.37470203224325 69.03262103651636
42.75633473886647 297.2998041559975 66.95115592356157
32.900509044969105 295.73688613901317 64.30368589477463
47.82143969396458 296.2027914481409 69.24218149866607
56.545964517084016 282.0090467202862 71.88479568846445
39.638140358329736 296.437426864747 64.62523873596658
46.42869439798091 295.8138874379432 63.47788742052551
49.694374091802 292.7849699021109 62.24370832268806
31.649365927317096 295.8612569127843 65.83123657745257
36.404161164855914 286.4079114107322 57.102716909588544
35.73466842289925 286.7278770745309 59.15795364021478
36.28369197213369 282.8187808781796 79.7390562675204
46.03678277828259 287.9255416780641 49.587055841004975
56.46068683899913 287.7009257923996 61.91519038218016
46.03419156841055 294.7636892235896 57.17899494686367
54.324020007654234 287.6286612062061 75.00534051097267
46.497584513907086 294.6250864159241 58.67640438849587
42.21632332247341 286.38201538226036 79.97189840702671
49.25041933182896 288.2227400643893 53.2424252900057
50.51041865432794 276.89261482595197 67.22522331638346
39.784896981966696 295.6551093642229 59.69522491277477
48.5900944067144 292.76740149708024 73.67500432630473
35.3942139389014 287.87367910595356 56.203754811587764
56.31457523052689 287.3041822855373 71.45140995076756
35.385652792338774 287.0542991505776 62.19855049286893
42.79292346998695 296.18557110121304 62.27322627038367
36.63175300235005 279.90298898140213 79.22150264590744
51.07951661758989 282.5254873706214 76.10755238260987
52.660663448929974 277.35408937006025 68.95184202166604
34.549768208300456 282.6878332139989 77.44299345954215
57.517529857827576 286.3818694772511 68.74590664336212
41.096421687895834 277.0138823646064 73.34526288949412
54.67676623684884 290.46971449415963 67.54107057309474
POLYGONS 944 3776
3 40 20 24
3 32 51 139
3 315 27 40
3 444 31 25
3 52 25 23
3 420 25 31
3 139 215 231
3 28 444 315
3 28 422 444
3 147 26 20
3 51 321 139
3 25 52 27
3 315 40 30
3 24 20 26
3 32 231 30
3 40 32 30
3 45 473 51
3 473 44 22
3 27 20 40
3 147 397 26
3 22 44 123
3 13 405 423
3 27 52 20
3 45 51 24
3 53 363 42
3 14 12 55
3 13 33 34
3 14 55 397
3 52 462 147
3 423 462 52
3 423 405 462
3 14 48 12
3 48 317 12
3 405 286 462
3 286 14 397
3 14 286 48
3 471 11 44
3 11 123 44
3 24 26 37
3 47 2 317
3 317 2 12
3 21 447 29
3 383 21 28
3 442 278 38
3 38 278 441
3 429 442 18
3 33 13 49
3 2 427 12
3 427 55 12
3 53 414 425
3 420 31 15
3 54 37 55
3 23 25 420
3 27 315 444
3 444 25 27
3 29 447 400
3 427 54 55
3 420 393 23
3 393 388 49
3 15 276 388
3 23 423 52
3 53 128 363
3 363 128 17
3 17 35 363
3 35 424 363
3 375 424 448
3 4 374 457
3 393 423 23
3 393 13 423
3 29 368 429
3 29 400 368
3 231 338 383
3 420 15 388
3 388 393 420
3 429 18 428
3 428 29 429
3 374 19 457
3 354 457 360
3 21 383 367
3 466 351 368
3 368 400 466
3 346 374 4
3 374 343 19
3 457 19 360
3 147 20 52
3 447 343 400
3 400 343 374
3 35 448 424
3 33 337 34
3 378 1 337
3 19 369 360
3 19 336 369
3 367 338 336
3 21 367 447
3 367 343 447
3 363 424 42
3 42 424 375
3 383 338 367
3 128 53 425
3 308 354 17
3 55 37 397
3 397 37 26
3 16 168 415
3 415 168 437
3 321 22 348
3 314 294 56
3 22 321 473
3 473 321 51
3 434 291 319
3 360 369 35
3 35 369 448
3 315 30 28
3 47 298 342
3 364 386 355
3 393 49 13
3 177 121 279
3 279 121 34
3 312 349 275
3 30 383 28
3 297 263 391
3 297 281 263
3 428 28 21
3 311 260 289
3 338 448 336
3 338 215 448
3 355 299 298
3 298 299 5
3 355 386 299
3 299 386 5
3 271 433 378
3 5 258 391
3 391 258 297
3 5 386 258
3 258 386 297
3 139 375 215
3 231 215 338
3 250 256 364
3 29 428 21
3 428 422 28
3 367 336 343
3 343 336 19
3 336 448 369
3 457 455 4
3 4 455 426
3 457 354 455
3 455 354 426
3 439 239 398
3 296 410 239
3 48 286 405
3 354 360 17
3 17 360 35
3 18 422 428
3 30 231 383
3 444 422 31
3 86 406 365
3 415 437 392
3 58 357 459
3 357 425 39
3 429 368 351
3 61 276 226
3 303 225 311
3 323 391 225
3 45 37 224
3 398 239 221
3 221 239 410
3 263 281 260
3 260 311 263
3 45 220 473
3 473 220 44
3 195 240 213
3 224 464 220
3 220 45 224
3 281 212 260
3 212 472 260
3 471 211 11
3 210 270 43
3 208 213 259
3 398 207 246
3 246 207 320
3 398 221 207
3 207 221 320
3 292 195 261
3 292 203 195
3 203 240 195
3 301 202 412
3 202 270 408
3 448 215 375
3 56 196 314
3 314 196 410
3 196 261 410
3 464 194 234
3 54 456 194
3 194 456 234
3 302 209 229
3 218 240 203
3 203 472 218
3 221 191 320
3 221 410 191
3 191 410 261
3 44 220 471
3 471 220 464
3 320 268 246
3 320 208 268
3 268 208 247
3 195 189 261
3 320 191 189
3 189 191 261
3 189 195 213
3 212 186 472
3 472 186 218
3 212 257 186
3 186 257 218
3 259 185 217
3 217 185 245
3 259 206 185
3 185 206 245
3 206 184 302
3 302 184 218
3 206 240 184
3 184 240 218
3 257 183 218
3 218 183 302
3 257 209 183
3 183 209 302
3 240 182 213
3 213 182 259
3 240 206 182
3 182 206 259
3 188 245 229
3 177 180 317
3 317 180 47
3 180 298 47
3 366 179 349
3 349 179 275
3 366 188 179
3 179 188 275
3 54 194 224
3 224 194 464
3 462 286 147
3 147 286 397
3 252 247 7
3 16 305 41
3 16 358 305
3 398 246 418
3 398 418 439
3 296 219 408
3 296 239 219
3 219 239 439
3 433 318 378
3 378 318 1
3 433 376 318
3 318 376 1
3 54 427 456
3 456 427 2
3 172 337 33
3 1 376 171
3 61 325 49
3 49 325 33
3 325 172 33
3 50 443 352
3 443 371 437
3 364 192 386
3 386 192 297
3 364 256 192
3 192 256 297
3 279 1 171
3 404 199 273
3 441 201 38
3 201 226 276
3 365 352 168
3 248 61 330
3 438 187 330
3 300 241 10
3 330 187 241
3 461 235 415
3 415 235 16
3 461 358 235
3 235 358 16
3 311 165 303
3 311 289 165
3 165 289 319
3 319 164 294
3 294 164 56
3 319 289 164
3 164 289 56
3 325 61 248
3 248 172 325
3 3 172 248
3 289 260 160
3 160 260 472
3 47 161 2
3 2 161 6
3 47 342 161
3 18 442 381
3 381 442 38
3 412 159 238
3 412 202 159
3 169 226 201
3 201 441 169
3 300 157 3
3 3 157 378
3 300 271 157
3 157 271 378
3 268 247 252
3 252 246 268
3 3 241 300
3 3 248 241
3 241 248 330
3 461 346 282
3 282 346 4
3 271 154 433
3 154 250 433
3 270 153 43
3 264 282 36
3 43 150 210
3 210 150 314
3 150 294 314
3 8 421 445
3 445 421 175
3 414 344 425
3 425 344 39
3 414 178 344
3 344 178 39
3 150 43 173
3 18 381 422
3 422 381 31
3 412 144 301
3 144 178 74
3 295 193 306
3 39 148 238
3 238 148 412
3 39 178 148
3 153 204 149
3 417 295 274
3 274 295 306
3 193 143 306
3 294 396 319
3 319 396 434
3 301 144 214
3 214 144 74
3 274 204 253
3 253 417 274
3 408 285 202
3 285 146 326
3 253 204 214
3 214 74 253
3 326 138 159
3 159 138 238
3 144 412 148
3 148 178 144
3 301 136 202
3 202 136 270
3 301 153 136
3 136 153 270
3 324 454 414
3 357 133 459
3 133 340 459
3 434 132 291
3 287 303 291
3 6 198 234
3 193 416 421
3 421 416 175
3 193 295 416
3 416 295 175
3 202 285 159
3 159 285 326
3 365 130 352
3 339 129 0
3 0 129 273
3 339 46 129
3 425 357 128
3 31 381 15
3 426 174 4
3 4 174 282
3 426 36 174
3 174 36 282
3 121 405 34
3 405 13 34
3 48 405 121
3 121 177 48
3 48 177 317
3 6 161 216
3 216 161 342
3 127 219 439
3 8 132 421
3 421 132 193
3 146 341 142
3 142 341 265
3 146 127 341
3 341 127 265
3 303 165 291
3 291 165 319
3 263 311 225
3 225 391 263
3 350 468 152
3 439 418 232
3 350 347 468
3 350 198 347
3 347 198 6
3 287 152 303
3 323 225 152
3 152 225 303
3 298 120 355
3 120 171 355
3 348 139 321
3 340 118 459
3 32 139 231
3 7 284 339
3 339 284 46
3 7 247 284
3 284 247 46
3 445 198 8
3 8 198 350
3 216 468 347
3 347 6 216
3 152 287 350
3 350 287 8
3 8 287 132
3 132 287 291
3 139 348 375
3 375 348 42
3 180 177 120
3 120 298 180
3 409 134 454
3 74 178 134
3 254 237 426
3 426 237 36
3 254 382 237
3 323 468 197
3 323 152 468
3 123 280 22
3 123 454 280
3 280 454 324
3 22 280 348
3 289 160 56
3 56 160 292
3 468 216 197
3 197 216 342
3 349 124 366
3 124 404 366
3 296 117 410
3 410 117 314
3 296 210 117
3 117 210 314
3 15 380 276
3 276 380 201
3 15 381 380
3 433 458 376
3 376 458 364
3 433 250 458
3 458 250 364
3 391 323 5
3 5 323 197
3 38 201 380
3 380 381 38
3 1 334 337
3 337 334 34
3 1 279 334
3 334 279 34
3 5 197 298
3 298 197 342
3 270 233 408
3 408 233 296
3 270 210 233
3 233 210 296
3 355 359 364
3 364 359 376
3 355 171 359
3 359 171 376
3 408 293 285
3 285 293 146
3 408 219 293
3 464 234 283
3 238 158 39
3 39 158 357
3 238 133 158
3 158 133 357
3 142 125 146
3 146 125 326
3 125 137 326
3 464 283 471
3 58 115 308
3 308 115 254
3 58 384 115
3 115 384 254
3 246 267 418
3 406 451 267
3 128 304 17
3 58 308 304
3 304 308 17
3 250 154 312
3 312 154 349
3 24 37 45
3 256 372 297
3 297 372 281
3 256 200 372
3 372 200 281
3 230 345 450
3 265 232 345
3 345 232 450
3 340 167 118
3 167 453 118
3 326 156 138
3 138 156 340
3 326 137 156
3 340 133 138
3 138 133 238
3 366 113 269
3 269 113 273
3 366 404 113
3 113 404 273
3 300 124 271
3 171 120 279
3 279 120 177
3 200 111 257
3 257 111 209
3 259 262 208
3 208 262 247
3 259 217 262
3 110 131 142
3 245 390 217
3 217 390 269
3 245 188 390
3 267 246 252
3 345 230 109
3 109 265 345
3 438 106 187
3 451 328 450
3 41 310 328
3 142 131 125
3 125 131 137
3 146 293 127
3 127 293 219
3 335 371 443
3 167 340 156
3 156 137 167
3 471 223 211
3 211 223 175
3 471 283 223
3 79 244 272
3 441 92 169
3 411 440 92
3 181 106 91
3 91 106 438
3 109 135 110
3 278 90 441
3 281 89 212
3 212 89 257
3 281 200 89
3 89 200 257
3 187 88 241
3 241 88 10
3 454 134 414
3 414 134 178
3 234 456 6
3 456 2 6
3 199 141 273
3 273 141 0
3 141 432 0
3 226 169 91
3 91 438 226
3 91 435 181
3 91 169 435
3 92 440 435
3 435 169 92
3 92 441 90
3 90 411 92
3 256 84 200
3 312 236 84
3 106 83 187
3 106 242 83
3 83 242 244
3 247 262 46
3 46 262 217
3 414 53 324
3 324 53 42
3 409 81 11
3 11 81 123
3 409 454 81
3 81 454 123
3 272 244 105
3 244 242 105
3 389 90 278
3 254 379 382
3 254 384 379
3 379 384 126
3 118 251 384
3 384 251 126
3 118 453 251
3 251 453 126
3 187 83 88
3 88 83 244
3 10 88 79
3 79 88 244
3 131 78 137
3 453 167 78
3 78 167 137
3 459 333 58
3 58 333 384
3 459 118 333
3 333 118 384
3 273 129 269
3 312 84 250
3 250 84 256
3 58 304 357
3 304 128 357
3 453 78 76
3 76 78 131
3 404 73 10
3 10 73 300
3 404 124 73
3 73 124 300
3 90 389 411
3 411 389 371
3 269 72 217
3 217 72 46
3 269 129 72
3 72 129 46
3 351 446 278
3 392 389 446
3 446 389 278
3 209 356 229
3 36 98 264
3 264 98 151
3 36 170 98
3 98 170 151
3 418 95 232
3 232 95 450
3 95 451 450
3 406 71 365
3 7 130 71
3 71 130 365
3 151 70 264
3 70 107 305
3 266 69 382
3 122 170 69
3 69 170 382
3 267 451 95
3 95 418 267
3 107 68 419
3 151 77 68
3 68 77 419
3 76 413 9
3 76 131 413
3 82 419 77
3 282 373 461
3 461 373 358
3 282 264 373
3 373 264 358
3 406 328 451
3 110 135 413
3 413 131 110
3 382 170 237
3 237 170 36
3 230 249 109
3 249 135 109
3 41 328 86
3 86 328 406
3 330 66 438
3 438 66 226
3 330 61 66
3 66 61 226
3 264 70 358
3 358 70 305
3 329 392 446
3 54 224 37
3 450 463 230
3 230 463 310
3 450 328 463
3 463 328 310
3 278 442 351
3 442 429 351
3 329 351 466
3 329 446 351
3 453 116 126
3 116 266 126
3 419 114 107
3 419 249 114
3 114 249 230
3 107 114 310
3 310 114 230
3 9 395 76
3 76 395 453
3 9 116 395
3 395 116 453
3 382 379 266
3 266 379 126
3 320 362 208
3 208 362 213
3 320 189 362
3 362 189 213
3 49 361 61
3 61 361 276
3 49 388 361
3 361 388 276
3 272 100 370
3 232 277 439
3 439 277 127
3 232 265 277
3 277 265 127
3 400 431 466
3 466 431 346
3 400 374 431
3 431 374 346
3 466 401 329
3 329 401 461
3 466 346 401
3 401 346 461
3 249 399 135
3 135 399 82
3 249 419 399
3 399 419 82
3 413 332 9
3 413 135 332
3 332 135 82
3 200 227 111
3 111 227 236
3 200 84 227
3 227 84 236
3 266 166 403
3 403 166 9
3 266 116 166
3 166 116 9
3 9 332 403
3 403 332 82
3 265 155 142
3 142 155 110
3 265 109 155
3 155 109 110
3 415 327 461
3 461 327 329
3 415 392 327
3 327 392 329
3 16 176 168
3 168 176 365
3 176 86 365
3 261 353 292
3 292 353 56
3 261 196 353
3 353 196 56
3 87 119 335
3 119 440 411
3 173 396 150
3 150 396 294
3 41 86 176
3 176 16 41
3 193 469 143
3 143 469 434
3 193 132 469
3 469 132 434
3 236 467 111
3 111 467 209
3 236 356 467
3 467 356 209
3 432 377 108
3 108 377 243
3 434 460 143
3 143 460 173
3 434 396 460
3 460 396 173
3 275 452 312
3 312 452 236
3 275 356 452
3 452 356 236
3 335 119 371
3 371 119 411
3 243 255 94
3 243 331 255
3 302 402 206
3 206 402 245
3 302 229 402
3 402 229 245
3 141 199 370
3 370 432 141
3 104 87 255
3 255 331 104
3 104 430 87
3 104 436 430
3 430 436 440
3 417 387 211
3 211 387 11
3 417 409 387
3 387 409 11
3 331 100 316
3 274 313 204
3 204 313 149
3 274 306 313
3 313 306 149
3 370 100 377
3 377 432 370
3 295 222 175
3 175 222 211
3 295 417 222
3 222 417 211
3 104 145 436
3 316 105 145
3 335 449 94
3 94 449 50
3 335 443 449
3 449 443 50
3 229 470 188
3 188 470 275
3 229 356 470
3 470 356 275
3 143 385 306
3 306 385 149
3 143 173 385
3 385 173 149
3 371 309 437
3 437 309 392
3 371 389 309
3 309 389 392
3 445 228 198
3 198 228 234
3 445 283 228
3 228 283 234
3 163 140 108
3 0 432 140
3 140 432 108
3 94 112 335
3 335 112 87
3 94 255 112
3 112 255 87
3 305 103 41
3 41 103 310
3 305 107 103
3 103 107 310
3 316 102 105
3 105 102 272
3 316 100 102
3 102 100 272
3 42 348 280
3 280 324 42
3 100 162 377
3 377 162 243
3 100 331 162
3 162 331 243
3 436 101 181
3 436 145 101
3 24 51 40
3 51 32 40
3 74 99 253
3 409 417 99
3 99 417 253
3 269 394 366
3 366 394 188
3 269 390 394
3 394 390 188
3 352 97 50
3 352 130 97
3 97 130 163
3 0 140 339
3 339 140 163
3 271 93 154
3 154 93 349
3 271 124 93
3 93 124 349
3 440 85 435
3 435 85 181
3 440 436 85
3 85 436 181
3 43 322 173
3 173 322 149
3 43 153 322
3 322 153 149
3 316 80 331
3 331 80 104
3 316 145 80
3 80 145 104
3 214 96 301
3 301 96 153
3 214 204 96
3 96 204 153
3 94 75 243
3 243 75 108
3 94 50 75
3 75 50 108
3 272 67 79
3 79 67 199
3 272 370 67
3 67 370 199
3 10 205 404
3 404 205 199
3 10 79 205
3 205 79 199
3 242 407 105
3 105 407 145
3 242 101 407
3 407 101 145
3 339 288 7
3 7 288 130
3 339 163 288
3 288 163 130
3 7 71 252
3 175 65 445
3 445 65 283
3 175 223 65
3 65 223 283
3 409 99 134
3 134 99 74
3 308 307 354
3 354 307 426
3 308 254 307
3 307 254 426
3 292 290 203
3 203 290 472
3 292 160 290
3 290 160 472
3 437 190 443
3 443 190 352
3 437 168 190
3 190 168 352
3 97 64 50
3 50 64 108
3 97 163 64
3 64 163 108
3 170 63 151
3 151 63 77
3 170 122 63
3 63 122 77
3 151 68 70
3 70 68 107
3 181 62 106
3 106 62 242
3 181 101 62
3 62 101 242
3 266 60 69
3 69 60 122
3 266 403 60
3 60 403 122
3 122 59 77
3 77 59 82
3 122 403 59
3 59 403 82
3 87 430 119
3 119 430 440
3 337 57 378
3 378 57 3
3 337 172 57
3 57 172 3
3 252 465 267
3 267 465 406
3 252 71 465
3 465 71 406
