# vtk DataFile Version 3.0
A great-looking cell
ASCII
DATASET POLYDATA
POINTS 683 double
225.46745456059875 149.78378586786724 38.39009498417095
226.85039756075534 148.1719192549171 39.35758096139567
228.5333337100531 149.33385175627407 38.91015658304137
220.53931390416273 152.12881978373068 38.91598947016829
221.59806198484875 149.9243800268516 38.879514581830556
223.58461938423898 150.14193104874704 38.429993089523826
228.92982321211034 151.1663796972448 38.08932700353219
230.31633042310423 149.78989806789892 39.17655057964976
230.9211381010604 152.0000166007779 39.00636334421285
221.77761400812125 153.3719534555605 38.167564753511996
223.6007386768242 153.41781054955896 37.8891924348236
225.7769317731025 153.57766350576503 37.105827731031425
228.0799647812235 153.4267494953666 37.46031818404677
229.78413066669674 153.10310638227915 38.20454977954322
230.9168504494767 154.2206630114567 39.0357330766697
222.33060690320895 155.00227428890986 38.64455055450605
226.22961323798978 155.5364687934091 37.902031189655766
228.02948721297284 155.66045999415508 37.41821738840551
229.42985915151638 154.8277226207216 38.32106598870601
230.3188407593885 155.87902045468374 39.26041691968742
225.04361406703 157.10096363336743 38.9414734499592
227.0672414606235 157.21351835285083 38.70217495070539
228.91924307463887 156.65383195658075 38.94610716221487
220.18413508969735 147.01407494488225 41.56021123102363
222.09533725609208 147.07931477922142 41.07487716878869
221.72647013723335 145.7492397284079 42.255123651097826
223.7994160088643 145.94289820906357 41.19533361911521
223.55488479659624 144.33282529553216 42.785316005664875
225.7046973541999 146.59879357437407 40.525665547320926
226.18429272568756 144.92081637502002 42.10156940181632
227.94117833511993 146.35066099776844 40.73143157422569
218.14314732433985 147.5232983529029 42.408226454378706
217.50472815210662 149.5308488900196 41.89309603782741
219.18843381213787 148.52554925536884 41.26702052947199
220.89900374911682 148.32285877456624 40.22704550758762
223.7530039415957 148.22859323281324 39.7923099449981
230.3043208143474 146.79367725057068 41.22022977961908
229.28237297387776 147.87873604101006 39.61127070314131
231.00052005253886 148.55375266033144 40.42714359089748
232.55156847155303 148.00508793366504 41.82069945694042
217.02540854328998 151.70482347982457 41.408216839850446
219.26911906646387 150.42701025904668 40.33849159810552
232.28045959064974 150.61960172956714 40.5112263089837
233.92444747458853 150.15341333621586 42.081712233852784
216.7235420999965 153.6634632839016 41.49383415554183
218.60572209564538 153.28953335332324 40.41225887293884
232.4605603152712 153.4320738881956 40.02076567228278
234.1533977027881 152.7964571996231 41.64269587142253
217.5575448844084 155.21763681943554 41.51563139243082
219.17703935295108 155.6368415790814 40.551584334624984
220.3453348606265 154.41056029336605 39.07533746719726
221.06986838282634 156.28199458064518 40.02257879870477
231.75964378525623 156.0076219526654 40.25767264547628
234.35694435060432 155.59941462784562 42.77391385266327
233.26957439218717 155.02118103653657 41.20298134438453
218.23225924764233 156.85056336558418 41.606219586898405
219.83689023905887 157.39697561279513 41.421166186301704
221.87201821506252 158.0959613924091 41.240647043753526
223.030516554185 156.8104638112258 39.42719904879329
223.8492661178516 158.51524366532448 40.272393047699474
228.15904771063262 158.58050498207174 40.14001517599456
230.1636218285733 157.58872451906902 39.988453445224245
231.04320824260427 158.18197123499087 41.55093570118025
232.7535896801652 157.0261731626264 41.99170225748876
223.01930724273785 159.51155260858843 41.58112157249275
224.66313940678864 159.86527753800792 41.37161165925049
225.92412014363615 158.42308323339626 40.30136763476873
226.66340532197688 159.92082327607113 41.412902115330965
228.34016598329626 159.7322047704915 41.72350869092789
229.62216898350283 159.07458038298745 41.117032441383735
224.39588132136427 141.90363585085993 45.201002594519
225.89543467280382 142.01482047374674 44.92090697178387
222.5224355971009 142.47324879144264 46.119263789889125
221.69175709193811 143.68920501913115 45.50785971868205
223.17304562668457 143.3202375453242 44.57079842060014
225.494338746686 143.1183641368493 43.88531002411586
227.51828771130994 142.33460134944988 44.7930347813889
227.53221174098547 143.5314314689869 43.24690552301125
229.10404627746635 143.34307287106998 43.86116852157065
217.36859460375734 146.75526033730384 44.32661944361214
219.5977306228315 146.07972321583628 43.24889949414694
219.0948530011811 145.45413697485398 45.18672474187519
221.26513243305456 144.58648683137974 44.10234886867237
220.41874520598356 144.46785408930563 45.82270632335737
230.88293383770528 144.22955808566027 43.92310868392337
229.08223501457604 144.97262766362607 42.55347030031425
231.35774556526744 146.02476104724158 42.89349142253581
232.27803207411043 145.51378459289262 44.20571667556504
232.90774055762955 146.82388278957382 43.5057943047495
233.66489697516153 146.41562754414673 44.9721876873162
214.68262966179492 150.2170104071508 44.9247259262336
216.40925005314975 148.78353848587008 43.69964094049433
234.15429080324407 148.6514109713327 43.86255364544484
215.74879934516008 150.8496587710529 43.06670303453098
214.55446890222606 152.4777447279915 44.59549614845448
235.59614502713276 149.84910708144787 44.867624711736816
235.28083572502138 151.29878074303838 43.50602430325447
235.88513251827888 151.4209779740006 45.157161687164106
215.64864421163625 153.03127814405693 42.81532723256757
214.8515031229561 154.70640793882734 44.22506360744139
235.28158503280898 153.649679379054 43.290997159856154
235.98065111330777 153.18584789248644 44.76248432548577
216.04940792965934 155.04568307850582 42.687377015150766
215.94118558996854 156.46714455032387 44.250939820960355
235.5256472893139 155.31871962317427 44.421572147350346
217.05128572888617 158.01384514647566 44.315819574462154
217.1340202259429 156.69536440520665 42.854562093596684
218.58143978808732 158.24432450407662 42.97725095147881
220.36989120098949 158.70695593707148 42.520584458250084
234.72057424460823 157.02950932121536 44.21835681814152
234.0060341015182 158.68814559045103 45.141760358628694
233.49504863005873 157.88197089371118 43.55605661581499
218.1073336186622 159.3296202233054 44.50773766330305
219.77132287707784 160.18036543453505 43.83026853757466
221.85863274805996 161.21023490221404 44.08185929045175
221.6686143762611 159.80500070929585 42.64528742292005
223.27943396660584 160.91828409875882 42.52132787517614
227.4739785716243 161.0097078521954 42.742890831831765
229.75464566526796 160.1828893599727 42.85565132824351
231.88921400427884 158.99317744170483 43.08791670746072
232.80137139324492 159.63582767952238 44.3769448897975
231.1530704333068 160.67576378170426 44.38332878497103
223.92618278296004 161.80840482972548 44.19252173845373
226.1242703024775 162.01831336300882 44.22953223614942
225.3406362599808 161.16880331168852 42.62662983488022
228.30248914356432 161.58676143134676 44.30673075953161
229.79405567993314 161.38677935830307 44.21539921789782
225.0520028394059 139.48491394584244 47.139546568343434
221.39091328984392 141.82190963224147 47.679295700545104
223.52834579175126 140.81621514641947 46.953913564866966
227.16438363585044 139.31407382334007 46.948210328968976
225.98199526831084 140.74195351082614 45.754652853129365
228.27257214491033 140.7238417962051 45.727683787580034
230.14319633710886 139.8932386022905 46.985865846292114
220.81662706436853 143.42659010925394 46.893168254263934
230.13183907329946 142.30719738130443 45.27236720514187
231.83817773917562 142.19189157695547 46.69614364939864
218.81463732693192 144.72102389078887 47.29165405564133
216.78676304241264 145.95892444027695 48.588504507790084
217.14184012028153 146.40063019329403 46.51728538732143
232.47758525691984 144.18426739501388 45.577293715804046
233.69121680754995 143.36498045004316 47.304460354903256
234.41502715378311 145.62760439959473 46.75621762545869
215.56281363333778 148.38041436834558 45.94144671580512
215.26792998254285 147.41395083758994 47.93559375942776
213.88760362432853 149.52145336843586 47.892088656337116
235.906776528098 147.04640050287585 48.04156072938944
235.29827561351618 148.08737154126982 46.03517338259338
236.39186664006144 149.222015789641 47.754289891552546
214.25875285868423 149.89480275187927 46.3585404162225
213.54856188977757 151.9165824825048 46.88340471055289
236.91663872117152 151.38826066639672 47.72862650815404
235.97606532766974 150.41137641742282 46.36038468479056
213.3396959265181 154.4235084789452 47.81909149618368
236.99498629641707 153.66719505549648 47.80250347219049
236.47051379049188 152.48724957306266 46.30980590954068
213.93546619957468 154.41578278824878 46.07511710374885
213.96649334146764 156.38093840750994 47.567329911606826
236.82761029910412 155.7217997432642 48.02109947823892
236.26940195266357 155.0006093873804 46.310527116759104
214.81502648256662 156.49923639877824 45.77326305031741
215.51954829919816 158.61393636971474 47.440334020347244
215.71240149144757 158.0070966340038 45.32933341126749
235.2354930579497 157.10538694427638 45.718598602942095
235.97569900763185 157.36420981990238 47.43392906330408
234.52261228760682 159.01378647853858 46.885760111986485
217.16406682599018 160.61061974896873 47.25263955409925
216.8097239765435 159.3981297751396 45.65687803656449
219.06829318537356 161.67786693397713 47.34587406602116
218.41490432808172 160.69081371717652 45.619980616151594
220.41213086111964 161.49184456201348 45.69024675076897
232.38708481263498 160.69310257222548 46.43191634540149
233.7504382443885 160.3925023312833 48.129688589482384
221.15665188253178 162.2303881687726 47.49979433048333
223.2663234357744 162.79304041158133 47.569716049193424
222.52031947730322 162.0735893842828 45.84798321111
225.52452881174793 162.71405993997507 47.78505951010741
224.70722546188387 162.3836892750278 45.951136206570084
227.91468682427814 163.1123178123089 47.72100072217989
227.0231580138548 162.46539190380753 45.94912681932491
230.32412342149985 162.4400192259897 48.08246738657597
229.61909371732793 161.97615318063353 45.82002899544097
231.97316549406858 136.51021282151572 49.82233470709833
233.75296915378487 135.86326657079013 50.91942414083973
235.5540516031828 137.27557318151042 50.4848502621398
223.26731356943796 139.10406605540888 48.28878042212095
221.36735674647 139.6223008464036 50.246937327820305
223.30687057403614 137.95709065058722 49.90269316412726
225.58124984746303 137.47168031463426 50.23783072903799
225.39946516926778 138.48753730357228 48.5149371703141
227.79576949665665 138.28497725226723 48.682144330461476
227.9007646947742 137.3632720470405 50.71886438279427
229.90216852104103 136.78838391527816 50.994751435202666
230.3567069610787 137.89904038132934 48.91398288190764
233.15888024213135 138.54192587842536 48.396122034666575
235.3431688629379 138.80178977722105 49.307490432076754
236.69917167874533 138.8972264865919 50.55818951200436
221.76463677601558 140.27554694796333 48.31218607955141
220.4408511072666 141.43818135367516 49.519136828915684
232.993343871142 140.88351056948153 47.66354140787769
236.374607470727 140.63316168181282 50.187090072038856
234.75388320779615 140.6526545715681 48.99873716291128
219.6900493488672 143.14330388838593 48.69275118892686
218.9651490066329 143.08262743141057 50.66457715731462
217.95107788820758 144.5607383811168 49.5877011439684
235.77358453102002 142.16401606895633 49.871104196362666
234.68269057908236 142.68558528313275 48.83915290969801
217.2402630700367 144.6172960117098 51.841551604464094
216.31378324353653 145.76474516934505 50.570993607313945
235.9210351121765 144.03708161184062 50.261923398612446
235.3189330042406 144.83430489719046 48.51656718935246
215.12154787076315 147.00255365756993 49.82807655093848
214.12684688366707 148.55357315088764 51.134630714672234
214.28441574469466 148.50114402793514 49.4144756506238
236.35717318970927 146.6328740334858 50.26261647744431
237.09158904886573 149.09463801970622 50.735068623263714
236.81153622345448 148.35927107978114 49.16586233929381
213.22450870141333 150.32224768145747 50.32033760112252
213.0010315152978 152.40015788207512 50.35903253469928
213.23904332518066 151.47069095896418 48.914638510461415
237.82695252442628 151.33697204125278 50.799717946913766
237.1519845531488 150.28505556490748 49.233185679180416
213.2160457724125 153.4218769123368 49.15510963884881
237.82778525711896 153.77668937123815 50.91848052045257
237.68298829141622 152.53356056168866 49.216118041372305
213.66992303336127 156.5543580707345 51.382435340815846
213.48975645147624 155.89809871500913 49.57396359881286
237.19701663500751 156.18336759521563 51.10576917878244
237.29864984318567 154.90171259515364 49.39724479668396
214.27889407113955 157.87549063213584 50.70513513391153
214.35474542912496 157.75925429878495 49.04850261838413
236.44209873586001 158.1345547704191 51.29853193150793
236.5851663355703 157.41290916595912 49.46121197353434
215.4557787155703 159.48160142818372 49.98936416791334
216.91709723037235 160.92377431503738 50.16240527951049
216.42875103379433 160.38246071756782 48.76171957819189
217.93394122120452 161.4390447211021 48.96197730787329
235.35984067296076 159.35789222406981 48.62603798109816
235.47350716626346 159.5001980389655 50.57602510294746
233.94456868375784 160.75906285006556 49.85202340682725
220.88711489494506 162.4114401034445 50.83249870249339
219.86248536410594 162.28646614647116 49.15238887110615
222.82906715813948 163.06122698246196 50.79203756700826
221.93397145659407 162.87426456443475 49.19896034524122
224.51741636953952 163.51494435324523 50.733755890952324
224.00606330774792 163.2980965671397 49.26457084920215
226.22131916667482 163.74647487936443 49.60242816896106
228.65425388863574 163.48255998518172 49.629934054940044
229.1228920164392 163.83156094093206 51.44335925866307
230.84558601429683 163.29738238642153 50.07014223006852
232.54717330224375 162.01225408633093 48.78350080068044
227.4412262500008 164.12323111126724 50.9414699168287
229.0140049575273 135.37306547628833 54.05890255818577
231.12008568783727 135.44505231379424 52.42630699055877
233.98342476152905 134.74702792624691 52.86903330165279
236.34676120756598 136.11116947520344 53.62254680913832
235.60412441930924 135.97703479334922 51.740565122626926
223.31944586438263 137.05419624303553 51.68098383317901
221.4317856528829 138.0421654065628 53.30490194065485
221.69225414951302 138.27228924285092 51.52700761681385
223.18618288388126 136.79569555809675 53.6353411967199
225.55006078995703 136.70241147080566 52.178500581013246
225.19504532890454 136.05815921013885 54.188984738394936
227.9716057647327 136.13990366903624 52.747278037174496
227.08461512288127 135.8077102489257 54.9825031291471
238.05809119301432 138.42896732720052 53.73352692061253
236.95038379813624 137.71568231609865 51.902855904524095
220.1511552443475 139.92403662519934 52.86590603768186
219.32343816797282 142.05597782103746 53.529358469754094
238.2574475209198 140.74593924171657 54.564148234087305
237.78584496194685 140.32992889511652 52.05073130508316
219.7550297602534 141.4534154159575 51.578727670334196
218.58095927252438 143.30741903637167 52.706950834436356
236.93308725653702 142.61299297569053 51.29425402946383
237.53457396042086 142.8729395279496 53.613892563526896
236.95052317277373 145.1910225339393 52.43971139180733
214.88413613803738 146.89186970975643 53.41888484374281
215.88768041953728 145.88217224443676 52.202836021665014
216.06727494315413 145.62883033710872 53.631894031615964
217.23762158017666 144.51555314280512 53.77562529192234
236.94458278994128 147.13600139697036 54.31921837549793
214.94182051343435 146.95282325710374 51.668928629973514
213.89901441192052 148.42442145780714 53.02672740013542
237.62539406093427 149.134412230258 54.097707280929306
237.04475226302318 147.8764334491839 52.39514648067069
213.18063115431826 150.28070223466278 52.54173911507011
212.96956607495116 152.29334619068794 54.10221614956762
238.03052383437128 151.37855930820223 54.13621467769812
237.7997270458701 150.15095928292354 52.42056595724359
213.00056514587467 152.3841832495842 52.07032034844445
213.11067639714935 154.6187219123999 53.71043340438593
238.1650182268889 153.84282653680486 54.261529994211315
238.0788363098768 152.5655315298997 52.50599259534135
213.09051185890314 154.5384397420714 51.30980125713977
213.72889463840485 156.5913947873051 54.3771078020391
213.55226270171073 156.415863444678 52.86748406103433
237.41675540070293 156.26571849079235 54.485829444547846
237.68278316867006 155.06213032371465 52.680743851593014
214.42295393048752 157.93370466668688 53.96013246418351
214.40477769546033 157.92924015574062 52.3800338955042
236.58474283929476 158.18599896617562 54.758653641679395
236.85009125841339 157.6673885561273 52.96702159100931
215.6017583284458 159.51329659951284 53.50449734095243
215.16082209625947 159.19001708589286 51.740137727167166
217.00421357335213 160.98648838402053 53.84847089441028
216.70776449729206 160.64841449322637 51.96167772687966
235.68687313306773 159.6558029441178 52.41008637043907
234.34573072624042 161.05372861569992 53.68568908314451
235.83724697801372 159.70041655413462 54.180311024974834
234.17472957603587 161.05536410226605 51.809368577952995
218.53334543523965 162.123414354398 53.29556830180742
218.55568860338002 162.07033173751154 50.95712643293053
220.70518514438436 162.91695969735295 53.75190565474856
220.0315893569828 162.72001759380322 52.233849876271385
222.84111997054015 163.32389116123122 53.88351549720716
221.82646110574598 163.0295238228373 52.31139232564364
223.79726315460516 163.59655571917918 52.21722354836577
229.30938571806644 164.25216598504147 53.23185437928069
230.9295529107982 163.8768055552985 53.80590517619574
231.07618074642795 163.69775934200558 52.09559259529544
232.69861927542235 162.69108657342875 53.25502404469702
232.7554099069085 162.50300217685358 50.9465381883751
225.7099884912425 164.18642226370542 51.63801326907633
227.40521090671632 164.3923898407593 52.58739895407622
230.43318562664933 134.29096521036846 54.782816686194884
228.82873524562422 134.5422443887845 56.95281245104044
228.47513635960576 135.14364297766355 55.49657237712351
231.16576545300055 133.4964171116432 57.01143018685094
233.23356203448623 134.2286168769134 55.02028462942846
234.0171948730475 134.00009786300052 57.37082407455875
236.70937158023898 135.39762220801106 57.88554330833958
235.8130258187434 134.884465137612 55.54269140166632
222.8003595024091 136.42726995538945 55.48901088972807
220.83952493845686 137.37253569160555 56.85476720370382
221.27950097509026 137.8314301889025 55.16202569681633
222.2675669267055 136.14132264156748 57.09856126796287
224.57452214583913 135.59657000104653 56.41670437416436
226.85486594216485 135.1653812398713 56.77352371687855
237.630214499236 137.376695947557 55.790674590861244
238.22014231523468 137.98535788743752 58.13950017672919
220.15212660009118 139.61756430746496 55.00851211786458
220.0663405764236 139.3523598777987 56.81347074788371
219.41950564482752 141.24857216836335 56.75082908538693
238.5692926731391 140.16911187229593 56.76792106030595
219.31848503403197 141.5867763062881 55.05076585447321
218.81736176843637 142.85362051706784 56.67417847082204
218.02106992461495 143.74564824780708 55.305504975406116
238.04161997743688 143.0363761656463 56.28625701542102
237.20726279090908 145.09587463551688 55.06208436183641
216.18636100102262 145.427645108875 55.37389138348173
214.94586667522367 146.96971776611701 56.920530475487105
216.2298939794883 145.44973231515192 57.36092400870292
237.35982386832328 145.2940850264171 57.34446286526927
236.79046784108604 147.0522730353521 56.391104344451655
214.98893145963368 146.83450717104492 55.107474406975385
214.16852081233642 148.20182077729058 56.32627547354458
213.96028451291653 148.32531104476942 54.83754627191904
237.24737121008937 149.09224121522158 57.446136384806906
237.18470018643762 148.52115123870155 55.58122090340881
213.23356002804124 150.2158220240609 54.558579254910875
213.33997988275058 149.9386374499813 56.45586304534437
237.6464230818972 151.44068143944082 57.486373611596896
237.71318674731322 150.2990062507458 55.7578035706685
213.05120828329734 152.3828921992441 56.270380386502254
213.29596632806903 154.73143579549554 56.932795045306115
237.90819450303172 153.79534649422897 57.62432498791065
237.9953853009325 152.59958351607048 55.8660640461438
213.04288073054153 154.01724301684496 55.37483010141169
213.75273552546105 156.42238574768396 57.41432880905539
213.635749903453 156.00821402723167 55.771266193512325
237.16030116457506 156.08477564866556 57.85481076047205
237.70003877040955 155.04650299616634 56.04791631704482
214.37977896305912 157.7839668241625 57.033111679073265
214.40470555581385 157.85514298716348 55.4997167185705
236.40879254375753 157.9599086206539 58.16357725219919
236.73065345705066 157.54059584378084 56.3667714951873
215.6278309146485 159.37586096800433 56.72902811129027
215.293989408737 159.07361765043692 55.040124111515276
217.05693839564177 160.76183706949504 57.12775802642219
216.69056936508534 160.47884529060454 55.41414304052744
235.75252638393803 159.57395478766762 55.89650232038349
234.5603755227054 161.02296336495888 57.11641429975232
235.59312182688132 159.39911613267665 57.58583127025793
234.50586172152498 161.07638892131902 55.42607782605958
218.43315477514554 161.8311174771269 56.585405484321186
218.02601552241407 161.60752953570886 54.89345395589451
220.58590636152414 162.7083959261068 56.86928309975061
219.6144702643841 162.4627221521547 55.16920563224885
222.69088736596976 163.1267741543437 57.060181461229774
221.69651417612684 162.9987778967844 55.416086934548005
224.3645401863322 163.75880332423867 57.11071649851003
223.78160432728035 163.61851989893216 55.602886740779404
229.64589162472544 164.33715106002148 56.69509954525451
231.18469522347743 163.68118713873798 57.25212003678168
229.57644069246078 164.45268083454357 54.96630017075473
231.62758355106175 163.66382287929684 55.4061032168193
233.05189110944977 162.61618849434998 56.75989866580798
233.33991963033813 162.3172542389114 54.917641147779314
225.95135966602996 164.41182053578757 56.13549064767327
225.30633239395073 163.91477155929826 53.82379446834731
228.05717457575074 164.75922247784789 56.05620426430915
227.5755397722146 164.5656933015491 54.47646311303849
231.93061214587917 133.52404431776918 59.457642047389676
229.01751185031372 135.04919924709623 61.73670100280265
229.23009323538543 134.25852915967806 59.26180638875176
231.36307984794993 134.0442712927579 61.855552289673525
234.9097556139442 133.86983007117234 59.764517107054786
236.49133821170193 135.27862881409962 61.32661380081638
236.67583575646194 135.0216261174718 59.61438254484281
222.83805245490657 135.67632506753944 58.41651544953462
221.81627993338432 136.8171765760582 60.157232385399084
220.9602513353948 136.96105220114342 58.618464557442366
223.24517393221 135.17475356456086 59.98580836856574
224.96753213062794 135.1386380206583 58.400002970957
225.1234731220719 135.3848622585161 60.35016435501501
227.04168197316702 134.98889220937465 58.7063905676951
227.14105074639053 135.34598100827847 60.7388662224716
237.79679862480225 136.4368234215235 59.75393069280031
237.79157386279692 137.3676970183109 61.69094809527836
238.49087260049157 138.72699820217306 60.20547577565391
219.67160246602816 138.8727076918661 58.577384579190905
219.87599677996988 138.31238123843985 60.45693830894614
219.77333251617372 140.77659071538818 60.356968837588134
238.66107677069974 140.11836548555377 58.904106740003854
238.48993311970884 141.0174126614732 60.776504703572975
238.16998317291112 142.45061322849008 58.875254873793594
219.23947924027772 140.96888047607237 58.50874728525784
218.78475027177123 142.68234505283718 60.201381981616734
218.74736858257182 142.8204816166395 58.330225588764485
237.10942441925417 144.94978491216827 59.6773458909439
214.85702107635015 147.26113639726324 59.02463323931088
217.68399603686348 144.21404176403524 57.863413920498736
217.6446777634642 144.24834219881404 59.90601606517874
216.2346348697383 145.6801176612139 59.5652889572024
236.4106752553716 145.2856586143965 62.08523121540552
236.62890833742222 147.3305282866447 58.7593704427541
213.82791881847882 149.3179688267729 60.46028395280599
235.66110343331135 146.77590898611885 60.99125304696732
236.96220080305324 148.96600402495835 59.07895825304962
213.1821880042185 151.8143661486727 58.376406756347315
213.7286190586008 149.10193568681404 58.21764493284376
213.48320581645612 150.927291240401 59.798517195133726
236.00885990932522 149.33448546768892 60.787173562534115
236.84327048247533 151.7160008263091 60.762445899745266
237.3554403691793 150.42873378088834 59.19304300616227
213.26364132484747 152.62264071031015 60.22631228354848
213.2658569621538 154.06437297439905 59.568106459945916
237.47022122302516 153.78576310068055 60.94300289597182
237.71061786296258 152.6314018344012 59.23750062879547
213.04699047219063 153.76990645768137 57.99077784492633
213.7501286332238 155.76874457715 60.401286270066585
213.64129637651374 155.72181910691424 58.73184920162908
237.003660993126 155.62242376731774 60.91034293313624
237.48242993087138 154.89488214429582 59.370926440243245
214.29429497284218 157.4639435689933 60.22469775098351
214.3113661288983 157.6693680377952 58.57291826727525
236.5894434731113 157.1994776618805 59.8372008243064
215.52749578613293 159.04434510453282 59.7853244214518
215.2421434091812 158.92604775445562 58.17625255203759
216.72693872662714 160.34629276731044 58.704761151200174
235.22509838354327 158.8976678521144 61.30790877416577
235.54060398275897 159.2782448451452 59.372090271215434
234.16669787077498 160.68561557320754 60.6369437639548
234.36895562297317 160.77459757290652 58.77900764178574
218.56471355743764 161.76675885166745 59.68105745442288
218.0469578591869 161.4649125390954 58.102608364531086
220.70115051459405 162.55965198729757 60.00887636445207
219.64436850568188 162.27349816685455 58.313339908970065
222.58761120383994 163.10954896868503 60.00519756788926
221.65134627064472 162.9981820808561 58.515672285160115
223.9222022804386 163.49938423862451 58.704333503074224
229.81189845869994 163.87114442296047 60.28974413062749
231.64305536410828 163.27514170178318 60.74598758127702
229.74378425460463 164.28683207316487 58.45259122807832
231.80389268543058 163.319413037229 58.827879424291254
233.1581222445536 162.21834224193958 59.872788701820014
233.49678844932077 162.12059111149554 58.278626108208265
226.10658771057552 164.15162904769838 59.413930920680656
225.48080668751663 164.35976879598113 57.89331706371575
228.1055462054551 164.49123656553434 59.5845195210725
227.5647152970574 164.57953977953792 57.79603219821913
230.17563617225164 135.4941844879883 63.32834117136817
234.05230774573835 134.30604484659858 62.28244758895025
232.0875707921215 135.18225012451617 63.94181669060778
234.2028731801803 135.70157727823457 64.18268412932227
235.91881793473803 136.68061244143442 64.27738209424302
235.56219809797932 135.5730182227121 62.987393191484315
222.93547402881677 136.496089926264 61.79369107998076
221.3364828467218 138.31147255029663 63.636886756744374
223.58740056333096 137.06221542463385 64.00137385150637
225.30913986098483 136.29023526573658 62.15208581742508
225.91509564894355 137.0435002241835 63.90375402456684
227.08411764826516 135.89342349234636 62.560214566039704
228.2733225488883 136.66150828190155 64.08346735330052
230.61234912336562 137.08711433301866 64.82496417258749
236.86656517193936 136.45130990656193 62.88230698898496
237.37124159970907 138.25825856749302 63.795735050268
238.38298726194955 139.51103994290887 62.221309906888145
221.00510270467493 137.91321024568515 61.73853979983654
220.05102196383726 140.1655316752745 62.4449632979159
233.47198245856967 141.92793708264935 64.67034901718465
237.83006856101156 140.3151588790803 63.919321103793486
238.06219707843886 141.40211081798503 62.715693315912155
220.23092001504364 142.02320136445024 63.401167037894034
219.4852600439305 142.76629472059076 62.276892487456095
230.69471446399166 142.08599229970238 65.0485672732302
232.4437601698048 143.54549025163217 64.11700364551807
234.76794202987702 143.87972436542185 63.30088796193697
237.5336011929663 143.28960059658405 61.87077630981833
217.88555461283644 144.21309597510572 61.84446642269609
218.32764149051852 144.62344484957143 63.7910898333036
217.14171201731662 145.54202076677467 63.15117217596645
216.51225259260778 145.65609963134966 61.65053550180817
233.12643603041454 145.31590042137108 64.38929954102102
233.3933774377341 147.06498570493136 64.00258130880313
234.69447780350774 146.0905517726278 62.93840292365024
214.89069516748071 147.55749581141518 61.564208181299506
216.09456114668276 147.22544854006594 63.749531477393255
214.90901316544438 149.2837941308708 63.70890225262647
234.4333339491304 148.06517655691985 62.61932796630153
214.00942856041112 149.81114253652692 62.311909499021034
214.2036031878824 151.43759871321058 63.78503132446301
234.67997831011024 150.19481044714527 63.17356635524002
235.87979084105564 151.29740895383273 62.19456701004357
213.56306722743798 151.7737077836482 61.71437893701327
214.03796411066057 153.74663939653126 63.603987779791495
234.7688730810089 152.56326581353366 63.554188801211026
235.86845833628533 154.13447561099474 63.645475555375114
236.47636948824282 153.00071828991645 62.37331933068429
213.61973534970866 154.48198567519935 61.5952582037833
214.58879829199924 156.0480347734089 63.58069585385516
236.83499776327068 155.02145998556324 62.52377603352098
214.57015114039018 156.76653820175244 61.80335071774395
215.73573860921442 158.63212822564 61.70286111472968
215.53582766714905 157.87414750229797 63.38793625149035
236.2173259257026 157.03367679548225 62.05765005280862
217.3166892729754 160.61217832801992 61.227784022809914
218.87979882858542 161.22447518441052 62.98822911024613
234.61305165227625 158.3440966473039 63.29597694272076
233.83507737346702 160.4487903203406 62.748538003278554
220.69959588839848 161.81933099232853 63.12046025771701
219.6791441997844 161.95026975474386 61.52059352960411
222.26790412098663 162.58041503834536 61.86543675610471
225.18556692732128 162.62475434392869 63.06557904359281
224.52221086577214 163.46766152660726 60.800749748395354
227.74106066448232 162.76542718696388 63.21312825633621
227.34663737955088 163.56840091330858 61.296823751963714
230.05320959966798 163.08577336297134 62.404702319507365
232.5176822672586 162.03217928189204 61.79172829125874
234.59867511799368 136.97216004843122 65.38253571691934
224.66266815315115 137.92247484576527 65.81013022123922
226.69936464317547 138.07299540356328 65.26186778168056
226.0188104736343 139.65519469269003 66.30641251086789
232.767621667278 136.90303283751635 65.42304384829248
233.91722220375286 138.396143111453 66.06124378014523
234.6864768698093 140.15164846453226 65.38810735943893
235.84341407875195 138.32277627783787 65.51589344798278
222.63685828808678 139.18374360827573 65.39893218746523
222.7515935355583 141.6110542570297 66.28860912490862
227.0555772643584 141.21295187105616 66.32317137898808
228.7708449809271 139.44667493864867 65.67115772161797
232.09049680959004 139.45232043199678 65.25997450107837
236.55798477765927 139.88615680011853 64.82114121040892
220.11519060132252 143.65438432256815 64.50724120080989
221.06936294184666 141.17468170814135 64.58113695360676
221.75086294757415 143.28155392161176 65.57810597669696
227.05803202887117 143.13960317175463 66.24150152925296
228.42162884968107 141.93555014810633 65.62246218241786
229.0595922621101 143.69101618212045 65.92670416069608
231.05102585285496 144.5393590594657 65.20828784691845
236.26273344329528 141.82402063356395 64.11250158653608
217.46416512931802 146.27829931612374 64.54628493346758
221.1699868780777 145.28745072680275 66.2980330929897
219.1413163298507 146.23986042694796 65.51730348555913
229.39973068849326 145.7028487261156 66.2113472432768
216.28129227262144 149.26319587994004 64.74646797875928
217.8598848518243 148.3536306626714 65.11198795371972
219.44836163669132 148.37621353840544 66.1591020608015
225.21088849970093 147.28301565730672 67.5542533436344
229.51155535005154 147.7806065040448 66.63010323229899
231.48192360158436 146.89159269784648 65.23521275293172
231.05943005985606 148.8293236119289 65.84805434578843
232.92037375398178 148.9413187078199 64.5644360187141
215.74377700130083 151.0236505351883 64.89319111821
218.9647556627605 150.09236204596525 66.29000036010105
217.2514905708618 150.46907297801536 65.75802682651616
230.17922836982353 149.7182509054078 67.60968041888027
231.953734582835 150.32160267422677 66.26249333474496
217.06014566016955 152.44011513244558 65.6712083472642
218.7461910705552 153.48229875780638 66.21544289035228
232.38128672864255 152.2125971878885 66.70196561100458
233.47781072616354 151.23792769001759 65.00449813831412
233.48541173933782 153.4022923629449 65.36770650416351
234.6115175767104 154.35962382389042 64.43931325133263
215.36644144667417 153.1015680693029 65.01788685469228
215.51623228368229 154.96555700206525 64.62973167023067
217.1385639568813 154.45873061926684 65.3463451060799
221.39329416010517 156.25470451245536 66.28696029031946
233.52530922417043 155.67583316642904 65.67034011809116
235.14854722792433 156.06690610011464 63.86821030281319
217.08138053527307 156.6941272977314 64.51941791072306
219.97127706161982 158.0565831911617 65.09329973629852
222.4974384455507 158.09697316399175 65.86927617895581
225.23853002485575 157.0696052802622 66.81979046946422
224.2800301741552 157.90093795329503 65.98868589739548
225.891875219081 158.49884151980993 66.33673781887191
232.88065621902436 157.2318019237927 66.10122907901894
233.3959510963565 157.5141188739412 64.78671657460201
217.60721143326148 159.35392978074867 63.62886883568275
220.24682466606112 160.37506347820985 64.19348755264
221.92327622704482 159.5034590699817 64.89339905510312
224.03465597738386 159.70333290851883 65.60577957695001
226.34812016763146 160.37269444539777 65.79590411742585
231.7189665572099 158.39783424368738 65.83710251138503
232.9982530448823 159.5619141671903 64.56678263431692
231.44370034068683 160.21978847266945 65.42222519683115
222.72815788045455 161.30108872035007 64.06751307294503
224.96146533165708 161.4813513162778 64.92640332482026
226.955841687475 161.93758535485279 64.67953630514293
229.2184331165825 162.27172467721306 64.47913486394756
231.6020499183908 161.4775469440848 63.96523522269326
224.14313923422628 140.0110123715967 66.35931454706117
223.19032720203586 144.21658549786497 67.09426772877677
225.68209337189552 144.823619462616 67.12223518651956
227.79923619236888 144.70961397569073 66.9107918689249
220.72622456632243 147.4841141352856 66.79801093975013
222.7985027027039 147.0461865091564 67.44841068032805
227.4706404230451 146.55368757737526 67.03063631818407
220.8291739694271 149.5827487030717 66.79186623078222
222.82016120807674 149.64436821287657 67.52957186170336
224.97834974343064 149.4384723439101 68.16910637747054
227.4784191382056 148.98739912208103 67.8316396161136
218.45019247309392 151.73743576415436 66.20781441262073
220.3673003659127 151.95835031824927 66.86296699882296
222.50561037613062 152.1102501888509 67.59264548502048
224.22305184796588 151.18243062489745 68.05327636389768
226.36299596318761 151.45353379585777 68.50362776823486
228.63354571422744 150.84110888335016 68.97545211459641
230.4227521181389 151.1795649377681 68.84305462039201
231.37611391153928 151.18982490869897 67.6862600823005
220.57366270002612 154.26795774057643 66.78052103612144
222.70095937863337 154.51376391008554 67.29509420900713
224.62412966920525 153.15338986016772 67.92937262891164
226.94869753191455 154.06486667300405 68.63863394880781
231.24133328121556 152.87261133905355 68.57187273802637
232.30844654000447 154.3381592348828 67.11186329628376
223.45828050466028 156.72726989695008 66.94796942895005
225.04519040760314 155.44093273289093 67.59768208105332
228.93551936960256 155.23164493364774 69.16278737604563
231.14550135689106 155.15177582271022 68.9642315407075
231.833013489386 156.68105081981412 67.28965820695173
227.4519781995302 156.82438328161516 67.61771206082598
227.98194241985868 159.05128681011 66.38740100347628
229.89616893604003 156.82930225584028 68.59369075951935
229.8385902360242 158.09815452554275 67.16859247736488
228.43355609185025 160.8657395776427 65.64752792494397
229.94743784462352 159.67829605099277 66.0494329856364
221.46794825365893 153.26886223730403 67.35704284578995
221.62014530595965 150.8477730784824 67.19773505589238
230.1730531815859 161.04586658176007 65.27246548175981
223.9403574693206 148.35078765076665 67.72383865886347
227.8276256319416 152.4182046033426 69.58064475071168
221.7272408443617 148.45718266517855 67.29519857086386
229.62126368976138 152.31860969939973 69.88935831976389
224.19586355520102 145.8246196457977 67.45755005518602
225.08282689720662 142.0617300347829 66.90747645389298
228.52395576998066 153.73677161220883 69.93559709999212
230.23162256033174 133.98651781462507 60.55794210732934
237.8473614723893 144.02405266968506 58.03322500784089
232.15198646631714 134.37579724095332 53.6462807737084
230.0409666334812 153.93090233640388 69.67232877188118
219.25603059260473 155.4965477500029 65.45272248038228
234.0749571973994 137.1614102951951 49.46779824424751
233.05625893325768 133.4552237631872 60.87601482294711
238.29391225745823 139.1914017269487 55.192643815161574
227.0410546588284 154.5770176811563 37.092379477418035
224.3028316572313 155.32581609166922 38.01575353157515
234.91643533995816 134.8524879607729 54.22065974883602
231.7152140588937 139.20099946854765 47.813439517837026
226.7376175580648 151.48937990162275 37.707188964551634
224.62142441460597 151.59050352520188 37.68503324858843
222.5322152635635 151.67232715476567 37.9284547067069
227.32557866427422 149.84707895925703 38.281001843072744
POLYGONS 1362 5448
3 682 1 0
3 2 1 682
3 681 4 3
3 6 7 2
3 8 7 6
3 9 681 3
3 13 14 8
3 15 10 9
3 676 10 15
3 18 19 14
3 18 14 13
3 20 16 676
3 21 17 16
3 21 16 20
3 22 18 17
3 22 17 21
3 19 18 22
3 24 25 23
3 26 27 25
3 26 25 24
3 33 31 32
3 28 26 35
3 1 28 35
3 1 35 0
3 30 28 1
3 37 30 1
3 1 2 37
3 37 36 30
3 38 36 37
3 39 36 38
3 40 93 98
3 34 33 41
3 4 34 41
3 4 41 3
3 35 34 4
3 5 35 4
3 5 0 35
3 38 37 7
3 2 7 37
3 42 43 39
3 42 39 38
3 38 7 42
3 7 8 42
3 44 40 98
3 44 98 102
3 45 3 41
3 3 45 50
3 3 50 9
3 8 46 42
3 8 14 46
3 42 46 47
3 42 47 43
3 48 45 44
3 48 44 102
3 49 45 48
3 50 45 49
3 50 49 51
3 15 9 50
3 15 50 51
3 15 51 58
3 15 58 676
3 14 52 46
3 14 19 52
3 54 53 47
3 46 52 54
3 46 54 47
3 55 49 48
3 56 51 49
3 56 49 55
3 57 58 51
3 57 51 56
3 58 57 59
3 20 676 58
3 20 58 59
3 20 59 66
3 20 66 21
3 21 66 60
3 21 60 22
3 22 60 61
3 19 61 52
3 62 63 52
3 62 52 61
3 53 54 63
3 52 63 54
3 64 59 57
3 65 66 59
3 65 59 64
3 66 65 67
3 67 68 60
3 67 60 66
3 62 61 69
3 124 67 65
3 74 72 73
3 75 76 71
3 77 76 75
3 78 76 77
3 80 81 79
3 82 83 81
3 82 81 80
3 25 80 23
3 80 25 82
3 27 74 82
3 25 27 82
3 75 74 27
3 29 75 27
3 77 75 29
3 85 77 29
3 29 30 85
3 85 84 78
3 85 78 77
3 86 84 85
3 87 84 86
3 88 87 86
3 89 87 88
3 91 143 90
3 31 91 32
3 31 23 80
3 86 85 36
3 30 36 85
3 88 86 39
3 86 36 39
3 92 89 88
3 88 39 92
3 93 91 90
3 93 90 94
3 93 32 91
3 96 95 92
3 96 97 95
3 99 98 94
3 98 99 102
3 96 100 101
3 96 101 97
3 103 102 99
3 102 103 106
3 102 106 48
3 47 53 100
3 100 104 101
3 105 106 103
3 48 106 55
3 106 105 107
3 106 107 55
3 55 107 56
3 56 107 108
3 56 108 57
3 63 62 119
3 111 109 53
3 110 109 111
3 112 107 105
3 113 108 107
3 113 107 112
3 114 115 113
3 57 115 64
3 115 114 116
3 115 116 64
3 64 116 65
3 68 67 117
3 68 117 118
3 68 118 69
3 121 120 119
3 62 69 118
3 62 118 119
3 119 118 121
3 110 111 120
3 119 120 111
3 122 116 114
3 123 124 122
3 125 117 123
3 124 123 117
3 124 117 67
3 126 118 125
3 117 125 118
3 118 126 121
3 129 185 197
3 129 197 128
3 127 185 129
3 131 127 129
3 131 130 127
3 132 130 131
3 133 130 132
3 72 134 73
3 72 70 129
3 132 131 76
3 71 76 131
3 135 136 133
3 135 133 132
3 132 76 135
3 76 78 135
3 137 204 138
3 81 139 79
3 83 134 137
3 81 83 137
3 83 73 134
3 78 84 135
3 140 141 136
3 135 84 140
3 135 140 136
3 84 87 140
3 140 142 141
3 140 87 89
3 140 89 142
3 143 144 145
3 143 149 90
3 138 144 139
3 147 146 142
3 89 147 142
3 89 92 147
3 147 148 146
3 150 149 145
3 90 149 150
3 90 150 94
3 92 95 147
3 152 151 148
3 147 95 152
3 147 152 148
3 95 97 152
3 94 150 156
3 94 156 99
3 150 153 156
3 155 154 151
3 155 151 152
3 97 155 152
3 97 101 155
3 157 156 153
3 99 156 160
3 99 160 103
3 156 157 160
3 104 109 163
3 159 158 154
3 159 154 155
3 101 159 155
3 161 160 157
3 160 161 162
3 160 162 103
3 103 162 105
3 165 164 163
3 163 109 110
3 163 110 165
3 158 159 164
3 163 164 159
3 166 167 161
3 105 167 112
3 168 169 166
3 167 166 169
3 112 167 169
3 112 169 113
3 169 168 170
3 169 170 113
3 113 170 114
3 120 121 171
3 110 120 171
3 110 171 165
3 165 171 172
3 173 170 168
3 174 175 173
3 114 175 122
3 176 177 174
3 175 174 177
3 122 175 177
3 122 177 123
3 178 179 176
3 177 176 179
3 123 177 179
3 123 179 125
3 180 181 178
3 179 178 181
3 125 179 181
3 125 181 126
3 250 171 180
3 181 180 171
3 181 171 121
3 121 126 181
3 171 250 172
3 672 183 182
3 184 183 672
3 185 187 186
3 189 188 187
3 189 187 185
3 185 127 189
3 190 191 188
3 190 188 189
3 193 192 191
3 193 191 190
3 195 196 184
3 198 197 186
3 197 198 128
3 190 189 130
3 127 130 189
3 193 190 133
3 190 130 133
3 195 194 201
3 194 199 201
3 196 195 200
3 206 205 201
3 199 141 206
3 199 206 201
3 209 205 206
3 204 207 208
3 204 208 138
3 203 207 204
3 210 209 206
3 141 210 206
3 214 209 210
3 141 142 210
3 211 281 212
3 144 213 145
3 138 211 144
3 146 214 210
3 142 146 210
3 215 214 216
3 146 216 214
3 146 148 216
3 219 217 218
3 212 217 213
3 217 219 145
3 217 145 213
3 145 219 150
3 221 220 215
3 221 215 216
3 148 221 216
3 148 151 221
3 222 219 218
3 222 218 293
3 222 150 219
3 150 222 153
3 224 223 220
3 224 220 221
3 151 224 221
3 151 154 224
3 225 226 293
3 153 226 157
3 228 227 223
3 228 223 224
3 154 228 224
3 154 158 228
3 229 230 226
3 229 226 225
3 157 226 230
3 157 230 161
3 164 165 237
3 232 231 227
3 232 227 228
3 158 232 228
3 233 230 229
3 161 230 233
3 234 235 233
3 161 233 235
3 161 235 166
3 235 234 236
3 235 236 166
3 166 236 168
3 239 238 237
3 237 165 172
3 237 172 239
3 231 232 238
3 237 238 232
3 311 236 234
3 240 241 311
3 168 241 173
3 242 243 240
3 241 240 243
3 173 241 243
3 173 243 174
3 244 245 242
3 243 242 245
3 174 243 245
3 174 245 176
3 245 244 246
3 245 246 176
3 176 246 178
3 178 246 247
3 249 248 319
3 178 247 180
3 249 180 247
3 249 247 248
3 321 250 249
3 321 249 319
3 180 249 250
3 250 321 239
3 250 239 172
3 322 246 244
3 251 247 246
3 251 246 322
3 248 247 251
3 253 324 252
3 183 253 182
3 253 183 254
3 256 255 254
3 257 260 258
3 187 259 186
3 261 262 260
3 261 260 257
3 187 188 257
3 257 188 261
3 263 264 262
3 263 262 261
3 188 191 261
3 261 191 263
3 192 253 263
3 191 192 263
3 192 182 253
3 266 265 255
3 266 255 256
3 184 266 256
3 184 196 266
3 271 267 268
3 258 267 259
3 267 271 186
3 267 186 259
3 186 271 198
3 200 205 273
3 270 269 265
3 270 265 266
3 196 270 266
3 271 268 272
3 198 271 203
3 275 274 273
3 273 205 209
3 273 209 275
3 269 270 274
3 273 274 270
3 277 278 276
3 207 279 278
3 207 278 277
3 207 277 208
3 275 209 214
3 281 277 276
3 281 276 282
3 281 282 212
3 281 208 277
3 284 283 280
3 284 280 275
3 214 284 275
3 214 215 284
3 285 359 286
3 217 289 218
3 212 285 217
3 288 287 283
3 288 283 284
3 215 288 284
3 215 220 288
3 290 289 286
3 218 289 293
3 289 290 293
3 292 291 287
3 292 287 288
3 220 292 288
3 220 223 292
3 294 295 290
3 293 290 295
3 293 295 225
3 297 296 291
3 297 291 292
3 223 297 292
3 223 227 297
3 298 299 295
3 298 295 294
3 225 295 299
3 225 299 229
3 301 300 296
3 301 296 297
3 227 301 297
3 227 231 301
3 302 303 299
3 302 299 298
3 229 299 303
3 229 303 233
3 304 305 302
3 303 302 305
3 233 303 305
3 233 305 234
3 306 307 308
3 238 239 309
3 306 238 309
3 306 309 307
3 300 301 308
3 306 308 301
3 306 301 231
3 231 238 306
3 310 311 305
3 310 305 304
3 234 305 311
3 312 313 310
3 311 310 313
3 311 313 240
3 314 315 312
3 313 312 315
3 240 313 315
3 240 315 242
3 399 316 314
3 315 314 316
3 242 315 316
3 242 316 244
3 319 317 318
3 319 248 317
3 320 321 319
3 320 319 318
3 307 309 320
3 321 320 309
3 321 309 239
3 399 322 316
3 244 316 322
3 322 399 323
3 322 323 251
3 317 248 323
3 248 251 323
3 324 327 325
3 324 326 252
3 328 329 327
3 328 327 324
3 331 330 329
3 331 329 328
3 332 335 333
3 260 334 258
3 336 335 332
3 260 262 332
3 332 262 336
3 264 337 336
3 262 264 336
3 325 337 326
3 338 339 330
3 338 330 331
3 255 338 331
3 255 265 338
3 340 341 342
3 267 344 268
3 333 341 334
3 258 340 267
3 338 343 339
3 345 344 342
3 268 344 346
3 268 346 272
3 344 345 346
3 274 275 348
3 347 274 348
3 347 348 352
3 269 274 347
3 349 351 350
3 278 354 276
3 346 431 351
3 346 351 349
3 278 279 349
3 349 279 346
3 345 431 346
3 272 346 279
3 348 353 352
3 348 275 280
3 348 280 353
3 355 354 350
3 276 354 356
3 276 356 282
3 354 355 356
3 358 357 353
3 280 358 353
3 280 283 358
3 359 360 363
3 359 363 286
3 355 360 356
3 362 361 357
3 362 357 358
3 283 362 358
3 283 287 362
3 286 363 367
3 286 367 290
3 363 364 367
3 366 365 361
3 366 361 362
3 287 366 362
3 287 291 366
3 368 369 364
3 367 364 369
3 290 367 369
3 290 369 294
3 371 370 365
3 371 365 366
3 291 371 366
3 291 296 371
3 372 373 369
3 372 369 368
3 294 369 373
3 294 373 298
3 375 374 370
3 375 370 371
3 296 375 371
3 296 300 375
3 376 377 373
3 376 373 372
3 298 373 377
3 298 377 302
3 378 379 376
3 377 376 379
3 302 377 379
3 302 379 304
3 380 381 382
3 308 307 383
3 380 308 383
3 380 383 381
3 374 375 382
3 380 382 375
3 380 375 300
3 300 308 380
3 384 385 379
3 384 379 378
3 304 379 385
3 304 385 310
3 386 387 384
3 385 384 387
3 310 385 387
3 310 387 312
3 388 389 386
3 387 386 389
3 312 387 389
3 312 389 314
3 390 391 388
3 389 388 391
3 314 389 391
3 314 391 399
3 395 392 393
3 318 317 394
3 395 318 394
3 395 394 392
3 396 397 395
3 396 395 393
3 318 395 320
3 395 397 320
3 381 383 396
3 397 396 383
3 397 383 307
3 307 320 397
3 398 399 391
3 398 391 390
3 400 401 398
3 399 398 401
3 399 401 323
3 392 394 400
3 401 400 394
3 401 394 317
3 317 323 401
3 327 404 325
3 327 329 402
3 402 329 406
3 329 330 406
3 406 330 408
3 409 412 410
3 335 411 333
3 413 414 412
3 413 412 409
3 335 336 409
3 409 336 413
3 415 416 414
3 415 414 413
3 336 337 413
3 413 337 415
3 403 416 404
3 325 415 337
3 417 418 407
3 417 407 408
3 330 417 408
3 330 339 417
3 417 419 418
3 417 339 419
3 420 421 422
3 341 426 342
3 410 421 411
3 333 420 341
3 343 347 425
3 423 343 425
3 423 425 424
3 423 424 419
3 423 419 339
3 339 343 423
3 427 426 422
3 342 426 428
3 342 428 345
3 426 427 428
3 429 434 508
3 424 425 508
3 429 508 425
3 351 430 350
3 431 432 433
3 427 432 428
3 437 434 429
3 352 353 435
3 516 436 430
3 350 430 440
3 350 440 355
3 430 436 440
3 430 433 516
3 435 442 437
3 435 438 442
3 360 439 363
3 441 440 436
3 360 355 440
3 360 440 439
3 440 441 439
3 443 442 444
3 438 357 444
3 438 444 442
3 357 361 444
3 445 446 439
3 363 439 449
3 363 449 364
3 439 446 449
3 439 441 445
3 448 447 443
3 448 443 444
3 361 448 444
3 361 365 448
3 450 451 446
3 449 446 451
3 364 449 451
3 364 451 368
3 453 452 447
3 453 447 448
3 365 453 448
3 365 370 453
3 454 455 451
3 454 451 450
3 368 451 455
3 368 455 372
3 452 453 456
3 456 453 370
3 370 374 456
3 457 458 455
3 457 455 454
3 372 455 458
3 372 458 376
3 458 457 459
3 376 458 459
3 376 459 378
3 382 381 463
3 461 382 463
3 461 463 462
3 461 456 374
3 374 382 461
3 464 465 459
3 378 459 465
3 378 465 384
3 466 467 464
3 465 464 467
3 384 465 467
3 384 467 386
3 468 469 466
3 467 466 469
3 386 467 469
3 386 469 388
3 469 468 470
3 388 469 470
3 388 470 390
3 474 471 472
3 393 392 473
3 474 393 473
3 474 473 471
3 475 476 474
3 475 474 472
3 393 474 396
3 474 476 396
3 462 463 475
3 476 475 463
3 476 463 381
3 381 396 476
3 477 478 470
3 390 470 478
3 390 478 398
3 479 480 477
3 478 477 480
3 398 478 480
3 398 480 400
3 471 473 479
3 480 479 473
3 480 473 392
3 392 400 480
3 405 481 403
3 482 484 483
3 486 485 484
3 486 484 482
3 482 407 486
3 487 489 488
3 490 491 489
3 490 489 487
3 412 414 487
3 487 414 490
3 492 493 491
3 492 491 490
3 414 416 490
3 490 416 492
3 493 492 403
3 493 403 481
3 494 493 481
3 403 492 416
3 481 483 494
3 495 496 485
3 495 485 486
3 407 495 486
3 407 418 495
3 496 495 418
3 496 418 497
3 418 419 497
3 421 499 422
3 499 498 488
3 421 410 498
3 421 498 499
3 501 496 497
3 497 424 502
3 497 502 501
3 419 424 497
3 503 504 499
3 422 499 504
3 422 504 427
3 500 506 505
3 500 507 506
3 570 507 500
3 570 508 507
3 507 508 434
3 501 502 570
3 508 570 502
3 508 502 424
3 509 510 511
3 432 512 433
3 427 509 432
3 513 506 507
3 514 513 515
3 507 434 515
3 507 515 513
3 515 434 437
3 516 517 518
3 516 520 436
3 511 517 512
3 519 514 515
3 437 519 515
3 519 437 442
3 521 520 518
3 436 520 524
3 436 524 441
3 520 521 524
3 522 519 442
3 522 442 523
3 442 443 523
3 445 529 446
3 525 524 521
3 445 441 524
3 445 524 529
3 524 525 529
3 526 522 523
3 527 526 528
3 523 443 528
3 523 528 526
3 443 447 528
3 530 529 525
3 446 529 450
3 450 529 532
3 529 530 532
3 531 599 527
3 531 527 528
3 447 531 528
3 447 452 531
3 450 532 454
3 454 532 533
3 532 530 534
3 532 534 533
3 535 538 599
3 535 456 460
3 535 460 538
3 535 599 531
3 535 531 452
3 452 456 535
3 454 533 457
3 457 533 536
3 457 536 459
3 536 608 537
3 539 538 460
3 460 462 539
3 459 536 464
3 540 541 537
3 536 537 541
3 464 536 541
3 464 541 466
3 616 542 540
3 541 540 542
3 466 541 542
3 466 542 468
3 468 542 544
3 468 544 470
3 545 546 543
3 544 543 546
3 546 545 547
3 547 472 471
3 547 471 546
3 472 547 548
3 472 548 475
3 548 539 462
3 462 475 548
3 470 544 477
3 477 544 546
3 477 546 479
3 471 479 546
3 484 553 483
3 484 485 549
3 550 552 621
3 489 557 488
3 551 552 550
3 489 491 550
3 550 491 551
3 491 493 551
3 560 493 494
3 494 561 560
3 494 483 553
3 494 553 561
3 553 554 561
3 549 554 553
3 556 555 554
3 556 554 549
3 549 485 556
3 485 496 556
3 558 557 621
3 488 557 564
3 488 564 499
3 557 558 564
3 559 552 560
3 560 567 559
3 560 505 567
3 555 561 554
3 562 555 556
3 562 556 496
3 496 501 562
3 503 563 504
3 565 564 558
3 503 499 564
3 503 564 563
3 564 565 563
3 566 559 567
3 568 566 567
3 568 567 505
3 568 505 569
3 505 506 569
3 562 570 555
3 500 555 570
3 570 562 501
3 510 571 511
3 572 573 563
3 510 504 563
3 563 565 572
3 574 568 569
3 569 580 574
3 513 514 580
3 517 575 518
3 517 511 571
3 571 573 576
3 573 577 576
3 579 574 580
3 580 581 579
3 580 514 582
3 580 582 581
3 518 575 583
3 518 583 521
3 584 585 576
3 576 577 584
3 586 579 581
3 582 591 587
3 521 583 594
3 521 594 525
3 583 585 588
3 590 587 591
3 592 590 591
3 522 526 591
3 592 591 526
3 592 526 593
3 526 527 593
3 525 594 595
3 525 595 530
3 588 589 596
3 594 596 595
3 640 671 589
3 596 589 671
3 671 640 597
3 598 592 593
3 593 599 598
3 595 596 600
3 530 595 600
3 530 600 534
3 646 602 597
3 601 671 597
3 601 597 602
3 603 604 646
3 602 646 604
3 604 603 605
3 607 613 606
3 598 599 607
3 598 607 606
3 607 599 538
3 534 600 608
3 608 600 601
3 608 601 609
3 608 609 537
3 611 604 605
3 611 605 612
3 614 607 538
3 538 539 614
3 537 609 540
3 609 610 616
3 540 609 616
3 616 610 611
3 616 611 617
3 616 617 543
3 655 618 612
3 617 611 612
3 617 612 618
3 543 617 618
3 543 618 545
3 659 619 655
3 618 655 619
3 545 618 619
3 545 619 547
3 615 614 620
3 615 620 659
3 619 659 620
3 547 619 620
3 547 620 548
3 620 614 539
3 539 548 620
3 621 665 558
3 558 665 622
3 558 622 565
3 566 568 624
3 572 625 573
3 572 565 622
3 623 627 578
3 627 623 624
3 584 632 585
3 584 577 628
3 637 636 631
3 631 579 586
3 631 586 637
3 586 638 637
3 586 639 638
3 586 587 639
3 588 585 632
3 632 589 588
3 589 632 633
3 589 633 640
3 635 636 642
3 636 643 642
3 639 644 638
3 587 590 639
3 644 639 590
3 644 590 645
3 590 592 645
3 640 641 597
3 597 641 646
3 642 643 647
3 643 651 647
3 643 648 651
3 649 644 645
3 645 650 649
3 646 647 603
3 603 647 651
3 603 651 605
3 605 651 652
3 651 654 652
3 649 650 653
3 654 653 650
3 650 606 613
3 650 613 654
3 598 606 650
3 605 652 612
3 612 652 655
3 652 654 656
3 652 656 655
3 656 654 613
3 613 615 656
3 655 656 659
3 659 656 615
3 637 661 636
3 649 653 648
3 0 5 680
3 679 682 0
3 0 680 679
3 23 31 33
3 34 24 23
3 23 33 34
3 24 34 35
3 35 26 24
3 32 93 40
3 41 33 32
3 32 40 41
3 40 44 45
3 45 41 40
3 61 19 22
3 60 68 69
3 69 61 60
3 70 72 74
3 75 71 70
3 70 74 75
3 73 83 82
3 82 74 73
3 79 143 91
3 31 80 79
3 79 91 31
3 93 94 98
3 43 96 92
3 92 39 43
3 104 100 53
3 53 109 104
3 63 119 111
3 111 53 63
3 108 113 115
3 115 57 108
3 116 122 124
3 124 65 116
3 128 202 134
3 72 129 128
3 128 134 72
3 137 138 139
3 139 81 137
3 202 204 137
3 137 134 202
3 143 145 149
3 143 79 139
3 139 144 143
3 104 163 159
3 159 101 104
3 162 161 167
3 167 105 162
3 170 173 175
3 175 114 170
3 185 186 197
3 182 192 193
3 194 672 182
3 182 193 194
3 200 195 201
3 201 205 200
3 202 203 204
3 202 128 198
3 198 203 202
3 136 141 199
3 199 133 136
3 211 212 213
3 213 144 211
3 211 138 208
3 208 281 211
3 222 293 226
3 226 153 222
3 164 237 232
3 232 158 164
3 236 311 241
3 241 168 236
3 257 258 259
3 259 187 257
3 252 264 263
3 263 253 252
3 200 273 270
3 270 196 200
3 272 203 271
3 207 203 272
3 272 279 207
3 285 286 289
3 289 217 285
3 285 212 282
3 282 359 285
3 324 325 326
3 332 333 334
3 334 260 332
3 264 252 326
3 326 337 264
3 340 342 344
3 344 267 340
3 340 258 334
3 334 341 340
3 349 350 354
3 354 278 349
3 359 282 356
3 356 360 359
3 404 327 402
3 409 410 411
3 411 335 409
3 415 325 404
3 404 416 415
3 420 422 426
3 426 341 420
3 420 333 411
3 411 421 420
3 351 431 433
3 433 430 351
3 431 345 428
3 428 432 431
3 429 352 435
3 435 437 429
3 357 438 435
3 435 353 357
3 461 462 460
3 460 456 461
3 405 482 483
3 483 481 405
3 487 488 498
3 509 511 512
3 512 432 509
3 509 427 504
3 504 510 509
3 516 518 520
3 516 433 512
3 512 517 516
3 553 484 549
3 550 621 557
3 557 489 550
3 551 493 560
3 560 552 551
3 513 580 569
3 569 506 513
3 510 563 573
3 573 571 510
3 519 582 514
3 517 571 576
3 576 575 517
3 587 586 581
3 581 582 587
3 522 591 582
3 582 519 522
3 575 576 585
3 585 583 575
3 593 527 599
3 614 615 613
3 613 607 614
3 559 665 552
3 665 559 566
3 574 627 624
3 624 568 574
3 572 622 626
3 626 625 572
3 579 631 627
3 627 574 579
3 578 627 631
3 631 630 578
3 584 628 633
3 633 632 584
3 630 631 636
3 636 635 630
3 598 650 645
3 645 592 598
3 637 638 663
3 663 661 637
3 644 670 663
3 663 638 644
3 649 648 670
3 670 644 649
3 6 682 679
3 6 2 682
3 10 681 9
3 10 680 681
3 11 680 10
3 11 679 680
3 12 679 11
3 12 6 679
3 12 13 6
3 13 8 6
3 16 11 676
3 676 11 10
3 17 675 16
3 16 675 11
3 17 12 675
3 675 12 11
3 17 18 12
3 18 13 12
3 195 672 194
3 195 184 672
3 601 600 671
3 671 600 596
3 602 610 601
3 610 609 601
3 604 611 602
3 611 610 602
3 552 665 621
3 623 622 665
3 665 566 623
3 623 566 624
3 578 664 623
3 623 664 622
3 578 626 664
3 664 626 622
3 629 662 626
3 626 662 625
3 629 628 662
3 662 628 625
3 630 660 578
3 578 660 626
3 630 629 660
3 660 629 626
3 634 658 629
3 629 658 628
3 634 633 658
3 658 633 628
3 630 635 629
3 635 634 629
3 641 657 634
3 634 657 633
3 641 640 657
3 657 640 633
3 635 642 634
3 642 641 634
3 642 647 641
3 647 646 641
3 670 666 663
3 663 666 661
3 670 648 666
3 5 4 681
3 681 680 5
3 29 27 26
3 26 28 29
3 30 29 28
3 96 43 47
3 47 100 96
3 70 71 131
3 131 129 70
3 608 536 533
3 533 534 608
3 500 561 555
3 594 583 588
3 588 596 594
3 661 666 643
3 643 636 661
3 648 643 666
3 183 184 256
3 256 254 183
3 543 544 542
3 542 616 543
3 625 628 577
3 577 573 625
3 653 654 651
3 651 648 653
3 269 347 343
3 407 482 406
3 406 408 407
3 410 412 487
3 487 498 410
3 505 560 561
3 561 500 505
3 255 677 254
3 254 677 328
3 255 331 677
3 677 331 328
3 269 674 265
3 265 674 338
3 269 343 674
3 674 343 338
3 193 678 194
3 194 678 199
3 193 133 678
3 678 133 199
3 405 673 482
3 482 673 406
3 405 402 673
3 673 402 406
3 254 669 253
3 253 669 324
3 254 328 669
3 669 328 324
3 429 668 352
3 352 668 347
3 429 425 668
3 668 425 347
3 403 667 405
3 405 667 402
3 403 404 667
3 667 404 402
