# vtk DataFile Version 3.0
A great-looking cell
ASCII
DATASET POLYDATA
POINTS 403 double
379.88951478978765 253.9709716628155 76.39713896880707
373.1402221544334 257.99824040685127 74.83374716840021
373.56805790262086 259.5963652354902 73.57524894573297
378.2162712148477 243.5369829018966 78.78341661190247
382.10622919593663 259.1531348837679 61.66951256286545
382.02238580007037 250.6690464897166 75.66127249960839
372.86414774587263 254.17541632345888 60.774570104542924
383.1683068172509 252.18312658931936 74.30181252683606
373.75842758715106 250.8351519438938 76.55802093731438
375.87573235468363 256.03220248646926 76.55818901263513
375.87493942134034 261.43697219810934 70.84437248992472
368.84111759972365 246.89223393772127 73.4019741725812
373.2669526593669 246.55050578565272 77.83551956768375
384.0052817959094 258.2937564509087 62.4948127669958
369.56335390333226 250.0011493759285 70.71606358227662
372.65236709380383 252.52011718783254 75.34140847379757
384.8824682661405 236.071118398941 58.16551464987545
369.43688873149193 251.22956310591832 69.3929705056085
371.6255789320699 254.43225075760822 73.9648745471375
368.97063393967545 249.4661869227605 68.81604703825478
384.3437380686765 255.10653343769394 72.81803428149247
365.0606498726293 241.83245434313375 73.461886792551
377.95875641128526 261.623339117374 71.32143985828597
372.31893243303136 257.74616130516574 63.849227203981926
382.2414002175228 256.8079157373302 60.779871199725214
384.4115879888582 259.04632430686905 65.2003057449712
380.2522167974572 258.5392948846656 61.06747948972279
377.4646227362461 256.1276039851202 59.75934711602142
366.24516186082957 244.72070918614043 70.11876748760854
373.3627540225428 260.32538826504555 67.6676166558126
382.84364582195315 244.93630912477343 76.93019264660721
370.8653083601505 252.46133959344903 73.38692655195311
386.4791917218693 244.83171102840205 73.0158065412838
380.25872272156346 260.44003438735285 74.38657168837626
376.5573492455056 261.041617225592 66.08253418890888
374.02883151833043 260.6779286836936 71.46353526448831
371.14016324441656 256.1157005836333 72.79096859116464
375.52040283150313 250.50510259472503 77.21524854077677
371.10015934946506 257.9115860434792 65.87687118203
370.61417817445596 255.88652720596292 65.03374904194601
372.6922425076871 260.0448937122231 69.70120602082108
371.73045069974404 255.17748695717592 62.86562548116077
384.624955144231 253.51279402886297 71.4474499022926
374.5616357360322 227.7505500839323 67.69807526723771
379.22821182717445 248.12052443172132 53.60553841373734
383.5646025924256 260.3836535463521 67.33698987619736
374.3280952743264 254.3466593849456 76.16107504228988
379.72797559281287 256.65833484921 59.84148745605489
378.49165867370385 230.03727886317458 58.35499942412134
376.1302719199053 229.80834612014695 76.1557798891893
380.2674116434524 232.79840799291767 56.082035281222815
385.13605094946115 240.63139888274347 57.16349717382825
385.32482684577013 238.29379782313387 57.47378417063037
380.77744365199555 261.05639564703137 64.80824714932638
371.5563840632537 258.7086950367516 67.98865107609402
385.84075651518947 241.1205084076348 59.272307894862536
371.9265190557037 232.41649384662165 58.45919739672954
365.95141607082866 244.19869486192684 63.86692397954699
375.1623368469694 227.41753316803567 72.18542078872132
387.2270554927221 243.27870158181778 70.13302900292851
377.81431633754215 234.0019017458429 54.814243692723004
375.9122052668415 257.3582796106822 61.12571162788596
370.52857575456454 240.45382943388336 56.54454960881945
368.9911695837274 242.79085141256755 76.2057607829501
378.7569111278136 259.4172818945068 62.08017901090262
376.1243470204122 237.5315646783005 78.36407992995196
381.3315519152007 243.10521058909944 53.14502250448303
374.75483160773973 244.39166536551699 78.2555379313901
382.09663982793654 229.68954454171342 68.2565449077506
380.80494284480983 246.8012025342553 77.64783819573982
372.24948684957457 245.62932814011404 55.38606417604239
373.0485035785826 230.60911193161107 59.85570902880037
384.1151025789083 231.719603185315 59.90849581600105
366.4740499512936 245.4026293904859 67.8986094373771
364.45177538794263 241.05207309925075 68.17726069163402
374.6852246018875 229.8222084259084 59.042987393886186
376.5436465733023 229.7899778212376 58.62165232388391
382.2941167084452 229.1408246726723 65.5705974955069
380.1987839085393 236.68966368470393 77.43456386418028
376.4466106379917 228.3048181740274 67.04835554393077
381.257227811144 235.40389278131923 55.117553635864454
369.94962998546185 256.7513348336249 67.28117750526077
379.33055915648725 251.28007859095626 55.837642929273436
380.58876879066 244.5998117999937 78.33281100004933
385.82849219766825 236.06388857754308 69.18436668726568
382.81611770795587 247.89721984948926 76.0410675002203
381.48545199026864 254.93381512781986 75.94359059390467
367.3582257748533 233.84578418626697 69.41044232115816
386.0371841945696 233.6495297781829 63.53026832956369
379.1248100644235 245.89936477009144 78.71240849156897
369.43287362283763 231.05245527565893 66.98930902469093
386.27888184757285 246.74055919506773 63.30367726134003
366.3357402037265 235.51156809150845 63.61838822049715
383.24678063091045 240.9240710067041 54.76375860695238
372.1580862331738 259.41197004131726 71.69949991764763
383.24377651071825 258.3080704344154 73.72350124070101
374.3162469243282 234.90369321328055 77.83878408276615
365.29865517215035 239.57993476285637 73.72539497629951
377.8825174988548 257.4445662405475 76.23878065197576
387.66687990087945 241.7578682336404 65.82508829814644
379.7752290179795 230.3784006201076 73.86706291364005
381.5995776574994 253.01699583326723 75.57624047672707
385.74439823472846 236.53868912656316 60.31733280811948
365.0776455802918 238.0697049916135 64.31612824384455
370.92679638251053 248.03737009036982 57.05807207772387
376.215839782075 232.9848705830896 78.00870559625226
383.1337659671104 233.45915560305656 57.07240854296883
370.0873340904974 255.86827658335238 71.02545001850534
374.7876871388281 252.36560276981797 76.65855689345157
387.10041531380136 240.89773428523 70.5978688576947
380.3828860870242 232.37796469659108 75.64912341725616
384.3445754342049 231.2739911198235 66.99298609618762
377.487848463288 228.7915262492036 62.38657156394945
377.8500352298117 231.1054036901267 56.47259307519711
381.44219339679074 230.87678818141663 72.18468769570015
375.12578937350526 248.0466130566183 54.24158076019673
370.264827121356 229.4222665972855 72.24732889676767
380.22795510957906 229.56339718599182 70.5556775953588
385.1500015924811 251.51663834613566 70.22521642590849
368.2191123310583 232.93562648387618 66.5498460184421
376.82312799200866 259.188554692125 62.327155982024856
384.5460112555842 234.46900895782164 71.65333833359293
370.6631753027417 232.24986326196867 60.95615493073396
383.8835874116638 259.87707288713915 69.55136600409382
375.3931057994643 229.33719775931013 61.33706523096154
373.572408830441 228.45475541284577 65.66735221656836
371.4972117516073 258.67800065700175 70.07741386272009
372.73874837907135 227.3355474817113 71.69641984660859
386.7185475738606 237.23149169165683 66.28597760363812
382.9141964676782 254.58016837107246 74.45837985297194
380.8433975876589 246.47593876433382 53.4591964950908
364.7370824638728 238.0927511991495 66.63857646739466
365.82796229944915 236.21066978957597 70.36454147303868
372.1955501584312 237.4499140075735 55.460094526757814
369.68154238198787 247.9990267669095 58.833123834818196
364.6366778863353 241.9209241307043 70.258399299487
370.1255175251561 231.0973474556745 64.96637430497051
378.1157494182135 235.0638688227637 77.58416157562696
376.39571916908375 228.5684958483879 64.14396879704535
369.36444668043475 234.1898445910553 74.76074868282629
384.7339590860817 233.79465042427793 58.7863637380176
387.25508314168087 240.40903563240795 67.98169441792788
383.47625039080793 249.54645540006496 58.3825128027016
386.7976857509101 245.57330533587398 64.69836961642396
385.49992721734577 243.3237199438611 74.29277343489312
371.90321593020894 258.0268544606948 73.32429154355145
374.32889173501565 231.17315244272314 56.89847900767223
370.1105596426148 239.36768139538012 76.6589853465986
377.9859530491455 228.53335774801485 65.52326046274182
369.3455582561494 254.16576678255268 70.67328244474153
368.5006022484242 237.10972184971817 75.11547470768616
376.30864476924813 248.52964442141015 78.00102365068746
380.85530476036763 230.62888954272032 58.165130567397284
387.2584345685872 242.97341642062958 64.10821446566432
382.16447592886976 229.17479518081677 63.47438159468693
383.0812736382642 231.47291169062197 70.44620030374683
372.1236930705442 234.10757399713265 56.20675123729206
375.662557126135 260.1113488519397 64.09258498972889
386.06743140915614 241.4176839810126 72.94891576853031
369.89854872648255 251.2345173407073 62.13332733329235
377.9496399259735 250.42459199044075 77.31202597520769
384.9029254963931 244.82183280690666 75.19234442355635
382.18115829699406 256.95507465227365 75.43395219165868
386.18927603767617 249.27445676969904 68.61996192752663
374.98524178110995 246.9377856136009 78.26249256779947
378.11568438745724 252.8435005430818 76.84722638876914
371.991257457613 243.34858985306496 55.43406942309412
377.5833461362536 249.6611865983769 54.36929166809465
383.87158450955866 249.78374300321323 74.14426834738408
370.8758655938903 230.8835512888438 75.17707103412546
376.0165361499841 240.7825060949469 78.54256517742223
369.14295925017024 253.05745317694044 69.07047946688097
380.8187984645663 239.46515601363726 53.551405912106155
382.3424975024706 245.10485024177973 54.58404602206217
384.9596335933207 258.5054225989568 67.8565405628297
374.22893276452436 245.42587424964972 54.16053656102857
369.4624213281213 250.71521724039343 64.71724029269392
379.56789786785686 228.70473973061826 63.73784780440388
366.96104294989004 240.0024720533899 75.19690949091465
381.824681887219 229.5345797194877 61.35931741182852
372.42918064991085 241.77449812223352 77.55878139199268
368.5191899063355 248.41729597119317 63.959787212073266
385.5447757891005 248.1502143840714 61.9273569889977
386.22898241259406 245.07052052431177 61.87274974304418
368.5395809904757 248.88236676303524 66.5397753775438
383.59708641654413 236.80473127369694 75.40305727085742
370.31142977514185 250.03560884269393 60.03510875025491
386.7910543906024 246.71321254668163 67.24624460388392
366.24692873380195 239.20511425375258 61.29635180859749
381.22067751574485 237.345064887885 54.18829445700752
376.96553019903496 252.09133290409164 56.45801512644603
385.4406468081268 234.4231151082463 60.70799271760081
373.84565999973944 248.77135767736902 77.44005871025944
381.9700973081769 238.30101261401435 76.88872213585921
385.3610469407603 254.3357699241695 66.92624226115797
384.26557036612286 242.2389942267354 75.80925695894722
383.84023462614135 243.7042492647024 55.81023695609288
364.50767289339507 238.70721600961699 68.99712527057379
387.0062581592881 237.94820324484888 68.65402154845683
369.3370574165459 252.39614222228906 65.66732060544825
367.2937311706794 234.35121784373052 72.32784396323714
366.14763350308147 237.14550221164805 62.39627882515746
366.6556888152172 242.95342939532048 60.970360044730455
385.782275759556 234.1530702892414 66.43737024566458
373.16578285980603 238.39549988537465 78.20123499305613
370.80223820248875 235.87134817159966 56.96356084008629
368.70898118527634 248.36097626724498 70.34842858964258
374.6225702126978 261.040654277101 69.3083892030866
372.6262588092018 229.06717862796143 76.14233097191955
368.4697616712709 247.13837062871517 60.37117759767596
375.4533528765075 236.56431351736978 54.06158494668804
364.7514799420232 239.49988519520306 71.88317438480226
377.73815069922483 228.63133468504375 69.35694593931315
378.0094447816835 255.06648139949672 76.67077198738302
369.18759144187334 249.79803117134085 63.06566995551328
382.52574786157965 249.46450215414674 56.369634535813816
374.1844748531874 252.6707240474538 58.33261962303931
371.0291738843568 257.65402557288024 71.45912522928587
371.6659218460798 247.52070292077116 76.56531117862745
378.4986400516973 261.085200623061 73.37474757029416
365.0800331868207 241.3831947869202 63.83084287937808
379.58962112169564 233.3756585080363 76.85246661591022
386.76766674647274 238.52229869910113 71.04949211623054
367.70768159439433 238.34224667128112 59.58388456148798
384.2490268968597 251.5515174997474 72.45571992301677
367.10625931120626 246.24138686098686 65.74240070374684
372.19756794398364 256.359135650038 74.50992635805562
385.2328772230434 253.84657928133225 69.30634900697513
377.9041485444863 243.12479995051723 52.36663479668198
385.9887947978695 238.78645145140723 59.7704749865547
365.12170774885317 243.3244928826521 67.02148744584403
379.51460555810627 228.7687827722173 67.16816087642616
372.0224663645951 249.96300726154803 76.04713738155448
370.1659132097538 234.55331874590178 58.826574031851415
384.02595710527675 246.2606005485063 75.73899577100565
376.05709649986284 260.8647727587671 73.27479704822319
384.2127846717712 255.68363031543495 62.39942880566382
385.1459274578534 250.38296704279514 63.67240521895995
386.4304060690856 248.5985299745247 66.68325473667551
371.2511315156541 250.79734395671827 74.36863201763616
377.8556661335427 231.61968055485715 76.55550219105037
387.2323328489841 239.97455787007732 64.29421269564473
386.06823726775514 246.94146438429323 72.3956522610771
373.7665686397283 256.4573320096079 75.85212971521686
367.0769748976781 244.5738720656742 73.55560659863873
375.3285497871473 227.644501902539 69.7980710622048
386.370724583985 241.53151108553934 61.45283618629373
369.5041137150122 254.04500100565588 66.75596205885049
369.3723804400993 248.46215844371102 72.12794776464494
370.33804059306954 248.62771738816468 74.43376271629054
370.84751444985005 229.43511547369064 67.12760178732188
383.7481585755978 234.93515676548643 74.28699849064658
380.20643631278745 261.07350789085444 72.08632209994224
383.8485453081647 253.39233934816204 73.09068110592442
385.4406101208468 232.41531729659414 61.770676665539945
377.37167778696346 229.3504491650808 74.92126906713156
372.59600982607856 247.72856169629432 55.646927751418346
379.49580944408774 253.19526890309072 57.50764649183283
365.9525234822205 237.31424141179895 73.2834001893738
382.96250474567864 254.0982705040376 60.96274281023227
371.56246715073365 244.89448860560356 77.42301210787296
381.9756005688127 259.9376766041839 72.97873426213324
376.15649229505624 232.2404895697566 55.36550364455565
372.57409550643246 259.3175148148216 65.84936963413163
384.3200314201175 239.30018838373184 74.90748052978815
369.19770296174636 231.24100969415565 69.43177289339772
384.429583656768 230.6764278870226 63.415558564771864
369.4311551558238 237.58816741960223 57.97932174683955
373.6697276917981 256.46636172965253 61.770542634056184
374.5340686223401 250.2669009916278 55.837757627780036
379.5414059310886 244.9081383054254 52.16597789239652
369.06730887264695 233.89447590405868 60.81993723533291
370.342502156802 257.3108850015232 69.51216757116332
383.52855979732635 259.06484555265484 71.65255816969362
385.0062578946954 247.16573171839292 74.19631908866639
368.14172667927704 240.6713048440808 58.85171923532317
374.36030312970183 239.27980746948552 53.92423773800511
384.275212648631 252.93777132746857 62.73506169825075
369.2619683705503 251.39431798844032 67.28345120900667
381.0476766206555 254.44360449786862 59.32785704259118
364.9598055018462 237.81108433684753 71.19311166933282
385.89045569131395 250.1557951189995 66.11415527234686
376.51856754508344 252.00927986338118 77.0736976248043
373.6615686280569 259.62215386569176 64.22906569691956
374.1988396167937 231.0810125828154 77.09378641402769
382.1408356004824 260.68815080246725 70.83108403655449
385.60275719907486 236.4991413358213 71.290598349979
372.86382336049144 254.832297705752 75.22907080150745
383.3197267055724 235.71396811343703 56.393631161371204
385.17950919993933 255.61775756692924 70.87483855857009
385.24158610725897 254.85061361655278 64.50195127261958
378.6460577961553 247.94444711026193 78.11967136074765
374.4048607696943 260.47598576233025 65.83882782249223
381.4413362571865 261.168901207314 67.08551580894184
380.04584313971753 251.7308544836205 76.58561438028623
378.6133875760505 229.33177639516455 60.50284650227743
372.8544374097586 227.84490645376965 68.54250048493898
386.7452907222018 239.28628137434907 61.98890831537366
385.7843288443833 239.02724419888867 73.18103068111283
374.5628802909284 258.58850540862284 62.71164713027828
370.60609659638277 245.91258351272964 56.8706106407375
369.17823937114264 255.35121444552868 69.06947891023539
377.9944461499778 259.7383090762638 75.05881176929097
371.10281837302523 253.27521231752692 61.90955174039148
369.5949535946479 243.12014500352925 57.63927373741007
375.07282247744536 255.3260926481556 59.815162028698694
383.30818481106786 247.12064613150173 55.94787453960083
380.4769524026029 249.3162610919235 77.11178031145532
385.0455422224832 233.32613523882267 69.04465197466374
384.51245206493326 257.1902934204183 72.35514633298298
381.53419763657246 251.29445597848778 57.04096724667172
371.12633615422953 236.2008535533565 76.66927909937587
386.21157967415087 235.49134631974272 64.73733809222566
381.816479314099 259.10539770563224 74.79963245269583
379.9926554402672 256.1979020909528 76.42145734154542
371.73314733283183 233.36013439316162 76.72523722765706
380.1291312608599 258.57550183130644 75.9575918230775
375.35426286166705 258.5892536262248 75.47009127719107
383.4065624392818 237.94959726320323 55.70663773962159
372.2851843032131 230.07072214179388 62.98059096665926
375.9729447680614 244.34922005864578 52.95580735690006
369.55432600761463 245.99179636709792 75.45269742474238
385.449392717657 232.2875207528262 65.13725391896547
370.2801040569741 253.23487927322122 64.17480103499842
367.6092419340697 246.20097628000173 62.20804199993509
379.01091763697184 261.2445004532151 66.66085527121501
374.7556562146148 228.25717142468952 74.67728556334335
385.45864228668404 249.0186934330486 71.81825755698173
383.6468496221977 256.44875190014574 73.92396937207567
367.82767909403657 236.12888306340852 60.869814778088056
377.2898801363403 239.72793442207626 52.87341307560135
374.7304822528072 242.25734316490352 53.42710317635945
370.4365971801235 254.22345072119217 72.20382438648993
382.5921222951952 252.2250123414204 59.40665383658864
387.4749141344753 243.7220591851714 66.95090249487397
377.0046508073264 261.7274271094003 68.68844586100197
369.9542274448573 252.22488416117855 71.1272112949012
384.4516879505237 248.77626433653228 60.150006736855744
385.41790658831474 243.48561899189673 58.809248997177455
384.13275162271765 250.64458552594562 61.04902162073525
384.72482451040776 257.7933442992299 70.17789837735556
377.4528849041338 246.43698086849489 52.89307612906616
374.7670170769847 233.7421922946961 54.95522597570092
378.9513126663551 236.8023128799435 53.29912752338503
367.6576893636599 247.15217026358403 68.69942359830661
365.41404207726094 243.49101433204584 71.92154766826025
365.93708762992827 235.8305133048486 66.86235777355905
385.25599868516605 257.04951712645163 63.940639658206756
376.9855121584537 246.23773440394555 78.58634047790498
383.1707887733397 240.32982256008378 76.64966153701572
387.39455721252307 245.12577434557292 68.68687500727475
382.552842238511 259.97426632586985 63.61524796457472
381.36161763985143 234.9370635351075 76.15156187907941
372.5877130419752 240.55193659440806 54.71910546475779
380.45953337915546 260.03878327112545 62.72018688226781
367.41260923384414 235.52550427438618 74.24766497597417
371.48791134249916 252.05888762302766 59.99511374163593
385.31541714867734 251.90002179957716 67.7376497691629
376.25539736084465 253.79838873997628 76.80129210458036
371.86519872282605 249.9154228519782 57.86949303317148
378.1431431218933 257.92681824159183 60.98319851254591
367.09408594468294 234.25741246702935 65.02981312319243
386.70165125317556 246.5084535255862 70.30918366739175
368.084461171746 243.02440244513483 59.07690941173589
385.23984650166733 252.43477069295557 65.27551200828452
385.7296852955614 256.76198929857003 66.13607052424409
381.3187619612524 252.941617509519 58.15109959527674
369.2252506514213 232.18052412862622 72.47277482526461
384.65656285165767 245.3478938322218 57.28450071916376
386.36428958508816 236.90717991591114 62.69028345280954
380.01918834101167 261.287913309547 69.36372443550084
378.9846943180947 255.13686765776734 58.64937630696147
381.368577246848 241.67530305919138 78.13438316931014
377.26105677554165 228.60490153826726 72.22406208042301
371.53804093872554 229.5213115969218 65.08935447738494
383.501718610391 252.48451297287914 61.033353320412594
368.33092266568707 232.9577164976891 70.89973883385329
371.6228958582408 228.03139586300776 74.42876261194462
380.71462170543043 249.16885870110863 55.071258452802034
382.7695687295219 260.74913327061427 65.51029247802764
370.7439427770548 228.59356149191115 69.74649302704903
368.7960337491998 248.84300276172434 61.43447300179293
378.6683272195913 241.14855626766905 78.68809856797753
379.42826131752116 241.25313510484654 52.539068888661
382.3163445356891 232.55746624856909 73.65557893424354
385.09516345440966 237.01554303772582 73.21467375594152
376.98884038205335 254.21236383260054 58.27273261471859
368.44845341587086 245.26231056209645 59.27765226245313
368.59478897852597 233.36220869900717 63.179643391640646
370.4154506915331 231.69643197387342 63.020252948321016
370.34180232009555 250.40345238833297 72.64747357657163
374.3437351593679 228.8649661273075 63.454062791944516
386.2722291033338 248.09015700116404 64.77926598444135
378.9765729062797 238.69741654596538 78.20848665020618
373.52398561725784 235.42732282041823 54.96151489047734
382.2904994124643 260.9161569383756 68.85510443142164
384.85911535633716 246.8300177295589 59.14674430818182
378.2666508783039 260.4996980909781 64.02797830562878
364.54966278448217 240.11978684114314 66.46139216129019
385.5594550839167 256.17887108839443 68.59297642853893
367.99722137819606 246.6895856338877 71.37223209597438
366.562440356334 242.5251476611729 75.18828207389639
375.11390167471455 261.1702104620827 67.47883337729331
POLYGONS 802 3208
3 263 54 29
3 41 39 23
3 36 226 145
3 94 40 126
3 207 40 35
3 40 207 29
3 323 247 39
3 23 268 41
3 39 41 323
3 40 94 35
3 41 303 323
3 35 2 235
3 41 6 303
3 268 6 41
3 54 126 40
3 29 54 40
3 301 272 81
3 54 272 126
3 54 81 272
3 54 38 81
3 268 299 61
3 283 299 23
3 23 299 268
3 38 39 81
3 157 283 292
3 38 54 263
3 263 283 23
3 157 292 34
3 39 38 23
3 299 283 157
3 38 263 23
3 81 39 247
3 283 263 292
3 292 263 29
3 36 18 226
3 18 287 226
3 301 81 247
3 14 336 17
3 149 171 336
3 18 15 287
3 287 15 46
3 272 301 107
3 217 272 107
3 149 107 301
3 332 18 36
3 390 336 14
3 336 390 31
3 278 19 17
3 287 243 226
3 226 243 1
3 287 46 243
3 145 2 94
3 336 332 149
3 217 107 36
3 217 145 94
3 94 126 217
3 336 171 17
3 31 18 332
3 303 159 323
3 323 159 176
3 332 336 31
3 186 381 159
3 149 332 107
3 6 305 216
3 61 27 305
3 14 248 390
3 14 17 19
3 207 35 10
3 10 35 235
3 36 145 217
3 35 94 2
3 171 149 301
3 18 31 15
3 17 171 278
3 278 171 247
3 171 301 247
3 36 107 332
3 390 239 31
3 15 239 232
3 303 356 159
3 303 6 356
3 356 6 216
3 1 317 2
3 2 317 235
3 226 1 145
3 145 1 2
3 108 46 15
3 9 46 358
3 358 46 108
3 126 272 217
3 37 160 282
3 134 186 359
3 10 335 207
3 335 402 207
3 207 402 29
3 165 282 160
3 61 305 268
3 268 305 6
3 42 118 227
3 261 33 313
3 120 157 397
3 397 157 34
3 26 64 354
3 354 64 397
3 64 120 397
3 313 95 261
3 216 305 386
3 386 305 27
3 101 86 0
3 0 86 314
3 9 243 46
3 69 30 85
3 108 15 8
3 162 313 316
3 281 357 163
3 357 194 227
3 239 249 232
3 239 390 249
3 12 67 164
3 317 9 98
3 9 213 98
3 248 14 206
3 206 14 19
3 232 8 15
3 1 243 317
3 317 243 9
3 282 108 37
3 37 108 8
3 159 356 186
3 163 118 327
3 236 290 277
3 321 249 11
3 249 248 11
3 289 20 42
3 20 253 42
3 165 358 282
3 261 252 33
3 25 347 13
3 25 365 347
3 347 365 290
3 12 260 67
3 260 321 63
3 9 358 213
3 31 239 15
3 42 224 118
3 224 7 168
3 85 5 307
3 194 399 227
3 157 120 299
3 299 120 61
3 328 129 20
3 134 381 186
3 27 61 360
3 360 61 120
3 184 225 344
3 402 335 34
3 325 335 370
3 325 53 397
3 397 53 354
3 216 359 356
3 356 359 186
3 335 325 34
3 34 325 397
3 95 309 273
3 20 289 309
3 86 129 162
3 25 379 45
3 281 237 364
3 29 402 292
3 292 402 34
3 174 399 365
3 365 399 194
3 227 289 42
3 227 399 289
3 45 174 25
3 25 174 365
3 354 53 351
3 168 7 5
3 53 325 293
3 289 399 340
3 340 399 174
3 273 261 95
3 11 248 400
3 11 400 244
3 11 244 321
3 321 244 63
3 28 244 400
3 232 249 218
3 218 249 321
3 232 218 192
3 192 218 12
3 400 248 206
3 232 192 8
3 184 344 19
3 19 344 206
3 67 260 180
3 180 260 63
3 206 344 400
3 400 344 28
3 248 249 390
3 260 12 218
3 218 321 260
3 8 192 37
3 37 192 151
3 59 362 32
3 163 327 362
3 33 252 219
3 274 327 168
3 108 282 358
3 386 257 190
3 160 151 291
3 85 168 5
3 85 274 168
3 386 190 216
3 37 151 160
3 314 316 98
3 365 194 290
3 194 364 290
3 7 224 253
3 253 224 42
3 160 294 165
3 294 5 101
3 290 364 277
3 277 364 237
3 163 357 118
3 118 357 227
3 118 224 327
3 327 224 168
3 313 162 95
3 162 328 95
3 7 129 101
3 187 163 362
3 10 22 335
3 20 129 253
3 20 309 328
3 328 309 95
3 302 33 219
3 98 302 317
3 370 22 252
3 24 279 47
3 302 219 235
3 33 302 316
3 289 340 309
3 309 340 273
3 281 364 357
3 357 364 194
3 253 129 7
3 252 285 370
3 7 101 5
3 316 302 98
3 317 302 235
3 86 101 129
3 273 123 285
3 273 340 123
3 123 340 174
3 162 316 314
3 252 22 219
3 129 328 162
3 86 162 314
3 47 26 24
3 26 4 24
3 67 348 164
3 67 3 348
3 348 291 151
3 291 89 69
3 291 348 89
3 89 348 3
3 372 83 3
3 69 89 83
3 83 89 3
3 4 351 13
3 69 83 30
3 30 83 372
3 348 151 164
3 5 294 307
3 379 351 53
3 219 22 235
3 235 22 10
3 370 285 395
3 85 307 69
3 69 307 291
3 213 358 165
3 98 213 314
3 22 370 335
3 313 33 316
3 370 395 293
3 101 0 294
3 294 0 165
3 379 293 45
3 293 395 45
3 314 213 0
3 213 165 0
3 307 160 291
3 307 294 160
3 45 123 174
3 151 192 164
3 164 192 12
3 4 13 24
3 13 236 24
3 26 354 4
3 354 351 4
3 64 26 360
3 360 120 64
3 277 259 236
3 236 259 24
3 392 237 281
3 237 339 277
3 13 351 25
3 351 379 25
3 13 347 236
3 236 347 290
3 325 370 293
3 53 293 379
3 333 279 259
3 259 279 24
3 252 261 285
3 285 261 273
3 285 123 395
3 395 123 45
3 27 360 47
3 47 360 26
3 47 371 27
3 27 371 386
3 47 279 371
3 187 350 334
3 334 350 59
3 187 362 350
3 350 362 59
3 327 242 362
3 362 242 32
3 327 274 242
3 242 274 32
3 372 195 30
3 393 193 372
3 264 185 385
3 264 193 185
3 185 193 352
3 103 220 188
3 32 158 59
3 158 195 264
3 277 375 259
3 259 375 333
3 277 339 375
3 375 339 333
3 372 349 195
3 195 349 264
3 372 193 349
3 349 193 264
3 180 147 204
3 204 147 311
3 222 298 385
3 385 298 264
3 222 158 298
3 298 158 264
3 334 143 187
3 143 392 187
3 333 142 310
3 333 339 142
3 59 141 334
3 274 161 32
3 30 195 161
3 180 170 67
3 180 204 170
3 134 300 387
3 230 135 28
3 67 170 3
3 21 135 211
3 211 135 197
3 30 234 85
3 85 234 274
3 30 161 234
3 234 161 274
3 392 182 237
3 182 339 237
3 359 269 256
3 269 190 167
3 183 153 246
3 183 143 153
3 153 143 334
3 230 220 398
3 398 220 103
3 32 144 158
3 158 144 195
3 32 161 144
3 144 161 195
3 197 346 132
3 187 238 163
3 163 238 281
3 187 392 238
3 238 392 281
3 387 202 324
3 202 188 220
3 258 150 178
3 150 139 311
3 197 131 346
3 346 131 103
3 197 398 131
3 131 398 103
3 119 388 136
3 175 331 166
3 258 132 200
3 256 115 175
3 167 341 115
3 115 341 175
3 306 142 396
3 352 110 384
3 384 110 100
3 110 240 100
3 222 109 158
3 158 109 59
3 222 141 109
3 109 141 59
3 396 182 183
3 246 338 183
3 51 196 338
3 369 297 241
3 241 297 246
3 369 229 297
3 297 229 246
3 246 153 241
3 257 366 310
3 310 366 333
3 257 279 366
3 366 279 333
3 256 104 359
3 359 104 134
3 256 300 104
3 104 300 134
3 16 102 191
3 191 102 369
3 16 229 102
3 102 229 369
3 241 128 369
3 128 241 141
3 386 371 257
3 257 371 279
3 197 280 211
3 211 280 258
3 197 132 280
3 280 132 258
3 21 97 178
3 178 97 258
3 21 211 97
3 97 211 258
3 311 96 204
3 228 330 331
3 178 147 63
3 63 147 180
3 134 209 381
3 381 209 324
3 134 387 209
3 209 387 324
3 130 378 306
3 166 304 300
3 300 304 387
3 51 93 196
3 196 93 66
3 93 172 66
3 103 92 346
3 92 329 388
3 183 91 143
3 143 91 392
3 183 182 91
3 91 182 392
3 265 90 250
3 250 90 136
3 265 119 90
3 90 119 136
3 346 87 132
3 346 119 87
3 87 119 265
3 188 223 329
3 329 223 267
3 188 275 223
3 223 275 267
3 155 121 384
3 176 184 278
3 278 184 19
3 100 114 384
3 384 114 155
3 100 117 114
3 114 117 155
3 346 361 119
3 119 361 388
3 346 92 361
3 361 92 388
3 369 88 191
3 323 199 247
3 247 199 278
3 323 176 199
3 199 176 278
3 324 181 381
3 184 176 181
3 241 99 141
3 141 99 334
3 241 153 99
3 99 153 334
3 203 128 84
3 257 82 190
3 190 82 167
3 257 310 82
3 306 215 142
3 142 215 310
3 306 378 215
3 215 378 310
3 184 181 225
3 225 181 324
3 393 78 193
3 193 78 352
3 393 137 78
3 78 137 352
3 183 338 396
3 225 73 344
3 344 73 28
3 225 230 73
3 73 230 28
3 381 214 159
3 159 214 176
3 381 181 214
3 214 181 176
3 21 401 244
3 244 401 63
3 21 178 401
3 401 178 63
3 388 389 136
3 136 389 319
3 388 122 389
3 389 122 319
3 330 383 172
3 172 383 66
3 330 228 383
3 383 228 66
3 396 337 182
3 182 337 339
3 396 142 337
3 337 142 339
3 267 233 329
3 329 201 188
3 188 201 103
3 329 92 201
3 201 92 103
3 373 117 100
3 127 296 245
3 250 125 296
3 222 198 141
3 141 198 128
3 222 84 198
3 198 84 128
3 79 125 138
3 124 76 295
3 146 113 76
3 319 71 124
3 319 122 71
3 167 82 378
3 378 82 310
3 169 315 139
3 139 315 311
3 315 96 311
3 190 269 216
3 216 269 359
3 300 70 166
3 166 70 175
3 300 256 70
3 70 256 175
3 266 322 111
3 111 322 203
3 266 88 322
3 322 88 203
3 329 271 388
3 388 271 122
3 329 233 271
3 271 233 122
3 188 202 275
3 266 254 88
3 88 254 191
3 266 72 254
3 254 72 191
3 200 367 139
3 265 116 367
3 138 391 124
3 124 391 319
3 138 125 391
3 391 125 319
3 177 77 231
3 266 111 77
3 230 74 135
3 135 74 197
3 230 398 74
3 74 398 197
3 231 68 117
3 117 68 155
3 68 111 155
3 295 179 177
3 179 72 266
3 204 65 170
3 170 65 393
3 65 137 393
3 267 62 133
3 267 275 62
3 324 57 225
3 220 230 57
3 57 230 225
3 146 56 156
3 146 71 56
3 56 71 122
3 133 276 210
3 210 276 330
3 276 331 330
3 51 55 229
3 229 55 246
3 51 338 55
3 55 338 246
3 172 343 330
3 343 210 330
3 156 342 146
3 210 60 342
3 342 394 210
3 210 394 133
3 342 156 394
3 394 156 133
3 331 353 166
3 133 62 353
3 353 62 166
3 80 50 60
3 60 50 113
3 80 106 50
3 136 374 250
3 250 374 125
3 136 319 374
3 374 319 125
3 128 312 369
3 369 312 88
3 128 203 312
3 312 203 88
3 155 308 121
3 155 111 308
3 308 111 203
3 121 286 385
3 385 286 222
3 121 84 286
3 286 84 222
3 352 251 185
3 185 251 385
3 352 384 251
3 240 221 137
3 137 221 352
3 240 110 221
3 221 110 352
3 137 65 96
3 96 65 204
3 3 382 372
3 372 382 393
3 3 170 382
3 382 170 393
3 326 377 127
3 169 116 377
3 377 116 127
3 28 345 244
3 244 345 21
3 28 135 345
3 345 135 21
3 341 270 228
3 228 270 66
3 341 130 270
3 270 130 66
3 240 255 100
3 326 373 255
3 255 373 100
3 116 380 127
3 250 296 380
3 380 296 127
3 117 212 231
3 117 373 212
3 212 373 245
3 210 343 60
3 60 343 80
3 152 106 72
3 66 173 196
3 196 173 306
3 66 130 173
3 173 130 306
3 231 148 177
3 177 148 138
3 231 79 148
3 148 79 138
3 295 112 124
3 124 112 138
3 295 177 112
3 112 177 138
3 96 105 137
3 137 105 240
3 96 284 105
3 105 284 240
3 124 75 76
3 76 75 146
3 124 71 75
3 75 71 146
3 139 367 169
3 367 116 169
3 250 380 265
3 380 116 265
3 169 284 315
3 315 284 96
3 146 262 113
3 113 262 60
3 146 342 262
3 262 342 60
3 156 205 133
3 133 205 267
3 156 233 205
3 205 233 267
3 191 140 16
3 16 140 106
3 191 72 140
3 140 72 106
3 373 58 245
3 245 58 127
3 373 326 58
3 58 326 127
3 16 52 229
3 229 52 51
3 16 318 52
3 52 318 51
3 79 231 212
3 212 245 79
3 396 368 306
3 306 368 196
3 396 338 368
3 368 338 196
3 179 295 152
3 152 72 179
3 178 150 147
3 147 150 311
3 93 51 318
3 318 172 93
3 326 49 284
3 284 49 240
3 326 255 49
3 49 255 240
3 113 48 76
3 76 48 295
3 113 152 48
3 48 152 295
3 156 56 233
3 233 56 122
3 125 43 296
3 296 43 245
3 125 79 43
3 43 79 245
3 177 154 77
3 77 154 266
3 177 179 154
3 154 179 266
3 169 208 284
3 284 208 326
3 169 377 208
3 208 377 326
3 220 57 202
3 202 57 324
3 16 288 318
3 318 288 80
3 16 106 288
3 288 106 80
3 106 152 50
3 50 152 113
3 132 87 200
3 258 355 150
3 150 355 139
3 258 200 355
3 355 200 139
3 385 251 121
3 121 251 384
3 228 320 341
3 341 320 175
3 228 331 320
3 320 331 175
3 166 62 304
3 304 62 275
3 121 308 84
3 84 308 203
3 378 44 167
3 167 44 341
3 378 130 44
3 44 130 341
3 276 133 353
3 353 331 276
3 167 115 269
3 269 115 256
3 111 68 77
3 77 68 231
3 200 376 367
3 367 376 265
3 200 87 376
3 376 87 265
3 275 363 304
3 304 363 387
3 275 202 363
3 363 202 387
3 80 189 318
3 318 189 172
3 80 343 189
3 189 343 172
