# vtk DataFile Version 3.0
A great-looking cell
ASCII
DATASET POLYDATA
POINTS 428 double
379.8473979944155 259.54236201231726 85.30113414615164
365.96441748697913 262.46441227535064 87.03791256605025
382.6412013267647 256.3558689022658 84.33971744157144
380.0559779642511 254.07110646486174 84.60949776973982
372.57774253973105 256.8046094044316 60.15278943063186
373.5697952896866 246.42583187568334 83.16082285515292
375.1531610090665 249.47987254483567 84.70659375557338
363.8131144440247 265.19147293619324 80.241328991018
363.3695458105399 266.0167825023864 75.825666379198
378.3629545509676 266.028575396458 80.11597313691229
376.1817639686518 245.82034497361516 77.65398704908027
376.60236975002954 260.1155483561167 64.16121265489055
359.1741059348254 261.20112816705836 78.83572302394859
370.86841920951025 245.6042910501747 82.2808715783829
381.99189249393584 251.9232506868762 80.99444881284693
361.748432898974 258.59895169696 58.32442602378062
364.3620017568795 266.39482114999 77.91561976229953
368.3729219656697 255.9726444975641 57.95322131702072
382.7551013025925 261.95344697191956 82.26752616929468
385.34822289924716 253.7696713696577 78.37479833812314
372.78690901985163 268.9347263981914 67.27667088824282
367.1393089039342 249.1981053314344 85.04203308824803
365.65798432324345 256.5336268554552 87.93751768714594
365.6176994232431 260.0220361905366 87.91129813979003
372.71324907426043 255.4257822928856 87.86936670205795
356.8194024982545 261.40420467592224 74.71056332483171
354.53707537276165 261.5436749850219 71.50170692055076
370.65305244488826 269.9393009435858 73.43872142960824
368.0635108718909 243.37351401185404 72.91836700900303
378.214537146996 249.7310889201253 81.74389608193728
369.86506112819086 244.445522891078 79.21986491719946
378.20482313816933 259.59048699644626 65.88657321657709
376.91052982015833 268.1342620185771 73.89815869340468
361.9193536349092 256.8617217384035 58.588821209696846
367.610865078482 246.29281426487904 83.45843062569233
353.8518663798617 259.52240530647873 72.55154317081389
371.09021223172863 256.8812019169778 89.09774740089121
354.2979182917285 256.16705104584986 74.28904042201624
355.64715229210293 258.78447864416466 77.32539968560191
361.0531824544333 245.52813493753365 69.81446257067867
360.12560502645886 250.64431716702728 64.90985779355988
361.33031529191453 249.9673186950534 82.54755724708171
356.4414569078964 260.30382774716645 76.47742767921474
374.9831425944762 248.84438440915196 67.58783656680006
357.96427303107026 251.94538697965643 66.9816472007609
358.08732796673394 261.0985790936925 76.74305425492497
364.53300734109774 246.87932360810018 64.02696821204802
387.15305507693483 259.2570647124946 76.71037491280123
371.2887231521974 244.3440531508177 71.12799115665177
373.91098041263945 270.3461280937321 74.12942576047915
359.09787960040336 246.34189483894525 75.91093125617566
364.96594062824414 242.73352177080636 76.44560330713949
361.1503190471693 247.40754025949852 67.25878403894258
355.39433513250435 261.88901939094376 66.97204416511623
356.62155172286253 258.0936564825544 79.50625655087792
364.30467585110324 264.53327578327463 60.022876474506035
356.72635635863924 260.0078430541164 62.030765180008196
376.39596715372653 257.7788258926316 63.63168871473136
375.0408486543502 265.44297915770164 83.29674536683132
379.87079879596916 261.3876015546119 68.15983608350446
369.4262281535892 267.8244482920361 79.3751852696399
374.9837045056352 260.62434998004363 62.48129966269542
373.0663170002936 258.78683980240686 60.90192890383771
370.04387755986914 244.4436802681177 67.94696515455881
367.26273969252463 267.4464049233462 65.48800388729593
378.6501742558093 249.4218975107606 77.59488726449128
364.96122239167175 244.889567802946 81.63684748119691
357.22176489444564 251.91533894171138 77.88665002675758
359.9742175449501 245.00846961330336 72.990416339161
379.8127059130192 250.44738256967563 75.7247742777761
362.56177761080255 243.61984604871773 71.67960238540859
356.3980572075337 253.1212571648793 73.33914049524375
359.0650482302 254.47945686940844 81.5154653253609
360.5635718448064 263.48559861893585 63.04949652044783
357.6022724650346 250.79139459648425 75.02581792136402
367.899954178373 258.10225851439645 89.29906932689816
382.8290215776917 251.71038245280252 77.53523052752466
379.921892691555 265.91099836448626 77.28409306748893
383.6121250201297 263.24171995958216 79.44914753529271
366.09049473684155 266.20169960534093 63.08872316374677
366.81525817799894 267.38023249461594 77.91816007268172
374.4541480612727 260.9154995836902 87.48020836126841
366.81194090945206 268.30922316210297 74.76455461216507
371.6249266283693 267.36046103695077 64.2030200751854
365.4776362632597 267.6067609927064 70.25723004133857
359.9457397786548 258.7620568622502 82.41517794568273
363.311446686023 256.25360171793153 86.2325548109492
364.59203325888177 266.8159331336073 74.12211831207955
354.05707573994886 256.85755734899675 67.32850753919135
374.8351361558845 263.6248772544907 85.26130972707455
379.64848178141926 252.10971143701065 83.33725238931463
361.5608590036228 264.74697059420424 75.45475858141513
356.86954270898224 253.0273331678584 68.03921637481598
354.26460529991414 260.2312616812738 65.56135954487199
360.9223390160897 263.76290383655436 76.9380437051942
377.29425464334895 257.60202293123956 86.12808596882363
355.33527803326393 259.115900452077 63.6068008232964
380.6940536250062 264.87299167996906 81.86512086430199
361.6893277689395 249.04261742166597 64.75802407827746
360.4804329300986 259.375631068859 59.353206083997506
363.7354278623746 245.33596288437877 67.3135024073913
373.3613030983999 248.28184774067387 85.10041837125729
375.2681375382576 269.08451527472187 75.8022352259313
353.53567590280323 258.07569566737675 74.23569651170908
362.3399553783087 263.82182081177405 60.93444925902227
374.36114154968516 268.0139944273922 79.09645340286136
361.44891541329395 254.68196662795592 83.86840709497288
382.53537729033116 258.7176763460487 84.02729933283203
355.4173195997236 254.75184940731845 67.80612466443195
358.8158733708567 251.87514628169552 65.08955725252719
360.3933380489423 257.640952962595 59.41367905574318
361.4655028300747 260.50930840799873 58.452631833160154
363.8027697076139 266.6164371711378 71.86547330668392
360.80773544123866 251.8414163239502 63.19292118872186
358.6993130192034 259.1306573941563 60.569328369196015
365.34999997222263 256.07806400238786 57.6584960076272
363.33847984309034 259.7818973934454 57.53414546392723
372.2668602289657 267.7648086085146 80.1254019194458
375.74979890071575 252.4829734195968 85.6630575452455
370.19824095725636 247.80759086459037 84.92705061147333
385.67681776892596 255.07827479532526 75.17442232991995
373.17987902619376 262.8280365852104 87.03549825499324
381.6178763211372 263.0446789874147 70.46434992271071
361.9233816484324 260.26748422523104 83.6269508253722
374.7284179652527 258.2653105286397 62.073751637538116
368.37284708942053 248.06350181883747 62.0155849586803
354.5019988835733 262.0638755934887 69.268725113476
376.4840388276021 250.1987489080204 68.58137612986454
377.8778748596217 263.9627523689388 67.67280626642341
361.53658177778897 264.8859451400294 66.96003556802067
356.910560572556 255.63506830764214 79.89622944046116
375.85993502250335 266.8023044612611 67.2127074616118
378.4473579431251 250.34086323472474 72.62786739409721
374.3523769846369 257.38691366260576 87.6253584605801
370.935757567817 261.1796187774169 59.70583714274808
371.2775646990649 244.17109954302123 74.77776146531616
374.81574136160793 262.9175298131072 63.26447964701475
376.3141158890697 251.9100725232547 66.87479020822089
372.9360871088733 244.5672239258212 78.0216700409967
377.8295166941813 248.13015389194106 79.23655677617164
365.7333737772157 267.6807791147529 72.55095311919257
356.7285982476916 262.778186964152 68.84878107554597
363.3613943865514 266.2751188586674 69.5387841198606
362.86712888260337 261.58214727259787 58.0995116811624
358.58950940835604 262.725101766308 64.27554597136724
357.7141407635244 262.8338970801878 66.4608596423671
357.0386354476108 257.51558946538125 62.27589828952901
353.7938671121856 260.11036008367563 70.144903576033
381.8188787937915 264.9395687842307 79.35243205602161
379.7597611070297 250.53254215928874 79.13574830070107
384.6003652643443 256.40597174208006 83.05555938290749
364.85029291895773 267.0505827323213 67.47474646355036
357.39484580323045 251.04693329587337 71.98629752996561
376.5425507947656 267.70457565283465 77.5791317608969
355.459716854911 254.63643115606553 74.37839561251494
362.4976086397115 265.696603530775 73.62691117462161
385.265691868853 261.9242364705671 76.92920211085782
364.13836138203345 265.03011756470966 61.916327626668235
372.5389986557472 265.8859083892012 83.2510189882016
371.00697231742976 253.52158320730302 87.77325059520106
374.26999787605075 246.30700424856352 71.50476825396696
382.2158173507456 254.15812977023893 83.62010506620639
372.8716380376334 246.19131001458055 68.28609503196546
382.567250441198 264.0689201390076 80.94576908952632
382.7520112519186 264.20048851395694 76.73094749308486
358.5206330375331 262.90382301503774 73.35437979557346
363.7524722473355 265.5706343868161 63.93023286989245
368.51590810635935 251.640216765954 86.5848376691166
377.6000583435029 247.60548035002319 81.45188117789344
380.75948210183 264.5961968760151 72.06798837764617
357.1293446260805 260.10998911245855 78.3901983368575
362.0625338754782 246.75771545396137 81.63567692546022
365.99656293170545 251.61818000987924 85.75346878226105
362.9484427039922 265.8340525842498 67.75611221340068
383.6897193049409 252.66877758985436 74.7566902773007
372.9632109014478 263.30047098740295 61.72214057515633
386.7920945971829 257.2071068417291 75.76862021391393
361.61818968655314 265.05746604617684 71.07368032014016
361.4405119013573 257.62395881093335 84.34745485466146
373.00324646865516 244.7772052300964 73.03221158077754
358.51400232583944 248.23448715357355 72.90719771234609
363.5803652030246 263.0404713039615 58.989756722306616
380.4671921793431 256.3148107929762 85.22732759288775
368.3657278507523 262.55405226418634 87.9760414420792
371.13479802056617 268.3274762459375 78.24705197991264
371.77231418432444 270.21795759908247 75.49629163413644
372.38587876485605 249.57808816229377 62.733984408464565
367.68825728896854 261.45793751891335 58.276554832285164
370.013216712729 266.74160841683687 81.6773986639655
366.8038455984807 263.9268520753575 85.44859233703166
363.5394047372303 257.5179917532261 57.71558511285504
357.41631392179283 253.43828806234853 79.73992393494507
359.5683871345832 246.22048367823248 79.25292173680494
362.40383064945377 265.0165945500595 77.64603740816474
359.38864061934345 249.9382240065497 66.77426954310857
363.8323836343708 253.2359966540408 85.69424505644255
356.2847194135727 262.28527229034984 72.46920852594972
387.15314593676834 256.40431166519824 77.7611337993763
372.0296171868941 246.4997108998944 84.34301950715646
367.4255095102194 268.5113394080113 68.37937844975464
375.2090240601764 266.5359726255895 80.94346036332257
368.67298403735344 263.8564470216562 59.95573516420515
370.6535988519573 265.59696494682254 61.53994342467397
362.4661928722463 264.6217068160143 62.87649961151791
366.7177667230954 250.40463820144828 60.32755655442509
364.3362640842311 257.98405053264804 87.17967928264433
381.3854206769265 252.09598524933264 72.79825031999356
371.87088398542534 244.55521352377434 80.23750875522218
366.3750560839321 253.58520692106362 87.44595137111895
374.9681770682581 253.16536073518776 63.787020265313664
377.57730493406405 254.1086029569315 85.46820336354008
372.7151145249493 252.30225449480517 86.59041827213505
354.1735546665879 256.1413857054015 69.97925451660637
361.8647778581154 264.7606393059888 64.73015671583505
383.0006765759311 260.20245498465925 71.13132306530242
374.3110811997011 250.35814780590925 64.83641519144192
365.87471994215707 248.20290365789518 61.89102633178237
365.73779736602205 245.30953323017087 65.5733870981507
358.1621227822967 255.44997419912616 62.26762110757699
374.4004836539312 245.67797716636377 74.87854930216074
373.70394629455495 245.2263494709481 80.96344171598234
378.22508739258046 266.74673773989235 72.15471311036195
378.1117247491611 251.40172007667553 69.62296055266478
367.867897795694 245.74614315492272 64.33197805318555
358.96357055519115 251.36194483711927 80.4951401424178
357.7619139192099 251.00941991250218 69.23934210049939
370.0795445744782 250.60467207956768 61.089561526326854
379.60557735752417 251.7898815354423 71.2734984013438
372.65431220751094 259.49689200492605 89.1917605648025
371.2234423661273 263.77274002401066 86.02133028031548
373.14387147067316 269.0689518519466 77.23744293554905
382.1333041507525 255.90982181281998 69.83736243929391
366.5880393830517 246.72611296414024 62.62845145836618
376.20597658384935 247.64453285862567 83.48694310078537
355.4722697327559 257.09172703353244 63.8856180255039
365.4574994888098 266.38201687170454 79.37151328820158
354.9289308681331 255.0580517640644 72.45845364931728
375.13078342603626 245.82042124749535 82.39461488746794
356.2719985727667 253.5681231514723 70.41742819720498
356.3819639480914 253.3697331051057 75.77316295391236
362.98171876737325 244.0338126413986 69.50521946181522
367.97108028958456 269.1916256436552 71.74496740698153
359.1167667677741 256.5487956332528 60.838449144813005
386.128404819227 256.0049737406373 80.52905916763886
379.68880105178505 265.9370432103077 73.79341892022539
368.9777795728252 252.71458251120526 59.15676490876819
382.13903138590496 253.7937151446379 71.13155422514053
376.6965278084242 250.9417830788892 84.31179438116826
374.14984553298865 251.19151511801476 85.50303578701445
371.4041409553777 254.81001781525313 59.71929653642107
360.6764822347366 264.18262861225827 73.3587612225379
366.57531266442544 243.0577568815266 74.79097559515236
364.9210178527784 242.97578820107788 73.43989867061546
367.11180817681503 244.16137052825172 67.14804928460117
371.3326954240405 250.58461885540095 86.17135021961154
384.6800734601636 253.02283341769424 76.41475487157767
370.72470561538205 245.70804409791936 65.72203246193936
361.1003527217917 263.2366192710061 79.25653659554197
383.6789020610164 254.61944854544484 72.49514836457529
353.6105069489199 258.78591439483233 66.91559687565717
370.08153161961076 269.4052411221625 69.26695846065846
369.94199588695227 260.07414348208533 89.70682311133677
375.7959244075125 259.2078684557468 86.76812291747613
377.01098544656094 260.90829562955304 85.69037010908498
378.166423742236 257.286984987893 65.22258000498431
378.9272505926064 253.75193890686646 67.74833412932955
369.2827488783319 249.75015711134805 85.80068646265019
360.85398758758356 243.98836249688728 77.48060724767801
364.22266828217664 262.06103488074575 85.26901093264958
358.0148984107188 249.5545386143682 70.93490159989918
356.45074218512207 261.4526223388829 64.28247685991687
362.56578421984733 262.87679125171724 82.25974911357686
354.479963051493 257.4448492769483 75.98258780183217
358.4425175049833 257.19213560243446 81.131902022539
354.20078775111386 257.9105096340014 65.25228093087975
365.3775743541746 243.65286129803363 70.20536707753924
362.69713923820797 242.83622035591375 77.06783193290384
360.0608255910496 263.2765589015574 75.23193968370057
369.6947819605465 269.13517928978035 76.45292590576064
382.50685934745474 264.0009478809907 73.56218444333064
368.80352528524304 266.84613262720586 63.343336898139384
362.7746830703733 244.48173190644295 81.11297331825388
373.5251232385541 251.4169933296687 63.29563493282239
375.76630458359045 255.45509326332945 63.541036428877604
385.0865909093821 259.2279001814018 82.15072427316689
366.80762954677084 265.4580617506499 83.76079829936813
370.57820819639426 244.24739453349255 77.08908050893645
383.7393652369772 262.86431727178024 75.25272259505877
374.86125287831106 268.8182622402663 69.35786759770565
364.88531286491934 266.75725402364554 65.09198900774685
378.0908297854626 249.22724478683872 74.58841909087154
358.52341355396214 253.75083319449686 63.55044098806217
366.07305363011596 258.7973011718723 57.29810420601894
383.9243005017273 252.4198152157702 79.64869755615806
369.0442673236196 259.1069046412206 57.92985434506176
353.643949210134 258.4337462895389 68.83079056508676
382.87140123414383 258.16516134752305 70.27641666338677
355.4056977854491 256.56648403942097 78.01878392740284
359.52007402506143 263.99165411150193 71.519937301814
384.1849783237774 261.13210759132653 73.86407948629727
361.7405663387833 262.1559937629645 59.4909797240248
366.18240025252084 264.78337895958407 60.935383379426064
377.06917768208785 267.54430436178353 70.43106604506993
377.2980747653879 255.10678577919674 65.31060690087581
356.97968602319565 253.75113324835252 65.76583418826512
365.91704235195795 263.44052382873747 59.02522331857138
384.3482474752222 253.84173085360655 81.26711902053671
380.62430809213373 253.14001147134246 69.94561724649567
374.3336949171202 253.96683608457843 86.79412018873148
368.0497666652629 265.6634543349732 61.60150980212239
375.3301628363508 269.437232234972 71.63804952804229
382.81845187089294 262.0929470104227 72.25939763044501
378.3043501573922 266.9905212885574 75.64251676976635
360.57997435327434 260.9281047105654 81.10192400158606
363.3851749298919 243.33854039103596 79.21062453781505
385.0185300101932 256.3309392556054 73.20103490911183
380.0466859519672 256.732938546858 66.89348803496176
376.4684965297967 245.82644280400572 80.78727752616714
369.3152771684323 267.70238482379597 64.78875012187261
364.4885177184759 251.46130358154667 59.948813321060385
361.0306463846351 255.468785800309 59.64023230481094
374.63922638716446 247.50426420745583 69.43107700888314
361.79132847338974 265.17408809934074 68.82334933837821
360.0514668072973 244.1894728722308 75.30771168662685
362.61651971174143 246.98841962927915 65.7016773037731
370.8980903292984 263.5781124954845 60.514889505740896
368.848182438845 263.85711401189866 85.85083598199935
357.6219803125333 263.30026682686463 70.95638421045517
358.302283701846 259.6486315379683 80.5693251199373
365.6468120139222 253.4309290459634 58.848438958209385
368.0588082693683 244.25641614115796 81.52009693896055
371.0222321843838 257.7797845698729 59.19174634807067
363.31930303543055 265.76047347634517 65.99581698311557
379.8908584706838 251.09109865064374 81.29710395196737
386.600792109596 257.51095646618404 82.14105385444574
386.0042110568413 260.4152733122267 75.14451031228377
361.20077676080643 244.38872629644547 80.19342872157964
363.26518401887114 255.28937320368712 58.58671747385355
368.58586112526893 253.56976112196722 87.4213765563201
380.2662392996107 265.63955596879026 79.68848955416757
381.36030558875854 260.8050211079271 84.21905780899317
366.8938863694872 266.52459083505306 81.37245676456389
358.693920236284 261.59182710123076 62.07448185049168
364.86893604677573 264.73318106890594 83.32712110623535
360.6083810004581 252.5284111913377 82.43757471882114
371.7883331557869 262.0858221206939 88.52041293241399
353.43502291840906 258.2693147800442 70.77873237820667
368.29597658473057 243.56432404020987 76.3540918862131
364.58704668989236 254.8050408673971 87.14475605698702
356.7137815245128 255.4460315313352 63.72151301147071
370.75936838121504 247.02191591471595 63.190202883932024
373.85330854520447 267.3068994631505 65.53785917682187
387.6019679160142 258.79987580127477 80.0941533528933
382.0286183427003 251.53288919697678 75.15823262487497
386.80616147710174 260.6334177601374 78.48378600501105
353.91588499864446 260.3810930657627 67.9106408681728
355.10430632354365 261.04296527947554 73.35577554443954
365.1449183206507 267.04221391449374 76.1225265764399
358.6875477428017 262.1251716299647 75.37558037127162
355.2043723136261 255.34282778358084 76.09754144483534
362.8917609288497 248.5539492341959 83.19829423627932
372.60181839618724 270.19349531760383 70.77745878512738
355.0461982674468 259.56898581016605 74.98043724976935
359.9553931115142 263.74878096316957 65.70617388057826
385.90424537829546 258.3392600766964 73.94382857661775
353.79948903633436 257.15632606017607 72.38072436702329
384.51444521177984 259.40589167283645 72.49670129682656
360.0045065124108 254.32572081825413 61.59900578829317
379.0754433438657 265.17340774698994 70.55872324489005
359.18881115250764 248.25378251701846 69.69426074071394
369.06863641251687 244.43852648055554 66.00281778818575
362.2447832912295 252.15088978109745 83.74666011301122
374.8570038092888 245.2374492565136 79.36517581914052
380.15347874118555 259.2413975727041 67.19387918946354
364.91633040021895 261.5198926151654 57.77298815946667
358.34782548681403 248.5828665885685 75.43337185429915
369.00839001916836 265.2846045646681 83.99856582730095
378.2295190714946 261.88458663780494 66.56248726713939
376.5527743304643 247.8417310265314 73.67273115843781
363.256007696869 259.10972754597725 85.97126598915006
376.5780164549988 262.4271730866673 64.89528224185199
385.6584478586786 261.43722346604204 80.20970558803343
370.8612062121173 252.57680626147834 60.261245286412375
360.1284362581581 260.96643343467235 60.016927547615964
375.96386015909854 255.7354889040352 86.6666182985535
372.4817227846407 252.5718908006471 61.79282241916808
373.050794603794 260.9909069889348 61.10172240065139
377.2433003562514 263.013922695763 84.65871396347404
355.2893030085901 255.8684072313498 65.54334256831699
366.6181690249998 243.6042915679403 79.1414432225971
380.5870940462323 254.78399794213823 68.46535069324187
381.6468212361671 258.975512964493 68.78950091498032
379.54242749828694 262.3763062837734 84.04112060128057
376.29529757456993 264.6529512629402 65.92491569304602
359.6089176883956 263.81068299404103 68.80178464136412
376.2160123697622 248.90741642372467 70.4309513575048
359.3683277649199 246.58711888967744 71.25951672721907
359.72135042769594 262.3868996175984 77.0429662721323
377.69083752282046 248.1780589353851 76.27999096099379
377.5970361083747 265.96681197770124 68.8827482735081
364.08171248287124 250.37287306738483 84.07776933462912
377.34397641455854 264.761608760577 83.04840174374507
356.19399555158884 254.28564747978933 77.97670596294185
360.59214189304106 262.5010716285179 61.033005615787765
359.7738604161081 256.53387469438667 82.94098744555896
367.55570486329026 260.51252597494846 89.68628028089331
370.28006688106547 269.8396501903531 71.29163649526342
370.5291649399386 248.63559523054036 61.912625766568055
381.56789383208144 260.91649543852435 69.60306496791969
363.580623721682 249.87331921454236 61.77513192035853
358.50795509964934 249.06307854249658 77.83879142940445
362.632925044647 253.04829901922488 60.42598643037756
374.1651138267878 255.8755916628066 61.68007045413355
373.05805335489555 247.60434486822507 65.15694431644827
372.60013214920815 265.55371423244196 62.70055945335992
361.98867423971086 242.78401238303925 74.81136359507872
381.3627173031344 265.2480840290938 75.32567390138358
368.6668021501752 269.4259969944952 74.1437299217799
376.3681218410527 246.69707896098444 75.5483978588864
359.8576859147866 248.59513113948412 80.53302148937318
379.75075567288576 263.51898845755886 69.06051137588068
368.4085205882498 255.29305176559632 88.35526298039238
374.53002865209464 265.2085318662698 64.21230041700038
364.6773838550848 247.51083841945135 83.47517906595289
383.83493408014715 257.57132209247544 71.94810961178612
368.4153370316069 243.6879126374422 69.82807794493813
355.78229097856376 262.627028573526 70.63316810000573
369.68297341223746 268.65081799707485 66.40224301355481
POLYGONS 852 3408
3 403 104 300
3 332 173 151
3 300 383 403
3 177 112 142
3 426 196 327
3 114 383 99
3 96 234 274
3 146 56 114
3 383 111 99
3 15 99 111
3 114 99 110
3 110 99 15
3 146 218 349
3 349 218 291
3 142 84 151
3 142 112 84
3 151 289 332
3 111 143 116
3 53 270 93
3 56 342 114
3 116 143 374
3 295 355 259
3 173 332 129
3 93 259 355
3 110 320 242
3 274 388 88
3 304 388 349
3 291 109 304
3 113 367 411
3 94 193 91
3 94 257 193
3 292 374 187
3 187 374 305
3 305 374 181
3 320 411 367
3 411 320 337
3 155 112 177
3 241 140 82
3 241 84 140
3 140 84 112
3 116 292 190
3 190 292 115
3 218 367 291
3 241 199 84
3 84 199 151
3 274 93 96
3 96 93 270
3 300 181 143
3 143 181 374
3 96 56 146
3 270 56 96
3 114 242 146
3 146 242 218
3 110 33 320
3 374 292 116
3 96 146 234
3 349 291 304
3 115 337 190
3 320 33 337
3 337 33 190
3 143 111 300
3 300 111 383
3 190 33 15
3 15 33 110
3 111 116 15
3 15 116 190
3 409 98 113
3 337 329 411
3 112 155 87
3 87 140 112
3 193 8 91
3 16 80 357
3 87 357 82
3 87 8 357
3 82 140 87
3 193 16 8
3 16 357 8
3 115 329 337
3 199 241 260
3 82 357 80
3 278 82 80
3 411 409 113
3 115 17 329
3 292 17 115
3 173 322 142
3 322 177 142
3 94 397 257
3 332 289 166
3 199 64 151
3 151 64 289
3 73 363 213
3 151 173 142
3 129 322 173
3 110 242 114
3 141 394 145
3 363 73 144
3 144 73 342
3 403 342 73
3 144 145 363
3 145 144 270
3 322 394 177
3 394 322 129
3 234 146 349
3 342 403 383
3 144 342 270
3 114 342 383
3 363 145 394
3 129 363 394
3 129 213 363
3 187 201 134
3 301 201 305
3 305 201 187
3 104 403 73
3 202 309 280
3 55 301 305
3 104 55 181
3 181 55 305
3 213 129 332
3 213 166 203
3 157 301 55
3 166 213 332
3 157 203 166
3 79 309 301
3 202 280 83
3 203 157 104
3 79 157 166
3 300 104 181
3 203 73 213
3 203 104 73
3 64 79 289
3 289 79 166
3 270 342 56
3 301 309 201
3 201 309 202
3 104 157 55
3 145 270 53
3 309 79 280
3 280 79 64
3 157 79 301
3 320 367 242
3 242 367 218
3 225 194 369
3 397 12 257
3 12 313 257
3 141 145 53
3 426 141 126
3 126 141 53
3 98 409 46
3 225 238 92
3 225 152 238
3 426 327 141
3 109 291 113
3 113 291 367
3 388 108 88
3 365 212 236
3 88 295 259
3 88 212 295
3 328 85 313
3 313 85 123
3 362 272 38
3 297 402 130
3 297 359 402
3 402 359 239
3 369 269 225
3 225 269 152
3 369 180 269
3 269 180 152
3 394 327 298
3 388 234 349
3 388 274 234
3 298 177 394
3 298 327 165
3 250 298 165
3 196 165 327
3 25 196 356
3 358 45 397
3 45 12 397
3 74 152 180
3 152 74 71
3 71 74 239
3 94 277 397
3 277 358 397
3 152 71 238
3 239 74 67
3 80 60 278
3 80 341 60
3 170 54 328
3 297 130 54
3 130 72 273
3 180 68 50
3 100 253 275
3 98 52 194
3 194 52 369
3 12 328 313
3 12 170 328
3 45 170 12
3 304 44 92
3 92 44 225
3 304 109 44
3 38 272 297
3 272 359 297
3 313 271 257
3 257 271 7
3 313 123 271
3 359 154 239
3 239 154 71
3 154 236 71
3 295 147 355
3 295 346 147
3 98 40 113
3 113 40 109
3 98 194 40
3 40 194 109
3 39 70 68
3 170 42 38
3 103 37 272
3 37 359 272
3 402 239 67
3 91 8 155
3 362 25 356
3 250 165 277
3 365 35 346
3 365 103 35
3 52 100 39
3 39 369 52
3 272 362 103
3 250 91 155
3 155 177 250
3 295 212 346
3 346 212 365
3 212 108 238
3 238 108 92
3 42 45 25
3 25 45 358
3 346 35 147
3 66 314 389
3 314 51 389
3 88 259 274
3 259 93 274
3 356 196 26
3 26 196 426
3 154 359 37
3 37 236 154
3 35 362 356
3 54 170 38
3 38 297 54
3 362 35 103
3 26 35 356
3 329 319 411
3 411 319 409
3 329 204 319
3 319 204 409
3 355 53 93
3 25 362 42
3 42 362 38
3 226 125 204
3 196 25 165
3 165 25 358
3 17 331 249
3 134 62 331
3 68 70 415
3 45 42 170
3 225 44 194
3 194 44 109
3 98 324 52
3 52 324 100
3 98 46 324
3 324 46 100
3 241 417 27
3 27 417 278
3 241 82 417
3 417 82 278
3 27 49 361
3 94 91 277
3 277 91 250
3 224 67 410
3 410 67 74
3 87 155 8
3 394 141 327
3 147 35 26
3 130 191 72
3 130 402 191
3 191 402 67
3 72 191 224
3 224 191 67
3 92 108 304
3 304 108 388
3 267 192 50
3 355 126 53
3 355 147 126
3 126 147 26
3 314 336 267
3 171 192 336
3 336 192 267
3 106 404 72
3 404 273 72
3 277 165 358
3 126 26 426
3 50 192 410
3 212 88 108
3 224 419 41
3 41 419 171
3 419 192 171
3 130 273 54
3 54 273 328
3 329 245 204
3 329 17 245
3 245 17 249
3 212 238 236
3 236 238 71
3 236 37 365
3 365 37 103
3 123 379 268
3 268 379 23
3 7 235 16
3 16 235 80
3 7 341 235
3 235 341 80
3 106 195 86
3 257 7 193
3 193 7 16
3 86 379 178
3 178 379 123
3 86 178 106
3 178 404 106
3 278 185 27
3 27 185 49
3 278 230 185
3 185 230 49
3 85 404 178
3 178 123 85
3 158 200 117
3 23 205 22
3 22 205 86
3 23 379 205
3 205 379 86
3 177 298 250
3 328 273 85
3 85 273 404
3 101 248 254
3 137 209 303
3 200 105 117
3 117 105 230
3 200 153 105
3 105 153 230
3 209 385 412
3 186 226 385
3 206 227 307
3 307 227 222
3 206 132 227
3 227 132 222
3 341 188 60
3 60 188 117
3 341 376 188
3 117 184 60
3 60 184 278
3 117 230 184
3 184 230 278
3 230 102 49
3 49 102 32
3 230 153 102
3 102 153 32
3 395 222 132
3 27 406 241
3 241 406 260
3 27 361 406
3 406 361 260
3 260 427 199
3 199 427 64
3 63 162 48
3 247 90 210
3 86 348 22
3 22 348 208
3 86 195 348
3 348 195 208
3 308 118 210
3 210 118 247
3 308 248 118
3 118 248 247
3 22 75 23
3 149 29 139
3 29 90 247
3 36 24 133
3 133 24 308
3 36 159 24
3 24 159 308
3 206 69 132
3 69 76 149
3 134 294 187
3 134 331 294
3 294 331 17
3 36 421 159
3 36 75 421
3 421 75 22
3 89 158 229
3 229 158 376
3 120 174 258
3 258 174 206
3 308 211 248
3 248 211 254
3 308 159 211
3 211 159 254
3 97 401 392
3 61 124 62
3 62 124 412
3 61 57 124
3 124 57 412
3 260 361 20
3 400 172 195
3 195 172 208
3 400 21 172
3 229 183 345
3 132 378 395
3 400 371 41
3 400 195 371
3 371 195 106
3 233 29 247
3 164 148 78
3 164 77 148
3 175 414 422
3 422 414 83
3 175 202 414
3 414 202 83
3 89 58 158
3 158 58 200
3 89 401 58
3 58 401 200
3 95 210 182
3 28 48 135
3 97 392 18
3 90 14 161
3 254 119 101
3 119 21 34
3 380 11 61
3 61 11 57
3 380 31 11
3 11 31 57
3 139 10 398
3 395 378 160
3 160 378 219
3 200 9 153
3 9 77 153
3 208 421 22
3 76 14 149
3 7 343 341
3 268 189 343
3 101 6 248
3 248 6 247
3 101 233 6
3 6 233 247
3 302 310 32
3 32 310 49
3 310 361 49
3 219 10 138
3 61 136 380
3 380 136 422
3 61 175 136
3 136 175 422
3 89 81 263
3 220 5 13
3 5 233 101
3 43 127 395
3 395 127 222
3 43 137 127
3 127 137 222
3 78 156 164
3 249 4 412
3 412 4 62
3 249 331 4
3 4 331 62
3 161 3 90
3 90 3 210
3 161 182 3
3 3 182 210
3 23 1 268
3 268 1 189
3 23 183 1
3 1 183 189
3 107 0 182
3 0 392 263
3 161 2 182
3 182 2 107
3 161 150 2
3 2 150 107
3 119 34 13
3 219 138 135
3 209 137 215
3 215 137 43
3 268 271 123
3 187 294 292
3 292 294 17
3 398 65 139
3 139 65 149
3 398 69 65
3 65 69 149
3 317 10 139
3 208 172 167
3 167 172 21
3 182 0 95
3 95 0 263
3 167 254 159
3 21 423 34
3 34 423 66
3 21 400 423
3 97 9 401
3 401 9 200
3 263 387 89
3 89 387 401
3 263 392 387
3 387 392 401
3 77 312 153
3 153 312 32
3 77 244 312
3 312 244 32
3 345 121 229
3 229 121 89
3 345 81 121
3 121 81 89
3 125 350 223
3 350 256 223
3 275 425 28
3 63 48 425
3 425 48 28
3 51 347 389
3 28 135 347
3 275 252 70
3 275 28 252
3 162 63 256
3 381 78 18
3 389 330 66
3 66 330 34
3 389 30 330
3 307 246 206
3 206 246 258
3 307 231 246
3 246 231 258
3 160 48 162
3 133 228 36
3 133 81 228
3 228 81 345
3 389 347 30
3 125 216 204
3 204 216 409
3 216 46 409
3 66 423 171
3 267 276 314
3 314 276 51
3 267 415 276
3 276 415 51
3 36 261 75
3 345 183 261
3 30 207 13
3 13 207 220
3 30 138 207
3 207 138 220
3 171 281 66
3 66 281 314
3 171 336 281
3 281 336 314
3 189 326 376
3 376 326 229
3 189 183 326
3 326 183 229
3 34 330 13
3 13 330 30
3 228 345 261
3 261 36 228
3 68 323 50
3 50 323 267
3 68 415 323
3 323 415 267
3 70 240 275
3 275 240 100
3 70 39 240
3 240 39 100
3 100 217 253
3 253 217 223
3 100 46 217
3 217 46 223
3 101 198 5
3 5 198 13
3 101 119 198
3 198 119 13
3 120 197 19
3 231 316 391
3 48 179 135
3 135 179 219
3 48 160 179
3 179 160 219
3 171 360 41
3 41 360 400
3 171 423 360
3 360 423 400
3 244 169 368
3 368 169 122
3 244 279 169
3 169 279 122
3 70 252 415
3 415 252 51
3 97 163 148
3 148 163 78
3 97 18 163
3 163 18 78
3 78 381 156
3 233 168 29
3 29 168 139
3 233 317 168
3 168 317 139
3 41 344 224
3 224 344 72
3 344 106 72
3 7 271 343
3 343 271 268
3 254 266 119
3 119 266 21
3 254 167 266
3 266 167 21
3 46 232 223
3 223 232 125
3 46 216 232
3 232 216 125
3 204 245 226
3 32 221 302
3 302 221 368
3 32 244 221
3 221 244 368
3 398 418 378
3 378 418 219
3 398 10 418
3 418 10 219
3 206 353 69
3 69 353 76
3 206 174 353
3 353 174 76
3 208 338 421
3 421 338 159
3 208 167 338
3 338 167 159
3 263 262 95
3 95 262 133
3 263 81 262
3 262 81 133
3 122 311 214
3 214 311 299
3 122 279 311
3 311 279 299
3 209 283 303
3 303 283 57
3 209 412 283
3 283 412 57
3 31 264 57
3 57 264 303
3 31 316 264
3 264 316 303
3 51 251 347
3 347 251 28
3 51 252 251
3 251 252 28
3 47 176 364
3 364 176 120
3 47 197 176
3 176 197 120
3 412 385 249
3 352 197 47
3 95 384 210
3 210 384 308
3 95 133 384
3 384 133 308
3 222 265 307
3 303 316 265
3 10 372 138
3 138 372 220
3 10 317 372
3 372 317 220
3 50 375 180
3 180 375 74
3 50 410 375
3 375 410 74
3 161 306 150
3 161 14 306
3 164 416 77
3 77 416 244
3 164 279 416
3 416 279 244
3 392 340 18
3 18 340 107
3 392 0 340
3 340 0 107
3 59 373 31
3 31 373 316
3 59 391 373
3 373 391 316
3 77 339 148
3 148 339 97
3 77 9 339
3 339 9 97
3 132 290 378
3 378 290 398
3 132 69 290
3 290 69 398
3 369 396 180
3 180 396 68
3 369 39 396
3 396 39 68
3 30 286 138
3 138 286 135
3 30 347 286
3 286 347 135
3 75 405 23
3 23 405 183
3 75 261 405
3 405 261 183
3 150 284 107
3 284 352 381
3 192 419 410
3 410 419 224
3 120 255 174
3 174 255 76
3 120 19 255
3 255 19 76
3 341 285 376
3 376 285 189
3 341 343 285
3 285 343 189
3 197 243 19
3 150 306 243
3 243 306 19
3 117 188 158
3 158 188 376
3 220 237 5
3 5 237 233
3 220 317 237
3 237 317 233
3 243 197 352
3 107 284 18
3 18 284 381
3 371 106 344
3 344 41 371
3 149 333 29
3 29 333 90
3 149 14 333
3 333 14 90
3 231 424 258
3 202 325 201
3 201 325 134
3 202 175 325
3 325 175 134
3 63 425 253
3 253 425 275
3 131 288 302
3 131 20 288
3 288 20 361
3 381 354 156
3 156 354 47
3 381 352 354
3 354 352 47
3 186 407 226
3 226 407 125
3 186 350 407
3 407 350 125
3 303 265 137
3 137 265 222
3 62 386 61
3 61 386 175
3 62 134 386
3 386 134 175
3 223 370 253
3 253 370 63
3 223 256 370
3 370 256 63
3 260 20 427
3 427 20 83
3 256 350 413
3 413 350 186
3 310 302 288
3 288 361 310
3 131 393 422
3 422 393 380
3 131 128 393
3 393 128 380
3 249 382 245
3 245 382 226
3 249 385 382
3 382 385 226
3 20 351 83
3 83 351 422
3 20 131 351
3 351 131 422
3 47 335 156
3 156 335 299
3 47 364 335
3 335 364 299
3 256 413 162
3 162 413 43
3 150 334 284
3 284 334 352
3 150 243 334
3 334 243 352
3 59 420 122
3 122 420 368
3 59 128 420
3 420 128 368
3 395 321 43
3 43 321 162
3 395 160 321
3 321 160 162
3 307 390 231
3 231 390 316
3 307 265 390
3 390 265 316
3 215 43 413
3 413 186 215
3 64 318 280
3 280 318 83
3 64 427 318
3 318 427 83
3 214 296 391
3 391 296 231
3 214 424 296
3 296 424 231
3 258 315 120
3 120 315 364
3 258 424 315
3 315 424 364
3 122 408 59
3 59 408 391
3 122 214 408
3 408 214 391
3 380 377 31
3 31 377 59
3 380 128 377
3 377 128 59
3 19 293 76
3 76 293 14
3 19 306 293
3 293 306 14
3 128 399 368
3 368 399 302
3 128 131 399
3 399 131 302
3 364 366 299
3 299 366 214
3 364 424 366
3 366 424 214
3 299 287 156
3 156 287 164
3 299 279 287
3 287 279 164
3 209 282 385
3 385 282 186
3 209 215 282
3 282 215 186
