# vtk DataFile Version 3.0
A great-looking cell
ASCII
DATASET POLYDATA
POINTS 612 double
118.03205527972068 109.872768042764 59.031626217610736
118.27409499466793 108.7029398159052 57.57570723776929
118.77360620926149 110.69091548051402 57.837678018072914
117.55845507772499 110.22861376442754 60.60812300887289
116.95145651126228 108.85459855035543 61.77153996506688
117.92762469671138 108.22119723688927 59.83706966283265
120.18211469335179 111.37959439838656 56.71218013257336
118.4970333666342 111.39611894994306 59.57627588972017
119.38736133931482 112.93033847831472 60.33218914732836
117.89567515251457 106.24988881798342 59.876595760506966
118.48162136046922 104.89688519671971 58.82418702344472
118.1766661305459 106.71858916447005 58.22010929563272
118.72636558443362 105.57648668117416 55.1245659325335
119.35603740270759 107.97137820685066 52.77740766783181
121.99172671148084 111.52355301946892 55.680251329148625
123.40205693365117 114.41222745865731 57.699596934514744
121.52610829738326 113.08557407624569 57.46571686384099
120.77041594090406 113.74298240431754 59.40907903343329
118.905574744125 113.70678048464235 62.09266742054662
119.38496370303064 104.31560569158351 55.88712457316084
126.46770064703904 104.75187714876142 50.65171709839499
125.72000118035015 110.16418733177255 53.02037380048195
129.52337568077147 117.76216290416119 61.406575452668214
123.86064660855862 122.33839123779651 66.15956520608728
123.28240907009034 119.31516713516642 61.62453387453287
121.30940217409564 115.53078438355283 59.9537464045364
120.44590871065378 117.88177194857134 64.3257996005722
119.591349170678 115.43712508761794 62.59028148459104
117.19147743487598 110.73008344122783 62.51362542448057
123.8707652613606 96.61541164475403 66.49279449526385
118.93773030744879 107.20966608290655 77.28447155848974
121.512919640972 105.31524932089164 79.87852806510774
119.67369792805995 120.1405231010174 66.63502571824563
118.46841412822428 115.45951862127473 65.62277099280855
118.60949961547206 114.59285696432741 63.839438918052764
118.06682979765198 113.79581055825942 65.15770265618997
116.72433665883189 109.42307370876868 63.46628241647588
117.05854424455582 110.75630485557271 66.4054835589968
117.11109406033492 110.8138632579658 64.49136830232597
117.96739699018136 105.68487907289422 66.49451000921763
118.45942502013628 106.12306956593893 71.14945510208089
119.7102597025883 104.15046951187048 70.15779836235511
118.41396086450303 106.87627894584993 73.23376652006503
119.69811974758943 106.11943951211141 75.05764413432026
117.15420479683796 108.18775938096827 73.53415976598329
117.89809298662617 107.82789755619524 75.21565346609125
116.75998679445709 109.00434927788953 77.43818435062687
115.51762842853589 111.0702661992003 73.73046749179477
115.85690502948208 112.94156815755993 72.46364333458041
115.58797008481645 111.30775352837581 76.25148078107895
117.18954207863398 119.17199556990863 70.53895904696985
116.06940456999668 114.0686261227825 70.66194089765426
116.90324263672201 115.23286614224989 69.1053617639295
117.65376895878367 114.05811146942877 67.04550999193891
117.55089172570034 107.43980095591154 69.53088106620538
118.39756968250838 105.6745940011905 69.39351881445522
117.46316168851226 107.9580868951786 71.7598766433978
116.21038593770851 109.27129196013625 74.82319951695939
116.23906533358404 109.37765217679893 72.63869554307365
116.1455081208575 111.00321698064784 71.94558487603858
116.76674317024437 113.0605639158541 68.798602462725
116.97461756807299 108.96529415465137 68.5898305112914
117.32157846636188 112.19960553309133 67.30454386266732
116.8537832651557 109.38678880037469 67.2013106033083
116.65792789776931 108.89257135739538 65.31263828592861
122.62521924370604 104.24452134361924 76.52380545447926
139.92019881148272 117.71703890186565 68.76344625510198
128.8893571520816 107.0361031526929 85.56414312277124
137.61454731340442 119.69447106156292 66.60710641753646
137.23857883953806 120.42814889749047 72.25430097864225
129.2612408347265 105.05110317218947 81.84693700478451
139.00416753080196 117.91490191660398 74.83402303260101
128.1636152893872 122.32635962558032 74.84054000298508
127.22730969194535 105.84022234483638 84.16971105367521
140.0888409025719 116.35484176624588 67.93077688712597
139.92301530408773 114.84049435610385 69.34172681883287
139.14942643305866 118.71789166557656 69.61220351925908
133.96816290141425 121.08329080661268 73.7511920911658
138.831630906379 116.50826992594506 76.18591527796518
132.7887791767259 118.9222787118205 82.1227493533795
139.1388543522889 118.2863108406188 71.5973395621085
123.35040419917762 105.08284477417034 80.63031300137278
119.74195931581318 106.54148430585585 79.43082103707208
138.49671265235835 108.68210972073308 72.82625519459182
133.91788598315378 119.74641161861202 78.0973169388236
120.64497350153542 106.49007376083017 80.77668068780963
135.94594501014478 110.55092951474948 79.73897525822183
132.48395121314377 120.19180716565019 78.88149604436295
127.32718394662915 119.72982937066347 82.14880796941955
123.26828385556844 108.72046865187725 85.18636056302732
120.07265600259996 109.66312522207893 82.7050759567216
121.98013529170719 113.10081714953057 83.51055365729971
131.7711970561961 109.38991322213538 84.35077471188256
136.92962256017066 105.47416505507839 73.03840217424577
136.157146498238 113.0779466421579 79.8704028165337
118.51586434355444 121.72680142361857 71.02636607321553
135.3327230805418 107.23879971773127 78.28430645001849
118.72072221543979 109.55202973688836 80.4802148642747
117.89251930253715 121.37209000288208 75.07657903846668
133.92949595329426 117.25236422191037 81.99148317909214
129.4899486108666 118.31149007051918 83.42793610662686
127.72790061195082 112.92574676064568 85.73037904394225
130.8736428200777 110.77951804481673 85.26438278516146
130.94441652491665 114.57309949833731 84.47808936138767
116.08114392103813 110.80585571457884 78.18320897720407
117.82729598144601 120.09531006036075 78.31973026555701
116.5195755936309 118.52596523808631 72.36218523614136
122.8297720214525 98.59496991410836 70.17041469089698
125.89703880710314 112.56116059675648 85.10121497487782
119.39855517233877 110.70922278787388 81.39522537279447
130.7465251645969 105.44484476446705 79.82649302693855
123.21456982269167 124.2695990867377 75.89260351834791
136.76565777122252 120.22100061267571 75.25588567026966
127.51868849036806 118.44301815154225 83.51517775635554
115.9028464806381 112.66883691104888 78.49195797179334
137.44069128852504 107.86071220107918 54.54395556542844
139.74130297522083 114.50342347835944 71.3935656868385
129.09804130565377 97.93131260631456 75.61529692298578
129.5479536710763 113.23219381797512 84.91713410380318
125.126235180973 108.00877506141636 51.761377568208665
136.93956105945776 115.4021072853646 78.21685139083048
130.20871600813177 121.19388932256523 77.9485149650859
121.57033184272716 108.7412349608909 83.68408495925314
120.43424635848498 123.15465185955398 75.5821273031451
120.14029498467056 122.7822216323646 78.76003435418677
133.22542097125242 119.49707164105365 80.39501749596427
132.0606211107899 104.80035742096236 77.31463420346142
119.86629921836735 113.32163881607292 81.96904291927176
132.92720504217078 110.56869025767031 83.5394495715493
117.16185240536505 119.71803919176993 76.08543371168867
134.49241286545427 97.74974786539588 54.55716315883126
140.15792010732895 102.86136471986379 65.33512527278494
116.72790130858563 107.43533788590908 67.24983815416611
126.28153680061469 103.02791612749905 51.247964729829526
137.7464752124255 109.55724678774988 76.50410872963943
137.20699274802473 113.41789327138724 78.0550482790258
118.30070076792931 120.6782371551862 68.77514159580896
119.24069815400098 121.2243780673978 79.93637635299449
137.66052967468468 97.50956767479448 71.36773961929123
138.25993013056353 119.34457424805949 73.51259362063392
121.53056235567043 123.50040417827542 69.50575717555759
137.43869837132993 120.27298382896014 68.5875411642973
126.29815917258928 103.22691101215332 77.87194543586514
129.58972328084195 99.375577474891 76.49190330490434
134.44377785922825 120.96408222525784 75.7376369410894
124.72308371591812 123.81243621806333 70.3947748375307
128.19679452455102 95.57265394646518 72.38004585793
135.8035828876505 113.4272687550831 59.17217467389667
124.66376577586428 103.89644238453882 51.113139903398576
127.80541356873576 102.18238646761782 76.50921992720447
136.90863027634535 108.83109248798621 78.54346607107777
119.7453443825532 102.57294402076583 64.13862719928534
132.10493221701472 115.57949916883365 83.51172112682404
130.31163952374482 119.245899512835 62.91816010790854
131.06209725514543 106.00584093917192 82.44397563835919
125.57488200902883 99.60589625486415 75.30893096888961
131.34048122631626 93.99423825468509 65.16533600527065
121.6223812870035 123.82219229637981 77.33453817370636
124.718784963665 123.84245427523057 74.85905226630219
127.896326585763 110.8529471613369 86.15339558942401
134.91200524280262 111.1264960318985 81.97017553590685
138.05788870716145 118.78031325238733 75.95878768361185
138.02012485775 119.77111637641883 71.0938254180375
128.5343376996693 121.68117371260608 78.66965341539736
127.24568300153969 106.49472329112268 85.67087568754987
132.33500673549048 95.6291979218764 72.69250658313493
128.67152533081872 100.10564857606907 51.46938653896872
139.92218320189681 116.74001536654663 70.31204056213011
129.45408632425236 116.15264742900791 84.09356004094508
131.87862806493956 120.66522795081981 77.2325805622711
131.30591216163384 97.86928964866634 52.93610051769518
125.93062137104788 122.73000301430021 78.95654281115536
131.87140640832644 120.9141762834236 74.20148367555694
133.64532979748702 121.2016391275035 71.69425290996125
127.9032370322525 122.62163706130495 69.91374104743734
122.05015115234495 123.96097164018644 74.14360544741156
132.13562000402894 113.01434401431791 83.95230497995539
126.82944951000017 97.75675096711566 74.1663758757687
131.99873346089248 121.18980272817309 69.20714487415532
129.3770961009277 120.23975529874723 82.41837363421212
138.98628197813306 104.95084926426682 55.24411906926466
121.75886671834131 122.12436962853056 79.90843040747075
135.2853851583266 115.51275578117568 80.26926512604635
130.86606807800842 120.73738682216334 79.77900694007863
129.544556177295 121.63247492014155 76.10654635169125
129.27501016537096 121.92997405688804 73.57138544095187
140.09307407410043 104.39398885381047 61.93815719156804
121.09885368064229 111.06425504504666 82.90303244456102
138.82736895841458 108.67467211248953 62.142696413973916
131.72325610050007 119.92407045687467 81.86318849202632
136.21117791852222 119.56864391220954 77.260805273247
126.86452035070788 122.64620243727087 76.27146696054696
125.20169834745384 114.92725521347278 84.48453333496298
130.23506986042645 108.23377234087322 84.87880622003651
115.94134708099222 114.64254155243442 72.11906220398623
133.24333538242917 119.67165659033414 64.93879431314497
139.9761660732864 103.87452625667635 58.54749924212694
118.50840851384027 116.63471121976882 80.3553007853657
134.97370242205258 94.55018380698573 63.093801042306275
138.85709375060998 107.8814788029919 65.65660104306679
124.39635914935461 122.06360615284477 80.9812515952226
125.24113953763559 122.24682122738015 65.02554636479023
128.5252310340098 122.55297066445517 71.36953252754088
130.71017327081708 121.29853148802425 67.23694480060915
127.24763826251318 122.64948655186492 68.49996179609265
124.41885185473652 124.0539630775702 72.2394556125584
131.60736917433277 118.43232876173118 83.74069421776268
128.68534713781432 120.98555161423336 64.55522855905477
137.43391855827082 111.48204876149514 77.86049179465063
130.5795462306517 94.39368782230159 59.113448718057654
126.16370606685695 122.5675945546674 66.40876028719515
123.03700964682672 123.94361665646892 70.2409411439242
124.74216148669677 117.47950999007311 83.66673210148464
130.49230256459444 97.24671009380056 73.57266912166573
139.69894469235695 116.55195123525176 73.38637569719
118.91732602245489 122.12502498913483 76.93418139248828
127.15924335278116 121.20829372320492 81.0040034314252
136.59352308921456 100.2114145014742 72.34440078792163
124.53385244558446 105.73309129771516 82.25755397209893
127.69811985560601 94.83884774739333 58.07473817653256
137.71474577191924 111.69482126973476 60.39932672777019
121.56718840010682 121.827903764944 66.34331011010374
135.61105739325967 120.31244013894127 66.11474642857645
130.73470719151166 120.57252900374274 64.67369222131033
138.9677938949184 107.26090246905261 67.35550205938993
127.46228412766295 114.32680645956682 84.69954267396062
138.80962997393104 108.2780844764795 68.79959853541966
138.8362162266761 111.77075475785584 67.11372006306199
126.17684628083859 96.549439110265 72.92478758992587
126.80286316551269 121.40226805440462 64.34958039605843
117.22359337500261 120.31913881371611 73.30064469617191
139.67985213342635 106.2237158878155 57.60160925306708
125.7151541964761 96.71364674018062 55.15787006114216
129.24658427934108 94.13020199043733 62.0256003091053
128.31888385484228 96.17773723661723 54.58770123318389
126.181515537858 95.33061975964584 58.64250380499168
133.44652911658437 106.17732839546723 79.09428175982517
129.39003370130706 121.93937679096943 69.16632379468501
129.09201340230604 105.99311776042792 84.0891518589653
134.42839250859373 105.88377992452698 76.69263879271176
135.90087850056847 120.91490701449571 73.34592354526602
138.37241758919353 96.7679082375166 63.453390229540716
139.28315173379457 114.18034406543069 67.36013163037325
131.57815686116967 102.47649240862012 76.57189722686223
129.2382638724557 94.75254188092265 57.594464643384434
130.15764002448523 104.15189702229466 50.888618959506175
127.1418513425042 101.08451900884198 51.15316381255866
120.90537385607593 105.13387424300646 77.35041263840516
130.7434952163463 110.70979142210484 53.30293472559329
118.5626731946892 105.30077823193932 56.942334245568915
139.52087685271152 105.35525823054014 67.67385532110298
140.04211871807513 99.920511930509 62.82758118920995
121.01256367798804 114.46499503834468 83.20632936853323
138.38056623927636 108.13286687209532 71.06892186979984
136.08753169043453 95.22900966631771 61.14298629747336
118.4825038744045 104.75761377245684 61.17152648772809
139.95658368214222 102.32136618276832 66.66497197440206
139.4564546758359 104.2154466677722 69.71046489357207
135.42702997974823 104.24256610346664 52.01509013488493
140.15334807264693 103.11743092696457 60.02926437800539
139.8456770130254 106.61600419086297 61.96366696619184
137.8961053608329 98.55187521750808 57.79748726144889
139.88626800725035 100.25184022935206 66.90108153998315
139.32855568974534 98.68338884615689 61.49948798747528
138.33383316204137 109.33635063073002 66.8568882663043
122.21081185563622 117.96444852319168 82.97489543844874
135.66601978526398 96.32077451804889 57.44105373913108
140.36129460397186 103.4375447925607 64.0276277058833
138.99639008488177 99.92264450446972 70.1883287408626
136.966600985647 95.67580400207422 66.31529988220566
139.21391677830738 97.97927071999183 63.252391053229545
138.91327720709165 99.94260096243404 58.30115835231186
122.54811211602946 124.12047701247175 71.97821709517213
132.9733282889721 94.3125565803309 68.87548139150638
138.12998310688337 97.06797156991664 67.59831392925904
118.82173890446624 104.09523823424996 63.49721920159391
130.5209100551708 95.63698511361936 72.90797137051321
134.603206105578 94.6277205244369 67.83240952317124
133.85443934459843 95.92757337713165 72.06104342564971
133.6646630483921 98.83292094888829 72.80810991408757
137.02831458482976 95.60942753978436 63.75722121637488
139.53027506008945 104.63434608520076 57.06147883569867
134.92145666122093 103.90291373695413 73.89970234550718
118.37188718006149 107.00490782243496 56.352722518497266
116.1334289146782 116.26859337113095 76.224835704622
136.78609569649413 98.62070149918388 72.25223056984292
138.31708920678128 98.7286068289133 70.79821074776049
138.80794019152876 102.90505946865785 55.060376923954955
132.8689001984532 99.27622673181394 53.17683013700256
132.56055628184095 106.70643628361525 81.09087423073112
130.1573397199989 94.00406836614849 66.3358075521208
138.8403248615771 106.69263170272782 56.023226956804876
136.19160377209747 111.49161433456163 56.136011667438225
135.89753725614605 107.44728077833066 53.03167635587723
134.15636336986998 110.23131427055561 53.944671614861214
129.30837173326012 103.81650376319475 77.4542224102533
132.66468835835136 94.08296416041931 63.83598901067808
130.60421848452432 98.51273552456017 74.6128101086597
134.86129567401446 108.20891657482063 80.85202516538244
123.18286570939733 97.94421091560504 58.831338560963715
136.30248348926645 101.62235974817618 72.18749404559057
123.7741915509157 107.42105828244249 83.76302126755851
127.302362574948 98.84141706616026 75.52037494583085
132.68902374458557 101.80267827081151 74.93486798565358
120.2834001258574 110.56259366066028 54.83838938770174
138.64984663277565 113.7590203955895 76.55876668086914
138.2288864735715 109.05108453710787 74.45545261532894
129.3800699332822 94.35280796948193 70.78015642561267
134.51318012964967 94.89840093937036 70.1066179507024
135.00864284781926 94.6333686104179 65.5170964000331
124.17905217519699 96.33969282424894 61.97371944728007
132.25967567107767 97.53187658650198 72.86264052998382
136.34557166415797 103.86114118416826 72.84075700939519
139.3636804248933 101.56531962701298 69.19321653007975
131.06909859439858 109.11569221228564 52.06088640918764
139.48743718750129 99.21357561778798 64.92834733992056
132.55238704406895 94.07727828903822 66.61559078507422
130.98228331287373 94.21165096829858 61.37653160621791
129.21906501028934 109.56351182725918 85.41696218755891
134.97845414889767 99.94667220265674 72.5932085465957
140.05293095364328 104.20963868351826 65.91444460007091
137.84919982744992 100.5132491407979 71.26466760272295
127.82069684984113 94.4154547525972 65.47158208999696
138.46742776114624 109.90580123750046 59.79094983560445
132.82130240742046 99.91604805193448 73.87867817819331
128.40772684501238 94.36406946290094 68.18962058060359
127.21979889693537 95.72862697574797 56.198223689943966
131.90464035138805 94.99725624495035 57.153446134114006
126.13109089512847 98.2936841321907 53.0654022513715
132.8276431024666 103.80476047188773 50.7609723116793
132.08824202256739 96.74714141530458 54.505546591679646
138.23937859770552 105.41211933747013 71.70934039439427
129.73121119160737 95.47938316438633 55.32959883952665
136.4237703134665 97.7514297034709 56.256135421980574
127.58576774231221 98.50002867992043 51.80584862318311
140.41209661649503 102.135307202727 62.28662440359676
134.26464284826633 96.28704487085427 56.324025211989834
128.6450872112099 97.22538269223045 73.9981905265651
138.6531689621709 98.45955262025475 59.674658138558236
133.57015559350037 103.86986174829599 75.22315519234047
138.3700321752969 97.23063078416598 65.15103159924566
126.6405614424806 95.36282822007551 70.3894203716133
138.05758484676167 109.61410744100006 56.570498883836514
129.60346621708942 101.71341213260585 51.31747973697516
138.36759443601497 109.197408071328 64.36568012059128
138.08510908450887 102.84110743636445 71.31161359981088
140.1003030391897 101.44826376798648 64.71490338863177
139.3583396852107 112.70287289435637 69.78726737081705
120.1142823832437 122.46429376634607 68.62388083573443
125.36018766092563 120.11876955584627 82.84796978595487
128.7713310268591 112.3308423307056 54.2319364931109
124.77627987035171 106.03329778298223 50.956845082824074
125.33613743653727 103.93011135147674 80.57580284329923
124.22853213951946 103.11562343329487 75.79814513807545
139.65584278717313 103.541916438357 67.8300655705964
134.4121140395943 111.52084163156702 54.95114642184057
122.93151014731863 107.33840214768678 51.023459312338694
123.61548941665299 119.12554047417242 83.22993275467778
134.39407997243518 102.19927349072074 73.4892174051325
138.0946946286569 100.23346086133269 56.12606650801148
135.55150645421648 114.14886031235329 62.71413892343591
133.7016321897684 114.50601044755425 62.13952719674153
138.09390684874845 110.9864190386027 65.11291848016273
116.78433929324717 107.67826077721675 63.347097473464665
127.65335655372414 118.64775375163403 61.99104729308587
126.91508226896876 106.66512855453216 51.346587229679926
138.7502359406966 99.06139656732034 68.73914744772614
127.05355751085156 97.25781655915127 54.0732601559697
135.82102281362452 105.88312009360857 52.45739331028836
125.95538588448417 95.40387196957835 67.36954150610286
119.00492407895209 109.91665274415188 56.143341300135326
127.08180406512113 113.8471343985282 55.67411146593896
134.51405121548706 95.26851658642951 58.7298952805155
139.46125700070075 107.77812870448817 60.30563127462129
130.67798711262677 100.91691410249838 74.94899835026504
136.68267690901064 113.05594143451509 60.86869476586922
131.4056004827958 106.39263448186266 51.11241274298447
130.36642672050908 99.1238980088125 51.56620902761869
124.97488415652634 101.87121308819604 51.72452121066693
128.0083571430151 103.32474770325491 50.76129207651852
132.44757934245442 114.14323688470733 59.057699380601626
130.54852977584332 112.19663655430459 54.4323526326303
137.28425648076265 105.30221383683775 53.90929277988061
138.91419073928006 110.1424572106421 69.30779419256335
136.40277809789893 116.11510538025694 64.20020375271298
134.384480790276 113.16161795990622 57.400673643576226
129.34577851331113 114.84382215467022 57.42175038544005
134.96737246575222 118.41453366722189 63.88953407737848
123.25650222570992 99.99644643897275 54.854330346705126
122.48976718387995 122.95525757771995 68.22008825384262
133.83648569041952 108.8996545598404 52.73434188820216
125.86184980534911 95.18261151399523 61.23353518406429
128.14911078972187 108.38532096952646 85.86542707802596
136.4784039484978 95.60321794971884 68.65965014240449
120.28323561949207 116.79446129957795 63.061950377653645
122.56778164558021 120.25850957063105 81.8721827765877
125.60880682097894 106.11067745472496 84.31613774784216
123.3646306014625 112.75138276466954 56.490716137311196
134.7357747436157 121.4536871878898 68.8153608160822
122.41786355428142 115.50755526572887 84.4576067962955
136.3288920918359 96.23286089375762 71.47911264141754
134.38234929591786 114.08600938983312 60.35615868306496
137.37241836712317 117.73778574675431 77.65012578462108
132.55415160025757 110.88994895607237 53.62407105028426
138.94644431677364 110.77258219916338 72.2797018321437
129.9934731404333 115.87679894397739 60.39623828605477
133.9644000199067 116.00312086267066 63.197088571942615
128.82586029998996 113.78834992844367 55.444505591691886
116.08896109327871 115.13999688876369 78.35217282141278
137.10408452195884 112.07921556549749 58.47483823137741
123.91760981989252 110.41376754671732 53.22223584322272
130.57160271077151 115.02239533894418 59.03748652073741
121.22696663492867 104.12236254959912 52.42334393522789
116.844009489237 117.26706784671609 69.1730874550348
132.12711160704833 94.63389002079666 71.01454067640003
118.31843957108026 111.8808975856988 61.47348324202475
128.80466707613277 110.47990827026783 53.32897977133821
139.96063023014844 105.41957876774872 63.93148407587408
126.99877836922488 105.17886397025148 82.50293106096298
124.05949182692899 121.6322743091697 63.584505445379506
125.3215245863783 113.86007157339978 56.21022994881392
128.39971642113497 94.47630042124719 60.090446374369165
126.88380855708559 116.19170893964633 83.84562175668476
134.38910300422341 101.74911677278264 52.2691143857544
121.21080301535994 108.85459693966875 51.68348926351141
118.73268956348043 112.25125965734009 80.68754100916838
119.90231187145375 104.85996137117309 52.54492022410362
132.67710044850045 112.48034361342098 55.320283712113095
127.38695886802758 114.91627772147578 56.975895952989
137.75640459147422 113.4540888248715 64.63649110250502
116.45481427757892 117.92857998804998 76.22879984321041
125.38123672652979 99.68104152023528 52.47509345887299
133.98333591615796 106.3409163634675 51.95985012199041
132.8653926110214 120.97066960129649 66.75349696985788
124.38425565237358 123.65691569823964 77.11266563532462
122.04499688303909 106.50486347772258 81.94713257387723
124.41072728879051 100.66531704091922 74.34677316559566
116.7647334383631 115.97062619344325 79.84844759046804
138.52916811434085 111.31949155187266 75.26155431628594
136.27040318858235 120.96940825832282 70.97452480429489
120.43009371905428 118.74416546331354 80.96044503917582
118.03063193123144 112.5252518090868 63.61715371941842
138.68337568769638 116.20059064427437 65.78434159762911
135.78940758807352 109.6448285142947 54.46359646458648
132.45448775457405 108.0560784171374 83.11528552136312
133.39293613972893 112.14717030054558 82.7205838299057
137.1605256081408 96.5049149039852 58.75690834453033
118.51016352049163 108.44331876460652 55.78913513917694
126.04310351863967 100.98513243455288 76.34486017451255
137.9211810218492 97.15672408252405 69.84686639350254
119.22429536509689 122.56307702272157 73.91168861168737
135.61566144669695 105.51769859242603 74.31334264247687
139.79331205637877 100.57092165721225 60.29958755200654
116.38650334388026 117.78893626301961 74.22598309800519
129.13449459610507 108.9077109675917 52.152243038590555
126.92282473335602 112.45662941858325 54.44126521615643
127.69771271399294 94.47720180461134 62.815236370500735
136.978123643447 102.43400984259166 53.077214949116915
118.56377295624213 108.53729442545107 79.27398442591686
121.92457292474701 114.62297811999846 58.66364354402621
123.61597045249174 123.50103976877209 79.16018347948885
123.80623798324437 113.37572499641998 84.38191587728299
120.10537816445986 118.9776659481139 65.24064288157273
119.34705111380258 116.34999824455407 64.2016768179624
122.2632719704824 100.14315918770234 69.41882020110208
135.82317947258332 95.02428938236349 67.09732400141054
120.08786891568366 109.82432930397647 53.103650335778156
134.06499664163337 113.96812760133255 82.10397218584026
132.0506059622734 118.1080752445152 63.265607199329644
121.36354132319296 120.15113277189761 64.17999730162296
118.40970348868514 107.351091703399 54.5089829179676
119.03812377686327 105.89902056348211 53.201752501471404
139.22475619726202 112.8863712465097 71.77228760851831
129.7615970224531 105.80951182103874 51.08364036237223
124.15991495546771 111.75686114257302 54.554177960842594
122.37949087338882 116.99529404669306 60.95349875947081
122.65841992591271 121.599501260251 65.01375001036791
127.95549651576309 104.56198425831998 79.95807848741075
130.73618408338822 121.44448052460501 71.52883569094905
120.74857147720361 100.88832499554418 63.73916650372573
119.23325931218436 117.63228969061664 66.01066928558495
138.25952601657144 96.78541933906054 61.589588809564376
123.89349175264915 97.76935667723693 72.09308244375285
119.74804719778841 112.29717517585316 58.48719389242866
131.1071602838902 102.62913974390464 50.677261022935454
123.56624649416341 109.64413271629148 51.66078865408295
116.95944171278096 110.85972403423052 68.46827741308864
131.2028133130489 113.51937098057978 56.95114635509223
124.30275689613254 117.42307285342959 60.2037514276601
117.94460472225141 114.0104304307087 79.91876476507197
125.53436895979812 115.44898521047492 58.84714345085929
128.50805019734145 121.54916555108301 66.43679055014245
126.0634205743222 119.81107421245872 62.100729115801904
129.03033935846312 121.17608267714212 80.53582059129542
126.45040341028067 123.35861772614606 70.61187905950159
122.16817686699662 110.38118340259128 53.51431630082117
125.58621154039267 108.65159831146316 85.28081262996983
136.89101260849387 112.93794536123042 62.69238734536133
117.64450197704143 112.32844551085238 65.68430143068936
123.40110174089799 97.21053339006428 63.496660077069464
119.85462264340573 114.75738622590522 60.82762815305549
120.60389819303744 106.22923528140304 51.548935998482726
139.2151296344773 113.53131045771244 73.67140652561224
120.6172076874777 116.41859822608426 61.53157894457657
137.74638706367446 111.20545345159671 62.50260896463231
137.6404636123576 101.2474304445749 54.42335603738524
124.76484699362318 98.14701444563062 54.27178795263103
121.8159609740055 103.36957634040475 71.91762128360472
115.7211102490278 113.89504481798295 76.29836765496277
116.78237835901149 117.73038357965582 78.31710762410377
117.53092890098682 106.90839707460448 61.508930856247694
137.6409422527988 107.03233808544411 73.41075913946605
119.10061415188645 103.8268735750577 65.79650309785315
129.50443740823957 96.91271551802343 53.19610019909124
117.87291781371954 106.18323114837096 68.123403840436
123.59041098701054 100.88585193019863 52.90865741930843
119.89875766888123 104.1311514642252 54.08207479225357
128.41168609953084 115.89465225072135 59.28528989186546
125.19881647246615 95.60522625543815 64.21859197369572
131.85099687197672 101.38403155842092 51.64327982794615
120.82051204428822 101.34454645221658 59.67300743409182
122.80768407823865 99.21670614081388 57.114135997771776
128.58437627190992 119.946450486811 62.97716949895912
136.81338297361899 107.3649996359757 76.14231349940478
120.33264020330202 116.00728091499246 82.33688159377405
120.43047066819778 102.05720597230379 57.75741496483781
130.9332377637059 94.1403613874967 68.65613082113646
139.56734268545105 106.30035678247152 65.76225392518688
126.62527618018159 117.5846478228527 60.78380706815503
129.16919706600288 107.38150284548561 51.20871211376315
139.4123442913104 115.05002802640537 75.02714574823956
139.22634314040678 107.35225131663009 63.965994092154226
122.79204484849755 97.93042815434268 65.28070845151224
127.98775356228175 100.47420990689002 76.7093245353376
117.91276563192098 118.64424401088073 67.9408672983523
121.41904360909216 100.88564123370416 67.69228992252769
125.09810552590153 118.75453840059838 60.866614474987145
123.7057426479359 96.7301369470365 64.86444736845127
129.97780922442726 94.0603080764291 63.86013536920605
115.62661574044023 112.8562927840524 74.52564268275988
126.94209501977036 123.01967537342112 73.40133808890147
131.90232455111146 115.44670791922032 61.31332892323111
127.48000042715944 108.6752955082446 51.99561510345333
117.61999915210387 116.42515972388587 67.36002987071863
119.01411075760359 115.00193064538372 81.27860919488616
140.21667147065634 105.62292649385091 59.41708272967373
119.3497704394277 103.69806183576512 57.4299809882601
137.42464450698048 118.45851572749459 65.14386157299097
116.14491760330857 116.52251825254295 71.4593718520959
121.633004071543 101.11879982085792 56.24205823889102
117.82595675490548 110.96364416214404 79.41172019206289
115.83633206419007 115.01124493526802 73.89989390589419
131.01446749086008 106.75858081657181 84.03066205088291
135.91057365528908 99.9850984230388 54.155474084617694
116.96851486067452 109.70301002030189 70.50084263074177
122.91520995647979 102.76172059152681 51.80931429232511
123.17141317839524 115.62826301650499 59.49862751515066
134.51256304410674 98.00289544456038 71.73047389490111
121.79951804791969 104.20724931023318 74.67362600287264
121.98119327383961 99.48360764238673 59.37274467185892
123.65155770007546 98.45652434248183 55.691337130541186
118.27643357370707 118.97593757797026 79.88599964443638
123.55842202691595 110.87930837754371 84.51662208258804
122.86580280332026 98.03646010535394 61.19907104205784
133.63277260096126 94.46452897305457 61.25382492094591
124.09088097183992 99.35236127473985 73.12599490883119
123.45295800328815 104.26319515052754 78.37236364732804
121.43716013397069 102.03646325508078 69.77300175964774
116.17814722216086 111.90081801752218 70.40497467554218
124.19293044062944 99.6344575198313 53.58156920866894
121.96895315627904 98.89276936059858 63.47446903764737
119.87329144546902 102.39230643062318 61.87768384743616
124.35264061229387 96.82056256712397 56.80312117337792
121.49287027992887 117.85207578094054 62.694634085125195
121.62940178404735 99.81705743866712 65.61900378117362
135.39188249054257 117.89138942067818 79.2303961960415
123.05723657456059 100.60183816565697 71.76261789787566
139.27736853227273 107.71661629771683 58.24316063179797
139.00502240138644 98.53110557281461 66.67926460090028
118.25261055281638 105.29522363784231 64.80791155791759
139.01322837063952 106.46866107025525 69.41290521185739
121.87238763930368 102.30278238205155 54.04915601724656
125.70964165922403 110.71961649890295 85.35079148375806
132.63364714720623 107.74673488587503 51.7677883314859
119.75709774786284 108.14498336167773 81.45285756641371
120.06864238036397 102.84668268846542 67.87796092448274
120.79785949990972 123.5689586920607 71.31464239739911
125.02795602215404 96.31679821199495 71.29856261234059
122.75286043725346 105.01121136643924 51.17325147543193
124.87752238691338 123.35335514234947 68.56828797783001
124.09682531657067 96.62072590859339 69.41159418468989
120.27685867751218 102.81464454716152 55.847602786000216
124.27022519242075 96.42408385414863 59.753708572354725
119.4479501596503 103.10886064113174 59.441170103485554
123.76096712885031 102.87356395160107 73.30010801896732
132.33380141374633 94.61433186342981 59.51720842195478
118.93965450521415 109.1880459424455 54.40962698419689
125.22901471855599 98.42943426709405 74.19194759537214
121.24374321033702 100.08799974682448 61.53762627951384
120.41292594495462 101.785140139687 65.80895103897785
128.42543617417803 105.42303838397227 50.51220078598779
129.55914578716786 101.45219799170818 76.71659260187823
134.00606842829137 109.40421177546179 82.58508375349162
120.94672541202966 120.64435998167271 80.78161039688014
122.54727559774776 98.57092949100958 67.74056121736048
121.60543283896708 100.69672191251135 58.041501151358425
139.63547715225164 102.11095764025335 57.81205769026708
117.91507279571172 105.95241953847194 63.22930796329067
117.16980259188075 106.71848420746808 65.05805087423363
118.83110575105945 104.71948144567229 67.96862687457781
119.93025527727903 105.09295427566578 72.70850543554903
139.0283958386188 118.44985121385524 67.28866099675004
POLYGONS 1220 4880
3 3 5 4
3 0 1 5
3 3 0 5
3 28 3 4
3 28 4 36
3 5 510 4
3 5 9 510
3 11 249 10
3 11 10 9
3 5 11 9
3 5 1 11
3 283 12 249
3 283 249 11
3 1 283 11
3 441 415 28
3 363 64 36
3 34 35 33
3 441 28 38
3 498 441 38
3 498 38 37
3 38 36 64
3 36 38 28
3 45 44 42
3 45 42 43
3 30 46 45
3 38 64 37
3 55 40 54
3 55 54 514
3 42 56 40
3 42 44 56
3 44 58 56
3 57 58 44
3 45 57 44
3 45 46 57
3 57 47 58
3 47 59 58
3 47 48 59
3 51 52 60
3 53 62 60
3 53 60 52
3 40 56 54
3 554 61 54
3 56 554 54
3 56 58 554
3 554 58 59
3 486 62 37
3 54 61 132
3 63 486 37
3 61 63 132
3 486 63 61
3 64 63 37
3 63 64 132
3 40 55 41
3 255 9 10
3 607 608 363
3 363 608 64
3 514 54 132
3 41 610 40
3 610 558 43
3 55 609 41
3 607 275 579
3 486 554 568
3 568 554 59
3 568 59 48
3 563 598 559
3 521 559 605
3 60 568 51
3 51 568 48
3 51 548 52
3 546 593 10
3 525 546 591
3 591 546 19
3 609 585 41
3 585 567 41
3 604 535 574
3 535 567 585
3 571 520 598
3 598 520 559
3 520 605 559
3 525 549 605
3 549 525 591
3 591 581 549
3 546 525 593
3 605 520 525
3 60 486 568
3 605 549 521
3 571 593 520
3 520 593 525
3 40 610 42
3 42 610 43
3 581 591 516
3 516 591 19
3 510 607 363
3 9 255 510
3 510 255 607
3 49 539 47
3 47 539 48
3 539 551 48
3 41 507 610
3 610 507 558
3 41 567 507
3 25 459 17
3 17 459 16
3 25 556 459
3 249 12 19
3 17 500 25
3 500 503 25
3 10 593 255
3 30 45 43
3 576 507 567
3 554 486 61
3 132 608 39
3 0 2 1
3 570 574 479
3 25 475 556
3 24 488 475
3 475 488 556
3 16 483 17
3 483 8 17
3 14 474 495
3 488 490 556
3 556 490 15
3 500 17 8
3 7 483 2
3 470 471 12
3 13 501 471
3 13 470 596
3 13 471 470
3 573 24 475
3 490 488 528
3 571 598 479
3 18 500 8
3 567 464 576
3 567 535 464
3 464 535 604
3 2 370 1
3 2 6 370
3 33 480 463
3 463 480 26
3 26 462 469
3 469 462 32
3 26 480 462
3 462 480 32
3 6 483 16
3 27 500 18
3 27 503 500
3 21 474 455
3 304 6 14
3 6 16 14
3 551 453 548
3 22 468 541
3 490 528 517
3 517 528 22
3 0 3 7
3 7 2 0
3 447 596 470
3 483 6 2
3 34 441 35
3 8 483 7
3 35 498 53
3 35 441 498
3 517 428 490
3 13 424 501
3 13 466 424
3 424 466 495
3 47 57 49
3 49 57 46
3 490 420 15
3 420 455 474
3 492 24 419
3 419 24 469
3 418 352 477
3 416 21 455
3 18 415 441
3 18 8 415
3 548 413 52
3 52 413 543
3 413 534 543
3 516 412 581
3 495 410 485
3 485 410 21
3 495 474 410
3 410 474 21
3 420 490 428
3 406 541 468
3 541 405 22
3 22 405 517
3 541 411 405
3 405 411 517
3 15 397 16
3 16 397 14
3 397 474 14
3 16 459 15
3 15 459 556
3 474 397 420
3 420 397 15
3 35 53 33
3 33 53 543
3 27 394 503
3 26 573 394
3 394 573 503
3 52 543 53
3 436 594 576
3 558 507 594
3 594 507 576
3 581 388 549
3 581 515 388
3 492 536 24
3 24 536 488
3 492 528 536
3 536 528 488
3 387 406 468
3 487 386 411
3 487 407 386
3 386 407 428
3 26 469 573
3 573 469 24
3 21 416 542
3 487 381 407
3 411 380 487
3 401 385 380
3 380 385 487
3 518 391 456
3 384 406 387
3 428 371 420
3 420 371 455
3 428 407 371
3 371 407 455
3 576 565 436
3 436 565 597
3 576 482 565
3 565 482 597
3 29 518 369
3 6 304 370
3 370 304 596
3 411 386 517
3 517 386 428
3 401 380 541
3 541 380 411
3 4 363 36
3 4 510 363
3 406 361 541
3 541 361 401
3 406 360 361
3 361 360 401
3 375 401 360
3 406 384 360
3 360 384 429
3 485 424 495
3 521 549 388
3 353 142 566
3 391 421 456
3 594 436 353
3 353 558 594
3 480 543 534
3 480 33 543
3 33 463 34
3 34 463 27
3 3 28 415
3 501 424 356
3 356 424 485
3 3 415 7
3 7 415 8
3 492 364 528
3 528 364 22
3 492 522 364
3 364 522 22
3 566 142 352
3 352 142 477
3 407 350 455
3 455 350 416
3 407 381 350
3 350 381 416
3 27 18 34
3 18 441 34
3 385 427 487
3 487 427 381
3 385 355 427
3 32 480 534
3 534 413 50
3 50 413 548
3 26 394 463
3 463 394 27
3 304 466 596
3 596 466 13
3 563 499 570
3 579 39 608
3 563 570 598
3 598 570 479
3 452 335 251
3 381 427 403
3 403 427 355
3 432 329 376
3 431 328 506
3 506 328 367
3 431 334 328
3 328 334 367
3 327 336 372
3 325 341 369
3 369 590 29
3 369 341 590
3 323 188 373
3 538 322 456
3 322 325 369
3 417 527 320
3 409 323 342
3 529 314 376
3 403 390 314
3 345 331 312
3 456 322 518
3 518 322 369
3 341 325 307
3 313 345 321
3 324 319 358
3 429 362 504
3 518 310 391
3 391 310 592
3 518 499 310
3 573 475 503
3 503 475 25
3 14 495 304
3 304 495 466
3 324 303 374
3 324 358 303
3 303 358 339
3 604 532 29
3 570 499 532
3 333 553 359
3 423 457 553
3 345 300 321
3 358 319 300
3 521 299 559
3 521 572 299
3 299 572 592
3 343 519 377
3 519 329 423
3 374 297 324
3 564 296 317
3 317 296 538
3 570 532 574
3 574 532 604
3 355 294 403
3 403 294 390
3 355 443 294
3 294 443 390
3 390 293 432
3 390 443 293
3 342 292 409
3 342 443 292
3 292 443 355
3 538 290 322
3 322 290 325
3 531 527 417
3 287 457 382
3 311 324 297
3 557 285 319
3 285 286 321
3 1 447 283
3 283 447 470
3 429 227 362
3 227 347 383
3 393 400 308
3 312 282 358
3 358 282 339
3 312 451 282
3 282 451 339
3 377 513 334
3 334 513 367
3 557 279 311
3 311 279 324
3 557 319 279
3 279 319 324
3 12 283 470
3 359 287 606
3 564 595 372
3 372 595 327
3 564 317 595
3 325 290 526
3 526 290 316
3 311 278 557
3 414 308 278
3 309 277 316
3 393 308 277
3 307 414 276
3 545 577 373
3 577 291 342
3 607 255 275
3 316 296 309
3 414 273 308
3 414 526 273
3 273 526 316
3 325 526 307
3 307 526 414
3 338 271 452
3 359 606 271
3 271 606 452
3 312 358 300
3 300 345 312
3 285 557 400
3 579 608 607
3 535 599 574
3 535 585 599
3 599 585 512
3 481 446 338
3 340 270 315
3 315 270 251
3 340 274 269
3 269 274 393
3 321 268 313
3 313 268 366
3 321 286 268
3 268 286 366
3 320 267 417
3 267 346 335
3 512 579 275
3 251 263 452
3 452 263 338
3 263 481 338
3 346 262 315
3 262 313 366
3 359 261 333
3 338 446 261
3 261 446 333
3 275 151 512
3 275 571 151
3 151 571 479
3 186 260 417
3 260 531 417
3 188 531 260
3 260 373 188
3 609 512 585
3 19 12 516
3 12 471 516
3 479 574 599
3 186 259 545
3 452 606 259
3 514 132 39
3 270 481 263
3 263 251 270
3 432 258 329
3 329 258 423
3 258 457 423
3 345 257 331
3 257 580 331
3 354 256 320
3 354 313 256
3 373 577 323
3 323 577 342
3 331 253 511
3 331 580 253
3 271 338 261
3 261 359 271
3 280 254 481
3 254 564 372
3 609 39 512
3 512 39 579
3 609 55 514
3 514 39 609
3 315 578 340
3 366 274 578
3 578 274 340
3 340 269 280
3 280 269 309
3 596 447 370
3 370 447 1
3 333 266 336
3 336 266 372
3 333 446 266
3 266 446 372
3 186 417 267
3 354 257 313
3 313 257 345
3 346 251 335
3 346 315 251
3 527 250 320
3 320 250 354
3 19 546 249
3 249 546 10
3 373 260 545
3 545 260 186
3 257 354 250
3 250 580 257
3 262 346 256
3 256 313 262
3 452 259 335
3 515 569 388
3 388 569 506
3 515 431 569
3 569 431 506
3 448 353 436
3 571 255 593
3 571 275 255
3 558 247 43
3 247 30 43
3 246 334 431
3 379 245 343
3 376 329 245
3 281 606 287
3 376 583 432
3 432 583 390
3 376 314 583
3 583 314 390
3 403 248 381
3 381 248 416
3 403 314 248
3 248 314 416
3 336 327 330
3 330 327 332
3 332 244 326
3 332 327 244
3 339 243 303
3 303 243 374
3 330 332 513
3 362 344 504
3 344 531 188
3 481 241 280
3 280 241 340
3 481 270 241
3 241 270 340
3 481 254 446
3 446 254 372
3 339 239 126
3 339 451 239
3 239 451 523
3 264 344 362
3 572 235 592
3 592 235 391
3 572 326 235
3 367 234 326
3 326 234 332
3 367 513 234
3 234 513 332
3 456 233 538
3 538 233 317
3 456 421 233
3 233 421 317
3 367 232 506
3 506 232 572
3 367 326 232
3 232 326 572
3 302 533 448
3 557 278 400
3 400 278 308
3 277 308 273
3 273 316 277
3 229 522 492
3 229 492 419
3 482 228 597
3 383 264 227
3 227 264 362
3 580 226 253
3 253 226 383
3 226 264 383
3 580 250 224
3 224 250 527
3 226 580 224
3 224 264 226
3 398 222 433
3 32 221 469
3 32 348 221
3 504 220 375
3 375 220 409
3 504 323 220
3 220 323 409
3 391 235 421
3 352 418 218
3 319 217 300
3 300 217 321
3 319 285 217
3 217 285 321
3 337 213 297
3 297 213 311
3 337 276 213
3 213 276 311
3 589 210 23
3 210 491 229
3 421 209 317
3 421 244 209
3 209 244 327
3 491 207 229
3 229 207 522
3 491 223 207
3 207 223 522
3 205 540 494
3 491 204 237
3 204 589 494
3 237 203 491
3 433 223 203
3 203 223 491
3 237 202 478
3 202 494 540
3 210 589 204
3 204 491 210
3 23 201 419
3 419 201 229
3 23 210 201
3 201 210 229
3 588 555 412
3 555 378 515
3 421 219 244
3 244 219 326
3 421 235 219
3 219 235 326
3 531 199 527
3 264 224 199
3 199 224 527
3 564 198 296
3 296 198 309
3 198 280 309
3 553 288 423
3 387 547 384
3 387 222 547
3 592 310 563
3 563 310 499
3 606 196 259
3 259 196 545
3 606 281 196
3 196 281 545
3 223 195 468
3 468 195 387
3 223 433 195
3 29 537 518
3 518 537 499
3 29 532 537
3 537 532 499
3 457 505 553
3 553 505 359
3 457 287 505
3 505 287 359
3 393 449 400
3 393 274 449
3 264 199 344
3 344 199 531
3 399 192 212
3 62 486 60
3 559 299 563
3 563 299 592
3 335 186 267
3 335 259 186
3 478 202 185
3 185 202 540
3 309 465 277
3 277 465 393
3 309 269 465
3 465 269 393
3 23 389 589
3 23 221 389
3 389 221 348
3 230 95 50
3 95 586 348
3 589 389 211
3 433 178 398
3 178 237 478
3 222 387 195
3 195 433 222
3 494 174 204
3 204 174 237
3 494 202 174
3 174 202 237
3 398 178 173
3 173 178 478
3 478 185 172
3 203 237 178
3 178 433 203
3 216 171 200
3 171 191 434
3 173 478 172
3 184 169 172
3 172 185 184
3 545 231 577
3 577 231 291
3 545 281 231
3 231 281 291
3 586 272 211
3 211 272 205
3 586 175 272
3 272 175 205
3 334 166 377
3 377 166 343
3 334 246 166
3 166 246 343
3 311 165 278
3 278 165 414
3 311 276 165
3 165 276 414
3 184 191 163
3 377 170 513
3 513 170 330
3 377 288 170
3 170 288 330
3 191 158 434
3 205 175 158
3 291 180 382
3 382 180 287
3 291 281 180
3 180 281 287
3 451 511 523
3 522 153 22
3 22 153 468
3 522 223 153
3 153 223 468
3 467 152 176
3 206 168 152
3 479 599 151
3 151 599 512
3 551 194 48
3 48 194 51
3 551 548 194
3 194 548 51
3 200 181 395
3 200 395 349
3 200 349 216
3 212 265 399
3 265 395 440
3 504 188 323
3 504 344 188
3 142 149 295
3 448 533 149
3 378 555 148
3 148 555 588
3 469 476 419
3 419 476 23
3 469 221 476
3 476 221 23
3 307 146 341
3 307 276 146
3 146 276 337
3 228 341 146
3 146 337 228
3 211 145 589
3 589 145 494
3 211 205 145
3 145 205 494
3 144 172 169
3 597 155 436
3 436 155 448
3 597 302 155
3 155 302 448
3 515 378 431
3 378 246 431
3 351 588 356
3 448 142 353
3 448 149 142
3 398 141 222
3 211 140 586
3 586 140 348
3 211 389 140
3 140 389 348
3 400 138 285
3 285 138 286
3 400 449 138
3 138 449 286
3 205 158 540
3 540 158 191
3 171 216 163
3 163 191 171
3 142 295 477
3 20 148 351
3 351 148 588
3 595 317 209
3 209 327 595
3 286 449 366
3 366 449 274
3 378 133 246
3 378 148 133
3 132 64 608
3 245 379 600
3 450 175 586
3 133 148 20
3 501 426 471
3 471 426 516
3 501 412 426
3 426 412 516
3 227 429 242
3 242 347 227
3 246 379 343
3 246 133 379
3 529 365 542
3 20 351 365
3 600 20 365
3 365 529 600
3 600 379 20
3 379 133 20
3 295 601 243
3 243 601 374
3 149 533 601
3 601 295 149
3 366 578 262
3 262 578 315
3 280 198 254
3 254 198 564
3 551 284 453
3 284 408 509
3 412 555 581
3 581 555 515
3 302 143 533
3 374 601 143
3 143 601 533
3 320 131 267
3 267 131 346
3 320 256 131
3 131 256 346
3 336 130 333
3 288 553 130
3 130 553 333
3 200 460 181
3 434 157 460
3 460 157 181
3 32 136 348
3 32 534 136
3 136 534 50
3 416 454 542
3 542 454 529
3 416 314 454
3 454 314 529
3 453 129 230
3 521 560 572
3 572 560 506
3 521 388 560
3 560 388 506
3 457 258 382
3 295 243 126
3 126 243 339
3 215 124 157
3 157 124 181
3 215 137 124
3 124 137 181
3 175 123 157
3 157 123 215
3 175 450 123
3 123 450 215
3 374 143 297
3 562 187 122
3 440 561 197
3 197 561 509
3 440 137 561
3 197 524 440
3 184 121 169
3 169 121 183
3 184 163 121
3 121 163 183
3 206 189 179
3 179 189 183
3 189 125 183
3 164 392 496
3 392 159 496
3 542 365 119
3 119 365 351
3 225 118 168
3 423 288 519
3 519 288 377
3 297 117 337
3 337 117 302
3 297 143 117
3 117 143 302
3 597 177 302
3 302 177 337
3 597 228 177
3 177 228 337
3 498 37 62
3 62 53 498
3 116 167 214
3 443 115 293
3 293 115 382
3 115 291 382
3 408 114 489
3 114 550 489
3 113 349 212
3 288 130 330
3 330 130 336
3 434 460 171
3 171 460 200
3 175 111 158
3 158 111 434
3 175 157 111
3 111 157 434
3 181 603 395
3 395 603 440
3 181 137 603
3 603 137 440
3 240 439 173
3 173 439 398
3 29 590 604
3 576 107 482
3 604 590 107
3 107 590 482
3 343 484 519
3 519 484 329
3 343 245 484
3 484 245 329
3 464 604 107
3 107 576 464
3 376 473 529
3 529 473 600
3 376 245 473
3 473 245 600
3 453 106 548
3 548 106 50
3 453 230 106
3 106 230 50
3 485 119 356
3 356 119 351
3 215 105 137
3 215 129 105
3 105 129 509
3 542 119 21
3 21 119 485
3 550 46 458
3 126 236 110
3 225 422 192
3 192 422 212
3 422 113 212
3 298 86 160
3 298 150 86
3 86 150 208
3 168 103 152
3 152 103 176
3 168 118 103
3 103 118 176
3 295 126 110
3 110 477 295
3 127 109 187
3 190 402 161
3 190 575 402
3 402 575 120
3 438 305 208
3 176 445 467
3 467 445 160
3 176 128 445
3 445 128 160
3 352 81 566
3 566 81 31
3 352 218 81
3 192 108 225
3 218 301 435
3 418 396 218
3 396 301 218
3 458 46 30
3 102 128 176
3 236 126 239
3 225 101 118
3 118 101 159
3 225 108 101
3 101 108 159
3 179 100 206
3 206 100 168
3 179 113 100
3 100 113 168
3 467 99 152
3 99 206 152
3 118 159 102
3 102 176 118
3 230 98 450
3 450 98 215
3 230 129 98
3 98 129 215
3 501 588 412
3 501 356 588
3 341 587 590
3 590 587 482
3 341 228 587
3 587 228 482
3 125 99 575
3 538 156 290
3 290 156 316
3 538 296 156
3 156 296 316
3 550 97 109
3 109 97 584
3 550 458 97
3 97 458 584
3 150 96 523
3 236 239 96
3 96 239 523
3 404 502 438
3 116 214 502
3 230 450 95
3 95 450 586
3 150 134 208
3 208 134 438
3 150 523 134
3 298 289 236
3 298 444 289
3 289 444 154
3 94 467 160
3 438 502 305
3 128 92 444
3 444 92 193
3 128 102 92
3 92 102 193
3 31 247 566
3 187 91 127
3 187 90 122
3 122 90 584
3 187 109 90
3 90 109 584
3 265 440 524
3 524 399 265
3 128 602 160
3 160 602 298
3 128 444 602
3 602 444 298
3 561 137 105
3 105 509 561
3 584 435 122
3 122 435 301
3 438 306 404
3 523 511 306
3 383 347 404
3 511 93 331
3 331 93 312
3 511 451 93
3 93 451 312
3 562 89 496
3 496 89 301
3 562 122 89
3 89 122 301
3 127 544 489
3 489 544 197
3 127 524 544
3 544 524 197
3 562 461 91
3 562 108 461
3 461 108 192
3 382 368 293
3 293 368 432
3 382 258 368
3 368 258 432
3 575 182 120
3 467 94 182
3 182 94 120
3 562 91 187
3 348 136 95
3 95 136 50
3 395 357 349
3 349 357 212
3 395 265 357
3 357 265 212
3 349 88 216
3 216 88 179
3 349 113 88
3 88 113 179
3 113 422 168
3 168 422 225
3 208 94 86
3 86 94 160
3 550 104 46
3 46 104 49
3 550 114 104
3 104 114 49
3 236 96 298
3 298 96 150
3 125 575 84
3 84 575 190
3 236 289 110
3 110 289 154
3 125 87 183
3 183 87 169
3 125 84 87
3 87 84 169
3 458 82 584
3 458 30 82
3 218 435 81
3 81 435 31
3 31 82 247
3 247 82 30
3 91 461 399
3 399 461 192
3 253 383 404
3 384 442 429
3 429 442 242
3 161 112 190
3 161 139 112
3 112 139 240
3 120 135 305
3 305 135 208
3 120 94 135
3 135 94 208
3 467 182 99
3 99 182 575
3 49 508 539
3 508 551 539
3 197 437 489
3 489 437 408
3 197 509 437
3 437 509 408
3 214 80 139
3 139 80 162
3 214 167 80
3 284 551 508
3 508 408 284
3 206 79 189
3 189 79 125
3 206 99 79
3 79 99 125
3 78 120 305
3 172 77 173
3 173 77 240
3 172 144 77
3 77 144 240
3 162 76 141
3 141 76 611
3 114 408 508
3 508 49 114
3 214 530 502
3 502 530 305
3 214 78 530
3 530 78 305
3 144 169 84
3 84 190 144
3 242 75 347
3 347 75 116
3 75 167 116
3 134 523 306
3 306 438 134
3 242 442 74
3 74 442 611
3 547 611 442
3 442 384 547
3 402 120 78
3 78 161 402
3 116 472 347
3 347 472 404
3 116 502 472
3 472 502 404
3 418 73 396
3 396 73 164
3 418 238 73
3 73 238 164
3 190 112 144
3 144 112 240
3 360 497 375
3 375 497 504
3 360 429 497
3 497 429 504
3 141 398 439
3 439 162 141
3 161 71 139
3 139 71 214
3 161 78 71
3 71 78 214
3 110 70 477
3 477 70 418
3 110 154 70
3 238 418 70
3 70 154 238
3 75 242 74
3 74 167 75
3 183 493 179
3 179 493 216
3 183 163 493
3 493 163 216
3 584 85 435
3 435 85 31
3 584 82 85
3 85 82 31
3 439 69 162
3 162 69 139
3 439 240 69
3 69 240 139
3 222 68 547
3 547 68 611
3 222 141 68
3 68 141 611
3 301 396 496
3 496 396 164
3 164 67 392
3 392 67 193
3 164 238 67
3 67 238 193
3 80 167 76
3 76 162 80
3 109 425 550
3 550 425 489
3 109 127 425
3 425 127 489
3 167 66 76
3 76 66 611
3 167 74 66
3 66 74 611
3 566 65 353
3 353 65 558
3 566 247 65
3 65 247 558
3 385 147 409
3 409 147 375
3 385 401 147
3 147 401 375
3 193 552 444
3 444 552 154
3 193 238 552
3 552 238 154
3 509 430 284
3 284 430 453
3 509 129 430
3 430 129 453
3 127 252 524
3 524 252 399
3 127 91 252
3 252 91 399
3 511 83 306
3 306 83 404
3 511 253 83
3 83 253 404
3 540 72 185
3 185 72 184
3 540 191 72
3 72 191 184
3 409 292 385
3 385 292 355
3 291 115 342
3 342 115 443
3 108 582 159
3 159 582 496
3 108 562 582
3 582 562 496
3 193 318 392
3 392 318 159
3 193 102 318
3 318 102 159
