# vtk DataFile Version 3.0
A great-looking cell
ASCII
DATASET POLYDATA
POINTS 490 double
75.53767481149917 110.90797697420919 62.261172659204654
75.90640754869716 110.0900151165318 60.12848259644129
80.25373390918313 108.72662416020007 70.25216303041412
70.74654139088284 113.67769468358543 64.9644629569464
73.98248369678358 111.43405192990939 63.69727074173247
76.18364456715126 110.91064195032835 64.12202593913666
93.81310863716567 96.8067023650051 73.40316238984522
83.43734136476738 114.97232038414792 71.26191882642998
102.66886423368163 106.21869071086856 69.6133949863579
90.9498324954766 117.10231644262325 64.34353069504289
99.99363133004285 113.6132098265671 62.39180352656395
88.73192030947803 117.44989764251928 68.38401834822727
97.67541436026589 101.48997595818251 64.02676552839016
98.8355735308757 114.64393969048297 79.52923599592454
101.1849042636398 102.38079019752419 68.92914422017625
101.25434185092878 106.82906623369772 63.32523441619798
88.14780749711635 113.32756665664515 63.681263848497316
102.34463399999943 105.3525829499364 71.26700441840535
101.97531742967965 107.37209615309561 75.85758793228828
91.69904501850309 116.18941088797757 82.64376561404448
99.72845503732974 108.47202512562515 62.14439594080205
101.29465887294381 110.84510462374102 77.54714562453607
99.85498150164818 114.73196218688572 73.46050799376283
102.48275789194865 111.09757923207569 72.6269771214984
95.11721407167273 105.03619190528998 61.424909240064494
99.25403131866648 101.00206113702176 76.24764970710817
72.7172199951855 112.67391071294915 65.42505631628126
94.90249136205043 116.70583628866355 79.37290696148793
89.39183040683072 117.6848027600232 80.96730356690611
87.20904063726877 117.35437372651735 69.7692746849157
99.15915938168594 99.48790787234601 71.14040470999583
99.99914651294137 105.33624150106631 78.97435819992207
99.39243233802014 115.08228138742484 64.66843967484527
90.1628152355773 117.7746403452108 66.58924162856155
96.77534632779648 116.4988194752463 75.78197601227558
69.24282524949629 114.78949118632119 66.50889969181495
92.7779810156905 118.26624733468336 77.7643347480741
90.27948532478298 118.93322608329113 73.13327799266439
95.5035409554506 107.24911619471851 80.82477848204799
102.68217858157549 111.7346860424454 66.43757265794255
99.32286444331602 102.81633851485634 64.44050260499753
101.14760217290323 111.1658687788993 62.766699218681076
94.61459704129662 115.57054135998455 63.40499311830757
92.78837542037374 118.80009786121755 70.30682339666427
100.67938796566185 102.00866628821642 74.77867271460772
91.91008621358766 115.74637693161041 62.727144354741284
87.59908866327532 105.97107203330219 63.24308217347041
93.30342973886815 117.62878018898846 65.1085510524561
85.83702528178333 114.43561973613885 67.12274686089353
86.13064147251751 116.93904657986337 80.78676171454846
83.58491707271219 108.75831167624271 81.26879131803649
90.69671413395795 103.29296551489828 61.681674417231065
91.46171550074942 118.81947714883465 75.21962576488657
98.29714499053314 111.44065646453085 61.133337527710566
97.2527433720214 115.8474642849129 77.85098003739633
83.72567722261203 114.81077509997719 80.67297649945071
98.56634179490787 115.83408952673588 71.94264116715777
76.95198337734728 110.14393253985104 71.72602488256568
95.27771683265895 117.2204443541315 76.609136891611
96.08879280742622 112.46108903691584 61.11320378518654
92.72578795395016 111.36674685409402 61.56971723272635
96.80873167545394 116.58935507501998 65.27878817078962
95.11959127729034 118.28585865417621 70.30736083890322
87.64561196305989 118.43093257772858 72.81993135617985
81.84737197727976 113.44499875274093 75.45772846702059
89.36607000465766 114.85986994759749 83.09734427137113
87.11843762424023 101.68780162717835 62.51698488399994
83.99558418495849 104.33539342456582 61.384037974324414
78.76411232791868 100.45308885682509 59.75249701165843
95.41817058469663 118.16732236644972 67.40239049590521
66.88081753184463 114.31069936345641 74.44796833260034
102.23344917839661 108.8499788012807 64.81965077306133
95.02924742196016 110.09187814900717 60.99726875260951
78.46159869231576 91.74000340781203 72.03695983780226
64.08427299669343 106.15596938030102 73.63034797897926
64.70830539773127 104.26198121101541 76.88296272292585
89.47204495895417 106.93184542578723 82.83819389635971
93.2131378121107 109.74069076577398 81.12700258479394
85.3158392962818 100.4627244003148 60.24310645857314
100.97292351435077 113.98369423309177 71.54280214797542
101.42748281324687 113.18441763541965 64.61644082141837
95.73113670170522 98.46489324113111 66.22362230851296
102.74930014373717 108.35763186321842 70.69542525976972
88.59082526023602 103.37133956722563 79.54740368632406
95.13396427170512 101.55469384095069 79.3667629145354
84.73679512312157 89.90484130280257 72.29691282324501
87.15003733945613 90.45686191379086 69.03503602753011
98.35522613441314 100.24573383012041 66.35400840169838
88.22552070871302 105.07357215745745 80.5724147787736
98.8290725944848 99.52449936789482 74.52609226844247
101.65294781905138 105.04251116633839 76.3355581064972
92.46202761900612 106.1515165722076 81.63849080127726
102.20430676834486 109.53168816486753 75.249526827196
63.39832136501063 99.04707773910448 68.65694589622524
81.91448909016826 109.80494330619557 72.21327729452518
79.98697803622497 101.55982882498171 76.81792375928647
71.29092092466284 101.97132067608877 62.74144982309228
97.04882409674775 104.25480578443263 80.2210830856871
62.626633643445864 101.72004621533725 74.51446789985411
63.25803829097003 104.24274002200916 74.76238359292341
94.20038378494272 97.4002674094413 75.22938937739106
100.10933192384812 100.88786069947514 68.86373079028823
86.29802875234876 97.78097483805765 60.88517300874802
97.47857261932555 100.36600588723871 77.39873566341501
80.59320982263023 107.88170023510654 76.21248906601203
91.1156675986914 118.28740531274833 79.29484887486824
89.69495364578097 99.44279047917334 78.31169424894796
63.45215002849598 98.01044550628953 71.64065631578437
82.04115323789209 111.81041132969173 77.28574531621359
82.60168137557757 115.25105186022634 76.2353552724551
85.76535171655915 89.83287128625787 67.30647861233498
93.55998128914202 103.75123853994495 61.923324684304454
63.75461479924498 100.19927108436795 75.70508636030901
93.9309510913562 113.32141764578432 61.698575685663975
88.45549226084687 101.63185853645385 78.96586815569215
91.90706548774136 98.04190112875646 77.00361063967473
92.89154169747025 118.79625592973501 72.57038751624235
96.23513796857014 114.04068905775677 80.54439701939215
88.05509240822882 93.33083907308848 71.98721904917642
97.51737027169459 109.17744268397936 61.141820251581294
78.2326518591045 107.24235315098326 75.51747122451951
82.11579919789521 90.85407784290683 63.98057573632638
82.62413223688716 89.53284781915822 70.85093867618497
86.95901405928602 92.28843245576147 63.13250379216902
84.38045437134677 99.2016907448077 77.61198877511404
91.8323481015592 104.9825511090792 61.09129722803929
102.25884000384853 111.29711635018853 64.49260234674688
86.83129978185903 95.22591782410568 61.77940438034531
81.16819947743123 92.18386974000708 72.99969377337729
101.7392904233022 105.1065798588035 65.26328683661798
95.63005663439165 100.46186719258415 63.887217788894155
69.09235496549113 96.74193094658841 74.19793890309653
85.28888851112873 117.49952453884619 74.38485148148666
90.78685164935027 103.03129815448708 80.50975494838602
83.12732587650038 115.68720559939659 74.05270601775591
85.20806160285414 89.51096656118865 69.86860650151625
92.9363534046432 98.20762907684893 64.69354280836941
101.88370827061024 104.25668553305096 73.50573227007636
72.80504775571242 98.84940546574684 61.235002562851705
69.63641257366757 114.93798223444931 77.38541773414848
85.32255921719553 92.34138776505154 73.66863444839515
82.64148050769835 91.03683849667792 73.00222877055552
73.34471647161762 93.52434767953616 68.04629345922271
98.65351511915675 107.52562950926587 80.30208514987167
100.43093560241061 112.95681544608183 78.62067157026316
88.47749106334784 92.48451976587373 69.41559701256634
96.05480666402224 117.33307664286214 73.59198257994491
88.42761602154361 92.56056650338944 64.88662605480152
68.09037775097379 104.39824515686891 77.24771264285837
64.9919185404622 110.26795929824837 70.01094895081748
74.45192922147078 113.42480457247015 71.6208888200872
83.5805297648759 110.29582217583389 67.46156002302845
67.3388571875728 110.48062583979134 66.27369969649209
87.98446433658522 91.14599640692958 67.04516048812249
67.31004212086728 97.1696892985299 75.37729189931119
86.59677431416144 103.41679835707687 78.80297226623519
66.36083943148098 97.05270547131227 71.19535094646116
86.84461451692138 99.7549349265365 77.4892319169307
83.79114768197071 95.87336297127193 76.98515021013051
86.81596546507821 109.1733733591519 82.55811997393256
79.31236443593534 95.68377987595562 60.1928132789012
74.1711941820938 97.97590577305886 76.72265680984613
73.51815293390705 112.56063720956628 76.59539303349554
87.33263189797586 95.24140370113409 74.23146472114676
93.07189675750358 101.85367079801755 80.53605440561516
93.12763706755999 96.4716461945993 71.39116726379936
77.21721105487511 93.70485928008841 73.98556016849716
87.7543352905633 96.96187415753369 62.035138958083934
86.12398296788554 93.59778579814008 61.5985255554174
76.65131802069747 91.4195872250997 67.95140835555398
100.04316146118376 100.77226479836058 72.93624334445944
73.85805816003673 107.25914711774104 78.08530311173817
66.78929654585428 103.99088091174472 64.6174443243341
79.32740563530017 93.12835151160705 73.4119320586826
85.33763859583394 97.34518012667574 76.03851676994383
89.15243926533256 95.15472751505564 65.44245830008458
85.29064434394353 105.71396463071497 62.47995591053971
66.29061015432889 114.8632164876547 72.37681356087381
81.56598621859399 94.78781976354225 77.10662259764575
80.16718794661801 90.65153469668881 72.03747839110895
101.00737044280227 113.13692157272934 75.24764724939217
87.88337128742383 103.78828462712286 62.72981584929188
101.1456528710504 107.97214491674288 77.95239493062142
81.42797033311336 92.54437758811481 62.09081597875207
102.6232776198477 111.73382830407932 69.51737704809919
98.80392918092559 99.50514939644745 68.78477500610938
81.80923723129763 95.44858176727399 60.253600653584876
66.13608441724699 97.7405109641668 68.42104592754583
72.72715155895474 100.81417547054012 61.37294747255739
65.24343149993184 97.45472067802012 72.7971760921098
84.1449973627829 94.87407905905938 75.28380413372054
92.56687649288003 117.75425882373396 80.66874109304949
62.563438715646555 99.70165472202909 70.52483795819387
89.5852501565513 95.89945242159327 71.65241676507056
88.1108824562638 94.41845624666666 62.92635923683585
83.14644704724165 89.14835081183433 68.02879374611426
72.79311468547012 102.95016870203496 61.332376591262324
79.57691951783877 91.1549876444726 64.12897632036224
82.05053445207143 92.93285355587197 74.72490111771948
64.88810054454139 101.66302134697553 65.27131067718966
81.85610534871974 100.14390702470482 77.80153374226948
80.95419886955949 99.86550950160238 59.12788310687974
96.22909644447152 97.38772550464915 72.62813926811528
96.57964677533502 98.20565635963607 75.74898958118352
63.5600759257708 102.91766269913457 66.5321935850305
73.6888465800078 104.85048630148115 77.66713355412466
100.30175249665372 110.3906053306596 80.23735697612771
88.83630440864738 96.07938929713978 63.571382336708844
72.800710327467 104.69481959181262 60.45769142721101
76.39037397071318 110.57823860573522 65.93900561458321
75.65621486500203 111.49650511038065 72.90843305266314
96.60174146934354 103.38333884061207 62.5842522340084
65.28469892518201 108.005972268635 73.92111888444148
83.91170062264244 89.77552907565104 65.28332147993885
72.20918094928871 106.7171448829449 60.727830038174346
89.73715335815615 118.57758481926035 77.58687510533328
92.24629215225515 113.13059237810259 82.20614274888786
78.36277723814523 105.4199304546384 60.03290309672903
84.87631633807095 107.95747849429229 63.13542888131697
76.28710914615041 91.72148098149518 70.09297555867899
92.83770165833278 118.73478486728428 68.2056949344236
94.93034541976276 105.26905344115225 81.55629681433054
77.90275403470186 90.77267912088894 70.38094700473346
69.02869981396172 110.1940742494743 77.45490231113318
84.81395168927519 105.82856217089231 80.18639887115951
97.11951724118911 114.48363789067645 62.30223534334429
67.53237809841326 96.85060878014787 69.59848287109592
70.80912045001222 95.81431688150504 73.47242193055502
80.7812548443082 101.98762768458039 59.841690443582586
69.12940455670092 105.63960895105444 77.7264340587503
78.85530786992936 90.43586497455578 66.81120932835138
93.84722900903023 97.0009423784908 68.15685361793228
70.93496856495626 112.26664084226815 76.98711561613753
85.77867850823708 107.89254552690089 80.8494728698803
72.74710853499049 94.42854703169643 71.89005019984917
64.83652051401025 102.25443883524704 75.51324312461577
82.23281128085843 114.24145456797324 77.99350089180794
100.78243677980217 114.5311619165485 67.75555815721613
96.90507374069657 110.48736700932169 81.56193109621283
62.04394915923376 101.26926167753098 72.40280314252563
71.99643997175325 99.11811139808343 76.83472206801963
85.22703236613752 95.95714237340697 60.713202753339345
74.24435190012167 113.55574121944281 67.2755649353879
76.4004058817493 104.29733277100932 59.5480300850058
76.95181467316662 93.92983766789906 61.29779148922384
66.17383660055384 100.03416149534648 76.93122489106051
62.44711703851107 102.87643762147687 70.50485359469066
67.39914263812503 97.64498478484555 67.09922086049077
62.87358097488503 101.16789161399646 67.77017276861577
77.17119981698771 92.70632122839815 63.234037169987346
72.01612500446208 97.11747074761777 62.351323214821264
78.0826055035981 94.95529399561266 76.08071905686171
82.41115985911942 98.15467499996333 59.34575602555082
92.23264858721336 99.97845802235541 79.7199854245958
93.9159612938645 113.81348715473446 80.58984479701968
73.05427503000858 95.23749380017634 63.622280898972576
78.3564032062343 90.47651611194932 68.52923165180333
69.26323510417969 97.97164807683967 65.32153794758828
93.79567783952683 118.36349857456092 75.18808582939013
64.82578063628755 97.86417930067313 69.93988159907057
73.00247818340164 96.785812438784 75.10839987939904
64.91375074060332 98.84796717866752 67.13115450800099
98.63406839009932 112.5588822594778 80.31089859168637
73.91578387656084 101.75720872080133 60.26955422492709
85.50275579747645 102.60407243643223 61.03396591294934
67.5165413088547 101.74885048330876 64.55541042827313
69.07099284670421 99.28771537732611 76.54734156814771
70.35569943700564 107.14528130116655 61.8575107744104
70.06362909942608 96.21964200499717 67.54578949023595
94.7986641448212 98.72133815581226 77.89225810599306
64.44553133448065 104.70232761955278 65.85846596578749
102.68204980593087 107.01542702959291 67.78283759654256
93.97376546822707 103.48542449526461 81.1440184137527
88.96513682008337 115.58176027948264 64.08909571232408
79.53810719845741 100.0144770778552 77.60974914285508
79.73894821007889 97.74886860675737 77.60218468387117
68.9489029823148 112.36857824306804 65.45742311367323
66.04428516780249 108.11197598004598 66.96485617930166
86.7655711307519 106.71994070285982 81.87849717269802
70.9702681262787 107.74768056112698 77.69502092529311
68.10047563574489 115.33025960672049 68.52153923460864
66.97956213025579 107.1560199825345 75.11261627349924
98.5569066758927 115.62803586045895 75.056844950795
90.02392538756465 112.5982087010346 83.1465800348063
90.25133200394211 118.59454682556954 70.16695020452966
62.563844654800334 103.04875932851252 72.89583915762246
74.334441575551 105.93325621877139 59.21338363144474
70.83174267193179 98.38736931786391 63.92857157282938
66.4448604483781 109.77024269285712 75.77646290442185
65.47498558577014 112.32349336229785 70.49397182418144
64.81934833735214 109.77219378086306 71.9277570649766
73.72590386693825 108.47432094219724 60.066402342625764
75.01422137184062 111.90864393175744 65.6695149255346
70.87113039195141 116.83720035027703 71.31815959348077
90.32200423157241 101.05553038437924 79.30899434707624
70.3882179695233 101.22054113788754 76.36140905052257
70.29344960089377 116.66459984512218 68.50215749180386
94.77851000783225 101.81056276261361 62.03401203615747
74.9850337904869 100.18646964404148 76.46294892362478
102.0846439066609 104.2866097845727 68.69743351177307
77.50756537727821 91.28353970813605 65.43845260387177
80.25706081623376 89.86329650229469 68.9868924498576
72.04824453791625 115.11029770275574 66.55994132658893
80.46749324963051 94.66262846941599 74.88370914208662
66.9053044067411 103.02047930657082 76.9292145252269
75.93486161444324 111.55150868387587 70.52028462287271
76.03444541979482 111.47553691053689 67.90485559912867
77.0147901802007 109.242265156971 73.85979981037161
76.00190584416508 108.74167399972512 76.74499554690325
92.57259220918966 100.89413668385579 62.6298619390424
82.90144099267529 110.67952248399098 69.67992473475717
81.29379341174236 90.12090986323734 66.17828911419456
74.466043159993 103.58453883516951 60.269090291346984
72.6085455696333 115.41240364183369 72.96765197454316
64.84273925363468 106.27702107696035 75.56345821957387
77.98683609786175 97.56557916700493 76.10379822859791
90.95827689915916 96.68187189972993 66.79045340955149
101.12061071559384 102.33223186355349 71.27104610782338
71.28433356140225 96.5535935367017 64.83412986507382
89.11109630790845 95.18905344516772 68.58083179595168
69.25083519045681 103.19470125325812 63.81098426785005
73.5232251715369 95.92628382153771 62.09589519243556
102.89462492453919 109.53461696144765 67.83485459540317
75.01987608234553 94.5883392994702 61.96834845449701
87.10770229916767 118.41930227079148 75.98904426442321
71.26136980405559 99.55589101508751 62.375772233975376
79.81669618520944 105.16964167643312 76.57220723155139
99.39955412725108 105.43731741543513 62.89915681338844
74.42836634313764 92.7400845985134 69.81558507713687
82.60402697824061 111.81522349787342 79.85166686058307
64.48244247311335 106.98899475375269 71.5736842239659
86.59820326769962 90.5411600411242 64.76450533006492
99.65760735698073 115.3833295793649 70.01865013800823
77.58980742479412 109.43271730905084 64.91714704493567
90.24985965310705 110.25283386856236 82.81994652586475
76.64864347938015 106.31776008018153 59.33434349953327
100.86894304237512 102.32925158157836 66.91500395875052
76.679294535043 98.71175198660328 59.854749984298486
79.36619781691955 92.82925388478938 62.83870512870622
64.72144528940248 98.32400852743768 75.2217621275143
81.50654378448198 109.37056762672331 67.31294178571866
84.73036227587315 101.71114412684771 77.11052045594249
74.9428311800803 110.92256164409311 75.29347770099415
79.13098793823157 108.56610782424141 68.07305471471695
72.24323348937364 94.53405528920288 69.058722825118
82.7039706224443 103.19580250615515 60.85947318322358
80.2300325308279 103.18062732808637 76.14378395371331
77.35023576274182 109.37424385258834 69.58647716991169
83.57778401062333 97.01695653670888 60.0710408648568
84.43511059082554 104.33156220486046 77.66025865417785
70.19004104179196 97.27436150123046 75.48427263344347
79.52576673206235 97.61362330400725 59.12057060611894
91.08926093304969 99.50621340818522 63.764508925309066
89.33546672802491 96.29565740204254 73.98729463703447
71.44217111422812 105.05365911219829 76.9686385735269
93.38516527731005 106.65033108788083 61.247530409111256
86.01085334323285 111.5689079551557 65.65119745440134
89.23395427901853 100.83142486649574 63.21459894148226
83.8377972089555 93.63604795293982 61.16500446724677
77.43205900363068 109.418030878412 67.07637362379091
86.91553034629932 108.07704137334638 63.19793690978075
89.20477252046838 118.96896803358345 74.96262695548991
68.40898238861254 101.34271595904433 76.92801809007395
79.21594047178712 108.0225072103992 62.00527615408996
68.90049079212021 110.32193317827459 64.60051568221178
66.05985132847226 106.53351333180231 64.80942494603785
91.43744395563752 95.88460863173502 69.2846048049743
87.71897254500145 116.41690374758454 82.3648114628023
98.89727551345449 115.99654833713868 66.57333139174277
87.18762899634318 118.17609684645699 78.66491419008287
69.09280201423748 116.13683046115781 74.32586915009463
64.34237371854412 106.39372236005556 68.01504997480714
77.60227747140851 109.64099828057417 62.420079872385955
79.8768785563628 108.25527132612731 73.43220544728162
70.94706096800377 109.4059080038586 60.43669690176296
62.9565852543834 104.09176098213032 67.9350384088709
69.52998709069135 103.21705660679712 77.49635322413201
81.43441087807082 108.20587933009341 64.85215903636394
82.79164557705003 97.50262276541916 77.26953277014925
64.98981391896054 106.58553474758205 66.29330853434213
84.98954593428721 115.31740396933043 68.97210483213777
78.99157256539655 93.74950864304148 60.99079593237108
65.26812162635083 108.3271458206602 69.58696738302343
81.83572971455058 103.22496616785392 77.78011011822633
74.57930694590286 92.93565964246457 67.04125892563138
84.83880076204684 98.53376857049265 60.05075220265882
81.76835515997593 110.3694848354988 74.99083302145789
90.34682563440201 112.53207245428766 62.37393439269357
78.09383443617801 108.06856445292684 60.00176414652378
96.82728309150798 106.76077913859942 61.15665864854402
75.94672126647835 97.59879380587616 75.13101597645496
96.9912230797364 98.04921892437154 68.98488711379032
74.09072907823425 113.26956073967253 74.29947116465942
68.1229002167249 107.71824623944153 76.97125446971998
67.99417363829004 112.94238107260425 76.04227578473828
70.29351209918777 95.85695799187397 70.67339216858997
68.07270875569553 96.6601840666208 72.47637030551836
86.20068798555266 114.7963430569019 82.96485833220508
75.99431298155949 92.19500591772334 65.59040636657494
94.31568112648152 115.59430329167755 82.04389017259699
66.75801122935647 105.68809169366298 77.13281974392369
69.64639200152746 100.40565497461094 64.23505659671567
76.69038054222868 101.48221289717729 76.36663083344546
99.4150346767064 114.66292939218091 77.3123612380046
78.18505022800508 99.96065303083908 75.59322810350255
87.2102212124579 116.2872453885016 66.95911245588547
84.34430284110798 116.79838071185871 77.42463011814041
72.24417077835149 115.00353521111602 76.09358656721857
82.26153540556952 112.69217891627665 72.40112269722661
87.27905366366782 111.24669666708638 63.83405475129824
65.59313176343939 112.1778805447702 73.80825751239689
72.19023034649138 105.93690011711914 78.82744049648936
72.73995492425227 94.64181316063443 66.38387316111333
68.18970300188917 116.48067490442544 70.76938741554473
84.9695091380217 116.97139247139042 71.72872662079864
76.74514960992364 105.62021455659962 77.7490831048183
77.99811178852107 108.47094803587287 71.68770925367443
66.56707194776497 114.71373357287253 69.79418476908555
78.11875854701736 102.91011983277204 76.298593028008
74.43575615180661 97.1955387312315 60.99043593453176
102.50952354560587 108.98731313860316 73.08440141257203
87.0931129477691 90.76988320148673 71.4366262134175
84.81553309045212 111.93381550410425 82.22886462244539
84.31016713559919 109.7272204604179 65.01808198772082
70.75682384507401 104.57388905644139 61.697993019966844
63.094274541628174 105.63029648548445 69.96550923391632
80.88853066503783 107.2937362171967 62.82819713305558
96.88892834692467 116.9972983627242 71.14657453366858
76.64525729370948 92.73822563263366 71.96997590633549
82.92144515340573 107.29605775066727 79.43697648474894
88.87107293552154 97.47127191851789 75.9063233244092
76.10414586434909 101.64752970697023 59.599613234232805
86.83726257568877 99.71633367544382 61.555162816506986
90.25138685684628 105.3905068094888 81.24067273003212
84.49014273793043 91.37706756343105 62.65565240527478
89.02965265575179 109.62968352922485 62.16663422585335
99.65478409883602 102.46863120358105 78.07259891405984
80.42548333804817 104.26497546768722 60.661032906038116
73.49011199211924 110.52291233117766 61.4863732632335
89.70178400593132 106.48936355343206 61.62249496434433
68.64828750359692 106.10060445550485 63.56441631092966
82.29885284306822 109.17056928657362 78.0684990795269
86.60278153985932 113.67326621224218 65.30373438738643
84.69871078810515 112.3800611538082 67.36846617186289
97.97814265750267 116.80047050617259 68.79599105272443
87.89503335003259 112.25014949509224 82.92618098724277
76.98569807055715 95.57972040203698 59.71169485507487
65.02828809761502 109.9778073977652 74.06876100687192
78.45984979343582 103.00451371132756 59.98698391684492
73.1199759492705 115.29966514735278 69.61215303097796
74.36332533338556 99.79659134971716 60.35538951819288
82.37393367745392 105.57038685145368 61.74263897659943
83.62636811096772 113.21847454111919 69.91747810379877
86.43353726597165 101.45576224321724 78.53136890616042
97.56570778218145 101.78691195610311 79.31729755453016
88.90425264534069 94.18907552031541 70.41771117424257
74.51567481047955 93.38308207223218 64.50553883493552
82.85000786021544 106.25147136046574 77.34641733609685
74.9338111907089 94.55635944223026 74.13908860554064
71.02592415986369 110.10253131637434 77.61848907676914
73.04993110700622 95.8103311297895 73.3349262459098
62.86321620650966 99.13461391380477 73.46340837196978
66.9737404562338 113.1056676932042 67.64421970268384
69.24127898739896 108.92431262601137 62.865917404471716
70.95194586988825 111.57755347943385 63.259687551383045
89.04832553231611 93.1927353363229 67.07139393228137
74.40967306277481 92.9840716334882 72.2514865691284
72.49219680620517 102.2549739043643 77.69792690741947
75.42537919298623 102.91584052956775 76.91695758862431
94.56576531441539 112.18603249514494 81.32688049998329
74.80411243365212 113.10321564566004 69.38224532872371
102.40523035304673 106.96218578211453 73.74243912385242
83.31646896490534 100.81132255688216 59.61842919948636
64.45996746418848 106.70863108904152 69.79812071911965
88.55889448211994 98.85154447353712 62.55403248593198
95.12576956652973 97.01231955656526 70.26840150914447
91.68310006638268 109.46911668293936 61.56147068754926
91.63772989391259 96.12478863175289 74.34364553631353
89.60935106026035 97.94233733289762 64.25907428728925
79.32193352748945 108.52158588569543 66.07248626181135
79.1784119506657 108.19852430585941 63.89965327547556
73.08595372259222 110.0031733691608 77.17436258694183
80.02527190190331 106.54769442908369 61.01680771562379
65.6911308765118 110.5104811144591 68.32604542112136
83.19263641934438 107.42951736318626 63.3212688045093
91.24034692967781 108.28950405815462 81.83230246072405
62.99121849614299 104.9782756822613 72.25898415276258
75.73969886808236 107.89577076810701 59.269099387690346
67.17602962280316 99.59215291815231 65.3898932322054
67.88607166849245 108.32728669603331 65.01390757067563
POLYGONS 976 3904
3 1 0 372
3 0 5 372
3 5 333 372
3 359 347 343
3 343 347 2
3 333 209 359
3 209 306 359
3 306 347 359
3 5 209 333
3 372 333 480
3 377 479 340
3 479 333 359
3 388 335 487
3 372 480 363
3 363 480 426
3 306 305 347
3 347 305 57
3 372 388 1
3 1 388 487
3 340 479 343
3 343 479 359
3 482 388 363
3 363 388 372
3 57 305 210
3 307 57 210
3 482 451 437
3 437 451 345
3 482 426 451
3 484 451 426
3 340 423 377
3 377 423 484
3 296 449 302
3 150 470 449
3 4 5 0
3 150 210 305
3 5 292 209
3 296 302 35
3 150 449 313
3 449 242 302
3 449 470 242
3 464 4 438
3 4 0 438
3 438 0 1
3 413 293 296
3 313 449 293
3 293 449 296
3 333 479 480
3 480 479 377
3 26 242 292
3 35 280 296
3 280 413 296
3 462 280 35
3 462 483 289
3 289 417 462
3 413 280 417
3 417 280 462
3 290 410 289
3 26 292 4
3 482 363 426
3 302 242 26
3 291 487 286
3 286 487 335
3 438 291 374
3 306 209 292
3 374 267 463
3 424 440 267
3 267 440 463
3 480 377 426
3 377 484 426
3 306 292 242
3 263 196 312
3 242 470 306
3 419 337 446
3 337 431 68
3 250 255 318
3 172 320 265
3 448 431 243
3 325 401 96
3 484 176 451
3 325 250 287
3 287 250 318
3 419 138 450
3 419 250 138
3 138 250 325
3 286 335 243
3 243 312 286
3 438 1 291
3 1 487 291
3 374 463 464
3 364 464 463
3 446 323 419
3 96 401 320
3 320 401 265
3 448 228 68
3 263 312 431
3 312 243 431
3 307 416 57
3 307 373 416
3 416 373 2
3 464 438 374
3 2 340 343
3 2 310 340
3 347 57 416
3 416 2 347
3 150 305 470
3 470 305 306
3 279 223 393
3 393 223 288
3 152 276 364
3 302 26 3
3 302 3 35
3 376 467 354
3 388 217 335
3 345 228 437
3 456 412 255
3 440 489 463
3 277 152 489
3 467 298 468
3 463 489 364
3 364 489 152
3 277 489 365
3 365 489 440
3 415 418 326
3 120 415 326
3 291 286 214
3 277 483 152
3 214 374 291
3 437 217 482
3 482 217 388
3 214 208 424
3 312 196 208
3 208 196 424
3 392 342 210
3 210 342 307
3 298 467 240
3 260 350 227
3 260 240 350
3 350 240 266
3 228 201 68
3 68 431 448
3 318 268 257
3 257 268 247
3 418 402 404
3 404 402 298
3 418 468 402
3 402 468 298
3 326 383 457
3 371 382 277
3 382 483 277
3 172 270 365
3 365 440 172
3 277 379 371
3 371 379 270
3 277 365 379
3 379 365 270
3 270 375 371
3 375 248 246
3 337 351 446
3 412 318 255
3 412 268 318
3 287 318 257
3 263 431 450
3 323 249 456
3 456 255 323
3 401 488 265
3 401 257 488
3 398 456 249
3 251 390 458
3 458 390 260
3 290 330 212
3 330 290 382
3 419 321 250
3 250 321 255
3 419 323 321
3 321 323 255
3 261 488 247
3 247 488 257
3 226 247 268
3 446 244 323
3 323 244 249
3 446 381 244
3 244 381 249
3 217 437 448
3 437 228 448
3 248 199 261
3 265 488 199
3 199 488 261
3 450 188 263
3 188 325 96
3 247 187 261
3 261 187 259
3 247 226 187
3 187 226 259
3 226 395 396
3 396 395 227
3 226 268 395
3 448 243 217
3 243 335 217
3 307 342 308
3 325 287 401
3 401 287 257
3 464 276 3
3 198 190 178
3 289 410 177
3 345 264 472
3 431 337 450
3 450 337 419
3 344 328 234
3 298 390 404
3 183 381 186
3 313 407 392
3 342 481 308
3 394 410 288
3 265 199 172
3 172 199 270
3 308 481 171
3 171 481 279
3 197 311 230
3 181 264 176
3 245 304 235
3 251 178 275
3 275 178 378
3 200 341 383
3 428 166 458
3 458 166 251
3 428 173 166
3 166 173 251
3 412 344 268
3 328 466 234
3 234 466 458
3 328 428 466
3 466 428 458
3 279 459 223
3 223 459 232
3 279 481 459
3 459 481 232
3 456 384 412
3 456 398 384
3 120 308 415
3 227 395 234
3 223 232 394
3 394 288 223
3 392 162 342
3 232 481 162
3 162 481 342
3 260 161 240
3 240 161 298
3 260 390 161
3 161 390 298
3 351 160 446
3 446 160 381
3 351 186 160
3 160 186 381
3 360 218 423
3 423 218 484
3 360 176 218
3 218 176 484
3 234 395 344
3 344 395 268
3 190 163 174
3 174 163 430
3 376 295 467
3 266 240 295
3 295 240 467
3 400 229 393
3 229 376 354
3 190 158 178
3 178 158 378
3 190 174 158
3 158 174 378
3 174 430 157
3 396 156 226
3 226 156 259
3 396 189 156
3 156 189 259
3 154 189 396
3 467 205 354
3 467 468 205
3 407 313 370
3 212 281 288
3 288 281 393
3 281 400 393
3 263 188 196
3 196 188 96
3 472 252 201
3 201 252 351
3 472 385 252
3 376 304 362
3 362 304 245
3 316 175 478
3 462 152 483
3 462 276 152
3 310 151 340
3 340 151 423
3 310 443 151
3 151 443 423
3 313 392 150
3 150 392 210
3 483 149 289
3 289 149 290
3 483 382 149
3 149 382 290
3 230 300 197
3 398 249 300
3 300 249 197
3 376 148 304
3 304 148 400
3 376 229 148
3 148 229 400
3 293 413 370
3 370 313 293
3 234 460 227
3 227 460 260
3 234 458 460
3 460 458 260
3 417 289 177
3 177 413 417
3 486 330 425
3 328 384 169
3 169 384 398
3 314 400 281
3 281 212 314
3 314 75 400
3 235 304 75
3 75 304 400
3 295 376 362
3 362 266 295
3 276 464 364
3 462 35 276
3 35 3 276
3 290 447 410
3 410 447 288
3 290 212 447
3 447 212 288
3 465 175 319
3 319 175 316
3 163 118 193
3 421 145 118
3 423 409 360
3 381 338 249
3 249 338 197
3 381 183 338
3 338 183 197
3 198 140 190
3 198 141 140
3 394 139 370
3 394 232 139
3 139 232 407
3 154 266 245
3 266 362 245
3 325 188 138
3 138 188 450
3 266 154 350
3 375 246 425
3 425 371 375
3 398 300 169
3 169 300 230
3 461 239 192
3 239 285 246
3 190 140 163
3 478 207 167
3 167 207 194
3 478 175 207
3 207 175 194
3 316 478 136
3 195 301 311
3 311 301 230
3 285 486 246
3 486 425 246
3 227 131 396
3 396 131 154
3 227 350 131
3 131 350 154
3 301 179 222
3 130 136 309
3 179 128 173
3 173 128 198
3 179 141 128
3 128 141 198
3 241 127 168
3 168 127 194
3 241 167 127
3 127 167 194
3 465 147 175
3 175 147 194
3 174 124 378
3 174 157 124
3 124 157 341
3 147 123 194
3 194 123 168
3 147 331 123
3 301 122 179
3 179 122 141
3 301 195 122
3 486 74 330
3 330 74 212
3 74 314 212
3 465 319 145
3 421 86 145
3 145 86 153
3 421 135 86
3 163 140 118
3 118 140 421
3 316 136 231
3 135 195 110
3 235 112 245
3 393 229 279
3 279 229 354
3 98 112 235
3 147 465 153
3 465 145 153
3 259 107 192
3 192 107 461
3 259 189 107
3 107 189 461
3 430 106 157
3 430 115 106
3 106 115 253
3 141 85 140
3 135 421 85
3 85 421 140
3 457 104 326
3 104 120 326
3 114 157 106
3 307 120 373
3 307 308 120
3 378 124 200
3 200 124 341
3 200 275 378
3 232 162 407
3 407 162 392
3 285 99 486
3 285 98 99
3 99 98 235
3 461 98 239
3 239 98 285
3 135 122 195
3 169 219 328
3 328 219 428
3 169 222 219
3 219 222 428
3 412 142 344
3 344 142 328
3 412 384 142
3 142 384 328
3 415 468 418
3 415 205 468
3 370 139 407
3 251 315 390
3 390 315 404
3 251 275 315
3 315 275 404
3 385 102 241
3 241 102 167
3 385 432 102
3 102 432 167
3 478 474 357
3 357 474 432
3 478 167 474
3 474 167 432
3 424 320 440
3 320 172 440
3 320 424 96
3 96 424 196
3 424 267 214
3 214 267 374
3 404 95 418
3 200 383 95
3 312 208 286
3 286 208 214
3 373 94 2
3 2 94 310
3 373 386 94
3 261 93 248
3 248 93 192
3 261 259 93
3 93 259 192
3 386 104 441
3 441 104 457
3 168 358 241
3 168 434 358
3 358 434 183
3 331 213 434
3 331 110 213
3 168 123 434
3 434 123 331
3 135 110 86
3 86 110 153
3 141 122 85
3 85 122 135
3 120 104 373
3 373 104 386
3 245 339 154
3 154 339 189
3 245 112 339
3 153 331 147
3 153 110 331
3 133 83 114
3 114 83 155
3 133 88 83
3 83 88 155
3 371 473 382
3 382 473 330
3 371 425 473
3 473 425 330
3 409 435 360
3 360 435 439
3 435 476 439
3 165 477 193
3 477 115 430
3 301 256 230
3 230 256 169
3 301 222 256
3 256 222 169
3 112 98 461
3 472 78 385
3 385 78 432
3 472 264 78
3 78 264 432
3 334 159 76
3 314 99 75
3 75 99 235
3 486 99 74
3 74 99 314
3 222 73 428
3 428 73 173
3 222 179 73
3 73 179 173
3 410 70 177
3 177 70 370
3 410 394 70
3 70 394 370
3 177 370 413
3 270 204 375
3 375 204 248
3 270 199 204
3 204 199 248
3 434 121 183
3 183 121 197
3 121 311 197
3 189 339 461
3 461 339 112
3 241 358 186
3 186 358 183
3 248 192 246
3 192 239 246
3 351 68 201
3 351 337 68
3 165 475 202
3 202 475 391
3 165 231 475
3 475 231 391
3 351 252 186
3 145 455 118
3 118 455 193
3 145 319 455
3 455 319 193
3 309 352 357
3 357 352 478
3 309 136 352
3 352 136 478
3 391 30 202
3 30 89 202
3 130 81 136
3 391 231 81
3 81 231 136
3 472 228 345
3 472 201 228
3 176 67 451
3 451 67 345
3 176 264 67
3 67 264 345
3 181 66 264
3 264 66 432
3 181 357 66
3 66 357 432
3 311 213 195
3 195 213 110
3 476 355 439
3 213 311 121
3 121 434 213
3 193 366 165
3 316 231 366
3 366 231 165
3 443 356 423
3 423 356 409
3 443 442 356
3 356 442 409
3 386 64 408
3 64 134 408
3 435 409 387
3 387 476 435
3 113 60 387
3 387 60 476
3 113 72 60
3 60 72 476
3 143 38 97
3 38 77 91
3 477 100 115
3 72 389 355
3 355 476 72
3 77 216 334
3 5 4 292
3 186 348 241
3 241 348 385
3 186 252 348
3 348 252 385
3 116 146 62
3 157 453 341
3 341 453 155
3 157 114 453
3 453 114 155
3 341 349 383
3 383 349 457
3 341 155 349
3 273 442 405
3 439 51 181
3 51 111 309
3 310 94 408
3 408 94 386
3 405 48 380
3 380 48 443
3 405 442 48
3 48 442 443
3 146 282 56
3 159 422 50
3 360 46 176
3 176 46 181
3 360 439 46
3 46 439 181
3 111 297 309
3 309 297 130
3 111 211 297
3 297 211 130
3 418 346 326
3 326 346 383
3 418 95 346
3 346 95 383
3 299 336 129
3 101 87 336
3 193 353 163
3 163 353 430
3 193 477 353
3 353 477 430
3 129 271 299
3 129 71 271
3 271 71 322
3 101 185 87
3 87 185 391
3 101 30 185
3 185 30 391
3 322 184 82
3 184 237 79
3 62 69 220
3 61 47 69
3 69 47 220
3 408 452 310
3 310 452 443
3 452 380 443
3 200 274 275
3 275 274 404
3 200 95 274
3 274 95 404
3 103 84 269
3 269 84 253
3 389 327 211
3 116 258 146
3 146 258 58
3 116 52 258
3 182 206 143
3 206 238 143
3 205 411 354
3 354 411 279
3 205 171 411
3 411 171 279
3 202 203 100
3 202 89 203
3 203 89 103
3 391 81 87
3 87 81 130
3 44 90 436
3 220 43 62
3 62 43 116
3 220 284 43
3 43 284 116
3 113 42 225
3 225 42 61
3 42 47 61
3 181 51 357
3 357 51 309
3 114 294 133
3 133 294 253
3 114 106 294
3 294 106 253
3 100 269 115
3 115 269 253
3 133 272 91
3 84 97 272
3 211 327 40
3 40 327 129
3 71 39 322
3 80 237 39
3 143 238 38
3 38 238 77
3 63 37 284
3 284 37 116
3 37 52 116
3 36 52 215
3 58 34 146
3 146 34 282
3 58 54 34
3 34 54 282
3 220 33 284
3 33 273 405
3 61 32 225
3 32 237 80
3 436 454 103
3 103 454 84
3 436 97 454
3 454 97 84
3 238 262 117
3 238 206 262
3 262 206 144
3 47 33 220
3 317 137 44
3 90 31 436
3 436 31 97
3 31 143 97
3 101 317 30
3 284 29 63
3 29 405 380
3 117 54 27
3 27 54 58
3 4 464 26
3 26 464 3
3 89 25 103
3 103 25 436
3 89 44 25
3 25 44 436
3 111 24 211
3 211 24 389
3 111 355 24
3 24 355 389
3 82 184 23
3 23 184 79
3 282 22 56
3 56 22 79
3 282 180 22
3 22 180 79
3 144 21 180
3 180 21 92
3 21 182 92
3 282 403 180
3 180 403 144
3 282 54 403
3 20 327 389
3 216 19 65
3 191 28 19
3 19 28 65
3 36 191 27
3 27 58 36
3 182 18 92
3 92 18 471
3 182 90 18
3 18 90 471
3 44 137 90
3 90 137 471
3 137 317 17
3 17 317 299
3 180 92 23
3 23 79 180
3 143 31 182
3 182 31 90
3 336 87 40
3 40 129 336
3 471 137 17
3 17 82 471
3 82 271 322
3 299 14 336
3 336 14 101
3 299 317 14
3 14 317 101
3 184 322 39
3 39 237 184
3 262 13 117
3 117 13 54
3 262 144 13
3 211 12 130
3 130 12 87
3 211 40 12
3 12 40 87
3 155 88 224
3 91 221 38
3 38 221 97
3 91 272 221
3 221 272 97
3 238 469 77
3 77 469 216
3 238 117 469
3 225 59 113
3 113 59 72
3 225 53 59
3 59 53 72
3 273 45 387
3 387 45 113
3 71 20 41
3 41 20 53
3 442 16 409
3 409 16 387
3 442 273 16
3 16 273 387
3 308 171 415
3 415 171 205
3 63 29 414
3 414 29 380
3 324 361 63
3 52 37 361
3 361 37 63
3 182 21 206
3 206 21 144
3 71 126 39
3 39 126 80
3 71 41 126
3 126 41 80
3 319 316 366
3 366 193 319
3 84 164 253
3 253 164 133
3 84 272 164
3 164 272 133
3 111 125 355
3 355 125 439
3 111 51 125
3 125 51 439
3 53 119 72
3 72 119 389
3 53 20 119
3 119 20 389
3 52 361 215
3 215 361 324
3 63 132 324
3 63 414 132
3 132 414 134
3 236 109 64
3 64 109 134
3 236 406 109
3 109 406 134
3 49 406 55
3 55 406 236
3 327 15 129
3 129 15 71
3 327 20 15
3 15 20 71
3 405 11 33
3 33 11 284
3 405 29 11
3 11 29 284
3 225 10 53
3 225 32 10
3 10 32 80
3 47 9 33
3 33 9 273
3 47 45 9
3 9 45 273
3 299 8 17
3 17 8 82
3 299 271 8
3 8 271 82
3 55 329 422
3 422 329 50
3 55 236 329
3 173 303 251
3 251 303 178
3 173 198 303
3 303 198 178
3 134 7 408
3 134 414 7
3 7 414 380
3 91 433 133
3 133 433 88
3 91 76 433
3 433 76 88
3 100 6 202
3 202 6 165
3 100 477 6
3 6 477 165
3 403 54 13
3 13 144 403
3 41 53 10
3 10 80 41
3 55 422 397
3 397 49 55
3 117 27 399
3 399 27 191
3 100 203 269
3 269 203 103
3 215 105 36
3 36 105 191
3 215 28 105
3 105 28 191
3 406 324 132
3 132 134 406
3 334 445 159
3 159 445 422
3 61 69 444
3 444 69 62
3 324 369 215
3 324 406 369
3 369 406 49
3 215 369 28
3 28 369 49
3 258 52 36
3 36 58 258
3 441 50 329
3 224 429 457
3 457 429 441
3 224 50 429
3 429 50 441
3 42 113 45
3 45 47 42
3 19 216 399
3 399 191 19
3 422 445 397
3 397 445 65
3 452 408 7
3 7 380 452
3 441 108 386
3 386 108 64
3 108 236 64
3 329 236 108
3 108 441 329
3 159 278 76
3 76 278 88
3 278 224 88
3 89 170 44
3 44 170 317
3 89 30 170
3 170 30 317
3 79 332 56
3 56 332 444
3 79 237 332
3 332 237 444
3 457 349 224
3 224 349 155
3 76 485 334
3 334 485 77
3 76 91 485
3 485 91 77
3 82 420 471
3 471 420 92
3 82 23 420
3 420 23 92
3 224 233 50
3 50 233 159
3 224 278 233
3 233 278 159
3 62 427 444
3 444 427 56
3 62 146 427
3 427 146 56
3 32 368 237
3 237 368 444
3 32 61 368
3 368 61 444
3 28 367 65
3 65 367 397
3 28 49 367
3 367 49 397
3 65 283 216
3 216 283 334
3 65 445 283
3 283 445 334
3 117 254 469
3 469 254 216
3 117 399 254
3 254 399 216
