# vtk DataFile Version 3.0
A great-looking cell
ASCII
DATASET POLYDATA
POINTS 633 double
121.46375433981963 109.40587749894809 60.53624600895995
120.05025618588598 110.0848546605199 62.4723791028699
121.04075569401087 108.2172920280089 62.76674821972244
123.4650937176333 110.40076187704707 59.07824201042173
120.54073653838172 111.31333247192048 61.15934070801375
120.61902556731081 113.30146479003652 61.03477011500169
122.92908772928173 107.86098925494562 61.76509750126918
124.96045098777505 113.77978768099975 59.96472853601884
123.59523542851947 112.48237688743099 59.10252051126483
120.06593834774877 114.15579315254962 63.05888061553268
129.94446182372863 117.92587441921367 62.8050632749065
124.16746347197646 122.37661378109937 66.57992940845706
124.469739780295 117.88171310175123 64.6147781260343
120.72971316543313 118.50004702227419 65.7227894398216
121.10163554156041 115.82214827641948 63.91681416053617
119.33486458461715 110.95418112577231 63.94339772553566
115.01023532069377 102.58327711388738 80.41699287192807
121.11284939882063 101.97346094375462 80.8122538747769
120.060138580382 120.37484612426913 66.42867218274515
118.82589475353912 115.77553463088287 66.6315755528448
119.58506020451165 114.94100180018188 64.94151668962438
118.9268175455807 113.98523410593317 66.25115827827264
119.77093022747057 109.10859156752281 64.55445735032137
117.69805340593655 110.68108423848861 67.1654576411927
119.03470459349455 110.8565339948595 65.68711417767697
120.13351381636528 106.12634860345362 67.27420369315944
117.40974151430554 103.98346042405362 70.09892822894302
120.13083460242031 103.41196517573346 69.85598060437965
115.04140152676838 102.77880726928291 73.89695168047186
118.54057275551214 101.37814125003356 74.51398054482074
113.38771585074113 104.87028402312765 73.32740023278419
112.1718209360158 105.5464126244605 76.2576721906365
112.1105752143366 107.68115063363554 80.84907795249016
112.71365476483825 110.07946594393731 74.17078997184736
114.07387400947015 112.26559336347395 72.82438370455591
112.8486323665566 110.96870857837239 77.98003140908776
115.26250784148266 120.48623903590762 70.24196342587302
114.93699813671009 113.61131583272048 70.97434354115785
115.67175656650669 115.13017447183068 69.32013287183645
117.42158611350477 114.153066625461 67.61798938972132
116.82402337132994 106.65213230467174 69.51999187189642
115.12899149089695 105.1348779405377 71.10334986224545
112.20440065636014 108.67054915341595 76.54437538950118
113.68742294161588 107.34062843363385 71.70642620508659
113.42180337086876 109.84312586894225 71.69780676904185
116.08960862109235 112.88235455369347 69.17598128883692
117.04860930156902 108.79878830682581 68.06771787145496
117.30188540738685 112.1825536515618 67.96268852441247
118.89251276326274 109.09114145436496 66.72236444012292
116.69950827244016 102.08278052131794 75.07708452406966
145.21598752210105 120.1371256887044 67.16434961012469
145.02523681594715 118.4392880541 70.6160105881509
113.52936482202304 103.50056714694264 75.53209437921913
115.5911403051578 126.31967549863602 78.47325759031284
140.63071292116453 110.92283952362126 65.36361934640524
118.77027262537418 128.24332310934713 78.92707484408466
139.6373002348288 122.85424418435028 75.62423476104522
137.14772816801022 121.43717555665117 82.72910873726983
118.53812100754372 124.07540564605702 68.9408628984536
139.33244109943016 110.92272104550776 63.23810627172412
122.32408523868344 127.19478854310354 83.82435678477852
140.70454084369868 105.857901061847 72.21519869490078
143.18802013582618 117.31339334885334 63.35309602223078
141.06663329975325 121.10504511944572 76.00676082721753
134.11267356323114 124.18009077481534 67.20838943864032
140.6595867898641 110.82581680466218 71.27420861997187
140.38957054943643 110.95024184403526 75.18162613338856
135.05823559941146 124.38402647876343 70.47023042775074
134.23146696521684 123.91536741335474 64.58988528243951
144.77102259633378 119.17108877197022 73.20253854758478
143.42726495254826 113.90453648237663 75.50075011542987
128.51777445004868 103.7296736410721 85.82374341851944
137.10025487428612 112.9651086387218 83.53149656423476
136.36064256169112 106.84496760898806 86.2706152496927
139.15818884877723 104.45454355394007 78.9832111958979
117.55758460105142 126.73474654419564 83.78093895204353
144.38659315240164 121.68015969647024 67.61926801219985
145.148864042736 118.52876428284243 66.75301951007381
143.05707047503842 117.39667145338304 76.33253108948657
137.9373230070872 123.4593815918894 64.2177456488884
139.85440450866352 123.83406227653869 66.483370612058
137.51210029635598 123.65752930417102 78.74502153418821
138.25768402453153 104.7216305873946 83.61911307289981
145.1243794691314 117.00639395994887 69.6396649246173
140.59328153818944 121.41414995604333 62.39523169394177
144.02947466225933 120.81458531862376 74.02274381245198
137.6546365725915 124.37590871693402 68.27585528775344
121.92125461350405 101.8624130203404 76.73701199776208
145.17666540103883 119.41193189027248 68.9287950930743
129.97048536234965 106.63345232683916 86.28720575719885
141.52549445022362 118.83278847338953 61.93875575415353
139.93705288555083 123.34376315557026 64.47098068059059
139.00808444107577 123.83234888833528 72.83660621964509
130.50656130560228 103.10567872161499 83.94085675822366
142.6899881395196 119.59899871591095 76.01006475180793
128.14882809393163 123.0443717921888 74.61126786080489
144.88078375488982 116.39567875995725 67.2747123142022
144.60103190015082 114.86679349065547 71.20112925323531
143.05547519131596 122.92965304275678 69.29642482858992
133.8634261179219 125.03535514605186 74.68161514494483
141.41968216512058 116.67074640414064 78.09420562723388
132.07274517445205 121.18813609265116 84.10776229751129
143.5089504160681 122.19962036759013 71.6731903079609
122.56278207345117 102.72189513713056 83.12152713109823
117.5413000875974 103.0183914696601 81.47904863169356
140.81667143888848 107.99432701728487 73.55517857082843
135.67763320371412 123.36655627286635 81.1974221628399
118.45634586546437 105.14919031866476 83.41753892144571
138.23730940772117 110.84656723681142 82.24809772519166
132.97029804468443 123.00109348341319 82.00875993964316
127.24089740022471 120.94501358198521 82.51823041393044
122.66972456361458 107.82055621710873 87.27778968925867
119.35139360395252 108.73223634263537 84.26186683509313
121.10734595714732 112.63772837652652 84.51852337773417
132.46604036590858 108.60519215357397 86.50831549193411
139.09709199318462 103.4633913061574 74.67535903463954
137.3531624086579 113.61416294771925 80.83202981697754
116.51078553989855 123.00435820477738 69.77485065350042
139.03972125638228 105.26081846073222 80.88636876757022
114.23039257426952 122.81966910435739 74.81312865267368
134.23885048454952 118.99273897430986 83.95682597178615
129.92692869244124 120.41526925548787 86.05829360826024
127.97537913131562 112.4162904053427 85.92216456510874
130.98441943436467 109.79623920017616 86.42509652822895
130.75339807160285 114.72471800774089 85.30131120181072
112.70918146320425 110.5545498903982 80.83103741489586
114.10045502596448 120.86662204076228 80.34471667264752
141.95035542045736 123.16429648624671 66.8588407442461
114.33706076175281 118.3906246201904 71.7343334050193
125.58517801189053 101.45471941439433 70.16099656647768
125.99412034106003 112.52364870119135 86.80339815380697
118.19472944311082 110.12920140709518 83.14919791948671
133.43493800484075 102.43939793592692 83.16535420902576
123.56447588366605 127.5215437440922 75.91994973320075
139.5069858655886 121.65349606634265 78.10220235786247
127.65508519955034 119.5857991000183 84.70834969765825
114.68717944746582 112.698240999906 80.95699745307195
143.78496839729073 113.77254826167926 73.25761139523172
117.42064112142158 125.46930693858522 70.95492774548411
130.09757421975647 112.38886898069347 86.10653471358977
137.76497965416283 111.46903396653856 84.1413043362253
137.96461665575816 115.6325493037097 78.89383831887754
131.8735408399514 122.99590233880896 80.54611368578631
120.6036508915542 107.68331985007724 85.14948266761851
118.74317444569444 128.64025074102673 74.99389305702962
116.90118561238768 126.95833915521975 80.76376841095467
134.79749054918418 121.79229633909603 83.53564405619144
133.0779189321106 101.19519630449032 79.24568759783917
119.14881214015955 113.16075077741478 82.17027294595859
133.7193241450772 110.40611454824862 86.54591052581485
114.0265454672556 119.97269267362155 76.16993802228845
130.08009026525576 108.55238490861089 62.69791346035595
142.09421703825532 113.4554850458858 77.04465280040303
118.54113435870637 107.21124724298616 67.68551055031509
119.07575953900016 101.45474318459 79.64910109286416
139.77672688796218 108.84983003809634 78.7506058441275
138.28971994351707 113.63863792445758 79.04858783038227
118.12710646670722 122.01629399198445 67.38475507296725
117.37825586102782 121.56424581260752 85.07729289420145
115.18750828554208 102.28525674472559 76.32774619888704
141.61010854121565 122.30009350901958 73.78149854150774
121.76915209629684 124.82272707006483 68.34328322677786
139.6287045769346 124.07279852598711 68.53837771961348
126.0280017848714 101.31368052364779 77.25623877310807
128.83268477213693 101.59154315362404 74.08583273791157
135.08980889426877 124.95710108301921 77.21227901461026
124.92589143310967 124.70137183561224 70.02853953377956
122.84201929834386 123.32469376638306 86.68201301104678
134.57442281854748 111.44702259607887 60.89070085838875
126.33774738695261 118.37777336485613 83.7031651396817
113.8398577254177 122.12025682371534 77.6845323707961
139.31416103718746 108.12736543252004 81.7162761770417
123.1332366998136 105.12894144043324 65.61936739304005
132.55041745527717 116.21757357967728 86.19477936680833
131.30424054522473 120.47721263775732 62.61294871064055
132.9350882665411 104.49238249538797 85.33372463737915
144.82212304558473 120.5989234812193 65.39284002299003
123.2323898046974 126.34557680747255 85.41326005408685
120.90545500563084 128.46856385015496 77.04251212061628
125.44273703510781 125.82144069959313 74.65555796171496
127.9939733911706 110.34859505460193 86.54016969286546
136.38353712168035 111.5751073260363 85.58820861868224
140.8127720477168 119.30627398730904 77.66151877142552
141.05119885412952 123.1667777600048 70.77665792587806
128.1929317363264 122.02096805278592 80.50755833637054
128.57979225932812 105.94243259364448 86.63409453090571
115.38704964785028 125.6022568655491 80.43272355623301
134.8683994096912 103.22141498857965 84.97317720417679
144.87994328318118 119.93662834784111 71.56199019379842
129.79114289847013 117.41134464612463 85.54326124206744
133.29096133692144 124.14363477944251 79.58323585937313
114.15392307838212 122.89080439582372 81.62422395834653
126.24192759571872 123.30451356467603 82.17918093035965
131.4421153416577 124.0963341970399 74.01937560066118
133.2795904597797 124.65378292571116 72.03016920696045
127.51958866580813 122.92404005016925 68.86537084499142
121.60598645976039 128.32926680453764 74.03343681798788
132.8622116933216 113.38488441034946 86.40989310191867
112.16873806916088 108.9862766429387 78.94270733830501
132.80979086859543 124.05688303884446 68.88767451889112
129.34471155851523 121.09059361649139 83.57980574907701
112.64711819902337 110.57168987924821 76.08896919015432
124.2371076942026 122.52174811776769 86.5084821400575
136.38479130803333 115.72183544551086 82.7041792280398
130.5362124117913 122.16325843878398 81.7071919844541
129.74198117743765 122.67029607739474 75.9169972617707
129.31889208141607 123.01970907758148 73.31930863798534
138.6523097983018 123.25529943319363 77.08590725735505
120.21252693395384 110.11352146676546 84.94382253565064
138.69894250514562 109.55293000981231 62.16725922993877
117.00869347900513 102.32466214134408 73.52225345330257
138.63005118123914 120.17090212769847 80.51840905754248
127.0026081986179 123.73294500536583 76.14126587856015
125.09913802944017 115.29083939643367 86.08522954270073
131.30584191944354 107.40118256325536 85.85596253040798
114.5302379777073 114.0805498998817 72.49918352644794
133.35802909501103 122.53467173297733 63.4655147899596
134.20955615462378 106.88283013907089 62.846958436205426
116.99496200795112 116.61997166026475 82.45030605033897
113.72901452070158 103.80573005217637 82.21995725520247
140.53024428284343 108.25254697464405 65.1619228318704
125.30634524348318 122.68488145911277 84.48844194136001
115.96434828987269 124.10647780001084 71.36931730299152
128.45231851086226 123.10484413501521 71.08452979885959
130.9733048577578 123.08862194340433 67.0790766519006
124.76174150166948 123.97479913667075 85.5859808947121
124.79090146680883 125.50729478250643 71.78108907814168
132.41476069478023 119.04129152107801 86.38531187015575
128.92148781057793 121.37504440499553 65.19005521064315
138.62043627727138 111.66319086079908 79.34639401944455
126.78140383082957 103.02741683814881 85.69228637385498
126.34782336633408 121.89710988810134 67.09703036558231
123.27888489297116 125.28186910947635 69.43600429517664
124.51161161927851 117.66588636887118 84.41636992008645
115.12982190620541 122.6625932662874 72.02536598471336
144.15809873832555 118.41092702470928 74.55601111789231
115.76815821944128 126.27770412671633 75.57197438416159
137.3764088448816 115.5460089076435 80.8290575969325
135.29061816042258 102.16229412266411 71.80117633348301
124.81493849773135 102.7081684526447 85.08195451985424
127.75465208722757 106.36728026712377 63.67949261072918
136.2548078107451 112.70287133993024 61.34136100575832
121.91132430805047 121.93812011577306 66.51294929344061
135.99631297978897 123.69414031617833 63.773926535071425
130.54599399503715 122.26010186460805 64.77558614897382
140.73630636896857 107.34974604815282 66.8798075825221
128.11652892759557 114.60932933018809 86.09721220345116
140.90094573181872 108.61516217222488 68.59782877120031
141.6472474492575 112.00662648950485 66.363391917655
127.14589960905914 101.2955690817881 70.60227331516215
127.40930033729153 120.97160270205329 65.31768665662916
114.12651499671261 120.36183153075976 73.15247835712475
112.49846975044454 105.08309913564796 80.21260788327879
136.93094085855464 120.69076494087034 61.75412991638668
142.5995110473258 121.3282636807758 75.278789442333
140.36480552832867 107.46603148694186 77.10987946046325
114.65017828250195 124.78778968481474 75.04503832058697
135.35488598570723 101.8330597196437 81.03384603354372
129.9507064896999 123.0008436625501 69.05851244494949
130.58734954574135 105.30116047705822 85.76884685501834
137.8031825802598 102.9221427134233 79.30904201670415
136.00404657673417 124.71962133098705 72.9971083110426
144.430400203034 115.79418348420043 64.80458933299487
143.9377829766229 113.70269193427458 66.88667272971044
131.27930708993563 101.21437235755921 76.79678712729616
123.76721040365256 127.15524275243334 73.4748461353295
117.06912594904139 127.42482233743281 78.80353173169739
130.43283845410147 101.31571686310016 79.20360519829485
120.37033294664921 101.54845284039845 77.45444346133385
124.7218874913131 106.52791675312285 87.33365671366599
123.56273373771116 108.37679326478465 59.88674352053453
139.91781455698816 105.13952531529712 66.87557145135736
133.71257394051253 117.68019470505878 85.53468071339384
120.8654114725044 114.36206643285836 83.26014220148177
140.77557914368575 108.7139195595875 71.05771825151122
130.76166433280247 105.50381285496447 65.04696250998363
122.5844392007217 107.16258921534352 63.61786451564542
123.66001810080648 126.59882907774764 82.5019935947994
139.03401667413797 103.83177343512254 69.07629415115846
139.1537159504593 119.70140309764633 78.5336839725753
140.47774321154125 113.55595092737035 62.570982070049624
138.24362802416996 107.29368285838065 62.31911021291428
118.34467022944277 120.06905083877189 66.88482657767192
135.48320749364066 124.54703148771333 79.37114880237937
122.68362547532573 103.44459349458032 85.12424769674932
140.70207046695884 109.75183837733617 66.57411551485049
121.97385202207279 118.34258146773759 84.1647742737207
137.62981778671167 105.3236579195698 85.82882646662257
136.70116783704373 105.75042159416644 63.22932841314727
133.99679952418958 103.1317096373702 68.13778685336433
132.54831481845832 104.03343974276916 67.47469771328335
124.79146933655241 107.97169269689405 87.93178535124757
144.9245337888624 117.2018610821723 65.85263394244012
122.42184608608886 127.21595556229961 71.36206025185663
117.6758007573521 101.5225503246813 77.11240648446606
126.53433747570173 123.81107644068112 79.19700955202498
122.42508165726665 106.5217715643928 65.39250725796988
129.7917748076679 101.79705183346162 71.09415894084572
144.26977332332316 115.91847849052832 74.7042862542937
123.2353704575145 127.58282635162526 78.73681368186372
117.34573140814128 127.670510329014 77.0003968289406
132.60818760683296 105.22666238236664 65.85146113326408
134.0397215786225 108.64659857006119 62.10987881340388
135.69554368829054 101.6833844861623 74.91923316469614
114.33836666183306 123.98007761772317 79.7524884861595
114.45513777309141 116.01215795367588 77.21751965666321
133.37036609483778 102.44138317463752 71.55799839585072
137.75877440224866 124.23929048175101 66.16758721812991
121.223294788292 123.86277888507519 86.53733489312985
129.40403780371653 101.58751247851534 82.70083225278537
135.30058886655036 104.71558229193346 86.8354758055874
115.29443228434218 124.7129696922899 82.60803695403428
120.80700910110701 101.65084555726375 79.11182858656073
139.80095199026877 107.05426414449198 79.99638701428896
119.83308089688776 127.90631559761079 81.90523898262224
143.75265740644937 119.72336755086648 63.12864184821421
128.5361721384848 101.21923091535571 77.7375313105138
129.7148821850206 103.49440549848269 66.74709653432679
130.1809941204266 101.79313551090605 72.68966931926477
137.98492421609208 107.40654180489116 84.29441918807515
112.98856892119981 108.69544921812272 72.85858597873217
126.97741072309594 101.52161203039988 78.77010656092737
123.12720149057978 104.70662747078445 86.93442689349388
126.9242265443402 101.26090818553742 73.79672517097602
132.52535247217676 101.73990102247163 74.91528886796102
125.67786032121101 109.21119879625786 59.29490514934109
140.3338952813099 114.04640432559913 78.87940128957655
140.43319373309498 109.01008570594783 75.76767810813291
128.6078418222297 101.73369819385348 70.01757436531763
111.92122874706376 106.83681968055807 78.51836039001641
130.97733278354406 104.382847909035 66.48203392415252
127.81211354935206 105.21598244183873 65.44146745122657
131.38312818750413 102.27888832872495 71.25622933041173
136.97722251476836 102.10923002007105 73.4084522151863
136.27607173426932 103.16977751947769 67.95285390688673
135.31698529972962 117.44463105350947 83.30421178868346
116.36536321271582 121.38796693825837 68.55976412148206
142.3896292097234 120.74061572428585 62.38669101530177
142.7235869055191 112.31422533565186 67.99711975719788
129.2879633167732 107.95167362851367 86.61846622854519
114.85711983717722 121.68475619377729 83.2874474305878
138.65494461982175 104.70939113697133 64.77122310738865
134.712927739176 102.52549310539976 69.85881087754146
114.32019462361653 116.84597126748437 79.26863507595772
136.54446523843424 110.62867927111442 61.46923951985625
132.067424851293 102.15832997534463 73.14378653602758
112.28066438424737 105.1289516759268 78.30146561011586
119.88373658442237 101.79347752259886 73.45116253304644
119.41452965918532 101.2912381656952 76.03152107592211
113.46329587793035 103.5273088323827 80.28966675841696
129.10416159951365 109.41738165639944 61.58169084623534
113.71074742238434 106.20130285065972 82.1019262904618
139.37123104497869 103.43845884770913 71.99215664368208
113.56934807974349 111.90904325892369 79.50691710483927
114.4384176919905 113.97102161783823 76.39771914588508
114.4672283800168 124.49775018368834 76.88159735077521
134.2616401507537 104.89451016697278 64.2791511399547
119.64958949564614 111.52100173013743 83.71459978014806
128.24826798915805 101.42133720276331 72.03217243718733
138.04603373386178 122.65123771010943 80.976121673474
134.25228576657435 101.41673095766777 76.31406863909136
136.026900299533 102.3911220850581 83.46377954440088
112.3678736465818 107.50308957179492 73.9896975879947
134.8327968259139 109.76176243922141 61.407692418494825
141.51715838762863 123.63966253225514 68.885307188757
139.96740148318895 109.89833122443342 64.31961101898763
137.09270062769656 102.37234654700353 70.56642438172894
136.3995156319991 103.85175014586396 65.29102351141798
143.6439398244672 112.88511047286477 69.65301213663648
120.42014995056711 123.81128548026095 67.42738057344788
125.19628389709138 120.23260375932308 83.8287012920559
127.58582406166252 110.863253098798 60.501627804973594
118.88885898210634 128.480075693064 77.00874498520244
125.23862663632853 101.69684969222666 79.43709527692249
123.7153140915857 101.6360912285037 76.00927215940843
138.21194961247758 103.77702348321009 66.70167013712431
131.40712467069054 111.10611115579673 61.37915495513639
120.13877163463464 122.02915378809799 66.94406634476933
123.62310583556 119.21265528229969 84.305378003154
134.31260953246797 101.97908012664332 73.72101230861558
139.98145326474258 104.64227614648817 73.56581586025833
136.2141223686154 114.74662908911202 60.992471327928484
134.5384026994847 115.0571493712934 60.86003193821723
140.25530872285307 112.02505006216474 64.16752210321208
135.10431728778892 124.18577494866013 65.93803171224435
128.27453294920082 118.50227720660352 63.47375103925875
119.20484595321406 123.2422103650477 85.42724544810662
141.87164085389665 114.85109572820437 77.91304666799114
123.61911229383206 124.89564908586048 86.7004128923627
130.83773855708984 110.0055962201784 62.46623210855817
128.86463268043937 102.41504673749212 67.97573363354985
119.23377165282007 125.43650194222406 85.5881213049763
116.36920679710053 103.5339226421262 72.26734860851687
119.64038443197241 106.57643441395112 84.00424991773406
136.18901160943523 108.16369244627491 61.67404839320941
130.71588805590486 101.65647441104186 74.5625860732478
115.85885106464433 109.2058830826537 83.81740077491256
116.85519584008682 101.56635495013882 79.57318744260574
135.7365001625895 120.23062105179916 83.22339733736996
138.01316330890745 117.18563415948887 80.96610010294219
143.63518186253916 113.3278063844473 71.50209065957515
132.31811424135697 113.61413178930532 61.08849814842829
129.72382917754027 111.23127823048631 61.56939187786371
121.12332799736858 119.48149253700797 85.49626211846957
141.31706656955012 111.09593048736949 69.1767454158183
137.30558587504035 117.03759206105524 60.86018067180763
132.72429109806777 112.08386428837014 61.21262474121204
121.49143501144003 126.74199547890795 86.61380169435472
135.62708573127264 119.24713638938329 61.15705192294347
126.98172922165325 106.96937937333225 61.95182564355272
122.7758769797539 123.6152438869565 67.84179618203083
116.94735938491816 106.01503892030803 83.70909123985983
139.15973657090854 109.92739295625786 80.55861417775525
133.66746408150894 120.4668537596229 62.011771197797685
132.4393911653182 103.39129866093137 69.56599226832017
120.36231620731265 116.68127634717511 65.66238220648744
123.0389058964576 120.34450483753741 85.63949508348378
126.14763282246443 105.01530411867866 86.08542776635284
125.61021595021849 111.72669336812802 58.87914331781012
135.70542600892034 124.39232740906797 68.16329282435066
122.3066142803007 115.41664412326736 84.67019693509457
145.2537700648051 117.82302771681438 68.1417865048612
134.21159517959725 113.58665206866517 61.30487076998762
139.21318676586338 117.79747580626115 78.97651026230479
138.82837174682766 122.24124940180528 79.72249235451517
140.4073668954315 110.42485968283503 73.28884379172412
130.94997915368262 116.37121928829897 61.357865484416166
134.85883450242954 116.61641143018194 60.83567728040017
128.77781350212769 113.17330930556516 61.40782988748674
114.98704496979651 115.27118515347296 80.05254177806167
115.54062449432737 103.15962853220303 82.05529091154375
133.25233009144782 101.80308668934501 81.2227755127448
130.84727585226685 114.43689266344288 61.39563483045278
122.5851447735027 127.46422859904087 81.2657509206095
115.1807286608952 117.68244412926556 69.51159710966779
130.35091746487964 102.41406891374658 69.60810444450162
119.7934103329032 112.10616640346588 62.654155728050895
119.30812823807035 101.82008069538678 81.47451068698177
138.91914799020063 106.1623575938151 63.45401745510271
127.64401197097992 101.99942633878955 83.93847498718786
125.0404821901163 120.27387240450474 65.82881821758585
126.81845564506465 112.97133928578289 60.278246490566026
129.1741051491205 105.61998409790887 64.58189033339538
126.86777874669654 117.29783121587953 85.40132947676143
130.5682451014335 122.99728115566259 79.01424399718027
144.8641024840127 117.39191732289866 72.33099578975518
116.47099872663802 112.27093947095982 82.83446463836209
144.82976235316062 118.16012632749654 64.63832382062272
137.6451952297081 103.03478349570149 82.03362052496853
116.25569437964637 110.8955502247945 83.8864286936089
138.75580028026386 114.8474433349989 61.55265518145308
114.12972241412983 118.53659583046363 78.42672970140238
116.92947838676574 127.23743502769022 73.40490001706146
132.11963981770688 124.44277799182561 76.79401408757427
132.8797177871776 123.81717589962275 65.88430463798461
125.17703723453216 125.80362482824651 77.58099930103198
121.10625958756266 104.9297963441321 84.57491288579716
124.8870795976992 101.31563843877667 73.73691411875596
115.38656086528881 115.88007696796116 81.83621311582736
140.44631408846777 111.47356413428946 77.07728131403312
137.49856396126336 124.38878063956106 70.26601881482273
119.23311104404503 119.07766459354657 84.47188829119496
119.2164812765391 112.78319338307968 64.7104046633218
141.57310807824427 115.74965446704849 62.13343526055504
132.93211423757884 110.20518110614852 61.81626906485148
133.82555315916954 107.17954136609073 85.78429499357678
134.53139479012063 112.32519667614024 85.81733345351422
130.06822702894448 107.07329562052324 63.79729556366062
135.5776809305468 121.48278521050324 62.418232315759305
125.81818778253759 101.16813028510126 75.29732260404582
113.5027374548974 103.50791741818233 78.20657948724978
115.25966305285293 125.02674499475324 73.09519689538588
137.08394633208488 102.19573042835702 76.34075733703985
132.31151442793177 106.27827328718803 64.06598440026664
114.19324966720305 117.58360506920518 74.42809242651767
136.96506672316406 103.33321319852895 85.21605024904865
123.37281487943416 102.32513984454243 80.77215408373404
129.44316901985428 104.57577215791667 65.69427009234406
114.67665585940833 119.71594811299197 82.3137336809749
115.37660382826658 106.70804110158873 83.6597026801633
122.68343370593237 113.90610447539068 60.21168073454065
124.76566355568528 125.87775800230067 80.81233563534155
123.37925462656945 113.11124439102394 86.1824523709228
139.12821058310473 104.01904369317407 77.20441092199748
119.47969699136603 127.60355673646828 72.07515774631933
124.12249891077192 101.92925880410954 69.62067950668757
130.90519654924813 103.13714297978177 67.86258830978879
139.64735162297964 117.19203222864101 61.16035805930315
135.2986730136361 114.05515272544282 85.18068352487806
132.6233717011574 118.18376554466356 61.231637102321436
122.48967685781821 119.7310474924324 65.4686490507645
124.10775905682969 111.60913025323342 87.03432170010005
142.3876982100194 113.87440108292935 64.18913534522618
142.35211935858754 111.8965817088246 71.86880275152403
128.2604077147893 122.50153304698412 78.06503872394283
119.96004561603522 127.32993314014563 84.57765053230884
123.18811434442958 116.01945387010444 63.56574798005936
123.40533501006041 121.03097798081379 66.19880526537445
128.0887314960614 101.62906101511773 80.68624130496528
130.8451638698301 123.73797396442068 71.38775799402734
124.63869735198047 104.56126860678417 65.65694327498267
118.76114502637158 118.24887359332756 66.50853170028648
133.83775796932647 115.05337701796049 85.69865976453161
126.1260333523578 121.81303074839343 83.36327281184909
121.92252284113769 111.80971400924977 59.982651040702926
137.92229970047796 109.91782109437328 84.54482764073401
131.19061751576197 101.46727725642587 81.56498031504275
116.41518588101529 110.79164406744891 68.83969984330456
130.9318546274351 112.59019071709498 61.005031746903015
125.37590982355242 116.12187746987267 63.33435864095266
116.52535921325756 114.43751197298458 81.83786605990869
126.67762255009477 114.9073431779997 61.58952504805342
128.90284382778123 121.87634652446778 66.90102514296187
126.73055397479595 119.00015425693424 64.09273266278468
128.84367586928624 121.49874608277038 82.05408333153231
126.34917301618025 124.05937591395508 70.54231108607851
117.14279218631701 127.52227684906723 75.23431010011619
126.69254986213616 107.63144135628109 87.13361785284074
137.41985528664256 113.6305506123736 61.554140981260225
118.47625104611895 112.4242559901454 66.70431062747132
124.39307774108504 101.61484702886133 77.80442882637547
121.7673943065536 115.1400875581491 61.949877277964426
137.5504004505136 103.0344111849224 83.68087310793011
141.89711884931495 112.21201459150791 74.7649331909074
125.28079527752088 102.142887454258 82.1758562385412
138.47663876623307 112.22564833471439 62.24179122569897
114.41897481652306 105.22693556353649 83.26077049468633
137.4504342328661 124.23362698290362 75.68168734246152
121.30250688565673 102.25016287020419 72.27982139425616
114.24653841846177 113.24356999753998 78.23763077905184
114.82234092081129 117.75030927091663 81.19649704870372
121.11273712915029 128.24275021792465 79.6124824618623
140.5814941517666 105.91412416935461 75.37848264680464
121.76533854177823 105.22006661529188 66.74762491144101
139.30041778676588 123.88486220368121 70.60232917501683
119.17848714282681 105.6232877523608 69.1592976719731
128.60499119306277 107.72643838517588 62.318779918139114
117.96444213871874 117.61298692490533 83.65378307157955
129.1443567980513 115.55970784019944 62.11431790229029
128.1936761296103 103.48864316590888 66.22955674218538
140.0984056638112 104.74688478623014 70.62911758228837
125.67496612813417 106.5297649961598 63.080879176563904
124.6695346575888 125.42285166591212 84.06424067814413
128.99379801900872 120.09602286954559 63.98494901352849
139.90592368235363 106.08755066881804 78.3737947120035
119.65004285420227 116.28844363739101 83.17858005669024
143.88323462771248 122.39101037628005 65.86641867991972
114.09249746379537 118.01742936608143 76.55855411365896
140.10924599711936 106.41717665487737 64.96228172945575
127.4970193397836 116.93119687326302 63.2733031535494
144.55229106668892 115.44584524840685 72.90474198091393
143.20924955048562 115.3350423224504 77.00955590299004
139.76776856351998 107.87552601786682 63.47945032955099
126.80023681773594 102.53442008319935 67.19916056747633
127.58970666622155 101.35249436523148 75.6570063636056
116.55772576314723 119.57476299012154 67.63286163389076
123.62998918120333 102.77687147903582 68.23820623565709
125.90634482187401 117.623794682935 63.46385740263391
126.41131054836005 104.10577293005034 66.06304317256108
138.99674821552355 106.33522788523108 82.759977071114
113.60644166804185 112.26036927033877 75.7241077508537
126.98268919071413 123.9147102233798 73.16445946194818
132.885121688848 115.40113232740798 60.970788648332494
115.98879824896315 104.41522838957461 83.33664240751524
116.9017550058437 116.73536186220547 67.6535466781069
118.08817579079928 115.13458426788323 82.38478324642269
142.94429881955486 115.65617365495098 63.56774475831668
122.30927237597766 122.004697966989 87.22508689103687
138.55132837398534 119.58679641608961 61.39538265440522
114.71097646528631 115.8581901061655 71.82132971263155
144.53923716618746 121.43438471966071 69.84591671072398
114.1050928520823 111.3380585482393 83.53135354742959
114.57341813288801 114.55451996373885 74.42528720860525
132.20077789009977 106.02208474920445 86.15623025622517
115.26631586613081 107.00810255422168 70.63763021577375
115.15945058122537 108.79974631192297 69.9156243047188
127.45896768511527 108.3096018827396 60.602674073299866
124.09909497684814 115.19260457688581 61.61336082969398
135.55408479125026 101.7887841872563 78.44858374828911
121.01882258173531 101.65727711585504 75.02389949699932
114.67955901792718 103.6753117066709 72.29416484927168
117.65011417729683 124.07350379282582 84.16727787017408
116.1109940358183 118.81858483358275 83.90754803293957
122.40892634626658 110.66312724823092 86.41314619173086
126.06628482412134 105.24985668401308 64.52467352313703
131.95515129090094 111.46907139478813 85.99692646227709
126.10896423630692 101.24136377942752 71.98339700906087
122.6140740420691 101.968298346202 78.49953536570074
122.49979395937619 102.60675397971315 69.96468194132316
114.66055074144352 111.43303134506135 70.29748768282413
137.9312865516217 121.95102078056031 62.910530017799786
124.5992254642179 121.36953272951231 85.24301207092724
124.08923069899028 106.05346403491824 64.39609190187673
138.5354804566449 109.09377025389523 83.26930704990762
122.0686431983569 117.41946256896769 64.84695573386232
124.96082363702901 103.13239129468708 66.8737955012818
136.84924824961206 118.70016808141095 82.90211880570997
123.90539695775436 101.70228906912197 71.62590305886742
119.92063637949127 103.01764721134894 82.74440646320575
134.35548177393477 104.0837509682185 66.5066603094571
120.90455311087209 106.36470246134067 65.84560978006677
140.76943588603177 106.18496508430066 69.30689736192895
115.49973645286445 102.00003539115656 78.32758209751567
124.96020402384715 109.82842537017841 87.2255588455822
135.64268703407495 124.93974022274875 75.13763652043083
117.88147248063103 107.51260826019916 85.0436941430706
121.95983505536213 103.76042375491899 68.26251755401003
120.40833087526428 125.78270789852427 69.51020048394497
144.82471343828098 114.83448193728195 68.9137109731785
121.08838596223116 109.1111468953531 86.39781712876156
125.12443369141911 123.71776730502633 68.49445636359856
127.0711168910001 101.68984651060462 68.97436620294518
125.17957380880264 107.73134393892155 61.32196193761889
122.12446700511622 106.35675116481625 85.75921971346955
124.09723136413876 107.12625506811109 62.86577803771187
122.97443385961661 101.75566499228823 73.7380498436602
113.49562501138524 108.57585176693811 82.97148973607135
139.94215884932447 116.07599575064091 79.69495966894452
142.29142304025797 118.36136244610142 77.36976744695873
116.49180048102423 122.89577735932701 83.47604909928819
123.21661037686026 103.86672424047096 66.69771665538099
134.25780348823557 116.37149054907395 84.44575096715234
129.39211984261817 101.46444089850215 75.77251183843129
136.17503953377016 108.88827462942996 85.85322886166983
120.36785101685865 121.26471764557446 86.07554601129986
125.30850209766218 101.99032616785536 68.38007303918576
113.88241891968262 120.36477300353705 78.16061044175743
132.03655923761937 108.18136090918331 62.714334399851346
121.05528802920942 107.45107984660888 64.67145632831901
119.66155692728039 107.41527480871834 65.95255292164487
120.49819356707341 104.68353274411552 68.10900597069976
118.64820008873996 102.5947789956703 72.2451135146412
142.9011792376483 122.31358628217822 63.89499597287242
POLYGONS 1262 5048
3 0 6 2
3 1 0 2
3 15 1 22
3 462 436 15
3 20 21 19
3 462 15 24
3 519 462 24
3 519 24 23
3 24 22 48
3 22 24 15
3 24 48 23
3 535 26 40
3 30 43 41
3 33 34 44
3 37 38 45
3 39 47 45
3 39 45 38
3 26 41 40
3 575 46 40
3 575 43 44
3 507 47 23
3 40 46 153
3 46 507 23
3 48 46 23
3 46 48 153
3 26 535 27
3 276 2 6
3 628 629 22
3 22 629 48
3 535 40 153
3 27 631 26
3 535 630 27
3 628 296 600
3 507 575 589
3 589 575 44
3 589 44 34
3 45 589 37
3 37 589 34
3 37 569 38
3 612 614 6
3 630 606 27
3 606 588 27
3 625 556 595
3 556 588 606
3 592 541 584
3 45 507 589
3 592 614 541
3 541 614 612
3 576 612 325
3 2 628 22
3 2 276 628
3 33 560 34
3 560 572 34
3 27 528 631
3 27 588 528
3 521 577 480
3 6 614 276
3 597 528 588
3 575 507 46
3 153 629 25
3 558 595 500
3 521 496 577
3 12 509 496
3 496 509 577
3 8 504 480
3 504 5 480
3 418 371 325
3 509 511 577
3 577 511 7
3 521 480 5
3 4 504 0
3 594 12 496
3 511 509 549
3 592 584 500
3 9 521 5
3 588 485 597
3 588 556 485
3 485 556 625
3 0 270 6
3 0 3 270
3 19 501 415
3 415 501 13
3 490 13 18
3 13 501 18
3 3 504 8
3 14 521 9
3 325 3 418
3 3 8 418
3 572 474 569
3 511 549 538
3 538 549 10
3 0 1 4
3 504 3 0
3 20 462 21
3 5 504 4
3 21 519 39
3 21 462 519
3 538 428 511
3 511 441 7
3 513 12 440
3 440 12 490
3 9 436 462
3 9 5 436
3 569 434 38
3 38 434 564
3 434 555 564
3 441 511 428
3 427 562 489
3 10 426 538
3 562 432 426
3 426 432 538
3 7 418 8
3 8 480 7
3 7 480 577
3 371 418 441
3 441 418 7
3 21 39 19
3 19 39 564
3 13 594 415
3 415 594 14
3 38 564 39
3 457 615 597
3 579 528 615
3 615 528 597
3 576 409 612
3 576 536 409
3 513 557 12
3 12 557 509
3 513 549 557
3 557 549 509
3 408 427 489
3 508 428 432
3 13 490 594
3 594 490 12
3 508 402 428
3 432 401 508
3 422 406 401
3 401 406 508
3 539 331 477
3 405 427 408
3 441 428 371
3 597 586 457
3 597 129 586
3 553 539 390
3 3 325 270
3 432 428 538
3 422 401 562
3 562 401 432
3 1 2 22
3 427 382 562
3 562 382 422
3 427 381 382
3 382 381 422
3 241 422 381
3 427 405 381
3 381 405 450
3 541 612 409
3 331 442 477
3 615 457 374
3 374 579 615
3 501 564 555
3 501 19 564
3 19 415 20
3 20 415 14
3 1 15 436
3 1 436 4
3 4 436 5
3 513 385 549
3 549 385 10
3 513 543 385
3 385 543 10
3 428 402 371
3 14 9 20
3 9 462 20
3 406 376 508
3 508 376 402
3 555 434 36
3 600 25 629
3 584 558 500
3 390 611 553
3 390 328 611
3 344 209 394
3 438 548 341
3 168 344 363
3 402 389 350
3 366 352 333
3 477 317 539
3 539 317 390
3 334 366 342
3 345 306 379
3 539 558 331
3 594 496 14
3 14 496 521
3 345 324 395
3 345 379 324
3 324 379 360
3 366 238 342
3 379 306 238
3 541 240 584
3 536 350 151
3 395 318 345
3 558 553 595
3 595 553 625
3 402 376 389
3 376 464 389
3 363 464 168
3 552 548 438
3 332 345 318
3 306 414 342
3 414 332 435
3 333 303 379
3 379 303 360
3 333 472 303
3 303 472 360
3 332 306 345
3 275 442 467
3 275 477 442
3 390 317 486
3 414 435 486
3 328 435 297
3 628 276 296
3 486 317 330
3 435 390 486
3 328 390 435
3 333 379 238
3 238 366 333
3 600 629 628
3 556 620 595
3 556 606 620
3 620 606 533
3 599 289 290
3 290 289 414
3 342 289 334
3 342 414 289
3 341 288 438
3 288 367 356
3 533 600 296
3 599 334 289
3 473 467 627
3 627 467 151
3 296 172 533
3 296 592 172
3 172 592 500
3 288 281 438
3 281 552 438
3 209 552 281
3 281 394 209
3 630 533 606
3 500 595 620
3 288 217 394
3 473 627 217
3 535 153 25
3 389 151 350
3 366 278 352
3 375 367 341
3 375 334 367
3 394 363 344
3 630 25 533
3 533 25 600
3 535 25 630
3 599 290 301
3 301 290 330
3 375 278 334
3 334 278 366
3 367 599 356
3 548 271 341
3 341 271 375
3 325 612 270
3 270 612 6
3 394 281 288
3 278 375 271
3 271 601 278
3 367 334 599
3 473 217 356
3 469 374 457
3 592 276 614
3 592 296 276
3 360 264 324
3 324 264 395
3 365 552 209
3 473 356 301
3 301 356 599
3 584 240 331
3 323 554 469
3 250 543 513
3 250 513 440
3 129 249 586
3 404 285 248
3 601 247 274
3 274 247 404
3 247 285 404
3 601 271 245
3 245 271 548
3 247 601 245
3 245 285 247
3 18 242 490
3 525 344 241
3 241 344 168
3 331 240 442
3 238 306 342
3 358 297 318
3 318 297 332
3 610 231 11
3 231 512 250
3 442 240 467
3 512 228 250
3 250 228 543
3 512 244 228
3 228 244 543
3 226 561 515
3 512 195 258
3 195 610 515
3 258 224 512
3 454 244 224
3 224 244 512
3 258 223 499
3 223 515 561
3 231 610 195
3 195 512 231
3 11 231 440
3 440 231 250
3 552 220 548
3 285 245 220
3 220 245 548
3 275 301 330
3 408 568 405
3 584 331 558
3 627 302 217
3 217 302 394
3 244 454 216
3 553 558 539
3 285 220 365
3 365 220 552
3 420 213 233
3 47 507 45
3 356 217 288
3 499 223 206
3 206 223 561
3 330 290 486
3 486 290 414
3 11 410 610
3 11 242 410
3 410 242 369
3 610 410 232
3 199 258 499
3 515 223 195
3 195 223 258
3 194 199 499
3 499 206 193
3 224 258 199
3 199 454 224
3 194 499 193
3 193 206 205
3 394 302 363
3 607 293 232
3 232 293 226
3 332 297 435
3 212 179 455
3 543 174 10
3 10 174 489
3 543 244 174
3 227 189 173
3 500 620 172
3 172 620 533
3 572 215 34
3 34 215 37
3 572 569 215
3 215 569 37
3 233 286 420
3 525 209 344
3 163 554 316
3 490 497 440
3 440 497 11
3 490 242 497
3 497 242 11
3 328 297 358
3 328 358 249
3 232 166 610
3 610 166 515
3 232 226 166
3 166 226 515
3 586 323 457
3 457 323 469
3 469 163 374
3 469 554 163
3 232 161 607
3 607 161 369
3 232 410 161
3 161 410 369
3 332 414 306
3 226 179 561
3 561 179 212
3 192 110 184
3 153 48 629
3 350 536 576
3 350 576 371
3 316 622 264
3 264 622 395
3 622 316 554
3 572 305 474
3 323 164 554
3 395 622 164
3 164 622 554
3 288 341 367
3 402 350 371
3 474 150 251
3 541 409 240
3 240 409 536
3 147 264 360
3 196 144 178
3 395 164 318
3 218 582 530
3 461 158 582
3 444 184 204
3 200 101 204
3 185 339 517
3 339 180 517
3 371 576 325
3 318 164 358
3 358 164 323
3 323 586 358
3 586 249 358
3 519 23 47
3 47 39 519
3 389 464 627
3 464 302 627
3 429 136 510
3 179 133 455
3 196 178 133
3 624 158 461
3 553 611 625
3 625 611 129
3 485 625 129
3 129 597 485
3 474 128 569
3 474 251 128
3 128 251 36
3 246 443 213
3 213 443 233
3 189 124 173
3 173 124 197
3 124 139 197
3 459 326 229
3 197 466 488
3 488 466 181
3 197 149 466
3 466 149 181
3 213 130 246
3 417 322 239
3 246 122 139
3 139 122 180
3 246 130 122
3 122 130 180
3 227 121 189
3 200 135 121
3 121 135 189
3 139 180 123
3 251 150 119
3 328 249 611
3 611 249 129
3 131 396 605
3 396 479 605
3 229 155 459
3 310 465 175
3 149 114 465
3 465 114 214
3 149 123 114
3 114 123 214
3 208 112 143
3 143 112 605
3 208 131 112
3 112 131 605
3 286 461 545
3 545 420 286
3 149 623 181
3 149 465 623
3 352 115 333
3 115 472 333
3 148 565 510
3 510 565 218
3 148 545 565
3 565 545 218
3 583 482 113
3 482 130 213
3 627 151 389
3 583 113 208
3 416 378 370
3 370 378 233
3 416 286 378
3 378 286 233
3 370 135 110
3 110 135 200
3 135 443 189
3 189 443 246
3 229 116 108
3 571 136 125
3 146 106 109
3 109 106 190
3 113 482 420
3 420 482 213
3 141 156 326
3 326 156 229
3 141 116 156
3 156 116 229
3 35 529 560
3 218 458 510
3 510 458 429
3 218 530 458
3 458 530 429
3 160 102 183
3 529 429 305
3 227 120 101
3 101 120 146
3 193 99 194
3 194 99 261
3 136 429 529
3 327 459 155
3 100 182 423
3 137 523 493
3 493 523 425
3 417 71 185
3 71 259 185
3 381 518 241
3 241 518 525
3 381 450 518
3 518 450 525
3 132 175 93
3 93 175 259
3 204 514 200
3 200 514 110
3 204 184 514
3 514 184 110
3 183 92 160
3 460 261 92
3 517 417 185
3 185 89 339
3 339 89 214
3 185 259 89
3 89 259 214
3 98 183 102
3 131 148 446
3 446 148 510
3 587 87 374
3 374 87 579
3 587 268 87
3 87 268 579
3 406 422 168
3 168 422 241
3 214 573 465
3 465 573 175
3 214 259 573
3 573 259 175
3 148 273 545
3 545 273 420
3 148 113 273
3 273 113 420
3 532 105 327
3 327 105 425
3 105 274 425
3 561 95 206
3 206 95 205
3 561 212 95
3 95 212 205
3 168 464 406
3 406 464 376
3 302 464 363
3 130 603 180
3 180 603 517
3 214 123 339
3 339 123 180
3 383 492 248
3 492 263 248
3 419 307 384
3 384 307 243
3 551 78 100
3 235 94 78
3 523 152 459
3 459 152 326
3 100 617 326
3 326 617 141
3 100 423 617
3 617 423 141
3 632 91 127
3 162 86 460
3 460 86 419
3 162 307 86
3 86 307 419
3 160 85 102
3 94 235 85
3 368 493 404
3 405 487 450
3 450 487 463
3 405 568 487
3 263 262 96
3 263 492 262
3 632 84 91
3 84 90 568
3 90 463 487
3 487 568 90
3 188 570 102
3 102 570 98
3 298 445 235
3 102 85 188
3 445 97 83
3 488 203 621
3 163 520 374
3 374 520 587
3 163 373 520
3 520 373 587
3 163 321 373
3 373 321 498
3 163 316 321
3 321 316 498
3 326 387 100
3 100 387 551
3 326 152 387
3 387 152 551
3 484 144 196
3 196 265 293
3 293 265 226
3 265 179 226
3 571 446 136
3 136 446 510
3 170 119 150
3 138 484 607
3 162 80 307
3 307 80 91
3 162 127 80
3 80 127 91
3 91 79 307
3 307 79 243
3 91 590 79
3 79 590 243
3 551 298 78
3 78 298 235
3 84 568 590
3 590 91 84
3 88 570 188
3 472 483 260
3 483 532 544
3 293 607 484
3 484 196 293
3 181 623 505
3 505 623 319
3 471 234 119
3 119 234 251
3 260 74 118
3 118 74 544
3 260 483 74
3 74 483 544
3 310 73 465
3 319 623 73
3 73 623 465
3 181 72 488
3 72 108 116
3 439 93 71
3 71 93 259
3 551 70 298
3 551 152 70
3 70 152 523
3 188 69 445
3 445 69 235
3 188 85 69
3 69 85 235
3 243 468 216
3 243 590 468
3 454 68 216
3 216 68 243
3 454 384 68
3 68 384 243
3 194 67 199
3 199 67 419
3 67 460 419
3 455 299 481
3 455 133 299
3 299 133 178
3 460 67 261
3 261 67 194
3 459 66 523
3 523 66 425
3 459 327 66
3 66 327 425
3 404 65 274
3 274 65 425
3 404 493 65
3 65 493 425
3 433 481 299
3 419 64 199
3 199 64 454
3 419 384 64
3 64 384 454
3 133 179 265
3 265 196 133
3 115 532 483
3 483 472 115
3 182 63 134
3 182 94 63
3 90 62 463
3 62 447 262
3 98 76 127
3 274 105 61
3 61 105 532
3 327 255 532
3 532 255 544
3 327 155 255
3 255 155 544
3 274 61 601
3 369 58 607
3 117 138 58
3 58 138 607
3 117 58 157
3 157 58 369
3 170 126 304
3 365 59 383
3 383 59 525
3 365 209 59
3 59 209 525
3 146 57 106
3 596 211 57
3 92 56 160
3 134 63 56
3 56 63 160
3 216 174 244
3 53 300 236
3 383 54 365
3 365 54 285
3 383 248 54
3 54 248 285
3 527 92 261
3 460 534 162
3 162 534 183
3 460 92 534
3 534 92 183
3 98 364 183
3 183 364 162
3 98 127 364
3 364 127 162
3 137 550 298
3 298 550 445
3 137 97 550
3 550 97 445
3 439 524 498
3 498 524 373
3 439 239 524
3 562 426 489
3 489 426 10
3 489 413 408
3 489 174 413
3 413 174 216
3 352 380 115
3 115 380 532
3 352 61 380
3 380 61 532
3 263 608 368
3 368 608 97
3 263 96 608
3 298 70 137
3 137 70 523
3 468 408 413
3 413 216 468
3 314 60 433
3 100 618 182
3 182 618 94
3 100 78 618
3 618 78 94
3 93 506 132
3 97 608 83
3 83 608 96
3 447 292 262
3 262 292 96
3 447 77 292
3 292 77 96
3 527 165 81
3 56 92 527
3 106 283 190
3 190 283 165
3 106 81 283
3 283 81 165
3 383 280 492
3 450 463 280
3 280 463 492
3 160 254 85
3 85 254 94
3 160 63 254
3 254 63 94
3 99 453 165
3 165 453 190
3 99 193 453
3 42 198 35
3 32 125 198
3 198 125 35
3 447 62 315
3 315 62 90
3 408 253 568
3 568 253 590
3 408 468 253
3 253 468 590
3 176 77 447
3 315 632 176
3 176 447 315
3 488 502 197
3 197 502 173
3 488 621 502
3 502 621 173
3 571 125 616
3 616 125 32
3 106 359 81
3 106 57 359
3 359 57 211
3 31 329 42
3 329 252 32
3 360 578 147
3 260 257 578
3 578 257 147
3 236 452 471
3 144 484 452
3 126 451 530
3 471 452 138
3 138 452 484
3 257 361 132
3 632 337 84
3 84 337 90
3 632 315 337
3 337 315 90
3 173 272 227
3 227 272 120
3 173 621 272
3 272 621 120
3 158 340 582
3 233 169 370
3 370 169 135
3 233 443 169
3 169 443 135
3 275 473 301
3 275 467 473
3 450 280 525
3 525 280 383
3 154 294 268
3 603 583 111
3 221 503 192
3 192 503 110
3 221 370 503
3 503 370 110
3 137 400 97
3 97 400 368
3 137 493 400
3 400 493 368
3 423 399 141
3 596 203 399
3 455 295 212
3 192 184 295
3 143 609 208
3 208 609 583
3 143 111 609
3 609 111 583
3 104 107 563
3 18 377 242
3 242 377 369
3 18 157 377
3 377 157 369
3 208 357 131
3 131 357 148
3 208 113 357
3 357 113 148
3 36 336 555
3 555 336 157
3 36 117 336
3 336 117 157
3 456 284 322
3 322 284 239
3 456 103 284
3 284 103 239
3 322 269 111
3 322 417 269
3 269 417 517
3 147 267 264
3 264 267 316
3 147 506 267
3 26 392 41
3 26 631 392
3 29 210 631
3 28 392 210
3 210 392 631
3 200 121 101
3 101 121 227
3 83 421 88
3 88 421 77
3 83 96 421
3 421 96 77
3 55 145 314
3 304 186 53
3 53 186 145
3 304 311 186
3 186 311 145
3 145 75 314
3 145 311 75
3 75 311 581
3 28 52 30
3 30 52 31
3 28 159 52
3 83 51 445
3 445 51 188
3 83 88 51
3 51 88 188
3 77 50 88
3 88 50 76
3 77 176 50
3 50 176 76
3 28 49 159
3 28 210 49
3 49 210 29
3 205 453 193
3 319 559 171
3 171 559 118
3 319 82 559
3 559 82 118
3 41 580 30
3 30 580 28
3 41 392 580
3 580 392 28
3 481 542 192
3 192 542 221
3 171 412 108
3 108 412 229
3 171 155 412
3 412 155 229
3 596 398 120
3 120 398 146
3 596 57 398
3 398 57 146
3 605 393 143
3 143 393 456
3 605 107 393
3 393 107 456
3 136 353 125
3 125 353 35
3 136 529 353
3 353 529 35
3 252 351 32
3 252 219 351
3 416 591 202
3 202 591 221
3 416 370 591
3 591 370 221
3 616 32 351
3 351 479 616
3 30 362 43
3 42 33 362
3 631 347 29
3 29 347 579
3 631 528 347
3 347 528 579
3 467 240 536
3 536 151 467
3 88 76 570
3 570 76 98
3 42 362 31
3 31 362 30
3 477 275 330
3 330 317 477
3 198 42 329
3 329 32 198
3 159 49 294
3 294 49 29
3 470 31 52
3 52 159 470
3 103 524 239
3 294 602 159
3 16 470 602
3 602 470 159
3 41 574 40
3 40 574 575
3 41 43 574
3 574 43 575
3 218 537 582
3 582 537 461
3 218 545 537
3 537 545 461
3 190 453 444
3 444 453 205
3 139 124 246
3 246 124 189
3 31 346 329
3 329 346 252
3 31 470 346
3 346 470 252
3 582 478 530
3 530 478 126
3 582 340 478
3 478 340 126
3 252 349 219
3 219 349 16
3 252 470 349
3 349 470 16
3 268 348 579
3 579 348 29
3 268 294 348
3 348 294 29
3 16 397 104
3 294 154 397
3 397 154 104
3 197 585 149
3 149 585 123
3 197 139 585
3 585 139 123
3 463 566 492
3 492 566 262
3 463 62 566
3 566 62 262
3 479 526 563
3 563 526 219
3 479 351 526
3 526 351 219
3 76 546 127
3 127 546 632
3 76 176 546
3 546 176 632
3 322 613 456
3 456 613 143
3 322 111 613
3 613 111 143
3 165 604 99
3 99 604 261
3 165 527 604
3 604 527 261
3 456 598 103
3 103 598 17
3 456 107 598
3 212 494 205
3 184 444 494
3 494 444 205
3 104 430 16
3 16 430 219
3 104 563 430
3 430 563 219
3 373 476 587
3 373 524 476
3 476 524 103
3 563 411 479
3 479 411 605
3 563 107 411
3 411 107 605
3 571 616 396
3 396 616 479
3 602 294 397
3 397 16 602
3 529 354 560
3 560 354 572
3 529 305 354
3 354 305 572
3 530 343 429
3 429 343 305
3 530 451 343
3 343 451 305
3 248 338 404
3 404 338 368
3 248 263 338
3 338 263 368
3 43 320 44
3 44 320 33
3 43 362 320
3 320 362 33
3 17 312 587
3 587 312 268
3 17 154 312
3 312 154 268
3 498 309 439
3 439 309 93
3 498 506 309
3 309 506 93
3 587 476 17
3 17 476 103
3 583 491 482
3 482 491 130
3 583 603 491
3 491 603 130
3 488 72 203
3 203 72 116
3 144 516 300
3 300 516 236
3 144 452 516
3 516 452 236
3 170 355 119
3 355 53 236
3 108 593 171
3 171 593 319
3 108 505 593
3 593 505 319
3 104 598 107
3 192 295 481
3 481 295 455
3 120 335 596
3 596 335 203
3 120 621 335
3 335 621 203
3 111 291 603
3 603 291 517
3 111 269 291
3 291 269 517
3 319 287 82
3 319 73 287
3 287 73 310
3 82 287 475
3 475 287 310
3 544 313 118
3 118 313 171
3 544 155 313
3 313 155 171
3 82 448 118
3 448 361 257
3 251 234 36
3 36 234 117
3 182 279 423
3 423 279 211
3 182 134 279
3 279 134 211
3 118 448 260
3 260 448 257
3 311 619 581
3 581 619 158
3 311 340 619
3 619 340 158
3 17 437 154
3 154 437 104
3 17 598 437
3 437 598 104
3 416 403 286
3 286 403 461
3 416 624 403
3 403 624 461
3 75 581 391
3 60 277 433
3 433 277 481
3 60 542 277
3 277 542 481
3 300 266 55
3 55 266 145
3 300 53 266
3 266 53 145
3 569 128 434
3 434 128 36
3 260 578 472
3 472 578 360
3 178 531 299
3 299 531 433
3 178 55 531
3 150 626 170
3 170 626 126
3 150 451 626
3 626 451 126
3 451 547 305
3 305 547 474
3 451 150 547
3 547 150 474
3 184 494 295
3 295 494 212
3 601 540 278
3 278 540 352
3 601 61 540
3 540 61 352
3 555 282 501
3 501 282 18
3 555 157 282
3 282 157 18
3 53 355 304
3 304 355 170
3 439 230 239
3 239 230 417
3 439 71 230
3 230 71 417
3 300 372 144
3 144 372 178
3 300 55 372
3 372 55 178
3 134 207 81
3 81 207 527
3 134 56 207
3 207 56 527
3 202 567 416
3 416 567 624
3 567 308 624
3 131 449 396
3 396 449 571
3 131 446 449
3 449 446 571
3 308 407 391
3 308 388 407
3 624 386 158
3 158 386 581
3 624 308 386
3 542 225 221
3 221 225 202
3 542 388 225
3 225 388 202
3 146 109 101
3 101 109 204
3 596 399 211
3 211 399 423
3 340 191 126
3 126 191 304
3 340 311 191
3 191 311 304
3 81 424 134
3 134 424 211
3 81 359 424
3 424 359 211
3 33 201 560
3 560 201 35
3 33 42 201
3 201 42 35
3 175 187 310
3 175 132 187
3 187 132 361
3 433 531 314
3 314 531 55
3 361 522 475
3 475 522 82
3 361 448 522
3 522 448 82
3 475 310 187
3 187 361 475
3 132 431 257
3 257 431 147
3 132 506 431
3 431 506 147
3 581 386 391
3 391 386 308
3 308 167 388
3 388 167 202
3 308 567 167
3 167 567 202
3 204 142 444
3 444 142 190
3 204 109 142
3 142 109 190
3 314 495 60
3 314 75 495
3 495 75 391
3 108 140 505
3 505 140 181
3 108 72 140
3 140 72 181
3 316 267 498
3 498 267 506
3 60 177 542
3 542 177 388
3 60 407 177
3 177 407 388
3 60 495 407
3 407 495 391
3 119 256 471
3 471 256 236
3 119 355 256
3 256 355 236
3 141 237 116
3 116 237 203
3 141 399 237
3 237 399 203
3 117 222 138
3 138 222 471
3 117 234 222
3 222 234 471
