# vtk DataFile Version 3.0
A great-looking cell
ASCII
DATASET POLYDATA
POINTS 782 double
50.28248859908201 169.8465100528536 6.974412080187074
49.64451510840159 170.84059260368332 5.495787331764454
53.25762823792592 169.57518413122247 6.687494820195167
42.67836675881896 172.25997415943894 3.30939227871259
45.31666153916481 171.4006066733672 3.4539385618918343
46.679778925201425 172.01733638857527 3.0360017215894364
46.78237118544461 171.13856612413215 4.49025674108126
48.085549124029676 170.92418442119637 5.404457709465865
48.652049204081585 171.99922871609485 3.682301110079539
50.577444654301175 171.70658842782623 4.521398845803203
51.62156605474742 170.555381784464 5.721010807166921
54.845875527296165 170.54780896314784 7.221356821367604
39.39149403546137 175.38250951801663 2.4052059490755546
40.250123267231395 174.186979467038 3.459623783819659
41.30810388573924 172.97380391998522 4.287567588359543
41.684435526755024 173.5392815324377 2.553548213861296
43.35452976868627 172.95976640396432 1.5147190735131901
45.33733233201668 172.476240336132 1.7987124020604266
50.816142407595706 172.72137904619944 3.050579158326631
52.161856861177185 172.2601631199052 4.530218987209852
53.58285647634867 171.37323023519016 5.775469861342368
37.662054672127844 178.38580935930455 2.216883497167096
45.98975609680616 173.20916994254722 -0.30025533139979727
47.9609177696416 173.8193817409502 -0.08005510232026139
51.271056839427864 174.15288473105346 1.4380522924403556
52.53697651122291 173.8103920226713 3.1796414132591764
53.92572715864294 173.187577873595 4.707754804158362
55.048966703807665 174.7773964726579 5.4646300030982005
37.25510450026805 180.2721798290549 1.2543461557902595
43.55577595881578 176.08750137306907 -2.337450982547986
45.84401246411772 175.07020492651563 -2.2067788427153046
48.11863875661596 175.18832063468426 -1.6990530543843358
51.75151401730207 175.74689266946496 -0.1728197242004234
53.063831438808755 175.26467448625456 1.6228890233619921
54.213477403257706 174.9389684675584 3.438447607391205
37.01279036349476 182.22363462771537 0.3591960751298106
42.05790978914948 178.11505538842238 -1.8832514787408334
46.35097499699139 177.3425828264319 -3.0015041144633536
48.3516643786555 177.24457555535432 -2.661588948060281
50.25278324886699 177.90913975303488 -2.9197235771193806
52.271859289038005 177.44441641449373 -2.0121567029567164
53.75729896813663 177.03077689989001 0.07730281225965482
54.576842061983506 176.26524144062375 2.0348006513771013
36.74059614149536 184.06664625171416 -0.5622507723780253
39.47019391804315 181.254638212407 -2.4802913791485235
41.75479237939059 180.6529939819851 -2.5589445792691756
43.96571747430466 180.5371870313893 -2.955768581722088
46.30003980341232 179.85879448336166 -2.968397908706335
48.81039750024048 179.63033536110103 -2.908890351032453
51.27627592110113 179.68350333443402 -2.648237967983503
53.51527728925243 179.41282924495886 -2.3963813200991764
54.78675913108539 179.1301411334154 -0.5761136258862567
55.23827922248006 178.06094540385453 1.6667061048798202
36.75174608601254 185.6706225681667 -1.248794984623646
39.82735640951029 183.28633968426303 -2.6977908255687457
41.9638041437517 182.94124731901354 -3.047759797098948
44.2378849767875 182.65495936777137 -3.0782183748863554
46.58987430608438 182.31816129535255 -2.9925733064486164
49.02027110317155 182.0728904473999 -3.1103248128369376
51.46195129408132 181.8932496206959 -3.0146225319335467
53.808706591111935 181.6269963708277 -2.5128387247925077
55.76087755799515 181.28884942563928 -1.074809736623742
56.1494662819606 180.14450541909102 1.1831449520211665
56.431888204401076 182.16703854334858 0.9161270994788882
56.90395621216923 181.5972474299649 3.2287950366250633
56.59849149977746 183.96700429886644 2.0878115609379124
56.99786571836335 183.83555647224952 4.53903193810199
39.88464493772012 185.46638685964368 -2.97939594987282
42.12870487044426 185.20167828952185 -3.0852405293675953
44.45255542976102 184.91719786180863 -3.1599357279277482
46.80999666628271 184.65674462324284 -3.0778630900547244
49.22636890982013 184.4612525664674 -2.97309036730715
51.696240655696016 184.29536260047917 -2.9600430899795573
54.11420668354522 184.02234099059822 -2.654908171019714
55.563866508987516 183.83805665571944 -0.47642345589491586
56.73120921322108 185.65765037951962 5.879043131624971
39.77180424414779 187.9026165577707 -2.944008608613565
42.23901538600571 187.47880843268075 -3.004407105558298
44.604154544019195 187.1816323766204 -2.9988224747915284
46.97404188455568 186.95094530495103 -3.0399678905913246
49.396714978029024 186.84667907796526 -3.134048630499539
51.89939327192137 186.7959345273663 -2.678609752519538
53.97362601765443 186.18698553118628 -1.0924327628612205
55.56143484291839 186.09752443340903 1.2052048793782395
56.38025095138513 185.9403944417875 3.606844192354935
39.24721083474262 190.24138023587673 -1.9264467420390223
41.25396103084606 189.82788977661272 -2.8831619741799934
43.56852139843104 189.54298465368504 -2.9480522190374985
45.93506757583799 189.28844007444357 -2.9310457735661153
48.26369673165826 189.05882543982594 -2.725643679878066
50.47677972604369 188.92828192443193 -1.941201926979859
50.887590307879314 190.88112735687116 0.11364561391618201
52.634975941275854 188.6935317860013 -0.6136320818223584
54.421621893851324 188.09453531013025 0.7392286160661391
40.452466522911195 191.73743102766048 -2.315651865668645
42.48601802898652 191.788402107085 -2.4502706464918087
44.85279673148421 191.50519265826634 -2.1642366076200767
47.20453022317277 191.08188312208588 -1.8698903775540536
49.26150094877473 190.71803542402213 -1.6745845678993005
50.77169621367009 168.6068057540603 8.518201542438693
51.71663560479063 169.31663613371515 7.138401689359112
52.71046034692927 168.34176796821035 8.058422375524644
48.62959265117009 170.2541715149014 6.830727867734384
49.28223359930697 169.46739922097808 8.1102624058533
54.446704582514414 168.82862616308765 8.012997940835218
55.90203761239384 169.66556297591924 8.61894606245319
43.7331707032012 171.03068978802418 4.038007600822537
42.24733365045041 171.54074928495666 4.99553778360086
43.44324119641755 170.24160641278635 5.759400286339233
45.17455651065693 170.4469444037714 5.033759913551977
44.9257813920855 169.53869998210496 6.5219161785133135
46.707412624551786 170.22434061877846 6.439103269015941
39.86196370921891 173.861037700912 5.506738577898069
38.50788770218352 175.10877998304161 5.791906620817886
38.84463477446058 175.13645639627885 4.190581668052826
41.02292521536958 172.3597906976786 5.870229595041934
55.83532852168364 171.56785518793123 8.49250326649939
38.16458031786324 176.64930715895005 3.1970416807063047
37.79725939425125 176.42287533983867 5.095433163135853
55.00744253051976 172.74020973892866 6.765179916113915
55.617093626224346 174.63432634297905 7.487167364292722
37.224004622337795 178.13472853360543 4.285223191044388
55.611451871573976 176.75515417586124 3.948411167308028
36.73990857103405 180.01404561796252 3.4109761686659117
35.76358925056736 181.68639913995113 4.700421243118476
56.42992353744237 179.11189646250895 3.387625911470872
36.34060390322327 181.97337040550437 2.4847251608184746
35.31022080142049 183.73558360953268 3.711227670807301
56.499605689285076 178.36850759696748 5.602267359322354
36.04837981311667 183.9365484942798 1.5056556504789858
34.91514561236874 185.7886484267627 2.57673468095686
56.91647106895021 180.18088595319026 5.011887038901369
57.05458791238142 181.91762421806854 5.764180967804851
57.118133388501874 183.80905484821952 6.805224934617354
35.9660871464474 185.82986059825643 0.466639133951061
35.20078382065977 188.1623783531882 1.4147640835911843
36.382195266299476 187.39779539482518 -0.7696327187009203
35.59050817267296 190.96331205661906 1.283748766916799
36.24067719717783 189.27763492195464 -0.2517155914310981
37.33985127975273 190.85499601498657 -0.6921801899590984
51.16694050780644 192.15567397150193 3.9367180698545488
52.880582768349335 191.0520130919839 4.972176126446197
52.98520926761475 190.11424622246537 2.3279260843188476
54.509354285109566 189.51591298763176 4.927938515382305
55.836245053747106 187.5389617835985 5.273654087035107
55.22310162639735 188.06755865796552 2.9349548502016836
35.401556324509386 193.41865591632563 2.654165382888969
39.342667810501396 194.52598602721716 0.5689938102439889
39.06114022654835 192.33151642432594 -0.8950876161782627
41.90870889333472 195.07293374769836 0.804307160478014
41.0981483459664 193.34007298298422 -1.0560953057908782
44.47496021765551 194.44404994201523 1.662590042437238
43.52881632815437 193.3702126034841 -0.7635453539611903
47.29641409960008 193.42980182501248 1.8650307639180221
46.1187255204215 193.06054511627758 -0.5104185454920003
49.667612445094 192.31026692605553 2.008057323198516
48.49743624945909 192.09763618227026 -0.117491742864188
52.070916744301556 167.14952844452392 9.519921412903745
54.03882302745191 167.3430993420074 9.147997720168762
47.71791521698111 169.66810899129655 8.291030299211458
48.91518863494381 168.6949913191325 9.784974837776277
50.461145529449446 167.56720977563128 10.125514974627178
55.48248513329176 168.14832164802394 9.129669877135363
56.803191821073064 168.65262334540202 9.98011778915685
41.04867625266205 171.3905789200164 8.806219698325979
41.78307718812143 170.9534565994349 7.0519070582164884
42.12540605788336 170.050231898003 9.064054732231327
43.5147302990382 169.56501164547785 7.674530651341294
43.81575268311998 169.08335364614396 9.67893096708772
45.633742592259644 169.39975669856312 8.425735189419727
47.082740386225716 169.16552783194962 9.835841927642432
56.84552406330115 170.6081446259206 9.919055359241343
40.29690673469844 172.8054374058533 7.668913409283297
40.33865111306907 172.53018067260624 9.870681579669476
39.21509390422284 174.057828094504 9.278280343972687
38.902156890572684 174.55778473183028 7.327310767271682
57.34759703863186 171.45010533142664 11.23334308551574
56.50275718006051 172.65496505758045 10.05452835403714
37.815383709783944 176.11110565262842 6.93911255764789
37.98621970517156 175.61880954841675 8.815229798457723
36.979792793152356 177.33080826300798 8.320322173221557
55.80627409697639 173.21331381396027 8.419480644819687
55.97284674343175 174.48560610877468 9.326943227273157
37.07690610658573 177.83180240973107 6.325675118810551
36.27133572054531 179.2865219416266 7.749732014875258
55.856739232711334 176.44176155304345 6.458448670338904
36.31913108798427 179.67594912899628 5.56596650712848
35.41882067903219 181.33939054397004 7.033240584460326
55.96884405844737 176.16928601289774 8.493386664757729
56.503311646077904 177.92085658606416 7.738422116435319
34.81984449185409 183.51028634962026 6.093319831464775
33.58560249857825 185.30234178158736 7.327130182340168
56.999259627792895 180.0320594606161 7.144745750710644
57.121222043624144 182.06810816951665 7.879250002901418
57.21901944881745 183.78749247428743 8.835179328895608
33.98398538657228 185.52143058684476 4.914708168782738
32.797602283085325 187.57181666228627 6.380551664560514
57.1391041503324 185.32939153769573 9.72856637916834
33.873470972878664 187.78659891560594 3.874327885121863
32.23543503015077 191.0401551413901 6.91152652850174
33.17071072828936 189.6869711512621 5.296750639405361
54.661550474874744 189.82580823755504 9.335917120232908
55.386457921766514 188.78125341820567 7.207595062711977
49.08694471504839 193.5243136414519 7.152767026793795
50.6072614347883 192.90053833640405 8.870359653615346
51.589376622200724 192.32081024565667 6.704338510219565
53.750481471961635 190.6813346643793 7.091056352356211
56.91772073333982 185.54410460507847 7.984510280614966
56.44610872108441 187.09028343853365 7.15604751739617
32.91763802140406 194.58007714999084 6.408419379244783
33.57417292810102 192.26183835521965 4.743584382685078
40.59384104285736 198.1681636053947 5.079763159164362
36.368152212803544 195.97089451946823 3.771579793718161
42.71502581638944 197.25599435294433 6.262466863311197
41.32427872474004 196.66465897030062 2.8706880462794224
45.0672154117496 195.7041960681701 6.264784195333024
43.60740368439759 196.07148749944847 3.917284999114241
47.05970563020043 194.35087968153724 6.098825547140236
46.04193471276276 194.59019743718645 4.02028037419285
48.70745729761288 193.47297461285476 4.3421046599172115
49.96789322838734 166.475082108069 13.168268199641336
51.317445378172174 166.29458615171677 11.475864312382168
52.8892869623922 165.309169237715 12.362145104887178
54.95929438094718 165.1960185610235 12.503053306787036
53.503123556795366 166.0898709722915 10.765988209314065
49.52564013866073 167.60106795525562 11.617298807533237
48.8583498719519 167.72200141231144 13.128375519649946
47.4918648661706 168.67357897031692 11.934484192691285
55.77384219209927 166.7478215738762 10.509872520920847
57.06064760204244 166.18845757864213 12.426782975847242
57.49439030488315 167.63666760407474 11.284410812129172
42.352004491585056 169.5347879384031 10.98272978827929
41.08401955494519 170.88350950695138 10.44954523443212
44.00245448204832 168.74513353601535 11.626895177455005
45.597194408582 168.98358359020582 10.63329696604635
45.52692493801587 168.8264730690117 12.290531872013913
57.95708967062124 169.62171989424712 11.564708589065386
58.31960783319744 167.7992464423059 13.0028162142737
39.52582336542185 173.69898716837517 11.241541175710346
40.514222799618395 172.12409857146827 11.769389904363566
58.04651440569943 171.42944378472146 12.775300050688823
38.179525443004 175.07695509516617 10.750695578508706
56.63368069646698 174.38277381521826 12.924654907448295
57.091280925114326 172.87793266858557 11.973708111784529
56.33463053953343 174.35262403726784 11.113822288988228
37.064037339390836 176.73914194871105 10.306564694856679
36.29542560526286 177.93284434028504 11.900685516308625
56.11259095242438 175.9313355544384 10.283955937491612
56.25233027886749 175.92089929636677 12.004362399631471
56.32792896550484 177.50526268103903 9.611763271715608
36.22443189934884 178.6654380065623 9.864452171656001
35.57173761490098 180.00656435592566 11.569998872551148
56.28663436444354 177.15060517067158 11.10597060377537
56.77395173647958 179.19281976767329 9.14042498233209
35.487475398736116 180.81939454799067 9.380149697962507
34.701771161881176 182.2037266622992 11.24520215867575
56.58836400583898 178.6207010827356 10.90885887297523
57.00797156403316 180.75694418679728 8.905568379816659
34.458722517829095 183.29558468719748 8.794816151401697
33.54856635364413 184.37106493153854 11.08782736008655
57.008123864322016 180.37650755962852 10.535159241340388
57.13949219672097 182.12174147459214 9.836772681483337
57.044676044993665 181.9203479337342 12.05831282392076
57.26970145965585 183.83935587828915 10.81844480632858
33.26601405279456 185.3355253516901 9.34894310892644
32.15552128919667 186.92474840361697 11.02495841816071
32.564301799558855 186.77196715673864 8.509359390951442
31.959199547141953 189.0895531968508 8.640901095302443
54.088732863874846 190.23072690806407 13.230841993979334
55.29259450914782 189.13483811578186 11.515531838842298
53.91785313573103 190.60983479727517 11.178618466209624
31.195119569003843 191.07179236488423 10.43793754218536
48.75658763537236 193.79736008583083 12.436451048164656
48.87984697343892 193.8755732288398 9.895393845999775
50.69453251802061 192.8197026396583 11.107697309423918
52.66854731886838 191.73957486706684 9.507514420703162
56.33740639412857 187.47476068237023 9.552837166337255
34.41196480418655 197.55823758245143 11.112898065396251
31.899530738660125 193.07781557809798 8.499068064446028
40.705375631840454 198.70094211731333 11.131681447814353
36.42947512312052 198.2993927629258 7.51834649814814
42.92443191842199 197.47546636844064 11.172935142323244
41.74906558656286 198.15475896926586 8.685573083791278
45.17461864245848 195.87351273160036 11.183439141692888
44.18839054308173 196.78895246582493 8.688147070658731
47.14079639877667 194.62760450648713 11.180229462338875
46.71241387378566 195.05415236959448 8.631186715964674
51.48905949765727 165.24775778704225 13.470937923884673
50.313338266058594 165.75913422273246 14.96475225725096
51.83092810618405 164.53752287108466 15.378132749070492
53.30548078111693 164.38585712639014 13.926643324972646
53.704973391201705 163.89212772122485 15.958954287838884
55.25596034233965 164.26020152791722 14.643469086321325
49.2083415493243 167.23065492373644 14.66373961849092
56.55600280069815 165.12766956261095 13.818544935932318
57.01823724138705 164.76685058723888 15.535418964288164
57.92417590825451 166.19109482176955 14.401535303423811
42.63265753772805 169.18058053696984 12.901703079999464
41.8307210800413 170.34389632420226 14.133660218932173
41.152479606072426 170.3650572593507 12.340742370439589
43.176615833447514 169.31560029487994 14.69213115926764
44.3621343904497 168.6186841719337 13.451481369235633
44.9059444873709 168.9786083971035 15.199181349737248
46.1632881678225 168.84447599734438 13.78213128875366
46.729219213505544 168.8720047792015 15.621756585041974
47.87208031997862 168.36589440553314 14.201843594348878
59.5136570517671 168.49731833417835 17.602500207423315
58.89738078355009 168.01484418171287 15.193612453448017
39.825217009578985 173.2981621158049 13.110135387276218
40.8771491624481 171.8134648852385 13.609770714035806
58.82133053090332 169.7583263338601 13.751264798993363
59.23250302125445 170.0440045703644 15.833216771356572
58.419553277586424 171.52687894362106 14.703607785794276
38.46672489135118 174.58125757255243 12.654963998154788
37.5773715474302 175.51659806827143 14.120048533101528
37.20488148135537 176.0773383256998 12.251720515876059
57.45749964338199 172.93545342674128 13.793020408231698
56.8531841393086 174.40904877653196 14.742418008806622
35.748767341868316 179.15195943819523 13.614497908552654
36.56878317981241 177.21187436840816 13.844963339048098
56.30126333043227 175.98737122869164 13.845000640340118
56.30087193371057 177.76921035095214 12.720176286824774
56.72950371957631 179.76519516690306 12.339189312283466
34.903096852066305 181.23294187089954 13.409714659025338
56.57222232619217 179.13413715847383 13.876724893673707
33.98218375360664 183.3726700227891 13.2033509218479
56.872786203922686 180.77830881482612 13.94134299844299
57.16703052049287 182.49775884847472 14.018278316746077
57.141324446160375 184.06851134364274 12.930213116449115
33.13562149619288 184.61131192419333 15.138298206718531
32.87743504725551 185.17434448071583 12.927591904286679
31.742984747119568 186.69801167579968 14.200668463152041
30.694276942189408 191.2790709431246 15.463854435841187
30.961271095882328 189.35682915969386 12.935730937608106
54.46209723006937 189.65041798253995 15.539722973179353
55.50356701864648 188.45189522680502 13.71332028577107
56.66757991736819 186.25466453718138 13.961440192894665
57.09315614191468 185.81744843690757 11.516374126383381
50.601651687922335 192.77604477931746 15.849009268301446
48.74828841848058 193.74257216437337 15.018523644676192
50.67466751527213 192.77292412775031 13.640550654241672
52.61542161941462 191.5735303812438 15.128261513902476
52.56102396337211 191.79041290279517 12.304103915965893
56.50882765941852 187.60557571034394 12.074065045497466
31.700774526047248 194.59046013402795 13.608786246942373
40.401277766399126 198.38393248000872 17.296808577946255
37.65889975128361 199.24268256573598 14.385909854030265
42.482829613993886 197.40334625298027 16.05331924616518
41.52433053750444 198.18103847817144 13.664026308282585
44.698670072515476 195.9092273594617 16.068645870195045
43.96930250011443 196.7788881577099 13.665710437035893
46.39401393637577 194.92582523494025 13.778491655118842
52.194522127893194 164.03172416267222 17.36414976636001
50.54126446687669 165.0808743518853 16.81632200121616
54.130635357181504 163.45168351602206 18.011593626986784
56.112479073440575 163.93720514393559 18.673315109774205
55.64466405443236 163.8463864297942 16.642149901143
57.117068283679004 164.61924553550358 17.301066012863494
57.721925021574506 165.25459480230396 18.89352073326515
58.329178866818225 166.19137852437652 16.803466714830414
58.758896622547766 166.8468789337596 18.82629122541508
49.40762549736493 166.58196068800734 16.40128097713328
49.673841506533854 166.0891914407734 18.18394620551762
48.84073610281872 167.64054019710346 17.74449271771053
48.33904367401783 168.0466942003981 16.039118159713695
43.65215660434774 169.7577834103962 16.406871234592447
42.291398472664746 171.17210909455008 17.324258085488932
42.30681587749762 170.2643344475864 15.667955580424067
44.13224217302865 170.2109850050342 18.223592493967555
45.48748055950813 169.48664455286172 16.956622495650084
47.41641306444767 168.9632548142216 17.60095709666645
40.285586076509304 173.02700086248797 14.924733680878933
39.32169104744972 173.89565649971186 16.21165826057165
38.87715356416932 174.18203895084565 14.47773018995414
41.323177831602564 171.5241847882164 15.43070994615018
59.137356159309014 170.4808916852225 17.48561158549063
58.493403875830445 171.7239219306758 18.266944946027735
58.534013703419696 171.67486772501672 16.555100224866152
38.00526868646183 174.99604076796788 15.837273146363263
57.68189396789238 173.00941818404937 15.629481148597549
57.68750493603701 173.00524972803134 17.421469001170617
56.7736156137477 174.3187856403876 16.567385370828866
36.90267114929186 176.47223030728668 15.663529356312734
36.48638321375488 177.44965755158893 17.327937986770408
56.25279910575659 175.83994075377205 15.684209046857518
56.2589933847045 177.72167529512066 14.979066670935813
36.06242597380694 178.29782786802264 15.52743096165343
35.641114615971034 179.3033841606442 17.272279240888093
56.14041994009461 177.0613934727307 16.608848960591928
56.632326900191075 179.65898603571713 15.403285495356826
35.241790091592144 180.28362899914973 15.439798725181474
34.84403334081355 181.29996705997794 17.41762931178828
56.32197397945173 178.55239925516716 16.734730805646244
56.91656360977912 181.72935186052985 15.952014440672468
34.437959464130856 182.4831965803209 15.396443290423173
33.77597744877675 183.74283007606363 17.762651758351318
56.67094291480791 180.08039650580315 16.92792447138983
56.96030676750524 184.0394831869023 15.175261557698365
32.08832316784554 186.25209392309495 17.33589118180096
30.946929862506856 188.9128895998127 18.70752626305878
55.97407195306422 186.66779182202262 18.216519409620727
54.93867409739462 189.02806079061128 17.92774037011323
55.83041730400424 187.71072336943845 15.946763233770804
56.58814957777521 185.75346227758962 16.256634714491472
31.24011372273629 193.89681105728548 16.414995017690433
36.446387473201305 194.94612979199883 24.512724408049998
49.672369971288056 192.9815513479016 19.817636583876467
51.58324588908785 191.9319344050126 20.504560991359053
49.200578454351366 193.380132443455 17.45265718899022
51.55773148716737 192.02619474990314 17.984357033020963
53.50216443453695 190.65475904433978 17.286476167879403
34.99618598910347 198.68261540218055 18.4652599201084
38.782248627534344 197.95551506820118 21.062940070732754
43.01155542492795 195.7635287172032 20.870955980665965
41.22190289948642 197.39638753419936 19.55358228188643
45.38176589108321 194.65127185023516 19.50754521707541
43.43667695271544 196.3297108877219 18.240548729313566
47.70074801058289 193.81786114410562 19.067918770018103
46.706206881561215 194.47046935434525 16.93463198502676
52.57842378936317 163.76980512283882 19.400311109685756
51.16981911008661 164.45336581255845 20.68588836186994
50.88935782123304 164.70996710496405 18.739976339432808
52.88414541640465 163.60602680483626 21.45579202840949
54.584864598977525 163.59034818695136 20.149050334169754
54.83099497842474 163.83544035231728 22.260607336111494
56.763336971805316 164.4053917114635 20.99662252110095
58.423303224485544 166.28235147308516 20.73291232997492
49.7791278383702 165.6555990015089 20.002981741557484
49.075988236657935 167.22002289944825 19.384578321969585
46.05108442911796 170.0544546857451 18.68337110643348
47.626677723207095 169.55844908417498 19.423729444393615
48.43536739291226 168.461369588177 18.874447632986282
48.647196577427195 168.5197590512249 20.308929980130277
59.280501350357326 168.30614568343404 20.0818627409599
40.80632926492418 172.8263780412945 16.79446980735156
39.60533592453578 173.83891726741686 17.99632423757685
59.17923824605231 170.25045778056747 19.15620377897535
58.66323970029999 170.21058142197356 21.242157771643576
58.27997506761934 171.84555057398524 20.01548139984063
38.43720909790372 174.59741462745703 17.22586010889139
38.20859043449723 174.8993418059627 18.73802582829742
57.58555066739185 172.7949503305368 18.914832813950433
56.58081939475789 174.2107528709068 18.54075037734137
37.38031106992418 175.73350311452754 17.322097854809147
37.05881960974937 176.54287284243304 19.09156574651558
56.10360140546057 175.7478826656846 17.413574027684287
55.916214004825015 175.86011524223127 18.929588784105967
56.08901025263581 177.44592415696488 18.24223981594077
56.32107414463387 179.32670805006916 18.250877211880876
36.13766299286992 178.46694259783914 19.073563697413753
35.65458357415661 179.8026497746404 20.59186756951656
56.009224772092594 178.54919668592413 19.497545662041734
35.386620619652206 180.14918439536117 18.832677603335675
35.48273826625999 181.2478911153021 21.697638523198005
34.896709840261124 181.96088574779478 19.783498175783492
56.364362154498394 180.0701560357963 19.856006567115053
56.73820656469887 181.21883283348322 18.265567466855906
35.06816661318914 183.08229312105897 21.923403953390405
33.99000519025542 184.371515048193 20.26433045470892
56.54777195722853 182.30147113600736 20.63806741140333
56.67998373984569 183.87301692751348 17.879218292358946
34.69157764405916 185.57102581395372 22.67356932630127
32.55203917534399 186.70491212681694 20.45532528913811
33.60879313607434 188.27816411607242 22.8639032353477
54.497332792259925 188.79714633739815 23.49377949470704
55.280429692239 188.2351962562927 20.690151266923007
55.80029106172685 186.58318383913175 22.975631249013052
33.24482406699201 190.95829635017276 23.347052819819773
36.05257835911909 190.7983405073193 24.64383212232548
50.541180373002575 191.74748697601882 24.721044559837345
50.19881570311157 192.5746579827867 22.23025564090176
52.56367628374535 190.9105062673667 22.608139385138426
53.484661295108104 190.4957085934551 19.822570384685733
40.59914762982261 192.47730759934177 24.322432551698924
39.24858774244699 195.10167840398543 23.675107143066608
43.44266861531723 192.37765504241094 24.15030930720682
41.976793620353995 194.4566605149803 22.991675571187358
46.2287830380385 192.85300736267482 24.184843626069178
44.646063298502945 194.11592864054685 22.321914075398805
48.59164417184218 192.87460460584296 23.871535668617067
47.543846914047 193.60393465719932 21.616380088766455
57.48677594685187 165.99792212181202 22.82047430435476
53.153823976380174 163.9251248004112 23.46443505847809
51.409467913090126 164.35347275215483 22.609999770531726
54.98412178593644 164.18895004004318 24.245177908252995
56.3906473455057 164.41880924070995 23.11739652321437
49.979881279487905 165.4347436885874 21.885086768929202
50.45123336585042 165.42946750493715 23.449920139166352
49.13498194747936 167.00029571975656 21.148665329130132
44.88923761526882 170.95522902084747 19.80890237322005
44.01880732803934 171.99590010624206 20.99199272117498
43.03908022544386 171.37743913051668 19.45203978905262
45.56689173815511 171.56953313272678 21.110970436081566
46.552515080375585 170.63014311171182 20.28886071747715
46.96331794891265 171.30032764125187 21.816224196355805
47.966534105423605 169.91441098423485 21.07655080035096
48.52917697397651 170.39708313501842 22.83210721222323
48.841597022789124 168.59880739093234 22.01368165500756
41.34450787087692 172.82552780093022 19.021250572097557
39.56220419612021 174.0441779382306 19.96916290318978
42.48744744661202 172.51741252643515 20.561594480841645
57.38945787926119 170.17991126576516 23.148124085701117
57.59277462359064 172.11380648855413 21.935482756592076
58.21814208627382 168.13507924834386 22.19206776285436
56.98205376854674 173.30145184581056 20.324239941242404
38.000890497497906 175.43563017762645 20.71138737337633
55.88032375806583 174.97637636105875 20.314722227702504
55.731776007140624 177.04732986757148 20.234016178521486
55.324897043886814 176.01721317044968 21.903151630624592
55.938252752525415 178.79568444267304 20.938778777926665
36.733061006474536 177.60999681394236 21.308935807417768
37.41134191482029 178.01979223075057 23.789781893848595
55.50283307085577 177.675374026139 21.878091272564717
56.24201963982188 180.30847994881879 21.490969254708485
36.14839332518246 179.69692336160284 22.720281573403046
55.645558696899215 179.1623481089803 22.633888787900073
56.10597761489592 181.33109293613344 23.27667049771704
35.99595217891501 181.785591964117 23.366620236725968
56.00405115973464 182.96367835953353 24.940098928107307
56.300689115206296 183.99871549952027 22.994868394727362
35.81653106726826 183.695780165525 23.55977436689844
36.75777189779656 185.26628282168255 24.551734146498486
53.54564030138149 185.55865449098383 27.498051129350404
54.33462668815274 187.7558986830316 26.03357844269647
55.45940114406399 185.34660683473018 25.309734302155704
56.2792518925502 185.31610647826463 20.577471870863466
38.75094959731569 187.26892723449856 25.491082330504394
35.80457416277769 187.90408691335782 24.478022557713988
39.00545541307384 190.17856559831992 25.107811166758474
47.52646388837068 189.8736141497736 27.335979164768194
50.09187304038525 190.22263476572914 27.125397827724147
51.84394788479861 187.88905358793983 27.416840125626205
52.71141496877522 190.01576898308934 25.56540796358586
43.703048754039976 188.62838984875484 26.62752704416864
41.99264109294726 190.06142379794903 25.453004079398237
45.196411774989876 190.6772822708004 26.07406904846835
48.03623997221052 191.85061689657476 25.970253190495068
51.69272183147545 164.8488414924035 24.391285509255983
55.03884910803418 165.11404955447316 25.73736908667718
53.818201581428745 166.06134042450805 26.418702504597572
53.38440075281673 164.60023120568314 25.321681896251974
56.41352169777993 165.57609471648556 24.645711684354403
50.53948766254131 166.29110071045275 24.80025941545659
49.46769814788255 166.97881558668308 23.168074921674815
52.05499184222896 165.90712958564282 25.892757503891055
49.07237062234118 168.74189044780817 23.53769176673932
41.10708480790887 173.3389123627094 21.19389122769785
41.15115057249917 173.70566147504684 23.260177535995027
42.852166394164726 172.91416951486704 22.180891533322114
39.433342036731545 174.39220263233068 22.07893540972971
37.893815658828885 175.87838414159359 22.95269272743153
54.565054798221986 175.1786460792072 23.30246241473709
54.586436775538445 177.41882431014653 23.561630368242437
38.211024364114145 176.33174196084335 25.15705341158845
55.111698924886646 179.57451416090925 24.504134887570245
38.744854369568834 179.94223974794636 26.407447768082616
37.4504051349092 180.35520350170395 24.751253749103444
54.29524930575943 179.9999334571163 26.669145900543764
55.659762472723635 181.2268953181116 25.477458895652994
54.70846417372918 182.85075308863628 26.974154987092305
38.55836087620769 181.86320840432688 26.298542863374983
37.15398021673089 182.87506536464625 24.79481370689357
39.969047056386906 183.06070701836455 27.538738588152302
53.2948735454632 181.3457850039171 28.305472431865958
52.35163802423898 183.35520627266425 28.31843202184934
38.4843579402751 184.30142155407626 26.09743477415221
40.41278669598443 185.33051837322347 27.027282323323988
48.724467438375726 185.02593138405362 28.60412286405493
45.85117001229013 188.18673709994957 27.481909365625782
48.75262597307651 187.49247018870105 27.96655190408689
50.918098936545974 185.50256697771025 28.373027336097806
42.355414737918316 185.5310843866518 27.259160124983772
41.61509739049301 187.48936862653707 26.501167267122657
43.940796673756424 186.62788197191958 27.355981720600486
55.467514745455375 166.83187653600118 25.93444702194066
54.08849094405003 167.57720840598583 26.419445498174692
49.759998331589124 168.0246989393053 24.854394172140868
52.64354481260035 167.31283719725656 26.86736305400147
50.9136284105222 167.41018572693764 26.25432525862134
45.255134232160195 172.58799019475117 22.83212691412637
49.55116978968785 169.89427670639347 24.48858879467672
50.59153769141187 169.23445548991313 25.897599404700337
43.145285513376024 173.49867209710283 24.162879211779586
55.09011696055024 172.06912626073282 24.963400408570593
56.37231880572496 172.1496357093361 23.711191131820677
54.802922846597745 173.4067208429491 23.8893016708433
55.8845888142775 173.8415914207325 22.17703112445874
39.45763951875233 174.76611698042993 24.241659802663357
53.6112849701758 175.98688898427548 24.201605221517262
39.81585406191207 175.50514744840177 26.03544836112899
39.42380608642384 177.02077529156003 26.435365942111176
53.11166139334607 177.2137996496507 24.924496097969325
38.3956846478791 178.35387660205052 25.679384648841012
53.99388151964445 178.50373697609857 25.21043458523909
52.704962779318066 178.45833668608566 26.217715145193903
40.29297782765124 180.687863367389 27.41496942106944
49.03010120567832 181.39190257841025 28.49879971227002
51.20012866239355 181.39642382016672 28.6275508019446
41.55237271899404 182.08480906002544 27.951891238987816
43.342920619958285 182.35837821574154 27.981080956932583
41.90124109740737 183.82476961017926 27.721366581172305
45.49408157975136 182.84089135391298 28.213927832690462
43.87990822067219 184.44477558578103 27.852536248415586
46.334449197446595 185.40287634695602 28.02627945740991
47.729295065300406 183.19301341057877 28.592363461789677
50.007338297162846 183.31978071762973 28.87830777257035
51.75769924544709 168.6695215503769 26.904208510377405
53.31904849730524 168.93994086749228 26.647795413948025
55.04143749703891 168.78255676443695 25.87075518165623
56.65943083135278 167.9783553261484 24.283356400758052
53.49205647157153 172.7366426628139 24.87057253425785
55.949295222133905 170.37405844700004 24.865818282007986
41.37102853343864 174.49850521061373 25.341778072275275
51.71318807535004 173.87007473117154 24.884208658386285
52.33696215447828 175.7124546621878 24.83955429707064
53.351036833052206 174.45268743679102 24.198204388951257
51.63498993626004 177.07379878007148 25.72327697899795
50.71488789319959 175.6379322039475 25.30821204518168
50.986902175294595 178.34599931021322 26.893365466747557
39.902031315205406 178.5750130746369 26.90934710081534
49.18476978419708 178.2799097663659 27.219447937888596
46.56645020527403 179.57799134050035 27.81953927934357
48.205080578929525 179.6892365539665 27.96655012555901
50.141617453142096 179.70643241127743 28.0059794672359
52.243394902916606 179.5823695532609 27.880228548236722
42.451182201318495 180.49361626686382 27.949118170482176
44.803908219056424 180.46346899853918 28.005106764798636
46.95778572842637 181.17391802565075 28.298480231032197
47.44990175183111 172.0487830012025 23.14246973795624
47.107730476155936 173.61514066696998 24.443755021147872
51.98505790740682 170.24711055718467 26.411714771751374
50.6186999568197 170.99047224334194 25.300582566881808
53.95192173078524 170.83699219227566 25.90901814284746
49.16979568410464 172.01208551460758 24.113734692927615
52.06221184567272 171.89971752911103 25.466083824217225
50.015020761054195 177.01595637791092 26.227590489625282
41.501754902479504 178.98139091421635 27.446252845183622
43.37074666697402 178.56904095845036 27.554586060319796
47.38636252341118 178.23113055316514 27.326268565130796
50.62139108030423 172.5747800952326 24.920895730793347
43.51957863058606 174.83830398927296 25.886922778110684
44.94717744690444 173.82121488625242 24.7218764378799
49.253873247943865 175.82032505113912 25.74459549939147
48.350168524029854 176.89368279493468 26.521238387465548
45.499978333823506 178.36642283367712 27.376005764235554
41.63998763316752 176.7608737893428 26.71958071937566
49.47489610348034 174.14134923565828 24.989719255411885
51.31792715082217 191.5656370874574 2.016255535613864
30.914478259943916 190.53800145110688 19.931963187255803
54.09909833440487 189.74130977449857 21.67604175939908
35.64591537391851 196.7742408784721 23.901536384060723
40.34439949582084 188.74287844406732 25.625223124975435
37.026623319569886 198.39496465718955 22.025412980072552
45.06621932877545 195.3549130344597 17.69437830124885
34.53757900048664 193.18331063188995 24.47691733111129
30.64433424435047 190.10715062789393 17.108073435271514
32.798810007083205 198.56364441309182 18.27889072044369
40.67599474361348 196.41737369796556 21.94751018437253
33.33150511091458 197.00061309591206 22.072913178887678
34.863654081825416 198.53934661610657 20.46531395740791
44.38070691911787 176.5748155467948 27.01375980981268
32.00989203984514 194.5915585816634 9.796668209010795
37.50175534839206 197.2737611947667 23.40530117853514
32.10337204943693 193.6497634260856 23.59011256944663
30.643823634185505 191.60558591756623 18.29435943436535
33.91336767340508 195.79780608439142 23.592670360355875
32.047759256249165 196.17140812628995 15.609771407043842
32.87968658747472 185.127411898355 19.009526392743496
31.30277031764008 193.9636310150702 19.092610123830617
34.38021786128729 194.6454321002407 4.54365653992404
32.98690893831928 198.18472411406916 20.423894384130296
39.7789612597512 197.49507768258403 3.4601960563966445
42.90945158467247 195.72848371022118 2.2161628800877686
39.230036837562956 196.93364295427662 22.768983465187876
37.389986638578456 194.69684564423483 1.9332108517158395
37.91362516740202 199.36204325408363 12.664442006151754
45.70074090877815 175.15188016270736 25.76210907171531
50.22919284436301 193.0554691210425 5.51104477147817
40.35122909601567 195.9610883890826 1.3915069842066394
34.75529504524134 198.12119367381703 12.923004508351164
41.1095723779259 198.31660252487532 15.533188267433948
34.55387274410399 191.72226502905085 2.8703235725318015
35.10512724461534 197.93190720078064 22.287998483958585
36.466316951014704 198.78053619546625 20.54271322046232
42.182126368298746 197.26197172084346 4.444145519500512
38.51683661752362 199.21055114382736 16.402613078849214
41.95405709987446 197.48799102647448 17.81511194040573
37.603069806415625 188.7992564443722 -1.795888600972155
33.54313150554191 196.1078912228967 7.296469063377944
41.351452329124385 198.23457646213504 6.8382355542540525
39.86967920709047 199.0152445701153 9.327140288378263
31.71607489541527 189.48890450557803 21.316976230404332
35.38604461397299 197.55261980807057 6.819306238614141
31.377249849880254 189.0620687508958 10.718684885886283
53.12959840810346 185.48924575452324 -2.7734830530981944
50.56010663478025 185.5986857897934 -3.052138697120188
47.73165057635258 175.39660807463721 25.690607558920785
30.907311988852893 188.68781668417657 15.955695713244902
48.09748966945879 185.72218687408656 -2.966661570717088
45.70930830796996 185.92382150101452 -2.9843206762798156
43.35312021984168 186.18539166386827 -2.991609393112052
41.00038250267467 186.5157001479193 -3.0039427469707882
38.18152304550678 199.0078939285727 8.509641439718376
38.0546070696042 186.6371452834339 -2.009447679312548
38.89163381615831 196.3350020770872 2.422568938277067
34.68563746055824 196.35721265189346 6.031529923314711
39.82790481754661 198.93484237368347 15.061903463148173
55.233824330627904 182.71793250810555 -2.074799075600923
52.801497751587625 182.9483193730296 -2.9962641539579673
50.344422873989 183.17506027588564 -3.074539096211224
33.5258938101645 196.59280036103416 9.803424754994191
47.908964746884074 183.3720741172301 -2.997677640975242
45.520097108236705 183.63337791771835 -2.9760660196212307
43.195900584685674 183.91984442966103 -3.0610169804629
46.5182936965009 176.7182535566083 26.716522229169243
40.947296079746685 184.21719911694083 -2.9641220774828296
38.067793056749345 184.58656416308986 -2.0747005054037055
54.38315551819491 180.39928784656263 -1.5486944627086552
38.291136372097505 198.54804775000008 6.310437155564546
52.557248601287725 180.6149310371618 -2.9380421356031587
50.14194450558602 180.81385569018127 -2.9276217717417485
47.684116024834985 180.9697568782607 -3.0949527749051495
39.416278229845176 199.2466239613743 12.985976790263154
45.27206822019374 181.3414140244024 -2.985318796495487
42.97212937749896 181.68926036341426 -2.973542945481665
40.721402684581385 181.994739866969 -2.9580435114900365
38.09595947764498 182.63848933627875 -1.489059750591233
53.683468983027865 178.17388806352452 -1.3113660866054286
32.8725323142507 195.50243788063017 8.718501662503522
55.29854124978524 187.24407715950497 24.541809388558907
47.46807436148265 178.51104160200308 -3.04619256137651
44.26433565790944 178.25656483018895 -2.910076989434619
38.314223690453595 197.59622735239253 4.296583515571511
43.025479908386785 179.39605409719815 -2.5389839647256935
35.02338040185579 198.6794221985101 16.50652397138873
39.879284776167935 179.33059099343092 -1.5444347561706129
38.19179276629502 180.66155083298403 -0.7489614412971692
36.244666698452086 198.64950068171183 9.76083155041023
36.29037145886188 198.88804762755578 12.340375485289211
50.13566544862116 176.26412527873364 -1.720863354009808
31.076275966512586 193.0108013829759 14.61881998737362
37.93178689945245 198.80792898305694 18.527967967741574
31.53332204995502 193.6057510322576 11.046533682232708
47.211142723806866 176.1154667908135 -2.608606743400462
44.96158222110897 176.58561559853538 -2.978401017556788
40.06470624182912 198.83386637816935 7.409471882265954
36.2395297534665 192.92779646741326 24.704601871457072
40.13658454038775 177.32526505055733 -0.44280794048606037
38.36738052719723 178.64679187037962 0.11691941124088283
32.08601899464764 196.39216945434228 18.220750692905543
36.40845780468266 197.69399454972918 5.604204188316689
36.54474112791693 199.00333242234652 16.503910961426918
49.807457329427436 174.64720462044752 -0.19130899433608275
39.685953542309825 198.42402093782655 19.192133651933247
46.99531702805591 174.28269310332573 -1.1082779745860032
43.80824453231653 174.2629861061808 -0.4802155216334003
41.78863956397054 175.77390279519008 -0.8238722319802485
40.30345479617297 175.56103245154708 0.737298407486875
38.77044945374238 176.8298270469903 1.22514679930043
34.032341437648576 190.11307308842137 3.0787256039656863
32.04732966676761 195.46968213175296 21.28226035503458
37.21207913549223 192.91788409872055 0.6285082584188119
49.35983452203414 173.18890928485257 1.4822268798437663
37.95220069415425 192.77686475384456 24.714362960822665
34.61788591534036 189.4701628537053 23.936156034908937
33.362967408072 197.05792416632778 13.606843243647928
37.389414144354056 189.03889113858366 24.992022418088506
44.56643945414024 173.033606374478 0.5188910401852279
41.82233821555585 174.2662975487613 0.7857534033302193
40.57081086507327 174.43348822592648 1.9073796880969038
31.19816757324735 192.24971218323228 21.173610938620037
32.475512471499655 192.76544621556494 6.553510985522334
33.45926550871602 197.9776817776783 16.41300558833491
30.9941355262534 192.18301428413028 13.000409088690638
34.570521152706256 197.16442450576756 8.364135442962118
32.71679835707255 195.68729195087414 11.093761640811524
47.32997422573144 172.8137902243194 1.6162548117292264
38.368658088135035 199.28540611891765 10.940214641634354
44.089687773063595 172.03175743586817 2.823862787862544
32.44381159928893 189.33842261496372 6.769321709860912
31.510975750488836 191.06389670600146 8.530018966654747
35.27575890270643 198.48255132536983 14.667033341787567
POLYGONS 1560 6240
3 10 0 1
3 778 106 3
3 4 106 778
3 5 6 4
3 8 7 6
3 8 6 5
3 769 13 12
3 15 14 13
3 15 13 769
3 758 117 21
3 748 758 21
3 748 21 28
3 27 26 34
3 736 748 28
3 736 28 35
3 41 42 33
3 52 42 41
3 726 736 35
3 726 35 43
3 51 52 41
3 62 52 51
3 716 726 43
3 716 43 53
3 61 62 51
3 63 62 61
3 64 62 63
3 65 64 63
3 66 64 65
3 703 716 53
3 703 53 136
3 84 75 66
3 84 66 65
3 687 703 136
3 148 85 139
3 94 86 85
3 94 85 148
3 95 87 86
3 95 86 94
3 96 88 87
3 96 87 95
3 97 89 88
3 97 88 96
3 98 90 89
3 98 89 97
3 91 90 98
3 100 101 99
3 102 103 159
3 0 99 103
3 0 103 102
3 0 102 1
3 2 104 101
3 2 101 100
3 106 108 107
3 106 107 3
3 109 110 108
3 109 108 106
3 106 4 109
3 111 169 110
3 111 110 109
3 4 6 109
3 109 6 111
3 7 102 111
3 6 7 111
3 7 1 102
3 11 116 105
3 11 105 104
3 2 11 104
3 13 114 12
3 14 115 112
3 13 14 112
3 117 118 121
3 117 121 21
3 113 118 114
3 119 120 181
3 119 27 120
3 119 181 116
3 119 116 11
3 21 121 123
3 21 123 28
3 121 186 123
3 34 42 122
3 27 34 122
3 124 123 186
3 28 123 126
3 28 126 35
3 123 124 126
3 122 42 52
3 122 52 125
3 122 125 128
3 127 126 124
3 35 126 129
3 35 129 43
3 126 127 129
3 131 128 125
3 125 52 62
3 125 62 64
3 125 64 131
3 130 129 127
3 43 129 134
3 43 134 53
3 129 130 134
3 64 132 131
3 132 64 66
3 132 66 133
3 135 134 130
3 53 134 136
3 134 135 136
3 66 75 133
3 137 138 135
3 136 135 138
3 136 138 687
3 137 139 138
3 687 138 139
3 142 140 141
3 142 92 91
3 143 145 142
3 143 142 141
3 92 142 93
3 142 145 93
3 144 145 143
3 149 150 147
3 148 147 150
3 94 148 150
3 94 150 95
3 151 152 149
3 150 149 152
3 95 150 152
3 95 152 96
3 153 154 151
3 152 151 154
3 96 152 154
3 96 154 97
3 155 156 153
3 154 153 156
3 97 154 156
3 97 156 98
3 156 155 91
3 91 98 156
3 158 224 157
3 101 157 99
3 103 99 160
3 160 99 161
3 101 104 158
3 158 104 162
3 163 162 105
3 162 104 105
3 165 166 164
3 167 168 166
3 167 166 165
3 108 165 107
3 165 108 167
3 169 168 167
3 108 110 167
3 167 110 169
3 160 170 159
3 171 163 105
3 105 116 171
3 172 173 174
3 112 175 113
3 115 165 172
3 112 115 172
3 115 107 165
3 177 176 171
3 116 177 171
3 178 179 180
3 118 183 121
3 174 179 175
3 113 178 118
3 181 182 177
3 181 120 182
3 181 177 116
3 184 183 180
3 121 183 186
3 183 184 186
3 27 122 185
3 120 27 185
3 120 185 188
3 182 120 188
3 187 186 184
3 186 187 124
3 189 188 185
3 185 122 128
3 185 128 189
3 124 187 190
3 124 190 127
3 187 258 190
3 192 189 128
3 128 131 192
3 191 190 258
3 127 190 195
3 127 195 130
3 190 191 195
3 193 192 132
3 131 132 192
3 194 193 133
3 132 133 193
3 196 195 191
3 130 195 198
3 130 198 135
3 195 196 198
3 207 197 194
3 207 194 133
3 133 75 207
3 198 196 200
3 199 210 200
3 205 203 204
3 275 206 205
3 275 205 204
3 205 141 140
3 205 206 141
3 201 202 206
3 201 206 275
3 141 206 143
3 206 202 143
3 276 202 201
3 276 208 202
3 143 202 144
3 202 208 144
3 207 208 276
3 207 75 208
3 208 75 144
3 215 216 213
3 217 218 215
3 216 215 218
3 151 216 218
3 151 218 153
3 203 219 217
3 218 217 219
3 153 218 219
3 153 219 155
3 140 155 219
3 221 287 220
3 222 287 221
3 224 221 157
3 221 224 222
3 224 223 222
3 225 220 226
3 161 221 225
3 160 161 225
3 161 157 221
3 228 229 223
3 228 223 224
3 158 228 224
3 158 162 228
3 228 230 229
3 228 162 163
3 228 163 230
3 230 237 229
3 166 232 164
3 168 233 231
3 166 168 231
3 234 235 233
3 234 233 168
3 168 169 234
3 227 235 234
3 169 170 234
3 234 170 227
3 160 227 170
3 163 236 230
3 163 171 236
3 230 236 237
3 173 239 238
3 173 238 174
3 299 239 232
3 171 176 236
3 240 310 236
3 240 236 176
3 236 310 237
3 241 238 313
3 241 313 315
3 179 245 180
3 241 174 238
3 174 241 179
3 177 182 244
3 243 177 244
3 243 244 242
3 240 176 243
3 176 177 243
3 246 245 315
3 180 245 250
3 180 250 184
3 245 246 250
3 247 252 248
3 247 188 249
3 247 249 252
3 242 244 248
3 247 248 244
3 247 244 182
3 182 188 247
3 251 250 246
3 184 250 254
3 184 254 187
3 250 251 254
3 256 252 249
3 249 188 189
3 249 189 253
3 249 253 256
3 255 254 251
3 187 254 258
3 254 255 258
3 260 256 253
3 253 189 192
3 253 192 257
3 253 257 260
3 259 258 255
3 258 264 191
3 258 259 264
3 262 260 261
3 257 261 260
3 257 192 193
3 257 193 261
3 261 263 262
3 261 193 194
3 261 194 263
3 265 264 259
3 191 264 266
3 191 266 196
3 264 265 266
3 197 337 263
3 194 197 263
3 266 265 267
3 196 266 267
3 269 201 270
3 269 270 268
3 274 272 340
3 204 203 273
3 274 204 273
3 274 273 272
3 342 275 274
3 342 274 340
3 204 274 275
3 268 270 342
3 275 342 270
3 275 270 201
3 343 276 269
3 201 269 276
3 337 276 343
3 276 337 197
3 207 276 197
3 281 282 279
3 283 284 281
3 282 281 284
3 213 282 284
3 213 284 215
3 285 286 283
3 284 283 286
3 215 284 286
3 215 286 217
3 272 273 285
3 286 285 273
3 286 273 203
3 203 217 286
3 287 289 288
3 287 288 220
3 290 291 289
3 290 289 287
3 287 222 290
3 292 291 290
3 222 223 290
3 290 223 292
3 220 293 226
3 294 295 292
3 223 294 292
3 223 229 294
3 359 295 296
3 294 296 295
3 294 229 296
3 296 229 237
3 296 237 307
3 297 300 298
3 301 302 300
3 301 300 297
3 231 233 297
3 297 233 301
3 303 304 302
3 303 302 301
3 233 235 301
3 301 235 303
3 305 364 304
3 305 304 303
3 235 227 303
3 303 227 305
3 226 305 227
3 307 306 359
3 238 239 308
3 308 239 309
3 298 309 299
3 299 309 239
3 310 312 311
3 310 240 312
3 306 307 311
3 310 311 307
3 310 307 237
3 314 313 373
3 313 314 315
3 316 317 379
3 316 243 242
3 316 242 317
3 316 379 312
3 316 312 240
3 240 243 316
3 314 319 315
3 315 319 246
3 248 252 321
3 320 248 321
3 317 242 320
3 242 248 320
3 318 246 319
3 246 318 251
3 321 252 256
3 321 256 322
3 321 322 324
3 323 318 390
3 323 390 394
3 323 251 318
3 251 323 255
3 326 324 322
3 322 256 260
3 322 260 262
3 322 262 326
3 255 325 259
3 327 326 262
3 262 328 327
3 262 263 328
3 329 330 325
3 329 325 394
3 259 325 330
3 259 330 265
3 337 336 328
3 263 337 328
3 331 330 329
3 265 330 331
3 265 331 333
3 335 334 402
3 335 269 268
3 335 268 334
3 336 335 402
3 340 339 338
3 340 272 339
3 341 342 340
3 341 340 338
3 334 268 341
3 342 341 268
3 336 343 335
3 269 335 343
3 343 336 337
3 279 348 281
3 349 350 347
3 348 347 350
3 281 348 350
3 281 350 283
3 350 349 351
3 283 350 351
3 283 351 285
3 351 339 272
3 272 285 351
3 289 353 288
3 291 354 352
3 289 291 352
3 356 355 354
3 356 354 291
3 291 292 356
3 357 358 355
3 357 355 356
3 359 360 358
3 359 358 357
3 361 362 363
3 421 362 353
3 288 361 293
3 357 356 295
3 292 295 356
3 357 295 359
3 365 368 366
3 300 367 298
3 369 368 365
3 300 302 365
3 365 302 369
3 302 304 369
3 369 304 370
3 304 364 370
3 363 370 364
3 306 360 359
3 371 434 372
3 374 366 434
3 374 434 371
3 308 309 371
3 371 309 374
3 298 374 309
3 375 376 436
3 311 312 377
3 375 311 377
3 375 377 376
3 375 436 306
3 306 311 375
3 372 378 373
3 373 378 314
3 379 381 380
3 379 317 381
3 376 377 380
3 379 380 377
3 379 377 312
3 382 378 443
3 382 443 383
3 319 386 318
3 382 314 378
3 314 382 319
3 384 388 445
3 320 321 385
3 384 320 385
3 384 385 388
3 384 445 381
3 384 381 317
3 317 320 384
3 387 386 383
3 318 386 390
3 386 387 390
3 392 388 385
3 385 321 324
3 385 324 389
3 385 389 392
3 391 390 387
3 390 391 394
3 396 392 389
3 389 324 326
3 389 326 393
3 389 393 396
3 395 394 391
3 393 326 327
3 393 327 397
3 327 328 397
3 394 395 329
3 403 397 336
3 397 328 336
3 329 395 398
3 329 398 331
3 398 462 399
3 402 401 400
3 402 334 401
3 400 403 402
3 402 403 336
3 409 406 407
3 338 339 408
3 409 338 408
3 409 408 406
3 472 410 409
3 472 409 407
3 338 409 341
3 409 410 341
3 410 472 401
3 410 401 334
3 334 341 410
3 415 416 413
3 414 413 416
3 347 416 349
3 417 418 415
3 349 418 351
3 406 408 417
3 418 417 408
3 418 408 339
3 339 351 418
3 419 422 420
3 423 424 422
3 423 422 419
3 352 354 419
3 419 354 423
3 425 424 423
3 354 355 423
3 423 355 425
3 426 481 425
3 355 358 425
3 425 358 426
3 358 360 426
3 362 428 363
3 420 427 421
3 421 427 362
3 369 429 368
3 370 430 429
3 370 429 369
3 431 432 430
3 431 430 370
3 488 432 428
3 363 431 370
3 360 306 433
3 434 498 435
3 434 435 372
3 366 498 434
3 491 366 368
3 436 438 437
3 436 376 438
3 436 437 433
3 436 433 306
3 503 433 437
3 481 426 503
3 433 503 426
3 439 435 440
3 372 439 378
3 441 442 504
3 380 381 442
3 441 380 442
3 441 504 438
3 441 438 376
3 376 380 441
3 444 443 440
3 443 444 383
3 445 447 446
3 445 388 447
3 445 446 442
3 445 442 381
3 383 444 449
3 383 449 387
3 444 510 449
3 447 388 392
3 447 392 448
3 447 448 451
3 450 449 510
3 387 449 452
3 387 452 391
3 449 450 452
3 455 451 448
3 448 392 396
3 448 396 456
3 448 456 455
3 453 454 450
3 452 450 454
3 391 452 454
3 391 454 395
3 459 455 456
3 396 393 456
3 457 458 454
3 457 454 453
3 395 454 458
3 525 459 460
3 456 393 460
3 456 460 459
3 393 397 460
3 460 397 403
3 461 462 458
3 461 458 457
3 527 463 461
3 462 461 463
3 466 525 465
3 466 465 464
3 465 400 401
3 465 525 400
3 471 469 532
3 407 406 470
3 471 407 470
3 471 470 469
3 464 471 532
3 407 471 472
3 472 465 401
3 475 476 473
3 474 473 476
3 477 478 475
3 476 475 478
3 413 476 478
3 413 478 415
3 479 480 477
3 478 477 480
3 415 478 480
3 415 480 417
3 469 470 479
3 480 479 470
3 480 470 406
3 406 417 480
3 422 483 420
3 424 484 482
3 422 424 482
3 485 541 484
3 485 484 424
3 424 425 485
3 481 541 485
3 425 481 485
3 486 487 543
3 537 487 483
3 420 486 427
3 489 492 490
3 493 494 492
3 493 492 489
3 368 429 489
3 489 429 493
3 495 496 494
3 495 494 493
3 429 430 493
3 493 430 495
3 497 496 495
3 430 432 495
3 495 432 497
3 543 497 488
3 488 497 432
3 498 546 499
3 498 499 435
3 498 500 546
3 490 500 491
3 491 498 366
3 437 438 502
3 501 437 502
3 437 501 503
3 503 501 609
3 503 609 481
3 435 499 440
3 504 586 502
3 504 502 438
3 505 499 549
3 440 499 505
3 440 505 444
3 506 508 586
3 446 447 507
3 506 446 507
3 506 507 508
3 506 586 504
3 506 504 442
3 442 446 506
3 444 505 510
3 505 550 510
3 512 508 507
3 507 447 451
3 507 451 509
3 507 509 512
3 511 510 550
3 515 512 509
3 509 451 455
3 509 455 513
3 509 513 515
3 556 514 511
3 510 511 514
3 450 510 514
3 450 514 453
3 516 515 513
3 513 455 459
3 513 459 516
3 556 517 514
3 453 514 517
3 453 517 457
3 519 518 516
3 519 516 459
3 459 525 519
3 561 520 517
3 561 517 556
3 457 517 520
3 457 520 461
3 565 521 561
3 520 561 521
3 461 520 521
3 461 521 527
3 524 522 559
3 524 523 522
3 518 519 524
3 518 524 559
3 524 519 466
3 466 519 525
3 526 527 521
3 526 521 565
3 530 529 569
3 531 532 530
3 531 530 569
3 530 532 469
3 522 523 531
3 532 531 523
3 532 523 464
3 533 534 572
3 473 528 534
3 473 534 475
3 534 533 535
3 475 534 535
3 475 535 477
3 529 530 536
3 529 536 535
3 477 535 536
3 477 536 479
3 536 530 469
3 469 479 536
3 538 574 539
3 541 574 538
3 484 541 538
3 544 542 537
3 537 542 487
3 539 544 540
3 537 540 544
3 492 579 490
3 492 494 579
3 579 494 628
3 494 496 628
3 496 497 545
3 576 545 543
3 543 545 497
3 546 548 547
3 546 500 548
3 490 548 500
3 549 546 547
3 549 499 546
3 502 586 584
3 502 584 501
3 549 550 505
3 549 587 550
3 586 508 551
3 553 550 587
3 552 551 508
3 508 512 552
3 550 553 511
3 512 515 552
3 511 553 592
3 511 592 556
3 554 557 593
3 554 593 552
3 554 552 515
3 515 516 554
3 555 556 592
3 558 518 559
3 558 559 557
3 558 554 516
3 516 518 558
3 560 561 556
3 560 556 555
3 562 565 560
3 561 560 565
3 559 564 563
3 559 522 564
3 557 559 563
3 600 566 562
3 565 562 566
3 526 565 566
3 526 566 572
3 569 603 567
3 569 529 568
3 569 568 603
3 570 569 567
3 569 570 531
3 570 564 522
3 522 531 570
3 571 572 566
3 571 566 600
3 572 571 573
3 572 573 533
3 603 568 573
3 533 573 568
3 533 568 535
3 529 535 568
3 574 575 539
3 574 541 609
3 539 577 544
3 496 545 580
3 581 580 576
3 576 580 545
3 576 578 581
3 579 582 548
3 582 612 547
3 584 586 585
3 584 585 583
3 549 547 587
3 547 612 587
3 551 588 615
3 585 586 551
3 585 551 615
3 587 589 553
3 551 552 588
3 589 590 553
3 619 592 590
3 553 590 592
3 593 557 594
3 592 619 555
3 624 594 557
3 555 619 595
3 555 595 560
3 560 595 562
3 597 596 623
3 624 597 623
3 597 563 564
3 597 624 563
3 557 563 624
3 598 562 595
3 598 595 625
3 599 600 598
3 562 598 600
3 601 602 599
3 600 599 602
3 602 601 603
3 603 601 604
3 604 567 603
3 596 597 605
3 596 605 604
3 567 604 605
3 567 605 570
3 605 597 564
3 564 570 605
3 571 600 602
3 571 602 573
3 573 602 603
3 577 607 606
3 577 606 578
3 607 577 575
3 608 607 575
3 575 574 608
3 574 609 608
3 496 633 628
3 580 633 496
3 610 613 634
3 632 610 634
3 611 584 583
3 611 609 501
3 501 584 611
3 615 588 614
3 615 614 613
3 585 615 610
3 585 610 583
3 617 613 614
3 614 588 591
3 614 591 616
3 614 616 617
3 589 612 645
3 589 645 590
3 590 645 619
3 616 591 594
3 616 594 618
3 619 645 636
3 594 624 618
3 595 619 636
3 595 636 625
3 622 623 596
3 620 618 623
3 620 623 622
3 624 623 618
3 598 625 599
3 625 637 626
3 599 625 626
3 599 626 601
3 621 622 627
3 621 627 626
3 601 626 627
3 601 627 604
3 627 622 596
3 596 604 627
3 607 630 606
3 607 608 632
3 631 630 634
3 581 606 630
3 581 630 631
3 582 579 641
3 629 641 579
3 642 646 617
3 613 617 646
3 645 612 640
3 635 643 642
3 635 642 617
3 635 617 616
3 616 618 635
3 645 637 636
3 620 643 635
3 620 635 618
3 637 644 626
3 626 644 621
3 638 621 644
3 622 621 638
3 638 643 620
3 620 622 638
3 625 636 637
3 634 639 631
3 646 629 633
3 642 643 696
3 645 660 637
3 696 643 714
3 643 638 714
3 637 660 644
3 714 644 660
3 644 714 638
3 676 640 641
3 640 660 645
3 640 676 660
3 696 629 646
3 100 0 10
3 100 10 2
3 1 7 8
3 9 10 1
3 1 8 9
3 3 14 15
3 16 778 3
3 3 15 16
3 12 117 758
3 757 769 12
3 12 758 757
3 26 27 119
3 20 26 119
3 119 11 20
3 33 42 34
3 25 33 34
3 34 26 25
3 90 91 92
3 81 90 92
3 92 82 81
3 82 92 93
3 93 83 82
3 83 93 145
3 145 84 83
3 84 145 144
3 144 75 84
3 100 99 0
3 159 169 111
3 111 102 159
3 112 113 114
3 114 13 112
3 14 3 107
3 107 115 14
3 117 12 114
3 114 118 117
3 157 101 158
3 159 103 160
3 161 99 157
3 159 170 169
3 172 174 175
3 175 112 172
3 164 173 172
3 172 165 164
3 178 180 183
3 183 118 178
3 178 113 175
3 175 179 178
3 225 226 227
3 227 160 225
3 225 221 220
3 231 299 232
3 232 166 231
3 173 164 232
3 232 239 173
3 241 315 245
3 245 179 241
3 288 293 220
3 297 298 299
3 299 231 297
3 305 226 293
3 293 364 305
3 308 373 313
3 313 238 308
3 323 394 325
3 325 255 323
3 352 421 353
3 353 289 352
3 361 363 364
3 364 293 361
3 361 288 353
3 353 362 361
3 365 366 367
3 367 300 365
3 371 372 373
3 373 308 371
3 374 298 367
3 367 366 374
3 382 383 386
3 386 319 382
3 419 420 421
3 421 352 419
3 427 488 428
3 428 362 427
3 431 363 428
3 428 432 431
3 360 433 426
3 439 440 443
3 443 378 439
3 439 372 435
3 482 537 483
3 483 422 482
3 609 541 481
3 486 543 488
3 488 427 486
3 486 420 483
3 483 487 486
3 489 490 491
3 491 368 489
3 491 500 498
3 482 484 540
3 540 537 482
3 538 539 540
3 540 484 538
3 542 576 543
3 543 487 542
3 548 490 579
3 557 554 558
3 542 544 578
3 578 576 542
3 578 544 577
3 577 539 575
3 547 548 582
3 591 588 552
3 593 594 591
3 591 552 593
3 628 629 579
3 581 578 606
3 582 640 612
3 613 610 615
3 630 607 632
3 580 581 631
3 631 633 580
3 613 646 639
3 639 634 613
3 628 633 629
3 582 641 640
3 633 631 639
3 639 646 633
3 629 676 641
3 676 696 714
3 20 2 10
3 11 2 20
3 17 778 16
3 17 4 778
3 776 5 17
3 17 5 4
3 762 8 776
3 776 8 5
3 762 18 8
3 18 9 8
3 18 19 9
3 19 10 9
3 19 20 10
3 768 769 757
3 768 15 769
3 755 16 768
3 768 16 15
3 22 767 755
3 755 767 16
3 22 17 767
3 767 17 16
3 23 776 22
3 22 776 17
3 752 762 23
3 23 762 776
3 24 762 752
3 24 18 762
3 24 25 18
3 25 19 18
3 25 26 19
3 26 20 19
3 747 758 748
3 747 757 758
3 756 757 747
3 756 768 757
3 29 755 756
3 756 755 768
3 30 755 29
3 30 22 755
3 31 754 30
3 30 754 22
3 31 23 754
3 754 23 22
3 739 752 31
3 31 752 23
3 32 752 739
3 32 24 752
3 32 33 24
3 33 25 24
3 735 748 736
3 735 747 748
3 36 747 735
3 36 756 747
3 731 29 36
3 36 29 756
3 37 744 731
3 731 744 29
3 37 30 744
3 744 30 29
3 38 743 37
3 37 743 30
3 38 31 743
3 743 31 30
3 39 739 38
3 38 739 31
3 40 739 39
3 40 32 739
3 40 41 32
3 41 33 32
3 44 736 726
3 44 735 736
3 45 735 44
3 45 36 735
3 46 733 45
3 45 733 36
3 46 731 733
3 733 731 36
3 47 731 46
3 47 37 731
3 48 730 47
3 47 730 37
3 48 38 730
3 730 38 37
3 49 39 48
3 48 39 38
3 50 40 49
3 49 40 39
3 51 727 50
3 50 727 40
3 51 41 727
3 727 41 40
3 54 726 716
3 54 44 726
3 55 725 54
3 54 725 44
3 55 45 725
3 725 45 44
3 56 724 55
3 55 724 45
3 56 46 724
3 724 46 45
3 57 723 56
3 56 723 46
3 57 47 723
3 723 47 46
3 58 721 57
3 57 721 47
3 58 48 721
3 721 48 47
3 59 720 58
3 58 720 48
3 59 49 720
3 720 49 48
3 60 719 59
3 59 719 49
3 60 50 719
3 719 50 49
3 61 717 60
3 60 717 50
3 61 51 717
3 717 51 50
3 67 716 703
3 67 54 716
3 68 715 67
3 67 715 54
3 68 55 715
3 715 55 54
3 69 713 68
3 68 713 55
3 69 56 713
3 713 56 55
3 70 712 69
3 69 712 56
3 70 57 712
3 712 57 56
3 71 711 70
3 70 711 57
3 71 58 711
3 711 58 57
3 72 709 71
3 71 709 58
3 72 59 709
3 709 59 58
3 73 708 72
3 72 708 59
3 73 60 708
3 708 60 59
3 74 707 73
3 73 707 60
3 74 61 707
3 707 61 60
3 65 63 74
3 74 63 61
3 76 703 687
3 76 67 703
3 77 701 76
3 76 701 67
3 77 68 701
3 701 68 67
3 78 700 77
3 77 700 68
3 78 69 700
3 700 69 68
3 79 699 78
3 78 699 69
3 79 70 699
3 699 70 69
3 80 698 79
3 79 698 70
3 80 71 698
3 698 71 70
3 81 695 80
3 80 695 71
3 81 72 695
3 695 72 71
3 82 694 81
3 81 694 72
3 82 73 694
3 694 73 72
3 83 74 82
3 82 74 73
3 84 65 83
3 83 65 74
3 85 687 139
3 85 76 687
3 85 86 76
3 86 77 76
3 86 87 77
3 87 78 77
3 87 88 78
3 88 79 78
3 88 89 79
3 89 80 79
3 89 90 80
3 90 81 80
3 629 696 676
3 676 714 660
3 296 307 359
3 589 587 612
3 646 642 696
3 460 400 525
3 460 403 400
3 630 632 634
3 278 780 271
3 271 780 267
3 278 199 780
3 780 199 267
3 196 779 200
3 200 779 199
3 196 267 779
3 779 267 199
3 332 773 333
3 773 271 333
3 611 632 608
3 608 609 611
3 199 771 210
3 210 771 209
3 199 278 771
3 771 278 209
3 632 611 583
3 583 610 632
3 277 775 765
3 765 775 344
3 527 764 463
3 463 764 467
3 527 468 764
3 764 468 467
3 474 763 473
3 474 405 763
3 139 761 148
3 139 137 761
3 761 137 146
3 135 759 137
3 200 210 759
3 209 669 210
3 212 146 669
3 669 146 210
3 346 781 751
3 148 761 147
3 775 742 344
3 271 773 742
3 742 773 344
3 741 751 411
3 344 740 404
3 404 740 332
3 344 773 740
3 740 773 332
3 346 738 781
3 280 774 737
3 737 774 277
3 772 781 765
3 411 734 772
3 772 734 781
3 411 751 734
3 734 751 781
3 212 750 732
3 278 728 209
3 279 722 348
3 279 777 722
3 280 718 750
3 718 745 211
3 774 710 277
3 277 710 775
3 774 728 710
3 710 728 775
3 348 722 706
3 706 722 346
3 738 777 737
3 737 277 738
3 750 212 705
3 212 732 704
3 280 737 702
3 702 737 777
3 331 697 333
3 333 697 332
3 333 693 265
3 265 693 267
3 333 271 693
3 693 271 267
3 750 692 280
3 280 692 774
3 750 705 692
3 692 705 774
3 467 691 463
3 467 770 691
3 211 689 213
3 213 689 282
3 211 745 689
3 689 745 282
3 279 690 777
3 745 702 690
3 690 702 777
3 774 688 728
3 728 688 209
3 774 705 688
3 688 705 209
3 213 684 211
3 211 684 214
3 213 216 684
3 684 216 214
3 745 690 282
3 282 690 279
3 348 680 347
3 347 680 345
3 348 706 680
3 680 706 345
3 750 718 732
3 732 718 211
3 781 679 765
3 765 679 277
3 781 738 679
3 679 738 277
3 271 742 278
3 280 702 718
3 718 702 745
3 346 675 738
3 738 675 777
3 346 722 675
3 675 722 777
3 146 674 761
3 761 674 147
3 674 704 147
3 137 681 146
3 146 681 210
3 137 759 681
3 681 759 210
3 147 678 149
3 149 678 214
3 147 704 678
3 678 704 214
3 200 759 198
3 198 759 135
3 216 672 214
3 214 672 149
3 216 151 672
3 672 151 149
3 214 671 211
3 211 671 732
3 214 704 671
3 671 704 732
3 704 674 212
3 674 146 212
3 209 705 669
3 669 705 212
3 345 753 414
3 414 753 412
3 345 741 753
3 753 741 412
3 760 670 749
3 411 683 741
3 741 683 412
3 404 668 749
3 749 668 760
3 668 770 760
3 463 691 462
3 462 691 399
3 399 697 398
3 398 697 331
3 414 686 345
3 345 686 347
3 414 416 686
3 686 416 347
3 751 685 346
3 345 706 685
3 685 706 346
3 404 666 344
3 772 765 666
3 666 765 344
3 332 664 404
3 772 666 749
3 749 666 404
3 467 663 770
3 770 663 760
3 663 665 760
3 474 662 405
3 278 661 728
3 728 661 775
3 278 742 661
3 661 742 775
3 682 659 670
3 670 659 411
3 682 683 659
3 659 683 411
3 760 658 670
3 670 658 682
3 760 665 658
3 658 665 682
3 668 404 664
3 664 770 668
3 414 657 413
3 414 412 657
3 749 656 772
3 772 656 411
3 749 670 656
3 656 670 411
3 345 685 741
3 741 685 751
3 399 655 697
3 697 655 332
3 399 664 655
3 655 664 332
3 468 654 467
3 405 665 654
3 418 653 415
3 415 653 416
3 418 349 653
3 653 349 416
3 682 652 683
3 683 652 412
3 682 662 652
3 652 662 412
3 395 667 398
3 398 667 462
3 395 458 667
3 667 458 462
3 473 763 528
3 528 763 468
3 413 657 476
3 476 657 474
3 474 673 662
3 662 673 412
3 474 657 673
3 673 657 412
3 572 651 526
3 526 651 528
3 572 534 651
3 651 534 528
3 405 650 665
3 665 650 682
3 405 662 650
3 650 662 682
3 465 649 464
3 464 649 471
3 465 472 649
3 649 472 471
3 663 467 654
3 654 665 663
3 524 729 523
3 523 729 464
3 524 466 729
3 729 466 464
3 770 648 691
3 691 648 399
3 770 664 648
3 648 664 399
3 205 677 203
3 203 677 219
3 205 140 677
3 677 140 219
3 91 647 142
3 142 647 140
3 91 155 647
3 647 155 140
3 527 766 468
3 468 766 528
3 527 526 766
3 766 526 528
3 405 746 763
3 763 746 468
3 405 654 746
3 746 654 468
