# vtk DataFile Version 3.0
A great-looking cell
ASCII
DATASET POLYDATA
POINTS 540 double
45.03513847398244 178.82210675391303 8.036646202619695
43.724876377775544 179.37782527808207 6.493912593611422
43.2397271741237 179.07383605720116 8.179550166405425
37.32894974911581 183.5809622985436 6.005762643210175
42.133428679748576 180.3465366737814 4.8648862114826805
44.62216167521775 180.08472037482508 4.767359270565412
45.655086195370984 179.44180461163182 6.3144646725122335
36.663530757589385 184.63808960967822 5.011304422711222
45.54050880949431 180.93871232243748 3.42582260640922
36.0662553915675 186.20069751734417 4.271320829173605
35.514404356710436 187.64007262337154 3.8302183114346726
46.611945842738294 183.18689691654745 1.1051190359970522
46.79962841505519 182.25717818894196 3.051698613807083
35.877613931453325 189.22590001184207 2.845655804044785
42.601984847075904 183.87367763813432 -0.09980139581940466
47.971062447554935 184.00595547939145 2.5270652301055443
49.291151991899284 184.7055933227254 3.793768839191985
45.98604106543948 184.73844609364352 -0.19237385679228255
36.98344049878112 190.49361445033253 0.9636101324809261
39.7776086522989 189.2426662670027 -1.5047129244790594
47.981706330072605 189.04962222571606 0.8460100601046963
48.727326130967334 186.3780031681843 2.1656176869228845
50.099690448056975 186.55841575817914 4.734859686877341
38.62812556618147 191.54037452737342 -0.9327465398613387
46.5961100585364 191.52583574258952 -0.16259143072180918
36.555333255438754 192.94381529460995 0.3748343981203644
40.88931905019914 191.41459605697398 -2.579418954621368
45.8118195688567 188.99210731828515 -1.2376329709134488
45.68546173103747 179.06904336444092 11.612821449593051
41.90985695626618 179.83386950242172 7.257659874662909
41.976701744723826 179.63145363676824 9.252451872555618
38.73208439951372 181.46549100451904 8.419441997639904
40.54314423601973 180.37438893142772 8.414907797922359
47.097783496413506 180.16126461025252 7.983961305807605
37.01858386071976 182.78609164826958 7.46225823145294
46.8246115924194 180.9825976466436 5.185801035383531
35.988299191114045 184.12180380458378 6.621751213363514
34.59057722033346 184.81094966843028 7.069660947395677
48.50945775692105 182.8457598352326 4.399808090451255
35.30745997556732 185.5031339304425 5.757213009303042
33.80101003613764 186.18440367821924 6.484281022478636
34.643485673443585 186.96740154265345 4.98962705323275
33.331220934468654 188.0047041123606 5.828468072012495
50.134066395133736 184.14064630838163 5.760545282256702
34.369929198247966 188.65263902221372 4.2889328096905075
33.16336853783891 190.03335369956756 5.180797262008987
33.30661280659871 192.31287882020973 4.104195702463478
34.308806544331595 190.3313046297042 3.6712320895312076
35.154222326341426 191.56472186295323 2.241693967729813
48.05587577166847 193.7367986624407 4.098875011560431
49.040526607007955 191.26065437976968 5.192257489948215
48.09359014253709 191.4455880114462 2.4243684445328566
49.25983715757513 188.98239479719868 3.5587047550021933
40.95718123879501 197.07932590952964 -3.0383348586215573
38.27736318935337 194.44913709695226 -1.630392080294192
46.00465149183648 195.2552803783907 -0.8996270711508462
40.734850020781515 194.16381349505457 -2.9279483892728804
47.03902655753936 193.97900742279512 1.265578745798966
45.207016322471596 192.82963558319864 -2.030167611417553
43.91686306606441 178.81914501898427 10.004439102043891
36.72598462899968 182.13511863039585 9.335213252418919
32.877457767670705 184.89912993728043 8.128196149607794
31.306779971571462 186.2240813775504 8.607185543298435
32.22589369728177 187.06257295652472 7.3185048326853455
31.069798621057604 188.25015857678085 8.891107920243995
32.01453049458958 189.23060826778507 6.911112528299711
31.33963172861973 190.42254362916418 8.365835530549184
50.23164775707084 190.4988618663846 9.904980386730008
48.18505434447219 195.92390483545032 5.919031176365723
48.422938710223335 195.21800004364005 8.435071026901648
48.67146374651336 193.31389028999288 6.846091057146124
49.69889096044271 191.11798660058804 7.730759960000912
50.8073764580487 186.19949455610353 7.412176946315268
50.414082709231295 188.97486880633673 6.506439667001895
30.804758569261217 194.7991873880895 10.869795567216235
31.013934032674406 192.64049096722633 9.119483384146537
48.86980777271405 199.1447642148112 3.7903041303890443
46.157026400497735 199.88425431481502 -2.5781167794296898
47.18407785493845 197.9857795065323 -0.08024262858193242
47.91132848585535 196.59073087647712 2.791498542815747
40.06749712773762 180.29700817712208 10.700111620663138
38.14608313129657 181.1733360482618 12.16286282954622
45.93311346951331 179.18711493660797 9.653613892492471
34.82200516770286 182.22413010929887 12.060427771149863
48.79783619269833 182.11797335513262 6.824020892330655
35.24583484796389 182.52212731733843 10.291534902510108
49.16802815178812 181.50825953641657 9.456215306016537
30.64033007704421 183.4319800098439 11.9119974663406
50.52630205842085 183.6031947339044 8.366541307886614
50.55954446751063 183.16715296769456 11.110486326067043
31.09113514771983 184.75167115896562 9.828870056283455
30.401895894109234 186.57314503630192 9.846868681139902
48.74611547174474 192.5480970452674 12.380968644785996
30.48843720080451 189.80363325884244 13.114390246624193
47.03525914618771 194.72869162725522 16.44877997370069
48.568701179475156 197.4110078760765 9.41474411249491
48.21685723780984 195.2402678058699 11.154248277032837
49.025864773647704 192.75493397556278 9.644959043638888
51.10765319460386 188.36550800693394 9.27376147800533
30.690199776419295 192.28569742309807 11.927560979712823
31.735052684281285 200.9035115925163 12.282979537608348
48.46515424945924 205.02760119134794 15.38220116672231
48.72921947290598 199.67607116495807 14.121688194629002
49.919297494630015 200.13149235541925 9.182117575692224
42.24710637497215 179.5046840090762 10.967618017178621
43.65875250240364 179.29646284646145 12.15691549270706
34.87272684061816 182.1734016345561 14.179142829820325
47.478619835853614 180.09847131472463 10.669298105604904
48.8924676789574 181.55529824288863 12.021703173834286
29.400853093223528 184.9071820239529 13.360622049696435
49.641496213806725 190.2395776052438 14.986020749934735
51.39879956297901 187.78277484185665 12.032081622040904
51.43187748701009 185.00674622672912 12.751723066568102
51.296366996565034 185.64198150111662 10.11759805954519
48.3746075386612 192.47441574823497 15.055033195806127
30.883092362500165 192.83992848493742 16.53295231383144
45.578650455987635 196.64690782775136 18.39065843463772
41.72389492299343 179.77119347762283 12.712101076052567
39.84355976577806 180.66923538040066 13.375746760586614
38.032231522698034 181.4779687230881 14.221053924151958
36.475572715702604 181.76196588410806 13.100385822709027
50.04795690161258 182.94299824782084 13.961492403917012
33.27969330807278 184.0828278709278 17.694416353604996
31.40558805976955 184.4959228668831 17.05539312555322
30.9560480433417 187.11771058130537 17.578314932574237
50.883224857664665 186.5906936315357 14.581134018312508
47.07598722008006 190.47707407662614 19.0717660769842
46.71343484636259 192.75542031049244 18.380413960581357
48.324745192162226 190.94499737915604 17.182917299719996
35.65364894657997 195.259448409297 20.435347909127582
49.72858639778478 186.8763400116585 16.88955750455838
46.025357594925424 188.57550194260705 20.16132702930931
48.45400393147512 188.49419105025297 18.723241369946486
38.427163571119294 190.4031846957906 21.579192687884493
37.38041435200107 193.00539897123394 21.24441803966396
40.83424864717222 189.6801652265395 21.548172008141606
43.4327582330566 189.46230719267254 20.787722949686362
42.57614433975871 192.17066421357882 21.28374006324493
45.1254412468162 191.27937487608082 20.003063255518583
43.398452893392935 179.77174768844088 14.108343281362693
41.48463348191768 180.21525757638403 14.819786077648175
45.09072457189956 179.60041504652585 13.385063774166712
39.624479211291856 181.11085174896706 15.64012776388863
48.37569283565156 183.739533492742 17.121365144082564
34.505001650674544 184.6620935850545 18.810389972300722
36.060307253455484 185.32547224422132 19.63628700520018
46.62379123306933 184.25377136934318 18.375446965285366
37.66921108325321 186.00280938612644 20.57713233196956
34.575627585517786 186.55044072139353 19.43901669758853
45.82680918943823 185.89163937329076 19.704210167691596
39.915822460395134 187.06442270078793 20.93950562942158
42.0349921543648 187.91974220880542 20.80454943821462
43.92305424087355 187.17403200354372 20.636523680118117
37.62358893158529 182.1993939389356 16.283847890139118
37.70559327692426 183.2076140553899 18.09716096149662
36.33828523526582 182.90494976927246 17.359951206232203
46.11950622092939 182.58828668903018 17.101846765351876
37.60780904569022 184.46988874783017 19.350550529054676
39.22206493198918 184.97799220458327 19.97888173701391
42.12160666740766 186.16276862371657 20.442341151826152
43.766488200386014 185.3257593433839 20.154745601948488
44.453331233493216 183.58036379222835 18.990772624336422
43.14072235174399 180.50946879313398 15.76307641642458
41.60662173070968 181.1572936892689 16.80334459316702
38.90216909449171 183.63399577881634 19.048636002440926
40.466746314534866 183.7174145124196 19.40014676645294
42.28532496324807 184.31746691011256 19.810601178292806
40.801285964648 185.24695029339176 20.111385270275466
39.66894582061754 182.34625527712382 17.821473183346704
42.05955067438919 182.31062014727144 18.843389662406757
43.83449507284886 181.63751044737936 17.265293228382962
50.587323819605835 189.8307291344975 8.323151658964797
49.45938156959735 191.47413108844498 11.069027193019116
47.313227169076264 196.1009887802059 14.84723855188926
50.14316930184277 184.61802178795617 15.93343538720976
50.322343119814 188.3521628116456 15.545089767350287
39.13245095252217 188.78735266679345 21.540016519009818
34.23429328863769 205.12731102253306 16.928019938423795
49.13268766804962 202.40166202331335 0.016418018007810536
49.356796769163594 206.5059063262356 -1.5435960824558905
50.09570327239295 190.26587061216392 12.376605548646634
32.61257204933629 202.42947949892653 15.174525816086687
45.66422028894773 207.99399163896757 16.71847622071405
39.51332054057092 203.97590336793314 -2.944740796315887
38.856097392329666 212.51073524051884 4.360591287173402
43.14627420822231 197.25237742127229 -2.8450819849664297
40.04890591745301 207.3120376746237 -2.8316273977583717
37.57752529235546 210.23707005856173 2.261746824031818
36.0167733250019 209.50254335515027 6.191062353444145
38.227782383207106 206.1772197576091 18.17962296221003
34.89214890367161 207.85773496060267 14.362509180323865
31.611633997715 205.5451405441415 10.016108921978914
46.56874388728093 213.55414494163614 2.723277231158598
45.96039649134601 210.9348081003808 -1.387785948313223
42.44264281216473 203.63677085195206 -2.9946064903995175
49.727914890334155 201.32474004829268 14.078178609440936
31.528319963144817 201.24080533255707 9.801141408970532
43.204599376038445 209.5835595823062 16.53619794713145
39.838743896123916 212.0159625378217 0.42877975122552653
34.56762116323909 205.22782458950132 0.0036042820569758636
32.685864743146766 203.90891006731073 3.258157989540085
46.86486294793302 203.37293064558216 16.92967238387176
42.203766012892714 211.8582903444166 -0.7417361175818743
33.67593697087896 196.0606075416943 2.7403770650745245
39.14544543553366 201.24830271419293 -2.957675544652565
32.396067527358134 200.9379360562869 14.559331044143631
46.26450096430249 213.5900649532487 11.560515721558513
39.34808816405172 212.02123443941755 13.216769295197205
32.599127252921924 206.76403403606932 10.657839105625106
36.477486735494985 199.42664084585937 19.74628572882686
38.353169353313426 202.134120322385 19.495061521070813
48.75587909909686 211.2784148442602 9.511191750336371
36.47266495172707 209.9124730793353 11.895837340452989
31.77351999110466 204.3473391766763 7.158584911826326
50.2704634446184 203.14193269721594 13.841513199918715
32.61160550080425 205.522781156721 13.682529053688143
50.29064839631216 203.08424376805095 1.571178264488799
43.08964662773331 199.1935846378795 -3.0210772747557297
36.961468721577496 196.04525164176442 -1.6142822326840491
40.68613032646358 213.4754470331227 2.6014914587674776
51.01666774088326 201.78473208050823 10.18528717689633
44.8414155349942 210.03918751089992 -2.7143439638222797
46.170364699519084 193.39488741151314 -0.43325340204854673
46.02519646948981 201.86066641160207 -2.4839351651205144
44.983765767055104 214.4495008471997 3.2483226984943308
42.73621616277916 215.17175855240006 6.887451109424108
47.88664433683993 203.75966995209953 -2.053264260273355
32.88399066482744 197.79040900807004 3.349092143222514
42.39828125833813 215.08247564533744 8.44197232612829
44.99188780306758 211.47558941848524 14.428704978423776
46.766556527495375 211.10290942347874 0.21598203015760617
47.688781796781115 213.14870559216433 8.790273137512507
39.406624976700904 195.5634436703175 -2.987325249413187
36.05384261718853 195.39698241710022 -0.1905713711705737
47.66712856646607 212.06337445134184 2.530167631764981
40.835652571112455 211.2426367107556 -0.5887991856255186
48.42367428130144 201.87863010136564 15.507478374729697
47.08553222467294 210.38208740170975 13.806716979099026
45.950136259928456 205.3145584587287 -2.979804787359195
50.808480240260636 207.90854158637308 9.50518976895084
49.861618269974635 209.1125773096672 11.608788279098167
51.483326233245094 206.5927495140611 7.263480399853212
50.59006370444809 208.47873063626258 5.829477663051215
32.28470907291079 193.37353181984227 5.432674090794066
44.15717418660168 215.4026195318329 7.285482335041218
33.407958979111825 204.19934616565064 1.3809262385225316
38.316878999192134 207.95372477191233 -1.3569666684956216
42.965049582811396 203.7316660546345 18.837142423349686
44.00627902543184 204.96244948727738 -3.0279981118167285
50.478932864247525 208.6357263954414 4.377276876210406
44.60988540241432 214.21232145610588 11.60790633400678
40.86115333655651 214.0649533491434 10.033688394210667
34.37876214661519 207.29487782436772 3.664285049047582
40.40847881389903 199.87565475632394 -3.000170128119672
32.719675917286985 195.04831186878462 4.309531481543224
31.63452813059999 193.75905941651027 18.283464456561283
42.87077123975068 214.74118772253294 10.373031909984435
46.937075437531384 213.52795605127736 4.24203524169221
51.69780060393499 205.18921780226202 4.812513083949346
49.261600426502085 206.97496654662802 14.694587407858727
44.21419348757154 212.0907842651902 -0.6510654874832054
44.493046459654764 215.18098365135228 9.427297487563077
51.44622926853253 202.53804748663723 8.358984918175421
33.85005000853421 208.009201113914 8.711332048900228
48.86630180520322 210.6172327328615 11.817868525656978
39.49036325365578 213.11476929389121 9.711882756284787
50.664891450766895 208.22301031967623 7.642845337915393
48.57787940868017 210.0561230851008 1.2786638874706726
32.51133404205144 205.8861545857754 6.1713513068533965
48.35575523452489 197.52132686587754 4.807649733167414
51.06134562817838 205.67939669845913 2.8366861851328524
43.78662306948674 207.9857291500816 17.324403833344665
32.310432364981104 206.4305703536715 12.275079060844748
37.45208697208684 211.19807685802243 7.341311803762762
40.5007847677546 209.24657992403567 -1.6243734158011345
51.236502053455666 206.92819967708192 5.384426683547985
41.05960784765661 212.58959294750943 13.236179508749418
49.75202394622411 209.95628698590977 5.950136597881092
46.72481757836852 209.2024522201855 -1.1018330790315631
34.62634905003882 206.74620793658292 1.6078580536262432
44.97237555155298 209.48720574213635 15.655325739611602
39.75577166495292 210.96590663518063 14.896461749571502
37.003585546515005 210.57121193220377 10.485540274372925
39.30078320108809 212.69677050283846 11.449957562671646
43.2162321679506 215.2801038379211 5.272618530118745
36.314395372086864 203.91851487136375 18.601418328820504
34.808393906839456 201.6834129778178 17.852570211363656
36.04584741714742 207.97038751440817 15.66690152773432
40.23550734599712 213.6548628228733 4.488806873821764
47.42507367243091 213.44502565997576 6.487612607755597
39.69345105548306 213.45596368451857 8.001166530492716
34.176509866064855 207.66652787756954 5.816713479941289
50.663816001805884 207.65487351413194 11.19401508326238
36.080993852482855 205.90302493510768 17.717279646420234
33.80947475302907 207.51460178416735 12.739468463350796
46.01221927339665 212.48940619725812 12.724869875667649
50.12986179411201 201.29711001163477 3.302393067046072
46.294077419879464 203.55558001269029 -2.9530137058404917
35.721936712707745 208.85409372339333 3.5106113005436033
41.232987445057425 214.65014332644003 6.547910438622502
37.61296775667538 209.73078851879416 15.231474299238474
40.329701066429976 206.44703715852833 18.382292212394862
44.71188409016436 203.26637006208216 18.31575678234307
51.24406015088437 203.3250793074354 4.471643603632031
38.245659950662215 212.0748158526447 9.338147637948904
43.059736548523745 205.5962748349742 18.376940711332693
39.64835025451848 198.78408804292988 20.869988094874753
32.167285605942396 206.05384646552523 8.442264715782715
35.26454402123612 208.94332872728035 10.93622849260066
33.2335003920252 205.733140485806 3.7861050056852896
47.0937864229334 180.49238731761386 13.199292521212332
49.26985719262887 208.48553114061042 13.25036563452318
48.79493611954361 198.33937207590324 6.690449474735909
38.37085536332423 205.52277612226118 -2.715926041886209
44.06421762818802 199.32809712676885 19.136121939350968
38.028187697917375 196.9069712105864 -2.9874967841152347
45.83550454495838 213.10668944903466 1.34993641834835
36.51603037655765 182.04803968434223 14.751447801440213
34.59541053202319 198.63052522241702 -0.02117692552348504
43.866512332221525 202.04627752958706 -3.046018791100687
34.863443556987995 200.2977761670209 -1.1346849638503598
47.732733499651786 194.64954672533764 13.806774024817758
48.396140022273954 211.89380252000856 4.9844398951032165
51.59250329490034 203.806904130759 11.030184469230308
32.13395646014598 203.08576373706924 13.51878824862321
39.2462774839019 198.4318083027978 -3.0040029034280176
34.73877866140616 203.48956502100765 17.711049238785098
50.44346130714121 200.9803536286356 6.008458535743474
47.14189396771461 197.93376986591636 16.063225701013778
40.09292599805701 202.12447519117404 19.683925690208053
36.10647882735471 183.74746929497297 18.69217501454139
34.947110420312065 208.776484298375 7.3099046332563615
50.28711241568412 201.09336587025157 12.068930698912522
47.96735056700192 197.0947238375131 13.247539365833523
37.58291184720456 195.14305090452913 21.229618065432188
32.522878875308265 190.12548492848333 18.905992302067762
30.806095359118846 196.64815058851735 10.785322467756467
36.08855903748596 201.57254120900242 -2.3858137288167875
40.758218783618204 213.53844816308265 11.761204908929841
50.89336079701418 207.41863073754058 3.643119558968716
42.36130674312847 210.74666601794095 -2.1386757958420577
38.10755424265514 211.55483597041712 11.000345232213386
38.262539335369276 208.03588144729898 17.19232221664542
39.06137442044554 209.84225515948324 16.492231300650246
38.510426061060855 200.37952841168405 20.43410220017037
41.14055721169834 209.04945607535842 16.94898988935937
39.517693089958 192.84684669858245 -2.1997155221233724
30.342695929915923 188.4409925635204 15.434542361078192
30.022344450526393 185.77653496601832 11.495211051451841
43.76889562275157 213.7954547515374 1.3059324886738024
37.62330720668785 199.84254511227624 -2.6057108544880956
43.61007133913035 212.73663024701793 13.289122084897377
50.13869810587707 206.34997877312668 0.45382444915994097
50.55922096490106 204.79258518661223 0.8703866950334231
38.456894479717946 212.4352508039014 7.696282207065284
46.16242369691142 194.6243886536344 18.409956690749343
35.067399723139815 183.46425470050445 8.464064574215241
36.69569993107832 208.5281772675787 0.7514233665082142
41.59951275418313 214.75683408516815 4.791565042307335
31.00035538483607 194.59345842977825 8.946483381256378
43.610826867450314 196.91177143541492 20.483628655718153
47.92806989951938 209.84898267564395 -0.16171260361652404
33.21079186474584 182.7466050861229 15.943803808816973
41.109215290989155 205.10288291213868 -3.0051677835426656
31.923075430231528 197.05617095071273 16.916637250154036
34.50158349601032 199.7820072704627 18.30167277598518
49.310551260488616 204.2245670845637 -0.7342190662663283
46.24503264827551 214.0768762145315 10.1396972469646
32.98082514882666 207.07627923842603 7.243681548134194
31.499907622793522 202.80537511009138 11.338992154223444
30.841707509146737 196.64485699754442 12.571324987796793
32.18951778754165 199.9667889101936 5.086158547755638
48.13798052351798 198.569033196359 1.8801288296939573
30.72527867184032 194.81614409449801 15.837065234340828
51.58579524530528 206.23775129834357 9.222989546550817
33.44806567681915 201.61987338664 16.576356169232568
42.731800754685 201.97131208566108 19.2528142325076
38.775459239670965 212.6856642875205 6.096014003499604
42.269105254137024 194.89441792247825 21.583601621975724
45.604424158340954 214.71243976229368 5.714346452653167
44.87995693997206 197.46495110407778 -2.0863125095050328
40.79121159325257 202.4489537179546 -2.918898232739163
35.56412115398295 182.57505532356328 15.991582172447643
47.60139468541469 200.0288792604343 -0.8831440128346215
37.570724992663386 211.10570715468114 4.574290900461062
42.56002468830095 198.4372045707499 20.472858822680934
51.440490858255046 205.99080779039556 11.264207269680723
29.776178840536076 185.83944730168926 15.502684765662723
34.99888957561498 188.38633092254165 20.42461510511724
33.016189949208965 188.3119788462584 18.87482343159769
37.46249212113675 188.2818440026519 20.927002546122417
32.24981844855661 203.6875845943312 5.037865527383947
30.266672454470225 187.9932628502426 11.153703435091497
32.45090034099172 198.89714983496867 16.30991460117463
48.2709102394683 197.16258670491126 11.321039613510253
30.64095955050762 183.30153741892997 14.72481857505737
51.82933703141427 204.74638060355943 6.824947627236536
45.65682146507052 198.64574372704433 17.64847380339289
47.28754404407207 187.13096225097152 19.577080469132685
35.048975160492105 197.6824254750857 20.006860610681425
34.32394872208097 197.02810911723213 1.069931344655523
40.949757267882575 214.46927910970663 8.272776027532064
32.690936644197805 182.1238225327866 13.16864830560447
38.02326618464855 181.3293724660724 10.35762958122621
42.18711997678904 214.470172632403 3.040931488563601
36.482131298816235 201.87350833147133 18.915111958443415
41.507169786568525 212.95644467435255 0.7552142734300998
41.257124590987715 203.9729733630949 18.82494372382598
39.92096463731427 213.69131285362528 6.278173357008185
33.724970337129335 201.87288668106416 0.5577437774308679
44.77889970233949 194.21492952306045 20.04972746519628
48.54477066560231 181.6643946122713 13.645481789970997
42.849833348951336 192.82643940145758 -2.7513495900120195
51.081105349192086 189.3947576842622 10.913275960123304
45.847001605733894 205.9341120724507 17.18395261082961
40.867827123237376 185.42639767690554 0.021724935304767434
34.656097127966355 192.627230270904 20.197286483194286
49.2207324531301 185.22418588855237 17.238695753656035
30.816890070730857 194.2777971500628 13.88540047033885
47.612831462956606 184.85340176955268 0.8295437020116527
33.76939788565904 190.3089625295859 19.9581431789085
31.360920086053795 189.91897374856515 17.48754108776575
44.23464038641378 184.7596234145728 -0.5998168455472073
32.09631468196136 192.02376566119707 19.156312207390283
46.12745435623086 214.62906023490083 7.99152394579308
47.699509435724764 192.76060322148717 16.80892441496761
41.284772552656946 187.46279288178133 -1.1925878452611869
33.12974782320541 183.15935172932632 10.451742962722223
36.540230072031676 204.62879625927587 -2.474763168425739
35.939923892073736 197.6957294914146 -1.1985153119526102
42.892994468187844 185.9702278193134 -0.8642452714565005
34.45638213079807 194.311348871026 2.02528707990071
48.790355000081085 200.4863685235697 0.9464966541318945
31.818769707064106 204.9013462941513 11.591039025430046
40.99115698750233 197.3741579000025 21.209297675825738
47.12584331986181 186.69070728350894 -0.10386977968523083
51.53547232662553 202.79616711205313 6.38151567650604
42.628049676856556 207.8655154888406 -2.9748154462431793
31.51821565015996 194.43256981101578 6.978401803815672
38.33221744526996 189.36760879556792 -0.04057022818519286
41.82469220175983 181.60909913471298 2.9045453216097616
34.73422760881894 203.4607082661726 -1.5993546274902861
44.641619808678804 183.22285470975774 0.30831994196046614
47.58050670368226 205.4338637714315 -2.318539937939286
43.41789211482143 188.00917133710777 -1.7888951171459935
33.24042136969235 204.00681404663962 15.679351309691487
32.78357287371755 185.7715165320965 18.55488912422875
48.83187980351384 208.33603979414127 -0.20917368355255625
45.143158787605486 181.82519627145618 1.8264607183083708
31.830262534225266 202.033622473259 7.05627029789686
29.735391401640477 187.18609253761497 13.334975084716236
45.018814655399936 186.41420806928335 -1.208364242573379
37.549219597079116 188.40569438420928 1.47857427586335
45.335381993061254 180.6512975810826 15.335480163807468
35.96548303786924 209.6854413157521 8.558822393737088
39.22022981192506 212.21114343987736 2.379695697182503
39.275518605610905 187.40009473098183 0.3016828849810032
36.55958667163367 181.82150783849224 11.21280026153762
49.568125100543455 210.107473812829 8.067058779708931
31.480122232683254 203.86276672932937 9.32827593776135
46.17802644587872 200.7137609919584 17.308916322325736
42.68334885635223 211.07183998908005 15.235624503908017
30.975535001370524 196.51632763027763 8.868746560028608
33.01177383025185 194.70186223788696 19.424552678203966
45.74037154172653 207.22977522739816 -2.734097003916859
41.63577162204072 188.95144842695154 -2.999297838099336
47.35334586492363 207.85333389048756 15.425093859791968
47.15982072335058 195.92822890706367 0.7142325877791867
33.476422226102585 199.5785520604912 1.3321550635608004
49.30831609181042 183.13289281780504 15.71733352692206
38.00385576443317 186.67774298402662 1.8295028681193153
32.15015158131129 201.88689344757677 5.043442189765996
49.428641566572935 189.0236851088404 16.7396264422629
32.63814786312179 199.78583744657723 3.1521250520024027
37.874510471019924 210.89125852510858 12.727395300488597
47.83670256367316 201.9523889786265 -1.5279405091553278
38.39051666548227 204.06604743786355 18.723804726799905
41.24917636866131 199.80047221160424 20.243265993481906
43.60336564705964 195.26115634032445 -2.9767181503336557
37.82639413947756 197.45376784204433 21.136774453888634
45.54846274149644 190.949985274094 -1.7505687399256533
34.83244162015884 183.44507048993984 17.41788802307224
39.15187416426507 185.23493678810928 1.5513661437381532
36.71966821218255 187.21328233964502 2.865637763308267
35.942557367062456 209.0349755441266 13.387497978646312
40.68551469546308 183.18118837727678 1.5475170171015775
48.009325294315566 185.9003316025355 18.333473071506734
39.98256901416679 192.25766363361583 21.71727080817901
48.37396155624049 196.73787522457502 7.621138949617832
37.13793412903031 210.90731580694245 8.932636233958355
42.09228539276996 207.34169597248228 17.917324000856265
50.98126445522174 184.68099532500278 14.438066056892874
38.97941521388107 183.76895267455143 2.9050908811739498
37.65041612530989 185.31511482014332 3.26419170968886
49.16769813121248 191.34992028929295 13.692929769420061
31.136679889749782 196.61994213684838 15.287209205039032
48.82187543910879 198.8260243576454 11.537287991217829
31.511637672970046 198.79276176671019 13.666015629185276
36.194155660688764 206.06951461789043 -0.9003613422211227
30.58766061864682 191.96369166215717 14.168022924542122
43.76413484757259 190.51192834224452 -2.669368377866967
50.9132076860692 188.80772754223293 14.007839256299633
42.035696664447464 200.89124753803685 -3.0163463309484966
50.05182527782993 208.16978562186225 2.2044772976184115
36.00457918904696 190.49083723008 21.048810095905274
39.96316435479553 182.1217210045968 4.1312476577568935
38.131826701531686 183.5818273118651 4.5455255878703635
49.237321845961354 210.18150487871415 3.5247842485360037
31.814280315778785 197.1682978848558 6.037371013680214
33.07935488202749 197.16724718999382 18.41148517890085
43.69116611494382 180.93601414163072 3.0586377045908524
39.545383980599865 194.85593006056422 21.938814415915264
31.573117846180633 199.25222162514368 7.94986335090536
47.606282629735816 212.6509146557515 11.12613414669036
41.17484644867361 193.49769902280715 22.20064234755379
44.463827261133574 201.32623986251625 18.579546125832238
38.577491277952134 182.43262856434703 6.185620688788102
32.04533454142903 191.77120218665104 6.563905999078664
33.816953898121554 207.88231484845605 10.770485124974332
52.02981016822779 204.31225755008273 8.880394687578958
48.69732576581879 211.70861130635348 7.300275312821613
34.15575405032978 206.47637228729076 15.432608456499615
48.007515418879805 181.8690819152331 15.345646795408753
31.295188653983345 195.41782743698982 17.518420122468253
36.12036235841167 186.8778838591564 20.28993015203656
47.917677526547244 199.98575189763721 16.014190183032607
40.184315909660576 180.91330523491496 6.486488632897098
32.70578976736857 201.86016480796312 3.069932039533213
50.003507086324966 209.3471372494583 9.922332058940187
42.25082787584888 213.89102803582387 11.872085736955063
47.49243681374138 211.63678313524207 12.479596737910606
30.740162460236256 190.58921335268505 15.34595313889046
31.142836275585438 198.59364791089104 10.84784642855893
37.812125616634084 202.83823985539013 -2.7680104252965445
34.16910031699473 196.209466937532 19.61284593587873
38.82257006873547 210.3644616034654 0.15688371823046524
47.664726852497395 207.35393358163327 -1.608569750506486
30.803817018554838 190.23070662229227 10.42809476353433
50.47975476607251 205.9356205112119 13.16609795810542
43.057557380543365 182.28218106013458 1.4538961131137906
POLYGONS 1076 4304
3 516 34 3
3 506 516 3
3 506 3 7
3 493 506 7
3 493 7 9
3 483 9 10
3 15 12 11
3 13 483 10
3 16 15 21
3 22 16 21
3 48 13 47
3 431 25 48
3 54 23 25
3 1 29 4
3 2 30 29
3 2 29 1
3 2 59 30
3 2 0 59
3 526 31 516
3 526 32 31
3 33 82 0
3 3 34 36
3 3 36 7
3 34 356 36
3 37 36 356
3 7 36 39
3 7 39 9
3 36 37 39
3 35 8 12
3 35 12 38
3 35 38 84
3 40 39 37
3 9 39 41
3 9 41 10
3 39 40 41
3 43 84 38
3 38 12 15
3 38 15 16
3 38 16 43
3 42 41 40
3 10 41 44
3 10 44 13
3 41 42 44
3 45 44 42
3 13 44 47
3 44 45 47
3 16 22 43
3 46 47 45
3 46 48 47
3 51 49 50
3 50 52 51
3 51 52 20
3 73 52 50
3 30 80 32
3 32 29 30
3 31 60 34
3 356 61 37
3 33 35 84
3 37 61 40
3 40 61 63
3 40 63 42
3 61 62 63
3 64 63 62
3 42 63 65
3 42 65 45
3 63 64 65
3 43 22 72
3 65 64 66
3 537 75 66
3 70 68 69
3 97 71 70
3 97 70 69
3 70 50 49
3 70 71 50
3 67 71 97
3 71 73 50
3 72 73 98
3 72 22 73
3 49 57 79
3 59 28 105
3 33 84 86
3 61 90 62
3 84 43 88
3 88 43 72
3 62 90 91
3 62 91 64
3 90 348 91
3 72 113 88
3 64 91 392
3 96 69 95
3 69 96 97
3 97 96 92
3 113 98 111
3 98 113 72
3 80 30 104
3 30 59 104
3 104 59 105
3 82 33 107
3 107 33 86
3 107 86 108
3 89 108 86
3 113 112 89
3 88 113 89
3 112 111 125
3 111 112 113
3 104 105 117
3 28 107 310
3 310 107 108
3 108 89 121
3 121 89 112
3 128 126 132
3 128 127 126
3 128 110 114
3 140 118 117
3 148 446 144
3 132 126 131
3 135 487 133
3 136 137 135
3 131 138 136
3 137 136 138
3 410 137 138
3 410 138 127
3 138 131 126
3 126 127 138
3 117 105 139
3 139 105 141
3 142 168 153
3 142 153 119
3 142 163 168
3 162 163 140
3 140 142 118
3 330 144 481
3 156 143 146
3 149 152 160
3 146 486 149
3 136 151 152
3 136 152 131
3 152 149 131
3 154 155 153
3 154 330 155
3 164 157 154
3 330 154 157
3 156 146 161
3 165 158 164
3 157 164 158
3 147 157 158
3 147 158 150
3 160 152 159
3 160 159 166
3 161 160 166
3 160 161 149
3 146 149 161
3 167 150 158
3 167 158 165
3 166 159 167
3 150 167 159
3 150 159 151
3 152 151 159
3 153 168 154
3 154 168 164
3 165 164 168
3 166 167 165
3 170 453 156
3 156 161 170
3 168 163 169
3 165 168 169
3 165 169 166
3 169 170 161
3 161 166 169
3 310 453 141
3 169 163 170
3 453 170 162
3 163 162 170
3 0 2 1
3 0 6 33
3 5 8 35
3 35 6 5
3 27 24 20
3 21 20 52
3 52 22 21
3 22 52 73
3 526 4 29
3 29 32 526
3 34 516 31
3 31 32 80
3 356 34 60
3 117 118 80
3 80 104 117
3 139 162 140
3 140 117 139
3 140 163 142
3 139 453 162
3 139 141 453
3 8 5 510
3 505 516 506
3 505 526 516
3 448 510 539
3 492 506 493
3 492 505 506
3 485 505 492
3 485 440 505
3 539 510 440
3 442 448 539
3 482 492 493
3 485 492 482
3 14 539 485
3 18 13 48
3 25 18 48
3 25 23 18
3 23 26 19
3 99 537 93
3 93 537 392
3 64 537 66
3 64 392 537
3 537 99 75
3 75 99 74
3 148 389 446
3 48 46 431
3 45 517 46
3 66 75 517
3 418 499 115
3 93 531 499
3 499 531 115
3 115 531 421
3 421 531 347
3 99 418 74
3 508 438 462
3 450 93 392
3 93 499 99
3 438 517 75
3 66 517 65
3 65 517 45
3 446 389 124
3 124 387 123
3 421 423 115
3 99 499 418
3 423 420 416
3 124 347 387
3 124 421 347
3 487 511 134
3 147 150 390
3 130 132 486
3 146 143 486
3 389 421 124
3 70 49 68
3 68 49 79
3 24 57 51
3 51 57 49
3 524 147 390
3 416 420 504
3 504 420 388
3 144 446 122
3 51 20 24
3 347 450 387
3 123 446 124
3 123 122 446
3 504 134 416
3 134 129 416
3 109 395 387
3 402 362 395
3 348 392 91
3 348 450 392
3 145 524 148
3 504 390 133
3 504 388 390
3 388 420 389
3 487 134 133
3 134 504 133
3 145 148 144
3 148 388 389
3 148 524 388
3 137 487 135
3 382 362 106
3 150 151 135
3 151 136 135
3 524 390 388
3 387 395 123
3 382 481 362
3 362 481 122
3 387 450 109
3 109 450 348
3 402 395 87
3 87 395 109
3 481 144 122
3 157 147 145
3 147 524 145
3 123 362 122
3 61 427 90
3 90 427 87
3 85 427 356
3 356 427 61
3 427 402 87
3 153 382 317
3 395 362 123
3 402 427 83
3 83 427 85
3 87 348 90
3 87 109 348
3 93 347 531
3 93 450 347
3 119 120 81
3 118 81 80
3 155 481 382
3 155 330 481
3 119 118 142
3 120 119 317
3 83 120 106
3 145 330 157
3 145 144 330
3 106 362 402
3 106 402 83
3 119 81 118
3 85 457 83
3 81 120 457
3 457 120 83
3 119 153 317
3 80 403 31
3 317 382 106
3 155 382 153
3 85 356 60
3 81 403 80
3 81 457 403
3 317 106 120
3 31 403 60
3 82 107 28
3 35 33 6
3 403 457 60
3 60 457 85
3 0 1 6
3 1 5 6
3 8 448 12
3 448 11 12
3 11 448 442
3 442 14 422
3 422 17 442
3 442 17 11
3 539 14 442
3 451 435 17
3 20 21 435
3 89 86 88
3 88 86 84
3 510 448 8
3 430 422 14
3 27 451 444
3 444 451 430
3 451 422 430
3 451 17 422
3 465 444 426
3 426 444 430
3 15 419 21
3 17 435 419
3 419 435 21
3 415 14 485
3 26 465 19
3 26 500 465
3 456 426 415
3 465 500 444
3 444 500 27
3 539 440 485
3 456 439 19
3 18 23 439
3 439 23 19
3 465 426 19
3 415 430 14
3 415 426 430
3 456 415 482
3 4 440 510
3 482 415 485
3 19 426 456
3 20 435 27
3 27 435 451
3 17 419 11
3 419 15 11
3 510 5 4
3 4 5 1
3 452 470 483
3 526 505 4
3 4 505 440
3 13 452 483
3 13 18 452
3 482 470 456
3 456 470 452
3 483 470 493
3 493 470 482
3 483 493 9
3 27 480 24
3 24 480 58
3 27 500 480
3 480 500 58
3 431 233 25
3 25 233 54
3 18 439 452
3 452 439 456
3 523 373 115
3 115 373 418
3 523 495 373
3 373 495 418
3 479 399 129
3 532 497 100
3 495 393 497
3 46 254 431
3 438 508 254
3 511 434 479
3 129 463 416
3 463 509 523
3 418 370 74
3 418 495 370
3 100 196 532
3 196 459 449
3 95 312 103
3 399 365 509
3 365 393 509
3 509 364 523
3 523 364 495
3 509 393 364
3 364 393 495
3 74 359 75
3 75 359 438
3 74 462 359
3 359 462 438
3 116 355 94
3 94 355 127
3 116 410 355
3 355 410 127
3 497 532 370
3 370 495 497
3 54 346 23
3 23 346 26
3 54 56 346
3 346 56 26
3 416 463 423
3 423 335 420
3 420 335 389
3 423 421 335
3 335 421 389
3 129 334 479
3 479 334 511
3 129 134 334
3 334 134 511
3 393 205 497
3 497 205 100
3 393 375 205
3 329 344 477
3 94 328 116
3 74 336 462
3 462 336 532
3 74 370 336
3 336 370 532
3 429 350 315
3 59 0 82
3 82 28 59
3 314 376 477
3 76 327 312
3 312 327 103
3 376 329 477
3 477 306 434
3 434 306 479
3 477 344 306
3 306 344 479
3 393 365 375
3 141 105 28
3 141 28 310
3 462 512 508
3 449 371 512
3 512 371 508
3 376 407 329
3 329 407 476
3 77 383 78
3 78 383 432
3 77 475 383
3 383 475 432
3 78 380 77
3 78 55 380
3 441 428 533
3 533 428 313
3 441 498 428
3 428 498 313
3 345 342 301
3 300 474 484
3 532 512 462
3 484 308 294
3 538 292 311
3 375 286 326
3 326 286 405
3 375 365 286
3 286 365 405
3 466 414 101
3 305 302 414
3 300 281 474
3 345 461 281
3 498 279 357
3 279 298 357
3 276 281 461
3 449 471 371
3 371 471 527
3 449 391 471
3 471 391 527
3 529 276 351
3 351 276 461
3 432 296 76
3 76 296 327
3 296 303 327
3 76 269 79
3 79 269 68
3 76 312 269
3 269 312 68
3 509 534 399
3 399 534 129
3 509 463 534
3 534 463 129
3 391 268 309
3 268 291 309
3 79 467 78
3 78 467 55
3 79 57 467
3 467 57 55
3 288 408 299
3 299 408 290
3 288 377 408
3 408 377 290
3 308 282 454
3 308 454 263
3 327 262 103
3 103 496 95
3 103 332 496
3 496 332 102
3 311 259 538
3 538 259 101
3 311 466 259
3 259 466 101
3 423 255 115
3 115 255 523
3 423 463 255
3 255 463 523
3 298 252 291
3 291 252 309
3 298 279 252
3 252 279 309
3 407 305 301
3 301 476 407
3 410 378 137
3 378 434 511
3 249 507 277
3 275 258 270
3 270 258 303
3 275 396 258
3 258 396 303
3 376 247 407
3 407 247 305
3 376 302 247
3 247 302 305
3 357 246 498
3 498 246 313
3 309 279 245
3 441 409 245
3 245 409 527
3 409 468 527
3 68 488 69
3 69 488 95
3 68 312 488
3 488 312 95
3 326 445 375
3 503 339 270
3 270 339 275
3 503 249 339
3 339 249 275
3 350 429 320
3 438 243 517
3 517 243 46
3 438 254 243
3 243 254 46
3 275 242 266
3 266 242 277
3 275 249 242
3 242 249 277
3 275 241 396
3 396 241 374
3 275 266 241
3 241 266 374
3 277 322 520
3 277 507 322
3 528 240 292
3 292 240 311
3 528 264 240
3 240 264 311
3 257 289 322
3 374 239 292
3 292 239 528
3 374 266 239
3 239 266 528
3 323 214 332
3 323 538 214
3 214 538 101
3 311 264 237
3 513 264 211
3 211 264 528
3 535 235 274
3 274 235 340
3 507 267 234
3 431 400 233
3 233 400 429
3 54 232 56
3 56 232 53
3 54 315 232
3 232 315 53
3 270 352 503
3 280 229 461
3 295 351 229
3 229 351 461
3 261 244 228
3 371 227 508
3 227 468 400
3 447 267 503
3 443 226 297
3 297 226 475
3 443 366 226
3 226 366 475
3 267 507 503
3 507 249 503
3 520 458 277
3 528 266 458
3 458 266 277
3 224 404 284
3 319 248 297
3 291 188 298
3 454 273 188
3 289 520 322
3 289 231 520
3 384 273 377
3 406 349 260
3 260 349 316
3 406 404 349
3 323 519 374
3 374 519 396
3 323 262 519
3 519 262 396
3 278 536 464
3 464 536 443
3 278 447 536
3 290 354 304
3 304 354 273
3 290 377 354
3 354 377 273
3 304 341 283
3 283 341 474
3 304 282 341
3 341 282 474
3 529 338 276
3 276 338 283
3 529 251 338
3 338 251 283
3 261 424 244
3 424 231 289
3 305 490 301
3 301 490 345
3 305 271 490
3 490 271 345
3 374 386 323
3 323 386 538
3 374 292 386
3 386 292 538
3 250 367 261
3 513 231 367
3 116 360 410
3 116 314 360
3 284 358 299
3 299 358 288
3 284 404 358
3 358 404 288
3 350 325 315
3 315 325 53
3 350 253 325
3 325 253 53
3 114 321 94
3 96 333 321
3 468 318 400
3 400 318 429
3 468 320 318
3 318 320 429
3 251 401 290
3 290 401 299
3 251 228 401
3 401 228 299
3 508 227 254
3 409 441 320
3 320 468 409
3 342 300 287
3 287 300 484
3 78 372 79
3 79 372 76
3 78 432 372
3 372 432 76
3 333 496 102
3 283 265 304
3 304 265 290
3 283 251 265
3 265 251 290
3 529 256 251
3 261 228 256
3 256 228 251
3 295 250 351
3 351 250 529
3 454 489 273
3 273 489 304
3 454 282 489
3 489 282 304
3 340 437 274
3 437 464 248
3 53 478 56
3 55 58 478
3 257 379 289
3 284 244 379
3 274 246 535
3 535 246 357
3 507 234 322
3 322 234 257
3 352 447 503
3 319 223 77
3 77 223 475
3 319 297 223
3 223 297 475
3 57 222 55
3 55 222 58
3 57 24 222
3 222 24 58
3 316 234 230
3 230 234 267
3 299 225 284
3 284 225 244
3 299 228 225
3 225 228 244
3 260 221 340
3 278 464 221
3 316 230 260
3 350 337 533
3 533 337 441
3 350 320 337
3 337 320 441
3 103 220 332
3 332 220 323
3 103 262 220
3 220 262 323
3 406 219 404
3 404 219 288
3 406 455 219
3 219 455 288
3 380 217 77
3 53 253 217
3 380 55 478
3 311 237 466
3 466 237 280
3 216 270 303
3 324 215 433
3 521 294 215
3 101 236 214
3 293 342 287
3 287 521 293
3 445 521 215
3 215 324 445
3 77 217 319
3 414 271 305
3 297 238 443
3 443 238 464
3 297 248 238
3 238 248 464
3 224 284 379
3 379 257 224
3 459 213 449
3 449 213 391
3 459 307 213
3 378 410 360
3 360 434 378
3 484 212 308
3 308 212 282
3 484 474 212
3 212 474 282
3 520 231 211
3 211 231 513
3 476 285 405
3 405 285 326
3 476 293 285
3 285 293 326
3 405 210 476
3 476 210 329
3 405 344 210
3 210 344 329
3 399 209 365
3 365 209 405
3 209 344 405
3 208 263 307
3 276 207 281
3 281 207 474
3 276 283 207
3 207 283 474
3 261 256 250
3 250 256 529
3 205 324 100
3 437 248 363
3 295 530 513
3 513 530 264
3 295 237 530
3 530 237 264
3 528 458 211
3 211 458 520
3 429 218 233
3 233 218 54
3 429 315 218
3 218 315 54
3 533 204 350
3 350 204 253
3 533 381 204
3 204 381 253
3 460 515 314
3 314 515 376
3 460 302 515
3 515 302 376
3 468 473 527
3 527 473 371
3 468 227 473
3 473 227 371
3 254 203 431
3 431 203 400
3 254 227 203
3 203 227 400
3 340 202 260
3 260 202 406
3 340 235 202
3 202 235 406
3 302 201 414
3 414 201 101
3 201 236 101
3 527 200 245
3 245 200 309
3 527 391 200
3 200 391 309
3 245 199 441
3 441 199 498
3 245 279 199
3 199 279 498
3 535 198 235
3 235 198 406
3 535 455 198
3 198 455 406
3 271 197 345
3 345 197 461
3 271 280 197
3 197 280 461
3 449 512 196
3 196 512 532
3 324 369 100
3 324 433 369
3 369 433 459
3 340 221 437
3 437 221 464
3 381 194 319
3 319 194 248
3 381 363 194
3 194 363 248
3 396 436 303
3 303 436 327
3 396 262 436
3 436 262 327
3 332 195 102
3 102 195 236
3 332 214 195
3 195 214 236
3 260 193 221
3 221 193 278
3 260 230 193
3 193 230 278
3 316 192 234
3 234 192 257
3 316 224 192
3 192 224 257
3 433 191 459
3 459 191 307
3 433 208 191
3 191 208 307
3 296 432 216
3 216 303 296
3 521 190 294
3 294 190 484
3 521 287 190
3 190 287 484
3 345 343 342
3 342 343 300
3 345 281 343
3 343 281 300
3 270 353 352
3 352 353 366
3 270 216 353
3 353 216 366
3 342 189 301
3 301 189 476
3 342 293 189
3 189 293 476
3 273 384 188
3 188 384 298
3 424 261 367
3 367 231 424
3 357 187 535
3 384 455 187
3 187 455 535
3 274 186 246
3 246 186 313
3 186 363 313
3 307 368 268
3 268 368 291
3 307 263 368
3 368 263 291
3 102 328 333
3 156 522 143
3 289 379 424
3 424 379 244
3 278 361 447
3 447 361 267
3 278 230 361
3 361 230 267
3 454 331 263
3 263 331 291
3 454 188 331
3 331 188 291
3 316 349 224
3 224 349 404
3 56 412 26
3 56 478 412
3 412 478 58
3 380 185 217
3 217 185 53
3 380 478 185
3 185 478 53
3 319 502 381
3 381 502 253
3 319 217 502
3 502 217 253
3 455 184 288
3 288 184 377
3 455 384 184
3 184 384 377
3 384 187 298
3 298 187 357
3 310 522 453
3 453 522 156
3 513 206 295
3 295 206 250
3 513 367 206
3 206 367 250
3 313 183 533
3 533 183 381
3 313 363 183
3 183 363 381
3 271 182 280
3 280 182 466
3 271 414 182
3 182 414 466
3 236 201 460
3 460 201 302
3 460 397 328
3 328 397 116
3 460 314 397
3 397 314 116
3 95 394 96
3 96 394 333
3 95 496 394
3 394 496 333
3 434 385 477
3 477 385 314
3 434 360 385
3 385 360 314
3 295 229 237
3 237 229 280
3 102 525 328
3 328 525 460
3 102 236 525
3 525 236 460
3 324 181 445
3 445 181 375
3 324 205 181
3 181 205 375
3 96 321 92
3 92 321 114
3 443 179 366
3 366 179 352
3 179 447 352
3 536 447 179
3 179 443 536
3 366 178 475
3 475 178 432
3 366 216 178
3 178 216 432
3 100 369 196
3 196 369 459
3 294 272 215
3 215 272 433
3 294 208 272
3 272 208 433
3 344 209 479
3 479 209 399
3 521 177 293
3 293 177 326
3 521 445 177
3 177 445 326
3 363 186 437
3 437 186 274
3 137 514 487
3 487 514 511
3 137 378 514
3 514 378 511
3 150 176 390
3 390 176 133
3 150 135 176
3 176 135 133
3 208 518 263
3 263 518 308
3 208 294 518
3 518 294 308
3 391 213 268
3 268 213 307
3 110 494 114
3 114 494 92
3 110 180 494
3 494 180 92
3 111 501 125
3 111 180 501
3 501 180 110
3 127 425 94
3 94 425 114
3 127 128 425
3 425 128 114
3 125 175 130
3 125 501 175
3 175 501 110
3 67 413 98
3 98 413 111
3 67 180 413
3 413 180 111
3 130 174 125
3 333 173 321
3 321 173 94
3 333 328 173
3 173 328 94
3 92 172 97
3 97 172 67
3 92 180 172
3 172 180 67
3 132 472 128
3 128 472 110
3 132 130 472
3 175 110 472
3 472 130 175
3 125 491 112
3 112 491 121
3 125 174 491
3 491 174 121
3 121 469 522
3 522 469 143
3 121 174 469
3 469 174 143
3 121 411 108
3 108 411 310
3 121 522 411
3 411 522 310
3 67 171 71
3 71 171 73
3 67 98 171
3 171 98 73
3 143 417 486
3 486 417 130
3 143 174 417
3 417 174 130
3 131 398 132
3 132 398 486
3 131 149 398
3 398 149 486
3 26 412 500
3 500 412 58
