# vtk DataFile Version 3.0
A great-looking cell
ASCII
DATASET POLYDATA
POINTS 266 double
144.53848522395293 113.88940169500376 2.829781926504972
147.0676167782716 115.1240292242732 4.120244248930834
150.53591898898733 117.46101161065509 7.918605226191243
144.51756474948087 111.12583936089308 1.6250640844426318
147.1952272297842 112.58369404238796 2.599387083708711
138.92595078941102 113.90202892245757 2.1358464799855494
151.89924380413328 113.18291499606067 8.369277069406165
141.7670530617916 112.66977741423881 2.0228668909805925
140.0196135856557 115.31353574991157 4.445079631751163
142.0671274774505 116.51098979804603 5.513252771512073
144.34112492173867 116.06627416961676 4.470318735422346
145.93108196191147 107.18485314525701 1.950084327818555
149.42023096252456 112.13787118963869 3.8235663025972335
139.95568139403022 116.858500474032 6.5609230717777285
141.66240231532757 118.25190095606722 7.246453896833424
144.09612702153717 118.18011503568547 6.228420953480903
148.06812807450981 105.62787358975392 3.7806861243899674
150.67797716709453 105.52808203497777 9.189666686988122
138.2999955087161 106.9974582043039 12.769497002516646
152.35594283148774 109.06003205616426 14.813713546681793
153.1153800182075 114.11427677489533 12.25283039387697
137.82322150239509 115.92382460136776 12.151401585250952
138.05362553665998 117.03637663102243 10.369979469387399
137.70293991102656 117.64357580464649 12.638388640333874
139.33815477340286 120.33277390004675 10.043264482594696
151.0260560603792 118.05520676447654 10.54602944550319
142.0086328027724 101.72778414427333 11.06682526550522
145.88505317686963 104.88001218979733 18.1425343664762
141.8672635896813 105.50484759839325 17.829855226910276
137.4347374236959 109.80297726073172 13.472807958855036
138.0517568442643 112.45046557285023 14.836470338721883
137.2579192100467 114.17843059860242 13.01573837560855
138.15567761869733 116.02351761276266 14.133155936860986
137.63622529761165 118.14103457037442 14.609183596303833
139.91479948464993 122.20468994027583 11.002278703226832
141.27662665597225 121.5631382134601 9.860812716820066
147.91650054744622 120.81815206201885 11.735740497652644
151.52987952348408 117.50532988596147 14.758042591814965
139.37522283094256 106.68487272219139 15.531485358791862
140.74051156109923 107.6912800840494 17.826646921491058
139.1176240468484 112.34113831250396 17.61861743138142
138.73068423706405 114.77889505024045 16.1807874544299
138.24326679710012 117.04687308173447 16.107927209222243
150.67979036703085 117.74709009912677 17.153383768311805
141.0426893351766 116.62930262197993 18.991811374413523
145.4744928399166 121.29170930232777 16.39022789932971
142.66764478840145 109.38526112754452 19.653500627205016
140.21368355456718 114.61893115442443 18.352510500676605
144.03369940510638 119.02524444122359 19.105836624794843
147.26693179217745 117.35233614859483 19.849530999640624
146.60525003922996 112.16638642445224 20.685370107813878
143.38282154328627 116.74880229229439 19.872631829170416
148.09936393637832 114.96252206732429 20.859918811629814
143.06878587514078 108.49458164310674 1.523026901064018
151.3284347966893 107.68018076363593 7.79378643148588
145.12125845000432 109.86653850898823 20.603178013593872
151.49592419220278 115.2874050240665 7.093685132373143
143.65498933075432 104.06625035898438 4.923652500070322
140.6938497759069 103.92886345959613 16.07128137614086
151.8708061258744 110.18791549640308 8.367037996958183
149.44343482735513 109.77652756169479 3.283516226254124
143.12197432502757 102.60301580903194 7.340471544533728
153.5008745196901 113.5580450174969 14.355291763376501
147.5591812936685 109.21378028325165 20.358502399302324
145.10460744693313 119.76405314175193 7.734873748131081
140.60764345787118 103.19730770278781 8.98705198509529
149.93153748083265 110.09429725024043 19.4028371695005
141.17777837782933 119.95011363308062 8.628823961265674
138.409188269082 116.35876510848517 7.991467824339084
140.3886423062067 110.23515035202225 18.385788165262863
149.84344632134142 118.93689163252436 14.957990367901617
142.81832377537543 101.43054340749401 13.848475353197381
151.35461607848936 106.2463879541763 11.032910452170565
144.9561838073551 122.29687779550308 15.138906688372453
151.7680651751833 112.25718803968195 19.045542953734955
146.41452935680184 121.23652968553812 10.735386446254449
147.39903016826912 121.09630401531258 13.522489055382284
152.2618964998112 109.94707962230551 17.434877063715945
150.54892961037976 118.52348606842594 12.874221290710205
141.75760653370557 112.44209347343907 19.244927913916396
149.69626440521841 117.04295790050315 19.58444275596823
145.0602840446171 107.22018660197284 20.002463451217018
149.59748900371116 119.0396793636825 9.354168516202517
145.31336445904026 117.73429448239668 19.84766472926253
138.55361049381096 118.03199674209598 17.478550596692454
145.68160420165492 115.93635987261497 20.59240292327006
141.85727552634364 118.63147789622784 19.015392124048144
149.1780600750663 103.34404301652131 10.177166669060544
148.00307784628666 106.62000184438638 19.003560087661445
151.03923846310445 114.78589116072123 19.685881967131973
142.06037617339229 114.89424976693486 19.47173778500402
136.07748000774632 110.83609034284903 11.443670093140955
142.6055476411635 120.86282574841289 9.081082772673842
143.1182944771518 119.68507822041805 7.937165467556243
146.7771317380579 119.67298010155207 8.178199608977579
144.19276119214578 114.0119155483741 20.27264997116085
151.083461451314 106.64095003459224 15.420125903935409
153.18848550036276 112.9009211824338 16.524403602839353
137.2776025482996 108.86318949446694 10.873128463524354
139.20848013778354 121.32526858571185 17.903580219332575
148.92206004930773 119.31158203132884 16.558904827148694
137.91978143300094 115.3340321056788 4.061799261319548
147.53975598896136 103.23448056814989 16.504061113293265
136.6456812206879 112.07608469614567 13.009152319228221
135.7900761952367 113.10517976112956 11.38109042835497
146.48270081497805 121.40462596672283 12.257790688479085
134.59798467742309 111.80073745410297 4.567534184346889
148.16908583277524 120.22176865329206 15.092592587670586
137.12391858971392 108.62226352193031 8.51917137600579
143.35260916511223 122.84144381146123 11.93897585949731
138.84133353440174 109.5885459596774 16.164506620667574
137.29163014292277 119.78856365975493 15.00841133905402
140.79524444610774 121.73996709088445 17.93780514493101
139.37939834183106 107.2825664066415 5.268774703111764
148.54910718169378 111.20023821471659 2.4948307326877517
151.3455090307524 113.75119208180874 6.472876715867933
148.84045183551117 103.59742808788226 7.415012317099876
145.89537738982096 120.56183667741986 9.216348323405851
151.03022183992894 105.52063166067653 13.764612172385213
137.026523113517 115.82240203242641 7.060452450689964
134.1016729303085 114.09204133164452 7.125507327027282
151.74168018037727 108.21779216584841 16.480704972564325
141.09096098791395 103.99981989569129 6.128520950246699
145.5148831259825 102.54853098468868 7.491404883532755
140.20099896732697 122.8960805075316 12.827568368526798
147.78099951300067 104.87193130837227 17.88259413215113
149.41062008237216 112.50926066774474 20.286365990945555
137.6246684520796 121.05705307659777 14.26190020042441
138.3978936258429 121.36974931737085 12.316728531310982
136.5490462946664 112.93093106562603 1.2940883176275368
152.429588614082 113.93238347701049 18.405862175159747
152.30570057464783 115.673020281924 9.71423417622817
134.12505683176042 112.81021626994378 5.8457857729826435
140.58265296493715 110.18837141681189 1.2862366192320178
146.53297008790327 118.58772084975811 6.740277820272526
148.50533800189564 117.03057112057412 5.992058746937731
148.88795968371628 119.87171336023962 13.240426841209521
137.52334541905196 119.56292375034198 13.31924400154161
152.56703220505662 109.47797941528844 12.081570177850871
149.3180888949891 119.42944320924703 11.240826000060375
143.5704311936524 103.91158884470843 17.111065659770695
149.91084765937674 114.5384514319334 5.163578876848316
144.71114431185126 103.06781953045521 6.249802602540215
150.7274194863501 104.66264374880467 12.021679046742689
148.61269914079722 104.42717758762407 5.491906806879817
139.10884005462356 104.34731197034657 11.260121894705138
138.41322605382885 108.24671303699635 14.515678572397622
138.2949477810247 107.42719338899113 7.382540100770119
140.9536228620317 123.12755221439036 14.89181906401334
142.4979738006509 110.66728985897483 1.2824581306501313
152.98759470708936 115.485399009569 14.881795173378796
135.72692518378557 109.87136567123196 9.517370465574365
148.42419443045966 110.97592542330085 20.351721586188233
139.64927194607134 118.17940385921621 8.744529884808825
143.3280928074703 121.98655579989094 10.303596219532311
150.28431296789697 116.25029506624922 6.325659484633426
138.315740494169 115.77227867043646 5.951541902156608
137.81039736976925 121.18290776738898 16.348722491075016
149.7417976974972 107.52348758769324 3.9367116042342385
139.70516685956773 122.65057399688554 16.640130304453002
152.13239229620092 116.78551594871706 16.131991112740582
141.37432897471507 102.2334403339534 14.927304905418591
139.39861886504693 105.4379018354999 7.411778207708811
148.4180152197755 118.69305379600013 18.34126093837332
135.86375199122034 114.7792320879339 2.993875799352934
145.09105950570174 101.53079966145329 13.497750036353894
144.15832673205023 101.13183454847062 11.90656829815945
146.1164067087812 117.07059338084885 5.424360660900531
147.1966906881087 109.87462739074971 1.7295241328220086
144.192536157159 122.85171694947337 13.444025833001268
151.87344298967437 107.94071875917524 10.192914493502848
144.9626477696963 122.02900560766577 11.743194748214346
148.46619450681573 102.65057930576742 14.610011964446294
136.95246035826818 108.93698528882929 5.989615503651601
145.70881405627867 121.75213777094919 13.547384872051841
145.47087774744415 103.49710547750021 16.922299246328457
147.9513598922604 102.32369832090204 10.883920251456917
140.2227956520724 102.64314267908853 11.080089731170958
147.80939654309068 120.0557488400475 9.708595607675473
152.37834882593353 109.80946727677566 10.31290305849671
152.9630874427662 110.82803222091398 15.66176899033191
146.5387215482859 121.29398757105886 15.15266231641345
141.86815018693636 122.41073324042358 16.6989844304667
136.4491707642732 115.24891734071592 10.97127908691
145.21476281481858 109.13975670513503 1.1220012539661781
143.58112087276942 106.13882405342292 2.9883698217964745
150.22346982737395 107.87888134957777 17.75737301768135
144.89938032226297 102.21029989596018 15.65119903767239
146.24298952739878 119.18808990760803 18.95212225172589
149.92329994706304 104.08416282923012 14.725747674673148
153.28358316843347 111.60293090631203 13.751780428399412
151.343100080626 116.62678617617954 18.804863476219065
145.56825301190418 105.15838646119359 3.671978617097534
138.62872610895653 118.72102228092227 10.042702786629125
143.7044310427295 105.33474753510866 18.902540036631294
148.5048652454388 113.70686132686723 3.7292502620445873
144.99618802319554 121.47470642845667 10.123649131136224
147.06420655789057 102.86512804893584 7.348642859916589
137.66126457852926 118.93168373731949 16.3823638687053
143.87929984419176 121.93631970928053 16.716262638281627
149.48669878860005 105.25210138546696 17.22589052566233
150.4122189681831 110.77749107523768 4.503264654423404
148.4404706744568 107.79413565958465 2.3071218832781604
152.74828185853627 113.6815875733886 10.187544817170195
140.45091559441184 120.15060872612906 18.562659098093995
149.0475142106885 108.36917243444158 19.300280871976923
139.03206190180387 104.6824766080544 13.940201462754121
134.8216151290702 111.78874304736266 9.794404498109435
142.25111256752703 123.08442677515261 13.260370965112063
148.69434047557112 102.73092696928511 12.61063177294831
152.50572188334206 115.68632142706299 17.573836503434787
142.53758346485665 102.21159022132743 16.009423857273564
135.39647167091132 115.35182807474736 7.188475242161878
150.1902550234207 105.96275557076468 5.965561615837452
136.33836109582782 110.84681253960221 1.9323941204237651
140.40307679600593 102.62934453095849 13.2422128927957
142.4367896100735 102.00858287725158 9.147802736693945
138.0096751874432 114.36545815147866 14.55941168037198
147.12512926456114 102.36521349950384 9.17284878437483
138.79266559450244 122.52470783401836 14.532753309647658
139.48032980911466 116.57843747441713 17.575693612702764
146.3253752967768 102.00041279437748 11.674912798919786
146.06100682088712 114.26929596078872 21.166137108030057
146.54122244471807 103.73850699766706 5.669562987158399
136.46124678131775 115.54008775271579 5.387261688653868
140.69509034520718 107.89845612910283 2.876864690317679
141.3782652903172 105.79173712549131 4.160541502264839
135.7304699748681 110.36313646640049 4.000378984819176
136.65863471526208 115.69974512240647 8.814189068378635
144.16984225931537 120.71907589030539 9.073943628131422
143.08577951006262 122.99810926304758 15.123647469560051
140.1700702260669 105.53251243864268 5.648101118359581
137.7738066766467 119.23170185968304 11.262257019913774
135.04950604582754 110.87595803038487 6.303321148534411
148.43817897543545 118.93799856338383 7.764428049091413
134.42869337462184 113.35663107695949 4.141033925150573
141.69983782177636 122.74527720090194 11.399645508067868
135.75693000604048 109.6283372814704 7.702350980432213
138.88242024855614 119.65723436350204 17.58633066373013
142.54902771126487 120.66869989180994 18.026965443008574
139.83702798077834 118.27283640300226 18.576604891887268
144.42039681456697 101.57126697448423 9.566807768661963
140.73773942391153 114.19715108002734 3.052554445972464
143.95880057522749 111.58298227563063 20.430110522268958
138.25096021569323 111.35806404856228 0.8114286599638733
144.92165403357185 120.58488633307232 17.884511593807584
135.1568113067025 112.29024439375455 2.883417938248652
150.88592992904228 111.9588474179181 6.002492998139218
140.6712360146813 105.95777395923585 16.81134768415789
134.6545234984122 114.67870172482453 5.343377343066161
142.239075235006 114.79105804811668 3.707066388501174
142.10707211812124 106.95737207215775 2.714004877064144
138.11147387263358 109.26758182998773 2.9727125088128603
138.3661884722119 106.6370697465832 9.64376406271938
142.5834570160374 106.90121871159238 19.24566821161868
140.03962626922456 112.27449333736477 0.819314702045755
134.76270253876297 110.71198449170377 8.259184800515392
146.81874137242875 102.44858406067404 14.082432278643799
150.9835884622486 109.07791736621041 5.508245918643066
151.81471446593082 106.98601103129681 12.772206219019795
134.06817092291647 112.3361777468184 7.831720239867048
152.74280481181407 111.70904008411918 10.713062379855115
146.99762452032368 120.17150549412906 16.956973028037112
134.67486032473232 114.29319439553122 9.29398310476211
152.12355150012473 116.6881350438443 12.489022322566903
139.2295419798747 104.82376459751715 9.292335919676496
POLYGONS 528 2112
3 1 4 0
3 0 7 250
3 4 3 0
3 8 9 250
3 9 15 10
3 30 29 110
3 31 32 21
3 32 42 33
3 110 40 30
3 30 40 41
3 40 47 41
3 32 41 42
3 250 9 10
3 38 39 110
3 10 0 250
3 10 1 0
3 234 2 135
3 31 21 183
3 104 103 31
3 29 30 103
3 103 30 31
3 0 3 7
3 29 91 98
3 233 256 260
3 260 207 263
3 263 207 104
3 253 18 98
3 162 147 113
3 113 147 173
3 173 147 108
3 151 98 91
3 147 162 253
3 173 108 237
3 98 108 253
3 147 253 108
3 233 173 237
3 98 18 29
3 31 183 104
3 104 183 263
3 228 183 22
3 22 183 21
3 104 91 103
3 103 91 29
3 256 233 237
3 151 237 108
3 151 207 256
3 256 207 260
3 151 108 98
3 256 237 151
3 104 207 91
3 91 207 151
3 25 131 2
3 37 70 43
3 47 90 44
3 44 90 51
3 47 79 90
3 37 150 264
3 264 150 20
3 49 85 52
3 51 95 85
3 9 14 15
3 14 93 15
3 51 83 48
3 49 188 83
3 48 86 51
3 51 86 44
3 25 2 82
3 82 2 234
3 85 49 83
3 83 51 85
3 13 153 14
3 50 126 52
3 52 80 49
3 47 40 79
3 51 90 95
3 95 90 79
3 64 229 117
3 80 43 163
3 163 49 80
3 262 181 45
3 181 107 76
3 262 163 100
3 70 37 78
3 25 264 131
3 131 264 20
3 188 262 245
3 171 105 75
3 117 178 94
3 135 141 1
3 34 35 24
3 24 35 67
3 105 36 75
3 105 76 36
3 70 100 43
3 100 163 43
3 262 100 107
3 70 107 100
3 49 163 188
3 163 262 188
3 25 78 264
3 264 78 37
3 48 239 86
3 182 112 239
3 15 167 10
3 167 134 135
3 82 234 178
3 234 94 178
3 139 136 78
3 136 70 78
3 178 117 75
3 76 136 36
3 48 188 245
3 48 83 188
3 82 139 25
3 25 139 78
3 126 89 52
3 89 80 52
3 33 23 32
3 32 23 21
3 47 220 41
3 41 220 42
3 47 44 220
3 8 13 9
3 13 14 9
3 67 153 24
3 30 217 31
3 31 217 32
3 30 41 217
3 217 41 32
3 64 94 134
3 22 68 228
3 22 153 68
3 68 153 13
3 117 94 64
3 134 234 135
3 134 94 234
3 10 167 1
3 1 167 135
3 14 67 93
3 14 153 67
3 208 169 109
3 109 169 171
3 33 137 23
3 33 111 137
3 42 198 33
3 198 111 33
3 229 196 117
3 84 238 198
3 198 42 84
3 111 198 157
3 157 198 238
3 128 124 34
3 154 109 171
3 21 23 22
3 23 232 22
3 128 219 124
3 219 127 157
3 232 128 24
3 24 128 34
3 159 99 112
3 159 182 148
3 148 219 159
3 112 99 204
3 204 99 238
3 67 92 93
3 93 92 229
3 92 154 229
3 137 127 128
3 93 64 15
3 93 229 64
3 42 220 84
3 171 196 154
3 154 196 229
3 124 208 236
3 236 208 109
3 86 240 44
3 86 204 240
3 45 199 245
3 182 239 199
3 157 159 219
3 159 112 182
3 22 193 153
3 153 193 24
3 22 232 193
3 193 232 24
3 230 148 182
3 23 137 232
3 137 128 232
3 154 92 35
3 35 92 67
3 124 236 34
3 34 236 35
3 262 45 245
3 182 199 230
3 111 127 137
3 230 208 148
3 219 148 124
3 124 148 208
3 35 236 154
3 154 236 109
3 219 128 127
3 127 111 157
3 112 204 239
3 239 204 86
3 73 199 45
3 48 245 239
3 245 199 239
3 238 99 157
3 157 99 159
3 117 196 75
3 75 196 171
3 64 134 15
3 134 167 15
3 136 139 36
3 139 178 36
3 36 178 75
3 82 178 139
3 107 136 76
3 107 70 136
3 240 204 238
3 238 84 240
3 252 244 133
3 212 263 228
3 228 263 183
3 173 252 113
3 133 255 7
3 7 255 5
3 133 244 255
3 255 244 5
3 106 227 233
3 233 227 173
3 227 252 173
3 113 225 226
3 113 252 225
3 225 252 133
3 252 214 244
3 252 227 214
3 181 73 45
3 169 208 230
3 230 73 169
3 181 76 174
3 174 76 105
3 105 171 174
3 73 230 199
3 73 174 169
3 169 174 171
3 174 73 181
3 107 181 262
3 253 145 18
3 44 240 220
3 220 240 84
3 224 249 212
3 212 120 263
3 263 120 260
3 212 249 120
3 249 224 164
3 214 246 129
3 8 156 13
3 8 101 156
3 244 129 5
3 129 164 5
3 164 235 249
3 235 132 249
3 260 132 233
3 233 132 106
3 249 132 120
3 120 132 260
3 228 119 212
3 119 224 212
3 224 101 164
3 235 164 246
3 246 164 129
3 246 106 235
3 106 132 235
3 214 129 244
3 5 101 8
3 5 164 101
3 156 68 13
3 119 228 68
3 68 156 119
3 101 224 156
3 224 119 156
3 106 246 227
3 227 246 214
3 20 203 131
3 131 203 6
3 20 261 203
3 203 261 6
3 1 195 4
3 4 195 12
3 1 141 195
3 195 141 12
3 190 261 20
3 209 143 189
3 19 138 190
3 190 138 261
3 19 259 138
3 19 96 259
3 27 88 81
3 17 143 87
3 87 143 209
3 66 186 77
3 189 200 102
3 189 96 200
3 200 96 186
3 66 74 126
3 66 77 74
3 74 77 97
3 259 72 170
3 170 72 17
3 259 143 72
3 72 143 17
3 88 200 186
3 81 88 63
3 97 62 150
3 150 62 20
3 97 190 62
3 62 190 20
3 170 138 259
3 261 59 6
3 122 226 57
3 28 254 39
3 81 46 254
3 254 46 39
3 81 55 46
3 81 63 55
3 55 63 50
3 116 213 17
3 39 69 110
3 110 69 40
3 39 46 69
3 131 56 2
3 131 6 56
3 95 243 50
3 46 55 243
3 243 55 50
3 40 69 79
3 79 69 46
3 97 180 190
3 190 180 19
3 97 77 180
3 180 77 19
3 65 162 122
3 17 54 170
3 17 213 54
3 54 213 258
3 61 122 57
3 126 74 89
3 87 218 116
3 116 17 87
3 221 241 218
3 81 194 27
3 81 254 194
3 194 254 28
3 209 257 221
3 257 102 187
3 141 247 12
3 65 122 61
3 150 210 97
3 52 222 50
3 50 222 95
3 52 85 222
3 222 85 95
3 46 243 79
3 79 243 95
3 4 168 3
3 28 58 140
3 102 125 27
3 27 125 88
3 102 200 125
3 125 200 88
3 145 206 18
3 18 206 38
3 206 58 38
3 26 216 241
3 241 216 61
3 26 65 216
3 216 65 61
3 226 231 113
3 113 231 162
3 226 122 231
3 231 122 162
3 209 176 87
3 87 176 218
3 209 221 176
3 176 221 218
3 50 152 126
3 126 152 66
3 50 63 152
3 152 63 66
3 12 201 60
3 60 201 258
3 12 247 201
3 201 247 258
3 26 166 71
3 26 241 166
3 166 241 221
3 18 146 29
3 29 146 110
3 18 38 146
3 146 38 110
3 26 71 215
3 59 258 247
3 247 6 59
3 187 211 71
3 187 140 211
3 211 140 58
3 206 145 215
3 215 58 206
3 11 202 16
3 11 168 202
3 202 168 60
3 89 191 80
3 80 191 43
3 89 210 191
3 191 210 43
3 3 184 53
3 53 184 11
3 3 168 184
3 184 168 11
3 26 177 65
3 65 177 145
3 26 215 177
3 177 215 145
3 27 175 102
3 102 175 187
3 27 140 175
3 175 140 187
3 71 165 187
3 221 257 165
3 165 257 187
3 97 130 74
3 74 130 89
3 97 210 130
3 130 210 89
3 61 123 241
3 241 123 218
3 66 205 186
3 186 205 88
3 66 63 205
3 205 63 88
3 16 158 213
3 16 202 158
3 158 202 60
3 116 144 213
3 213 144 16
3 116 223 144
3 144 223 16
3 102 172 189
3 189 172 209
3 102 257 172
3 172 257 209
3 166 221 165
3 165 71 166
3 53 225 133
3 38 248 39
3 39 248 28
3 38 58 248
3 248 58 28
3 28 140 194
3 194 140 27
3 16 192 11
3 16 223 192
3 192 223 57
3 226 185 57
3 185 53 11
3 170 179 138
3 138 179 261
3 170 59 179
3 179 59 261
3 71 161 215
3 215 161 58
3 71 211 161
3 161 211 58
3 223 142 57
3 57 142 61
3 223 123 142
3 142 123 61
3 19 121 96
3 96 121 186
3 19 77 121
3 121 77 186
3 218 197 116
3 116 197 223
3 218 123 197
3 197 123 223
3 192 57 185
3 185 11 192
3 259 118 143
3 143 118 189
3 259 96 118
3 118 96 189
3 6 115 56
3 56 115 141
3 6 247 115
3 115 247 141
3 3 149 7
3 7 149 133
3 3 53 149
3 149 53 133
3 53 251 225
3 225 251 226
3 53 185 251
3 251 185 226
3 7 242 250
3 250 242 8
3 7 5 242
3 242 5 8
3 12 114 4
3 4 114 168
3 12 60 114
3 114 60 168
3 213 158 258
3 258 158 60
3 170 54 59
3 59 54 258
3 43 160 37
3 37 160 150
3 43 210 160
3 160 210 150
3 2 155 135
3 135 155 141
3 2 56 155
3 155 56 141
3 162 265 253
3 253 265 145
3 162 65 265
3 265 65 145
