# vtk DataFile Version 3.0
A great-looking cell
ASCII
DATASET POLYDATA
POINTS 325 double
230.01578333169073 174.04126440072454 53.31096338050279
229.12213421669415 174.36501929801636 55.4940744572709
231.80361890951562 175.34965516754653 52.941629868247276
229.56392017612924 172.32657744387942 54.586140665788704
232.50833052353897 173.1042572425946 49.83122450278159
237.3737800343335 173.87215782560924 50.06460279155539
232.2177866819814 176.87224911335775 54.928405823852216
230.3363904763901 175.72857320768105 54.378069046297654
230.08504303555642 176.32145676933987 56.364664412137685
229.14632901980823 172.40183150243368 56.728228785143195
228.80068120847133 171.96271846936546 58.81046224203972
238.70124301297912 163.2657596210097 51.618296978562626
238.74733505303195 178.27260620234543 58.86717242557226
234.52475224853643 177.97605941714716 59.02383047493452
236.33369027234394 177.7644293764917 57.1690969848678
231.67389572711951 177.2944575006367 57.07264577187554
230.2955036565947 177.01854269157124 58.53064542513189
228.53736210266976 172.2319152683416 61.92206692916254
228.8695724242887 171.2476659599809 60.67611646786257
229.2008943383898 170.62658561316584 62.70316606840284
231.85670469109664 165.24295217658434 60.32232674615092
245.71647570314337 164.78777956255 58.193878274918305
228.28543776703637 173.11108603087885 60.443916706306354
236.05926704592522 178.49177176922498 64.56307756617748
235.08863567492176 178.14897040509763 60.854376260705386
233.2850108033052 177.75301890038398 60.76135297955864
229.1359664211029 176.62724239820918 60.43504411554044
228.82679061596016 174.67584099738096 58.3862585980537
228.51414155738544 172.44975140913076 63.49377371992804
228.9041688637947 171.1901614456909 64.79050468994936
236.14675726940794 161.78160223220485 67.30626935020648
228.13390718533412 173.81657960415703 62.28874403347541
232.98561403117404 177.09865286716166 64.59331625110659
232.0821624236416 177.56156986991454 62.528071243585764
230.5631731861628 177.17803089670645 64.26612202595133
230.1794533692169 177.25517720106546 62.11936597774967
228.52565528280076 176.04118107838218 62.82049073189374
228.22019445278318 174.94046038920982 60.821965370603436
229.19827080515498 171.19692596648053 68.12352270702645
230.26627935572898 169.55625188499818 68.18139463913424
240.34452210942618 161.56406880254028 70.41157255456453
230.514397324119 176.83661630193566 66.5375783700898
228.78847389936368 175.91084186236662 65.37244771477538
228.13357541522595 174.1716381774018 64.2257511282161
228.84425318202904 172.07237001658217 66.43924610455903
228.57170101916896 172.76643057134717 65.02509777841932
230.10844362883816 174.2681799852467 69.38365231005913
229.16646759963638 175.35079581686722 67.6369505106019
228.9439108684471 173.18824777265326 68.02632335628466
228.39963919444364 173.92611774454014 66.18983286253318
236.26246932467987 161.5749692568083 59.092555324143355
240.43617167657825 161.26218669792303 59.0250171352326
235.27132956215144 162.47106351053873 56.60735454777419
246.5824414917026 168.89110490630486 55.23926098732603
240.84408452000312 168.41449352003883 48.672477338355186
241.9576953442138 169.45942958740372 76.2187381689527
241.88717317027871 161.8309992351918 69.22996703641178
244.39773302761867 163.38979035141185 67.03539357052507
247.40068136361154 168.91362087153487 58.4845261056862
242.49339746354062 162.33905510735417 70.52212216076965
247.53987946838092 167.52623280429216 63.63806219819886
244.69060895149516 170.37000354827745 52.12975980432299
246.13784324958152 165.37135265004727 66.5714199846797
236.17121435944063 164.2198639199529 74.67815449290006
243.6035558405372 170.51124995926787 50.65019270851211
238.2345521275491 162.1310996003505 71.98825404564583
242.57204654565402 168.04352592981468 49.99113669457871
247.41676565715449 170.53013982227134 63.596990078760655
244.27627028646276 174.5354543932358 58.95296687406568
245.38064180363844 173.37487970483824 63.17703810574337
237.1296797391021 163.73046979272584 50.799459682500945
238.5999883191804 168.89474021397666 48.61170156370255
246.62584044118876 170.31166222580677 56.72820875229083
242.507985443507 173.48047610702778 52.5725654002661
240.46926955167348 162.31240698663046 72.91334400169764
245.19977538586963 173.66189725472455 60.837427596826195
245.24910235678482 172.52397925124222 69.41985567978803
243.53524781857564 174.1092337809876 70.43863875816575
240.3093319517415 164.2829728995325 50.41943320912467
242.59829513685872 173.67846991556905 72.57906592206383
243.3866926147337 172.14546352164166 73.84728522354277
241.23533062817333 163.3299829366936 52.683510802867524
238.0719944464967 164.69313273758974 49.37777491135294
238.3105222352794 161.0145081772182 59.578573025467925
238.7800158832582 174.76634830057372 51.78752080937784
245.50665130822514 164.82388335961252 70.38716768079799
234.61591893701845 166.2286848956829 49.61276310104018
246.99874716119186 168.57388981776688 69.12919826868064
244.2565588617325 163.260719144266 58.38623786648441
238.09597517521834 162.64773423299687 53.60312578682185
242.77208250294257 164.72648764803034 52.65465742380173
234.5310533039224 165.3937933801245 74.24439551206777
234.39066573036584 177.9217968960414 62.81820874406409
237.64243537030475 170.13649893743764 76.4016885593884
240.72597403421764 174.20383500406933 72.83218127396187
241.19086828806203 168.06043091793362 75.8874182839946
238.54027963322505 165.69759245184687 75.74062859370869
242.69917120542874 163.43443561904104 72.55456356105933
237.90538611932786 175.86211954382318 71.6516972357424
246.46178421573256 170.31529785089407 70.96203492059269
245.09146289590475 172.5640989084749 55.37531055424261
244.1629413202406 163.7596293955273 70.44473618869776
239.59416667955955 172.1294199073108 74.54001711912022
247.1179208195666 166.33658046148904 62.32579165336349
245.47224718577846 172.83465552157475 67.12504793562871
242.84019550472004 170.89695268006312 75.60256778646766
247.4065784973179 168.93919657770084 65.24553230608629
243.75761463515718 168.22495935953165 75.89119927351783
238.4244998562658 161.3129321543345 68.60798968707066
246.77923781993434 171.79686548244297 62.068972784203744
240.4281924606116 176.8616372091399 57.88377865522153
238.43139529117457 161.10181146276062 65.7898534296339
240.781016899807 176.13337188426212 65.35807233672608
246.9273324041227 166.86274323490096 67.41827712724962
237.63153975862102 173.56793608545263 74.11593633537866
244.01055712458486 172.199442459478 52.68926611462153
246.23428115359906 164.96505053538215 60.69535313159634
239.9712671963663 175.79406172128415 70.6031166231244
238.40187592133282 163.8102349838278 74.56244359628778
242.5656695474222 175.06000168514467 56.4109019243788
246.74961554121117 167.45067689123078 56.72887951923479
238.36058654749195 161.00684175674786 62.686189105722384
247.34890137728397 167.0460923837592 59.71879780619546
245.24294231685457 165.3647200628663 55.31747978353844
238.62351784349386 167.74366089987714 76.04055030720306
235.75412434154245 163.14370936016982 72.81111466566625
246.44092086403612 166.48448988219343 70.20511748173662
244.39771015921545 163.22567603068623 64.2998477764103
237.82632129599216 178.69030377076956 60.499943712282956
234.06157776942524 169.56203997214052 76.12525121297854
244.53999945057782 172.31348118798005 71.94326179877886
234.14079991965767 163.22087121497194 68.75939464048285
231.2321769381303 177.29150003021647 60.53123217833554
246.45794948613144 171.92524639152543 64.9351168249392
237.06840745593507 172.90794724844991 48.3458411095634
235.34603460297035 171.29886345311064 75.92939614327925
242.12339195945393 176.12817640396926 60.20604960181878
231.6732805778176 171.88954486345895 73.06047077223445
239.37856357007567 178.27495970577868 65.0888406501424
242.45188762506154 165.3678536108629 50.89645672272072
244.10176333317264 174.51634144741917 56.85936208733417
241.09685108633687 175.26512472216237 54.12491425623993
241.04884289411248 161.47567749592042 67.51036288425189
234.58897662833147 176.3371512980968 71.16514580565412
233.42406704873378 175.3716412794335 71.26519888969261
237.9898324921544 172.2600097765885 75.21385191175587
246.00466951550018 172.978169311239 58.266867214635795
240.59667594433023 172.28482331369858 49.597623213169136
245.62606157520116 170.1216249323507 53.88704106180696
233.47842713046356 176.1505299537486 69.40136729263418
242.5206198745105 161.94927563425216 58.50185740976732
231.6943493331371 177.17276952139903 65.60190789238868
233.88438299740295 172.76971767500015 73.96903272730663
236.99215351505575 177.9901363224012 70.06017516801259
240.5270398108454 177.17641852845472 61.839597383887295
239.70178961847478 173.13073057291527 50.712631388887864
242.0593875267276 175.56511413540068 64.30416027070314
234.50629317665425 162.38235780206705 62.6343259843347
237.17683535117405 176.9374053571745 54.815659742183925
234.505038330315 177.75694302547967 64.46622796442175
236.2146143202927 178.34157669842673 66.9277710039671
234.74190134931075 177.40413978921046 67.96588113356611
234.81790779542268 175.04483092760435 72.81935857843557
238.85985845882502 177.06804254190206 70.58013133462082
238.39776182101113 178.71432219042217 63.81656357587779
238.79749705895028 176.83731617876782 56.46121202937033
230.80760854155153 173.197902959809 71.21508222677633
240.32919363448937 175.92993820623167 68.99186908425675
245.53986343311192 164.16883191866364 63.00241136039079
245.89426676833986 167.59265838235868 54.10795673367424
236.520631337535 178.40359687605306 59.70346133780527
234.89957396640463 176.98854664663844 54.82793561813256
241.79766843938177 175.2908013301762 66.79676098856498
238.98859191288983 172.06106877153516 48.6149334121619
244.96510362829932 168.411367113625 51.628154607489286
232.1501721567951 164.55948844560297 62.47456348790777
231.5099261827922 166.83708908888926 70.90742138963735
234.39214053607947 162.81256569662875 66.14694804482991
240.48683249318177 165.78432456185848 75.6634614048046
232.51134489108264 166.52491388278398 73.13299040684531
246.83063741075392 166.04879651437187 64.87120671628158
229.62111106658222 170.31662120417585 66.42381221482127
233.7696048730019 175.9580552483133 53.225961638930904
235.6973670702285 168.35976053573853 76.76861349412319
243.71033647486536 174.76896373343945 62.67933773216427
230.93687523487452 166.25025621515738 62.4946309993865
244.47227375101227 163.2320044624484 60.3065267055254
234.55634756644724 170.50023390982406 47.70462927415616
239.68114684237673 177.54917949800625 68.77757610252473
245.05439531936372 170.24490584577936 73.90237656856009
243.88151365492405 174.178922284444 68.0475014932537
230.94486146248323 169.12957418142796 70.14243973208232
233.9964329818358 163.39552722581035 55.94025777144721
240.74513054820008 176.95350046804396 60.081007254670055
244.88126994072013 166.91918464291842 74.16685897514392
230.99891193835532 166.87338676869 58.454996302228444
243.30054324266447 175.2414196974432 60.48910638149511
232.8398995158794 163.7653551735352 59.39286804608422
240.87417112689698 174.2136433190297 52.61840077984561
241.25734839261364 172.8170456785434 74.54856281264622
232.43433979632664 177.50710117645903 58.81377015002276
236.64117361810028 165.79876749491444 75.77852632849756
243.48662221750962 162.16382419749436 62.77347316993412
232.99325554191284 170.51481257794143 74.83454474870037
235.73653336888472 161.73638260061747 64.24981256021263
230.59838343169798 168.4535967218347 66.44240329370594
231.27507691277293 166.25199998475097 66.54519962965934
236.38959527705475 161.93932425828677 70.16929404808361
243.35871904300137 164.0549976054444 54.1594920223391
234.8478169680555 166.65498165675598 75.81851482269873
231.05368190218957 168.44142611452438 53.735388031988265
241.03723491664022 175.70555282110092 55.94731882761634
231.65137393185893 169.05918045576905 72.7678700501905
241.07204395696766 161.28768461490455 61.066026201210526
236.10457653119542 173.61434135730653 74.55333128842513
245.4770668637755 164.51433154657536 68.29306206929729
235.23659933127246 177.46675065884338 69.9723490032316
241.2670154646471 174.92006542164148 70.93358136302054
246.74876469324164 168.31477629539432 70.78093857697962
240.35444005885572 177.30273187911484 63.82595998292316
230.97432834319207 167.53738352319832 68.5190499924963
236.02464957897854 162.54722914248904 54.814099881563166
233.67384601902955 166.27952404746762 51.21204233283062
233.39840272650127 164.574727583385 71.44828334450419
232.689290095345 173.93483948074368 72.18660707870121
236.76199195446992 171.12521910315314 47.719914493172084
237.3250147013904 174.79396243462742 72.9249100400347
230.0313352478354 170.58086822462354 69.4940132613084
231.3103464630015 166.92461934357516 55.88502599636985
240.22479986442744 166.56541281982652 49.37077640134585
244.28664241787837 165.87829906492718 52.699784296440704
236.20847582423545 178.05691091653173 68.67344905571204
239.21934912274529 178.31131523614025 61.54544345889145
239.09798536596102 173.50876149490497 73.67400946760614
232.29308424104875 168.18404820545643 51.661823427019236
232.77834037614494 164.29903744053786 66.44252349041857
243.12432312434322 165.46694227918604 74.77470543145982
242.40019719593565 175.7628607045319 58.32774691498611
234.2014192165794 164.295757821173 53.2292447779264
229.36711428813757 170.33097405167837 59.36354616429469
230.336548021237 168.36262478696324 57.293287722774494
232.49883002183964 164.76841906418485 57.654725267634284
242.17160306874172 174.9171073435739 69.04627565175171
230.333471287482 170.48077738882853 54.0783346850828
243.72983128125065 166.83185524720852 51.12542464633453
239.7840852877827 162.1405273512861 54.447273188296265
239.71612907063698 161.50118459593148 57.030147320360534
235.5674142494006 174.48409556817123 50.4983916992202
241.03762544604177 161.2731360524884 64.27214224445251
239.98422887557842 177.3602519100788 66.67002076971441
236.81322706165489 161.71918734686287 57.237198075861095
230.56301235379635 167.26177808306983 64.53692817003716
243.04379828757777 161.87404788463405 60.64174311246587
242.06396919244636 172.71323501815576 50.76280031048532
238.10625885352792 178.3232548742181 68.32789313762918
236.3922524890077 166.86327574244203 48.967198301323435
231.8442752043273 169.67625516907768 50.273249831818795
241.55688409450033 162.28196587119027 71.64963967732945
241.23705314646193 170.50281128099067 49.12082792405232
247.57820252397048 169.00370482146786 62.02442358597901
232.61060738883256 171.0862807212565 48.726859397836385
230.46265876508357 169.25840197180645 55.71669389068935
230.50790725784097 167.46741373645563 60.61581761912208
229.91687370672764 169.4167229244375 64.57876357373512
233.68671968371288 177.30634562751297 56.99307017295528
229.81072382148568 170.94401420588397 55.722363503322306
240.12795582235222 170.41493926515898 75.48819571189617
245.32508496546515 168.33328171985096 74.39955274163732
230.16136763829675 168.43231689000703 62.62704687518782
239.23658742452804 174.98674206794695 71.7272000817911
247.58240473362605 168.9444432198187 59.95219261151873
239.1853988130991 175.725126591678 53.975635998179484
232.73738595686055 176.8963810384587 66.9330964798783
246.74022632545012 170.67375977035442 67.7838015726224
246.55867592291648 172.460940948507 60.20227236681488
243.39925479444562 162.41165221017516 65.73202895658584
236.53608601040867 163.3164833657308 52.34895137434307
246.07952640081697 167.9381910350313 72.55651587963965
244.0238801585516 163.417456845468 56.591964887565425
238.08315338413303 162.10797923101154 55.42747078458645
231.2397715394146 171.6255928483754 50.65001842145478
239.47707921967358 162.5494581486043 52.96191953297974
242.21339307500614 166.735617105208 76.0360756477309
247.58163906956804 170.83493633291707 59.603435304665055
238.34694124842855 166.68986468149038 48.752766209667136
235.75329979514044 164.9948520540719 50.7391385899029
231.11202902306925 170.04015209602906 52.14985412124203
245.15680385764205 164.1715978448206 65.68656592912714
230.51267779522186 170.97781858332306 71.19378383436086
233.40972642144118 163.33219123826507 63.949830331087185
231.77348872428635 165.27184415766268 64.4135904970709
244.96815743732787 165.33427117371613 72.31244633918124
229.68339070805195 170.28629360846838 57.51601531483378
238.08607971472682 178.68595145316183 65.95084966883158
233.59852469481604 167.95639256939754 74.94774133983613
229.7406707694283 172.24217412680252 69.66781908099996
231.2094981405163 175.94735688580064 68.50812861940524
232.1383489385303 165.30133832727887 68.80036572727305
232.70411487220068 165.03018799584825 55.17766559322015
230.14270525976593 168.82386619092892 59.01561425374385
234.92011027595692 173.0275309481089 48.86359666179136
229.8243216111749 169.54286140941767 60.83646022188852
242.73996222231702 174.24126808617734 54.51692595764173
234.48981103963365 162.65825706238124 58.51059273042121
236.3120978681196 175.59617189249266 52.44448261065196
231.38531880829822 173.65365438053982 51.5508407302811
235.98393796618208 168.9671428604815 47.99419656279323
241.73944356094108 176.04972283883188 61.906554896650256
244.22249464313342 174.1520222802101 65.3121867241044
233.67449986179562 168.22405606486933 49.12077986728852
236.51767916180788 176.95804459050845 71.91255377430672
230.57774895732118 172.02759985553539 52.71160410815455
238.3204009276195 161.5153885385838 70.3460486554769
243.36520391497277 162.6743355813041 68.41259322089442
233.4604941139885 163.25074257241795 61.19869143653835
231.70362753783476 175.16875798075915 70.59846020365899
234.7870992334575 163.04978659431058 70.84384507212292
236.7448841755596 178.68120607113482 61.964814790703706
241.17022645002285 163.80661322108548 74.4952266213207
247.23200610177315 168.77259843293908 67.41861332229779
232.1922110451225 166.29795741876472 53.33379880750304
235.75417785636688 161.6740836272112 61.1305689843819
233.66011921761105 174.7762029686977 51.103645722344126
241.8747732511726 162.50218051534256 55.49431927474096
234.58975949715852 177.54067698111555 65.8947247104744
POLYGONS 646 2584
3 9 1 3
3 27 1 9
3 0 3 1
3 0 2 305
3 10 27 9
3 7 6 2
3 2 0 7
3 1 8 7
3 0 1 7
3 8 16 15
3 16 8 27
3 8 1 27
3 18 19 17
3 18 17 22
3 22 10 18
3 22 27 10
3 13 25 24
3 16 26 132
3 27 26 16
3 17 31 22
3 33 25 132
3 35 36 34
3 35 34 33
3 132 35 33
3 132 26 35
3 26 27 37
3 36 26 37
3 36 35 26
3 36 37 31
3 34 42 41
3 34 36 42
3 43 42 36
3 36 31 43
3 295 48 38
3 166 46 295
3 28 43 31
3 47 41 42
3 295 46 48
3 47 48 46
3 45 49 43
3 47 49 48
3 47 42 49
3 31 17 28
3 45 29 44
3 43 28 45
3 25 92 24
3 25 33 92
3 33 34 32
3 7 8 6
3 6 8 15
3 49 42 43
3 3 311 243
3 2 322 305
3 305 322 4
3 32 92 33
3 322 300 4
3 9 292 10
3 181 39 38
3 272 324 32
3 13 200 25
3 15 16 200
3 311 0 305
3 4 280 305
3 311 305 280
3 45 44 49
3 44 48 49
3 44 38 48
3 45 28 29
3 18 301 19
3 19 301 268
3 3 265 9
3 265 292 9
3 264 6 15
3 19 263 29
3 262 268 301
3 243 210 261
3 261 210 228
3 260 280 4
3 3 243 265
3 311 280 286
3 280 260 256
3 256 260 309
3 263 19 268
3 260 4 300
3 263 268 251
3 29 28 19
3 28 17 19
3 5 247 304
3 304 247 322
3 5 300 247
3 247 300 322
3 195 262 299
3 299 262 301
3 286 243 311
3 286 210 243
3 195 240 228
3 195 299 240
3 10 239 18
3 10 292 239
3 239 292 299
3 320 238 298
3 29 263 181
3 181 263 205
3 290 289 235
3 286 256 234
3 234 256 309
3 292 240 299
3 301 18 239
3 239 299 301
3 256 286 280
3 298 228 320
3 228 210 320
3 227 288 295
3 39 181 205
3 261 228 240
3 240 292 261
3 320 234 222
3 222 234 309
3 212 137 288
3 286 234 210
3 210 234 320
3 297 220 206
3 206 220 205
3 27 22 37
3 22 31 37
3 205 263 251
3 303 321 314
3 238 320 222
3 222 285 238
3 205 220 39
3 288 166 295
3 288 137 166
3 20 197 314
3 314 197 303
3 20 241 197
3 197 241 303
3 212 294 203
3 203 137 212
3 241 20 195
3 195 20 262
3 12 232 193
3 298 192 241
3 241 192 303
3 243 261 265
3 265 261 292
3 288 227 191
3 191 227 39
3 212 288 191
3 191 176 212
3 300 187 260
3 260 187 309
3 300 225 187
3 235 297 206
3 206 290 235
3 39 227 38
3 38 227 295
3 290 251 185
3 185 251 268
3 290 206 251
3 251 206 205
3 262 20 185
3 185 268 262
3 195 228 241
3 241 228 298
3 221 192 238
3 238 192 298
3 6 182 2
3 2 182 322
3 182 304 322
3 223 179 176
3 294 212 179
3 179 212 176
3 204 177 289
3 289 177 235
3 204 30 177
3 220 297 176
3 176 297 223
3 290 175 289
3 20 314 175
3 175 314 289
3 38 44 181
3 181 44 29
3 0 311 3
3 172 190 308
3 20 175 185
3 185 175 290
3 14 170 12
3 13 24 170
3 46 296 47
3 46 315 296
3 46 166 315
3 166 224 315
3 47 296 41
3 12 165 14
3 165 211 271
3 304 182 171
3 171 182 6
3 249 293 254
3 23 159 324
3 324 159 32
3 23 92 159
3 159 92 32
3 304 158 271
3 14 165 158
3 158 165 271
3 219 156 307
3 156 172 308
3 172 249 167
3 41 296 272
3 272 296 149
3 264 14 171
3 171 6 264
3 224 166 137
3 307 154 219
3 219 154 232
3 307 193 154
3 154 193 232
3 162 310 143
3 310 153 216
3 310 163 153
3 153 163 254
3 171 14 158
3 158 304 171
3 137 152 224
3 214 162 152
3 152 162 224
3 232 164 219
3 23 293 164
3 161 160 324
3 254 293 160
3 41 151 34
3 34 151 32
3 41 272 151
3 151 272 32
3 317 170 24
3 184 196 307
3 315 149 296
3 216 231 161
3 216 153 231
3 231 153 254
3 13 264 200
3 200 264 15
3 264 13 14
3 13 170 14
3 161 149 216
3 164 232 317
3 317 23 164
3 254 188 249
3 249 188 167
3 254 163 188
3 188 163 167
3 224 144 315
3 224 162 144
3 144 162 143
3 216 143 310
3 216 149 143
3 211 141 271
3 302 198 141
3 141 198 271
3 324 160 23
3 23 160 293
3 219 138 249
3 249 138 293
3 219 164 138
3 138 164 293
3 220 176 191
3 191 39 220
3 161 231 160
3 231 254 160
3 203 152 137
3 214 152 135
3 135 152 203
3 315 144 149
3 149 144 143
3 275 142 248
3 237 136 196
3 196 136 307
3 237 193 136
3 136 193 307
3 5 134 300
3 300 134 225
3 5 173 134
3 134 173 225
3 297 131 223
3 297 235 131
3 183 129 294
3 294 129 203
3 183 135 129
3 129 135 203
3 170 128 12
3 12 128 232
3 170 317 128
3 128 317 232
3 214 226 162
3 226 310 162
3 201 124 183
3 211 302 141
3 207 131 30
3 226 233 269
3 21 278 123
3 21 123 120
3 145 214 135
3 140 119 237
3 237 119 211
3 140 302 119
3 119 302 211
3 285 276 238
3 276 221 238
3 321 121 204
3 121 213 248
3 177 30 131
3 131 235 177
3 163 117 167
3 167 117 217
3 163 269 117
3 117 269 217
3 149 161 272
3 161 324 272
3 214 114 226
3 226 114 233
3 214 145 114
3 114 145 233
3 148 169 174
3 123 230 169
3 169 230 174
3 113 126 215
3 196 68 237
3 146 140 68
3 68 140 237
3 204 111 30
3 248 142 111
3 12 110 165
3 165 110 211
3 12 193 110
3 156 308 184
3 184 307 156
3 30 108 207
3 108 142 40
3 273 106 133
3 106 113 180
3 122 21 120
3 190 104 308
3 273 133 104
3 104 133 308
3 168 103 180
3 103 122 259
3 233 102 199
3 199 102 266
3 233 145 102
3 102 145 266
3 140 100 302
3 148 115 100
3 100 115 302
3 226 98 310
3 310 98 163
3 226 269 98
3 98 269 163
3 97 101 291
3 201 96 124
3 124 96 178
3 201 118 96
3 96 118 178
3 178 95 124
3 124 95 266
3 269 94 217
3 269 233 94
3 94 233 199
3 266 105 199
3 107 189 105
3 124 93 183
3 124 266 93
3 93 266 145
3 189 99 130
3 23 317 92
3 92 317 24
3 223 125 91
3 25 200 132
3 132 200 16
3 204 157 321
3 321 157 314
3 204 289 157
3 157 289 314
3 179 223 91
3 91 294 179
3 275 313 142
3 215 101 313
3 217 242 167
3 190 172 242
3 242 172 167
3 213 202 248
3 202 186 168
3 245 323 246
3 278 150 323
3 323 150 246
3 221 276 89
3 89 276 11
3 248 202 275
3 121 248 111
3 111 204 121
3 113 87 126
3 273 99 87
3 101 85 291
3 291 85 126
3 101 215 85
3 85 215 126
3 259 283 109
3 271 84 304
3 304 84 5
3 271 198 84
3 213 121 83
3 83 121 321
3 285 255 82
3 130 80 189
3 199 105 80
3 80 105 189
3 199 80 79
3 79 80 130
3 139 78 229
3 11 82 78
3 78 82 229
3 111 142 108
3 108 30 111
3 104 76 273
3 104 190 76
3 217 79 77
3 77 79 130
3 184 75 196
3 99 273 76
3 76 130 99
3 76 190 77
3 77 130 76
3 94 199 79
3 79 217 94
3 242 217 77
3 77 190 242
3 246 279 245
3 221 89 279
3 279 89 245
3 146 100 140
3 148 100 72
3 72 100 146
3 123 169 120
3 285 70 276
3 276 70 11
3 285 82 70
3 70 82 11
3 250 221 279
3 279 246 250
3 75 69 109
3 109 69 133
3 75 184 69
3 133 69 308
3 308 69 184
3 115 73 302
3 302 73 198
3 115 253 73
3 73 253 198
3 5 155 173
3 198 253 155
3 196 75 68
3 68 75 146
3 133 67 109
3 109 67 259
3 133 106 67
3 67 106 259
3 283 72 146
3 146 274 283
3 283 274 109
3 146 75 274
3 274 75 109
3 211 110 237
3 237 110 193
3 139 229 66
3 207 65 125
3 65 118 125
3 172 112 249
3 249 112 219
3 172 156 112
3 112 156 219
3 84 198 155
3 155 5 84
3 186 88 21
3 21 88 278
3 186 150 88
3 88 150 278
3 173 71 225
3 246 83 250
3 258 71 173
3 258 253 64
3 64 253 115
3 309 86 222
3 222 86 285
3 309 255 86
3 86 255 285
3 40 312 108
3 108 312 207
3 40 65 312
3 312 65 207
3 118 65 74
3 74 65 40
3 207 316 131
3 131 316 223
3 207 125 316
3 316 125 223
3 294 209 183
3 183 209 201
3 294 91 209
3 209 91 201
3 287 168 180
3 213 252 202
3 202 252 186
3 213 150 252
3 252 150 186
3 126 277 291
3 201 63 118
3 118 63 125
3 201 91 63
3 63 91 125
3 215 62 113
3 113 62 180
3 215 287 62
3 62 287 180
3 174 61 148
3 148 61 115
3 174 64 61
3 61 64 115
3 180 60 106
3 106 60 259
3 180 103 60
3 60 103 259
3 97 59 101
3 59 313 101
3 189 277 99
3 120 58 122
3 120 72 58
3 58 72 283
3 275 57 313
3 313 57 215
3 275 287 57
3 57 287 215
3 236 97 291
3 173 147 258
3 258 147 253
3 173 155 147
3 147 155 253
3 122 116 21
3 21 116 186
3 122 103 116
3 183 93 135
3 135 93 145
3 107 55 95
3 95 55 266
3 107 105 55
3 55 105 266
3 66 258 64
3 64 174 66
3 118 318 178
3 118 74 318
3 318 74 97
3 178 282 95
3 95 282 107
3 178 236 282
3 282 236 107
3 11 281 89
3 89 281 245
3 11 81 281
3 281 81 245
3 40 257 74
3 74 257 97
3 40 59 257
3 257 59 97
3 309 306 255
3 225 71 306
3 306 71 255
3 277 194 291
3 107 236 194
3 194 236 291
3 236 178 318
3 318 97 236
3 187 225 306
3 306 309 187
3 139 244 230
3 230 244 174
3 139 66 244
3 244 66 174
3 245 81 323
3 11 78 81
3 81 78 139
3 273 319 106
3 106 319 113
3 273 87 319
3 319 87 113
3 99 218 87
3 87 218 126
3 99 277 218
3 218 277 126
3 313 56 142
3 142 56 40
3 313 59 56
3 56 59 40
3 122 270 259
3 259 270 283
3 122 58 270
3 270 58 283
3 229 54 66
3 66 54 258
3 229 71 54
3 54 71 258
3 120 53 72
3 72 53 148
3 120 169 53
3 53 169 148
3 186 116 168
3 168 116 103
3 278 208 123
3 123 208 230
3 107 267 189
3 189 267 277
3 107 194 267
3 267 194 277
3 255 284 82
3 82 284 229
3 255 71 284
3 284 71 229
3 323 81 208
3 208 278 323
3 168 127 202
3 202 127 275
3 168 287 127
3 127 287 275
3 230 90 139
3 139 90 81
3 230 208 90
3 90 208 81
3 221 52 192
3 192 52 303
3 221 250 52
3 52 250 303
3 213 51 150
3 150 51 246
3 213 83 51
3 51 83 246
3 250 50 303
3 303 50 321
3 250 83 50
3 50 83 321
