# vtk DataFile Version 3.0
A great-looking cell
ASCII
DATASET POLYDATA
POINTS 489 double
174.14461796824025 83.64827772243213 57.82805681400837
176.0449583873074 81.86726724718827 57.7016649266255
177.76380767403094 80.35527061195356 57.69581508317807
176.40995005558977 83.9129809924509 57.61338092562108
178.2980747934603 82.68313568884663 57.950792276654006
177.39331498808966 78.5492800995911 58.50377772363889
179.58246371545204 78.80381402441975 58.18267863207573
181.72217804797882 78.62140279879945 58.68093155052342
172.03540888691055 82.22102666943778 58.35993745990059
172.40388202354444 80.3425839639176 58.9269597181948
173.96349638424113 81.04992883994551 58.042882022178425
173.84314061505964 79.10398882692631 59.16919204873677
175.7464602857355 79.65424028380659 58.255075458952724
179.51909706925878 80.93804243412413 57.99226663272242
181.33668624352222 80.44036407210535 58.152446588966164
170.19079514156957 83.01071555565105 59.23771875450241
180.55888813835227 82.3959419352797 58.36433692165253
181.30946503997214 83.455195328901 59.81701954108208
175.51006510439265 86.03494116378168 58.22829714388567
173.66921010127825 78.02938467747347 61.033455947445866
175.04106544968417 77.04642824685143 61.83112638275555
175.81288487172904 77.8015578455492 59.95855597612583
176.9335124193114 75.91027893392899 61.80656124910113
178.33554697586226 76.93466449590272 59.61105256600755
180.81974422231121 77.01657645527591 59.51826185768914
182.21071709424683 75.82852893348043 60.63317874432
183.0300815652816 77.66541756984341 59.893432255846804
170.7979114835559 79.50875167293707 61.37656019597386
172.07635400831467 79.13935372962725 60.24949248134578
171.97378290355326 78.41247072386024 62.09536446145703
183.12957248343295 79.87902682275741 59.39113895325198
184.8915383387745 79.0709325115794 61.276873565163704
170.70808646398433 80.85214243645139 59.90417898892695
182.34739331129262 81.90341980114547 59.301387886119464
183.92490637745678 81.53933968006783 60.75672601259405
182.84783334846847 83.12002373334224 60.54622412602827
179.70162054278106 84.12779834485379 58.989425243563765
171.76953763854604 84.81018421624057 58.53029671358039
177.36307990369937 86.60766373842014 59.53100553348072
177.81867599894684 84.9564970085581 58.525570069142695
176.58653831278866 75.22760825251255 64.46935735569767
178.41169618555347 74.64571055794204 63.23069327861567
178.6002491856078 73.97711600324206 65.2229780688072
179.89063056916342 75.1791054614348 61.311135464259145
182.3264588391546 75.09136164266197 62.65284388687497
175.42598919283165 76.50084770208413 63.28846230595326
174.78971826208868 76.608696315628 65.01819573771279
173.60455126283742 77.44246461504436 63.25344170781131
184.3135386942975 75.76736676175814 63.98624881346853
183.92710791640008 76.60190451549505 61.75761460920652
185.16392099056958 77.5445822395811 63.18207209511702
170.33536202762454 78.98930943074986 63.03725898410188
169.31510414187426 80.63336508295382 61.90274328137756
171.76452758806886 78.17249391318427 63.880475384837894
185.8538188292587 79.39496359849979 63.83788192160977
185.18137577031146 81.35487034496984 62.68853900188656
168.88753847165967 83.68306929507895 60.52885519206042
185.03789160397895 82.81747581069878 63.929721429640146
183.71056935076055 83.30820953699052 62.399270012235874
181.8138027903981 84.28953713572123 61.44102026986361
180.38150873318392 84.63838145899663 60.50968461971464
169.9051700184379 84.79211868156067 59.60828160289739
170.70731829644282 86.4767560054732 60.094980162826445
175.67655324809274 88.12205906786797 60.38247009546767
178.13142589119067 87.24022955855864 61.366694880621694
180.01402897545017 85.59893538210413 62.23875490120131
179.0217385766846 85.66068415434361 60.09892053361804
173.07529395210994 87.26735739521509 59.23894302426665
178.9830855334594 73.77124539530367 67.3896461672325
180.7044525482022 73.78337251031778 66.10538737203012
182.52278538550158 74.28007378348201 67.19139105745286
174.35849148898345 76.63799169837152 67.0500493451194
175.772649594613 75.77299673213072 66.3110938355299
182.5438303876413 74.52992589752252 65.00103940332481
184.35456071465143 75.42355605026631 66.51619077205164
171.13946855600332 77.79687518673815 67.10399010713894
172.67154428172046 77.54762797690286 65.66999723833845
185.86381679908743 76.4586247168917 67.34228461527734
185.73407336176422 77.37702897000932 65.46120674791811
186.54629086416793 78.08907834698218 67.62926511311164
170.23104374000644 78.45771266445252 65.34370483439317
168.0623362717677 79.64337177633685 66.50003525139
168.68196486809893 79.87531711107151 64.05158169709831
168.19747017492853 82.44413795754566 61.802141506768805
167.1594067834012 81.21262529268589 64.84170923383317
186.01552632987494 81.44631989051392 64.76998809177125
186.36475017636587 79.7210841818055 66.18571258279655
167.43783426313362 84.82639708571494 63.50235544638453
185.3402531412011 83.12341927017145 65.66801711314638
168.50483099667363 85.97550864674845 62.776086438413685
182.04268802997726 84.70656200878119 63.5277247464023
183.8391668702026 83.99637734176041 64.61525872123072
169.10872464139783 85.46872393642981 61.01590986113824
175.75290924989085 89.54608342006017 64.39673745591139
176.800502937047 88.62086764856099 62.87691836880058
178.76766910941558 87.36497206078647 63.7283834272902
180.55566197143835 86.0532036912902 64.7247454397757
169.76030042886708 86.98318308878599 61.81363756793305
174.2601022572905 89.18788209985227 62.69198451858677
171.6992212362793 88.31011130220344 61.705151384648204
177.1296864457371 74.6186595492753 66.72577925286703
175.86212010248025 75.59444547431754 68.27993516558104
177.51941511190194 74.23896170059096 68.74438341825822
179.31243599715904 73.59435047422701 69.40091232640248
180.89657737657632 73.67596959080288 68.21816595970769
181.13913395471332 73.35551039413619 70.18029120920926
182.6278250052498 73.98195142783459 69.12702160575962
175.1986671434326 75.81037368954483 69.92451398091092
174.18619303657013 76.58448313151904 68.99993872102254
183.8702193407195 74.62574589344233 68.23336520307018
184.37023999919373 74.38078117304543 69.89319200956358
185.40778600557096 75.21786851618162 68.4827236517278
172.6470240715713 77.31255440577563 67.98546321463057
170.82920143444764 78.05628849302174 69.14356585912984
186.69336008495486 76.57427771464933 68.89611761811874
187.16940127964048 78.18650848193403 69.29782184923125
169.54132245592658 78.30131507336175 67.4270256647721
168.49373307034813 79.35427914833551 69.06813392308666
166.37418938159564 81.51892290327474 67.06306300637434
166.40342544879505 83.26134289633107 68.78860218719379
187.01020650639438 80.2978291709103 68.73643444490476
166.54504533940434 85.05245546570687 68.1122982702473
186.23818266971185 81.75303086183126 66.86263344504916
186.48518247890757 82.34485176045155 68.4361582525016
185.54076531675423 83.38288737173737 67.5315153237133
166.12608882974325 83.85196340272648 66.77426754298985
167.69128458614537 86.46242215840326 68.15480038707643
184.12382567793975 84.33445287683053 66.62636244704748
182.76268747826896 85.27661300889196 67.82630936814495
182.37537690259083 85.08289820090639 65.72452971885411
169.12693825143825 87.56034217682378 68.06041200617157
168.56860830189535 87.13214585692486 66.33384163057895
177.80395170371506 88.64778170427384 67.5564469414749
175.61680715769654 89.74196199617792 66.64876416562319
177.4789637038591 88.78729258621192 65.18843002410794
179.18908005718646 87.39231804774562 66.1099420705493
180.9852606018867 86.23341683973689 67.00613097070054
170.69453041575983 88.41751587814406 66.79070288709381
169.7810904795825 87.58325646167118 64.0390731201973
173.02897237781934 89.76340216098075 66.7050821544
172.16066898311507 89.07818944939311 64.43491029140168
174.13436063874198 89.79325059791942 64.92404875944767
175.20480669433417 75.25723662258281 71.35196934418406
176.37676582587443 74.8287441293757 70.13608881674647
176.51550724300878 74.1638959004826 71.85244034025717
177.83241213086154 73.73837834334002 70.62004199075562
178.0507615844104 73.2772950816628 72.45629241817309
179.55654236403956 73.13141432964436 71.30689446470846
181.38603750012012 72.79249832283136 72.1404155689203
183.32845161317093 72.79981740179473 72.99159768120728
183.01874057003604 73.39503232778995 71.00062384114607
184.99850114285837 73.93328863992305 71.97572371047661
172.78714337782924 77.0488688447912 71.76623526795721
174.07599608411405 76.39541053872236 70.7629791742514
186.48687560696064 74.53759080153007 72.05518746057356
186.26045679029855 75.20642222942924 70.56435836523123
187.615680166278 75.62772733793851 72.40791698616115
172.67005725600026 77.1905911636932 69.94157351459293
171.56107710837213 77.88386369066251 70.99590968598291
188.53312779740622 77.72124837048315 72.30414605138601
187.49103043734823 77.00176251474836 70.63434094249871
170.11234967774087 79.25403014710872 71.36087685593208
188.6398351662626 79.81466540127886 72.45432969806758
187.98456167476093 78.98650081943282 70.64537591393831
167.14458092787783 81.24564027049979 69.2105051727327
168.37066713267495 80.93455096077477 70.9995402978789
188.24278996851515 81.43868916059184 72.61969290442558
187.82155470124326 80.9356977407128 71.00328276585792
167.47831178284383 82.8731013709297 70.61968941124091
186.9444702073473 82.31347049595747 70.0139407211131
186.38848953330876 83.79837129826345 71.02771035345918
187.56123575658088 82.62734310274101 71.77008567706748
186.04320102532554 83.73595071219744 69.23640455841465
167.46836732615324 85.08629094849235 69.94281646440744
168.91149530055324 85.92841786969197 71.59510854726405
184.51916457233654 84.5923220526481 68.5308348833892
183.37973999975623 85.62705244443728 69.73999057567598
185.01152662576317 84.81412460141651 70.34875489864578
168.666876374965 87.10350116537553 69.81559557847493
170.24638237347864 87.55210797261343 71.16196471417106
170.2944298454199 88.25178946526857 69.202404366787
171.58249170144626 88.53039103244585 70.4431320988269
176.55362476903312 88.98401304304748 71.10691774620702
176.35222622284294 89.54673735983921 69.0952143454582
178.092492757405 88.33858307880685 69.86361733180428
179.55936652746243 87.2949041753331 68.45412803838302
181.49811548273456 86.35387265402323 69.19005185761884
173.29962717225257 89.03332900760029 70.52108183226929
172.06337987251993 89.26288990404431 68.77654405103647
175.0323767061415 89.66905722741997 70.50481262920631
174.19845879709786 89.90997728060064 68.75153344684115
176.5743142694376 73.4749637429531 73.59396281988654
175.11895550331363 74.52901313245573 72.99856638612
178.1715828834904 72.71598565937809 74.22207610961406
179.70173020246605 72.58921585639368 73.1838501285049
179.64268943356444 72.27780056776281 74.81060625592224
181.52982970464922 72.25515271960853 74.39384463404596
183.77346200642282 72.45340796871864 74.99506648491167
185.7833050716926 73.23254134466912 75.60597624548093
184.90107124947411 73.27285169983897 73.81843878692908
174.09036715484 76.00084194965882 72.50751853424616
173.84658013440034 75.23071296450873 74.23366914532116
186.5112141856105 74.16628987869812 73.58859826904164
187.54957411561048 73.93779441227792 75.20149615486916
188.99570583717144 75.1052477242294 75.96726360534987
188.03934732075734 74.96899116073787 74.18309478171766
172.76718382110087 76.74908517377904 73.63628414069427
171.5287775675753 78.03704422668332 72.74924952285765
189.92142767677944 77.36865337589373 75.93411035457761
189.04555416332374 76.4613961934038 74.02409238933227
170.33826605139782 79.26574246353314 73.74418012447431
189.92653825257193 79.6857203502936 76.1161469014083
189.2547341768871 78.67983134029988 74.16917737291391
169.21109693348095 80.76823528206903 72.97355020793943
189.75125082008046 81.60482141494151 76.24110453813323
189.0725301055747 81.02318494992498 74.32258547106167
168.6471652274134 82.61112940859289 72.29193500791641
188.1994422084713 82.8187541790016 73.51499018405521
187.7354280398932 84.43321151412464 74.52849776796594
188.8631700296358 82.99054118567983 75.38446181171936
187.01937123241427 84.09033800831415 72.75964638261219
168.17536418885138 84.2327394459845 71.67950584417403
185.55485400143237 85.0483493240314 72.11372962586331
184.48777823252942 86.0323318229684 73.2755911589395
186.10257064262944 85.29820876176656 73.89822355178522
184.03286390000983 85.88499252676931 71.50953549756014
169.4509972016231 84.42731731365106 73.22040593682478
171.9952012448218 86.80260271381961 74.38693090479106
170.49768483689684 86.44290136226682 72.98409119152716
173.8212140388701 87.71534487695222 74.14054157588895
172.2221210978861 88.03941712635724 72.3713235863964
175.80849739261365 87.97518766641454 74.00811757312763
174.76853483240532 88.52187726340588 72.1712833114599
177.64515503359286 88.00865598513191 73.81019660448413
176.5949740913116 88.54913569060342 72.68111845702278
179.44916925730368 87.40605983030481 73.30119764555292
178.05120648145575 88.05933567269125 71.95633250310489
181.43950022460206 86.93393541791804 72.91129131454973
179.99039825303936 87.12418153781083 70.98148538942147
183.0755706525826 86.51441657497028 72.65647241470872
182.26016055502953 86.47439337885763 71.15121571711369
176.79057316354377 73.04467366161117 75.44382142286308
175.3766363894385 73.47722595093352 76.72923721497558
175.12647411464604 73.85274316512809 74.80693442418331
177.0705435923865 72.5784435797467 77.34119890980139
178.48187301335287 72.32473580696575 75.9966443815289
178.99347766247766 72.00820903087404 77.91695961405435
180.3879401626528 71.99459739411948 76.33993860936597
181.285737154636 71.67607042357443 78.48536360750245
182.42573901671213 72.02790947001284 76.51406369849825
183.18853904398435 72.00276860854797 78.06202237040098
184.31852375079038 72.35836174721024 76.88183445418485
184.70610778996783 72.29813593784252 78.68972384292145
186.70982486867547 72.71266074498715 79.31452072107778
185.87639743807517 72.68195463555818 77.50473119548026
174.04824750625679 74.804759124363 76.14064387050247
187.7106479241591 73.32951927014801 77.1286617120255
188.58003805655085 73.41874803781963 79.02717341007825
190.05167809151013 74.72069441852173 79.99884689675561
189.3855742296526 74.31348903920141 77.89910584257684
172.90302742441904 76.32212036451611 75.58246969956181
171.93764390596021 77.23057762799166 77.0094808808168
171.50702640102284 77.91842503024768 74.99067560700026
190.5715643790507 77.22848578210487 79.87147879344505
190.12824203573314 76.1308787629679 77.88324550207973
170.70565396327098 79.50829342434172 75.38557560073859
171.17544647472704 78.93071777563898 76.81557371666413
170.68530809240946 80.67217761681204 76.51559845156528
190.72784352854555 79.25655636002855 79.7810441961443
190.25484046912737 78.43674996166965 77.98666986009745
169.6034402942797 82.46099394421867 74.00983479074807
169.88491904723102 80.7845307328952 74.84358413586412
170.38557579879983 82.37708507743169 75.78263678393803
190.87513544449885 81.08284101496584 81.19154751804068
190.33166181958092 80.94911911644446 78.31627445120111
170.16262365281506 83.78911395662078 74.8864946733493
171.1341291745439 84.22654329451395 76.46113111257141
189.77511887344394 83.22255243536748 77.34090651295973
189.0969784976379 85.07774696928925 78.5946385392399
188.4249066591692 84.74931526498555 76.4550085767153
170.77024031001238 85.30700526458128 74.68247845876576
186.70799403643565 85.68014346248646 75.72791778849181
185.38882924824108 86.58840491166424 76.95152932763602
187.32287796754832 86.18103488910205 77.68119448456115
184.94301641690942 86.25229974577609 75.07911671945749
171.918393526719 85.78059726021223 75.8186929329418
174.34120361391055 86.80723430332472 77.42774755863026
173.26637281795365 86.75423831270332 75.86724125735763
176.1719788956326 87.40667539782473 77.32226106263649
175.06142864517696 87.39596378611509 75.71867829161391
178.12587039560964 87.47822986225268 77.10476978735485
176.94600965725434 87.75020875748372 75.55394994219243
180.09959665584253 87.21885527236331 76.82280198337943
178.8757589315198 87.62849159248292 75.25662380645907
182.10973548883965 86.9518690966142 76.52250310047343
180.81038836657814 87.07465901126754 74.88887206795589
183.7984877316311 86.65349788274702 76.25625287098006
182.95329583058697 86.63091527625494 74.51283799080488
177.4508204905411 72.34618419706575 79.35105145445745
175.9820587058916 72.91543497753139 80.71144088873993
175.66735463335 73.16521480602341 78.7026967798508
179.40361279798043 71.7675562383947 80.04377613000446
181.41719085252097 71.48548325337151 80.90577296893086
183.18106387567195 71.76320382878241 79.75141616320158
183.3580771924518 71.76275528232884 81.83465969279462
185.01709951079712 72.02170197076853 80.59031865877704
185.3026745934297 72.08648376354928 82.65977596565746
187.49431992858234 72.88889340397638 83.33946417301823
186.5806681949768 72.55357379701769 81.36835916518069
174.05620618926503 74.22610652756724 78.05071335697352
174.3718670665067 74.00738560954721 80.05678540038467
173.28743944186135 75.56766027192572 79.33571817247216
188.35984807258447 73.10465321686678 80.93833154715382
189.67636072222655 74.18601222989928 82.61151539437684
190.45627444685348 75.74905898070615 84.25119055063574
173.0191176252454 75.76022969286157 77.44801189923322
172.34223468764935 76.75874562249876 78.6023586572345
190.72642951953625 77.81857102919889 83.71651944422665
190.58362510243452 76.3371651136226 82.0157645967905
171.64630217044083 78.29118733660725 78.60605847950423
191.08166163344345 79.94250154160483 83.45050047006261
190.92935227954558 78.59572767760642 81.6623127754616
171.19706295630553 80.1834365386131 78.29037602336548
171.42354986673075 81.35604237824582 79.60886473561375
191.15071322520708 81.89749453315416 83.35034223566866
171.1378858108408 82.29442653632579 77.84809573466113
171.73124150623997 84.09836782999366 78.30180925128009
171.7510545191421 83.09817962258877 79.87627390209518
190.4457714337928 83.31849135156686 79.68075290097917
190.93349240124277 83.608037780874 82.1768154719847
189.5798858624615 85.36001101558264 80.97971302348661
172.73826128831547 85.49716501996495 77.47440433291393
172.64309229627628 84.97984180925363 79.63716480828566
187.7377245371944 86.5189195232359 79.89213694616778
185.87333351176088 86.98403463729024 81.11760334667285
185.73198605837658 86.87160369882966 78.97127647333656
173.78063608420595 86.19088643893848 78.94361689781407
176.4490105763933 87.04128729763251 80.77753057357087
175.37361379845612 86.88122999290802 79.07097286703315
178.50184461330915 87.09865595008054 80.55364795312087
177.31474847944136 87.36456128490249 78.94197329871915
180.50642992992726 86.98389096165823 80.32375684282395
179.3266322502986 87.27038624782995 78.70731600430884
182.5252663800013 87.02864409362046 80.18140460211595
181.35919466197637 87.01019276197569 78.4598305166566
184.3077754516595 87.25142948479763 80.09509285272705
183.60505903818617 86.92729064386434 78.20355018133684
177.8353269006198 72.37997871401052 81.39685104509934
176.48879654888353 73.20934503430904 82.5890071480212
178.21684942889058 72.80384801767919 83.37088587810823
179.6573350760222 71.76228401299558 82.22758277483837
179.83825770012896 71.92112004909318 84.4061598567857
181.61614899728886 71.50211025234773 83.12521619171588
181.83312352798282 71.84829139798877 85.2797852617621
183.58539364155178 71.8680834113862 83.97421948341194
183.7624281878723 72.27637531726378 86.06080975362741
185.53822088223976 72.33725694037696 84.81764824411133
187.2571265470118 73.14841119565607 85.84179293312938
175.03192458086716 74.13402360953783 81.91372280507241
175.83174958331728 74.47689488813452 83.22860333838152
174.84299642015 75.61146426844155 82.96459832286416
189.2280007747568 73.94006798623649 85.04791266886987
189.85984996171422 75.7622291913953 86.4239289705638
173.9220374971663 75.62328734550168 81.24953560256918
173.58138512266976 77.12868929654648 82.68115846317095
190.20911651068204 77.85413522270827 87.27417401315705
190.47262835100776 77.23597518885921 85.43850560663445
171.70644763885468 79.62245316437573 80.2158066444668
172.53028799393817 77.36326436499226 80.49520679941996
172.43679307502376 79.14148988345879 82.37196822609768
190.79068634279795 80.29604678006075 87.6132962303337
190.86322738040968 79.04822227878651 85.4817211637427
191.11380815701406 81.28281045673064 85.31022181942186
171.78706924557133 81.56762665287403 81.7220923972964
190.98891241673167 83.55397587049185 84.65810859798617
189.79277526536876 85.23322261442016 86.16358035706737
190.74399672836344 82.96844581560313 87.21410351057719
189.7724280763684 85.48160195369178 83.55686838314917
172.7820359417289 83.95344066058271 81.87294221376438
174.35743788161113 85.98636529162076 80.92358100490632
174.7027642249179 84.95142399812423 83.11615607222109
183.8537857825795 87.119595640125 84.3508644366013
185.51234184953537 87.10092237001145 85.3067532396381
185.787048947048 87.14891993030827 83.36839506700238
187.7075534042646 86.67074997359872 85.05514606502551
187.85573230122708 86.61936599168206 82.3176017307424
175.8513673307546 86.40786076864093 82.45581072598263
178.97242952630262 86.24042961031475 83.80131307538474
177.70367043641505 86.79796021953084 82.40402198962562
180.799758794098 86.4074885105281 83.56304362226489
179.68631034366896 86.70243332653388 82.09636404556116
182.3824922702878 86.78556212993544 83.44434350585523
181.62790421327327 86.66862201771106 81.92628454771372
183.75438144676892 87.14122095262083 82.07298973259148
178.38571382130698 73.2741687889034 85.46753038775454
178.82423728780373 74.09908468225558 87.8068748691358
180.11518485755434 72.41656569955734 86.54535969942219
182.0753990799078 72.41178665762702 87.28252061767189
183.89819337027927 72.96266455518594 87.99569774264512
185.5970592315673 72.58340616437934 86.9318509124478
185.70357360520887 73.37570598453988 88.74897073022115
187.41641335818184 74.34880400861437 88.98849289174237
186.9476426076077 73.43740418613227 87.58510288854444
176.06521719292158 75.57309476384924 84.28202639695463
176.94074770360535 74.0199973180661 84.21693835261945
177.02406954800497 75.14627001027027 86.13119824764343
188.45466984477284 74.28815580030292 87.21130864113792
189.06486430948542 76.10102738884856 88.88389558079092
175.93809880033749 76.57849481619706 85.48498624416979
174.74291502904597 76.82175174100901 84.35129304234552
189.80111625048434 78.80070854276047 89.69586731615252
173.78407079790568 78.65794450508311 84.2559583107553
172.72952755199995 81.01740397993817 84.25031614900847
174.8334344204621 81.9680637189855 85.07559837444433
188.08066340014855 84.23622268161314 90.76773520092146
189.39395307029721 84.78003402872788 88.7452733269275
173.72699716652272 83.12253436309486 83.7957358488925
176.0689514207151 82.80428211502603 85.90893645168113
175.54766671841406 83.73177966539897 84.62701558952126
184.44445403222795 86.22584085931456 88.91844675949305
183.96133296356965 86.83317626469169 86.51380754116077
186.1931609600198 86.8896913188253 87.1773949665091
187.10143024865928 86.06778034219425 89.41885136665653
188.15578012555864 86.13911837901415 87.36085276127362
177.18444849095334 83.99243991045574 85.67868268602065
176.93172224729142 85.371580416739 83.95885303545202
178.75194957209123 85.06066456102056 85.24727229684436
180.17568862334525 85.81345897908052 84.84780791326719
181.93163426432798 86.3532175604243 85.28511208983568
180.63689773189625 73.07165299763558 88.192412777958
180.3291650024265 74.06266680474062 89.7420710135218
182.19617686759145 73.33662511733093 89.06122273668753
182.21603302070977 74.39428961493971 90.90103548280574
184.0485751724359 73.80105733416319 89.88556612750354
185.95555769908958 74.48899884273378 90.42384016815541
184.27180060588498 74.83445262946579 91.88083929887236
186.37927706726197 75.94147683251835 92.04982216807466
177.4985895747942 75.97034481897728 88.14782069946514
187.57524765986457 75.46159177205486 90.45485503045363
188.22570563312698 77.26590907953526 91.21318160667853
176.4770265565391 77.18573380354744 87.03604862203375
175.21479223739908 78.06230833005412 85.72308106755116
188.42047301374947 79.82483364052287 91.93749873754328
174.60428928136858 80.04619524623998 85.71499994935438
189.8946375499089 82.01892971535707 90.16419085805153
187.31362403106897 82.31200278799923 92.03322185681755
175.9864807402656 81.30146614831958 86.5852980798362
177.215619752806 82.71138852452354 87.149728352681
178.72565579292478 84.07177149152858 87.00489795911614
180.32441365380427 85.30413846592835 86.46521751719675
182.13248446770197 85.89336274721718 87.73681087086715
178.6847400178434 75.71165275530451 89.83307960659899
180.37741778046293 75.52991707853263 91.42346227824508
184.40928128304571 76.90344488325388 93.25193364214098
177.63162460685146 78.28756212457434 89.25969851731854
176.28138517577875 79.28930656218787 87.02662428846857
186.4237744962601 80.44157750635998 93.0763444169263
177.34117367010376 80.85106494823894 88.19910499616965
184.7360857234071 82.06195518770849 93.02486354610264
178.70347537589217 80.7618125470686 90.0558511397501
178.82283591885732 82.56311575514097 88.61749434846139
180.45737538870523 82.7075318525094 90.83448925451954
182.8888552881127 83.16293434623553 91.8603306882334
185.29390950658623 84.38932324687718 91.18114067861404
180.36156651827847 84.37649247890539 88.56367892874103
182.47724053522367 84.720687544667 90.05691695384185
182.25514340686482 75.83626130489661 92.70018085878
180.64739225096503 77.04632729308108 92.61771934729649
186.44752395146475 78.28080576371406 92.71447130279707
179.1566834826847 77.38167425620225 91.35760934140055
178.80055640090512 79.23730024309042 91.22282750713198
179.8098528884525 80.63026122032977 91.76141847170634
181.88147292107357 80.95862425833381 93.05867371045335
182.18703593995906 78.13905112378119 93.48013206281912
180.14020374055895 78.92350869995548 92.66162420803313
184.42910377463923 79.49999255795075 94.05716107473256
167.91645862495704 86.01430155816776 64.64838996807846
167.2075904926193 80.18053668895273 68.009409547807
166.59164590469678 84.50526947504537 64.91893789219665
167.08988856807136 85.61837977531837 66.4681890727916
180.45025783850946 74.14700195494368 63.8035435786947
166.30695270214454 82.76676721224452 65.32876732932074
167.79637943204082 84.33303197933465 61.94691238925064
173.5417997287595 85.58660768441557 58.01808014785004
166.93455190141808 83.00918828710981 63.44515077089797
169.24547390597297 82.01412358884366 60.49474939332769
167.8359592673043 81.2871610944153 63.07871888367077
173.64581923218844 88.4850802997219 60.869499559995795
172.1890260947399 82.6892075952642 83.23635622668128
POLYGONS 974 3896
3 4 2 1
3 1 0 3
3 4 1 3
3 37 0 8
3 39 3 18
3 3 39 4
3 10 11 9
3 10 9 8
3 8 0 10
3 12 11 10
3 0 1 10
3 10 1 12
3 2 5 12
3 1 2 12
3 6 5 2
3 13 6 2
3 2 4 13
3 14 6 13
3 14 7 6
3 14 13 16
3 37 8 15
3 36 4 39
3 17 16 36
3 4 36 16
3 21 22 20
3 21 20 19
3 23 43 22
3 23 22 21
3 5 21 12
3 21 5 23
3 24 43 23
3 5 6 23
3 23 6 24
3 24 25 43
3 26 25 24
3 6 7 24
3 24 7 26
3 28 29 27
3 28 27 32
3 9 32 8
3 32 9 28
3 11 19 28
3 9 11 28
3 21 19 11
3 12 21 11
3 30 31 26
3 7 30 26
3 7 14 30
3 15 8 32
3 14 33 30
3 14 16 33
3 30 33 34
3 30 34 31
3 61 15 56
3 16 17 33
3 35 33 17
3 33 35 34
3 15 61 37
3 62 37 61
3 38 39 18
3 66 39 38
3 39 66 36
3 41 42 40
3 45 46 47
3 20 47 19
3 22 40 45
3 20 22 45
3 41 40 22
3 43 41 22
3 44 43 25
3 49 48 44
3 44 25 49
3 25 26 49
3 49 50 48
3 27 52 32
3 29 53 51
3 27 29 51
3 26 31 49
3 31 54 50
3 49 31 50
3 55 54 31
3 31 34 55
3 56 92 61
3 58 57 55
3 34 58 55
3 59 65 90
3 17 36 60
3 59 17 60
3 59 60 65
3 59 90 58
3 59 58 35
3 91 58 90
3 35 17 59
3 57 58 91
3 97 62 92
3 61 92 62
3 64 63 94
3 18 63 38
3 63 64 38
3 65 66 64
3 38 64 66
3 66 65 60
3 66 60 36
3 37 62 67
3 67 63 18
3 72 101 71
3 72 40 100
3 42 68 100
3 40 42 100
3 69 68 42
3 480 69 42
3 73 69 480
3 480 44 73
3 73 74 70
3 73 70 69
3 76 112 75
3 46 76 47
3 46 40 72
3 74 73 48
3 44 48 73
3 78 77 74
3 74 48 78
3 48 50 78
3 78 79 77
3 80 116 81
3 53 76 80
3 51 53 80
3 53 47 76
3 78 86 79
3 81 84 82
3 54 85 86
3 54 55 85
3 55 57 85
3 88 122 85
3 88 85 57
3 85 122 86
3 88 57 91
3 138 97 89
3 94 93 134
3 95 94 134
3 94 95 64
3 96 65 95
3 64 95 65
3 65 96 90
3 129 90 96
3 90 129 91
3 99 97 138
3 62 97 99
3 62 99 67
3 93 94 98
3 98 94 63
3 100 102 101
3 68 103 102
3 68 102 100
3 104 105 103
3 104 103 68
3 68 69 104
3 106 105 104
3 69 70 104
3 104 70 106
3 101 107 108
3 101 108 71
3 109 110 106
3 70 109 106
3 70 74 109
3 109 111 110
3 109 74 111
3 112 157 113
3 112 113 75
3 77 114 111
3 74 77 111
3 115 114 79
3 77 79 114
3 116 117 81
3 79 120 115
3 118 164 119
3 81 118 84
3 86 120 79
3 121 125 119
3 122 124 123
3 122 88 124
3 122 123 120
3 122 120 86
3 127 128 175
3 127 91 129
3 127 129 128
3 127 175 124
3 127 124 88
3 88 91 127
3 130 131 126
3 134 133 132
3 134 93 133
3 132 135 134
3 134 135 95
3 185 136 135
3 185 135 132
3 95 135 96
3 135 136 96
3 96 136 129
3 128 129 136
3 137 138 131
3 137 131 130
3 139 140 137
3 138 137 140
3 99 138 140
3 99 140 98
3 133 141 139
3 140 139 141
3 98 140 141
3 141 133 93
3 93 98 141
3 143 144 142
3 145 146 144
3 145 144 143
3 102 143 101
3 143 102 145
3 147 146 145
3 102 103 145
3 145 103 147
3 105 148 147
3 103 105 147
3 150 149 148
3 150 148 105
3 105 106 150
3 151 149 150
3 153 200 152
3 107 153 108
3 107 101 143
3 151 150 110
3 106 110 150
3 155 154 151
3 151 110 155
3 110 111 155
3 155 156 154
3 157 153 152
3 157 152 158
3 157 158 113
3 157 108 153
3 111 114 155
3 160 159 156
3 155 114 160
3 155 160 156
3 114 115 160
3 113 161 117
3 163 162 159
3 163 159 160
3 115 163 160
3 115 120 163
3 164 165 168
3 164 168 119
3 161 165 117
3 167 166 162
3 167 162 163
3 120 167 163
3 119 168 173
3 119 173 121
3 168 221 173
3 169 170 171
3 123 124 172
3 169 123 172
3 169 172 170
3 166 167 171
3 169 171 167
3 169 167 120
3 120 123 169
3 174 173 221
3 173 174 178
3 175 176 177
3 175 128 176
3 170 172 177
3 175 177 172
3 175 172 124
3 180 179 181
3 184 182 236
3 132 133 183
3 184 132 183
3 184 183 182
3 238 185 184
3 238 184 236
3 184 185 132
3 238 186 185
3 185 186 136
3 186 128 136
3 176 128 186
3 130 180 137
3 187 188 181
3 180 181 188
3 137 180 188
3 137 188 139
3 189 190 187
3 188 187 190
3 139 188 190
3 139 190 133
3 182 183 189
3 190 189 183
3 190 183 133
3 144 192 142
3 146 193 191
3 144 146 191
3 194 195 193
3 194 193 146
3 146 147 194
3 196 195 194
3 147 148 194
3 194 148 196
3 149 197 196
3 148 149 196
3 199 198 197
3 199 197 149
3 149 151 199
3 200 201 206
3 200 206 152
3 243 201 192
3 202 203 198
3 202 198 199
3 151 202 199
3 151 154 202
3 204 203 205
3 202 205 203
3 202 154 156
3 202 156 205
3 152 206 207
3 152 207 158
3 206 262 207
3 209 208 204
3 209 204 205
3 156 209 205
3 156 159 209
3 262 210 207
3 212 211 208
3 212 208 209
3 159 212 209
3 159 162 212
3 165 216 168
3 161 213 165
3 215 214 211
3 215 211 212
3 162 215 212
3 162 166 215
3 226 216 270
3 168 216 221
3 216 226 221
3 217 218 219
3 171 170 220
3 217 171 220
3 217 220 218
3 214 215 219
3 217 219 215
3 217 215 166
3 166 171 217
3 221 226 174
3 222 223 224
3 177 176 225
3 222 177 225
3 222 225 223
3 218 220 224
3 222 224 220
3 222 220 170
3 170 177 222
3 227 228 280
3 226 280 228
3 174 226 228
3 174 228 179
3 229 230 227
3 228 227 230
3 179 228 230
3 179 230 181
3 231 232 229
3 230 229 232
3 233 234 231
3 232 231 234
3 234 236 182
3 234 182 232
3 235 236 233
3 234 233 236
3 237 238 235
3 236 235 238
3 239 240 237
3 238 237 240
3 238 240 186
3 223 225 239
3 240 239 225
3 240 225 176
3 176 186 240
3 181 230 187
3 187 230 232
3 187 232 189
3 182 189 232
3 241 244 242
3 245 246 244
3 245 244 241
3 191 193 241
3 241 193 245
3 247 248 246
3 247 246 245
3 193 195 245
3 245 195 247
3 249 250 248
3 249 248 247
3 195 196 247
3 247 196 249
3 251 252 250
3 251 250 249
3 196 197 249
3 249 197 251
3 254 253 252
3 254 252 251
3 197 198 251
3 251 198 254
3 201 260 206
3 242 255 243
3 243 255 201
3 256 257 253
3 256 253 254
3 198 256 254
3 198 203 256
3 258 257 259
3 256 259 257
3 256 203 204
3 256 204 259
3 261 260 315
3 206 260 262
3 260 261 262
3 264 263 258
3 264 258 259
3 204 264 259
3 204 208 264
3 265 266 267
3 261 266 262
3 262 265 210
3 269 268 263
3 269 263 264
3 208 269 264
3 208 211 269
3 272 271 267
3 213 210 271
3 213 271 270
3 271 272 270
3 274 273 268
3 274 268 269
3 211 274 269
3 211 214 274
3 270 275 226
3 270 272 275
3 272 276 275
3 277 278 328
3 219 218 279
3 277 219 279
3 277 279 278
3 273 274 328
3 277 328 274
3 277 274 214
3 214 219 277
3 226 275 280
3 275 276 280
3 276 285 280
3 276 331 285
3 281 282 283
3 224 223 284
3 281 224 284
3 281 284 282
3 278 279 283
3 281 283 279
3 281 279 218
3 218 224 281
3 280 285 227
3 286 287 331
3 285 331 287
3 227 285 287
3 227 287 229
3 288 289 286
3 287 286 289
3 229 287 289
3 229 289 231
3 290 291 288
3 289 288 291
3 231 289 291
3 231 291 233
3 292 293 290
3 291 290 293
3 233 291 293
3 233 293 235
3 294 295 292
3 293 292 295
3 235 293 295
3 235 295 237
3 296 297 294
3 295 294 297
3 237 295 297
3 237 297 239
3 282 284 296
3 297 296 284
3 297 284 223
3 223 239 297
3 298 347 299
3 244 300 242
3 301 347 298
3 244 246 298
3 298 246 301
3 248 302 301
3 246 248 301
3 303 304 302
3 303 302 248
3 248 250 303
3 305 306 304
3 305 304 303
3 250 252 303
3 303 252 305
3 308 307 306
3 308 306 305
3 252 253 305
3 305 253 308
3 309 310 311
3 299 310 300
3 242 309 255
3 312 313 307
3 312 307 308
3 253 312 308
3 253 257 312
3 312 257 258
3 312 258 313
3 316 315 311
3 315 316 261
3 318 317 314
3 318 314 313
3 258 318 313
3 258 263 318
3 266 322 267
3 261 319 266
3 321 320 317
3 321 317 318
3 263 321 318
3 263 268 321
3 323 322 367
3 267 322 325
3 267 325 272
3 322 323 325
3 273 324 320
3 273 320 321
3 268 273 321
3 325 323 327
3 325 327 326
3 328 330 329
3 328 278 330
3 324 273 329
3 328 329 273
3 276 326 331
3 326 327 332
3 326 332 331
3 333 334 385
3 283 282 335
3 333 283 335
3 333 335 334
3 333 385 330
3 333 330 278
3 278 283 333
3 379 336 332
3 331 332 336
3 331 336 286
3 337 338 379
3 336 379 338
3 286 336 338
3 286 338 288
3 339 340 337
3 338 337 340
3 288 338 340
3 288 340 290
3 341 342 339
3 340 339 342
3 290 340 342
3 290 342 292
3 343 344 341
3 342 341 344
3 292 342 344
3 292 344 294
3 345 346 343
3 344 343 346
3 294 344 346
3 294 346 296
3 334 335 345
3 346 345 335
3 346 335 282
3 282 296 346
3 347 349 348
3 347 348 299
3 350 351 349
3 350 349 347
3 347 301 350
3 352 353 351
3 352 351 350
3 301 302 350
3 350 302 352
3 354 355 353
3 354 353 352
3 302 304 352
3 352 304 354
3 356 355 354
3 304 306 354
3 354 306 356
3 306 307 356
3 356 307 357
3 358 359 360
3 310 363 311
3 299 358 310
3 307 361 357
3 307 313 361
3 362 361 314
3 361 313 314
3 364 363 360
3 311 363 368
3 311 368 316
3 363 364 368
3 366 365 362
3 366 362 314
3 314 317 366
3 369 368 364
3 319 316 368
3 319 368 367
3 368 369 367
3 371 370 365
3 371 365 366
3 317 371 366
3 317 320 371
3 367 373 323
3 367 369 373
3 369 412 373
3 372 376 370
3 372 370 371
3 320 372 371
3 320 324 372
3 323 373 327
3 327 373 378
3 374 375 376
3 329 330 377
3 374 329 377
3 374 377 375
3 374 376 372
3 374 372 324
3 324 329 374
3 327 378 332
3 332 378 379
3 378 416 380
3 378 380 379
3 383 381 382
3 384 385 383
3 384 383 382
3 383 385 334
3 375 377 384
3 385 384 377
3 385 377 330
3 425 386 380
3 379 380 386
3 379 386 337
3 387 388 425
3 386 425 388
3 337 386 388
3 337 388 339
3 389 390 387
3 388 387 390
3 339 388 390
3 339 390 341
3 391 392 389
3 390 389 392
3 341 390 392
3 341 392 343
3 381 383 393
3 381 393 391
3 392 391 393
3 343 392 393
3 343 393 345
3 393 383 334
3 334 345 393
3 349 404 348
3 396 429 395
3 396 395 394
3 349 351 394
3 394 351 396
3 397 429 396
3 351 353 396
3 396 353 397
3 355 398 397
3 353 355 397
3 399 400 398
3 399 398 355
3 355 356 399
3 402 401 400
3 402 400 399
3 356 357 399
3 399 357 402
3 359 403 360
3 405 404 394
3 359 348 404
3 359 404 403
3 404 405 403
3 406 407 401
3 406 401 402
3 357 406 402
3 357 361 406
3 406 361 362
3 406 362 407
3 405 408 403
3 360 403 409
3 360 409 364
3 403 408 409
3 362 365 407
3 441 409 408
3 364 409 411
3 364 411 369
3 409 441 411
3 365 410 407
3 365 370 410
3 443 411 441
3 369 411 412
3 411 443 412
3 370 444 410
3 370 376 444
3 413 412 443
3 412 413 416
3 376 375 415
3 444 376 415
3 444 415 414
3 417 418 413
3 416 413 418
3 416 418 380
3 382 381 420
3 421 382 420
3 421 420 419
3 422 423 421
3 422 421 419
3 382 421 384
3 421 423 384
3 414 415 422
3 423 422 415
3 423 415 375
3 375 384 423
3 424 425 418
3 424 418 417
3 380 418 425
3 425 424 426
3 425 426 387
3 449 427 426
3 387 426 427
3 387 427 389
3 450 428 449
3 427 449 428
3 389 427 428
3 389 428 391
3 419 420 450
3 428 450 420
3 428 420 381
3 381 391 428
3 429 430 395
3 431 432 430
3 431 430 429
3 429 397 431
3 433 435 432
3 433 432 431
3 397 398 431
3 431 398 433
3 434 435 433
3 398 400 433
3 433 400 434
3 434 436 435
3 400 401 434
3 451 437 395
3 394 395 405
3 395 437 405
3 438 439 436
3 438 436 434
3 401 438 434
3 401 407 438
3 438 407 439
3 405 440 408
3 440 405 437
3 410 442 439
3 407 410 439
3 408 440 441
3 440 455 441
3 441 455 443
3 410 444 442
3 443 446 413
3 444 414 445
3 444 445 442
3 419 465 463
3 419 463 422
3 445 414 463
3 414 422 463
3 417 447 424
3 424 447 448
3 424 448 426
3 464 449 448
3 426 448 449
3 465 450 464
3 449 464 450
3 450 465 419
3 430 451 395
3 453 466 435
3 435 436 453
3 452 469 451
3 436 439 468
3 437 451 454
3 437 454 440
3 454 451 469
3 439 442 468
3 456 475 468
3 442 456 468
3 457 455 454
3 456 445 458
3 445 456 442
3 447 457 460
3 447 460 448
3 460 459 461
3 461 472 462
3 462 463 465
3 462 465 461
3 458 445 463
3 458 463 462
3 460 461 464
3 448 460 464
3 464 461 465
3 452 467 469
3 473 467 466
3 466 467 452
3 453 473 466
3 467 474 469
3 475 453 468
3 470 474 471
3 470 471 459
3 471 461 459
3 461 471 472
3 472 475 458
3 458 475 456
3 458 462 472
3 467 473 474
3 473 453 475
3 474 473 472
3 472 473 475
3 19 29 28
3 47 20 45
3 40 46 45
3 51 82 52
3 52 27 51
3 29 19 47
3 47 53 29
3 58 34 35
3 100 101 72
3 71 112 76
3 46 72 71
3 71 76 46
3 80 81 82
3 82 51 80
3 75 116 80
3 80 76 75
3 112 71 108
3 108 157 112
3 116 75 113
3 113 117 116
3 118 119 125
3 142 200 153
3 107 143 142
3 142 153 107
3 161 113 158
3 117 165 164
3 191 243 192
3 192 144 191
3 200 142 192
3 192 201 200
3 161 158 207
3 207 210 161
3 213 270 216
3 216 165 213
3 213 161 210
3 241 242 243
3 243 191 241
3 255 315 260
3 260 201 255
3 265 267 271
3 271 210 265
3 262 266 265
3 298 299 300
3 300 244 298
3 309 311 315
3 315 255 309
3 309 242 300
3 300 310 309
3 319 367 322
3 322 266 319
3 319 261 316
3 358 360 363
3 363 310 358
3 358 299 348
3 348 359 358
3 404 349 394
3 430 432 452
3 452 451 430
3 432 435 466
3 466 452 432
3 453 436 468
3 440 454 455
3 454 469 470
3 470 459 454
3 459 457 454
3 44 480 43
3 179 180 178
3 178 174 179
3 178 180 130
3 130 126 178
3 446 457 447
3 446 447 417
3 417 413 446
3 3 0 18
3 4 16 13
3 78 50 54
3 54 86 78
3 325 326 276
3 276 272 325
3 455 457 446
3 446 443 455
3 459 460 457
3 470 469 474
3 41 480 42
3 41 43 480
3 471 474 472
3 416 488 412
3 412 488 373
3 416 378 488
3 488 378 373
3 56 482 92
3 56 83 482
3 82 486 52
3 52 486 83
3 82 84 486
3 52 485 32
3 52 83 485
3 485 83 56
3 481 484 84
3 83 486 484
3 484 486 84
3 32 485 15
3 15 485 56
3 92 482 89
3 89 482 87
3 83 484 482
3 482 484 87
3 89 87 476
3 92 89 97
3 84 118 481
3 481 118 125
3 126 479 121
3 121 479 125
3 125 478 481
3 125 479 478
3 478 479 476
3 178 126 173
3 173 126 121
3 117 477 81
3 81 477 118
3 117 164 477
3 477 164 118
3 481 478 484
3 484 478 87
3 476 479 131
3 131 479 126
3 131 138 476
3 476 138 89
3 87 478 476
3 98 487 99
3 99 487 67
3 98 63 487
3 487 63 67
3 37 483 0
3 0 483 18
3 37 67 483
3 483 67 18
