# vtk DataFile Version 3.0
A great-looking cell
ASCII
DATASET POLYDATA
POINTS 723 double
232.892523240984 78.93350011342096 76.11992249227009
234.64723112016117 77.8743066510226 76.82209122348424
234.98041504638172 78.86816438393555 75.19008254258671
236.33049493365576 78.03745231777012 76.25366341623766
230.8091633408106 79.90960485940572 76.59866457219054
230.22028735900523 81.65687493375773 75.64653285117511
233.6902294481953 80.08284557917874 74.44643347540654
235.5556612001572 80.5233504545355 73.90184125788178
237.0684449136604 78.82830673046273 74.55548788658537
230.08378369231383 83.55273621987253 75.0792467260672
231.38930834867682 82.4192438866779 74.38866925158565
233.6409983855983 82.40282294254294 73.86140225797804
236.2931257285235 82.75228005790184 73.16927815442246
237.89840966263537 80.8286387490495 73.74070972822473
238.6124856554009 82.65139196449017 72.99378235319726
239.97990928309846 81.78900101069974 74.49785251445209
239.9441926685648 84.06734079740602 73.8735766866968
230.31638274913738 85.55865409195944 74.89000490832802
233.8587156561878 85.00587738510883 73.77789108746435
235.85445443305653 84.8825895404727 73.32590578485969
237.89043277619788 84.55728803710822 72.95096015499821
241.22464908039174 85.88166516496234 74.72217514852754
233.59663951552645 86.88688997878648 73.99036235910864
235.17383077347878 86.66046577149889 73.74883597959234
237.1290311679307 86.49859937247739 73.43580692464825
238.36417710919332 88.03620186792219 74.16043466756858
239.1967975630036 86.15804636496577 73.72454376219687
232.53963632780813 88.13559067607619 74.38133669121162
234.3181429737922 88.39616176241209 73.83032088197682
236.28803241628833 88.30777450102823 74.08463039953628
234.71410027718142 76.738057089772 80.03461530628823
233.04305099704172 76.83669631752281 80.57489112226096
232.15900562818308 77.55496665397129 79.34008134759797
233.51740267396545 76.96526623997413 79.17237129236598
234.74229883161266 77.19727303291619 78.41262739329642
236.4885271871716 76.9732245198262 79.15814086777455
235.9256001316858 77.42574971889742 77.5939915088645
229.80372739125758 79.40040313247324 78.41882388603634
231.55874654839124 78.55232847404787 77.91970620766119
237.4167321447385 77.57777044861227 77.53353479265692
237.9750000107816 78.0117300943686 76.01128591723152
239.19296217895183 78.02600098271856 77.27933619341097
227.9947786501786 82.36809837883514 78.12542246019932
229.18711756637165 81.08534971047042 77.38585402495876
240.7482063865724 79.00130839851576 77.1558223526706
239.37736724765614 79.39510305977404 75.3843939400195
241.78341877657067 80.04811391597231 78.57282034083299
241.44240313869443 80.7838632810039 76.26674379585143
227.47801607583776 84.09702331086537 77.57485430224858
228.76261773060403 82.84673331911802 76.46850201320845
242.3120806701982 82.21327772657858 77.97023840288398
241.76049977572194 83.45278569531455 75.75789223929036
242.8231545840898 84.05964766634376 77.70169039567
227.64074013801337 86.19493962780554 77.14760684516699
228.56227074421727 84.80717840312568 75.8146600905008
242.35237247496417 85.79877061349897 76.83679381025111
227.4654130390354 88.23684177017167 76.58617820966813
228.78957076888017 86.90803740089294 75.5433978191947
241.29212352099955 87.79776681507981 76.10584079116403
240.17195734391126 87.62442845891393 74.48974570523362
227.21796537641 90.60069691625782 76.36149722729535
228.95328232556145 89.11870759343934 75.24397710925608
230.6212648224879 87.65925338370828 74.71807928531388
239.496157226298 89.05204744072965 75.65326584399426
227.40992256880904 92.81645414284817 75.52392719071491
229.1047337997425 91.42850474570689 74.98861222751154
231.23193005531186 90.00246947129607 74.66986023731535
233.29415006791734 89.6761825254076 74.46624231639517
235.2137685493271 90.41391106092486 74.32151693059993
237.54159721835822 89.86256228042143 74.963629538512
236.88426874269663 91.99725318811419 75.30375394190249
239.50024241700436 93.13268840085796 77.51523978363208
240.04314951758406 91.66405194107048 78.12419194157115
225.65370055580192 96.20230690381676 75.16041146591088
227.25580765635635 94.77435968644085 74.65001733089272
229.1268883245674 93.68378872644358 74.6655075425216
231.02495312281616 92.49492955112332 74.3003739643156
234.85236998344354 92.80172025758614 74.76411597248403
236.35269449308353 94.0544189004199 75.64492787410131
238.08511015074174 93.39146457487567 76.37085220737303
240.88766105418873 93.15282934663642 78.90780825391694
226.14311207905914 98.86274550123723 74.69397173572175
228.94538175957376 95.7039605711177 73.80860490538821
230.90936814407056 94.75698218897155 74.21490594958136
234.52555075678958 94.91373509998276 75.18764860437648
240.09703011721533 94.73157919363722 78.1089155670919
228.6307789008081 97.91818419911688 73.67547899154658
230.74924978796605 96.97832971538693 73.92555695997669
232.58273989506645 98.56009800714666 74.74836080971846
234.45163063149235 97.00286865513806 75.43190786709147
234.99944284443689 99.12325224378701 75.92652965101911
235.95872042793053 97.51961288393024 76.04031558772657
238.08943229221094 97.96841460150723 77.34638600681772
241.03807444545328 97.68020787080962 78.03046611030574
230.42618482077512 98.96672378101394 73.84775184560675
230.9819421278765 100.71150348800207 74.89486726477547
233.2271208485702 100.85763962082116 75.94055001261702
234.735242712044 100.61389170157764 77.15165996144412
236.31104862148499 100.01405770288254 77.30603684456864
237.89551646499217 99.36941601136535 77.6404809485347
228.68140871975496 100.16544701732802 74.1470939424878
234.29950605701663 76.45686250563526 81.78189989293352
236.20755465287263 76.49860873874125 81.22214983376274
232.7396599238016 76.83519200940565 82.05037530641327
237.8189402524078 76.75199019991994 80.4950497571229
238.158702806544 76.75056280330008 82.49882439809743
231.07735633235077 77.40740897078875 81.23327213047861
238.57164063623102 77.17552204614796 78.97506534656083
230.71614079044693 78.22588373982505 79.40042526802193
229.39279404154726 78.88238554836664 80.37776802016529
239.57942650422078 77.06132781290312 80.72204413615114
240.58681846295303 78.06219503555201 79.10458961188804
241.76061724633183 79.1828774189901 80.87751500404278
228.15051039862027 80.77927150892731 79.50251422662387
228.07179094741215 79.91293222572014 81.68656871307324
227.02220452136297 81.38958580655688 81.18813360679155
226.81959099677596 83.25854366703267 79.92251488024098
242.77019206581798 81.57624605590387 80.33652362806231
243.28162557151515 83.9554825175255 81.26314575086084
243.07981216833628 83.43290180215912 79.26218585516126
226.17376873591851 85.33446578487157 80.55017970202688
243.3532602417263 86.04981877002582 81.28808745193426
243.07694876468426 85.55352154186524 79.23434264734229
226.49039170065222 85.52777384432848 78.79049509850965
225.93435460770175 87.05790574194303 80.03581156873015
242.2843053501799 87.76934818343935 78.22694510159025
242.9181711431421 87.66487697800981 80.36820774079577
226.62970481962412 87.55271826468572 78.28061763392978
225.61125827827777 88.98670323661767 79.31385044081561
226.33312411572373 89.25271220478082 77.64834682666282
240.76070142413994 89.77740541695401 77.62946019459254
225.4654303604762 91.11113588612203 78.2032380272609
224.80533370347484 93.40835566546666 77.61496173012837
225.96559390347196 92.31579331453615 76.55431786654731
238.88947298397807 91.26140303125989 76.52211824835769
241.79937462746028 89.39484500262026 79.72381043675539
241.02813425623626 91.20418957211874 79.36345862472045
241.41668801658372 90.7598480102214 81.12177983773375
241.66582687475943 92.11340599060485 82.26643429226002
241.36628340218832 92.50650461795236 80.62866379330073
225.79089961031232 94.10135567615224 75.92463519527625
224.11753547362602 95.38024403488996 76.6183760929385
223.94324209657654 97.65097813329598 75.7937702383206
238.9977633212601 94.60317696606548 77.0585053013573
242.7367002264115 95.3831281963904 80.6947714980843
241.4512180733785 94.95082585232383 79.13788141203429
224.90826817922562 101.17609724721834 76.34770435886166
242.34709961182918 96.5141299840981 78.86005925947762
243.92041978580627 97.44813442364556 79.98451904002522
242.61195584858797 98.359125416784 78.76457323472715
226.974392093814 101.36126010408341 74.91727889532798
230.46719999488568 103.8720468654839 79.30113907107618
233.54452262338393 101.88569193240882 78.09458235232233
231.3074027115343 102.46665747659925 76.8956685429613
235.74577193297364 101.43881122928224 78.263447972064
237.6531397215492 100.97355455777175 78.20676776656114
239.1696420603083 100.2397103204951 78.13053859157489
241.18676734855555 99.99511044258429 78.54540233013168
227.06379388079108 102.92267287153341 76.5322671710153
229.16079393170546 103.48709152996823 77.1315258402551
229.13531108360584 102.47095286952266 75.09244639946039
235.0891550724621 102.76476295285175 79.39848294016556
237.2016881897313 102.62517974157403 79.12913394325103
239.58009693686944 102.0922872299864 78.89425961429552
233.4443597284873 76.25935157936844 83.41745605717377
231.6981962078905 76.6945370289482 83.14319372861193
232.2020767259504 76.16951719204417 84.76565590443732
230.62643736349278 76.88650842675989 84.52964809553342
239.38395971485934 76.88102853084625 84.21367794958371
230.3455148584405 77.38368954327815 83.06404487289775
229.34007662385764 78.02520851113745 84.19137201372511
229.30204628818316 78.39172218486492 82.3361357925138
240.71115776323765 77.80847574176524 82.61518431627341
242.0357071051933 79.44523018945821 84.16165163087479
241.89033516539206 79.14892410860935 82.50536847568401
227.9951723658719 79.23249037023174 83.60294968733761
242.70753075484083 80.43506139495776 82.38038766835429
226.89159354376284 81.08673326403641 83.21759803367954
225.91235242124299 83.11739381730406 83.80005595217786
226.28769799093152 82.56718133578872 81.98455341312125
243.10465168533062 82.21645278448449 82.27966419660595
243.02078130095327 81.74512935355622 84.21014866216439
243.291591292084 83.98056788334665 85.16891513665925
243.37025728684534 83.4577397109815 83.23864649019382
225.66764312145605 85.59580289980794 84.21841261480189
226.01479806839043 84.38078295794934 82.05869832042171
243.49397359080868 85.94675247681852 85.24764272556092
243.47335335428468 85.48511700332962 83.27446563919828
225.83368836789722 86.50206519594678 81.98917359300475
243.21292766751364 87.54482720752924 82.39034974102198
243.35975902525894 87.47747960500728 84.35549711691174
225.3687826016898 88.01210442346803 83.60569547990363
225.3329065946569 88.5557893644654 81.41090227375841
242.33861219972067 89.18128583309453 81.64768833636731
224.7781796943917 90.64741356253738 80.59143367435149
224.48893114606813 90.14653719778632 82.93516039730831
223.96286876223368 92.3962699982698 82.07105280265606
242.6005794499395 89.07267757538477 83.5168914089093
241.81183285096765 90.52894593566934 82.8100805931387
241.9077350332013 90.52037963563228 84.5216592475878
241.95433916515293 92.41252854926385 85.30956317405926
241.73714232348755 91.7796929118658 83.69885336449968
224.38223875360913 92.87107431418895 79.76398020946868
222.960168131683 94.38325742836702 81.06500464453134
223.28296059452342 94.77262397021259 78.7253668233094
241.98987243666906 93.31601063406583 83.53466574580614
222.8303816433105 96.99450113903964 77.82313221256248
222.2687873019591 96.50207239305547 80.0848005059662
222.05123518511596 98.62689696152877 79.22372378128058
244.93234234989094 95.40431570785007 84.26649468100653
223.210650844143 99.4032229764736 77.40144760824595
246.44789211917697 97.38422351977597 83.72250716809934
244.63064188573912 96.37965349199334 82.06212082696362
242.44747309130926 102.72839457778156 79.1406473849606
243.8489250130288 100.12356463411538 79.64292788072939
245.58039300886117 98.72804920227435 81.46021510568299
245.47919158306655 101.40885518469027 81.46933037492956
223.1050900274081 101.64656480703675 78.71836583673445
223.59227830520487 103.73223263914151 79.79295262675333
225.4186573093503 105.141729458332 80.23875022114778
225.25613101502776 103.19810923303847 78.32502194416915
228.1904506620526 105.41269162986205 80.77741456421687
227.5778519762316 104.39882682724117 78.4854614338056
230.35760721473832 104.79913947633347 81.84346002606831
235.42558631106237 104.50144135704294 82.06253337734468
233.00631955779983 103.13527187615435 79.86796199274168
239.16636361514034 105.55936964398033 82.21800908444845
236.35358338152352 104.01849157168591 80.2749351576835
241.45806927542293 104.82773803588366 81.03579491572248
238.79532579291714 104.18922463517491 80.14281982558451
243.9884173899803 103.64719088879656 81.63767227003407
236.01651542072443 76.05145839951874 85.50997844393964
234.09449227903292 75.8773456369869 85.40859118591216
237.62992552399874 76.38988459267401 84.7580633117285
232.47943878348633 75.84910296586732 86.21746883333026
233.44887412589514 75.66831976221908 87.417107851372
231.7581852468545 76.14565049714945 87.51996300810428
237.2585362788161 76.25511277230277 86.75812303757084
239.09570189556825 76.91865001273081 86.11519144754162
231.08872991706863 76.36018778407335 86.05970493743989
230.2650052133517 76.38228688134383 87.32493838946048
229.41636695757063 77.27978986679703 86.09146340370359
240.69738306445444 77.8956685299507 85.13828244036132
240.5711388353644 78.04135774992075 87.51985649231342
241.98848907299404 79.7540461030873 87.83400817975398
241.74321348475866 79.02608029044701 86.16311247095742
228.41901350225777 78.52240544401748 87.17373352685226
228.1865423112967 78.80193348270086 85.48329043112601
242.61638962497528 80.62697995729634 86.09799644754193
227.28122304691973 80.1411370934209 84.93571570065144
227.1187484950057 80.0191000233008 86.95777419129539
226.14971604388896 82.12670672226946 87.66673640066017
243.01736552390327 82.34652009575441 86.1075606951548
242.6185908877942 81.9435663861658 88.00639626756575
242.90165361760464 84.06314558978295 88.63289521944195
243.0507695851993 83.53994524591657 87.0034226129753
226.22967418718565 81.59140487867748 85.42046855847212
225.7157452547156 83.79552148817318 86.03782557976959
243.08880273223042 85.71086076836212 88.88589400900536
243.2063444899956 85.40949398134183 87.07367651000958
225.7733011263864 85.9835018304439 86.61200184318601
243.1880328339331 87.38982355869346 86.29673143290108
243.0662418449123 87.27120249371212 88.24231503506654
225.23159826566157 87.90418475982796 87.23123756184062
225.38329718522792 87.4279081318231 85.44411024312802
242.56152148947834 89.00461331084381 85.39585587105543
224.50791105432668 89.5489520570472 85.54849920116968
242.36092545692682 88.96509521146224 87.35060487062323
241.981125039004 90.63350401247013 86.33681130899812
241.9128379461999 90.8280339419256 88.29055533201809
241.91974888740077 92.20412548648333 87.16167417079139
223.77973138008392 92.01134557675753 84.48420034965207
222.67607652288683 93.8168016087839 85.83691627522792
222.71869129707554 94.0286446124373 83.4533046517793
243.98763718355022 94.37512863572891 88.3077038580314
242.7455631348954 93.75562405465591 86.86929636484656
221.8329082914002 96.1168073313676 82.45201712906022
221.66990191165402 95.76869177895297 84.88765121901363
220.76015753517729 97.96835310919457 83.95708529605592
221.19144611116147 98.31463795419657 81.37500098563964
220.2658351468051 100.4909823276224 82.7261306304541
246.1312486919714 95.6170329603949 88.5293411374026
246.40059239151103 96.29241903740589 86.04267098650422
221.33452648364818 100.57464130207872 80.24308826997293
246.8262629554913 100.11385749620496 83.55696030761547
247.74594812409492 98.2507732296197 89.27352845682775
247.542755818883 98.69810166490188 86.15425909586118
221.61187928798262 103.03643463866494 80.61291786092193
223.75309099921665 107.76258521807227 82.40473589167884
222.64730167691206 105.5569087922483 81.19899744124396
225.84681954631517 108.38719712007502 84.28291303746897
226.25929445329214 106.72843696545843 82.24027148903788
228.7614254205178 106.36793109617791 83.16944782071629
240.20059786280999 106.95606456964742 85.71316320960402
236.79600795211988 105.8602424242745 85.08556017281646
242.20380848812528 106.50404108009079 86.68744413579054
246.64072117014138 103.47133247196545 86.9901048095812
244.21852359125407 105.13817224363663 84.06807133307674
247.7014630397416 100.93817622342665 88.01022075368067
235.35743474176454 75.81248506272328 87.15280705128333
232.50145232975962 75.75888372089275 89.16175553370175
234.5672576479921 75.7276935260658 89.08629921652052
236.63540444533655 76.13707666707788 88.7675511851966
231.29797220766574 76.23218734350857 90.9154644332325
230.6155965647461 76.28573853037446 88.91383508419251
233.54221220441937 75.90779065751879 91.06711911984189
235.82087699001977 76.10435103057677 90.89011908964159
237.94004224769643 76.86257242744976 90.42174420927742
238.61638772514905 76.89346535427828 88.23948588430277
239.90634385460416 77.7594737213181 89.79989498325185
241.18607634222195 78.97925790731198 89.23575599049835
229.20136814968157 77.33537775529472 88.16331647913951
229.3213696605087 77.28233055675324 90.3372903355472
240.9332022646991 79.16931980383005 91.11120121653168
242.18922804209637 80.47992413625079 89.85441501902673
226.7787650030297 80.73004855524512 88.8961058659782
227.86104427874946 78.93795379041954 89.15308357831252
226.30112266970298 82.43828897393368 90.13070109854263
242.40337664771897 82.85157963156334 90.49270531123257
225.96378279081517 84.5158397454016 90.59612048671438
242.81904669633028 84.97730532674223 90.30461074596352
225.78923771277712 84.51222695110832 88.49061161857317
226.04204405093765 86.24506810419305 89.99294338156916
242.4151140368193 86.07294950633194 91.7744924947399
242.8617770475899 86.86727533191193 90.10815745291394
225.87655719681592 86.58154219383896 88.30274848973579
225.28822019505185 88.02500041152642 89.28720707513396
242.26836187720846 88.03094187164002 91.58215955746259
242.23413590027047 88.95055777816269 89.59726640212503
224.3286421455383 89.77267675449737 88.20148751260828
223.75785638432802 91.96128201027899 89.53740662064683
241.8891465998602 89.70277406754732 91.34515137827525
241.84020094910377 91.15997574993277 90.31478426207016
241.97254932649824 93.19282255176621 91.42465510088401
242.2310553598183 93.14149156093085 88.99533107602794
223.56091515705523 91.81192573989331 86.97626423764484
222.53745027105018 93.86311746600683 88.25355422614666
221.72438280095508 95.38789283405191 86.96142891243774
221.04235052716058 95.98662065836957 89.12167403584607
244.25884262510777 94.47315921788837 90.66555162105004
220.5721179163664 97.43489081820293 86.69427345748728
218.6413291115397 100.330581819211 88.55210167277245
219.5014386046014 99.88508325948588 85.7037499689111
247.071878745304 102.7036242672331 92.427012016733
218.2416789813832 104.12280088951535 84.38817722057115
217.32264636379375 111.36837292668915 88.60777933669098
218.1496019688214 108.22425087780869 84.25099141162426
224.75129861760652 111.3375535565668 91.12325578515124
222.2310694085943 111.0712253081739 85.57643677452285
229.45440407906057 107.12648368477839 91.83135892984531
226.86622375431855 108.88570623457937 86.98835790950093
232.34965714159637 104.92838675751679 91.68430663757464
230.05261445305663 107.03793291096474 88.48710265961802
238.53270943800953 106.50940746715685 92.19441785455875
241.33432914442602 106.71091749761253 92.08017146046302
242.11395324846143 106.93097369455464 89.34582129740095
244.60653677755366 105.74207407400031 89.69393293968008
246.57375718413067 103.79314998887305 89.65076044576456
232.3201826024179 76.51339504018728 93.04961968499384
234.79163572443005 76.21445697638968 93.13362783182177
237.1994377017817 76.82963422789396 92.7425944428012
239.24850100886923 77.92917681583208 92.02470181823831
230.086668871815 77.32953192750786 92.63027727235306
230.9964197092566 77.54410052862261 94.96915843668118
229.32026336917517 78.69893948860141 94.11136186851996
233.52193920630228 77.24701496006688 95.147884273196
236.14324930025353 77.31097836961804 95.11736766675462
238.37564971423944 78.4105288082071 94.33145737213484
240.3262386932816 79.63311784498616 93.34576417216356
228.29065560862324 79.12928324226993 91.94131209288138
228.48889262619718 80.65077463975628 94.1372619474097
234.73902590111143 78.66067449349717 96.93235066015956
236.8922295617269 79.63528185237394 96.04308611117384
239.2334702342651 80.5809210023752 95.49304445648568
240.94205391679 81.79101424339571 94.14055817367907
241.82362343922674 81.03057332617037 92.08413958499635
242.09408827589306 83.09322787107364 92.81506539940229
242.36652910393255 84.39780471302515 91.74569242809937
226.97602956553504 81.36551122456801 92.33744081131562
227.43372043641907 82.86484811433043 94.25135279940771
241.74599984426368 85.02589319774653 93.2310256099034
226.30677627721658 83.63796631740455 92.30429416435268
226.69635676346434 85.17983549896412 94.06236628178975
241.3799254804647 87.08300467443277 93.22461987574569
226.17707137828123 85.80471373205431 91.97498787318862
226.04642808836985 87.39956115143798 93.56810469439544
225.5079657659667 87.78522150961855 91.3989265159763
224.42531319413496 89.71918564221679 90.60838186721166
224.7529427844142 89.3833870748306 92.98671275677309
238.1169071932777 89.11181664847267 95.82614713574279
241.35192696992883 89.22657660172649 92.91340128799602
240.47716110085656 90.90780629884334 94.06658371114355
241.68465969550812 91.14891629409183 92.30579957892562
241.46706866932757 92.78835169157215 93.40067321406154
241.6425583026724 93.95783751860768 94.99720995792927
223.97858236261573 91.8069890824359 92.17656283754529
222.80386436117212 93.71312311937258 94.21191787381991
243.3391180249279 94.37539369459087 93.3031612188382
219.92598594258496 97.47435334686696 91.04483842503242
222.14242618679143 94.02328615869025 91.06996904876576
221.0832937147395 95.88070438568829 93.08084627460735
243.2206337407324 95.4594842248059 95.68028521131382
220.3461002439347 99.34794918450434 96.99270841204134
215.49202941049327 103.94661601531254 91.81763401881642
245.63738317789137 95.8704053892025 94.41709370023266
215.15649376561873 105.45652801165619 90.0229247572307
216.58516084927132 102.16061222380615 95.9020561189511
229.8011983237787 103.35682761834325 97.8759413912622
231.54899491757465 103.66567633575511 96.78696209066074
237.97842506990162 103.4140324581616 97.07801216482916
245.25471606887396 100.40055699299364 97.41319308240111
243.16480653308687 104.67703498167246 96.61762322201204
244.6610188234846 97.41693194515148 97.02247933536067
215.73293748883822 110.23375323889323 92.18524754343242
221.66240607736378 105.802480261176 98.89208337331605
229.39273483516675 105.28852304444398 96.63790513926881
233.6298825082195 103.12958346043327 95.33758718789365
231.4548097230628 104.92128259816919 94.92145649890486
236.21921137178538 104.10676513650441 95.55339830065216
235.12278507282866 104.55046353621321 93.66596670495649
239.52949279279682 105.45377215393196 96.08691781397091
244.17417792407696 105.72660020098618 92.82339642538554
230.53887783894814 80.04385263377897 95.6549789347008
232.24360497479006 78.68879514697414 96.8119454038825
233.32031947793104 80.78471645733805 97.83785170192124
235.64106910646495 80.56715360336622 97.55364831813426
241.1993791652967 83.7518092078657 94.39131723388805
229.28771703041878 82.31251253238742 95.8121434577074
235.02244765435842 82.25383013429764 97.37443382916813
235.58462260917386 84.1983913236454 96.8680312594193
237.391580016503 82.12862794837945 97.10797064679599
237.93876282726606 84.8050883265261 96.30846524938411
239.81195528918283 83.1243409881702 95.85938391537468
239.98311259921886 85.60643047697008 94.71782159640944
228.29631879785876 84.60037741816878 95.80386976851247
230.75729048341702 84.26996945867603 96.5226062072238
233.1393023498051 83.46624150227805 96.92767945722166
233.77064627278907 85.90940263935383 96.20765024265631
236.1990936148582 86.39283690285012 96.32427445003025
239.87408988893307 88.46258038128596 94.59965220162873
227.2935283468184 87.09514774689924 95.77410210912461
229.51263417260347 86.37048920017389 96.6102638892644
231.6014084788391 86.3005797135145 96.60612598924982
236.7321269125847 88.1404199772832 96.04334659764977
238.19302220177994 87.09436304065498 95.74659005187684
225.18744004309374 88.82948720538245 95.37533297014001
226.5331152611448 89.22453697916384 97.61897757485833
224.85136367757025 90.52270525935853 96.67865471251666
234.92392734655115 88.13850019790337 96.24551944345488
236.38361019203768 89.88026888999285 96.8311544106512
238.15730325646007 90.90058772884099 96.27905405758324
240.5435091630678 92.64129309787727 94.69770594161449
224.2155405237762 91.14357914272345 94.73226876605455
224.32661177819523 92.85202177612196 96.86876327543098
238.32281609466406 92.74435984884911 96.51864257648373
239.49633680241857 91.81890865051355 95.49793250175348
239.8914826139171 93.59284191243728 95.75794632663636
222.40370616514278 97.53081850661101 98.17579417994412
224.14082139362333 95.07209465588102 98.9891819905052
236.47401539140725 93.71942852161254 97.24466268571938
238.57233875911803 94.75429718375946 96.55407718498093
223.85581168152086 102.39662172998193 98.91758509786003
224.6838639764427 99.3541780878552 99.04465439444367
227.61373873732785 99.41807539234584 98.99953887231959
234.72969366595464 99.48375345220394 97.45070397842689
225.42308413155135 110.1214396210221 87.71895515817592
224.51952174839278 106.43965098740827 81.34820575075163
222.98348392471297 112.15351973950082 97.18249554611064
221.82529250912123 107.17742637358893 82.16186619398555
223.6353114104056 109.43896963949578 84.16344306893383
247.1590807227442 97.10310542884999 87.47945026776902
218.94250395220283 112.8567993786645 92.93598794339316
214.99072091215183 107.20803157674584 89.60885552539278
217.08524506663215 103.9586973625935 85.99989156823715
224.7543261317738 105.22608728991787 99.06574778961834
215.29389756256256 106.35203865095154 97.82467523156038
242.75852289093518 96.26986738869155 97.2789235657426
245.12791327505164 94.9883543652316 92.51912754672645
226.34751671829403 101.70157629314441 98.89396572167247
230.32680297443315 99.57205531066508 99.01388884162691
216.40065320949066 110.91084336993235 90.28802200209196
216.41888977083062 105.39011962332448 98.25385239925755
215.82948654742736 103.80309821195377 89.96713867492872
228.89504297942895 101.7164711212746 98.93542520632647
232.68459288264793 99.59154940669588 98.07933137284674
214.84227181085632 108.30015858903178 93.75673944466448
219.69125307523007 110.47424764345612 84.91616417206542
231.46384234155676 101.7529025287745 97.9851183877146
219.2753685234228 112.60157938394508 89.42961365164776
216.31916426921256 110.12750225851764 87.47929420481493
221.93314725424972 112.22325186502007 87.29861764699224
233.93908865225941 101.48214867896293 97.301353800021
236.72597040869593 100.81562277988407 97.72347610376995
218.8141500410784 112.30137514840582 96.35522422368321
222.47163712366978 112.7029139283439 95.82450807071125
218.1454259862303 106.0393545527925 84.1023292557533
216.7178665246826 109.93999415486344 98.53837275973216
215.78071647156307 109.45568982248314 97.357193294055
225.85451662161262 109.96735869110867 95.480749689443
217.73854995141133 110.32421168284836 86.28478043925122
222.89526844102548 112.55852480477667 90.61825232667722
217.84015284776052 112.06654639376558 91.3066926278753
241.66490345972815 97.95667174467889 98.2742994416552
215.54546518439048 106.66616284287751 88.05764708889265
221.2515774513798 108.85913721170834 83.35671003679342
242.4072984747006 101.09418183525874 98.17923831042008
225.6303261964637 107.5060575479869 98.97764151137898
218.66009463405243 110.24048135656896 98.92013060794822
215.53696099170477 103.57699844248876 94.20299206937456
242.78185564640356 103.24228305060221 97.88628677784197
216.78547477598573 101.8333051787656 93.09329656600146
221.54755088168432 107.7685207063673 99.14617153015357
244.069328301797 102.04354338351486 80.34608258380875
227.4318236996884 103.9467242976198 98.34708707028858
240.578173499273 103.64845994453975 79.55577072686029
248.07348215769554 100.26580435661731 89.65755318622102
221.43165097807713 112.68225245147568 88.96703881865183
235.6977244599348 102.59020299126335 96.59870394695963
223.37078799062652 110.75290360869859 98.26868133627484
214.78822896158218 105.6186961395843 91.71066572551054
220.8378771293108 112.17051880938293 97.74961323247422
247.29311422473154 102.5629862407011 88.6443861334768
215.04394112727385 107.54253652734795 96.25140377224466
247.66601214799022 98.14473481820256 91.51941807735797
220.93263905234642 104.47162977586771 81.59443947704565
231.2013442780139 81.87357859768099 97.16983158042773
223.14457507641137 112.38644727016225 93.31678080288442
245.9134931389292 102.23440336086477 96.52801358101674
245.7218456668878 104.58535542113964 85.33170635403131
220.3994309087724 100.83571694752187 98.19623436798307
244.4094520545002 102.78539601301117 97.34918604861922
247.50575561744606 101.74182113820271 89.97002966548948
242.91606875938305 105.13474342046497 82.54102379032675
217.53259082948924 112.00848666719271 94.26292677968229
247.1664887850479 101.29327615006758 85.68004731411868
217.08704451048675 111.23234740039439 97.08303212965993
222.7742256618997 104.05372540610438 99.05832530067856
219.85062554850302 103.10936847200763 82.34014424127
226.11617456498337 109.85792310346179 89.5723040464309
225.6333928016089 110.44919829244493 93.4848265367756
218.6336703664533 105.06914323867193 99.0212582303314
223.44668678787866 108.01249562642903 98.86259628536686
230.57007970959677 87.97518731018756 97.69147370060911
232.77647973717953 88.07990374011545 97.0036754110222
216.79343869008153 107.73510563388717 98.68015078085622
219.83135082547153 98.64580044213018 95.31586923877246
225.62991878304604 109.23987376213684 97.43038907854707
216.66170338594088 103.19818770217204 98.42946281508416
218.98811113070286 101.90399428340598 84.2302123359013
228.45802953987754 87.81732477518975 97.66265948579193
218.50914732940404 101.12152484988204 97.88796028293056
219.64446097047175 98.96087030906426 87.4447964587078
215.62098207526773 109.17019543392433 89.21139370832032
231.88841908626176 90.01576755386253 98.52367330025663
219.82106460041558 111.97386325723521 87.0698782527505
234.0947919071384 89.90127565660501 97.32067972592853
228.40428624134722 106.9244834155264 95.95462137526735
220.7975342009982 102.76829184933673 98.9457354936338
246.51263647910673 97.34035893200138 95.58948914014994
216.86613495371824 105.8930369398396 85.75196983976383
217.8423401493202 102.21768448616056 86.37572187513018
236.98928714853255 91.76417147063286 97.08617726749488
218.79272577157377 100.32015318526474 94.88973087015695
221.0273596856552 97.11633699577811 95.54530990524856
223.8619585653031 111.51741929224963 88.28612722588178
218.72881581933254 100.00994067353622 91.61939069239727
245.7926669412479 104.38045459649138 92.98909595065727
241.5101847406159 94.01705172641084 80.28703838739644
240.92419028244032 96.0226307127515 78.13013683001536
224.38917260532955 111.36249536239939 95.92668235691984
246.69808631776863 98.8772494028005 96.18583160749363
246.0701222007888 102.99310747964378 83.94227629049891
235.2169497813408 91.71941539474469 97.44064037120027
229.86821105917417 106.42905265278344 85.31492170747163
243.165206690049 94.16529709776808 84.91046141622293
215.6983051480795 109.99030230359898 95.18248579152964
244.59853549902067 94.87171094333839 86.48032242603757
231.4499334530607 105.90576666608649 88.96591492249388
243.55127343927842 99.19607565839782 97.88713578157981
231.7931468473121 103.70144299487872 81.16707021439017
235.07474817032815 105.10856297998971 85.77882106940545
235.38467977868214 104.95291188847347 84.02677394778961
243.1350324292019 94.8351988060835 82.91449272557165
232.52924039197052 104.35985257212685 84.5099560157655
241.4178131133227 105.05542429105589 96.33750045653431
237.82467566457976 106.6124382363223 88.40806956463274
227.32454971808718 107.50716795008478 83.53773217552023
225.52315430873347 91.23368343726965 98.06172860310211
232.07233555745387 102.8266964911029 78.5446333554563
226.1445739292739 93.0957291820614 98.91251185917648
216.16462317767377 108.51362974329894 86.5066038988541
243.9061231890698 105.43552945892066 94.97811193077058
245.82319443838898 104.84657030903118 88.26402247114022
247.6474505068915 100.6129718375427 93.2445589781883
239.73483852289596 106.36843359267411 93.99221758150227
241.57427437036253 106.06009428063632 83.89531285360442
233.48307813784342 103.7739106600963 81.6850932442529
219.76248728717303 107.69323793326338 98.95431113207783
237.11048793582415 95.80777687791 97.15651827990861
235.09667685481173 95.71472496626679 97.55450586576936
227.2481017815724 108.35926843621802 94.95051664538387
239.59230296521537 101.37054978277396 98.05015898311628
234.2416861125837 104.63637367054997 91.49520718647861
232.96301638236258 104.97355651174 88.71956929462928
234.68967800432563 103.55119011515431 80.70341856283858
234.07600573099623 104.47849482610967 84.77858791328721
246.92121709116842 101.13030506282715 95.11599951578339
245.774907230209 104.59470261875894 91.5268126337281
231.5179072197946 105.24311787752526 85.75540341078472
231.2297820220004 105.75886870751728 92.84435137260122
231.28243990061435 106.01571723784025 90.91557246756956
236.29395168223343 106.04663509124072 87.00957035325295
240.98006411077185 95.4539154873666 96.68379408269733
235.92759628211962 105.77219610724453 88.90689622856536
243.19076016363272 105.87737462778783 85.34224002271672
240.6428408456014 99.90110346000037 98.63046598179038
226.33090803887532 96.87669208959088 99.06758532848441
220.54747621272426 113.10373174608662 91.57302380838895
238.22610410574651 106.84194331633621 86.33548114018626
227.9617485447862 107.52674839846436 85.04962067089149
230.1585770567892 106.86525910264884 89.92280777466198
234.3490770665306 104.90702153690677 89.54012508482614
229.12482033871316 97.27731672604574 98.87146402618393
233.86298139776542 104.18618812187363 83.34174443024337
240.00972551320928 107.17058133259712 87.75009829356479
239.48597578806738 106.88127181302934 90.04118082814391
245.5066872010396 103.9104068095153 95.02505871011878
237.69214097897088 104.84557611561605 95.93573149369362
231.56983040175447 97.5366829420297 98.38426934395832
243.46862399030138 106.35534591495394 88.10826532177184
233.87546202293737 97.64740614327391 97.7258292985262
243.1027965076415 106.39530777693275 90.99821464633429
234.33484079519752 105.19063356613188 87.62277831267498
229.11963158367368 107.57665193438385 87.02066147176639
233.30190279563462 104.78059730824407 86.01231981730722
238.79743442955208 106.46556210460413 84.28299830910314
236.49900361988153 97.92935653175974 97.4957505098915
237.3228239249861 104.9593651073888 81.46266635559398
232.08333225168528 104.1599032655942 82.7866460094825
237.06856977727026 105.61390185015264 83.11364838449354
232.31493554642807 84.9720321740087 96.4660723080236
218.73828232592172 111.77487840895154 97.74927165910223
240.97001627695718 103.53848353178903 97.31193149646506
237.4567721930595 105.66232032273794 94.33782120704012
238.97258597376384 96.8760444166172 97.27396691470462
241.98085807783932 106.13834270293245 94.88542849471213
229.57087125147376 106.85243817310703 94.44176583692294
228.3502343351642 107.90162139715514 89.39978610866343
244.72478241253015 105.69110529310096 86.75007027914675
237.21898080930092 106.30759816895775 90.37253008155633
232.67648782597092 104.98612610849237 90.19710548676846
232.32696472698774 105.24072943051013 87.38753523031512
238.9732686687631 99.10423661166891 98.13950696555786
221.69384149300447 95.36222631662656 94.89586200930256
226.20270274072536 94.95638425737806 98.98249231730951
220.60284862058086 101.79699360873364 81.37233286864618
222.34320027240332 100.07973327291779 78.83606183716122
224.18671708547697 99.43835517771014 75.63397100291984
232.85826760004508 104.19950772058588 93.18249019357579
217.26149392177336 102.05463551127008 88.23124078008692
222.07334521157105 100.3667129127883 98.40866438982712
215.22202311323758 104.70065927204104 96.50133098186079
230.7835571766823 105.12548836294319 83.92721785412226
236.02933011379716 95.93929942244257 75.93280032223603
237.60891434961547 95.212455581042 76.62345724534663
224.7621965536546 110.10178454756172 86.06928214577998
228.32492054141423 107.69426792302647 93.29811960831525
236.32656585363955 105.59297904945765 92.10531841008293
216.92060605751635 102.20245850857519 90.17028026898069
235.60874933918703 105.44830344296979 90.48372038199486
233.45416175043326 91.49551612511803 98.08917657454762
227.1908575176041 96.65805058158655 74.09263155146002
227.03091951268578 90.99151206937802 98.93225484015363
224.32760277220308 97.22023923126943 99.0904784953956
218.55423516080282 102.89248225822675 99.14353775926442
246.68134208446062 96.20730743296103 91.56093094249962
228.51024278485733 92.28330702255072 98.96078699052705
216.38460715892026 103.95946461751498 88.00914530817127
221.05422179951069 95.8447688251949 91.0795436847075
219.68588133135594 98.10371167497489 88.7862287989365
230.3099687112955 93.42673276992392 98.99010389477161
227.2006795420909 80.4955882162914 90.4987920063888
222.41804547467183 95.08029793676015 96.61118324724274
220.30019426199243 113.07331586393691 94.63749742337778
232.04410242160776 94.11479320584722 98.92878207030631
228.1848379648208 94.77039620386606 98.95898979514794
239.3038152683591 90.2211680569446 95.34708368952988
231.54764891322858 80.20933345771566 97.26953811740893
233.9384646717733 93.53895361964658 98.18446516523817
219.0250756118851 98.87613098344355 89.99592618949117
236.82015308178933 98.52998239013982 76.70698548471799
233.18541047738242 77.66578544448049 77.86767128387686
247.331034777537 98.41739758767791 93.71898641747426
232.03591076127583 92.34664750575205 98.74903533941718
214.8062934109857 107.4565082774198 91.4241149976377
214.7108304649473 105.82416531747825 93.68348862405978
235.70603962795238 76.172872975202 83.49425811164514
230.36190486811094 91.57830688133492 98.87708350670613
239.20584015977008 96.4778976129911 77.41574102451564
229.03499358366773 89.86633517113601 98.65971775312171
239.46293402548355 98.64788947587566 77.719728490822
232.73001539743248 95.99829051308261 74.51765897867381
230.69947627918086 95.47763204618977 98.86384410597016
220.06431069131634 105.96849244535052 82.82580572623881
219.70771771527322 98.13303578287328 93.61039366909083
232.85812107139898 93.74679382251868 74.53793811576404
232.8616716170299 95.66783762305198 98.24595953982296
226.99306686377741 106.68574794598908 97.40165856324398
240.81571419336873 77.8668129311452 80.81107783087317
221.28748005331653 109.52206036577128 98.93650258411924
233.0782229091992 91.52056400705885 74.47236382380787
232.52570057631524 102.33367413674668 96.66460433776817
226.10381034906752 110.2528031425673 91.53983482670243
241.88504111749728 93.78351585230166 81.77136975237535
227.22586418053493 108.71172720624313 92.00220215441253
232.1055362861352 86.24403895303021 74.24353014770638
247.85684964621197 100.03341481428022 91.4254096147148
230.76807292383023 106.30174641990871 87.13998984882613
234.88227218603745 83.76048114494564 73.41578064410372
231.81563057821356 84.19683554981624 74.11436132257042
225.58825329775695 103.3182291522469 98.76893983886106
231.92596169632162 80.68981780890272 74.84493713890352
237.27459178350477 96.93707601854898 76.69763318443133
POLYGONS 1442 5768
3 2 1 0
3 721 4 5
3 10 721 5
3 10 5 9
3 14 13 12
3 15 13 14
3 16 15 14
3 719 10 9
3 719 9 17
3 715 719 17
3 21 16 26
3 27 22 715
3 28 23 22
3 28 22 27
3 29 24 23
3 29 23 28
3 25 24 29
3 33 31 32
3 34 35 30
3 691 33 32
3 36 39 35
3 36 35 34
3 38 108 37
3 3 36 1
3 3 39 36
3 40 39 3
3 41 39 40
3 43 113 42
3 4 43 5
3 4 0 38
3 45 44 41
3 45 41 40
3 46 44 47
3 45 47 44
3 49 43 42
3 49 42 48
3 49 5 43
3 5 49 9
3 13 15 45
3 15 16 51
3 51 52 50
3 54 49 48
3 54 48 53
3 54 9 49
3 9 54 17
3 16 21 51
3 51 55 52
3 57 54 53
3 57 53 56
3 57 17 54
3 17 57 62
3 17 62 715
3 59 58 21
3 61 57 56
3 61 56 60
3 62 57 61
3 62 61 66
3 27 715 62
3 27 62 66
3 27 66 67
3 27 67 28
3 28 67 68
3 28 68 29
3 69 29 68
3 63 25 69
3 25 29 69
3 58 59 63
3 25 63 59
3 65 61 60
3 65 60 64
3 66 61 65
3 66 65 76
3 70 69 68
3 70 68 77
3 80 72 71
3 74 140 73
3 76 65 75
3 76 75 83
3 78 70 77
3 78 77 84
3 78 79 70
3 85 80 71
3 83 75 82
3 83 82 87
3 663 78 84
3 87 82 86
3 87 86 94
3 89 701 88
3 89 88 90
3 91 89 90
3 93 568 698
3 94 86 100
3 94 100 95
3 95 96 88
3 95 88 94
3 96 90 88
3 97 90 96
3 93 698 700
3 101 164 103
3 696 164 101
3 30 101 31
3 105 102 104
3 103 106 31
3 108 106 109
3 108 109 37
3 108 32 106
3 111 110 107
3 113 114 115
3 41 44 111
3 46 117 112
3 46 112 111
3 111 44 46
3 116 113 115
3 42 113 116
3 42 116 48
3 50 117 46
3 118 117 119
3 50 119 117
3 50 52 119
3 48 116 123
3 48 123 53
3 116 120 123
3 55 58 125
3 122 121 118
3 122 118 119
3 52 122 119
3 124 123 120
3 53 123 127
3 53 127 56
3 123 124 127
3 135 126 125
3 125 58 130
3 125 130 135
3 121 122 126
3 125 126 122
3 128 127 124
3 56 127 129
3 56 129 60
3 127 128 129
3 69 134 63
3 133 131 132
3 128 131 129
3 131 133 60
3 131 60 129
3 60 133 64
3 69 70 134
3 137 135 136
3 130 136 135
3 130 72 136
3 72 80 136
3 138 137 139
3 136 139 137
3 136 80 139
3 140 133 132
3 140 132 141
3 140 141 73
3 140 64 133
3 142 73 141
3 73 142 81
3 79 664 143
3 149 148 147
3 147 568 93
3 147 93 149
3 150 81 146
3 96 95 153
3 152 96 153
3 96 152 97
3 152 154 97
3 97 154 98
3 98 154 155
3 99 155 156
3 99 156 700
3 157 156 163
3 157 149 93
3 158 150 146
3 159 160 158
3 150 158 160
3 100 150 160
3 151 153 159
3 160 159 153
3 160 153 95
3 95 100 160
3 161 154 152
3 162 155 154
3 162 154 161
3 163 156 155
3 163 155 162
3 165 166 167
3 232 166 164
3 103 165 106
3 170 169 167
3 106 169 171
3 106 171 109
3 169 170 171
3 172 168 105
3 110 172 105
3 173 172 174
3 172 112 174
3 171 170 175
3 109 171 114
3 176 181 173
3 176 173 174
3 112 176 174
3 112 117 176
3 179 177 178
3 175 177 114
3 177 179 115
3 177 115 114
3 115 179 116
3 180 181 176
3 117 180 176
3 182 181 183
3 180 183 181
3 180 117 118
3 180 118 183
3 184 185 178
3 116 185 120
3 187 186 182
3 187 182 183
3 118 187 183
3 118 121 187
3 184 188 185
3 120 185 188
3 120 188 124
3 189 197 190
3 126 135 193
3 189 126 193
3 189 193 197
3 186 187 190
3 189 190 187
3 189 187 121
3 121 126 189
3 191 192 188
3 191 188 184
3 124 188 192
3 124 192 128
3 194 195 196
3 131 202 132
3 191 195 192
3 128 194 131
3 199 197 198
3 193 198 197
3 193 135 137
3 193 137 198
3 200 199 201
3 198 201 199
3 198 137 138
3 198 138 201
3 203 202 196
3 132 202 204
3 132 204 141
3 202 203 204
3 205 200 201
3 138 205 201
3 206 207 208
3 203 207 204
3 141 206 142
3 582 209 574
3 713 144 582
3 148 149 214
3 212 211 209
3 212 209 582
3 144 212 582
3 146 210 217
3 157 163 213
3 216 215 214
3 211 212 215
3 219 220 218
3 217 218 220
3 146 217 220
3 146 220 158
3 221 222 219
3 220 219 222
3 158 220 222
3 158 222 159
3 222 221 151
3 151 159 222
3 152 225 161
3 161 227 162
3 228 229 226
3 162 227 229
3 162 229 163
3 230 213 228
3 231 232 696
3 696 105 233
3 234 235 236
3 166 239 167
3 232 234 166
3 237 231 233
3 233 238 237
3 240 239 236
3 167 239 241
3 167 241 170
3 239 240 241
3 243 238 242
3 238 168 242
3 168 172 242
3 244 243 245
3 242 245 243
3 242 172 173
3 242 173 245
3 241 311 246
3 170 247 175
3 240 311 241
3 248 253 244
3 248 244 245
3 173 248 245
3 173 181 248
3 177 256 178
3 246 250 247
3 175 249 177
3 252 253 248
3 181 252 248
3 254 253 255
3 252 255 253
3 252 181 182
3 252 182 255
3 321 257 251
3 256 251 257
3 178 256 257
3 178 257 184
3 259 258 254
3 259 254 255
3 182 259 255
3 182 186 259
3 260 257 321
3 184 257 260
3 261 267 262
3 190 197 265
3 261 190 265
3 261 265 267
3 258 259 262
3 261 262 259
3 261 259 186
3 186 190 261
3 263 264 260
3 184 260 264
3 184 264 191
3 195 271 196
3 263 266 264
3 191 266 195
3 269 267 268
3 265 268 267
3 265 197 199
3 265 199 268
3 334 269 270
3 268 270 269
3 268 199 200
3 268 200 270
3 272 271 335
3 196 271 273
3 196 273 203
3 271 272 273
3 275 274 334
3 275 334 270
3 200 275 270
3 276 277 278
3 207 279 208
3 272 277 273
3 203 276 207
3 576 281 274
3 574 209 576
3 280 279 278
3 208 279 283
3 279 280 283
3 282 281 576
3 209 282 576
3 209 211 282
3 215 216 284
3 211 286 282
3 217 287 218
3 218 287 289
3 218 289 219
3 290 291 288
3 219 291 221
3 221 291 292
3 221 292 223
3 295 595 293
3 285 286 298
3 232 231 299
3 235 300 236
3 235 232 299
3 299 302 301
3 305 303 300
3 236 300 304
3 236 304 240
3 300 303 304
3 300 301 305
3 306 305 301
3 301 302 306
3 307 306 302
3 302 237 308
3 302 308 307
3 308 309 307
3 237 238 308
3 308 238 243
3 309 308 243
3 309 243 310
3 243 244 310
3 311 312 316
3 311 316 246
3 303 312 304
3 313 309 310
3 310 244 314
3 310 314 313
3 244 253 314
3 250 315 251
3 250 246 316
3 250 316 315
3 253 318 314
3 318 253 254
3 251 315 317
3 251 317 321
3 317 319 321
3 320 318 254
3 254 258 320
3 322 321 319
3 260 321 325
3 321 322 325
3 262 267 328
3 324 262 328
3 324 328 327
3 324 320 258
3 258 262 324
3 326 325 322
3 260 325 263
3 263 325 326
3 331 327 328
3 329 387 330
3 263 329 266
3 328 332 331
3 328 267 269
3 328 269 332
3 333 332 334
3 336 335 330
3 335 336 272
3 334 339 333
3 277 340 278
3 272 337 277
3 274 339 334
3 274 281 339
3 278 340 342
3 278 342 280
3 281 675 339
3 305 358 303
3 305 306 359
3 362 363 364
3 312 369 316
3 365 363 358
3 303 362 312
3 359 366 365
3 359 360 366
3 360 367 366
3 360 361 367
3 361 368 367
3 313 375 368
3 313 314 375
3 370 369 364
3 369 370 378
3 371 365 366
3 376 374 375
3 314 318 375
3 376 375 318
3 376 318 377
3 379 378 370
3 317 378 381
3 317 381 319
3 378 379 381
3 380 376 377
3 377 320 323
3 377 323 380
3 318 320 377
3 382 381 379
3 319 381 384
3 319 384 322
3 381 382 384
3 323 383 380
3 323 327 383
3 385 384 382
3 322 384 386
3 322 386 326
3 384 385 386
3 439 389 444
3 387 388 395
3 387 395 330
3 385 388 386
3 391 439 390
3 393 391 392
3 390 392 391
3 392 332 333
3 392 333 393
3 330 395 399
3 330 399 336
3 395 396 399
3 397 401 394
3 397 394 393
3 333 397 393
3 333 339 397
3 400 399 396
3 338 336 399
3 404 412 401
3 404 401 397
3 407 408 415
3 407 415 513
3 416 417 408
3 418 419 416
3 363 422 364
3 364 422 370
3 423 365 371
3 423 371 424
3 371 425 424
3 371 372 425
3 425 372 430
3 372 373 430
3 373 432 430
3 373 374 432
3 374 426 432
3 374 376 426
3 370 422 427
3 370 427 379
3 425 430 428
3 428 430 429
3 430 431 429
3 430 432 431
3 432 433 431
3 432 426 433
3 379 427 434
3 379 434 382
3 424 428 436
3 424 436 525
3 525 436 435
3 436 428 429
3 438 437 429
3 429 437 436
3 429 431 438
3 431 444 438
3 431 433 444
3 433 439 444
3 441 440 434
3 382 434 440
3 382 440 385
3 434 435 441
3 442 441 435
3 438 444 443
3 438 443 448
3 443 444 389
3 445 446 447
3 388 452 395
3 385 445 388
3 450 449 389
3 451 391 393
3 451 393 394
3 453 452 447
3 450 455 454
3 455 456 454
3 454 460 459
3 454 456 460
3 461 462 478
3 479 483 463
3 478 462 463
3 478 463 483
3 484 487 479
3 483 479 487
3 487 408 407
3 487 407 483
3 487 484 491
3 513 478 483
3 513 483 407
3 491 492 517
3 416 491 517
3 416 517 418
3 517 492 409
3 409 418 517
3 425 428 424
3 438 448 437
3 441 549 440
3 441 442 542
3 437 448 543
3 446 440 549
3 549 699 446
3 553 542 543
3 543 448 555
3 543 555 553
3 555 448 449
3 555 449 572
3 572 449 561
3 449 450 561
3 451 456 455
3 447 446 587
3 447 587 453
3 446 699 672
3 561 454 459
3 561 459 572
3 450 454 561
3 676 589 672
3 587 672 589
3 453 587 589
3 453 589 458
3 599 706 688
3 572 459 688
3 599 688 459
3 598 459 460
3 456 612 460
3 612 456 394
3 394 401 612
3 685 589 676
3 706 599 630
3 628 706 630
3 630 464 484
3 630 484 628
3 598 636 599
3 630 599 636
3 464 630 636
3 598 460 644
3 636 598 644
3 460 612 644
3 463 622 479
3 479 622 628
3 479 628 484
3 464 636 492
3 636 644 652
3 492 636 652
3 652 644 502
3 555 572 670
3 0 4 721
3 6 2 0
3 0 721 6
3 24 25 26
3 20 24 26
3 26 16 20
3 30 31 33
3 30 33 34
3 32 108 38
3 38 691 32
3 37 113 43
3 4 38 37
3 37 43 4
3 15 51 47
3 47 45 15
3 55 51 21
3 21 58 55
3 26 25 59
3 59 21 26
3 64 140 74
3 75 65 64
3 64 74 75
3 698 568 85
3 87 94 88
3 88 701 87
3 90 97 98
3 101 30 102
3 101 103 31
3 113 37 109
3 109 114 113
3 55 125 122
3 122 52 55
3 63 134 130
3 130 58 63
3 143 71 79
3 145 80 85
3 696 232 164
3 165 167 169
3 169 106 165
3 165 103 164
3 164 166 165
3 171 175 114
3 179 178 185
3 185 116 179
3 194 196 202
3 202 131 194
3 194 128 192
3 192 195 194
3 206 208 210
3 210 142 206
3 206 141 204
3 204 207 206
3 212 144 148
3 234 236 239
3 239 166 234
3 232 235 234
3 168 238 233
3 233 105 168
3 241 246 247
3 247 170 241
3 256 177 249
3 249 175 247
3 247 250 249
3 266 335 271
3 271 195 266
3 266 191 264
3 276 278 279
3 279 207 276
3 276 203 273
3 273 277 276
3 237 302 299
3 299 231 237
3 235 299 301
3 301 300 235
3 311 240 304
3 304 312 311
3 324 327 323
3 323 320 324
3 329 330 335
3 335 266 329
3 329 263 326
3 326 387 329
3 337 338 340
3 340 277 337
3 337 272 336
3 336 338 337
3 359 365 358
3 358 305 359
3 306 307 360
3 360 359 306
3 307 309 361
3 361 360 307
3 362 364 369
3 369 312 362
3 362 303 358
3 358 363 362
3 313 368 361
3 361 309 313
3 372 371 366
3 366 367 372
3 373 372 367
3 367 368 373
3 374 373 368
3 368 375 374
3 387 326 386
3 386 388 387
3 363 365 423
3 423 422 363
3 380 433 426
3 426 376 380
3 383 439 433
3 433 380 383
3 427 525 435
3 435 434 427
3 445 447 452
3 452 388 445
3 445 385 440
3 440 446 445
3 455 391 451
3 542 699 549
3 549 441 542
3 442 437 543
3 543 542 442
3 451 394 456
3 599 459 598
3 502 644 612
3 699 542 553
3 572 688 670
3 672 699 676
3 684 688 706
3 7 2 6
3 11 721 10
3 11 6 721
3 12 7 11
3 11 7 6
3 18 11 719
3 719 11 10
3 19 718 18
3 18 718 11
3 19 12 718
3 718 12 11
3 19 20 12
3 20 14 12
3 20 16 14
3 22 18 715
3 715 18 719
3 22 23 18
3 23 19 18
3 23 24 19
3 24 20 19
3 691 34 33
3 76 710 66
3 710 67 66
3 77 68 710
3 710 68 67
3 671 82 74
3 82 75 74
3 83 705 76
3 705 710 76
3 84 77 705
3 705 77 710
3 81 86 671
3 86 82 671
3 87 701 83
3 701 705 83
3 89 84 701
3 701 84 705
3 150 100 81
3 100 86 81
3 390 327 331
3 699 553 697
3 697 553 693
3 555 670 553
3 670 693 553
3 680 676 697
3 697 676 699
3 684 680 693
3 693 680 697
3 688 693 670
3 688 684 693
3 702 685 680
3 680 685 676
3 706 702 684
3 684 702 680
3 3 1 2
3 8 3 2
3 2 7 8
3 3 8 40
3 45 40 8
3 8 13 45
3 50 46 47
3 47 51 50
3 214 149 157
3 450 686 455
3 439 391 686
3 686 391 455
3 587 446 672
3 13 8 7
3 7 12 13
3 41 111 107
3 107 39 41
3 484 464 491
3 464 492 491
3 622 685 702
3 622 616 685
3 616 622 463
3 463 462 616
3 622 702 628
3 628 702 706
3 30 35 102
3 102 35 104
3 106 32 31
3 378 681 369
3 369 681 316
3 378 317 681
3 452 453 396
3 396 395 452
3 331 332 392
3 392 390 331
3 250 251 256
3 256 249 250
3 449 448 443
3 443 389 449
3 105 696 102
3 696 101 102
3 383 327 390
3 390 439 383
3 404 675 692
3 389 439 686
3 686 450 389
3 315 316 681
3 681 317 315
3 71 143 85
3 143 698 85
3 1 36 34
3 34 691 1
3 696 233 231
3 334 332 269
3 281 285 675
3 72 130 134
3 134 71 72
3 38 0 691
3 691 0 1
3 214 157 213
3 217 283 287
3 73 671 74
3 73 81 671
3 91 722 663
3 663 722 664
3 105 104 110
3 110 104 107
3 205 138 713
3 713 138 139
3 112 708 111
3 111 708 110
3 112 172 708
3 708 172 110
3 157 700 156
3 157 93 700
3 664 698 143
3 92 690 99
3 92 722 690
3 690 722 91
3 99 700 92
3 700 698 92
3 92 698 722
3 722 698 664
3 155 99 98
3 99 690 98
3 78 664 79
3 78 663 664
3 89 663 84
3 89 91 663
3 39 107 35
3 107 104 35
3 98 690 90
3 90 690 91
3 580 611 294
3 581 580 294
3 647 620 352
3 419 658 416
3 416 658 417
3 643 667 419
3 619 573 292
3 224 581 639
3 639 581 294
3 224 637 227
3 224 639 637
3 637 639 226
3 595 635 293
3 634 651 632
3 350 647 633
3 633 647 352
3 717 633 352
3 603 577 650
3 650 621 603
3 621 632 603
3 638 223 662
3 355 625 354
3 354 625 353
3 625 649 353
3 647 349 620
3 620 349 610
3 350 619 290
3 350 633 619
3 585 624 618
3 618 624 293
3 293 624 295
3 295 624 355
3 635 618 293
3 353 649 667
3 667 649 669
3 585 613 649
3 649 613 669
3 602 669 621
3 621 650 602
3 650 577 610
3 610 609 351
3 609 417 658
3 717 608 573
3 608 634 583
3 634 632 580
3 580 632 611
3 625 355 624
3 634 605 583
3 611 585 618
3 227 604 224
3 227 161 604
3 604 161 225
3 651 603 632
3 651 577 603
3 611 618 294
3 294 618 635
3 621 669 613
3 613 632 621
3 634 608 651
3 651 608 717
3 226 595 228
3 226 635 595
3 605 634 580
3 602 650 351
3 650 610 351
3 623 583 605
3 408 417 415
3 417 646 415
3 667 602 419
3 419 602 658
3 294 635 639
3 639 635 226
3 224 604 596
3 596 604 225
3 585 611 613
3 613 611 632
3 151 588 153
3 153 588 152
3 151 225 588
3 588 225 152
3 292 586 619
3 619 586 290
3 292 291 586
3 586 291 290
3 649 625 585
3 585 625 624
3 669 602 667
3 638 583 623
3 638 662 583
3 224 596 623
3 623 596 638
3 417 609 646
3 643 419 418
3 623 581 224
3 623 605 581
3 605 580 581
3 151 579 225
3 223 638 579
3 353 667 643
3 227 637 229
3 229 637 226
3 212 148 215
3 215 148 214
3 205 582 574
3 205 713 582
3 620 577 352
3 620 610 577
3 145 147 144
3 144 147 148
3 275 576 274
3 275 574 576
3 352 577 717
3 717 577 651
3 349 647 714
3 275 200 574
3 574 200 205
3 286 211 284
3 284 211 215
3 619 633 573
3 573 633 717
3 284 216 571
3 573 608 662
3 662 608 583
3 70 79 134
3 79 71 134
3 609 658 351
3 658 602 351
3 147 145 568
3 568 145 85
3 139 567 713
3 139 80 567
3 567 80 145
3 713 567 144
3 144 567 145
3 422 525 427
3 424 687 423
3 423 687 422
3 424 525 687
3 687 525 422
3 646 609 349
3 349 609 610
3 436 640 435
3 435 640 442
3 436 437 640
3 640 437 442
3 292 662 223
3 292 573 662
3 221 223 151
3 223 579 151
3 225 579 596
3 596 579 638
3 415 707 513
3 338 679 340
3 338 398 679
3 399 678 338
3 338 678 398
3 399 400 678
3 678 400 398
3 453 682 396
3 398 400 704
3 457 682 458
3 458 682 453
3 398 704 565
3 402 563 457
3 563 704 400
3 474 513 707
3 398 689 679
3 679 689 341
3 398 565 689
3 689 565 341
3 682 457 563
3 668 341 565
3 491 711 487
3 487 711 408
3 491 416 711
3 711 416 408
3 341 560 342
3 346 559 590
3 565 704 562
3 600 556 646
3 646 556 415
3 600 707 556
3 556 707 415
3 679 551 340
3 340 551 342
3 679 341 551
3 551 341 342
3 402 550 562
3 562 550 406
3 342 548 280
3 342 560 548
3 548 560 344
3 600 546 707
3 402 545 563
3 563 545 704
3 402 562 545
3 545 562 704
3 474 541 414
3 414 540 557
3 538 564 347
3 290 665 350
3 348 564 665
3 478 720 461
3 461 720 474
3 478 513 720
3 720 513 474
3 457 660 402
3 461 557 660
3 537 344 703
3 474 536 461
3 461 536 557
3 474 414 536
3 536 414 557
3 461 660 462
3 462 660 457
3 548 344 537
3 537 280 548
3 280 655 283
3 283 655 287
3 280 537 655
3 655 537 287
3 677 659 668
3 668 659 341
3 677 560 659
3 659 560 341
3 714 539 600
3 349 666 646
3 646 666 600
3 349 714 666
3 666 714 600
3 350 538 647
3 647 538 714
3 347 712 538
3 538 712 714
3 347 539 712
3 712 539 714
3 458 673 457
3 457 673 462
3 458 616 673
3 673 616 462
3 210 657 142
3 142 657 81
3 210 146 657
3 657 146 81
3 283 656 208
3 208 656 210
3 283 217 656
3 656 217 210
3 616 654 685
3 685 654 589
3 616 458 654
3 654 458 589
3 682 653 396
3 396 653 400
3 682 563 653
3 653 563 400
3 421 354 645
3 642 420 409
3 356 631 421
3 421 631 354
3 356 355 631
3 631 355 354
3 356 629 355
3 355 629 295
3 356 648 629
3 629 648 295
3 420 627 409
3 409 627 418
3 420 643 627
3 627 643 418
3 295 614 595
3 595 614 297
3 295 648 614
3 614 648 297
3 357 607 343
3 357 356 607
3 607 356 421
3 505 642 601
3 601 642 409
3 420 594 643
3 643 594 353
3 420 645 594
3 296 592 357
3 357 592 356
3 296 648 592
3 592 648 356
3 411 591 645
3 645 591 421
3 411 626 591
3 591 626 421
3 420 584 645
3 645 584 411
3 420 642 584
3 584 642 411
3 412 578 502
3 502 578 505
3 412 410 578
3 578 410 505
3 353 594 354
3 354 594 645
3 652 601 492
3 492 601 409
3 343 626 606
3 343 593 716
3 716 593 692
3 343 606 593
3 593 606 692
3 412 570 410
3 692 606 570
3 570 606 410
3 413 552 694
3 414 597 540
3 540 597 544
3 343 566 626
3 626 566 421
3 343 607 566
3 566 607 421
3 692 558 404
3 404 558 412
3 692 570 558
3 558 570 412
3 550 547 406
3 298 534 296
3 284 571 534
3 534 571 296
3 413 575 533
3 230 297 571
3 571 216 230
3 716 531 343
3 343 531 357
3 410 530 505
3 530 626 411
3 402 529 550
3 550 529 557
3 402 660 529
3 529 660 557
3 297 528 571
3 571 528 296
3 297 648 528
3 528 648 296
3 626 527 606
3 606 527 410
3 626 530 527
3 527 530 410
3 347 526 539
3 526 617 683
3 413 485 575
3 413 694 485
3 485 694 695
3 675 523 692
3 692 523 716
3 675 285 523
3 523 285 716
3 661 522 695
3 569 539 526
3 357 521 296
3 296 521 298
3 357 531 521
3 521 531 298
3 533 575 535
3 695 519 403
3 403 519 405
3 695 694 519
3 519 694 405
3 546 518 541
3 541 518 709
3 546 569 518
3 213 514 228
3 228 514 229
3 213 163 514
3 514 163 229
3 216 512 230
3 230 512 213
3 216 214 512
3 512 214 213
3 298 515 285
3 285 515 716
3 298 531 515
3 515 531 716
3 709 511 541
3 541 511 414
3 709 597 511
3 511 597 414
3 565 510 668
3 668 510 403
3 565 562 510
3 406 510 562
3 403 508 695
3 406 661 508
3 508 661 695
3 709 507 597
3 597 507 544
3 520 709 518
3 406 547 661
3 507 709 520
3 505 615 502
3 502 615 652
3 505 601 615
3 615 601 652
3 297 532 595
3 595 532 228
3 297 230 532
3 532 230 228
3 505 509 642
3 642 509 411
3 505 530 509
3 509 530 411
3 707 506 474
3 474 506 541
3 707 546 506
3 506 546 541
3 346 504 703
3 405 503 677
3 503 552 590
3 413 533 501
3 347 500 526
3 526 500 617
3 500 516 617
3 554 499 345
3 499 346 590
3 539 498 600
3 600 498 546
3 539 569 498
3 498 569 546
3 575 497 535
3 575 522 497
3 497 522 544
3 535 496 507
3 507 496 544
3 535 497 496
3 496 497 544
3 344 495 703
3 703 495 346
3 344 559 495
3 495 559 346
3 683 494 526
3 526 494 569
3 683 520 494
3 535 493 533
3 533 493 683
3 493 520 683
3 559 677 503
3 503 590 559
3 554 490 348
3 348 490 564
3 554 516 490
3 490 516 564
3 345 489 552
3 552 489 590
3 345 499 489
3 489 499 590
3 557 674 550
3 550 674 547
3 557 540 674
3 674 540 547
3 520 641 507
3 507 641 535
3 520 493 641
3 641 493 535
3 516 488 617
3 345 501 488
3 488 501 617
3 348 486 554
3 348 504 486
3 486 504 346
3 695 522 485
3 485 522 575
3 405 482 403
3 403 482 668
3 405 677 482
3 482 677 668
3 544 481 540
3 661 547 481
3 481 547 540
3 413 480 552
3 552 480 345
3 413 501 480
3 480 501 345
3 516 500 564
3 564 500 347
3 339 477 397
3 397 477 404
3 339 675 477
3 477 675 404
3 612 476 502
3 502 476 412
3 612 401 476
3 476 401 412
3 661 475 522
3 522 475 544
3 661 481 475
3 475 481 544
3 287 524 289
3 289 524 703
3 287 537 524
3 524 537 703
3 677 473 560
3 560 473 344
3 677 559 473
3 473 559 344
3 552 472 694
3 694 472 405
3 552 503 472
3 472 503 405
3 406 508 510
3 510 508 403
3 345 488 554
3 554 488 516
3 554 486 499
3 499 486 346
3 617 471 683
3 683 471 533
3 617 501 471
3 471 501 533
3 288 469 290
3 348 665 469
3 469 665 290
3 703 468 289
3 289 468 288
3 703 504 468
3 468 504 288
3 569 467 518
3 518 467 520
3 569 494 467
3 467 494 520
3 284 534 286
3 286 534 298
3 281 470 285
3 285 470 286
3 281 282 470
3 470 282 286
3 291 466 288
3 288 466 289
3 291 219 466
3 466 219 289
3 348 469 504
3 504 469 288
3 350 465 538
3 538 465 564
3 350 665 465
3 465 665 564
