# vtk DataFile Version 3.0
A great-looking cell
ASCII
DATASET POLYDATA
POINTS 315 double
134.67236824429818 166.87564117906936 86.40139646949697
131.81409890795067 167.61461724099314 88.4587597279417
133.47444822367478 167.72862047525282 87.54385497090958
132.3970751652104 166.0915261501511 88.238425736104
134.5729873433676 164.17659719986256 87.49655829323103
135.1580362678195 165.3516769410671 86.1146654820511
135.89209864985563 166.96747413322083 84.9367001421481
137.09687595559225 167.91093206716442 83.61311284964577
136.82960197542465 169.0148170806952 85.09751611168382
132.28574188429238 169.263179310403 88.5048301876808
129.15376277750627 166.8131871500687 90.2952880759132
133.18117536698853 164.66221903339385 88.23452745254099
130.87384433685247 166.43602117850457 89.27321533805868
135.96624460166765 163.61173357823205 86.26397870363118
136.27773647577783 164.77184222966065 84.57399540653326
136.95060269297414 166.1481772904396 83.06032140357308
138.37555450353904 167.57765451790934 82.12475303868239
135.23316151395719 168.51200537507913 86.41389710498952
137.1649575531565 162.8436337162122 84.77167294602548
138.90396076247984 162.24721557797704 83.52541318429074
137.5167955388981 164.00376523951542 82.87021117695306
139.62946863802918 163.81276871008072 81.69776976203863
140.60808684453315 166.48047257343813 80.64435862418539
138.37205283332324 165.56870012982915 81.69035146989422
140.15941010471346 169.22799223515486 81.94947354716591
139.99701633839635 171.04553680526416 83.91028508274351
138.28859492317125 169.39648821646597 83.52144504431844
134.0876890915889 169.94261495372612 87.58234065429588
136.28622723959646 170.61324976128873 86.75591113960836
130.06432475880203 165.2177331838023 90.36431952949106
131.80807706616952 164.53070179250614 89.53587840845626
133.79519211511254 163.15814089481623 89.28673539064611
135.77631194357195 162.74268037582823 88.12554321014751
137.32308301879186 162.16088983655916 86.78565961808013
138.45719406385322 161.5614826810365 85.3943311943301
140.28338760971224 160.6939440995728 84.84494583440177
142.05518099783424 163.77156670413677 80.76177956480032
130.45856095960468 168.53197254646386 89.42479682766245
146.97775450946574 168.55313302267956 81.68403329593846
144.57450378287575 167.24156998039012 80.53923679177686
142.25119261789192 170.77755307867142 82.65058521372985
139.73784881519245 172.17552754696695 86.06877371103282
138.18857405099018 170.6733152582053 85.36845972186126
131.15642343316256 170.3317171510957 89.23611047430158
132.72038235944444 171.42554643461244 88.80557928007387
134.86689654733837 171.89915766115027 88.10570533625186
136.8008428653985 172.4642424204939 87.88976281037304
138.0245779746651 171.73915057663862 86.90760117120195
130.94925221209007 171.86073344196095 89.90356415818283
132.2903810636535 162.99739376398492 90.7666558715904
133.78802065098554 161.87826125891408 91.32688513266746
135.56879843753575 161.78700736359139 90.03644640184999
137.33021677547774 161.4264429071758 88.81511826167733
138.93633936902768 160.38863231392276 89.82106739260607
139.2045269540291 160.72912409509905 87.33384774763287
140.83247282295255 159.81230452321174 89.0184847698674
142.8173543159793 159.13885611921953 88.73592946007334
147.96756298675518 159.46865389406403 91.21842777415749
151.80678492255637 165.7151005154764 90.2922853010683
146.48653224831398 171.85574392815545 87.36274815344102
129.8205059140214 170.3935024788562 90.31129418741897
133.14147362688294 174.34742375674412 90.07460215727443
142.15357237079482 172.38560991422673 85.12040433948725
143.6609374447607 173.29927294850287 88.32560422146027
141.42861332619535 173.45406509325673 87.41471693546417
132.0876457426969 173.26562059149887 89.66213543437993
130.5257284772343 173.54591735904464 90.46996114387248
131.75636348477087 174.7712611048107 90.55283460054326
134.60947486401733 174.72028214029453 89.79220608333213
133.78181888061442 173.2874491078139 89.03842732376984
136.40283850449688 174.74675810675518 89.73077093639849
135.58330822400148 173.57001915644577 88.74958464982221
138.2456985538393 174.5828876930294 89.65176989616322
137.17546405799067 173.75383487092523 88.76988868855585
138.85677894705097 173.21779651110703 88.04030537194188
135.62523420616236 160.95417610945697 91.97879232921471
137.19462926957007 160.54797088046425 92.4720641758313
137.20850818340483 160.82255887041043 90.81832897032274
138.7544173798063 160.3334515149117 91.91415858452574
140.46664548520644 160.05972995900552 93.48606959019918
140.5050299218245 159.76881604141582 91.11062093637003
142.92517509644816 160.41217791848155 93.99968347810542
144.34510858398923 159.7470203135754 92.41613479702306
143.83790017463937 161.95222794650132 95.90302527569632
147.01946611114437 165.62900624731154 95.43234792340368
147.69082089443424 167.65269141153982 95.15956128188547
148.66155680584134 164.78235511854226 94.00492705888418
147.0785504592582 170.11109056766807 94.70830716515475
149.63246291803523 168.70514650672797 92.31374566630208
128.61544641060632 168.8030929925873 90.69951020592478
146.25598538243273 171.9861553007439 92.88516210549852
147.41610309821075 171.56233487176874 90.58068995106616
143.15879960817693 173.72327284866827 93.01289574441631
144.7592269104932 173.03655411789657 91.38464187077165
142.88592763674572 173.9340662756789 90.4102288059819
130.4182456969233 174.83665053845544 91.27362683429824
133.38656575594578 175.88425119295317 91.04624688965804
136.46422178632395 176.46470175308218 91.97758196338461
135.5056371506139 175.77325450042682 90.94026605413447
137.27993304032958 175.49974935900232 91.00101721985106
137.9004256355852 176.10639157943163 92.52025262255336
139.11196433154421 175.1297126641199 91.3112500529474
141.15134045699685 174.79296843322757 91.92036022818003
140.57362712480983 174.36132610451992 89.58116609031906
129.4100857581239 172.1874491692778 90.9986005753839
130.48373031688345 163.59187191413497 91.1848037599431
134.17033979346294 161.35643049608413 93.59660355882787
136.23958538762705 160.60949492110657 93.90979871358515
138.19572777276238 160.3595857860203 93.7765763073339
137.33127771096295 160.58640822308257 95.33756484483705
139.23370634255664 160.55290435715332 95.51257263559462
141.45129630941327 160.98909334222785 95.66686890454312
142.02286263670717 162.213841755251 97.36861042471621
143.29880235038416 164.27324849624011 97.60972835940363
143.14846050209837 166.96843127049416 98.40254736763784
145.18821204682848 166.31518881534524 96.84451404432996
146.05182512830785 168.53626668604454 96.60534133238488
144.02533611498671 169.5412124438231 97.84411435407957
145.26979275987333 170.719156074246 95.93207798376883
144.62252275902983 172.51151206135305 94.6347508547464
142.4711117582884 173.49019364819614 95.4868511988459
143.4628317034213 171.7631423485296 96.70414404177188
129.71193984837117 175.37240947231777 92.53782710107754
128.65785559629035 174.30590585106708 93.04173068854472
129.38076460403485 173.85535430535967 91.74711393408809
134.50422805833063 177.89201758608002 94.71501172895701
132.750642850277 177.08334391196382 93.06934746768076
136.51423555139954 177.0233089015695 93.5620189203839
134.86377697535886 176.9127859781384 92.43004622723
138.18068860578853 176.3163844952867 94.33935863012091
139.61755924707768 175.57120396940283 94.88899540046339
139.52824682596813 175.47480138275975 93.18759941717656
141.12902842842598 174.75674551675564 94.17966748007747
131.78952107345154 162.23281778954956 92.7814616854238
130.0154276799127 162.0064433195438 94.67681134060962
132.42776469661044 161.62720024672848 95.3336123734504
135.21992549128308 161.12228681240936 96.27696131940154
137.83943055734096 161.1485589492565 97.02962721607493
140.0218023032555 161.6206636840258 97.27826088455022
138.62408581441693 162.5855167966095 98.18689137680225
140.65795985696246 163.71212742937007 98.58338458991315
140.2496355071151 166.5585478897158 99.00549357259962
141.60355935509213 169.13119112704365 99.00349481953637
128.07219389459365 174.81521258750175 96.39160582628783
129.64537150604463 177.02560100993634 96.24253493614319
129.99409285658896 176.48117566308764 98.76380010806685
142.3633827647296 171.04917048564252 98.2957048470911
140.33612348667708 171.3575136224903 98.99654847610105
141.62013601778733 172.8777115995064 97.64767287400855
128.36029305929355 170.63629495832697 91.66108823174646
127.78522591447468 173.84739201468687 94.32028093608919
128.79835440968384 175.58041689233872 94.28247634032459
132.0747325991728 177.75503603691658 97.73972141388546
137.09667322842228 176.48352199119023 97.90426242953718
136.74095532263092 177.2192993868583 95.70917209759818
138.70018647955155 175.197891642622 97.74851026673431
138.56321579577343 176.08790430515384 96.21933822705036
140.41623196673027 174.757038846141 96.50516197646087
127.36257072909318 172.24678130241824 94.23921585662015
127.94904038338409 172.66532272447066 92.53430896770408
128.43253325740588 165.04358394661807 92.08367154125547
129.61351284756157 163.04216600142053 92.87833892280976
132.9253882058111 161.95331923542193 97.62078671517739
134.74715767270675 162.522311370626 98.10126403913821
136.62932422502877 162.4160766138953 98.23012942221598
135.49650035002668 163.9571477702748 99.01041167196207
137.88772191214895 164.5339293217033 98.95911801376896
127.52516651413224 172.1550669027411 98.7439795873772
129.18926911269548 172.2126764091635 99.03484749452986
127.48096416897849 173.2275678443013 97.42564377100248
128.54833288547906 174.34888609697379 98.99166933037398
130.9924037983287 173.17733173725742 98.97739121524657
138.92091585048982 169.21673179603104 98.99902409607537
127.37407186573934 170.74572587880354 93.42393149075303
127.28944514134817 172.83635072780152 95.77477553017115
132.21188520596615 175.5056706061998 99.11318626057718
134.94624576628954 175.48730939168146 98.99446476959638
137.3514857959321 174.4130894762407 98.97342234048341
139.45458402450538 173.53249494294363 98.42910456258092
128.06255336592048 167.29260275836026 91.69530369526751
148.2473757705283 159.96855848272446 85.61193359593244
147.08736268817697 163.50841918607648 94.8099048286257
146.4012752140583 160.27287456721885 92.5839667450574
144.93644943018268 158.46106528035068 88.88982089104077
145.05857607783332 160.95811607872616 94.071005263738
144.754277011608 167.8243761676589 97.6502499018089
129.66700633404017 164.8693469480131 99.07057458605456
146.51164591419854 167.02879874790148 96.0407100240713
146.10340692005033 172.42938382582298 91.07221628563646
134.17039433109304 165.49494256087644 99.01992702307936
136.02572294662065 165.6956932365184 98.98286590268319
149.93133231990754 160.69028104213692 91.19746660205988
149.5462573429329 158.96213919680784 89.48141030370257
127.65241622229938 168.9051777309481 92.53192828011842
127.17107324077608 167.00269733258492 93.32032111936878
126.7634813784129 166.79503446419815 95.4205519009542
150.32854101279472 159.70935344725797 87.28965950371095
148.7017775462159 162.21459767239307 84.17105882737887
126.72230612779893 166.89369300648707 97.18981873806449
150.96059466037966 160.70119122005738 89.2589137890248
146.84304928465315 161.81863573966362 93.84720489101504
143.84434821471692 162.20858494244686 82.21309737585591
127.88749226982131 166.73858562216157 99.0201762430756
146.9346406393311 161.1178168542538 84.04957857454023
146.4207889090812 158.60278846505057 86.98321272534152
150.34742667910763 161.577058278713 85.87137863224049
130.60580034495092 166.98158660957134 99.13566437550702
145.07191728641502 172.5740019664811 87.84466396710073
142.19929279184052 174.02365431961294 88.85995149659966
149.78026438899167 169.0497689456816 86.92737138264715
148.77868317588832 164.6200019769282 83.27028331355405
131.34022132247273 176.00365266848576 91.8709595583674
150.0882027066671 166.19996258523494 84.69015191076025
145.64393678245355 162.44357949450662 94.92590458951933
145.79409168701318 158.65227142147822 91.08952164402173
147.05901748629503 171.75316262585764 88.93427718043952
150.0832621757889 168.94316273998223 89.03818549447818
144.21374243283327 173.15561202682886 89.88668525579737
152.26557005484818 164.5299361201939 88.64243872322393
126.72633618856676 168.42766194760378 97.91191155616266
143.61782328243586 158.72665978899045 90.67508085207594
127.764287248697 168.96621483803727 98.9539165099427
141.20360330592789 161.80193005925153 82.56166421246718
129.4664340775848 168.85242318860608 99.03040944744811
131.64914860309784 169.04880779217046 99.01632375151236
148.28450560288428 161.32166892107458 92.5355914405963
130.56889480106588 176.76101585364347 93.74405187913389
133.9274138002069 169.24837467559706 99.07748765537617
144.83459512981477 173.0510203820079 93.02165254607756
151.83413707762796 163.1615138051596 86.85295881212171
150.8299458794882 167.4896439080731 87.84482131536188
136.32426437990244 169.3457896629261 99.02579231658258
150.32913488395954 163.8711949996839 85.12602981403691
151.30015109535495 161.40786534581636 87.58257743924652
151.62432219124972 166.2173700545998 88.62255715966221
151.29267120773565 161.97445763795793 90.69974898947443
151.7839094386726 163.73944454473553 90.62007408020659
149.46808430042367 168.37010095769182 84.8554156507645
126.63082217454516 168.1521020651164 96.35340691520823
150.0511910637826 163.15343135901216 92.29350650804419
148.71176005442635 157.94323206266765 87.33843530095052
126.90986849709466 168.91528487174872 94.67562931322948
135.13490115978644 167.35058051810162 98.99349743326033
132.91592075681035 167.21904691792705 99.04902853948855
142.28299289833052 159.45509053497557 92.07334873045687
126.60009088873052 169.75143047368343 96.60652007988412
150.17602127740855 165.32497327352425 92.91108868959174
126.75656106564166 170.30361878826204 98.44140443678636
151.84625348956067 162.49431845912838 88.96052116178804
137.42683556527422 167.1171633123591 98.97551051928667
128.50257802089382 170.55569597712287 98.958061025807
141.69129492870968 159.9222490177957 86.83178579529829
132.00132264817137 165.19182658194936 99.136622107134
130.39531301022475 170.83408201619642 98.99409138657661
143.11843845630452 160.45747854741805 84.41533724460842
145.37716607636617 164.00076959598255 95.96713702078944
132.57709509197142 171.1666918681555 99.02429390636905
141.9708406094845 159.26442554038155 90.32454216293203
134.9406129121549 171.3572035569733 98.97863818209471
142.0170476066413 165.2749566458127 98.95777772286877
144.69002161221846 164.35109215983746 80.67597091894095
133.44420518385726 163.57210938991642 98.95118363166459
131.17940148091347 163.02643585042642 98.94943781838622
128.5378610149407 162.7514915452688 98.59659679167305
127.15597761216166 164.67877971990617 96.82355883696118
147.00981448302602 165.73448930800186 81.48274297379129
127.27239307538474 165.30354886632142 94.32694631490847
145.24022916282445 161.2193485119409 83.57055313862284
148.75109515272214 168.94006078267333 93.9727145997716
148.27535246419757 166.23545366298939 94.69902335598434
145.66899071322993 160.00988807424486 85.16732135773239
130.5014268724513 161.6256471617608 97.07244859558314
128.46255853037397 162.43635172836213 96.27940865134335
147.24286059847023 158.38031968930198 89.23275260248265
148.74817732831428 167.16789717701562 82.96518188286542
133.36368416982876 178.37925955743208 96.30910113485764
126.95966338950537 171.03046938580746 95.27436202259875
150.1505322251576 168.3742850689262 90.69505202278661
148.39005509064293 170.54232144298095 92.65847139551084
142.95239747279768 173.05843596405467 86.7352496647192
126.94751891092534 171.58890004409872 97.05282943057995
128.0756183872643 163.4297140532838 94.34451611611573
133.5626191256062 177.06325528667412 99.00586783608871
142.40958783764052 168.71507258252893 80.83748385134871
146.152650358153 171.68033564789897 85.19878993203831
144.63743197877153 169.93490684815 81.71157228446218
151.27620327551242 165.60400654963962 86.74553531802145
148.20316591717847 162.90259103614773 93.52373831641633
133.5594747719818 173.3290854298976 99.07947238735863
151.21885723944465 164.94892174406792 91.80574313046174
144.4545978783115 171.76556841001909 83.79240159790294
149.22407801953327 166.9394995160695 93.62712460270727
135.67608088060481 173.27535715071036 98.99066026945508
149.17316000818485 169.92826226781037 90.63125654046678
137.57775646198687 171.7888822010092 98.99520761725275
148.4551567750465 170.67692704201184 88.4159206988367
150.48221119564425 167.42025480084283 86.1394564867153
150.6675493768035 166.84735799355477 91.73367116673033
142.588403805847 167.15843850568064 80.03867991703284
142.90342734191302 165.72733860126712 80.06594587744476
145.6080229189924 172.47979457474545 89.42049037878787
127.77687737007466 164.61706048897454 98.98200917665278
146.52213967515917 162.98127402505222 82.64545028024705
144.46042060940394 172.5156878632367 86.29890876065255
148.32077028493228 169.27233281281647 83.44974055200979
144.06939577371622 159.27394127917157 86.77749893021154
146.64275568489293 170.60445196613037 83.32928561918114
130.43902686148175 174.87448192816788 98.97708111841287
128.68328878295696 175.94043115170288 97.70805229220271
133.84032047226555 165.7937749376048 87.2518269328975
145.98085584844796 171.51323057827068 94.66996494224202
132.03659792957748 177.87985626812684 95.21257240422958
151.01642559097536 167.35155607015844 89.72364158562158
148.08033824609961 170.41665269085354 85.58370019863551
134.7763440528868 177.65611276495278 97.41656595903997
POLYGONS 626 2504
3 17 0 2
3 309 5 4
3 3 12 1
3 0 5 309
3 0 17 6
3 1 12 37
3 17 8 6
3 6 8 7
3 2 9 27
3 2 27 17
3 37 43 9
3 29 12 30
3 12 29 10
3 12 3 30
3 3 11 30
3 3 309 11
3 309 4 11
3 4 5 13
3 5 14 13
3 5 6 14
3 6 15 14
3 16 15 7
3 6 7 15
3 17 28 8
3 28 17 27
3 18 20 19
3 18 13 14
3 18 14 20
3 20 21 19
3 37 12 10
3 14 15 20
3 23 22 21
3 20 15 23
3 20 23 21
3 15 16 23
3 16 24 22
3 16 22 23
3 26 25 24
3 26 24 16
3 27 9 44
3 8 28 42
3 25 26 42
3 8 42 26
3 9 43 44
3 45 27 44
3 28 27 45
3 13 33 32
3 13 32 4
3 13 18 33
3 10 89 37
3 18 34 33
3 18 19 34
3 35 34 19
3 19 222 35
3 19 21 222
3 36 201 222
3 21 36 222
3 21 22 36
3 24 25 40
3 37 60 43
3 42 28 47
3 25 41 62
3 25 42 41
3 25 62 40
3 48 43 60
3 69 45 44
3 71 45 69
3 45 71 46
3 28 45 46
3 46 47 28
3 41 42 47
3 43 48 44
3 31 50 49
3 51 50 31
3 31 4 32
3 31 32 51
3 29 160 10
3 32 52 51
3 32 33 52
3 10 160 179
3 54 55 53
3 54 53 52
3 33 54 52
3 33 34 54
3 54 34 35
3 10 179 89
3 149 60 89
3 37 89 60
3 61 67 96
3 62 41 64
3 60 149 104
3 60 104 48
3 65 66 67
3 65 44 48
3 65 48 66
3 65 67 61
3 65 61 69
3 69 44 65
3 68 69 61
3 68 61 96
3 70 71 68
3 69 68 71
3 72 73 70
3 71 70 73
3 71 73 46
3 103 74 72
3 73 72 74
3 46 73 74
3 46 74 47
3 74 103 64
3 74 64 41
3 41 47 74
3 48 104 66
3 50 51 75
3 77 78 76
3 77 76 75
3 51 77 75
3 51 52 77
3 77 52 53
3 77 53 78
3 80 79 78
3 53 80 78
3 53 55 80
3 89 193 149
3 93 94 92
3 95 67 66
3 95 211 67
3 128 96 126
3 97 98 128
3 96 128 98
3 68 96 98
3 68 98 70
3 98 97 99
3 98 99 70
3 101 100 131
3 70 99 72
3 101 72 99
3 101 99 100
3 102 103 101
3 102 101 131
3 72 101 103
3 92 94 102
3 103 102 94
3 100 99 97
3 105 30 49
3 106 50 75
3 75 107 106
3 75 76 107
3 108 109 107
3 76 108 107
3 76 78 108
3 108 110 109
3 108 78 79
3 108 79 110
3 79 111 110
3 79 81 111
3 112 111 83
3 112 83 113
3 179 193 89
3 114 113 115
3 85 87 116
3 118 117 116
3 87 118 116
3 126 211 226
3 119 120 121
3 119 92 120
3 117 118 121
3 119 121 118
3 122 123 151
3 95 66 124
3 122 95 124
3 122 124 123
3 122 151 226
3 122 226 211
3 211 95 122
3 127 128 125
3 131 129 130
3 131 100 129
3 132 131 130
3 131 132 102
3 120 92 132
3 92 102 132
3 159 104 149
3 104 159 124
3 104 124 66
3 127 97 128
3 129 100 127
3 97 127 100
3 133 105 49
3 133 49 50
3 133 135 134
3 133 50 106
3 133 106 135
3 135 106 136
3 106 107 136
3 107 109 136
3 136 109 137
3 109 110 137
3 139 137 138
3 137 110 138
3 110 111 138
3 138 140 139
3 138 111 112
3 138 112 140
3 112 113 140
3 114 142 141
3 114 117 142
3 145 152 144
3 121 120 148
3 146 121 148
3 146 148 147
3 146 147 142
3 146 142 117
3 117 121 146
3 173 149 193
3 150 151 123
3 153 154 314
3 125 154 127
3 155 156 153
3 154 153 156
3 156 130 129
3 156 129 154
3 178 157 155
3 156 155 157
3 130 156 157
3 130 157 132
3 147 148 178
3 157 178 148
3 157 148 120
3 120 132 157
3 149 173 159
3 158 150 159
3 173 158 159
3 159 150 123
3 123 124 159
3 129 127 154
3 105 160 29
3 105 133 161
3 161 134 281
3 161 133 134
3 136 162 135
3 136 163 162
3 164 165 163
3 136 164 163
3 136 137 164
3 164 166 165
3 164 137 139
3 164 139 166
3 166 139 140
3 140 141 166
3 142 172 141
3 142 147 172
3 170 167 168
3 170 143 169
3 170 169 167
3 171 170 168
3 276 173 241
3 193 241 173
3 280 174 276
3 158 276 174
3 174 150 158
3 167 169 280
3 174 280 169
3 174 169 143
3 143 150 174
3 288 175 171
3 292 176 288
3 175 288 176
3 314 176 153
3 294 177 292
3 176 292 177
3 153 176 177
3 153 177 155
3 177 294 178
3 155 177 178
3 178 294 147
3 134 135 271
3 162 163 261
3 250 168 167
3 168 250 253
3 168 253 171
3 171 253 256
3 171 256 288
3 6 5 0
3 9 2 1
3 7 8 26
3 26 16 7
3 31 30 11
3 11 4 31
3 31 49 30
3 143 144 151
3 151 150 143
3 271 135 162
3 261 163 165
3 249 166 141
3 249 141 172
3 247 250 167
3 167 280 247
3 294 172 147
3 2 3 1
3 2 309 3
3 2 0 309
3 37 9 1
3 105 161 160
3 160 161 281
3 272 281 134
3 271 272 134
3 194 179 160
3 264 266 281
3 281 266 160
3 263 264 272
3 272 264 281
3 262 263 271
3 271 263 272
3 271 162 262
3 262 162 261
3 194 193 179
3 195 194 266
3 266 194 160
3 264 195 266
3 252 186 262
3 262 186 263
3 189 252 261
3 261 252 262
3 261 165 189
3 189 165 190
3 249 190 166
3 166 190 165
3 202 198 264
3 264 198 195
3 206 202 186
3 252 206 186
3 243 252 189
3 243 206 252
3 190 242 189
3 242 243 189
3 249 242 190
3 241 193 194
3 195 241 194
3 198 238 195
3 238 241 195
3 202 219 198
3 219 238 198
3 221 219 202
3 206 223 202
3 223 221 202
3 224 223 206
3 227 224 243
3 243 224 206
3 231 227 242
3 242 227 243
3 172 231 249
3 249 231 242
3 245 241 238
3 247 245 219
3 219 245 238
3 250 247 221
3 221 247 219
3 253 250 223
3 223 250 221
3 256 253 224
3 224 253 223
3 258 256 227
3 227 256 224
3 294 258 231
3 231 258 227
3 172 294 231
3 245 276 241
3 247 280 245
3 280 276 245
3 292 288 258
3 258 288 256
3 294 292 258
3 276 158 173
3 154 125 314
3 145 175 152
3 311 144 152
3 170 308 143
3 143 308 144
3 170 145 308
3 308 145 144
3 171 307 170
3 170 307 145
3 171 175 307
3 307 175 145
3 30 105 29
3 38 306 304
3 295 313 59
3 216 295 293
3 293 295 91
3 260 201 36
3 260 302 201
3 291 297 88
3 62 290 40
3 62 303 290
3 290 285 40
3 38 39 285
3 313 284 59
3 290 303 284
3 284 303 59
3 40 283 24
3 40 285 283
3 283 285 39
3 63 279 64
3 64 279 62
3 63 303 279
3 279 303 62
3 87 278 90
3 90 278 91
3 297 277 88
3 297 312 277
3 216 209 295
3 295 209 313
3 209 237 313
3 293 91 278
3 278 88 293
3 86 269 84
3 84 269 85
3 86 291 269
3 269 291 85
3 85 268 87
3 85 291 268
3 268 291 88
3 38 265 39
3 39 265 260
3 210 302 265
3 265 302 260
3 114 259 113
3 113 259 140
3 114 141 259
3 259 141 140
3 251 305 56
3 56 305 183
3 55 257 80
3 234 312 58
3 54 251 55
3 54 35 251
3 86 246 291
3 291 246 297
3 246 289 297
3 81 244 82
3 80 257 244
3 306 290 284
3 284 313 306
3 304 274 38
3 38 274 265
3 38 285 306
3 306 285 290
3 84 181 86
3 115 255 84
3 286 212 296
3 212 210 274
3 289 58 297
3 58 312 297
3 312 234 230
3 35 254 251
3 239 191 235
3 88 277 293
3 293 277 216
3 57 191 225
3 313 304 306
3 313 237 304
3 270 204 305
3 305 204 183
3 251 56 55
3 56 257 55
3 251 254 305
3 305 254 270
3 201 254 222
3 222 254 35
3 204 180 240
3 183 220 56
3 210 197 302
3 236 218 58
3 218 234 58
3 234 218 286
3 296 230 286
3 286 230 234
3 93 217 94
3 94 217 63
3 93 300 217
3 217 300 63
3 312 216 277
3 312 230 216
3 91 215 300
3 300 215 59
3 91 295 215
3 215 295 59
3 87 268 278
3 278 268 88
3 220 214 82
3 57 182 214
3 214 182 82
3 235 199 248
3 232 197 210
3 83 213 255
3 83 184 213
3 56 220 257
3 239 235 236
3 236 235 248
3 237 274 304
3 24 283 22
3 274 210 265
3 216 230 209
3 64 208 63
3 63 208 94
3 64 103 208
3 208 103 94
3 63 207 303
3 303 207 59
3 63 300 207
3 207 300 59
3 240 192 273
3 229 232 286
3 232 212 286
3 196 180 205
3 205 180 197
3 240 273 204
3 204 273 183
3 197 180 203
3 192 196 199
3 82 244 220
3 220 244 257
3 240 196 192
3 236 248 218
3 218 248 229
3 57 214 273
3 248 199 233
3 57 192 191
3 191 192 199
3 274 237 212
3 212 237 296
3 229 205 232
3 232 205 197
3 196 205 233
3 233 205 229
3 203 270 267
3 273 192 57
3 239 236 289
3 289 236 58
3 201 267 254
3 254 267 270
3 213 181 255
3 255 181 84
3 289 246 239
3 239 246 86
3 229 248 233
3 199 196 233
3 286 218 229
3 191 199 235
3 200 225 287
3 91 188 90
3 90 188 93
3 91 300 188
3 188 300 93
3 225 239 287
3 225 191 239
3 237 209 296
3 296 209 230
3 83 255 113
3 255 115 113
3 111 81 83
3 81 184 83
3 85 187 84
3 84 187 115
3 85 116 187
3 187 116 115
3 212 232 210
3 114 185 117
3 117 185 116
3 114 115 185
3 185 115 116
3 182 200 184
3 184 200 213
3 81 82 184
3 82 182 184
3 80 244 79
3 79 244 81
3 225 182 57
3 225 200 182
3 226 311 126
3 213 200 181
3 181 200 287
3 240 180 196
3 273 214 183
3 183 214 220
3 181 287 86
3 86 287 239
3 302 267 201
3 197 203 302
3 302 203 267
3 203 180 270
3 270 180 204
3 96 211 126
3 96 67 211
3 128 126 125
3 126 311 125
3 144 226 151
3 144 311 226
3 90 310 87
3 87 310 118
3 90 119 310
3 310 119 118
3 119 228 92
3 92 228 93
3 119 90 228
3 228 90 93
3 314 282 176
3 176 282 175
3 314 152 282
3 282 152 175
3 125 275 314
3 314 275 152
3 125 311 275
3 275 311 152
3 202 301 186
3 186 301 263
3 202 264 301
3 301 264 263
3 22 299 36
3 36 299 260
3 299 39 260
3 39 298 283
3 283 298 22
3 39 299 298
3 298 299 22
