# vtk DataFile Version 3.0
A great-looking cell
ASCII
DATASET POLYDATA
POINTS 838 double
59.682530503281015 279.9978634535803 7.877545927388075
62.64297632093265 278.75149828564093 6.147035297782757
61.611911851955384 277.5830098508795 6.4177639142561445
59.195993429671624 281.97912137957496 7.5215242446927535
62.55220378680167 280.42097814632064 6.219800362723686
64.18464799951592 279.4731267532764 6.548621074804925
59.39552799386026 283.8736234559211 7.755809097750175
64.26136647190803 281.646138674419 6.250306179697951
65.72129910273064 280.4632756561151 6.531796129201185
65.95503049887763 281.923893253575 6.476792831504537
60.56274024849587 284.57684770521513 7.070049220146657
61.90324245901749 284.3158029907673 6.274561366823989
63.78559164234099 283.7582537212893 6.115507985825781
65.36510076190908 283.1221692352933 5.835117702349124
66.90739468825099 283.3145173238043 6.568283802155139
61.31128209576043 285.9978738632469 6.961481771857998
63.309387771986465 285.91480084774173 6.3242223611931125
65.61508749772909 285.1907307215378 6.065443384847628
58.48057092568653 276.8498898949679 9.891634152339133
59.21213043706369 275.3247285345478 8.366572602848672
60.42720843301199 273.3015930822903 8.722325347135799
62.576314259217995 273.1459445504809 7.60336864583856
59.891413914716395 277.6259565513121 7.798442952162891
61.31188250348671 275.29451358052034 6.697788359398461
63.76812100394524 274.7542157316559 7.137296799915632
65.46526993812978 275.82070958806133 8.072629142123006
63.72238628441317 277.08353426381757 6.547198375409458
58.92698723707678 279.0452009119021 9.573638068398434
66.96682702802406 276.91582371323875 9.65783375128877
66.2366919657239 278.4709143995382 7.451689518645141
58.584237675742074 281.08181211981463 9.242912458692873
58.339673493456296 283.0447318132738 9.00843061392396
68.09478455488721 279.4125515291235 9.70028145666786
67.3878100021869 281.16278598781923 7.51237866366362
68.98886733088226 281.8074022687507 9.304999985395794
56.91419939706662 286.21713081228603 9.541287818134357
58.24504250290113 284.94959343133814 8.71596579902564
68.65028901444734 283.2827649631355 7.7082841733040235
70.4430839573736 283.46584821721575 8.903547392316547
58.4959446766825 286.84878822217485 8.532947938011489
59.77510546349782 285.59979419705587 7.9126224912118746
66.62328526628191 286.59341122536307 6.509249273122547
67.96906356853718 285.38582332385306 6.78560637749034
71.53265998718746 285.5200672841608 8.533226919535776
69.73165886627652 284.85994541790427 7.80225839771248
57.18613239874013 288.1359901745866 9.212537955083691
57.49607382690787 290.0112046906959 9.19099800676303
58.81999883157435 288.756615008513 8.398712737001233
60.18936117243081 287.4534945716706 7.685923105294706
62.28906721526634 288.0906892457204 6.849590047678831
65.08896786602612 287.9522129745575 6.796527891262833
67.6956604842182 287.70101349925886 7.042623663217005
69.69532007664463 286.8140181087828 7.758289877024526
57.66169164011368 291.97757773683065 8.871338275631656
59.145889750165864 290.6630133224511 8.400804963610295
62.383738130236424 290.24623564357995 7.368681134479663
64.49044610245144 290.5483470224803 8.016438924551727
66.98029149586498 289.7707245341189 8.021626168884305
59.582394332606555 292.49025076798387 8.666822409226993
61.170063404401 292.8954345105922 8.355001442111016
64.38762496833958 292.82905991245195 9.238783736058075
66.41460802430333 291.79893414692856 9.280086352060136
60.294728561263256 294.201181965499 8.929012234715918
62.3820314649193 294.0212193176657 9.280433985248989
60.34552274414027 272.1858607261084 11.192403145607427
64.38957578363444 272.12605671298076 11.301128483990595
62.49796027320018 271.92426168885453 9.641833627617912
58.02133772970921 276.3629461877303 12.251938064093464
58.177966711687844 278.1327881145896 12.992387722464267
64.88658874238756 273.2427734758936 8.830901315306072
65.76774710276811 273.730997436698 11.05104185528857
66.70662739933006 275.69274338517624 11.991774870023182
66.11781176078608 275.00493609619383 9.866869826092145
58.339937189442836 278.38199776998795 11.415223830379617
57.567357915584594 279.5650779958452 12.583038705570274
58.14429617967611 280.3212689990821 11.021303984146469
67.80847515386955 277.76371124600684 11.445978405801169
68.86538646360016 279.4167665706741 12.149813123903401
56.89961914556369 281.2893017359733 12.227961592869063
55.59636434826571 283.21664534902436 11.889289220898545
57.39110962752095 282.1739651249127 10.551784841759282
70.35513711464668 281.2939851162599 12.715820388964916
69.30892927013394 280.885577836748 10.934024990331432
56.88609567306094 284.1626407501102 10.009149887260904
55.35623696939898 285.59346064299865 10.911729789307877
71.79169024885765 282.68550538009515 11.950506905379596
70.6274530998122 282.23989393470475 10.627475630283316
54.21033077298328 287.34012612623656 11.775055935857774
55.72351334859692 287.686892715555 10.406030940960509
72.67403578948637 283.61234072392347 10.102870683062056
53.22153064202215 290.8148660862073 12.301046644409368
54.53367520512715 289.5250284004364 11.049456992356244
56.1095184962535 289.3186915643103 9.905340256376094
71.98957283359974 288.3639300736068 8.1057849108869
74.06828011716723 286.40666664160193 9.72782633771099
54.505167079739074 291.4491875516736 11.436301650704365
55.98829902274955 291.23337812005127 10.224543695500547
69.3229446255161 289.0712970383147 8.139528370636725
72.40222932768029 290.4912560214156 9.268110443996177
73.9991310346975 289.27220203957415 9.898311337722289
70.73037664291405 290.2769018958497 9.000852729874063
54.84025273957418 292.98472909319264 10.842201110879286
56.4741531833516 293.39476684131705 9.84977198778126
68.82714742374691 291.34105673500824 9.218149444485714
69.38057306815888 293.2782762568993 10.015649452727438
71.20239655153313 292.23349307985467 9.967714606519657
67.82200965467652 293.050225498573 9.890187706140757
55.491589875407925 294.5506844953654 10.738074543845368
57.099715920731846 295.50365077423345 10.244514206019161
58.259780074873106 294.00195117475334 8.942642060988776
59.193133734114426 295.73002383088607 9.577277048091968
61.170268476969206 295.7573689028012 9.65562045387008
62.82514981640693 295.79036841120745 9.924421535794899
64.32963070920306 294.92325589691865 9.964279070873191
66.19061063846824 293.8714837681119 10.16705421986297
66.08284800979189 296.08332314307415 10.826306497741474
68.3086446128376 294.908657479455 10.893152412756123
58.48469120368615 296.7777477272834 10.77658561395981
60.143695555549 297.2438725728911 10.465947006890042
62.13695728660696 297.2863737288932 10.420887665609323
64.0726833690082 296.888439606142 10.559188521211421
59.40257356521707 272.54547282167414 15.705997886586628
61.3170215683754 271.6022012164174 15.88800742463032
57.98492755424756 274.4584034347831 16.43580534662514
57.82874394298736 276.3346126607242 15.719434100031245
57.82312360498626 275.05296493301296 14.17367738803451
61.10776144782313 271.678148248968 13.769676924929776
62.71792826232264 271.44042089671046 15.149583933235073
64.4838277742411 272.0697184381848 15.447181401651445
63.612828088657004 271.5760026722629 13.475921132669395
57.810150254323986 277.19564675758835 14.224000768101968
65.62590086740573 273.30117662605545 13.426105505430359
66.657024974149 275.53067369481363 14.688052271831147
67.4623263991339 276.93669619698346 15.829726964150137
68.35831403330612 278.67529461510924 16.299157167647156
57.59513309613111 278.9891010800468 14.201145458553592
67.82451628230203 277.71341498169096 13.826027009672794
69.29757996435862 279.7773068459688 14.377361033419282
56.69107468957447 280.4946659179877 13.800811739459949
56.57705743666274 279.8519866548458 15.433710582301575
55.33376530047229 281.1458981932802 14.803534755829357
55.739278288300774 281.80594079537696 13.372822902096866
69.90815161311177 280.0298904856306 16.187441573290737
71.03116942015997 281.0666847973198 15.026624169091383
54.25069733572385 282.9647237648512 14.201831901533557
53.17060660401271 284.73805716071496 14.797415831559038
53.881195996772455 285.2746335249118 12.90415505873517
72.17006367315209 282.4053816471009 13.742265144465629
52.38873077689864 286.2858020176267 14.298708377275698
52.12487486305551 288.23582486891354 14.193861846172034
52.907892924355636 287.1349850600793 12.974918422205478
73.90847265508997 282.9665205222918 14.165931052711457
73.56305840902522 283.13875544157486 12.342512459665397
75.41953510985216 284.20621013770005 13.341627934981181
52.93874236392353 288.8617995039641 12.491103058671928
76.6239416421739 285.9824088990998 13.786633374131362
76.01445262505385 286.1110370651766 11.813690450680376
76.96044369098516 288.38792125597854 13.409994527331834
78.0398508692497 286.52963048649406 15.213681660718757
78.16481867525184 288.42020406242983 15.388746303713173
79.70921957362944 287.7646900021401 15.968828817711403
52.10876597840753 290.27695961777346 13.88154203307222
51.28203674022132 292.14447638943926 15.114304366277004
75.1622304076701 290.1838878466758 11.952401208114656
79.18613061300255 289.3467911658356 16.082897223204842
52.24170096713633 292.0669490768291 13.258040246250804
52.23838964775287 294.3957995443977 13.643656430882249
53.462538213115245 292.71054208744374 12.154796733974926
73.43611065338844 291.4905169727996 10.800287095577456
74.47436256275519 292.5091333572786 12.85058421339023
72.60187436057896 293.6138387581174 11.72617261212243
75.78923306378174 290.93159789351597 14.203384844281137
53.977189829580595 296.27908176805744 13.104732128529037
54.20986266706595 294.50480528423896 11.980331292588122
55.47239487119169 296.03016154175145 11.633708656163828
70.54535754079852 294.25501890183784 11.207906413171056
71.5438983856164 295.0831141293181 12.740671263741795
70.19478240093515 296.33472622877525 12.025162741951627
77.63886701210741 290.22721503349186 15.51519424825826
55.70996594049097 297.44561630873517 13.036055111047956
57.18723222614144 298.40948952260504 12.864980869989042
57.1171080482875 297.11052926412464 11.706753218352725
58.950553138003066 298.1644735860917 12.047221850776417
61.201830349032186 298.33273875586247 11.865347829600706
63.29568704889643 298.37387140828724 11.768650096303388
65.53993553794601 298.26430570478493 11.62877830456187
68.1388291108777 297.7829828114236 11.33737481078547
67.07707326014673 300.4857370328727 11.113559736101678
70.74508301513117 298.8202973752521 11.903230404912582
60.35908418344753 298.9805314276706 13.54916287211595
62.40480548790781 299.2481930651566 13.372432451024077
64.39753636199104 300.4269624566746 12.555577469533933
61.99401758410518 271.982086848602 19.289330037639427
60.699162921973155 271.8989937093643 17.613089875673147
58.96424303046406 273.0686276175807 18.071596155509123
58.01976224489499 276.6615011031767 17.69988340533471
62.96423406993678 271.5323641740213 17.181812795292952
64.16666527428104 272.3020700214641 19.18001803546443
64.88321639827385 272.5105715508364 17.341349759582393
57.76308083790896 278.5335197417622 17.864031078091728
65.92567839702266 273.72786267820163 16.09446862654668
65.95190579345979 274.02623080214096 18.685434197800475
66.64196118824492 275.71481320393883 16.967899268547775
66.91028597876563 276.5840711729374 19.186838517029976
67.46648940077117 277.2712582775231 17.360530320998024
68.04382159207901 278.41931649204855 18.533080760328982
57.93124464017433 278.32088668365947 16.04966400346524
69.04515106419814 279.4329067657167 20.101445881840082
69.53770945254993 279.79661347995886 18.010239693809737
71.01190424237531 280.82827057938556 19.716360399312027
56.61219126796165 279.5059666848873 17.213467358655542
55.30700522150817 280.6850324629744 16.54649542828764
72.77761608594321 282.05920434760617 18.501467993643622
71.21226386723751 280.9953928650736 17.23675457556641
54.30004511759254 281.9173738541101 15.895253853836818
53.98597385433405 281.6764172887416 17.61557353897
53.25060547085266 283.5748983415055 16.51214061516827
74.81397098559985 282.73802960186526 17.651332073910975
72.97401772027656 282.28371371596785 15.986826088370783
52.11590789114835 285.6249597615344 16.089633224194415
51.127916199239664 287.2175572395457 17.502574286496994
75.12746401968413 283.4032101068664 15.535683044157937
51.45954523541527 287.312638754402 15.525263900153293
51.1248486326595 289.57582081417945 16.086382292811432
76.82127512020094 284.63947581857866 15.099820351890099
76.75195404803057 283.77055785337814 17.02525811109479
78.19422282132187 284.7730149884086 16.295979794490876
79.13593566553224 283.77741600552264 18.15988825067361
79.81997682481655 285.7548577718695 16.5780004822406
81.55557496043363 285.45394249971986 18.336548822233702
82.94829530974421 287.9292944769568 18.595070104600673
81.2873705998112 287.1772088329439 16.96332885846075
50.00781124590988 292.70640295723155 16.764673666042622
82.51191550520082 290.35448583270943 18.595084656921777
81.04404926893893 289.3750708516343 16.97592203452517
72.8961629685925 294.3264843332575 14.3452211808374
74.73187451372692 292.7328168370409 15.17540754606681
79.47493832367742 290.97574097166597 16.431398065006142
79.32487094257768 292.93895701558836 16.99505926069491
81.1807450618575 291.83686593822245 17.634554811765863
78.09195326043289 291.8989229124874 16.316200541874387
49.96430158594904 294.49488491104466 15.26831995126812
51.35220652399495 299.2413802248265 15.81418530091152
52.09329073359004 297.17605071287676 14.191887194525508
71.91094289330023 297.17008978759884 14.052136798866483
73.73024892174512 293.9303549591827 16.50683897608107
75.44162220926623 293.1596536772668 17.112259565796496
77.39615474442404 293.09258718498484 17.15988968828678
76.56343873936838 292.09371241591185 15.824258356942089
54.0762562992246 299.6432572247441 15.767364830994675
54.10009990218347 298.18562552753036 14.053513576984903
56.13137072092077 299.52343760952976 16.48424796824299
56.22629516603675 299.00201339367464 14.513154689857135
72.47380098264317 296.07946756221884 17.030234241451023
73.07860166579987 298.7854546550875 17.488702326836076
72.19202763060409 300.9467738987986 12.740177106871773
58.14681995067222 299.616370690722 16.022230151991085
58.41843451987518 299.0970031423449 13.938033170501585
60.37224183786236 299.60636516002967 16.56592716044948
59.73864797925304 299.5024121886657 14.994927710487584
62.40233172906616 300.38779525526064 16.73880919398483
61.437912412982335 299.691759419509 15.021484576381086
63.109399819629616 302.8239191171658 16.459564906932943
63.236869527492054 300.77656934637656 14.8185742191777
59.23498473192739 273.9922500887613 20.375064905138995
61.36783320151443 274.5768880768205 21.991415014118445
62.9765090018626 272.86667164426615 21.102737286150717
63.79082051787745 274.9507753349747 21.669959161558133
64.84472087192923 273.56628743390036 20.6111309337724
58.36586449657109 276.16701410236374 19.895626201347017
58.51269119452329 277.729069258349 21.196127501444725
65.98933400461935 275.19751630771515 21.042511742047292
66.81145095776516 277.2078160738817 21.47225814080228
67.74493429066862 278.14115537954746 20.29037548817803
68.25132749052217 278.80568750243106 22.19680294976026
70.18972756507756 280.0008816688229 21.85601414822659
58.10079403333984 278.0610326890272 19.377098474844324
57.163206323557276 279.05289389499524 20.827907086563748
56.791773760763824 279.32427291865673 19.00358926363259
72.12062597383267 280.8726542555695 21.838724969360488
53.98145418008027 281.3442742819966 19.714153569504237
55.22546752379625 280.2505515490575 18.38441954197775
55.49245951969246 280.02484500097273 20.349101985002203
74.18397792892108 281.18498402819404 21.67235804643107
72.89994745077806 281.5347290493441 20.34225062724351
51.94595273675874 284.54948611949175 20.176371049678785
52.878448967065054 283.0793396673663 18.881611114329115
74.63435027766239 281.97977919156034 19.75209208786784
52.015658245931164 285.02618567594914 18.10083660934608
51.2323514557445 286.3580262290625 19.532502070892285
76.41843636834533 281.18067008891353 21.08947225310228
76.7927425201208 282.449521327365 18.96365865904311
50.87538458212529 288.0053300678543 19.237551461850043
50.83751390314093 289.1129428837426 18.2036960998993
78.83121664446013 282.1184347885525 20.61746681566401
81.43351724738845 283.3322758204018 20.251137553832844
80.6772378946194 282.01107544055367 22.708584514220217
84.69681543374162 287.9371143988895 22.464113129787183
83.4624440271836 285.7560328623952 20.687688209175278
49.83348294533751 291.89951703058387 20.309528725153985
50.34289528893576 291.0660177611569 18.084817284141895
84.12145125555314 289.9347299650879 20.361653834509248
48.16788065464238 293.83746351177615 20.793370934802372
48.986144696195645 293.0238405342124 18.5703360451089
82.86482697557292 292.59069251697315 19.81988112411707
81.0596779117886 294.48182964567695 21.33251496741259
83.18827623109645 293.0548745184877 22.883636012488644
80.45564535750272 293.9670271621829 18.761742197752625
47.80531029358186 297.6093994849532 19.763519573007596
48.51630625663984 296.0149442666951 16.641538309184252
48.96145157917157 300.1428661802521 20.853169539853624
50.36383680057219 300.545258728762 18.488098985720967
72.78981711424174 295.8273064243349 20.1977402218095
74.26616141234145 294.4608871297354 18.40947375464392
75.47522029722035 294.9664102194118 20.498679504602485
76.55493613471712 294.3745308872563 18.47655006538415
78.32818985187721 295.00071732826643 20.30252217252856
78.44647148778517 294.21100489231077 18.12220260652434
52.903413146719856 300.86474266094564 20.095475740203028
52.76607740459351 300.4311868729104 17.566621146490398
55.25790495252524 300.2085559837604 20.55268386368103
55.08156252311077 299.9992272196379 18.288247245949517
70.42874604973606 299.71728383298426 26.31379651137941
72.52366486761257 302.4362788337392 24.390400804180036
73.11340297217035 298.7106449381904 20.379745360843973
57.352517640558496 299.7831809004226 19.785050582292275
57.151124712112825 299.82015712569415 17.730655471894963
59.904179531789055 299.52897424799244 20.114315927114045
59.04929596285365 299.83094894886443 18.11062343583103
62.12600700937806 300.40762439757685 20.475943991942664
61.33937639671456 299.6945425522197 18.45453057642365
63.008274138867044 303.1068243827048 20.970436272746532
62.599051915416354 301.71027741010863 18.624335702428837
68.7346889664066 306.3985866384576 22.489165886376227
67.6484155231854 309.1298591197964 18.36929890321791
60.704278300870435 276.3863856221024 23.364670637115218
62.7532149529585 276.2265815212343 23.234236344925083
59.94893028737844 277.5088356550942 24.800974166709928
61.79809182863246 277.2300479413479 24.82571651972766
63.80191474766587 277.3884327034291 24.795982531708585
65.07434101827066 276.7603634232769 22.837986970921566
65.87539212726726 277.8287087890602 24.904948037376574
66.85075320480026 277.8215090535862 23.26542855842981
68.05644532011627 278.8236082302827 24.84325500165388
69.61928068452042 279.49647965015936 23.591271391120504
70.3064899062647 279.63351412975965 25.428290509105803
59.22297560400057 277.60425778541486 23.01414335447177
58.322023037871595 278.5172275745785 24.59949132950805
57.706816298032216 278.8227006240192 22.711950429572205
72.42227219977111 280.30337108585843 25.51707790680731
71.34854222176142 280.1317394312288 23.631983236458748
55.91609523400077 279.7730963958191 22.362260234173036
54.57819530355419 280.7015400857303 24.115233172247876
54.26550108969965 280.9917082226141 21.818231414807602
56.532577629461734 279.46122089132103 24.35340697624708
74.6426324361588 280.8538579605453 25.530200860383093
73.3964153531977 280.6639688895948 23.59300527735858
52.813305848744655 282.74820165332807 21.302310717459076
53.24399270824433 281.86169408621987 23.092645105063752
75.6670477287556 280.75943283505967 23.388903171600347
51.863358455859284 284.3944931573367 21.911505670900944
51.3523081512226 285.419076404228 23.132350003089076
51.245342947371434 285.89066012627603 21.375934557809217
77.17866514321317 280.6414970011133 25.50256512480076
78.19375815101402 281.0129290276082 23.05771175567903
50.76026833114968 287.67865759357846 20.863226914805974
50.9082189049245 287.1664235362836 22.67269850636594
50.826387484483156 289.1171566103847 22.273916098792625
79.92211704539301 281.363064701181 25.429418701262883
81.84603761719879 282.51974555995236 26.96259335106907
84.64294627473049 289.3157414683997 27.276359894335393
83.37784541286197 284.3192630295545 25.44669483905196
50.73987582629293 289.7150475342077 20.109909979040836
50.62360273879318 290.9252571881955 21.81700362053982
49.121245300508974 292.91072246037555 24.772348449800624
49.288046302543066 292.2662019129822 22.46864299331516
82.64666133180256 293.60540019528565 25.40583461924367
80.93999603755275 294.6607723893222 26.694296936593016
82.99983399339041 292.99139231760483 27.85357241551866
81.09030680424677 294.7291008273999 24.022948644987093
47.76646707084394 295.1941397853275 25.095602704961244
47.571888513836505 296.0411875925757 22.24648406221712
49.73600243345925 298.93710065971203 26.07840009075441
48.94633910350422 299.899858356303 23.60642790532142
68.76246024418103 297.6886170841693 26.84725149643619
70.68521709532746 296.7534913775609 25.619102630204544
72.35141589283714 297.3005516719048 23.113713363538093
72.61327963740318 294.7970114813171 24.8133250740285
74.11223663127208 295.0250743816893 22.763908113338946
75.5638454653475 295.1800864078641 25.433147837061327
76.85513855219763 295.40528654330205 22.79716918849687
78.52579233564701 295.25489347762647 25.166120441874064
79.19462009774756 295.1210193638387 22.71319891337509
52.5033280372922 300.27141870282856 25.41228505158413
51.28832263343997 300.5343883304117 22.5587190095935
55.08694107492632 299.8775993530811 25.164680414035388
54.41243996943766 300.41186992994506 22.811548151173646
67.90192221051453 299.3804452412109 27.58935767308654
65.38935859322139 300.334249548979 26.98339846685562
68.14597471107606 301.7451275984117 27.274066270713664
57.01212113987188 299.41873758621733 23.912910730538595
56.503494744497026 299.8060062960115 21.791694532728382
59.61331226291437 298.8062493687967 23.84872561788746
58.55078481788347 299.45833918336814 21.92148338200924
61.76590995068561 298.97112380085133 23.774713211863247
60.9128030038324 299.30928284510793 22.067420900913778
62.740094699680064 300.9066563808177 22.86253805986255
60.87649696063599 277.8442726962557 26.371609916714156
62.70096767983903 277.9235987594421 26.4546695864078
63.404338542143606 278.34254041164564 28.324483486226807
64.6834957406459 277.8878153542591 26.72658150891453
66.80546763836406 278.26109093981876 26.97856390270806
68.9986479894188 279.28683949325625 27.578143060436012
70.55200314215892 279.55071555994505 29.14431961524081
61.63525107969451 278.71360800175756 27.745936472955204
60.20699503133719 278.7581203387047 27.379387612906392
59.20717037073387 278.422508458184 26.289495770976043
65.47348896751303 278.29312930166867 28.773172901022285
72.24841341275989 280.4353032441655 29.3408150058622
71.37311697274787 279.88119888896057 27.41840108154961
55.63694041009166 280.2156608965395 25.856997336304303
58.92173038454818 279.3474782154006 27.780088477543718
57.687807320705026 280.29713901286397 28.1492310688339
57.48982202812748 279.5813501832599 26.377263737256843
74.37341937301748 281.0807426614718 29.635510737898635
73.39810675755636 280.9404233614345 27.50507202998822
53.08734463758796 282.0089356281902 24.68925209661537
52.49648627401108 283.39892477652836 25.96100999276055
53.921711946797444 281.38495587293096 26.607568756867263
75.85861275246779 280.85717428464 27.722540440275456
52.26412019436645 283.53153693293854 23.591533938767373
51.56598861950136 285.20632794329055 25.048326105357827
78.64678064605238 280.9260061315143 27.907813764785235
76.94104321986872 281.0330691096906 30.23726835635855
80.29295465045894 282.1045870022619 31.25960765702522
51.040547548973215 286.631710577752 24.186240433120314
51.083938479772705 287.1282201369268 25.855244866802416
80.77433965687888 281.908779000354 28.985022775706934
80.8581410488798 283.80392435902513 32.91034414603725
83.63790034081913 285.97231515325853 30.77369312276045
84.4084897833174 286.64364290453295 28.06975113471821
50.917433685976846 288.3750811414161 24.185598871610196
50.722601388173175 290.8383420877299 24.00616665139132
51.20735309233716 289.3934866842151 26.095976913590167
83.77291092115841 290.9229146373127 29.673491810267173
50.75403380380263 291.92373171682175 26.740354267581093
69.53252851324706 293.70566174017995 28.844003817002676
71.95179628444586 293.373367231715 29.06719170838509
74.22131803643059 293.84762487198645 29.81250339804185
76.3579015890673 294.09282997249795 30.96623093510495
80.66722285646571 293.905891541095 29.552738466829467
50.53629045425846 293.71311157447667 28.521044658045753
48.96998864449492 294.0295256462218 26.99824310052741
49.986474530493574 296.36498718560415 28.160680849026573
65.9060164234667 295.1443949658795 28.265681425612325
67.44026877321485 293.95995982050414 28.91064119639229
66.33739029910116 297.44927708508993 27.358126587807988
68.25459969358718 295.2092117444628 26.865261065456853
70.99923935603267 294.26944816156987 26.808805755244904
73.62952959722459 294.2232684942928 27.33217324761817
76.18884389420131 295.0014713695342 28.360819693155086
78.66630700104928 295.0186258711462 27.770119556576162
54.070930162245794 297.2962825516321 29.16596065759476
51.98472881969974 298.6942962160931 28.05642070293195
55.662752332536165 298.166439371236 28.669706878212597
54.769687201984176 299.27147264700403 27.45088603075725
61.36699219668384 297.53658518135376 28.154910929808267
63.07781690038318 296.7591006203296 28.641103524242624
64.54064615100582 296.4501210093222 28.028912473460288
63.61194885791172 297.92945230646365 26.953085750045684
57.27086250249024 298.4702064372838 27.896359470794902
56.52787203879227 299.16863813247153 26.054120208255757
59.53072586148161 298.3625596459975 27.566164398278453
58.529989845669526 298.9114486752909 25.87512255474587
61.094020234436854 298.44185168037365 25.842472722769003
63.23176316126633 299.7259298415367 25.10728162837121
60.40407440562895 279.5173267844242 28.685971854620977
62.03177755211829 279.15981390513645 29.60988991760342
67.3557755584142 278.67934605441667 28.953495101055292
68.79862912405859 279.4481415502458 30.312671660504083
71.03572247948266 279.8415586722212 31.03445995472647
58.91374332285927 280.3534653561746 29.3299358418497
60.48921213149018 280.1298207043838 30.573632252824616
62.30843892890301 279.6650785867822 31.83154335133355
66.52513665923037 278.6540502395645 31.072799247254338
64.49759975721128 279.0258630437499 32.95262499885609
71.56558833527235 280.6960684094427 33.210022213828665
73.55339173453005 281.70302729617555 33.27942833986024
72.8642723502365 281.12216003007285 31.327688760218905
53.08930019014865 283.2821314092863 28.205917981354283
55.996532359798934 280.59708056385347 27.699742610510167
54.61781659275194 281.71843500032844 29.130219952615946
57.03020054222213 281.43138581716585 29.662454341585146
59.061930517792376 281.64389016711647 30.9824406337614
60.58822685027775 281.08119927398684 32.72529227768849
62.2933464225586 279.9367485466017 34.669321175979135
75.19287644120774 282.19557446364996 33.30836308615428
74.99413891875594 281.49833666538535 31.757722387006798
53.85024393301659 283.53663611288556 30.343645243806268
52.692115256569544 284.79866018936355 29.41602222704888
77.03060605550385 282.0969162199715 32.690081521804096
75.87796613077776 283.58010820844044 33.92996728181132
78.31404352920836 284.17449664966153 33.771211021012796
51.78106662504676 285.3887914989768 27.506936134972214
52.15377463698544 286.66988396021486 29.672664585740986
78.72483826506742 286.9403026091833 34.06327950791993
82.3582855808625 288.73753010733816 31.171260448046876
51.37915023652208 287.9608479175304 27.926055702562927
52.3225215637843 289.19276394919274 29.925212366830277
74.88754803137473 291.0914847851694 33.32612199696476
77.71783473086762 290.5977555159896 32.96240431327609
62.14922234254329 307.539526997931 11.68788653511003
58.70142035976116 316.70461916532633 20.20281303062284
55.874613618321206 316.01338410993606 19.20126185476234
77.23220650646408 295.3412845982826 26.69881824588616
78.60418262804289 292.6346240646486 31.362240042730654
79.95935213437615 289.2188236379139 32.782570397631176
66.06881075479863 315.42510109500364 17.556493638668737
62.57427970522036 316.68670967902216 18.600426324094546
81.31621580217107 291.55629748944034 31.478485080463436
64.7229408911156 314.9932128830356 21.27978444136512
51.52294765326695 290.0813833438368 27.995258377281086
67.91167231479136 313.6751638814954 19.200071148921317
62.4023111960153 314.06732235274865 24.11019723964805
63.29521806966203 280.02524218633715 36.553548256028876
59.95885024459677 305.2359654535846 14.892263018599643
64.06722615061746 292.42054094851375 32.63780706744464
67.18199462263424 309.9997067453704 14.466263993854044
64.60184984095147 309.8788849063409 12.732242207517029
69.01181963983846 299.5946170317307 11.14286678776385
66.77865695500195 292.3085144579766 32.8213915504033
73.61016957703762 300.4875428444631 16.77668430133788
72.73915150527962 297.9146152221482 15.86136699080908
73.01532620259364 301.6393242758923 14.275025663456566
73.3855773087504 303.08858631856515 18.005970159185363
84.05042521482272 291.751658837631 21.40051514279037
69.28768572109453 292.8799251051733 33.00838713098171
64.52591340136173 283.5553013184066 38.19871851881004
73.07384473327173 299.26740525853404 22.468898406577967
68.18236113527715 293.27385875037385 30.826966910775067
71.87877736006212 301.22386660256467 25.676958406924353
69.67575296034256 287.22469727557603 38.3052720009904
71.50222929524762 292.6439219731379 32.852841102461966
70.50743459221528 292.9151724468594 30.919509937250314
60.99835356929732 284.4802747757056 36.15709985504627
65.95358995242589 302.9784741626422 26.69108462390102
73.30109918615045 292.41725634810035 32.81239727354403
72.68081044624981 293.09334967580907 31.23033789733213
66.91649013502635 290.24012693392234 36.53351137194731
74.65061095835348 292.8949577020055 31.794314986710916
63.50727579755772 287.5783789730856 37.545014473826996
84.33282694201081 290.6460151987854 22.878175908576342
82.39650029358168 284.76014307841405 32.103259059211624
78.21249868808019 294.69649989751 29.924887995339656
61.541605047588185 305.51136075673156 24.2976255326302
83.99529837477257 287.8517525944882 20.436581406384395
82.14668866496794 282.93106575506084 28.685815548714302
84.0927597887189 285.4548202430342 26.797210134721325
78.52566881281489 281.63117987373687 31.474476845943407
52.12320049067461 291.9462449489967 29.225648669786526
54.247799866333075 292.964864957232 30.34296145027298
79.1822453985024 282.2851585578346 32.93431317685352
80.36543861484611 281.5365539525962 27.324376156139444
84.23975188361717 288.3533371412239 29.638918234336522
82.35537434906658 292.52275939095426 29.787828396883747
52.54509799871559 294.9238653752398 29.38047206750267
82.21695260002605 283.4241368066122 30.533993888722616
81.39411877780722 286.46217630688227 32.8876194191902
61.44237928904881 304.28278244271627 20.307690611080037
84.72326880564009 289.2977124269405 24.71371235594119
84.13622180323502 285.54171874881 23.31365952086434
55.227849915664066 295.1159298151203 30.032661515165216
57.615451857808154 295.2830372124758 30.682800933592727
84.05603015733145 291.2815023180892 27.605534677606595
83.19680812845867 284.4037238688354 28.1926971247008
76.48656043273868 292.42573607563315 32.31434088247405
79.36179081748968 290.9294193867995 32.008742355640514
61.54817730449551 292.55112989389045 32.27435300795879
75.74985917063373 288.168689511008 10.934862091068624
66.43608950096773 311.66400446824264 21.910237617600934
62.91614106816356 293.88020483563656 30.871210635329348
61.74246337696733 316.59979485485053 21.95329899193663
65.54800486468797 293.48420709100424 30.350394055454483
57.247593025468476 312.7037282726811 23.57324108632948
66.60759389891103 311.0623001254732 13.090412865769945
60.239025808249835 310.52580923008634 25.060321333219676
66.01954948240206 309.1385999647879 23.016469499479612
59.647288816456914 313.89215186187033 24.64042623440525
54.32787638585375 312.22674640990266 19.4149758106353
64.35845878838148 313.87373577533833 12.003771172977968
63.476525572696836 316.2061399936289 15.412521839460467
56.489424788747485 296.9506016702163 29.411223626566436
56.02346301347455 307.28668769145565 21.293520199391068
59.91296929663994 317.2273473631984 17.59997883499087
59.400608323665196 316.55864947228605 22.010561188767042
62.917548493513614 308.2707024661239 24.647418059883314
81.88571711872414 282.57221679750484 24.646691568724002
59.08754635190256 296.83268557726484 29.22044430197081
61.66428253808269 296.0043127021908 30.152050489276938
62.0448592558137 315.00210350416916 12.644314384599106
56.286602339468395 309.05699155283725 23.641375640863718
56.11527721552756 313.4975548241344 22.32587145185987
58.293065664858126 308.38998821713596 12.48600467230975
63.87641643413896 295.1858183611152 29.26360624812278
58.45676015918949 305.00868684754107 22.014070293166377
68.05690165739142 310.33386156243085 16.84373132900063
55.36171057531716 315.23154918500126 17.357710765723276
59.24098891267435 312.7176448033556 11.776339361065967
56.97366906341472 315.89791222022063 21.033804204202582
67.2186964715001 279.4801992376879 33.74953697849814
61.73601857723781 316.87462804508914 16.918507188712756
69.42579139499955 279.72708026718624 32.580616475105536
68.9306519815045 313.0765045853841 16.378088967504464
55.40867543844035 313.38126308762867 15.032639911160283
67.29225883454328 280.64402897455824 36.76668500414416
54.46052787562883 311.8019016154941 21.279566538129046
69.56693867919222 280.90395099573243 34.866610028651536
60.4522997999971 310.1491667490509 11.19966553640179
55.74851359332582 307.7795434099695 19.596382525112826
56.68215379289746 306.80173684271136 23.34599253064426
84.59685704333222 286.86544068757553 25.442372403068426
60.828121209578896 307.9106274004936 24.741838448104687
57.94815276650961 316.51455318141063 18.222328062334846
55.655868992453584 282.78592212852476 30.58782936991848
54.36991727093011 312.6608562606663 17.61595077909324
57.50614003171519 283.2461353049025 31.250103273328847
72.5063700462481 299.90259940165987 24.289327931863397
59.566347885734594 283.3277177619643 32.66491970614658
67.90328967739504 314.6734786485654 17.39697703739809
71.45842630166955 283.5967604123963 37.38185133088828
59.17973443776985 315.372574577257 14.003149371511224
80.03980733230097 285.2762886594814 33.99536687447839
56.09232042282009 311.37281164489036 13.331081931544862
64.46111037642235 281.3824290587476 37.76409171649203
66.64816791144293 283.53240500558167 37.55228586791887
57.76720652190184 305.2187092776763 18.627625523277267
58.29752072047236 314.3568475208847 23.311603314583813
56.5350557570787 306.2585893953491 17.95368744932219
78.12959653400692 288.78298352719486 33.43561927703033
74.29137033017274 282.769313673114 34.360755376617625
58.32093882213024 312.3534215674455 25.311146127363962
53.56331892474547 285.5579153791565 30.85023934834643
68.44802717612994 314.2842765031541 14.606200905715042
60.89323427233234 314.76560971775 23.43104176826021
55.82461061851063 308.55101116308106 15.537757396933838
55.581096316802 284.74250503596716 31.538852884586547
58.393558636915465 310.63493750868025 11.716982855673919
63.46414877186322 315.0922581468785 22.823434208547642
62.6229817252838 311.9293676394158 11.239884631960377
57.906174153022015 285.20307909663023 32.59357190588341
63.818578492417316 315.23682884975125 13.214618474971884
57.09709087242424 315.80303818405343 15.172968703829234
55.65785115892492 311.2378420077923 24.05809970826813
59.98252657967066 285.365312468108 34.48754323248124
60.41376918207686 314.10811100699016 12.527938214051089
54.66861724563176 310.23367042900884 18.944182425198157
63.76538611526387 312.927964686232 24.190574853662007
61.981123349061654 286.3506597088566 36.48859168165496
55.44065095739711 309.11408792271385 21.784522311845084
64.2192613583334 316.0708959764258 17.69200451124996
60.69980931244308 316.9949729322816 19.498345521285124
64.59636460228839 285.66032050004685 37.68983351121103
65.82340773232478 306.2807765949651 13.903546370295413
61.43322349032232 316.05722649224595 14.135159115738555
67.6717840888492 286.2686641411663 38.129476217898166
56.81732551438303 307.1166526208403 15.73792209645126
66.16999188761459 313.8232489101871 12.864429979908362
67.26832827316265 310.79672036615244 19.40493778527591
79.0809114463302 281.3568800965356 30.0033980039105
68.10853718120966 311.90268612882244 17.963774636293774
74.29974532282186 284.34075287791194 35.268854324373365
76.29021196039987 285.7091523031796 34.56226291349623
66.08290097410237 314.89438188030636 19.631170960256025
55.065200360984825 310.3929732697558 15.769162882729223
64.86026694187484 279.6472376659929 35.587224041274176
64.34876609846415 311.9998301633015 11.807629049613544
54.67169138373895 286.50369201644935 31.758017889725338
55.63491247491513 308.3306314715925 17.231623757253224
58.78320643960094 306.79185966981936 13.98520474277926
59.46887734776802 316.75210514258004 15.840418742120168
56.20255132171574 286.71984016631507 32.62594327115016
55.27311719008645 313.95379590677925 19.76412584461052
56.777374072366655 305.6355489128056 20.388255932160362
56.791632546449755 308.88469637256014 13.86637393873874
61.29295178051773 312.88388243965966 25.2950083240205
61.6475244759531 305.90773530820485 13.498331553796998
60.810076434994706 312.0456979019263 10.902514578165128
60.3442490051528 304.5140635441484 17.74420334169583
65.62030057613427 310.9181928388555 23.59982732062343
65.61665079323444 313.4678281748413 22.20129868608666
65.83936722836405 315.41330286520474 15.448405273064314
66.98780721485402 312.3367466091686 20.276812281047118
63.16635171792312 304.63710256060415 15.125225362062345
63.96664266448458 307.5381056318777 12.700440008893363
62.45765486052656 309.89268786421115 11.52050193575007
57.59633894856667 313.7116818282679 12.744226598479736
68.70664533059264 289.06516870227046 37.323560082069235
57.91080119702058 309.2194058063305 24.973276428053918
64.75438640804244 308.42101539126344 24.270930185338862
72.39490204739924 285.02248280691714 36.57284824462518
59.331304145228486 305.6739355595744 24.047174857060806
60.18203982442711 308.19479886476665 11.793043326210723
74.19130751770405 286.8053872882559 35.7541830492003
76.17741047655652 288.4560522231176 34.14488819806853
68.14096643323823 311.4366467645477 15.236449514294796
63.46869630893147 316.1519572183744 20.26284175839243
52.00120098604196 296.9597582854489 29.152795424188728
50.956725024107726 295.7740625568844 14.410272569017554
48.47126816519521 295.6149217067631 26.889197976724446
53.74700827869496 289.17062223442036 31.41653453150955
62.64520805522783 313.64989172077003 11.695282372492883
58.719193507961826 305.2558007480951 16.73796747329489
62.256813334584805 281.27138286517624 36.71744294307053
50.84432743676876 300.70662421572206 20.506793484596248
48.250023310057145 296.99390090144 26.4655989528708
65.91197909357741 304.3188797078861 12.999115358435624
62.823713040835024 310.2678182193239 24.74092919762372
48.74082792297731 299.3476975959505 19.011384547855915
60.95090669691343 304.5508995477649 22.109564438825032
56.605800347117786 288.758171025352 32.877560032978955
58.01378486661693 287.2448765783767 33.96187808727405
67.4923842967029 307.1784009722254 18.476058961240987
47.974570396484374 296.8509708105475 17.98910103325637
70.0494688677499 304.7456799542814 25.69496494236711
60.53838717932227 288.3670096753784 34.47451298444656
47.83285393351775 298.4397682672869 22.17791414143004
67.2746201539267 306.8830131393564 15.089919016762895
62.50708283959333 290.39600456483385 33.62040302791625
63.012661970235186 288.97064008926947 36.064116806575385
70.24949899778557 305.8579521255688 23.354735662682568
72.59542885800265 303.75968395272224 22.550787170819262
65.20628829727272 290.9248703521314 35.13418408842576
63.92696728641959 302.44292689334634 24.945855420422934
65.55798532633104 288.6534684974294 37.47599090859928
65.0578559184029 306.2708761805102 23.905552837180053
68.32420952815791 291.43088382427936 35.25677143916252
71.2955946811627 302.48208633637313 12.252110151132966
70.39665970946308 305.04798114780056 13.769843658211478
70.96335271743075 290.414984420978 35.90544257256452
68.09959293331733 305.2584141292494 13.372171678432064
69.34791402200518 305.7382127421126 24.596197534275802
47.48894123095322 295.63150799372005 20.33579400540964
72.66734562494585 304.0592706421443 15.561551431606903
70.55672155525522 291.9920643622461 34.42610177924898
73.32415775532813 289.28564677900204 34.97112052220172
66.59651459536741 309.80488080220874 21.126819305972337
74.69586151205401 284.3996288656368 11.182389681220814
69.49531344943266 306.4535392923587 20.504931977076897
70.35229376309604 306.15795910967336 17.126656667892487
72.6012689952405 291.63191654930387 34.41390253256194
47.79393129781361 297.7805083851804 24.41851635768434
71.02387800839493 305.7265866477874 19.252210864882795
65.6902355444186 302.39487266533513 12.15595004493563
50.63325912744842 299.85096961795375 24.394808794809197
52.87454498568372 298.64199520955566 14.863446427149057
53.77630221985155 290.8436140208706 30.79252754277854
48.09242856689365 293.9056406690952 23.09340838548775
50.09743064585019 296.9324420152836 15.373004910651682
48.755312924763395 294.13907491632096 17.022504144245996
55.232344666839985 289.95642624696626 31.91407785308627
66.24588682046014 307.39847123887586 22.55540736180309
59.47673637294359 304.53958337893124 19.563316166346937
47.9790004392443 295.2347237162306 18.671910460852057
57.19554582414398 291.113225086584 32.505122504421145
69.37285624587533 306.21578972204173 15.169051083107604
70.5567136204272 302.84285566133 26.09310533101444
72.20878800818276 303.419449427153 13.769737619226603
59.0056354235913 293.34470801098416 31.921029970812064
71.098722199769 305.5050167636229 21.805282159618063
67.6330493082849 309.0263243206224 15.800449805805975
61.313580440603495 304.73383535158507 16.191117087190555
72.35504418787178 304.49531417552333 17.32785315793132
68.52789547796912 284.3915713441663 37.866860950787306
63.67998314547623 304.79761609830143 23.16025579594724
73.37138367015889 301.33620112162083 21.895025262870096
64.18606999742279 305.3564544436208 13.925563476517658
67.7319871705416 303.27253493379914 11.489629919000468
66.1024202293463 308.6621661558044 13.98211032471389
73.70536377711237 301.22629902198815 18.675935508286525
67.17096628841479 306.0292202001617 24.307717293395363
73.4734548700223 302.3687385073894 16.082378749044647
55.44894636688446 291.5989470516258 31.23476551274778
69.89072671519259 301.39655975307664 11.335615639160368
56.32112060407756 293.38232095147595 31.477702409618423
59.84053458748977 290.9476491836379 33.25415326076082
58.19415143280629 273.6072039055238 14.894893551325685
50.71338586263169 291.37784927481425 16.52261467464043
59.65856985382787 295.0154001034115 30.46534442225547
84.03553025420524 291.5683428109653 25.520463966767906
60.95335863671586 294.1275331107957 31.08802548239315
68.95054108432461 306.6091622938909 18.755321129807417
63.31787325280709 306.5432787066174 25.305272977458618
68.00553885955772 279.2773412666789 31.934964676965635
67.29216300038573 307.08207764741945 20.15149664770179
48.7323790995627 298.4347140163167 17.193458633080382
68.00227111893533 306.9681255728955 17.013024421490993
82.71242456005228 283.72717755499633 22.78434602997409
58.569593167514164 307.24310446996617 24.744836310352508
62.03185754628347 304.13310828749985 18.578783082143087
72.9647135338406 303.85507475031307 19.97077405300523
61.01608512517185 272.8575757967897 20.695929238948395
69.54737615704985 282.6838069503358 37.25510402135297
60.30492912111584 272.6248038252214 19.258404244797116
58.689888094317766 273.05696668555066 13.22579821802968
53.40809586615752 287.516218962928 31.132185299070322
72.202968963242 282.53070771758536 35.44411360417962
58.16662420066366 274.77338563088136 18.574611791267532
58.58208718567927 274.31434078407074 10.719544059530365
57.89990213638251 274.59970099309 12.527772332248071
71.23436591998605 304.6781779304471 24.263873734788785
71.40472903433047 305.13045282747095 15.37706488691317
71.59428990955976 287.7240908927061 37.10828227811304
72.41596967068534 299.02872206122413 13.117099600439495
70.23618712965842 285.2322036007723 37.88510421509131
70.0412889970418 303.6635067614124 12.402217852054521
73.27309352702304 299.7017932355681 14.92377623988447
68.10828501931404 304.60100259318966 26.4207832589906
54.82778114408543 288.106948476542 32.24164344554797
72.6375177311704 297.3867356540558 18.787175309213552
58.410421035928785 289.31351483726723 33.49733715518086
67.80397799276656 312.59080553598506 13.494751983446433
62.376901282520194 271.41995976223205 11.819791843260115
62.46880981063429 283.60394898112185 37.431326240441805
60.75175697030092 282.5662957451269 35.19766108309265
64.04019955302681 278.858048597569 30.425671217063467
71.73299812606632 298.360001724278 25.02266479336119
62.63349103470055 291.99642046165116 8.348015372732714
63.30374796208647 302.82243608233614 22.99497019344223
60.934012830152305 291.2625445793137 8.232384931375563
63.59712023821481 289.33499636655307 6.920867089678963
60.62006142299521 289.41209613356773 7.809576481650167
65.51209019739926 304.6708745116251 25.10606821766647
62.26338713755357 282.37509530380555 5.977688315584714
60.64917092157488 283.04858930688886 6.800904041217435
59.5545368958207 276.06467719748514 21.648278672322526
60.88719804781152 281.16258254408507 6.798495916957121
64.33713759970615 302.9468379623711 14.073421631507287
61.229383689139325 279.254586624062 6.902885370941092
POLYGONS 1672 6688
3 837 22 0
3 835 837 0
3 835 0 3
3 4 5 1
3 833 835 3
3 833 3 6
3 7 8 5
3 7 5 4
3 9 8 7
3 10 833 6
3 13 14 9
3 15 11 10
3 16 12 11
3 16 11 15
3 17 13 12
3 17 12 16
3 14 13 17
3 23 21 20
3 23 20 19
3 22 19 18
3 22 27 0
3 23 19 22
3 22 2 23
3 23 24 21
3 26 24 23
3 25 24 26
3 75 27 73
3 0 27 30
3 0 30 3
3 27 75 30
3 29 28 25
3 29 25 26
3 32 28 29
3 80 30 75
3 3 30 31
3 3 31 6
3 30 80 31
3 5 8 29
3 33 32 29
3 8 9 33
3 33 34 32
3 36 83 35
3 80 83 31
3 6 36 40
3 6 40 10
3 37 38 34
3 33 37 34
3 39 40 36
3 39 36 35
3 40 39 48
3 15 10 40
3 15 40 48
3 15 48 49
3 15 49 16
3 16 49 50
3 16 50 17
3 17 50 41
3 14 42 37
3 44 43 38
3 44 38 37
3 37 42 44
3 47 45 46
3 48 47 830
3 50 56 57
3 51 42 41
3 52 42 51
3 43 44 52
3 42 52 44
3 54 47 46
3 54 46 53
3 830 47 54
3 830 54 828
3 61 57 56
3 56 60 61
3 58 828 54
3 58 54 53
3 828 58 59
3 826 828 59
3 826 59 63
3 60 826 63
3 62 59 58
3 63 59 62
3 18 67 73
3 67 68 73
3 69 70 65
3 69 65 66
3 21 69 66
3 21 24 69
3 71 70 72
3 69 72 70
3 69 24 25
3 69 25 72
3 74 73 68
3 73 74 75
3 28 76 71
3 28 71 72
3 25 28 72
3 32 77 76
3 80 78 79
3 74 78 75
3 78 80 75
3 82 81 77
3 32 82 77
3 32 34 82
3 83 80 79
3 83 79 84
3 83 84 35
3 86 85 81
3 86 81 82
3 34 86 82
3 34 38 86
3 35 88 45
3 35 45 39
3 89 85 86
3 38 89 86
3 38 43 89
3 91 154 90
3 92 88 91
3 45 88 92
3 45 92 46
3 51 57 97
3 51 97 52
3 95 91 90
3 95 90 167
3 96 46 92
3 46 96 53
3 97 100 93
3 98 99 93
3 98 93 100
3 97 103 100
3 93 99 94
3 101 96 95
3 101 95 167
3 102 96 101
3 102 53 96
3 53 102 109
3 53 109 58
3 61 60 114
3 104 105 103
3 103 106 104
3 98 100 105
3 103 105 100
3 107 102 101
3 108 109 102
3 108 102 107
3 109 108 110
3 62 58 109
3 62 109 110
3 62 110 111
3 62 111 63
3 63 111 112
3 63 112 113
3 115 116 114
3 60 63 113
3 60 113 114
3 114 113 115
3 104 106 116
3 114 116 106
3 117 110 108
3 118 111 110
3 118 110 117
3 119 112 111
3 119 111 118
3 120 113 112
3 120 112 119
3 115 113 120
3 126 122 121
3 125 123 124
3 126 127 122
3 129 127 126
3 128 127 129
3 206 130 124
3 67 130 68
3 131 128 129
3 65 131 129
3 65 70 131
3 132 131 71
3 131 70 71
3 133 132 136
3 71 136 132
3 134 133 136
3 206 135 130
3 68 130 135
3 68 135 74
3 71 76 136
3 137 142 134
3 137 134 136
3 136 76 77
3 136 77 137
3 138 139 140
3 78 141 79
3 206 139 135
3 74 138 78
3 143 142 137
3 146 144 145
3 140 144 141
3 144 146 79
3 144 79 141
3 79 146 84
3 81 147 143
3 81 85 147
3 150 148 149
3 146 145 148
3 146 148 150
3 87 146 150
3 87 84 146
3 152 151 147
3 85 152 147
3 85 89 152
3 153 151 152
3 154 150 149
3 154 149 161
3 154 161 90
3 154 87 150
3 156 155 153
3 158 155 157
3 156 157 155
3 157 159 158
3 159 160 158
3 90 161 165
3 90 165 167
3 161 162 165
3 99 98 168
3 159 178 164
3 159 164 160
3 166 165 162
3 165 166 167
3 105 104 175
3 170 169 168
3 168 169 163
3 171 163 169
3 172 173 166
3 101 173 107
3 173 172 174
3 173 174 107
3 107 174 108
3 116 115 186
3 177 176 175
3 175 176 170
3 179 174 172
3 180 181 179
3 108 181 117
3 181 180 182
3 181 182 117
3 117 182 118
3 118 182 183
3 118 183 119
3 119 183 184
3 119 184 120
3 120 184 185
3 115 120 185
3 115 185 186
3 186 185 187
3 186 188 177
3 257 182 180
3 189 183 182
3 189 182 257
3 190 184 183
3 190 183 189
3 191 185 184
3 191 184 190
3 187 185 191
3 123 195 124
3 123 121 194
3 196 197 192
3 196 192 193
3 122 196 193
3 122 127 196
3 201 197 198
3 196 198 197
3 196 127 128
3 196 128 198
3 124 195 206
3 195 199 206
3 200 201 198
3 128 200 198
3 128 131 200
3 203 201 202
3 200 202 201
3 200 131 132
3 200 132 202
3 205 203 204
3 202 204 203
3 202 132 133
3 202 133 204
3 204 133 134
3 204 134 205
3 210 206 199
3 134 208 205
3 134 142 208
3 209 207 208
3 139 211 140
3 206 210 139
3 213 212 209
3 213 209 208
3 208 142 213
3 142 143 213
3 214 215 216
3 144 216 145
3 140 214 144
3 218 217 212
3 218 212 213
3 143 218 213
3 219 288 220
3 148 222 149
3 145 219 148
3 221 225 217
3 221 217 218
3 151 221 218
3 151 153 221
3 223 222 220
3 149 222 223
3 149 223 161
3 224 225 221
3 153 224 221
3 153 155 224
3 227 225 226
3 224 226 225
3 224 155 158
3 224 158 226
3 229 227 228
3 226 228 227
3 226 158 228
3 230 229 231
3 228 231 229
3 228 158 160
3 228 160 231
3 234 233 230
3 234 230 231
3 160 234 231
3 160 164 234
3 162 232 241
3 162 241 166
3 169 170 235
3 169 235 236
3 169 236 171
3 237 238 239
3 237 178 240
3 237 240 238
3 233 234 239
3 237 239 234
3 237 234 164
3 164 178 237
3 166 243 172
3 176 177 244
3 235 176 244
3 235 244 253
3 245 235 253
3 170 176 235
3 235 245 236
3 246 236 245
3 247 248 246
3 171 248 178
3 238 240 247
3 248 247 240
3 248 240 178
3 172 243 250
3 172 250 179
3 251 252 249
3 250 249 252
3 179 250 252
3 179 252 180
3 256 257 252
3 256 252 251
3 180 252 257
3 258 259 256
3 257 256 259
3 257 259 189
3 260 261 258
3 259 258 261
3 189 259 261
3 189 261 190
3 262 263 260
3 261 260 263
3 190 261 263
3 190 263 191
3 264 834 269
3 266 267 265
3 192 197 266
3 266 268 267
3 270 269 834
3 195 269 276
3 195 276 199
3 269 270 276
3 271 267 268
3 201 271 268
3 272 271 203
3 271 201 203
3 274 272 273
3 203 273 272
3 203 205 273
3 273 205 207
3 275 274 207
3 277 276 270
3 199 276 278
3 199 278 210
3 276 277 278
3 209 279 275
3 209 275 207
3 281 282 280
3 278 277 282
3 278 282 281
3 210 281 211
3 281 210 278
3 284 283 279
3 284 279 209
3 209 212 284
3 286 357 285
3 215 286 216
3 215 211 281
3 287 290 283
3 287 283 284
3 212 287 284
3 212 217 287
3 288 286 285
3 288 285 289
3 288 289 220
3 288 216 286
3 291 290 287
3 217 291 287
3 217 225 291
3 294 290 291
3 293 292 372
3 292 293 220
3 292 220 289
3 220 293 223
3 227 294 291
3 291 225 227
3 296 294 295
3 227 295 294
3 227 229 295
3 300 293 372
3 300 372 299
3 300 223 293
3 230 233 301
3 302 303 299
3 304 305 306
3 239 238 307
3 304 239 307
3 304 307 305
3 304 301 233
3 233 239 304
3 312 313 253
3 253 313 245
3 314 315 313
3 314 313 312
3 245 313 246
3 313 315 246
3 316 317 315
3 316 315 314
3 246 315 247
3 315 317 247
3 305 307 316
3 317 316 307
3 317 307 238
3 238 247 317
3 318 319 311
3 242 311 319
3 242 319 249
3 320 321 318
3 319 318 321
3 249 319 321
3 249 321 251
3 325 326 321
3 325 321 320
3 251 321 326
3 251 326 256
3 327 328 325
3 326 325 328
3 256 326 328
3 256 328 258
3 329 330 327
3 328 327 330
3 258 328 330
3 258 330 260
3 331 332 329
3 330 329 332
3 260 330 332
3 260 332 262
3 338 337 335
3 834 335 346
3 834 346 270
3 335 337 346
3 335 336 338
3 339 338 336
3 336 267 340
3 336 340 339
3 340 341 339
3 267 271 340
3 340 342 341
3 342 343 341
3 340 271 272
3 340 272 342
3 342 272 274
3 342 274 343
3 344 345 343
3 343 274 344
3 344 274 275
3 347 346 337
3 270 346 348
3 270 348 277
3 346 347 348
3 350 349 345
3 350 345 344
3 275 350 344
3 275 279 350
3 351 354 352
3 282 353 280
3 348 347 354
3 348 354 351
3 282 277 351
3 351 277 348
3 356 355 349
3 356 349 350
3 279 356 350
3 279 283 356
3 357 358 430
3 357 360 285
3 352 358 353
3 359 363 355
3 359 355 356
3 283 359 356
3 283 290 359
3 361 360 430
3 285 360 362
3 285 362 289
3 360 361 362
3 368 363 364
3 290 294 364
3 365 366 367
3 361 366 362
3 289 365 292
3 364 296 368
3 364 294 296
3 372 373 299
3 374 375 442
3 373 442 375
3 299 373 375
3 299 375 302
3 376 377 378
3 306 305 379
3 376 306 379
3 376 379 377
3 376 378 788
3 376 788 306
3 322 397 384
3 385 322 384
3 387 388 386
3 387 386 385
3 386 388 312
3 389 390 388
3 389 388 387
3 312 388 314
3 388 390 314
3 391 392 390
3 391 390 389
3 314 390 316
3 390 392 316
3 377 379 391
3 392 391 379
3 392 379 305
3 305 316 392
3 310 383 394
3 395 396 393
3 394 393 396
3 318 394 396
3 318 396 320
3 400 401 396
3 400 396 395
3 320 396 401
3 320 401 325
3 402 403 400
3 401 400 403
3 325 401 403
3 325 403 327
3 404 405 402
3 403 402 405
3 327 403 405
3 327 405 329
3 475 406 404
3 405 404 406
3 329 405 406
3 329 406 331
3 338 407 337
3 410 409 408
3 339 341 410
3 343 345 412
3 414 415 407
3 337 407 416
3 337 416 347
3 407 415 416
3 407 408 414
3 417 409 410
3 411 478 417
3 410 411 417
3 411 412 478
3 418 413 419
3 345 349 419
3 354 420 352
3 423 421 422
3 415 421 416
3 425 424 418
3 425 418 419
3 349 425 419
3 349 355 425
3 426 428 427
3 428 426 352
3 428 352 420
3 490 428 420
3 352 426 358
3 422 490 423
3 420 423 490
3 429 433 424
3 429 424 425
3 355 429 425
3 355 363 429
3 431 430 427
3 430 431 361
3 432 433 429
3 363 432 429
3 432 363 368
3 366 441 367
3 361 435 366
3 367 441 442
3 441 436 443
3 441 443 442
3 442 443 445
3 442 445 374
3 378 377 450
3 506 444 519
3 451 452 445
3 374 445 452
3 374 452 380
3 565 453 451
3 452 451 453
3 457 454 455
3 384 397 456
3 457 384 456
3 457 456 454
3 446 457 455
3 384 457 385
3 457 458 385
3 459 458 447
3 385 458 387
3 458 459 387
3 459 447 448
3 460 459 448
3 387 459 389
3 459 460 389
3 553 460 449
3 460 448 449
3 553 461 460
3 461 553 450
3 461 450 377
3 377 391 461
3 382 453 463
3 382 463 393
3 464 465 462
3 463 462 465
3 393 463 465
3 393 465 395
3 469 466 467
3 468 469 467
3 454 456 468
3 469 468 456
3 470 471 465
3 470 465 464
3 395 465 471
3 395 471 400
3 472 473 470
3 471 470 473
3 400 471 473
3 400 473 402
3 466 469 474
3 466 474 472
3 473 472 474
3 402 473 474
3 402 474 404
3 474 469 475
3 404 474 475
3 475 469 398
3 414 476 415
3 414 408 409
3 478 479 484
3 479 478 412
3 479 412 413
3 480 479 413
3 480 413 418
3 480 418 488
3 421 481 422
3 421 415 476
3 421 476 481
3 476 482 481
3 476 477 482
3 477 483 482
3 477 824 483
3 824 485 483
3 824 484 485
3 486 480 488
3 487 486 488
3 418 424 488
3 428 489 427
3 490 492 491
3 492 490 422
3 492 422 481
3 493 492 481
3 481 482 493
3 494 493 482
3 482 483 494
3 495 494 483
3 483 485 495
3 497 496 487
3 497 487 488
3 424 497 488
3 424 433 497
3 498 499 489
3 427 489 503
3 427 503 431
3 489 499 503
3 489 491 498
3 500 501 496
3 500 496 497
3 433 500 497
3 500 502 501
3 436 431 503
3 436 503 507
3 508 507 504
3 436 507 443
3 443 507 521
3 507 508 521
3 516 506 519
3 443 521 445
3 445 521 559
3 536 539 530
3 539 536 543
3 542 543 536
3 543 447 446
3 543 446 539
3 543 542 547
3 546 547 542
3 447 543 547
3 447 547 448
3 509 549 546
3 547 546 549
3 448 547 549
3 448 549 449
3 449 515 553
3 445 559 451
3 451 559 565
3 783 571 560
3 565 560 571
3 571 783 572
3 526 580 577
3 526 582 580
3 582 455 454
3 582 539 455
3 446 455 539
3 462 591 464
3 597 787 598
3 598 467 466
3 598 466 597
3 580 582 603
3 580 603 598
3 467 598 603
3 467 603 468
3 603 582 454
3 454 468 603
3 464 591 470
3 470 591 597
3 470 597 472
3 466 472 597
3 616 614 609
3 609 611 616
3 486 616 611
3 611 480 486
3 492 623 491
3 634 633 614
3 805 486 487
3 487 639 805
3 498 641 499
3 498 491 623
3 623 625 645
3 625 649 645
3 625 627 649
3 627 653 649
3 634 664 661
3 639 670 805
3 501 671 670
3 501 502 671
3 676 804 641
3 641 645 676
3 680 676 645
3 645 649 680
3 649 720 680
3 649 653 720
3 653 724 720
3 653 657 724
3 657 728 724
3 661 664 733
3 664 696 733
3 699 805 670
3 671 703 702
3 804 817 709
3 680 720 719
3 680 719 817
3 724 727 784
3 724 728 727
3 728 731 727
3 728 733 731
3 744 749 738
3 743 738 749
3 702 703 744
3 703 510 509
3 508 709 755
3 709 817 759
3 709 759 755
3 784 767 763
3 727 526 577
3 526 727 731
3 526 731 530
3 530 731 735
3 530 735 536
3 536 735 743
3 536 743 542
3 542 743 749
3 542 749 546
3 509 546 749
3 755 759 781
3 755 781 560
3 781 759 763
3 781 763 783
3 560 781 783
3 783 763 767
3 783 767 572
3 572 767 787
3 577 580 789
3 787 789 598
3 580 598 789
3 614 616 801
3 614 801 634
3 699 702 811
3 804 676 817
3 696 811 738
3 738 811 744
3 702 744 811
3 8 33 29
3 36 6 31
3 31 83 36
3 17 41 42
3 42 14 17
3 39 45 47
3 47 48 39
3 51 41 50
3 50 57 51
3 88 35 84
3 84 87 88
3 87 154 91
3 91 88 87
3 52 97 93
3 93 43 52
3 91 95 96
3 96 92 91
3 57 61 103
3 103 97 57
3 61 114 106
3 106 103 61
3 125 124 130
3 130 67 125
3 138 140 141
3 141 78 138
3 138 74 135
3 135 139 138
3 99 168 163
3 171 157 163
3 171 178 157
3 178 159 157
3 167 166 173
3 173 101 167
3 168 98 105
3 170 168 105
3 105 175 170
3 174 179 181
3 181 108 174
3 175 104 116
3 177 175 116
3 116 186 177
3 211 139 210
3 216 144 214
3 214 140 211
3 211 215 214
3 147 151 218
3 218 143 147
3 219 220 222
3 222 148 219
3 219 145 216
3 216 288 219
3 236 246 248
3 248 171 236
3 280 357 286
3 215 281 280
3 280 286 215
3 300 299 303
3 303 232 300
3 265 267 336
3 336 335 265
3 351 352 353
3 353 282 351
3 357 430 360
3 357 280 353
3 353 358 357
3 365 367 372
3 372 292 365
3 365 289 362
3 362 366 365
3 338 339 408
3 408 407 338
3 408 339 410
3 341 343 411
3 411 410 341
3 412 411 343
3 412 345 419
3 419 413 412
3 354 347 423
3 423 420 354
3 423 347 416
3 416 421 423
3 426 427 430
3 430 358 426
3 435 436 441
3 441 366 435
3 435 361 431
3 431 436 435
3 446 447 458
3 458 457 446
3 414 409 477
3 477 476 414
3 417 478 484
3 484 824 417
3 428 490 491
3 491 489 428
3 515 519 450
3 450 553 515
3 479 480 611
3 492 493 625
3 625 623 492
3 493 494 627
3 627 625 493
3 494 495 823
3 823 627 494
3 496 639 487
3 501 670 639
3 639 496 501
3 498 623 645
3 645 641 498
3 702 699 670
3 670 671 702
3 505 703 671
3 671 502 505
3 727 577 784
3 784 577 767
3 616 486 805
3 676 680 817
3 4 837 835
3 4 1 837
3 832 835 833
3 832 4 835
3 7 4 832
3 11 833 10
3 11 832 833
3 12 832 11
3 12 7 832
3 12 13 7
3 13 9 7
3 55 49 830
3 830 49 48
3 56 829 55
3 55 829 49
3 56 50 829
3 829 50 49
3 826 55 828
3 828 55 830
3 60 56 826
3 826 56 55
3 409 824 477
3 409 417 824
3 823 653 627
3 661 657 822
3 763 759 719
3 719 759 817
3 720 819 719
3 720 724 819
3 819 724 784
3 763 719 819
3 819 784 763
3 577 789 767
3 789 787 767
3 805 801 616
3 813 699 811
3 2 22 837
3 837 1 2
3 18 73 27
3 27 22 18
3 28 32 76
3 137 77 81
3 81 143 137
3 121 122 193
3 193 194 121
3 367 442 373
3 373 372 367
3 530 539 582
3 582 526 530
3 560 565 559
3 559 755 560
3 571 591 462
3 462 565 571
3 571 572 591
3 572 597 591
3 703 509 744
3 744 509 749
3 2 1 26
3 26 23 2
3 26 1 5
3 5 29 26
3 20 21 66
3 66 64 20
3 18 807 67
3 20 64 807
3 162 161 223
3 244 177 188
3 269 806 264
3 264 806 194
3 269 195 806
3 205 208 207
3 273 207 274
3 787 597 572
3 641 804 504
3 504 499 641
3 508 755 559
3 559 521 508
3 738 743 735
3 735 696 738
3 33 9 14
3 14 37 33
3 65 821 66
3 66 821 64
3 821 126 64
3 129 126 821
3 821 65 129
3 709 508 804
3 804 508 504
3 64 126 803
3 803 126 121
3 807 64 803
3 192 802 193
3 193 802 194
3 802 264 194
3 266 800 192
3 266 265 800
3 800 265 264
3 197 201 268
3 268 266 197
3 194 806 123
3 123 806 195
3 296 295 796
3 796 295 298
3 609 485 484
3 397 322 399
3 399 398 397
3 456 397 398
3 398 469 456
3 229 230 298
3 298 295 229
3 263 836 191
3 802 192 800
3 800 264 802
3 836 263 262
3 19 20 807
3 807 18 19
3 331 798 332
3 798 262 332
3 265 834 264
3 265 335 834
3 67 808 125
3 125 808 803
3 67 807 808
3 808 807 803
3 89 43 94
3 94 43 93
3 479 792 484
3 484 792 609
3 479 611 792
3 792 611 609
3 232 786 300
3 300 786 223
3 232 162 786
3 786 162 223
3 125 785 123
3 123 785 121
3 125 803 785
3 785 803 121
3 324 386 312
3 499 504 503
3 504 507 503
3 253 818 312
3 312 818 324
3 253 254 818
3 818 254 324
3 188 782 255
3 831 816 779
3 254 778 324
3 324 778 774
3 774 778 799
3 399 545 398
3 399 816 545
3 545 816 831
3 798 770 262
3 323 730 809
3 323 774 730
3 730 774 799
3 322 765 399
3 323 809 765
3 303 302 762
3 816 399 765
3 779 333 760
3 760 333 793
3 232 758 241
3 241 758 309
3 232 303 758
3 243 757 242
3 757 241 309
3 381 756 380
3 375 374 756
3 756 374 380
3 782 187 776
3 776 814 782
3 243 754 250
3 250 754 249
3 243 242 754
3 754 242 249
3 311 242 794
3 383 753 394
3 394 753 393
3 383 382 753
3 753 382 393
3 836 752 191
3 191 752 187
3 752 776 187
3 762 309 758
3 758 303 762
3 768 799 751
3 751 799 771
3 383 750 382
3 750 381 380
3 790 748 795
3 748 771 810
3 333 747 793
3 793 747 790
3 333 768 747
3 836 775 715
3 715 775 662
3 302 375 756
3 756 381 302
3 780 742 771
3 771 742 810
3 780 766 742
3 742 766 810
3 308 741 381
3 381 741 302
3 308 762 741
3 741 762 302
3 333 779 740
3 740 779 816
3 776 739 814
3 814 737 766
3 766 737 810
3 737 764 810
3 814 736 782
3 782 736 255
3 814 766 736
3 736 766 255
3 764 795 748
3 748 810 764
3 773 734 791
3 773 831 734
3 734 831 779
3 757 309 794
3 794 242 757
3 751 771 748
3 748 790 751
3 831 773 732
3 799 768 730
3 730 768 809
3 333 729 768
3 768 729 809
3 333 740 729
3 729 740 809
3 475 398 732
3 732 406 475
3 777 726 662
3 795 764 726
3 809 723 765
3 765 723 816
3 809 740 723
3 723 740 816
3 794 722 308
3 308 722 762
3 794 309 722
3 722 309 762
3 750 725 381
3 381 725 308
3 750 383 725
3 793 721 334
3 334 721 795
3 793 790 721
3 721 790 795
3 718 331 773
3 311 717 310
3 310 717 308
3 311 794 717
3 717 794 308
3 793 745 760
3 739 764 737
3 737 814 739
3 662 739 715
3 715 739 776
3 382 714 453
3 382 750 714
3 714 750 380
3 752 836 715
3 715 776 752
3 308 725 310
3 310 725 383
3 310 713 311
3 311 713 318
3 310 394 713
3 713 394 318
3 334 745 793
3 790 747 751
3 751 747 768
3 662 726 739
3 739 726 764
3 241 707 166
3 166 707 243
3 241 757 707
3 707 757 243
3 453 706 463
3 463 706 462
3 453 565 706
3 706 565 462
3 760 734 779
3 795 769 334
3 795 726 769
3 769 726 777
3 734 760 698
3 698 791 734
3 262 692 836
3 836 692 775
3 262 770 692
3 698 688 716
3 761 687 798
3 798 687 770
3 761 711 687
3 687 711 770
3 685 693 775
3 672 689 691
3 334 667 745
3 745 667 691
3 334 669 667
3 667 669 691
3 711 665 678
3 678 665 683
3 775 693 662
3 662 693 777
3 678 701 685
3 672 659 705
3 692 770 685
3 685 775 692
3 689 656 688
3 688 656 716
3 656 684 716
3 677 655 673
3 686 654 710
3 666 650 690
3 710 648 686
3 686 648 694
3 710 675 648
3 648 675 694
3 683 644 673
3 673 644 677
3 683 665 644
3 644 665 677
3 642 666 690
3 640 652 697
3 677 665 637
3 637 665 711
3 682 635 761
3 761 635 711
3 682 637 635
3 635 637 711
3 673 632 683
3 695 646 632
3 632 646 683
3 695 630 654
3 695 651 630
3 630 651 679
3 690 590 659
3 690 650 590
3 590 650 663
3 655 624 673
3 651 622 679
3 677 637 618
3 618 637 682
3 701 617 694
3 694 617 686
3 701 646 617
3 617 646 686
3 658 615 655
3 658 652 615
3 695 613 651
3 673 624 613
3 694 528 693
3 693 528 777
3 694 675 528
3 679 610 663
3 686 607 654
3 654 607 695
3 686 646 607
3 607 646 695
3 632 673 613
3 613 695 632
3 642 690 628
3 681 606 624
3 606 622 651
3 704 605 769
3 769 605 334
3 704 669 605
3 605 669 334
3 700 604 718
3 718 604 761
3 604 682 761
3 683 602 678
3 678 602 701
3 683 646 602
3 602 646 701
3 636 608 601
3 601 608 681
3 658 600 652
3 652 600 697
3 658 619 600
3 600 619 697
3 710 599 650
3 650 599 663
3 710 654 599
3 599 654 663
3 654 630 663
3 630 679 663
3 716 595 698
3 698 595 791
3 716 621 595
3 595 621 791
3 643 594 636
3 594 608 636
3 660 593 622
3 622 593 679
3 660 610 593
3 593 610 679
3 615 652 601
3 601 681 615
3 677 618 655
3 655 618 658
3 658 592 619
3 619 592 682
3 658 618 592
3 592 618 682
3 682 604 619
3 619 604 700
3 710 589 675
3 675 589 666
3 710 650 589
3 589 650 666
3 655 588 624
3 624 588 681
3 655 615 588
3 588 615 681
3 636 587 643
3 643 587 684
3 636 640 587
3 587 640 684
3 745 586 760
3 760 586 698
3 745 688 586
3 586 688 698
3 697 585 640
3 697 621 585
3 585 621 716
3 675 666 584
3 636 583 640
3 640 583 652
3 636 601 583
3 583 601 652
3 663 610 590
3 590 610 659
3 660 581 705
3 643 647 581
3 581 647 705
3 594 643 581
3 581 660 594
3 689 579 691
3 691 579 745
3 689 688 579
3 579 688 745
3 624 606 613
3 613 606 651
3 626 774 323
3 386 825 385
3 385 825 322
3 386 626 825
3 825 626 322
3 369 596 371
3 296 796 596
3 596 796 371
3 516 576 510
3 510 576 515
3 516 519 576
3 576 519 515
3 510 575 509
3 509 575 549
3 510 515 575
3 370 440 620
3 439 574 440
3 369 371 574
3 378 573 788
3 788 573 370
3 378 444 573
3 573 444 370
3 796 570 371
3 297 620 570
3 570 620 371
3 370 569 788
3 370 620 569
3 569 620 297
3 368 296 596
3 596 369 368
3 331 568 798
3 798 568 761
3 331 718 568
3 568 718 761
3 505 567 516
3 298 297 570
3 570 796 298
3 566 574 439
3 449 549 575
3 575 515 449
3 359 290 364
3 364 363 359
3 434 437 566
3 566 438 434
3 444 564 519
3 519 564 450
3 444 378 564
3 564 378 450
3 506 563 444
3 440 370 563
3 563 370 444
3 432 668 433
3 432 437 668
3 668 437 434
3 510 638 516
3 516 638 505
3 510 703 638
3 638 703 505
3 368 562 432
3 432 562 437
3 368 369 562
3 562 369 437
3 500 561 502
3 434 438 561
3 561 438 502
3 506 516 567
3 567 439 506
3 433 558 500
3 433 668 558
3 558 668 434
3 561 500 558
3 558 434 561
3 440 557 620
3 620 557 371
3 440 574 557
3 557 574 371
3 574 556 369
3 369 556 437
3 574 566 556
3 556 566 437
3 440 563 439
3 439 563 506
3 791 554 773
3 773 554 718
3 554 700 718
3 230 555 298
3 298 555 297
3 230 301 555
3 555 301 297
3 438 552 567
3 567 552 439
3 438 566 552
3 552 566 439
3 438 631 502
3 502 631 505
3 438 567 631
3 631 567 505
3 788 551 306
3 551 297 301
3 255 812 188
3 188 812 244
3 255 815 812
3 812 815 244
3 700 554 621
3 621 554 791
3 697 797 621
3 621 797 700
3 697 619 797
3 797 619 700
3 569 297 551
3 551 788 569
3 406 827 331
3 331 827 773
3 406 732 827
3 827 732 773
3 485 674 495
3 485 609 674
3 614 633 674
3 674 609 614
3 640 585 684
3 684 585 716
3 813 629 699
3 699 629 805
3 813 801 629
3 629 801 805
3 661 550 657
3 657 550 728
3 661 733 550
3 550 733 728
3 735 548 696
3 696 548 733
3 735 731 548
3 548 731 733
3 831 732 545
3 545 732 398
3 823 544 653
3 653 544 657
3 823 822 544
3 544 822 657
3 822 712 633
3 822 823 712
3 712 823 495
3 664 772 813
3 813 772 801
3 664 634 772
3 772 634 801
3 696 541 811
3 811 541 813
3 696 664 541
3 541 664 813
3 323 540 626
3 626 540 322
3 323 765 540
3 540 765 322
3 324 538 386
3 386 538 626
3 324 774 538
3 538 774 626
3 634 537 633
3 633 537 822
3 634 661 537
3 537 661 822
3 306 535 304
3 304 535 301
3 306 551 535
3 535 551 301
3 771 534 780
3 780 534 778
3 771 799 534
3 534 799 778
3 255 533 815
3 815 533 780
3 255 766 533
3 533 766 780
3 815 532 244
3 244 532 253
3 815 254 532
3 532 254 253
3 254 531 778
3 778 531 780
3 254 815 531
3 531 815 780
3 187 529 186
3 186 529 188
3 187 782 529
3 529 782 188
3 704 820 642
3 642 820 666
3 704 584 820
3 820 584 666
3 675 584 528
3 528 584 777
3 647 656 689
3 453 708 452
3 452 708 380
3 453 714 708
3 708 714 380
3 642 612 704
3 704 612 669
3 642 628 612
3 612 628 669
3 152 746 153
3 153 746 156
3 746 94 156
3 156 578 157
3 157 578 163
3 578 99 163
3 99 578 94
3 94 578 156
3 89 94 746
3 746 152 89
3 777 527 769
3 769 527 704
3 777 584 527
3 527 584 704
3 678 525 711
3 711 525 770
3 678 685 525
3 525 685 770
3 633 524 674
3 674 524 495
3 633 712 524
3 524 712 495
3 684 523 643
3 643 523 647
3 684 656 523
3 523 656 647
3 691 522 672
3 672 522 628
3 691 669 522
3 522 669 628
3 672 520 689
3 689 520 647
3 672 705 520
3 520 705 647
3 705 518 660
3 660 518 610
3 705 659 518
3 518 659 610
3 628 517 672
3 672 517 659
3 628 690 517
3 517 690 659
3 460 514 389
3 389 514 391
3 460 461 514
3 514 461 391
3 681 513 606
3 606 513 622
3 681 608 513
3 513 608 622
3 608 512 622
3 622 512 660
3 608 594 512
3 512 594 660
3 693 511 694
3 694 511 701
3 693 685 511
3 511 685 701
