# vtk DataFile Version 3.0
A great-looking cell
ASCII
DATASET POLYDATA
POINTS 529 double
101.03825980643514 124.22528838558472 29.116526919489974
101.93508360278464 108.90852251180465 23.524405059308346
97.99339276290397 109.64033716834531 22.52697024999257
104.45886111311796 111.6405169802994 23.44302601324854
99.7574366696337 111.3253945674701 21.972670280560305
97.59066170277832 112.02380521518802 21.723821999480432
95.61051245200626 117.61640708285871 21.200664568949385
93.08354094420856 118.30676465636334 22.256543752118613
100.16306420911364 103.33208826753228 29.108558769050674
99.69805297128053 104.44168201210869 26.650026011825744
101.87791501596728 104.6328048094851 27.621020073827626
99.04120390984949 105.98339604303811 25.086132858550094
103.92628723362368 105.0541617313817 29.167129766708484
95.74557761636328 106.16293382539153 24.550729399015285
97.39845599870536 104.74232336290522 25.85468770927612
105.67271317808255 106.63294089234084 27.768994904910656
107.33991938883052 109.70849453174513 26.229134350070563
93.35277179759898 107.63536307549433 24.08007431725984
91.56308590701545 109.1964131245217 24.095649950761175
95.63884649568524 108.47514442724504 23.058061274057597
91.24282734232126 111.78560506114897 23.926137240842717
93.49249590601795 110.1172667352332 23.2492130373065
95.59346533833092 110.86354457502642 22.026118906094425
107.77409097543993 113.680703075808 25.040694362710678
93.63882640670779 112.82391200294292 22.52069787333773
95.0524847878376 115.05044470615937 21.460083897953417
92.50957532804834 115.46279422551997 22.447432519881627
90.64226342463068 117.47178084877511 23.889588410264412
106.27135735335304 114.49058379826678 23.80056585958203
97.49182306222245 100.99935635338565 30.05080661377067
97.92003442373263 102.12766486209208 29.03867293686484
98.01915329785466 103.41630171274504 27.591462513320277
96.45274987372088 103.442834728917 26.866150390886688
106.99753008692613 108.24659996610681 27.44768484898718
107.14898629138615 107.31575372675378 33.285145483512665
93.22154399037431 105.3973007172911 25.399604477525298
95.19941691528848 104.25656439999283 26.015091081341964
89.19882837001437 109.61724548822944 24.727074905816124
90.83440410433398 107.10871603401263 25.412528899689697
111.10063262851283 113.90800862101524 25.949552595072472
88.57180745625148 112.59887459456523 25.448632047803788
90.12560418021914 114.47633349451084 23.844620103030223
107.6769865408053 115.71814722054519 24.844053853155458
93.14408812247711 120.97078282852718 23.64310946837293
110.79099788834166 126.70624328958687 35.921790217025176
96.48415142396941 102.44165571030285 28.041353140888397
93.39066764675476 103.70239568851248 27.003191920788126
91.19763385698351 104.52778681829513 26.765370053909407
116.29572432742893 117.29261766701639 28.800108977594256
88.85951805514192 105.77484259698403 27.061354451928896
115.59055818717393 119.67392388898939 28.79057069819998
111.75646243522624 116.03720874021205 25.841629539244746
88.40925898840582 110.18907139796511 27.55810500149205
88.08583828727805 111.22778378379623 30.04433503867986
113.49660079183529 119.06750991369229 27.379069985808332
87.82324436574618 112.92174645779573 28.227386867862307
87.22877583768927 113.77803120630615 30.778202418766693
116.59794777347312 122.65676841995024 31.961436550489232
86.53049196809631 116.25378194684741 29.38783217638585
88.55667058011916 118.06019870617995 26.284129373847982
88.4835106803323 121.14074858920493 27.294015597995568
107.60939381828659 107.57879203063753 30.176160124790908
92.18412485485179 99.52591190917407 32.86403244407833
93.50023409082456 101.5413631507192 29.288969577447123
91.96774044355337 102.7377527511099 28.52307636138498
88.83293956971974 103.96773201711659 31.407551488775415
118.24320251865338 113.82636537796257 33.06765272173375
87.53810912470327 105.89426225286407 31.473942117597435
118.0108496222131 117.61058831192389 33.27372668062443
116.60022348974272 113.61264035612972 40.53477526659204
112.75871228820306 115.82740450853763 43.53934009808393
109.46779540529496 114.26014052885847 43.10000249360994
86.4655987452253 116.23201827518311 32.54474124382132
86.01752688295619 118.367192631475 31.188995615285368
105.98136588392465 115.83052704950863 42.36242211203236
98.65571491282313 98.73988358344799 34.544136604441704
93.62809290106556 100.8779114086479 38.443267824934324
95.46025682397028 100.18358518038944 39.613617373371774
101.81965626687429 103.41793765894236 33.19731805264271
96.73901156544434 102.32006281919561 40.45037460837314
103.70997772028812 104.86213401313668 32.65102145454767
110.68881424176818 108.59453258839721 37.58253504315589
93.72673300284606 104.57895426174193 38.659260017786686
112.89439960360683 109.48510040841062 39.09834715354911
87.19396114405552 113.92547215586956 34.00151073507021
108.80125485912308 108.6822554691335 35.923509750773704
89.35558112167573 103.59327534895095 33.886690697055315
89.45506353510584 110.29563036620695 37.723266009148595
90.99084825626554 125.28321659992694 30.363924467452982
109.91352881338237 126.43053102680003 40.97177598795736
102.8008606974012 123.64195020420313 29.32234000118134
97.53364895242743 106.03866205624583 24.779938546975554
110.59413235734534 116.69215084562333 43.94586061371352
104.80448559036812 120.0179662574966 41.41866538658609
98.92374905435267 123.34372156143392 37.9782091769926
95.85972706052225 123.34865672098408 38.490677269392336
116.11174853836037 109.88694841524627 28.503386072149038
106.03805275988742 106.40428686996624 29.752245255492447
104.47025232414407 123.99322641554596 33.52731697322613
103.83267095136465 111.60311933369148 39.657381297325564
93.58179457015466 125.40657398498993 30.680372127116353
100.42884054280444 114.61244061453792 21.477648459658603
97.73076134456657 99.21991834294052 38.674394747408016
96.81334452150405 119.09004562271173 21.43163453435548
103.83840551442863 104.68170896778282 30.950756932283362
112.3581149689259 121.23458374870607 28.149736527831752
98.73874811747238 122.11099250002192 24.119755058087893
108.0609986382339 120.92138202184941 27.32001703522286
105.47885400945103 123.66887343174072 31.291545768344413
99.21499364751543 100.43649340537543 37.16735800504862
98.72238771865904 101.64475348335871 39.18643884243077
93.72547126454371 98.1299983836465 33.46051957904761
100.90262900575111 103.20142359790849 35.278608088166756
106.72351948378889 122.2288779355483 28.676828657622217
97.98349745413681 105.23831062866142 39.63841009540152
101.45851004104027 104.57619612254786 37.21458659357918
104.65054422394793 121.43232544235069 27.266596370849808
102.84729726162332 104.7585297150473 35.0951978331377
104.2561610825342 106.4869106942666 36.16750277003057
98.62551460800425 125.7019233284659 33.16981456170984
106.50854072066966 107.97716451425474 36.60453797515251
97.08838537757445 124.83721111500279 36.47010953152315
102.48556665908237 122.69799205517904 28.00255486294093
100.63609299532746 121.62649520574172 24.682176483951583
100.63537106243002 116.42450549588372 21.638598773453086
103.10721139416259 118.52825818412 23.762622348926662
103.79646426475692 116.08005808844838 41.3383412225307
102.87875682946338 105.53238415254467 36.64787152141025
108.87589325476942 118.85979528099544 43.88050833504758
102.11832642353716 114.87325169976198 21.98747965700972
101.18259246430185 113.01769535925746 21.88169113074344
104.42377499229475 108.16443394891593 37.855195925272845
109.72057108683754 109.3424537238888 28.459640310655708
105.62908561874944 123.938461502119 38.535913989114896
108.95733500409297 111.88620091455127 41.7241857010952
95.69262344190241 104.61680737061134 40.08124701475853
101.87373550957534 120.25118120816593 24.090233985752356
96.35538322511736 106.62174964656674 39.28158984784744
98.20840684963412 107.55794107743317 39.36613005701373
106.37663565652278 119.9299418618637 26.019736564407342
117.22686013978894 112.76650144712202 29.273545025064582
100.03357399589738 120.72435559863962 40.20385581489928
91.73093455773528 106.90852919989076 37.315768865456576
90.40345101859326 106.09794505857354 36.247678315658995
102.88629976601783 123.89246994976698 31.15577142611155
110.24938801586921 110.17014713176471 39.844231635623004
108.27754239038288 109.13362277881642 38.076435654470785
114.18637759996369 111.34955493158209 26.778972185956793
113.48987153966753 108.2598849774316 29.103662173177625
112.16584751982667 113.49177939406812 43.07785397020109
99.3420850802836 125.02898509038168 35.71510386981475
112.46148954071064 126.60746049666794 39.43689090175037
105.93139336759 122.81515510126277 41.25002960215904
100.01752517389447 123.1070816355166 26.567006752011192
99.31797108460104 119.3896139126328 22.282263962896547
107.21678599834327 110.57836816447546 39.92608449816779
97.7700353457973 121.60720949678725 39.97487125664491
107.74909230609522 123.79031591051726 30.540233867851402
109.3631240783796 117.01001332753002 25.650398841103158
97.52407800858444 123.16932380963564 25.58128981887788
95.30862290562344 119.98714276731005 22.043821080162594
113.76773114426071 106.93956943426325 31.703051289372894
100.07542221073491 106.45190459856823 38.39927204508827
101.32987058929926 107.76923241555588 38.46392137396781
104.46923465085253 105.79417987884796 34.323474511142294
114.64795983536072 122.28587091206113 29.674300067018102
115.27493823280973 109.05943982809266 38.28055065722517
98.4855370823067 125.38629710824848 29.855297852423934
106.95428838084862 107.40618392133364 28.77191639548892
104.42832391161924 122.89831960379833 29.411025470335314
107.88067874105688 125.6860420312682 37.84425267735246
101.25180344398352 106.0088862222003 25.762499787168746
97.55521741338552 97.9815650756827 33.506552123006806
90.99189328138883 125.58861567687497 33.20138794047584
100.38230759693629 107.51970386000815 23.951069193009104
88.69736087949853 113.67603754651331 37.68591373702097
93.52019443037683 98.6672203803563 36.45014525160698
111.68049672820833 107.02397409401817 32.35043765986757
91.5291490331561 100.45265303229436 34.75361810896708
110.14765943313182 107.8279547472726 32.08155189640867
94.49482502468248 102.52196624253439 39.33253130228359
98.86509017172132 101.67721752762948 30.535006299443257
100.85911944031028 118.55583464326264 22.674837091478015
108.24328007794175 108.02159605200671 31.868437464924483
88.33968902714517 107.75146949271488 28.447578541236613
107.47335410724382 107.85749831549961 34.84985921680373
98.45163751377142 98.65644042728879 36.44847705691142
85.6234937564768 120.02067128964585 33.44747208113666
102.55778984438287 116.79435920856056 22.68437194125379
106.54585130059883 118.28250273849072 42.783327120683694
93.6530875561912 125.76109168485073 33.153361127414264
92.11859685691469 105.08193037520851 37.22712683229653
104.01110188601741 121.95813504998712 39.536029603901376
99.36066291986202 100.32935575192471 34.01543905382812
100.30974153960057 108.99385643697073 39.23782505735915
102.40597896179068 106.8408114980654 37.59218019145287
100.0363284878716 102.14911787700407 33.65045367510779
102.13492180721289 110.95158989852523 22.76650119161217
94.85663770802641 106.02471059155285 38.799365754921695
96.56529728230079 108.36696280696498 39.555600914308904
115.284751963785 124.61459402148536 32.84660692495324
92.90253686831824 124.48700641987591 28.227367429791475
88.30790058411057 120.30866130890409 39.83227243699527
110.34783209342577 120.4239936355196 27.22057871691348
93.29993630515418 106.50491016176159 38.112983456758
86.20676162711813 117.64510790204199 34.931118945779026
97.23872184893246 114.10575177148066 21.160895558009685
87.5190551910301 124.10240163584787 34.692884465177315
91.20254482548884 101.69007233573781 36.096877318403514
102.21181160277838 110.99621232952032 39.40231643304324
104.52030969688516 110.10880259844627 39.338437083023116
106.19586769061627 109.13641077814457 38.40490556919076
101.52486176634687 116.16338691797827 40.74602305567614
90.35557979988376 108.47652930908136 36.887788420945654
100.60886680649611 124.96870387382165 31.416816340967628
117.5051480109054 109.24028995104135 31.1730885098595
100.24664569153022 109.41088240691982 22.882987970406315
90.367505127005 102.41051019041652 32.496553959955975
108.27151033608659 109.37586111155892 27.625802840283114
101.37966511305065 122.2154801519226 38.819933640984935
87.78415699756847 105.29130127155977 33.5071459145144
88.53123541298399 111.73447170051547 36.932473363048
111.17164803549876 108.39033140543053 28.995490608857185
98.8366130946373 115.41033458885127 21.350629931658855
93.61228026387698 98.75439023475354 31.893333125728287
107.18575002914473 117.76393171762325 25.24169970362789
87.64881333540175 113.20701859330349 36.120438001381316
94.54425831091838 124.70950663968664 36.457012426209666
93.19869305247036 100.20192650173823 30.82182008072363
92.08229415542722 101.50325022071756 30.04969975416091
95.94740583003079 122.14130244519232 23.81561365034142
113.31232316057236 107.58227659065797 36.64584770950497
88.07899981556737 109.46556610043196 31.548449945572397
106.69848684509074 106.697002856013 31.540123191189704
88.98969190269422 105.01669085450108 35.28280491583217
105.44035714355127 108.00936119991391 25.57073298105346
103.45375320102006 123.33046392009848 37.73330590137141
111.24231537433039 114.93478688729448 43.89192805838266
114.9848155659719 107.20560879830069 34.19596231878897
86.04569169940342 118.9791474133062 37.14883934217673
109.68213786923106 122.36830629324363 28.84833628348664
108.07597818244034 108.57185812353015 28.871092375778836
89.00459188099909 115.64415331290527 38.38460002056806
109.50378489468032 112.82028851747785 25.903443917175167
109.97104138677933 125.84909138225215 33.11913520678992
90.50367337719729 114.16543176787083 39.10477533710654
98.45959683190414 117.9503507009141 21.33819539868871
99.21668714627273 99.85048413013145 35.53614498058274
111.60138574170603 119.29073471482411 44.21364218895998
113.29417312867861 124.65258919464834 31.109331063088508
87.15575868174787 115.53642597519514 36.56216786263964
115.74557645295951 121.53899273215652 41.96447052166932
88.00758083327739 117.8613367236072 38.47332010810333
99.50692397749977 121.85016497982824 39.110794549227215
111.92825422257694 109.90012245311611 27.67699568863892
89.95618943562862 123.80403149546336 27.809504886353952
97.69183251342491 124.11900698650602 27.55779706175392
95.72307441718047 98.51358321652093 38.339311534845905
109.99891988080526 126.91562624919133 38.32310066238781
103.59879559440573 124.02090664709431 35.78510541881875
117.6899330801882 115.11996223489813 38.45335724147721
114.32356239156422 116.35056200547024 27.290935059801665
112.52611181150361 106.91994285894677 34.0106453753531
92.19946196638845 122.76585353631873 25.834226127994462
90.56519447638058 120.35800849349803 25.0834330446705
105.28498789737385 112.02962125509791 40.63281528414091
87.8716833609078 107.52313779673625 32.715152434919624
103.0349987546613 118.1058448793483 40.93296571880311
92.69159095030395 98.89502861371008 34.97054464358272
115.43171275703719 113.59423972353363 27.31980201895619
97.86928499303993 120.46564883493734 22.191377870671282
110.81444186044334 107.75906594852104 35.282184055472015
87.49103448676422 115.24319740127788 26.788561521696213
96.50723548208393 117.5096380446886 41.83464069565057
97.04109046779608 116.0221390560996 21.28472531715323
90.31530137323101 122.54820191650045 39.46038825572381
96.38744779219549 99.92716724611643 30.3539355932644
99.20153892794757 113.36750783007939 21.32328997435254
97.83436135497524 125.82387003690586 35.11421940123461
102.8378691605253 107.48526954985398 24.67826960793983
105.02141418766584 105.5391470336747 31.17145941795653
109.52827224491472 114.862305630077 25.534145588227624
110.4478986876332 124.52388814927697 30.81983239759338
117.57758981535821 112.8726019882333 36.82820289883564
95.05590687426698 103.09043745397612 27.491225187472715
116.02165530077161 125.29197969460338 37.93390061075178
94.78303272989889 100.14890362597447 29.340215929253542
103.32086672241351 113.11077955002968 22.30575860505593
92.5140444134358 108.41228340627428 38.03580462639636
102.31334233158752 120.30430999781439 40.37473685054194
94.71375202820836 108.0346582893239 38.90110382623747
94.9899972218415 101.7511597129577 28.476429402407117
95.58797412251292 109.90978389230712 40.25646125286214
105.98817015589042 110.39363975849756 24.579401913417453
99.7957901610849 111.77683641926653 40.08751685742373
88.0402162863646 114.55085455427736 24.616411608433776
94.93456202069248 118.70050220419009 41.42534938300112
118.34977926787202 122.03310473579789 39.025327658888145
97.5401522776739 115.748203875448 41.753974377646756
90.07821336915617 124.29548169276015 37.97500452645454
111.57074723365338 111.97724250635662 26.266731507434525
87.54958266542968 123.00173678623703 29.521659916426117
93.95949697872373 123.65981807807002 37.97539429437728
88.10089875894613 111.66109973144403 32.51871785902277
86.99893365119715 119.5384361199703 38.65187210949524
85.88688453266742 118.0187159223555 33.02521048300519
87.36912801664408 117.13409753527199 27.75458915030163
90.178969974982 122.13883187133679 26.316090054646544
88.04115524604053 122.29435760061881 39.33800751951552
111.90056994061375 119.89507797924146 27.12635366197061
86.47864738987293 115.74779003169533 34.53975160630979
94.36149188368896 98.11806376045398 35.20208026708963
111.6718450174305 125.52558226455216 32.057140959800066
86.77030999990909 121.15613016061454 28.61883717036932
89.33848891497648 118.64284705856151 40.00232200468282
86.82863275045338 117.48826560467006 36.79346771461515
91.9979603087603 121.24669231071188 40.111716096531104
88.13758338422869 109.55196428330093 33.87333252981661
91.32166334944453 110.26241335376038 38.233635677829426
95.97020575746423 126.03426108399395 34.5286368405061
90.14808194281471 112.07505258258534 38.088554917861316
107.19247780964825 124.85833172931837 33.01056685596528
100.07037416424174 115.25183140230594 40.85951034553309
85.74400850814527 122.34904736151947 34.529145726290736
92.09900534174433 118.50074326170873 41.09205213153004
92.58015288552869 125.49032663067031 35.31299748119521
89.20432121509079 124.32570713726413 29.84278204735436
90.0057253897648 124.99570016238312 35.88222365341895
85.92350709467043 120.8344365649876 30.445817791560106
100.34704381541647 102.6488798744184 31.614328216408374
93.43371308402354 110.17057886837102 39.21164022086078
88.13523582435833 123.64079385482857 37.677704985208436
86.28765237601993 122.85700544457279 32.30987054286569
86.14544689902178 122.87789980739264 36.42385266743029
94.29042890817101 112.1340474043279 40.705574198242395
97.03396775801824 111.98764569439439 40.97817319118844
92.30360795434997 125.613788756243 31.833299184613338
95.73798942392666 114.72665684750476 41.4927756666775
118.12033084281954 113.40366818002873 34.92083721436179
98.65913768275877 114.25172299980562 41.176788283720136
113.97999439639226 109.6394282444036 27.7528004578953
105.84760565994885 116.47862979582385 24.02221396184922
95.7472748358533 97.8459588175851 33.83011513144832
99.22514869753952 100.98598486848886 32.27440819690175
115.84263762172246 123.65380416498073 41.73298214637492
96.73291949279927 98.39165157815482 31.78069466685397
111.72570681432512 127.02750072644557 37.635033792267265
88.14373398098049 109.24709878212164 29.6226733193141
107.55056348134872 114.9458257743743 42.90685606266666
118.41355722750289 110.09578651184137 32.775384714705204
103.0735283299058 112.84287133347522 40.24368546216891
108.63813275842784 126.38211277662418 39.46925288645633
112.83008714615247 117.56014461121315 26.444688045854676
117.9371839632116 115.60758081473273 33.1676027234271
99.56160419627429 103.95498262730233 38.776428701995
90.81879521500863 117.07146078913243 39.84863110942914
118.65371208638022 120.5359912803637 37.827512067229414
118.40147959906491 111.46521497394573 34.373988222616546
92.06227540668876 112.21181113590647 39.334457715156454
118.63214804272518 119.37027445561587 34.14038574917292
91.76268203336627 113.57605307332204 22.93648012291476
87.8503741695982 107.61077000686086 30.530690804559782
116.61413621716285 120.81583803873252 30.58539638362565
116.13429736461556 107.55389119671065 32.22574777970136
117.98375333718934 113.47565203668303 31.177629607546383
116.82957408861448 124.5245360343902 36.20403244673601
117.79115651078997 110.77020900830618 29.840393646628684
88.6448559218067 124.6212784544126 31.921012932228454
97.93998754926933 107.3357877394259 23.691119316789283
115.39259780449595 125.2721017610437 35.315387025179
88.75495467474485 107.98910746970658 26.42576098141673
101.56675275227259 124.51899082571228 33.93048055630731
115.63221359558409 107.92773027552022 30.27055239213605
115.93833732791973 111.86530935876127 27.745789609705167
93.77536244979112 102.54386839705704 28.13663959616812
116.06301000320552 107.87125609629095 36.270460846080894
92.77478363250346 114.56176526872659 40.46017202837463
102.30749955955775 121.60796820852079 25.902868572582335
117.23272238077296 118.58446810448122 30.71965082173838
111.72045846289696 121.29119559849839 44.12131549555673
101.5402829431761 112.36325276460113 40.098949623929585
112.10175725761285 123.11550181115032 29.594815445554104
90.66117085606706 102.5162299471767 30.442350635462482
89.22463584791231 124.99656015324506 33.93001603943863
109.12400061245481 126.63772917640622 36.82729715853503
118.44441625202407 111.66109477216993 31.564105135208234
117.4456869831263 108.68937059134014 34.0411483110177
97.94815323464589 100.11838516480373 31.209998730110495
113.10438830663138 113.87155834772737 26.446092792087327
113.95876546184685 111.06760332137544 40.88681082157435
101.07058355524076 113.89547445126922 40.55747338019349
103.75005005727972 109.61504032376983 24.20772390583558
89.6752639423704 103.886888813734 28.783632336806484
94.92095008937284 98.04003607910067 36.86611617631401
116.49007801900845 115.1748295038784 28.457186330655933
88.26906525248359 105.72147105313213 29.546371925733624
108.73509853574966 125.31677354324131 42.09629174983914
109.87522402289451 123.4465223594515 43.83754367329323
93.7414226692702 117.28669625046584 41.11825743559786
117.39339958932486 110.01873617616052 36.79319289896808
86.57649449101736 121.33672629454834 38.18847314898643
117.84493814768705 122.0814287316345 33.41878749381067
95.78136945235248 97.6939719401835 35.615639534068784
112.94066347737865 125.99149392572583 33.77584294579161
117.5233407788603 115.55445532267213 30.959759186347753
104.32748500065861 115.22870483148799 22.75048595176068
113.44569616701548 126.35952956235323 36.938835657065354
105.98561917561032 124.59606948808887 35.855503128921455
108.76216293138309 125.02831191539985 31.7124874561226
114.19008964757187 123.49525283783447 42.59708795119181
92.48591858603382 100.20292579468737 36.77558883844317
90.82191049159023 119.81925210254295 40.577221160282505
86.72579311332854 118.99870846183644 28.483216550630818
112.17296928204499 110.52646424523897 40.41026007949455
109.50855045872618 108.570406038554 30.286008602008952
117.76353521490233 123.05870750266833 37.23760335986105
109.3959193134757 110.77740153516976 26.935308876228753
99.76655877920585 101.4146065571808 35.46728148115611
117.83462233786402 118.35440472673294 40.98934453173478
110.54386148142346 112.7933070526307 42.39910339229714
115.20513032668175 118.18974144853014 27.62671681112473
104.20704882617623 117.09014535453002 23.531943600871795
107.14721600392767 120.92608660426626 43.054754573061864
109.07112281997881 108.25434964394924 33.77541056504868
111.57607100690531 107.60678836801891 30.665097366424273
110.76471586010335 107.35937550507465 33.51788997906609
105.57913507045343 106.0516802575195 32.973707061489236
104.63650583120132 114.13627996199946 41.26104299500234
118.34562901697417 116.67202891102548 37.20109570228691
113.73395180515543 114.46161097191576 43.20577530777536
115.0361756160295 119.9137078297262 42.940122650649435
117.32041346797797 113.13373529177089 38.833746908761164
105.95941495767266 106.82548119741101 34.731522771375
94.02415465948644 122.686990915418 24.63650600428302
98.38333595100339 119.14649856380926 40.87713605216718
98.58407447222082 99.15859999884505 32.70893702150587
88.27600952448485 107.29047298371981 35.32517145634938
106.40711504549274 112.45500224594599 23.946083795173426
99.13991046314253 108.47724264544728 23.27156150969145
115.82012331656294 117.22021344564506 42.70939949701488
112.31223764318382 117.46493896819973 43.99983045831062
110.12765540283269 124.80298826360745 42.87701638662588
117.07305463291645 123.48714448373502 34.52126801364887
107.63349208835966 125.10664284291877 40.53432347564379
114.09088617628012 120.65054291023748 28.34601551563801
93.87662251628676 99.00273395468274 38.17954462917458
102.307375112174 103.95222700301106 30.824814544566742
115.90763391714607 114.66547327221325 41.81306803242077
118.7944681167498 118.34217660740808 35.960323011681766
113.1221518808699 112.26322659636485 42.065276323972036
109.84190409965714 121.53697547426637 43.86863578982067
118.0066132100849 115.44098579599981 35.3597084454894
115.04794817382306 115.61906518565306 42.93929885708507
95.63516594923766 124.69232024497641 29.08927210275861
91.04214040957204 100.99722812927223 33.20755112045583
108.39515328241083 125.92772534765699 35.38542180595203
112.4615496494823 125.64948246647847 42.28805406003191
115.37742383689498 112.2965181352887 40.731959587991085
117.0418255017807 123.30055276177316 40.07524893473737
114.58777095393519 110.19985328320182 39.420383560923696
118.46118274641861 121.14625573201963 35.064732073129484
116.36475464658508 118.86644063437346 42.1603170151069
106.90720458967267 113.46508391163314 42.10555621939535
104.70669995167829 123.83759010434396 36.93878924247979
90.70535520932668 103.73114014141936 35.84920878961273
114.23120943392597 118.14555721352862 43.70655696779027
114.6996875116895 113.22003764890056 42.249541389457505
103.70868017963372 105.89085314897021 26.47351056286351
114.74551433258208 125.06883840985628 40.50888273029319
108.23068301602524 123.59228970036683 42.83812777937531
90.56245466975935 102.0746749224005 34.4155543496604
118.49838342205607 117.90391184860043 38.99855010709794
118.0837546968243 120.48099653061497 40.54763640996988
88.1382698457208 111.66171288207316 34.92826285635724
108.02257232407375 116.40727116809863 43.614133496509815
92.5256358766063 102.6549329515952 37.5826868088928
93.52472998144424 120.0354103801491 40.88976580313763
85.25014840426353 120.87364840246808 35.99270665932794
97.24288767983823 104.07501819415596 40.83517015095016
95.31674544903316 121.51152434098358 40.01633940801267
85.35215002596074 119.24199362744363 35.389090403951485
108.76003173344513 119.0916979224405 26.3002189700759
94.00210723194242 116.60453762867218 21.681195656426258
103.95919254167424 120.09883696422102 25.152235113348834
100.73045978478109 118.50214859535527 40.673678318906
98.68127520888305 103.37612403195826 40.59466187177645
95.75446102221463 112.91319145815429 21.492593772902925
97.94424755482383 109.7140433664232 40.05701942405597
88.8614750623791 116.009386106224 24.967208464832602
87.2163609185579 114.52846696735526 28.78113052238216
101.41011611635525 123.9582270246117 36.7691896794336
99.88620231322903 102.55648049416457 37.15997670514549
94.19013253561249 125.511754478868 34.866384529580124
117.91252496964185 120.37365522932767 32.60889740493834
96.08156808211041 119.78348667032442 40.91126917810274
96.76664180066042 97.77719620545913 37.02866694396786
111.78655339306042 123.21088404974135 43.80425397643236
99.32473945313126 124.27113274853721 28.231291446388912
104.88424019407884 117.65273344275829 41.66367872615169
96.40827760594448 101.08746737018252 29.053490044804864
102.53539679590178 108.80060771450025 38.659894426008755
94.89008459036593 99.00677669107027 30.868726248714143
117.08790261515387 116.31108059915681 41.31596996169973
94.91431441963975 98.22257260158601 32.29112925417067
115.9705899434449 111.55491787849789 39.00871335930185
114.29105851712994 126.11069260180356 38.757046916017856
91.66042858498412 119.39894913999528 23.443522996837466
105.16340240481371 113.3246515275294 22.834851803609833
111.59075684568246 111.5574745882459 41.6797610635069
106.42925484534585 121.00048473349672 27.42894531589072
102.83361374459382 114.63399247263564 40.76154449034216
113.55568474192697 121.01853972804285 43.529114849588105
102.13827573601635 104.08640554434952 29.137942013235826
107.7264855308734 111.64266656554858 25.449162355937926
91.4934647262684 101.10627652288836 31.599634063837247
97.39765775262468 100.51513880745293 40.17471534776084
88.2804908588861 109.71975188863469 36.221757963289456
106.08619923160086 123.2391638112571 29.919442317794154
99.11497938002563 116.66656151319452 41.34909925486264
92.13653245207165 124.32760057588209 37.705947166203345
95.99096269139308 125.82625163789076 31.676420090519866
105.28090752858922 118.51505222126416 24.24526426624615
93.31507366884257 122.58295833371129 39.488756297787354
97.26516557158953 97.78304974676473 35.15876437098515
95.12532598982156 123.6824245662303 26.262950469226986
107.0766648491433 111.95099502128 41.140044794043476
111.26956968096437 118.56780992742338 26.229443623880016
115.20409099915302 123.85185238211389 31.127470080938735
99.87406147519792 120.38288473912355 23.352996575376558
POLYGONS 1054 4216
3 467 12 10
3 15 12 467
3 21 17 18
3 368 13 19
3 21 18 20
3 24 22 21
3 24 21 20
3 27 26 41
3 181 29 30
3 30 29 499
3 32 31 45
3 31 32 14
3 36 46 35
3 13 35 17
3 35 13 36
3 13 14 36
3 17 38 18
3 243 39 300
3 243 300 416
3 37 18 38
3 18 37 20
3 40 41 20
3 284 291 374
3 46 47 35
3 284 374 46
3 36 284 46
3 35 47 38
3 39 51 388
3 39 281 51
3 52 53 55
3 72 58 56
3 46 64 47
3 374 64 46
3 58 72 73
3 79 180 77
3 135 180 79
3 135 82 180
3 109 247 417
3 78 80 117
3 118 131 195
3 118 120 131
3 138 137 114
3 146 120 85
3 146 81 145
3 81 83 145
3 142 213 143
3 198 137 290
3 135 198 82
3 135 137 198
3 138 487 199
3 138 199 137
3 131 120 211
3 120 146 211
3 204 290 288
3 82 204 191
3 131 211 210
3 211 146 155
3 211 155 210
3 245 242 175
3 199 292 290
3 199 487 292
3 288 290 330
3 290 292 330
3 487 335 292
3 487 294 335
3 318 358 320
3 292 334 330
3 292 335 334
3 339 337 335
3 339 335 294
3 335 337 334
3 390 339 294
3 320 358 245
3 358 330 334
3 358 334 376
3 358 376 245
3 245 376 355
3 376 337 398
3 376 398 355
3 30 31 8
3 19 13 17
3 17 21 19
3 22 19 21
3 26 25 24
3 30 45 31
3 35 38 17
3 40 20 37
3 49 38 47
3 392 47 64
3 112 78 117
3 114 137 135
3 191 142 143
3 143 464 191
3 143 213 436
3 204 82 198
3 198 290 204
3 199 290 137
3 209 294 194
3 9 31 14
3 9 8 31
3 10 8 9
3 11 9 14
3 109 491 110
3 294 487 194
3 194 487 138
3 320 245 175
3 175 221 320
3 318 288 330
3 330 358 318
3 376 334 337
3 171 467 10
3 29 181 387
3 320 87 318
3 142 191 204
3 204 288 142
3 76 77 180
3 102 109 110
3 318 87 213
3 410 176 445
3 491 112 115
3 445 176 393
3 171 11 174
3 174 11 368
3 115 112 117
3 213 288 318
3 36 14 32
3 19 2 368
3 284 36 32
3 252 242 355
3 355 242 245
3 186 523 75
3 81 271 231
3 76 410 445
3 388 300 39
3 416 300 254
3 28 42 23
3 281 23 42
3 243 416 513
3 29 387 276
3 39 243 281
3 513 23 243
3 243 23 281
3 111 342 311
3 276 499 29
3 86 217 470
3 475 82 191
3 102 257 495
3 102 77 257
3 393 257 445
3 470 208 464
3 76 475 410
3 63 64 374
3 475 180 82
3 475 76 180
3 176 311 393
3 64 382 392
3 392 382 65
3 176 268 311
3 435 193 75
3 402 495 393
3 495 257 393
3 410 268 176
3 76 445 77
3 445 257 77
3 262 177 161
3 271 262 231
3 254 148 222
3 388 147 300
3 388 269 147
3 425 177 262
3 147 254 300
3 416 254 132
3 161 177 424
3 342 111 503
3 311 268 111
3 423 179 425
3 132 254 222
3 177 425 179
3 402 342 523
3 34 183 423
3 183 179 423
3 414 222 424
3 220 67 65
3 49 47 392
3 464 143 234
3 342 172 523
3 213 142 288
3 161 238 262
3 19 22 2
3 22 5 2
3 161 424 148
3 83 231 166
3 81 231 83
3 222 414 132
3 424 222 148
3 271 425 262
3 424 177 179
3 424 179 414
3 414 179 183
3 132 414 241
3 423 425 271
3 32 45 284
3 284 45 291
3 30 499 45
3 523 172 75
3 345 342 503
3 231 262 238
3 172 342 345
3 27 7 26
3 55 272 40
3 242 252 250
3 84 72 56
3 208 410 475
3 208 475 464
3 464 475 191
3 49 370 38
3 38 370 37
3 370 52 37
3 217 86 65
3 86 220 65
3 81 146 85
3 271 81 85
3 342 402 311
3 311 402 393
3 220 266 67
3 84 56 303
3 87 516 213
3 175 226 221
3 226 473 221
3 213 516 436
3 266 317 232
3 250 84 226
3 84 473 226
3 250 175 242
3 250 226 175
3 221 87 320
3 221 516 87
3 55 53 56
3 53 303 56
3 464 86 470
3 436 234 143
3 55 40 52
3 52 40 37
3 52 370 184
3 184 370 49
3 53 232 303
3 329 343 181
3 8 446 329
3 387 435 345
3 220 436 266
3 266 436 317
3 286 228 63
3 229 514 382
3 501 286 276
3 286 499 276
3 268 62 111
3 229 63 228
3 291 499 286
3 501 228 286
3 382 217 65
3 382 514 217
3 224 111 62
3 178 62 268
3 501 345 503
3 454 62 178
3 111 224 503
3 501 503 224
3 228 501 224
3 514 454 217
3 229 228 514
3 374 291 63
3 291 286 63
3 178 268 410
3 329 446 78
3 78 446 80
3 172 435 75
3 172 345 435
3 75 247 186
3 75 193 247
3 217 454 470
3 470 454 178
3 78 112 196
3 196 112 417
3 228 62 514
3 62 454 514
3 435 343 193
3 193 343 196
3 102 186 109
3 109 186 247
3 102 495 186
3 410 208 178
3 178 208 470
3 112 491 417
3 417 491 109
3 501 276 345
3 228 224 62
3 63 229 64
3 64 229 382
3 276 387 345
3 193 417 247
3 193 196 417
3 329 196 343
3 329 78 196
3 181 343 387
3 343 435 387
3 8 181 30
3 8 329 181
3 186 495 523
3 523 495 402
3 45 499 291
3 15 467 235
3 131 500 195
3 131 210 500
3 500 210 209
3 437 28 23
3 194 500 209
3 280 426 80
3 3 507 437
3 405 28 507
3 507 28 437
3 467 171 279
3 437 23 513
3 209 380 294
3 294 380 390
3 209 350 380
3 380 350 390
3 33 218 241
3 33 16 218
3 218 16 416
3 118 432 120
3 426 34 432
3 3 197 287
3 61 233 97
3 235 467 279
3 280 97 233
3 233 426 280
3 287 405 507
3 507 3 287
3 423 185 34
3 85 120 185
3 28 341 42
3 42 341 225
3 28 405 341
3 155 265 210
3 34 233 183
3 183 233 61
3 1 174 216
3 1 279 174
3 174 279 171
3 183 61 414
3 414 61 241
3 432 34 185
3 185 120 432
3 61 168 241
3 61 97 168
3 34 426 233
3 80 164 117
3 117 164 118
3 80 426 164
3 16 33 235
3 235 33 15
3 195 162 115
3 194 138 162
3 241 168 33
3 42 158 281
3 293 16 235
3 513 293 437
3 267 498 93
3 74 189 498
3 498 189 93
3 85 423 271
3 85 185 423
3 15 97 12
3 12 97 280
3 279 391 235
3 391 293 235
3 416 16 513
3 16 293 513
3 145 155 146
3 281 158 51
3 33 168 15
3 15 168 97
3 1 391 279
3 117 127 115
3 115 127 195
3 117 118 127
3 127 118 195
3 432 118 164
3 164 426 432
3 1 216 197
3 197 216 4
3 220 86 234
3 234 436 220
3 261 388 51
3 86 464 234
3 114 162 138
3 241 218 132
3 132 218 416
3 106 528 270
3 7 160 6
3 230 270 160
3 319 520 190
3 520 167 453
3 377 123 153
3 153 123 106
3 377 136 123
3 0 122 153
3 153 122 377
3 94 121 95
3 94 150 121
3 3 391 197
3 197 391 1
3 5 4 2
3 2 4 216
3 5 277 4
3 5 206 277
3 277 206 223
3 113 116 169
3 139 107 481
3 240 203 107
3 107 203 481
3 122 169 116
3 116 377 122
3 156 94 95
3 230 106 270
3 230 159 106
3 197 130 287
3 287 130 129
3 197 4 130
3 105 203 240
3 157 240 113
3 188 405 129
3 129 405 287
3 12 104 446
3 446 104 80
3 12 280 104
3 104 280 80
3 157 108 321
3 169 144 108
3 528 106 123
3 123 136 528
3 481 225 139
3 225 521 139
3 130 101 129
3 188 129 124
3 484 141 434
3 377 483 136
3 377 116 483
3 277 223 101
3 43 230 160
3 160 7 43
3 188 421 405
3 113 240 107
3 206 274 223
3 6 246 274
3 274 246 223
3 153 106 159
3 124 129 101
3 101 223 124
3 125 521 421
3 518 434 273
3 524 159 230
3 2 438 368
3 368 438 174
3 2 216 438
3 438 216 174
3 141 156 434
3 521 483 139
3 139 483 116
3 182 154 528
3 528 154 270
3 182 246 154
3 154 246 270
3 437 293 3
3 293 391 3
3 270 103 160
3 160 103 6
3 270 246 103
3 103 246 6
3 481 158 225
3 225 158 42
3 182 124 246
3 124 223 246
3 158 526 51
3 136 483 125
3 125 483 521
3 152 192 93
3 152 133 192
3 125 188 182
3 182 188 124
3 405 421 341
3 22 486 5
3 25 206 486
3 486 206 5
3 10 512 8
3 8 512 446
3 10 12 512
3 512 12 446
3 167 256 453
3 256 153 159
3 453 524 201
3 201 524 263
3 528 136 182
3 136 125 182
3 4 277 130
3 130 277 101
3 388 261 269
3 421 188 125
3 115 354 491
3 115 162 354
3 354 162 114
3 194 163 500
3 500 163 195
3 194 162 163
3 163 162 195
3 153 497 0
3 0 497 167
3 153 256 497
3 497 256 167
3 201 100 453
3 201 88 100
3 144 98 108
3 108 98 321
3 219 490 94
3 94 490 150
3 210 99 209
3 209 99 350
3 210 265 99
3 99 265 350
3 88 201 255
3 255 201 263
3 453 256 524
3 524 256 159
3 368 91 13
3 13 91 14
3 368 11 91
3 91 11 14
3 10 9 171
3 171 9 11
3 263 433 43
3 43 433 230
3 263 524 433
3 433 524 230
3 203 526 481
3 481 526 158
3 261 420 48
3 48 420 50
3 261 54 420
3 420 54 50
3 169 90 144
3 144 90 0
3 169 122 90
3 90 122 0
3 321 98 407
3 407 98 259
3 189 422 93
3 93 422 152
3 189 128 422
3 259 98 371
3 371 98 144
3 150 371 119
3 170 407 133
3 93 289 267
3 289 219 141
3 121 319 227
3 227 95 121
3 95 479 156
3 95 522 479
3 479 522 476
3 321 407 455
3 455 407 170
3 265 427 350
3 192 219 289
3 289 93 192
3 54 309 105
3 105 309 203
3 54 526 309
3 309 526 203
3 150 278 121
3 121 278 319
3 150 119 278
3 278 119 319
3 258 89 151
3 128 92 248
3 70 237 149
3 149 237 71
3 70 92 237
3 237 92 71
3 94 253 219
3 219 253 141
3 94 156 253
3 253 156 141
3 145 134 155
3 520 453 100
3 100 190 520
3 74 474 189
3 71 92 474
3 126 427 74
3 390 322 339
3 339 322 518
3 390 212 322
3 322 212 518
3 73 412 58
3 60 59 412
3 212 267 484
3 212 126 267
3 43 264 263
3 264 27 59
3 71 462 134
3 462 427 265
3 411 275 202
3 275 522 519
3 259 490 236
3 236 490 219
3 133 236 192
3 192 236 219
3 0 214 144
3 0 167 214
3 214 167 119
3 321 455 244
3 244 455 44
3 267 289 484
3 484 289 141
3 152 443 133
3 133 443 170
3 259 463 407
3 407 463 133
3 259 236 463
3 463 236 133
3 473 84 303
3 303 232 317
3 473 303 317
3 350 510 390
3 350 427 510
3 510 427 126
3 473 317 516
3 516 221 473
3 516 317 436
3 157 282 240
3 225 341 521
3 521 341 421
3 319 119 520
3 520 119 167
3 169 517 113
3 113 517 157
3 169 108 517
3 517 108 157
3 113 509 116
3 116 509 139
3 113 107 509
3 509 107 139
3 249 527 165
3 165 527 57
3 249 200 527
3 527 200 57
3 144 214 371
3 371 214 119
3 508 134 145
3 427 462 74
3 267 126 498
3 498 126 74
3 390 510 212
3 212 510 126
3 212 484 518
3 518 484 434
3 259 371 490
3 490 371 150
3 337 273 398
3 134 525 155
3 155 525 265
3 134 462 525
3 525 462 265
3 156 494 434
3 494 273 434
3 60 264 59
3 58 489 56
3 56 489 55
3 58 272 489
3 489 272 55
3 41 488 27
3 272 59 488
3 488 59 27
3 110 491 354
3 77 515 79
3 79 515 110
3 77 102 515
3 515 102 110
3 110 485 79
3 110 354 485
3 485 354 114
3 27 506 7
3 7 506 43
3 27 264 506
3 506 264 43
3 7 482 26
3 26 482 25
3 7 6 482
3 482 6 25
3 79 478 135
3 135 478 114
3 79 485 478
3 478 485 114
3 69 260 502
3 260 471 502
3 251 461 472
3 166 459 83
3 83 459 389
3 166 504 459
3 459 504 389
3 472 458 251
3 285 468 458
3 469 152 422
3 389 457 466
3 466 457 69
3 389 504 457
3 457 504 69
3 89 456 151
3 456 468 151
3 452 465 70
3 283 451 260
3 68 448 451
3 248 450 128
3 149 449 466
3 466 449 389
3 149 508 449
3 449 508 389
3 448 356 471
3 471 356 472
3 448 460 356
3 152 469 443
3 200 442 57
3 248 465 511
3 496 456 441
3 441 456 89
3 70 440 92
3 92 440 248
3 70 465 440
3 440 465 248
3 502 447 69
3 69 447 466
3 502 452 447
3 447 452 466
3 465 439 461
3 461 439 502
3 465 452 439
3 439 452 502
3 69 431 260
3 260 431 283
3 69 504 431
3 431 504 283
3 251 430 461
3 461 430 465
3 251 511 430
3 430 511 465
3 466 429 149
3 149 429 70
3 466 452 429
3 429 452 70
3 260 428 471
3 471 428 448
3 260 451 428
3 428 451 448
3 134 419 71
3 71 419 149
3 134 508 419
3 419 508 149
3 461 418 472
3 472 418 471
3 461 502 418
3 418 502 471
3 285 458 415
3 389 413 83
3 83 413 145
3 389 508 413
3 413 508 145
3 496 511 409
3 409 511 251
3 189 474 128
3 128 474 92
3 249 403 200
3 44 406 403
3 57 401 493
3 493 401 460
3 57 442 401
3 401 442 460
3 283 399 357
3 283 504 399
3 399 504 166
3 57 362 165
3 165 362 50
3 57 493 362
3 469 396 443
3 443 396 89
3 469 441 396
3 396 441 89
3 6 274 25
3 25 274 206
3 269 394 140
3 48 404 394
3 394 404 140
3 285 505 468
3 468 505 151
3 285 406 505
3 505 406 151
3 357 399 386
3 385 66 357
3 170 384 455
3 455 384 44
3 170 258 384
3 384 258 44
3 249 381 282
3 249 165 381
3 381 165 105
3 415 460 442
3 25 486 24
3 24 486 22
3 50 378 48
3 378 493 68
3 496 409 456
3 456 409 468
3 96 373 140
3 140 373 269
3 96 147 373
3 373 147 269
3 215 372 96
3 161 148 372
3 372 148 96
3 200 369 442
3 369 406 285
3 238 375 231
3 231 375 166
3 238 386 375
3 140 366 96
3 96 366 215
3 140 385 366
3 366 385 215
3 48 394 261
3 261 394 269
3 66 364 404
3 404 364 140
3 66 385 364
3 364 385 140
3 161 363 238
3 161 372 363
3 363 372 215
3 41 360 20
3 20 360 24
3 41 26 360
3 360 26 24
3 493 359 68
3 68 359 448
3 493 460 359
3 359 460 448
3 460 415 356
3 66 353 451
3 451 353 68
3 66 404 353
3 353 404 68
3 526 352 51
3 51 352 261
3 526 54 352
3 352 54 261
3 170 351 258
3 258 351 89
3 170 443 351
3 351 443 89
3 357 349 385
3 385 349 215
3 357 386 349
3 349 386 215
3 238 363 386
3 386 363 215
3 54 444 50
3 50 444 165
3 54 105 444
3 444 105 165
3 48 378 404
3 404 378 68
3 128 450 422
3 422 450 469
3 406 346 151
3 151 346 258
3 406 44 346
3 346 44 258
3 166 375 399
3 399 375 386
3 148 340 96
3 96 340 147
3 148 254 340
3 340 254 147
3 44 403 244
3 74 348 474
3 474 348 71
3 74 462 348
3 348 462 71
3 248 379 450
3 450 379 496
3 248 511 379
3 379 511 496
3 244 408 321
3 321 408 157
3 244 282 408
3 408 282 157
3 392 395 49
3 395 184 49
3 232 361 266
3 266 361 67
3 67 395 65
3 65 395 392
3 395 67 361
3 361 184 395
3 53 347 232
3 184 361 347
3 347 361 232
3 184 347 52
3 52 347 53
3 468 344 458
3 458 344 251
3 468 409 344
3 344 409 251
3 493 378 362
3 362 378 50
3 496 397 450
3 450 397 469
3 496 441 397
3 397 441 469
3 66 338 357
3 357 338 283
3 66 451 338
3 338 451 283
3 301 255 60
3 88 336 100
3 100 336 190
3 88 173 336
3 336 173 190
3 367 173 88
3 207 367 332
3 332 367 301
3 187 328 73
3 187 332 328
3 328 332 301
3 207 331 327
3 301 326 255
3 255 326 88
3 301 367 326
3 326 367 88
3 227 325 519
3 190 173 325
3 411 324 476
3 476 324 398
3 411 355 324
3 324 355 398
3 187 323 332
3 332 323 207
3 187 477 323
3 522 316 476
3 476 316 411
3 522 275 316
3 316 275 411
3 327 519 325
3 325 173 327
3 207 383 367
3 367 383 173
3 207 327 383
3 383 327 173
3 73 328 412
3 190 492 319
3 319 492 227
3 190 325 492
3 492 325 227
3 239 480 205
3 205 480 187
3 239 477 480
3 480 477 187
3 479 476 494
3 494 156 479
3 239 400 477
3 207 333 331
3 477 400 333
3 333 400 331
3 250 315 205
3 205 315 239
3 250 252 315
3 315 252 239
3 323 477 333
3 333 207 323
3 411 314 355
3 355 314 252
3 411 202 314
3 314 202 252
3 412 313 60
3 60 313 301
3 412 328 313
3 313 328 301
3 244 312 282
3 282 312 249
3 244 403 312
3 312 403 249
3 84 310 72
3 72 310 205
3 84 250 310
3 310 250 205
3 331 308 275
3 275 308 202
3 331 400 308
3 308 400 202
3 263 307 255
3 255 307 60
3 263 264 307
3 307 264 60
3 58 306 272
3 272 306 59
3 58 412 306
3 306 412 59
3 205 305 72
3 72 305 73
3 205 187 305
3 305 187 73
3 202 304 252
3 252 304 239
3 202 400 304
3 304 400 239
3 282 381 240
3 240 381 105
3 522 302 519
3 519 302 227
3 522 95 302
3 302 95 227
3 519 299 275
3 275 299 331
3 519 327 299
3 299 327 331
3 406 369 403
3 403 369 200
3 442 365 415
3 415 365 285
3 442 369 365
3 365 369 285
3 518 298 339
3 339 298 337
3 518 273 298
3 298 273 337
3 472 297 458
3 458 297 415
3 472 356 297
3 297 356 415
3 273 296 398
3 398 296 476
3 273 494 296
3 296 494 476
3 272 295 40
3 40 295 41
3 272 488 295
3 295 488 41
