# vtk DataFile Version 3.0
A great-looking cell
ASCII
DATASET POLYDATA
POINTS 501 double
233.8758583793777 75.96936442358009 75.89094606804738
236.78450193536435 76.06819668044785 75.68215281474843
237.53097266382872 78.04044287914826 73.51146608357585
239.36711603221778 77.04161107172735 75.27180494714186
231.14195608670659 77.21600693569593 75.98160775353949
230.58840070428522 79.71574751658004 74.74118837494431
235.21830780261487 79.67023722567693 72.5459052793041
238.05352957512704 80.76094584938357 72.06151393622234
240.19951495964665 78.99103054418286 73.53143293733716
230.54684988855044 82.5319182905596 74.2759371989092
236.54692198229716 83.33375763201563 71.9387875840719
239.34431762792707 83.4659824578814 72.12166753501964
240.99682832171436 81.46970026079654 72.57549653774002
241.73232511306787 83.65066092465008 71.98761887797673
243.46593256339236 82.48750890162279 73.18100060097484
243.22265729964573 85.18573093993338 73.11128756559803
230.94297226238552 85.20423623815415 74.7812232072763
235.0749099102602 85.77960549272683 72.27994268208288
237.98627910737468 85.81091793643724 72.14192696487022
240.74081499901186 85.76400500493772 72.27603793352384
244.74546492657387 86.94204454547807 74.80624558309711
234.56227721665488 87.98233537333778 73.33372976078822
236.73493978403886 88.03339496537767 72.99304066160583
239.4755637519863 88.15388091613248 72.89674065584282
240.93163377046835 90.255984578077 74.49953956352608
242.39801614347306 87.91741147232578 73.25081981708253
233.3508430287149 88.81773575976477 74.8596272192068
235.44910547864288 89.65806060529033 74.3883389090643
237.99775774849317 89.87236302767926 74.54923862967551
237.0863047494216 74.4929363816392 78.14937001987248
232.1819209564988 74.50046174896056 79.5223710502501
239.53617893525453 75.41183148095197 78.95815435825618
238.729659932028 75.83687566050119 77.01816661063212
229.91198262976076 76.79324455477872 78.25467417662686
231.90538958526403 75.4897035963392 77.78181081327689
240.5823295769749 76.79923782325929 77.38092831451598
241.66850368043765 78.1444899657595 75.66027764466726
242.60506738911081 77.87589764362201 77.92759485525191
228.6521121087771 80.69100541347333 78.30708013588422
229.68471802136244 79.09542689514966 77.23906745973062
243.86717792244264 79.19133052696007 76.3672740721611
244.91775323770932 81.32310280852757 75.24684204528297
228.3678606167484 82.74283752756737 78.07890266987269
229.17472213065648 81.38183367993969 76.29551581110955
245.24038831695455 84.06922941220981 74.70740507602278
228.91382400122413 84.69137266516522 78.11086701231771
229.35490348995472 83.84260696014029 76.25906883518664
246.6058311516545 86.53245162563718 79.28759503178688
229.70718287914758 86.15999436906213 76.89711432360946
245.41934442243732 88.4285636804478 77.393569223937
243.72131309577668 89.60813687293754 75.33998333365334
229.84007657421688 88.73668061309648 79.7347101401692
230.46144241126757 88.21404287851894 77.93913696332882
231.33350711651693 87.67720020133797 75.63776948394734
242.22162952196962 91.28798518612064 77.239972013845
230.93536434521425 90.0926303132518 79.00047213102886
232.33026835775044 89.80717018666765 76.99711685128477
234.1986946525415 90.38021395556487 75.85167804598294
236.24734675748326 91.32651959642293 76.29182156454182
239.17114078580133 91.52152665153771 76.49218401245749
237.5179983034706 92.61787210959254 78.23999847742385
242.25589972040945 91.95306972405106 80.09298386620776
231.307535307776 91.43915118527441 80.1046983447074
232.3819444094365 91.54982728626985 78.6696884086473
235.5325561417702 92.28733327088315 78.18573287226481
231.01942055871007 92.28363771598809 81.67951875552508
232.48188613469358 92.7385266130974 80.31443314094292
235.8859097632543 93.42824148788631 79.87931464200771
232.9066932102385 93.64210132146809 82.39654844026823
233.96988682736892 93.74878316039867 80.54461217219355
235.13900893131571 94.14162297923632 81.85873060526322
235.85345076594163 73.13941257816465 80.53996231992457
239.32574195579852 74.47351491107638 83.25670364382609
230.92218467950445 74.32108260242168 81.29319801803558
241.54965698002354 76.54183028979932 79.49006932673765
230.76065785160674 75.33890996535098 79.40575595966985
229.15749961872487 75.98043832950259 80.40587854314717
228.39381857521371 78.66370929871611 79.72919641707594
228.2269432683742 77.28749642523202 82.21404796905848
228.13241597932125 81.6513463017969 80.35622997441891
247.1089137711211 83.03258291090839 83.43905493701865
227.89088708377568 83.47899300390766 81.4831057154417
246.88255899557274 85.29356126745544 83.35163924695858
246.99725414231636 84.45860986404735 81.15644068430815
228.2237518080211 84.09584015332423 79.78979636365072
228.03544396572929 85.26543079212274 81.38788217290545
245.7532139245824 88.5446080363374 79.86230997602547
246.39072932729272 87.27335309583106 81.94760654859147
228.95217567492 86.59241007164852 79.53888124206472
228.24907415975733 86.90541941624102 81.54804828039964
244.22648409929891 90.28905582139026 79.22375550867964
228.83508839205933 88.42755016333201 81.15350631554442
229.79817313202057 90.44828618675909 80.9161707668787
240.03908431853299 92.6561364393393 78.82319388811352
245.2185261746559 89.66546695401082 81.56334570551975
243.72274796818604 91.05802057152133 81.36870305783974
244.08303896021928 90.61256958562555 83.2176726210444
243.13467089877162 91.35689435646681 84.55045161396751
229.46312144543583 91.5109046262477 82.97740371359434
238.2363727497593 93.62192963853265 80.25487706426256
242.28217323878002 92.08952342319 82.78295319710355
240.07191653231882 93.03242103505052 83.72876747527074
238.42152285443288 93.75242310819003 82.41724722031746
234.65732429824905 94.49205554093339 83.90932273131838
236.60643814318556 94.10798969339527 83.22451499355185
238.17028063418152 93.8378106374573 84.48647163963577
230.66440718527593 93.62942401771127 86.03885894694389
236.34477984232277 94.28805944304919 85.18434164098754
234.64923749250542 71.97259512252111 82.97176062393208
233.0576002578831 70.52407830236926 84.16424681947439
229.5477829688935 71.18639697638342 83.89009941446285
240.19827062981034 75.00320093734223 85.65744187754781
229.91444517378352 73.27134783308443 83.01744991619304
228.18943958946943 73.50764748064233 84.38759520217125
229.04658032290203 75.0783553982548 82.59033396050974
245.63342141784247 77.9936529665516 86.21996813021799
244.5857641778906 77.67020645735101 84.21690379910606
227.81351669706737 76.0506098659958 84.19153918346609
227.4711808569034 78.27165206295487 84.16682810841463
227.6702208408115 80.53503206121306 84.61498801512808
227.79402762428734 79.75132655424238 82.29496281460996
246.6587221785649 79.69147335699493 85.8301405292045
247.26307606094622 82.9984044359212 87.5789677766787
247.20720698416048 82.54495361426967 85.56068454118459
227.52790914446211 83.0445046138792 85.19604950036238
227.7781603338827 82.12088034896766 82.8407381923792
246.80929084264886 84.95425885041003 87.73712809873463
247.06131401024743 84.667975662355 85.60405081205377
227.6366195290323 84.24804828935679 83.09886910906845
246.40862326455058 86.94758063049845 84.61773576346609
246.32935775473646 86.62324828003389 86.92454028292096
227.38558103704423 85.38540466142588 84.76753432598646
227.80737037625272 86.18022435132565 83.00464684823817
245.46106758320875 88.95801050703304 83.78194597930528
228.11214205827508 87.94663705781306 82.81543873181337
227.55953121345405 87.30336064252118 84.44078991051524
228.08658958677324 89.01625606401194 84.24448394981154
245.52889868578248 88.56043534461432 86.05656907255742
244.28665104254344 89.88713064624177 87.33951424634829
228.62765161239838 89.72099840711009 82.63964100443742
228.66202574964336 90.48806583220009 84.13766593356708
243.08165245621052 91.31214259439339 86.34806412070996
241.47357102171338 92.20749337226032 87.33851401744676
239.61842479606702 93.21141527465102 86.18633594928777
230.57523246782384 93.61124996232647 88.24185349855651
234.48597791560604 94.5070881895176 86.14265303355258
234.5836946218598 69.65390049249812 85.65795747431731
238.27750419833873 73.32359391580471 85.49043383778745
232.8751870149303 68.39934732747615 86.30729886133258
225.63972625704145 70.6663995282493 88.51013098607527
238.4822740241951 72.97430074225754 87.9654841998047
239.9228831085665 74.85553236273451 88.00713161603709
231.17830337971753 69.26457014683824 84.70473127102754
226.8416836461415 72.29434439778073 86.56485048515225
242.57075324599174 76.86562709750126 87.24719200852856
242.42781664196397 76.54842415079473 90.66169060592482
243.4441564010555 76.98536798849122 88.89948146189303
225.49969223236118 74.20388662700044 87.9010743000112
226.76590433478688 75.01601252845684 86.01099045474793
226.87274126014646 77.0621899400252 85.61415306831876
225.88985416566797 77.01107871432698 87.73938996642494
226.86721710244422 79.5338023377205 88.49740654536714
247.64596688613997 81.0047855948786 88.59654904343525
247.2833048941576 82.48668019460771 89.53565663200486
226.98863408596236 78.93555418447428 86.23181639985141
227.35405071007182 81.14109546193195 86.80973498848307
246.67789099657278 83.02592328080394 91.35089558714206
246.84261109594544 84.18959856473708 89.43014509107742
227.23795038949794 83.02247555252772 87.38759411337122
246.114108421979 86.15781697029107 89.09881306990785
246.048290736261 85.24220009740756 91.12643944563571
227.06365199111946 84.80725732010406 86.78646908617452
245.48612581171352 88.2324894577898 88.36955838752783
227.17756812182054 86.71895804895223 86.1599048120085
245.20181812960348 87.71413847864466 91.0103260911749
244.25374418029725 89.79754675528037 89.61162389545133
227.5564897034252 88.43653735218295 85.8237054395542
228.1027057336851 90.15886749507942 85.63523109096326
242.742070485482 91.09534910781176 90.45768675044272
234.51175796896078 94.41493989309907 88.41133231425728
237.09548502545803 70.87157226000927 87.70419034777106
234.16658234782253 66.79104978718637 92.34171883906556
237.86064644845652 69.65884076249765 94.43166335107401
238.9214287236571 72.6272400827872 90.68730170922613
224.60204857195222 69.55346879543559 95.3430754726748
224.33821705861646 71.70444236830653 91.81224834410887
236.74557177573192 69.35007917551984 98.3272222143357
238.70777603472806 71.92332348158475 94.69565428665565
239.3648103228299 74.22721322943957 93.33943452124419
240.225635757724 75.1706899617683 90.53880904010639
241.65545091892673 76.24683321199431 92.99488879092098
243.49201506668552 77.22234360633274 93.64448964702399
224.80278530284022 72.81423583301563 89.69364132690106
223.69363337068185 75.71738534661533 92.71106184596512
242.56598576401723 76.94389432685016 95.23598032967082
224.25599234120946 75.64082787786126 90.02042627535741
226.963654924774 80.51541147096846 90.56253417368193
245.51349336573153 79.70181184815522 94.60609376020003
227.31299485782367 82.42990008914246 90.49104207600467
246.37801768311115 82.68590997857748 93.54733475550316
227.1488746696768 81.81949046117944 88.83990966851621
226.88606080639747 84.27216265983243 89.28392841871658
245.4932057373768 84.33148019898853 94.63219239584683
246.00560094514478 84.27491585440904 92.75319499851568
244.07202038628233 86.2204812658013 95.15878160508828
245.1708429856036 85.98697435962333 93.04415559286402
227.02171992200266 86.43232026579416 88.02946904529223
227.3871130084225 88.20958433661033 88.77587293036603
244.2645160728786 88.15689443933655 93.60266748740992
242.4752174738313 89.71708080561336 93.80764946418599
243.75595053225396 89.8201838149687 91.89703120694142
227.27232224535044 87.8627238832552 87.21962510519074
227.6931755758888 89.40405651457485 87.33280534960602
228.43145088820586 91.21707807863814 87.22582290664332
229.6134738575852 92.51924560800988 87.1069307102786
233.0570130570994 72.84797422108299 99.10803829443374
238.89599314376358 73.95791305775207 96.43347821591652
240.4306909130211 75.96196587316516 95.45707171451903
223.52486269737932 71.92184165279619 95.90399067138105
230.02541199993394 74.35201775661399 99.07959536935758
234.10094901866947 76.24159894474754 99.12565947503502
237.669291995457 74.72338738156918 98.87273016260642
239.037351713836 76.55573521990476 97.71321403557673
241.48972274607283 77.34564688067691 97.24281813946644
224.66953005361827 77.89116179508905 93.17709748363744
225.92437619858634 79.31609748735116 95.02796798230065
234.27496197994193 78.10470644089033 99.13284174445985
237.5662563685378 78.19376870179441 98.9396565706281
240.16014818114442 78.6817215899417 98.95119654166446
244.61422192090168 79.59533358846478 96.70228669391363
245.48220330017463 81.9182074608086 95.66893635307542
226.46005392323292 79.7108340950403 92.67044141108846
227.4220681431025 81.13317273623834 94.38079494736911
227.29867684603144 81.78061818928465 92.21280597241574
227.6695042135263 83.31272067907499 93.62225341072603
242.59363633213397 86.46095264775423 97.32925766928743
227.13825634742628 83.73260426604769 91.62319522727064
227.2985879282475 85.26616693330735 92.9009903580925
226.9105402088523 85.3760136091957 91.15468498680437
227.01025724490313 86.64617182145324 89.98039229358977
227.5016245076731 86.85918060934428 91.81533520657503
238.98729155380335 88.69869709877894 97.8934196710652
242.56539339032201 88.07416887719118 95.38658967236
240.95301667060158 89.53802546995422 95.3166432851372
239.13127766405646 90.2091413636202 94.87613231255936
227.56113194743995 88.51012174980008 90.75007643274363
240.73538250314564 90.97234285340295 93.85915135592467
228.03480639430316 90.31873685660449 89.34049560383643
228.9167850422238 91.78343008724676 90.52771445388653
238.81013896005504 91.49602088131662 93.35438248200698
240.3244719915528 91.92682620438408 92.17541011065532
227.05405058669598 78.19963179627814 98.83847903415261
233.4281886600736 80.00254669193312 99.01390271952924
244.12831918135268 81.73228860925829 98.47604040774827
227.5035010665832 80.43267435063957 97.05917479261109
235.6591092368207 80.0485504662793 98.99357635021028
236.48350177154083 82.80770274021872 99.0873700762156
238.38987594153147 80.74538527930818 98.93741763666732
239.25785393193047 83.47834056792223 99.0766027222142
241.16989054839954 81.30181286421872 99.00425456080951
242.17287324130626 84.11999814674202 98.9909378650232
228.24599042025844 82.90886544159694 95.90983186162366
229.72759137432232 82.34029691268861 98.3119361991634
233.60376433337493 82.24808997976089 99.03593307562198
234.66522950978842 84.89191015101976 98.96443060045182
237.31519134545232 85.41943615586428 99.09485940971572
228.43261779491357 67.48092361081231 89.41812640043581
224.54193850327317 77.46030971037379 98.3089366445666
228.67481215087395 68.97154696132729 99.05071122881397
226.2148598763075 68.48280937776444 92.09202882449793
240.78350340396807 88.09066307840752 96.85459061093198
225.17829990366832 71.17491832180323 98.9143451581025
223.90617544436947 73.81435491753301 91.53974204823857
228.34834087778736 85.06911174665059 94.78475139490038
229.59650777573177 84.87214963484034 96.93392097743858
229.90560326939212 67.37185476802829 98.85693218768306
225.59066876670028 78.89364578586515 97.13759496387718
235.14303724278764 67.18773342392956 96.13817411313714
224.80658594552457 69.76205616231503 92.9437346997252
228.7578206853239 70.87375400065471 99.16128379530969
223.48975731403493 73.30895288613529 93.75464256679716
226.60305375593168 68.59073364773437 89.86904338202277
237.83276361853612 87.557447941795 99.1510635512169
237.71205830721556 72.00377118782379 86.54083312869733
240.0103583315154 86.45714608413167 98.87546069383151
238.4793756749401 70.7824859584987 92.49069636828452
228.33712219922091 86.92393045964948 93.5786933322685
239.1052600594187 74.14771835640727 86.78782249032479
239.27526295775974 73.97809918658382 89.31464584161353
232.85304787298102 70.52661672066728 99.03175715556141
235.68620231294926 87.26471212472129 98.95587853499494
229.27494853480434 68.60624864325767 85.85464280193627
235.40553061671255 67.76473629469052 97.77288431612797
224.8257142679882 71.24160136811692 90.16202875595776
236.81109504678565 89.16815992755468 98.1941021299119
227.5739203201023 74.08618424608 99.14793564026562
227.88842653802018 70.2244903184902 85.49891773212681
228.8468796818866 77.69197996528403 98.98689485840416
228.35069104785225 76.17566417410005 99.08094152123007
225.8301544767827 68.54200057494272 93.95224450363088
233.91147389582122 66.6797007299196 95.40193714640924
225.288463385545 70.00315683031286 90.86512973195214
234.64117132657933 69.06660156335185 99.02656086304499
231.80211367257058 67.04634597753946 87.79639294117351
226.7539411003565 69.72743405674379 98.88661336496202
223.01278776402316 75.37077469366734 95.13510108292444
227.0263065044658 72.01426764188072 99.09519057338817
235.75423265234102 69.034648003164 87.50047594064088
229.68535153685772 66.54038936971347 92.20592085702499
244.28671037145776 84.26824329303282 96.9188596318436
235.55262355043206 71.56459442531113 98.86720253127093
228.2444130931949 88.31195061529951 92.40981174255822
228.74548114391828 90.16917157832606 91.80230227698183
243.6880060802255 77.10403497615135 85.83157339848081
246.80226284522942 84.31334603335904 78.77265721635452
243.67010294914735 77.67490423002702 80.24573746870306
246.19131527159314 85.59405858227713 76.86437359622823
244.33366469876756 77.45521340040017 90.6529789877401
231.93719124244424 66.18453223334345 95.69634911818203
237.0302239956246 90.91212289200358 94.5971566477502
227.9456171488508 66.89095177634381 96.38861305693854
242.96323775039696 76.96840998327636 84.34592048886371
245.295915879771 78.35911932586721 82.18743026078666
236.96432838048426 68.32241260761096 94.20399464715217
237.92201456592903 70.56963701453276 96.72477995317185
243.3152141342216 77.2665542982726 82.64201481489414
247.46546308411502 81.08082138189597 90.65169658545265
242.74503959061627 80.01312464560014 74.11546045017288
235.8245284545422 90.01355425670887 96.35988574720025
223.86532563427534 75.42620962830334 98.95532197218768
240.4920981201492 75.38005548135285 81.19733910879339
231.64886920200908 82.50611612949787 98.92830413151061
247.08856591306292 80.97689884575517 84.60208507272424
246.0838120831898 79.16611169441342 84.19520201954393
236.03924747448266 76.60515897920341 98.98712099705126
232.69430734723045 76.9781179569392 99.12863249626696
225.53922885150246 68.5565436843185 97.57553329996344
232.45289336976361 75.01854841028792 99.00231026343549
235.54638829237916 67.36333416508796 91.77185860336675
232.5706576582792 66.81707804880925 89.57317572463299
236.63269265952414 73.1973360526146 99.07653706034915
229.49748246960758 79.42948262103964 99.10194749019989
234.14909189255363 67.10668275828799 90.54005422686939
241.14044146170886 75.99364279887979 87.04242860688868
244.15287215596496 77.39246974155633 87.38519489808762
231.8311276256825 72.22061734593727 82.87919676375093
230.44317106762213 66.59219283908821 89.78329201049907
236.49201655556425 71.19934403655934 85.13830935956699
235.22103087194577 77.22717484097252 73.91658127716798
246.65659536643494 82.07669956644351 79.74756227955245
238.39311390959625 74.0531191558601 80.7763750240594
244.27056659301184 78.93322473655645 78.44614919226292
232.5370018865777 68.00920757266559 99.07711093213899
241.93172794453147 76.44530251825319 85.58949164393222
232.2504708915181 66.3969760009168 91.66443328393454
241.49700392412853 76.27014949623252 88.7429284697943
246.34353433075577 82.89169811674272 77.01171705248746
242.12912194033575 91.23205529115421 92.35199095533322
227.50884623593043 67.22185760464686 93.74912161156298
233.61934937685248 66.84242245281561 97.33677404556163
230.81230535073738 72.07416430691555 99.10713249374864
231.34534130379964 93.33023220572574 91.71429696144433
227.35506823032804 67.36655319528305 98.66465169124768
233.25643444670564 93.09974923057884 91.94590063618828
235.23667729929028 92.60294231428719 92.18987957693737
234.07989624402978 67.57850434029012 88.21278519881511
227.55553231073372 68.86036868095616 87.54357082807739
229.94826847792214 66.4238650848667 96.96739212486503
232.55138696948157 80.94490566218376 72.96118986371768
237.73408653483582 93.94138188253078 86.18155171494594
236.31147637094315 94.28214697417754 87.17468756111217
237.8709892341491 72.36136563076812 98.16952073621893
234.8257733793331 94.09741801013966 90.69297092193607
238.37711726608754 93.3479689312383 89.85500849482553
240.07531581337858 92.6398123011249 90.47633374629994
232.63000820174926 94.08294733562362 84.90287930364738
231.65476535593976 80.8598484507185 98.91973899502374
223.57086403584123 76.80449799046879 94.1410087494495
236.81868550918168 68.30519000592098 96.02005398273943
231.59788756155666 73.55966176479815 99.17391005614145
236.06030791170116 68.27421468852347 89.80736866961797
229.69667160522056 66.44472125434373 94.76694280319353
246.4998370543442 79.60827248280557 91.58292509392325
246.67047976564834 79.46951284367182 87.59917624638287
230.8776249713154 87.07200892851716 97.53905237855112
233.23034000189853 87.05499425825732 98.5974547898051
243.4793314847874 77.8204056687694 96.80098351771076
230.9490860335377 67.8408576124782 86.24485501075645
229.61920617623812 86.90610476487021 95.39029120955125
223.26809953374533 73.95588599931246 97.24398771082598
232.563379618982 88.6491628474693 96.98853102200778
234.54055546563674 89.00890763244804 97.88870818609364
237.92830530727272 89.8874903493999 96.44918279405422
233.22122471582983 66.42543419498142 93.78434894166811
233.2692164473056 73.40028298599219 80.92566090394966
238.11178771838158 93.72672358362523 87.86665788673767
233.02266020248243 69.20274814966244 84.95789078341058
247.47558986441055 81.04589327866651 86.58440332210573
243.01664868976832 91.22328383021137 88.42756658561716
246.32604293617592 81.04098967385188 93.97962485655557
242.85885564060104 79.07934087983999 98.59742577523305
244.36173930683023 78.03429664415147 95.03724174026749
246.82894735330137 79.41186520271442 89.65668977126461
246.16295315590483 79.89046868860552 93.10069591405914
229.43688134823844 88.9433838497221 93.91933149441708
237.87820173235542 70.11555292197492 90.01959690362725
230.55913577572252 76.89508777662427 99.09888736811122
226.07215764063596 75.82399985238347 98.97438065625772
241.42736317906258 76.08367131891025 83.44183285808276
223.8633121619701 72.10337483196861 97.99161195895715
226.3235743927439 68.01994334680654 95.67775283131965
234.86066943936902 90.75653547264169 94.71020851980876
225.1222816224154 73.4777584167134 99.0836636108136
240.26891517106344 92.97235412132801 81.3406936697609
224.22611216928215 77.51553438603952 95.73628109332213
238.59629788181996 92.61969586434168 91.70453720156434
230.42207944742643 92.80076043987208 90.16181356871137
239.86210350636495 92.88438128244998 88.51751139316596
246.60830018251482 80.73730105426569 82.22676144497014
227.80636512259449 67.35139319741138 91.30013282526045
241.6318305084828 92.24225531396776 85.15790151785083
231.65365387975663 66.45968867857165 97.86515655589537
245.51665385588365 80.51287006454582 77.7251714824508
230.5953693408478 69.62815022710991 99.0661365751565
245.48796270781332 77.85871578092937 88.73076472903718
237.10599263833637 68.64159132939575 92.36351855749983
235.46066105471857 67.2865261964356 94.00434697083838
235.86556573217456 78.25737313542058 99.13014223858369
233.94206957965073 91.66638143355387 93.26631029316225
234.74486493538535 70.72601833085983 84.38482572254857
232.53193284212261 94.1098668915024 87.26601533197064
245.85474045133842 78.30617824979298 90.70564108146931
234.44190841464325 68.43725322423114 86.75392821228453
236.75791095007924 69.52633766210096 88.72602445150096
235.6184035621853 91.55559272403296 93.46622516219232
231.68034356935928 84.55204347189628 98.9656600279872
236.7741360058863 93.1843017705525 91.09485192055617
227.86089042863708 71.74949227517166 84.84923229996919
226.64590833933067 67.50022135052954 97.07811729197839
238.4738726255369 72.17384998297796 96.53796667077822
236.5457580480769 94.0905695253744 89.23347344571495
232.39729764645014 94.05189991645909 89.86136126663769
237.01437314742896 92.1169353623569 92.77012616945204
244.06716158417612 90.09172612460836 77.24428771268248
230.16519244746254 90.70826024986222 93.13818635622462
229.2576915001814 91.91149053100037 85.24507653770414
224.92698958121093 69.50719396344643 98.92980826876861
229.11031320814658 92.24256416152926 88.7843775601616
225.56210052921458 72.47685706356431 88.08292550323561
241.47789765004575 92.08218236496681 89.37658597487632
237.6602623600049 76.51674004567442 98.83520614024282
231.3527138017122 66.26335133388403 93.61732542712832
223.9842069605959 71.19169064434278 93.9233688619719
238.02364568049472 71.68064380764953 89.11693382632379
226.72727867253303 70.41103639352023 86.85385982845003
245.2580227289202 78.1046161880822 92.7673571665769
235.07208494346844 74.3146973754106 99.08857805226133
235.92791666737625 70.2454444990226 86.53156359254915
228.72623329063785 66.6499617430552 97.85797531131101
241.410134572381 91.913610267183 90.99278534101555
231.16810891487734 90.23326395285267 94.50008615581487
229.6684253027623 67.55014222624865 87.69405723891444
234.21256689692277 67.50696424630152 98.7663517924898
225.663499803383 78.1699447349107 90.61195239917447
230.06789147164636 91.94598909292348 91.89184118755597
224.51319585447035 76.8892767400521 91.61396216249713
223.0085421675493 76.23211272410884 97.22357066367394
239.50685073249082 89.17761255901807 96.20819304811008
232.02864254172755 78.72753476363 99.04328175162303
233.7931658881154 90.00167702995279 96.15524319803247
223.09749968718415 73.60612891905431 95.5016715770953
234.1565678868377 74.15710973265827 78.31232724773788
243.44612933059594 77.09110408974949 92.14541819385545
232.2684181008155 89.6939750211456 95.62509067025326
231.39280987211436 70.62719359104456 83.62277837462604
237.25620613170338 72.87819539122856 82.97869702792596
230.85096154900953 93.05300408179178 83.80623293971888
236.86639563004346 93.91033076878249 81.50923653001934
230.93015207880507 88.63979852482429 95.71662151428816
224.23096507657522 70.30839755357194 97.54428789628935
231.77265767971423 91.90379131315372 93.22593323051068
229.06952050878223 66.93523607855474 90.66630118175487
236.09413986731334 81.47311056149294 72.07357459040446
233.94413916573427 92.87628667627492 78.93244556512137
232.94878828695852 90.83187278983742 94.67073641200535
229.36578350657342 69.65412745931064 84.74969679157245
242.06745200524801 76.62478790063783 81.40458795702577
238.91288873442517 72.3803094509513 92.80249981339425
234.030794979006 91.53570679468395 77.35449627409683
234.6839733337071 83.83402455723024 71.95207226789587
228.8591760306477 72.678705408092 99.02699190353266
244.29472436807353 90.14393411265092 85.21897750933833
237.42274361736386 70.84259345760044 98.51249586332304
232.85166303330257 86.6751133966811 73.7206405007416
235.48465089559133 74.8664148006679 76.79255128661177
246.71741258481188 81.21575983998228 92.40818653782786
245.54858242443703 79.56937569277387 80.0329961894967
232.86387868957112 83.92866365581939 72.87313413704611
234.58063356209058 82.16599320765165 72.08515726266074
232.92607171858612 78.22385225244264 73.98694647418682
247.00872870676858 82.55499118387392 81.6268230117325
POLYGONS 998 3992
3 499 4 5
3 368 499 5
3 368 5 9
3 13 12 11
3 14 12 13
3 15 14 13
3 497 368 9
3 497 9 16
3 493 497 16
3 20 15 25
3 26 21 493
3 27 22 21
3 27 21 26
3 28 23 22
3 28 22 27
3 24 23 28
3 32 35 31
3 32 31 29
3 34 75 33
3 3 32 1
3 3 35 32
3 36 35 3
3 37 35 36
3 39 77 38
3 4 39 5
3 4 0 34
3 43 39 38
3 43 38 42
3 43 5 39
3 5 43 9
3 14 15 44
3 46 43 42
3 46 42 45
3 46 9 43
3 9 46 16
3 15 20 44
3 48 46 45
3 48 45 88
3 48 16 46
3 16 48 53
3 16 53 493
3 50 49 20
3 52 48 88
3 52 88 51
3 53 48 52
3 53 52 56
3 26 493 53
3 26 53 56
3 26 56 57
3 26 57 27
3 27 57 58
3 27 58 28
3 59 28 58
3 54 24 59
3 24 28 59
3 24 54 50
3 55 52 51
3 55 51 92
3 56 52 55
3 56 55 63
3 60 59 58
3 60 58 64
3 63 55 62
3 63 62 66
3 67 60 64
3 67 99 60
3 66 62 65
3 66 65 68
3 68 65 476
3 69 68 70
3 375 103 68
3 375 68 476
3 103 70 68
3 102 477 104
3 71 108 394
3 475 108 71
3 72 350 330
3 75 73 76
3 75 76 33
3 75 30 73
3 77 78 120
3 79 77 120
3 38 77 79
3 38 79 42
3 42 79 84
3 42 84 45
3 79 81 84
3 47 49 86
3 83 82 80
3 85 84 81
3 45 84 88
3 84 85 88
3 94 87 86
3 86 49 90
3 86 90 94
3 82 83 87
3 89 88 85
3 59 93 54
3 92 91 139
3 89 91 88
3 91 92 51
3 91 51 88
3 59 60 93
3 96 94 95
3 90 95 94
3 90 61 95
3 61 100 95
3 97 96 100
3 95 100 96
3 98 92 139
3 70 103 104
3 105 104 107
3 145 103 375
3 107 104 103
3 107 103 145
3 113 112 110
3 73 112 114
3 73 114 76
3 112 113 114
3 114 113 117
3 76 114 78
3 120 118 119
3 117 118 78
3 118 120 78
3 124 125 119
3 79 125 81
3 127 126 122
3 127 122 123
3 124 128 125
3 81 125 128
3 81 128 85
3 129 137 130
3 87 94 133
3 129 87 133
3 129 133 137
3 126 127 130
3 129 130 127
3 129 127 82
3 82 87 129
3 131 132 128
3 131 128 124
3 85 128 132
3 85 132 89
3 134 135 136
3 131 135 132
3 89 134 91
3 138 137 491
3 133 491 137
3 133 94 96
3 133 96 491
3 491 96 97
3 140 139 136
3 139 140 98
3 101 102 105
3 105 107 369
3 375 430 145
3 370 145 179
3 395 369 370
3 113 158 117
3 118 164 119
3 157 160 158
3 117 159 118
3 200 165 161
3 164 161 165
3 119 164 165
3 119 165 124
3 122 167 163
3 122 126 167
3 168 165 200
3 124 165 168
3 169 174 170
3 130 137 172
3 169 130 172
3 169 172 174
3 166 167 170
3 169 170 167
3 169 167 126
3 126 130 169
3 124 168 171
3 124 171 131
3 135 176 136
3 131 173 135
3 210 174 175
3 172 175 174
3 172 137 138
3 172 138 175
3 212 176 211
3 136 176 177
3 136 177 140
3 176 212 177
3 175 178 210
3 177 212 213
3 140 177 445
3 138 141 398
3 214 445 213
3 183 189 188
3 189 190 188
3 190 189 155
3 192 195 157
3 194 190 191
3 160 463 161
3 160 157 195
3 160 195 463
3 161 463 196
3 161 196 200
3 196 198 200
3 201 200 198
3 168 200 201
3 170 174 205
3 203 170 205
3 203 199 166
3 166 170 203
3 168 201 171
3 208 204 205
3 206 239 207
3 171 206 173
3 209 208 210
3 212 211 207
3 210 357 209
3 178 357 210
3 216 222 221
3 216 217 222
3 217 223 222
3 225 224 414
3 224 225 231
3 229 197 230
3 232 231 225
3 196 231 233
3 196 233 198
3 231 232 233
3 253 229 230
3 230 199 202
3 234 233 232
3 198 233 236
3 198 236 201
3 233 234 236
3 237 236 234
3 201 236 238
3 236 237 238
3 270 241 284
3 239 240 245
3 239 245 207
3 237 240 238
3 243 270 242
3 242 209 243
3 207 245 247
3 207 247 212
3 245 312 247
3 246 249 244
3 246 244 243
3 209 246 243
3 248 247 312
3 213 212 247
3 250 249 246
3 441 416 361
3 468 226 252
3 226 255 252
3 255 227 257
3 227 228 257
3 228 259 257
3 228 400 259
3 400 253 259
3 400 229 253
3 225 254 232
3 255 257 256
3 257 258 256
3 257 259 258
3 259 260 258
3 259 253 260
3 232 254 261
3 232 261 234
3 252 255 263
3 252 263 376
3 263 255 256
3 265 264 256
3 256 264 263
3 256 258 265
3 258 284 265
3 258 260 284
3 274 273 261
3 234 261 273
3 234 273 237
3 261 262 274
3 435 274 262
3 265 284 282
3 265 282 290
3 282 284 241
3 286 388 404
3 240 311 245
3 237 286 240
3 392 294 241
3 312 311 404
3 244 319 392
3 392 319 328
3 361 480 363
3 363 364 372
3 441 363 372
3 265 290 264
3 274 388 273
3 274 435 384
3 264 290 385
3 390 384 385
3 385 290 391
3 385 391 390
3 391 290 294
3 391 294 328
3 328 294 392
3 388 478 404
3 460 444 404
3 312 404 444
3 312 444 464
3 411 484 469
3 411 469 328
3 244 249 319
3 480 444 460
3 484 411 428
3 480 484 428
3 319 434 411
3 428 411 434
3 428 434 364
3 434 319 442
3 364 434 442
3 442 319 249
3 391 328 469
3 0 4 499
3 23 24 25
3 19 23 25
3 25 15 19
3 30 75 34
3 34 471 30
3 33 77 39
3 4 34 33
3 33 39 4
3 14 44 41
3 25 24 50
3 50 20 25
3 92 98 65
3 62 55 92
3 92 65 62
3 77 33 76
3 76 78 77
3 345 110 112
3 112 73 345
3 114 117 78
3 120 119 125
3 125 79 120
3 134 136 139
3 139 91 134
3 134 89 132
3 132 135 134
3 445 98 140
3 147 72 111
3 153 157 158
3 158 113 153
3 164 118 159
3 159 117 158
3 158 160 159
3 173 211 176
3 176 135 173
3 173 131 171
3 177 213 445
3 202 199 203
3 206 207 211
3 211 173 206
3 206 171 201
3 201 239 206
3 187 188 216
3 188 190 217
3 217 216 188
3 194 223 217
3 217 190 194
3 228 227 222
3 222 223 228
3 239 201 238
3 238 240 239
3 262 261 254
3 286 404 311
3 311 240 286
3 286 237 273
3 273 388 286
3 384 478 388
3 388 274 384
3 435 264 385
3 385 384 435
3 411 328 319
3 478 384 390
3 404 478 460
3 7 2 6
3 17 18 10
3 18 11 10
3 18 19 11
3 19 13 11
3 19 15 13
3 21 17 493
3 493 17 497
3 21 22 17
3 22 18 17
3 22 23 18
3 23 19 18
3 63 488 56
3 488 57 56
3 64 58 488
3 488 58 57
3 66 483 63
3 483 488 63
3 67 64 483
3 483 64 488
3 68 69 66
3 69 483 66
3 69 67 483
3 242 204 208
3 478 390 473
3 391 469 390
3 469 473 390
3 484 460 473
3 473 460 478
3 469 484 473
3 484 480 460
3 3 1 2
3 8 3 2
3 2 7 8
3 3 8 36
3 392 467 244
3 270 243 467
3 467 243 244
3 12 8 7
3 7 11 12
3 37 315 74
3 74 35 37
3 480 428 363
3 428 364 363
3 361 464 480
3 464 361 416
3 350 31 330
3 231 463 224
3 231 196 463
3 312 245 311
3 209 242 208
3 160 161 164
3 164 159 160
3 294 290 282
3 282 241 294
3 475 71 350
3 235 204 242
3 242 270 235
3 241 270 467
3 467 392 241
3 413 99 102
3 99 477 102
3 1 32 29
3 475 147 347
3 93 413 61
3 34 0 471
3 98 476 65
3 98 445 476
3 486 330 74
3 105 102 104
3 67 477 99
3 104 477 70
3 70 477 67
3 69 70 67
3 35 74 31
3 74 330 31
3 440 179 372
3 179 441 372
3 179 430 441
3 430 144 441
3 441 144 416
3 179 440 370
3 106 430 375
3 145 430 179
3 143 101 105
3 175 398 178
3 175 138 398
3 417 142 143
3 60 99 93
3 99 413 93
3 252 376 468
3 263 264 435
3 447 416 144
3 144 430 106
3 247 447 213
3 247 248 447
3 447 248 416
3 363 441 361
3 213 447 214
3 464 444 480
3 312 464 248
3 464 416 248
3 436 372 364
3 415 436 442
3 442 436 364
3 250 415 249
3 415 373 436
3 436 373 440
3 459 374 250
3 250 374 415
3 374 373 415
3 440 373 395
3 369 107 370
3 370 107 145
3 143 369 395
3 143 105 369
3 415 442 249
3 440 395 370
3 246 357 250
3 143 395 417
3 417 395 373
3 449 142 417
3 372 436 440
3 72 408 111
3 30 471 394
3 147 475 72
3 475 350 72
3 29 350 71
3 29 31 350
3 73 394 345
3 73 30 394
3 368 6 499
3 11 7 10
3 2 348 6
3 0 499 348
3 348 499 6
3 347 108 475
3 108 345 394
3 108 109 345
3 394 471 71
3 71 471 29
3 449 374 459
3 449 459 178
3 178 459 357
3 221 371 216
3 251 341 254
3 341 468 376
3 406 468 341
3 254 341 262
3 262 341 376
3 219 337 406
3 456 220 337
3 0 348 1
3 1 348 2
3 468 335 226
3 226 335 220
3 468 406 335
3 220 334 226
3 220 456 334
3 334 456 221
3 337 220 335
3 335 406 337
3 456 337 215
3 263 331 376
3 376 331 262
3 263 435 331
3 331 435 262
3 226 427 255
3 255 427 227
3 226 334 427
3 427 334 227
3 97 141 491
3 491 141 138
3 398 449 178
3 398 142 449
3 420 142 141
3 97 420 141
3 97 100 420
3 141 142 398
3 101 143 420
3 373 374 417
3 417 374 449
3 142 420 143
3 102 101 413
3 413 101 100
3 209 357 246
3 250 357 459
3 420 100 101
3 61 413 100
3 144 106 214
3 214 447 144
3 106 476 445
3 375 476 106
3 445 214 106
3 93 61 54
3 54 61 90
3 83 47 87
3 87 47 86
3 314 316 47
3 44 20 316
3 122 397 123
3 123 80 127
3 80 82 127
3 121 333 332
3 121 115 333
3 115 313 116
3 154 344 156
3 154 313 344
3 344 313 115
3 383 115 121
3 356 41 44
3 154 156 355
3 111 408 353
3 111 343 151
3 154 355 343
3 343 355 151
3 344 115 424
3 418 496 349
3 349 496 422
3 116 322 333
3 486 408 330
3 330 408 72
3 408 486 325
3 162 383 397
3 397 383 121
3 353 154 343
3 343 111 353
3 123 332 80
3 332 418 80
3 123 397 332
3 332 397 121
3 322 116 325
3 36 327 40
3 327 14 41
3 163 162 122
3 162 397 122
3 418 333 322
3 496 351 422
3 422 351 40
3 40 351 37
3 37 351 315
3 151 355 189
3 189 355 155
3 332 333 418
3 408 321 353
3 408 325 321
3 116 321 325
3 116 313 321
3 344 424 156
3 383 424 115
3 115 116 333
3 156 424 317
3 314 356 316
3 316 356 44
3 40 37 36
3 496 315 351
3 322 325 315
3 315 325 486
3 422 41 356
3 83 314 47
3 83 349 314
3 47 316 49
3 49 316 20
3 353 313 154
3 353 321 313
3 315 496 322
3 315 486 74
3 418 322 496
3 326 163 166
3 166 163 167
3 182 187 324
3 215 310 456
3 260 235 284
3 284 235 270
3 202 204 309
3 309 204 235
3 14 327 12
3 219 379 337
3 337 379 215
3 219 360 379
3 379 360 215
3 253 309 260
3 260 309 235
3 182 324 378
3 378 324 186
3 149 293 192
3 192 293 185
3 149 301 293
3 293 301 185
3 186 302 292
3 405 425 380
3 150 288 183
3 183 288 189
3 150 151 288
3 288 151 189
3 456 340 221
3 221 340 371
3 456 310 340
3 340 310 371
3 310 302 186
3 204 202 205
3 205 202 203
3 202 309 230
3 230 309 253
3 147 287 150
3 150 287 151
3 147 111 287
3 287 111 151
3 182 285 187
3 285 405 183
3 150 283 147
3 147 283 347
3 150 180 283
3 283 180 347
3 405 453 183
3 183 453 150
3 405 180 453
3 453 180 150
3 210 208 174
3 174 208 205
3 227 450 222
3 222 450 221
3 227 334 450
3 450 334 221
3 12 327 8
3 8 327 36
3 191 472 455
3 155 317 472
3 472 317 455
3 422 40 41
3 40 327 41
3 197 399 230
3 230 399 199
3 399 495 199
3 455 317 431
3 431 317 424
3 326 495 382
3 455 403 197
3 431 424 402
3 326 402 162
3 455 197 401
3 401 197 229
3 162 163 326
3 403 382 495
3 194 191 401
3 191 455 401
3 194 386 223
3 194 401 386
3 162 402 383
3 383 402 424
3 199 495 166
3 166 495 326
3 197 403 399
3 399 403 495
3 54 443 50
3 50 443 49
3 54 90 443
3 443 90 49
3 455 382 403
3 400 386 229
3 386 401 229
3 223 400 228
3 223 386 400
3 402 382 431
3 355 156 155
3 155 156 317
3 155 472 190
3 190 472 191
3 326 382 402
3 431 382 455
3 300 426 277
3 277 426 378
3 380 342 365
3 365 342 339
3 339 354 346
3 181 338 426
3 426 338 425
3 181 342 338
3 299 358 410
3 181 426 393
3 393 426 300
3 181 354 342
3 342 354 339
3 410 358 320
3 451 393 318
3 318 393 300
3 181 393 354
3 354 393 451
3 451 308 354
3 308 358 419
3 406 298 219
3 298 251 407
3 251 297 341
3 341 297 406
3 251 298 297
3 297 298 406
3 360 289 215
3 360 423 289
3 301 149 281
3 352 302 289
3 289 423 352
3 280 305 193
3 378 323 182
3 182 323 425
3 378 426 323
3 323 426 425
3 360 279 423
3 279 306 304
3 301 278 185
3 278 299 184
3 292 359 277
3 277 359 300
3 359 318 300
3 192 272 195
3 195 272 193
3 192 185 272
3 218 452 184
3 218 280 452
3 452 280 185
3 307 380 365
3 271 304 306
3 301 281 269
3 269 281 419
3 362 268 304
3 423 279 268
3 268 279 304
3 251 267 407
3 267 329 407
3 146 396 109
3 109 396 152
3 146 148 396
3 396 148 152
3 219 490 360
3 219 295 490
3 490 295 306
3 219 298 295
3 295 298 407
3 352 423 275
3 346 354 308
3 336 362 304
3 339 303 365
3 365 303 148
3 419 281 266
3 279 360 490
3 490 306 279
3 414 276 225
3 414 267 276
3 276 267 251
3 299 410 184
3 410 336 184
3 358 381 320
3 358 308 381
3 381 308 451
3 225 276 254
3 254 276 251
3 186 292 378
3 292 277 378
3 362 438 320
3 320 438 410
3 362 336 438
3 438 336 410
3 275 423 268
3 268 362 275
3 295 412 306
3 412 271 306
3 305 466 414
3 329 267 466
3 466 267 414
3 278 184 452
3 452 185 278
3 180 457 347
3 347 457 146
3 180 307 457
3 457 307 146
3 371 439 216
3 216 439 187
3 371 324 439
3 439 324 187
3 367 458 320
3 320 458 362
3 367 275 458
3 458 275 362
3 346 266 461
3 425 338 380
3 380 338 342
3 329 412 407
3 407 412 295
3 389 412 329
3 320 381 367
3 148 387 152
3 461 291 387
3 387 291 152
3 466 305 389
3 389 329 466
3 193 377 224
3 224 377 414
3 193 305 377
3 377 305 414
3 149 366 281
3 366 296 291
3 299 269 358
3 358 269 419
3 110 437 113
3 113 437 153
3 110 296 437
3 437 296 153
3 380 433 405
3 405 433 180
3 380 307 433
3 433 307 180
3 307 432 146
3 146 432 148
3 307 365 432
3 432 365 148
3 367 421 275
3 359 352 421
3 421 352 275
3 367 381 318
3 318 381 451
3 412 409 271
3 412 389 409
3 409 389 218
3 184 479 218
3 184 336 479
3 218 470 280
3 280 470 305
3 218 389 470
3 470 389 305
3 218 479 409
3 409 479 271
3 301 269 278
3 278 269 299
3 271 446 304
3 304 446 336
3 271 479 446
3 446 479 336
3 224 465 193
3 193 465 195
3 224 463 465
3 465 463 195
3 193 272 280
3 280 272 185
3 352 462 302
3 302 462 292
3 352 359 462
3 462 359 292
3 359 421 318
3 318 421 367
3 215 289 310
3 310 289 302
3 108 429 109
3 109 429 146
3 108 347 429
3 429 347 146
3 371 492 324
3 324 492 186
3 371 310 492
3 492 310 186
3 405 285 425
3 425 285 182
3 187 487 188
3 188 487 183
3 187 285 487
3 487 285 183
3 152 485 110
3 110 485 296
3 152 291 485
3 485 291 296
3 281 366 266
3 109 474 345
3 345 474 110
3 109 152 474
3 474 152 110
3 419 481 308
3 308 481 346
3 419 266 481
3 481 266 346
3 266 366 461
3 461 366 291
3 296 454 153
3 153 454 149
3 296 366 454
3 454 366 149
3 461 303 346
3 346 303 339
3 153 448 157
3 157 448 192
3 153 149 448
3 448 149 192
3 461 387 303
3 303 387 148
3 349 422 356
3 356 314 349
3 80 500 83
3 83 500 349
3 80 418 500
3 500 418 349
3 497 498 368
3 498 6 368
3 471 494 29
3 29 494 1
3 471 0 494
3 494 0 1
3 10 489 17
3 17 489 497
3 10 498 489
3 489 498 497
3 6 482 7
3 7 482 10
3 6 498 482
3 482 498 10
