# vtk DataFile Version 3.0
A great-looking cell
ASCII
DATASET POLYDATA
POINTS 596 double
234.9825544765792 76.82630339465345 79.22673274941059
237.07850312618683 77.4307711756807 78.97967009667468
232.9550631057536 78.3262573781751 78.10957739860122
233.43015350976606 80.692422708715 77.10519977579024
237.72373546466372 78.81373761656305 77.519858546344
231.18804971050403 81.62427423731461 77.51004301856737
237.50475351912596 82.62709267584066 75.27571456615597
236.1968504155889 84.58282087189926 75.82126631219234
236.71530245928327 76.33807350181712 81.04827752635786
238.96724217508498 76.56180038201455 82.12073224578275
239.03365500618517 76.92235644526524 79.93016591591753
230.9871471848289 76.99222371691182 79.75933626073437
233.02162062276352 76.19112802856773 79.43925468753729
240.09935413170928 77.84536056528239 77.84187626262886
229.16579595553557 82.49330678056076 79.04416035736388
229.99659613089204 79.4760668124392 78.62774023384483
239.74321165434876 81.3047560507954 75.36341646063693
230.8473675505602 84.16711311827743 77.791903272476
244.57778693367396 83.95325215920991 75.83197113719748
229.7974172588905 87.60217986009064 79.47794121715627
231.0204768092729 86.55505466317656 78.26959880902348
232.79678529570472 85.47409541658745 77.21452943351368
241.37087069099562 87.86814135472021 75.78204824270132
230.80780758505918 88.86158605812791 78.26977349947667
232.81681467116584 87.82102483458537 77.53446211435227
234.95709555703425 86.65669509536005 76.65302284614077
236.49088748919146 88.60274299805145 76.4224771550518
230.60283833021586 91.23647889345226 78.38212253528255
232.63666966329384 90.23507231709888 77.51720512873513
234.8928239919237 91.6628760256355 76.93187916560868
228.6980259167488 92.9224876118531 79.42293842785494
230.7287066044566 94.87344321667695 78.29012561402372
232.15858894862797 92.70895918158331 77.14608010523727
235.48818447269412 74.95011770212632 82.71736164641258
237.27061417209185 75.7738414960404 85.34901783256707
231.2583127133474 74.69168713392365 83.05323072993257
241.24330193372148 76.12004515615659 82.65334014237938
232.15496684541517 75.44595055286668 81.18854035011643
230.18094545044823 76.18312094068949 81.93990138571868
229.2645203722064 78.23078972463942 81.19745224551698
228.8125862430636 77.242494877068 83.27071104798432
228.40990172852852 80.68701504423633 81.00564265983269
228.22642911034842 83.48073071467037 81.68802637585188
248.3962149973243 80.98137612929771 83.99259294603556
247.83923756596513 81.26317576361805 80.18886379824252
229.48012206200022 85.35762436307667 79.87972086048057
228.752249337183 85.6819066831383 81.9334840273634
228.92931053914876 87.4679417601266 81.15479391048477
229.0597833912404 89.79914930243385 80.03404679859585
240.53387061110212 90.70094715616627 76.22869215841115
245.96238571693695 88.18264617277799 81.74478544564889
227.41168528794162 91.50851525604617 81.8319347562503
235.5251119249995 94.20588328441734 75.65650766061479
244.65974338892505 90.6917728076743 79.21084297995537
243.6039413139411 97.66595957908604 74.67099017492697
238.37465497346466 99.41317123320373 74.71468792479276
231.101291495049 97.69616077627855 78.28485796063464
225.7078724453086 95.6457270777406 85.35955439826023
241.5156742296561 103.7574336873765 82.18150384756854
234.58245208775094 73.96864459677202 84.38599905637271
230.55447286658804 73.20174874237959 85.76628535449494
236.92899016386676 75.6308444981907 87.31208834023117
230.53622203651014 74.30553537227905 84.60611654527956
228.99214840042964 74.4725309431645 85.63458234917016
229.5596468533052 75.42880073465845 83.83621588075081
241.06687637179252 76.5483495529247 86.53784970058143
228.2432420138236 76.30815526291315 84.98578664127044
227.81239850819875 78.17662864117787 84.78399927143334
227.78963439830807 80.19701969161302 84.95038899071864
228.18248017706298 79.30942018599256 83.04017629414385
244.62682390564794 79.20559825283287 89.24826127794968
227.53055556880935 82.22137629819008 85.1804166716381
227.89210629261757 81.52626444915664 83.2602619304921
244.06221542640893 82.02665928030981 89.93078019537744
246.53399360919974 81.46380839178774 88.420997451072
227.8421273755802 83.30482751373114 83.78814743930421
227.68189939612802 84.23848826987339 85.3109124716041
228.2008264948915 85.03391278198616 83.54027465165952
247.85435508424456 83.85811146137682 84.74844716144636
228.19485175604183 87.139657801232 83.1345162312943
227.65792494355532 86.43005124182956 85.14060173926839
227.46229485037918 89.00944368450969 84.63238987947214
245.74209057949747 88.2785092614404 86.27114353463705
228.08716823546578 89.2129456646699 82.36132277642714
246.15551182775357 91.37138341466293 86.46981639388007
246.5341300907991 101.47012482977392 85.05450256969289
225.9169647822732 94.54315556641842 89.36686426748804
234.97905655792027 102.60339849587832 82.89594969090234
233.38645387956691 72.52428478802436 87.80930149875086
227.746402761552 72.7476922583121 88.7028826788001
236.62620824137514 75.45831545604709 89.15478339526447
232.09720501482946 72.55317515968436 86.47665646549859
227.82793731902183 73.9914963886749 87.10418165700011
239.50722798469218 77.65610670261798 88.36429479054962
238.00371971446015 78.27508081242051 89.76343757181004
227.57262398053993 75.66761742475366 86.64342020541099
227.69189754545346 77.28011899918887 86.23551914649009
227.14672004643649 77.30808780578607 88.14402687157379
227.47116232824047 79.72330249450076 88.51292844217097
227.62005594937764 78.94719331281416 86.58257762371794
227.7290516182258 81.0134132990978 86.83205991206351
227.44539201090754 83.10211581605502 87.019025269459
242.002962904764 82.2620038210182 90.63149026317089
245.453829095414 84.57832897324296 88.8862256467359
242.80604537055683 84.44479437608791 90.86120470271304
243.93603441683592 87.27660879450767 90.08540044840045
227.50009355511182 87.84945494431412 87.12210110384758
232.58172032372028 102.45334285766707 84.81134970692614
234.79612211289918 73.30623680850847 87.42996540193593
235.66125874953354 74.22249300654217 91.91863813269839
227.25832079904404 72.2825140071672 94.90816769650726
226.43166656539987 74.07057693716594 91.87461485816247
236.05105339332692 76.36890497489127 91.96324719547252
236.75389038994584 76.81749520665731 90.1624925584267
236.6297753362972 78.21783110880692 91.1783894906398
226.6582898845808 73.95664100483975 90.01905053053167
226.21295981320623 75.88458523695307 92.8505831264335
236.19086190687958 79.48656821770672 92.27991738802467
226.5156514983775 76.06581735110066 90.50001510731452
227.5608628923914 81.86490113245243 88.679258839057
227.4081498136049 83.9648312627412 88.93380348562238
240.9760522177501 82.99958859714431 92.1301411152617
227.4539327319291 85.34576869296728 87.1813331573575
241.21904751813383 85.01048096204973 92.61035421747907
240.25257688408655 86.8192933211569 93.75253793919052
242.5889623928836 86.77987344834308 92.42184093129606
226.84239507427935 90.47262136343153 86.9127599772027
225.95968536568984 93.20262300678796 86.7953595258786
234.03036274338166 75.40432418863153 98.28168309690982
235.50691702523912 76.89462974093009 93.67903062035944
235.64778077155918 77.9346573270811 92.46041756171329
226.32188219634645 74.0658116693593 94.14365610279546
230.85200267212926 77.009961794887 98.53468237088833
234.95143589248607 77.33502917347133 94.99837678677196
235.14199717439465 78.68809728368186 93.81025045426153
226.8201776677275 77.70102595439127 92.123978222703
227.48345225227422 78.97442975395057 93.35212834590394
235.17044752564547 80.64457034557692 93.05419998392765
238.94076933020608 81.95220068263168 92.42372567692526
227.38942166702415 79.30564261619666 91.77700201770027
228.00108804411443 80.62525669141604 92.57646107811318
227.68339293643098 80.7199727779208 90.54466911924501
227.7123070289075 82.47436421077045 91.86997515544886
239.34257215707345 84.0592811235332 93.70756678912255
227.42080022617543 82.66478820355049 90.20449430191064
227.83854789874857 84.30374956201324 90.87268284769102
227.6906099504566 86.47918642868962 89.55833283670324
227.13271004651864 89.26203692588021 89.27079080328562
227.11391744539253 90.6832510808603 91.07345072461608
239.2179076044254 90.4820874588625 93.71245768381075
238.60444383090453 97.06443260732796 74.34388775674944
234.16247181572092 102.76231617219409 88.61464873645807
247.37302306003286 92.82269238727741 85.86679090409743
236.2410867599779 99.93100889081339 76.37347271873762
247.53758929593306 98.89667388061316 90.47384025064643
248.81431552602447 95.55565600091225 84.13315842207966
247.5507870228901 100.22839071845462 83.91937949000715
247.03787473757393 100.59041211046444 80.2755955043917
247.38286308207864 100.41950237791762 86.7276776086534
228.90269398995395 79.08344836201526 96.03341797978098
241.69065795426522 103.85576391156599 86.37327097513737
239.16969899757657 103.56946205112479 81.48938075719794
236.0868252839911 103.49442474461881 87.01235168138156
226.04948939620624 93.5548954816195 84.86317470932792
227.28538730789705 90.30781099063749 83.2924042836154
242.2254223646759 103.39952916230902 79.62136397845113
235.87227074901068 102.90056865005175 90.57882015889918
248.12402937565363 95.23318696547558 89.4158083828468
243.98748726929406 103.02064076422847 88.21835918656156
230.89932489481578 101.20508647220443 81.61321799192993
244.7316981517871 93.75336318699783 76.82613325571076
237.67887639553538 103.86820684728349 87.27829094841967
247.87711910192127 81.90112203642603 86.30425999470955
246.9175738569026 92.66218020041546 89.85981251860659
248.83959018814562 96.83664000461972 83.36633588525983
236.19243358653605 101.64794470810523 78.17800745173979
246.17081395136213 96.40121385097608 92.52256590823569
244.99551673691377 102.76249816282376 86.41127531257834
239.46830402012853 103.07583752377741 79.14502533832113
245.87370873546473 98.26547134136203 76.43003219961422
248.59575611334103 95.16658488687699 86.68223003475548
247.85171209522886 97.00198087029247 90.4608355555881
243.0553138466829 103.60345931563408 83.25064794768524
246.85176020768006 100.56518349437845 90.51724249121823
245.2922044209275 100.97220116442551 92.74652177719062
243.81948806710676 102.23917328440722 77.65607817700355
245.5926985962544 102.30028362984498 83.3389797093558
228.88873550941008 80.0967733970071 94.36612587105205
247.48935559839614 94.88595615985686 79.5573125007533
240.91114761513015 91.22780053375514 93.28987833419795
242.8866608848166 102.40741751335537 92.40741396777443
227.26208969132557 101.15232148248361 96.15185063691969
245.670225857379 91.78273812639138 80.05839612220412
248.2507564888291 99.19888381252645 85.47541472021189
233.8525972200969 79.95544633489682 94.34829899212498
248.88833657510335 96.65110108093586 85.51383683260687
241.86284413678536 103.8008364278313 84.71419878172756
241.7061884218075 103.73686226503503 87.99342223162498
240.0026246668453 104.12610571908891 86.43543282676545
233.97113146513053 81.9513654309586 93.73275994906605
245.76792111535138 76.45969371660753 80.74573598375859
247.723326383973 93.61821532739833 87.9563962466605
245.92017472298747 95.38665932109373 77.03914858344126
235.82663752687662 82.59848887918295 93.08817252756131
248.8384795216451 97.97033395418677 84.3334686312816
245.07070048598914 90.68600387920438 89.80786336044571
248.3793520531828 98.97528820136426 82.97330854480273
237.61180430985152 82.7519224108468 93.26540325010714
246.2179935991832 91.48017476029736 88.95719972988333
230.70430224575261 103.02693809531586 84.83634118721567
243.15602523794908 88.35631548125059 91.69864887250564
228.75842534442478 82.21686793419754 93.55585269444596
229.38042492046844 104.21045668396327 84.53729727078067
225.17991645284005 101.2923441093208 94.79078834958032
228.57489615970107 101.77947625319266 82.50979520568761
232.3262528079237 99.05448642141627 77.86167192045251
230.57945691046902 81.6068717121193 94.20633426907958
222.49817208758623 104.47778017074438 94.45782991374084
224.47308903920177 104.01411980876269 84.58073373171774
222.906243331981 100.31449789681243 89.99142066732206
247.42780799053048 85.7578836032379 84.51436740361339
245.20271794182437 75.86768952619758 83.60335264142304
232.46063442523214 101.62199046413214 82.10802236270835
246.5134201949748 79.40344630382187 88.30325289086966
226.58123596619902 93.84045308014946 82.97008187313655
229.23313226723468 104.26693678108123 94.6821473756717
229.8290470047484 106.18908346285316 89.65950465099333
234.58191556386768 84.31314909970857 93.70213632204778
238.33923053858044 104.04568951820772 85.72154479289325
227.69379723344218 78.44079155620479 95.09864520911395
247.67324059302376 79.44416387686967 79.99328982790453
228.28197978522127 71.37759752575543 91.97233986552077
238.13148546798635 85.90234280124672 93.93372981837244
229.57364096840266 98.78491745107995 79.83833032600911
246.9593623747491 83.55540656506865 86.98180151123373
228.7419943051674 84.07257739311221 92.60450988330511
227.5507928959124 105.55504621141387 85.05320101841218
230.35370513753213 83.56037588623747 93.36923357410164
231.28146025955667 71.36560051257065 96.66824585664904
248.2032878892921 81.11729384939068 82.02537678578581
233.5316019979879 71.62005148318251 93.69105118176394
227.10260732379263 72.35764378365174 92.94075336292957
229.93595764014128 73.74666198356967 98.3506406594811
230.36598880341913 103.29784912799828 95.5861157479391
228.8384329834731 71.30986680697305 90.22179658779005
221.66356558464943 102.1283319955899 90.44832821129197
235.78205834983638 74.24356157302218 86.14472585745028
236.9359862792495 84.27396787375883 93.79716687754929
246.07977720466317 77.96053696444267 78.39223579075306
241.74279741226562 98.17504505195336 95.48310620159876
222.32079597737766 102.9582514773104 86.73316121551046
225.17445595528224 103.50251568257856 96.0802620135879
226.9938200610077 107.69527796620868 88.23825470475066
233.64567499995783 73.42701834569526 97.94142988059305
246.08610031469001 77.91326779974096 87.72222003784195
230.57754574204165 72.09636195396666 86.94866773916719
245.70726897749353 101.62485074527228 79.59264738707758
221.5685502073021 104.67264248671671 91.29176518847567
236.19250964995047 86.25816459597692 93.58574770753847
228.81934099689073 76.77124230365955 98.35312100180735
229.04293914289474 72.76086676427057 86.86234053008535
228.8705929032502 94.92002579640994 79.27345362407367
229.694366008558 78.58165983454863 97.5925077610111
228.7632229305605 71.21563820314185 93.85331938907245
223.25293919605738 106.01350839381557 87.38850532854964
227.28799871520766 72.46430785251944 90.91294800968933
234.47102771216487 72.89457546695805 96.12279172311976
231.6319852572874 71.83097667470439 88.17673842223941
228.2633744216398 73.14888237241274 98.16013162432446
226.28063885021666 75.8700788248334 94.54722101536275
228.48228343457382 74.85714215938825 98.24470815809784
247.85705208305302 78.43855853831282 84.07517218037404
225.75041366237758 106.30422925108175 94.28748917854261
225.0542398706649 107.58076089887192 88.1166125401216
223.35952780234385 106.46277006395516 92.91213021356593
235.22015068835003 74.6516099364151 96.865613764367
228.67447322301166 86.05488112228994 91.8184062035159
228.41996134510364 88.58594126858178 91.5462806342694
226.5528015604468 96.201346233729 82.7892168722398
225.63054948089757 95.03394857365979 87.43913977304179
224.70097567102533 107.7289936859338 90.64407656708856
225.82369760526274 102.46252210755279 84.31064804875162
230.21530788377694 102.11754444544547 83.26882967968051
243.88071526163094 77.23778020424552 87.17697324642236
225.0208396329746 106.12005604129108 85.51131691293538
240.0208123363332 79.25999976280599 89.8512411389367
231.9088643477451 103.11107031055798 91.2300632961396
237.31214994934066 103.5474165606959 82.74965942065204
238.49750771338242 101.80260523543916 76.70391336206094
236.59538371683462 90.29347817779866 93.85323960932433
248.05084500928285 99.13849358625394 88.37585483956852
226.2113702255021 95.00006375615081 91.2459852813776
238.48936514154056 77.79341304386521 78.59703465350336
226.8438402490378 107.81636665944538 89.8628677705205
229.32149026954716 105.89564528809076 86.37456523499246
231.1117657501283 104.19552618608195 92.09111021128402
225.9209810704177 98.26103862462459 83.80631449593757
235.3013748757448 73.70369014736737 93.52956239249455
227.15045559173748 106.94348000297734 86.80457466291807
228.88658175906173 106.80738844944341 91.17318149648993
230.43017652737987 105.33557076362368 88.32583146731206
227.88389353493838 104.58446474359715 83.86846994130468
242.15872201390476 80.37567009132745 89.87804626670581
232.27360697815612 103.35695321698041 88.62574161491295
244.9007171085755 96.47730389182705 75.63363928012753
222.90734033591787 106.46497099016958 89.74030752842532
235.46553849310155 88.27843413020193 94.0239147289501
231.9092013178301 96.30600228905776 77.28290118391556
221.77844360292914 104.14573580432766 88.33657923526556
239.34965317023017 76.45372806353409 84.43519775649303
232.34228288621705 80.99712193647481 94.68736863869478
223.74240616935413 102.20723894309208 85.67218166114829
224.2868068300568 105.06572482096682 95.43340431438087
229.16318097855066 96.61531904137209 79.52714890723199
234.18035425230792 78.45100876971172 95.49366963325437
233.42746446140845 78.29769562353178 96.97124418905989
227.6958108049986 72.50101805004951 96.68825275656349
232.4176030363243 102.7574156949544 86.72872698183276
234.62176105719684 102.81935463583743 84.92884819107121
245.13509954990343 89.40604951318113 80.42690637548559
230.37888944280084 92.93307166391924 78.05738628888753
229.43688880871838 94.99661804497173 95.41652855230197
222.87785560261574 101.29737300296152 93.82693030964703
230.67585636535276 79.87734801386829 95.83578088184916
226.33507453717883 104.46643739360157 84.04473574425494
224.23444033206337 99.71730484077537 92.39639209437053
248.69357576804308 97.88674202484032 86.85465892097373
224.74500202348108 97.905764266885 89.6758408502798
224.1371178660869 100.29725323760663 86.65753342469687
225.24657390053218 96.79334337226267 88.22994106192664
232.32556451495168 73.7621047127204 84.7334814857877
235.97924372297953 97.34449649809574 75.25678013462355
246.50477874174982 77.02661443842321 82.46545541418466
226.155004277001 102.20015321021974 95.47966944533644
222.52249907116067 101.3724255387401 87.89561041499796
237.29117178439736 75.90676847139716 83.36025487732726
226.61064044719964 97.4829754175249 94.20652896143127
224.3730182741982 100.53766131438616 93.73869889515562
232.98658090292804 71.79644703014269 96.72990899795612
231.93567726460034 71.16526431940795 91.2894902266327
221.58219438119372 102.70349740118455 93.22551014521532
247.02882700146634 92.22003503501107 83.81895275632829
223.89022838598814 102.55630729152259 94.84425281585746
237.5322882016934 77.01007567165992 88.4742101291646
229.35794804398523 100.4533575478431 81.58680041625584
228.47976809156492 102.61117511342643 96.25857882635795
230.23410453343547 105.30547980413692 92.86419612271412
244.5117525376324 81.12566074309575 76.04015847948463
241.56056556323702 89.30732584037825 92.79834164928296
243.69483302722583 98.62414832033711 95.19588080491653
233.70940776399098 71.76395699077898 95.23381132843518
226.7534853738868 104.37635654493515 95.2824716948091
228.66418794271488 106.97271895175264 88.5774619264825
231.91954225218922 74.87582955530762 99.0201293713691
237.74203557239923 99.62890115622949 95.16574425399018
229.41943917881125 98.46084766088029 96.50739751789416
237.62458352492575 103.1897428931994 90.54745007310395
227.89027954639266 102.97166564978154 83.50405823591463
224.1392063948178 98.91478591831107 90.9679491832727
228.67833569506791 93.74701137128179 94.03638679487891
226.33137946735667 99.88042059094438 95.0725769839752
229.50300176742027 71.74856563535405 97.45564822824622
222.8339869233108 100.55665288310854 92.16490859347364
231.24857907283746 94.22351284878745 95.33492302421287
234.93756691548865 94.02748301039082 94.82927888254076
230.71988063866098 101.4589504923965 95.5884395402423
246.7735699014051 92.7722665522861 80.95013951344514
234.23069806270342 98.81577417568839 95.47405518203882
226.14331598954428 97.1747783691726 92.71630596296002
233.12612782013312 93.9250038739014 95.17610684962847
230.74732550175983 104.97622598512086 90.57364570614536
239.42312024749478 103.89537432249622 88.90140447055514
231.85952158805878 95.60267110837006 96.53848936406762
232.90022860431975 99.04119653288474 96.61879333992073
237.328800822775 95.23290232774181 94.90795280714443
225.5501862252709 98.78699066191096 92.75102530037819
239.23488544743003 104.06899566349423 84.03196327978512
229.64919140418957 71.48690356797897 88.28187878488758
233.2105676693054 101.88689609785933 92.57228585282934
246.67965216480337 98.6980166138583 92.27518852078447
228.71626267783705 100.11447630979437 96.20296689684302
230.9849480307755 103.84395210469134 86.33118744877154
236.0310702339056 101.11135057930647 94.19404329561445
234.37856089787698 100.86682970428505 94.33406925017098
230.11336258387456 96.58023881717357 96.46285342853733
235.92188749723272 103.24460955571622 88.77276386361588
243.11152383025092 103.43823283403123 86.35238843199737
243.82193099766874 100.30364559482469 75.60508186693403
235.8093257757298 98.23298345675676 95.21177922682791
235.1577866903645 96.65939598745163 95.54969250009229
240.21302581540186 93.01346820359068 94.02734895655108
237.70302611058403 101.19168006307957 94.42889694127877
244.6293686748558 76.95810995407444 79.21444466502707
242.35353089535732 94.64876647499463 94.10949517366146
231.04998484053843 99.18060501923203 96.95400010881642
235.90269258679302 102.12195358471777 92.50425630454922
227.60657043735142 98.12426694619384 81.35764004222722
234.34506674200452 102.900416595838 86.83749217997253
232.61719403869074 100.15360539593703 95.56434439392501
238.37211970044282 102.60470705651929 92.71757660285648
242.6491243908102 77.7238749735935 77.88225822230955
222.73927103177408 104.51925687222742 85.80304977652658
233.0587167665571 77.18079328743865 98.55801639938223
234.6066888520134 73.06563786076313 89.0085084806164
244.7598741204373 102.16977713647337 90.3706754892859
233.17944889607864 95.29058184337589 95.66857309930613
234.15970061920737 102.52366653135938 90.34865099361237
225.6814836854313 96.87603532141874 90.96097433901566
226.32962954628064 107.73289509967832 92.43076252173667
232.77886336063963 97.25812257838108 96.67381380097004
231.1174950791871 103.0998892374241 93.59281480534193
227.99502414405333 95.88975107125927 95.12179016464988
227.17036271805534 100.66200492437014 83.09813365501671
244.77636532767832 94.2510496845124 92.82015805186411
231.41102300050272 84.94808306896981 93.71337636672995
232.81154592480559 85.25280416424978 93.89323536982178
243.02344761576978 100.33760032338898 94.44348568569256
243.39928084052175 94.92442458279642 75.4684022797278
236.54040128432126 103.52461839149899 85.16768210933654
237.67192206004202 97.84372744340368 95.35090937800074
237.69292942797375 102.62075052155298 78.48057079378003
229.93425488053447 85.54620828326188 93.3116678045154
238.74365462843886 94.25293587171831 94.436287167061
226.32231669762737 75.06619275129786 95.95917872115051
240.34626587325621 103.36006485564305 91.32504347520427
231.7198927314447 87.1181468816394 93.68908812468923
244.27810206249475 103.04307042468945 84.4069606325024
234.05401830513827 86.60165781715627 93.78825954156063
227.90951019708993 97.97089963663342 96.04337690125372
236.22068420907556 99.69042990739057 94.93354313001502
232.9339414438534 94.98952304581492 76.44590440546106
225.36713207807847 100.40132872213667 85.01208363546735
236.56198508531415 81.49137643167532 76.14344375121875
244.06712766929368 86.87944358657055 76.3669461656855
238.48317210619146 93.10579576989895 75.59258527980424
247.90235541053568 79.352223637133 81.78390105641073
234.4057978365784 79.41675107904948 77.48733961343281
234.28749259258817 96.04322081104294 75.6687342345064
233.42574871424756 71.62493393072596 91.86150541623172
233.36629459536542 74.3342107117814 82.68060848767232
239.5146851319039 86.24939074067552 74.76011339532512
240.94871502659538 98.04911725241016 73.778007899054
234.34902774635214 84.47030123541636 76.38989758327044
246.2714115801048 101.56679774693966 87.98261614241888
239.7084032271278 97.84643191269937 95.65640471024898
242.06716759815578 85.2736983421512 74.88136721549859
233.87916108392028 73.23943521456879 86.11088318195009
248.15089627365992 82.8689166029765 82.21323644540826
241.94956403019907 79.51244974378986 76.04197953439377
239.41155678280467 79.47276929393709 76.39109783077603
240.46585440258679 101.67555790134007 93.96976708437576
236.95863846250725 81.259681021283 92.5109028243907
235.95285110819955 90.02820085897329 77.06364469357891
238.1080484095199 80.0068962617071 91.20375861153912
244.178626247848 102.87358282355677 79.5704297910411
242.63553229860793 101.80843571118308 76.05819123459833
241.8864937134931 78.32151241758268 88.5761987219577
240.34059008985616 81.18257540005776 90.96801633312504
231.81531608575597 79.94458034840629 77.60363399610081
229.75077500459636 87.30178284337366 92.78036674294724
241.69429552078614 76.48939689021674 79.92973831409901
242.13497196962916 96.23968593528168 95.10676035764764
238.74297404917309 88.4971012492854 75.68450139255899
231.78710233656005 78.6914897735716 97.50343508955838
228.00591956586405 77.77749396263305 96.84265313569794
238.4128461084591 77.17802330525491 86.53827928877435
241.22622549929062 100.1062817356928 95.13003409936861
228.5203278635031 71.46852357109944 95.7473707936073
244.96891477435264 89.82697061523649 86.22106604748772
240.5835744951632 103.68780548289621 80.56068782657825
243.27486003944483 76.17320253160617 84.59121172630206
234.3933534219842 90.10328334947033 94.473292398061
247.46025938694822 84.05179227230747 79.98941098209369
227.30357832546315 75.98647666916793 97.32077589549898
243.41467427671844 92.17083033937229 76.90967608615256
246.84483990933498 79.6284182306136 78.40729858750022
226.71274260321624 77.3590159822354 93.9736746568317
233.9511540488026 100.1172484600515 77.65439515047855
245.7037985134085 87.22372990534289 88.18041584227792
242.61985545532212 92.12002923156079 92.54155194633213
235.76786353826816 80.20730637300233 76.8044196550147
241.28157748056023 93.16042571957269 75.55858726027637
242.4847562693956 103.1658097092459 90.00485362549632
227.04152203731613 93.20042704433598 91.54683746597046
247.06306583166477 94.30807377510507 90.8578611928642
237.90665366362273 84.7816178845141 74.7535230894455
237.38927812801742 90.71980934024752 76.35831488134616
241.28750075418927 102.6221605057477 77.13646052943953
248.28851479094274 94.68602711955673 82.49746802702015
247.53150609726322 79.4205589419625 86.5044297590877
244.82883718845497 78.70977469697468 77.1051292445432
242.1465974468411 82.45152572448629 75.2850303346655
241.02652982584786 103.74537790800196 89.59169904444396
237.33274758615488 86.53941282501712 75.77284527318639
232.0843277366014 71.09302202374946 94.97671674140781
235.16656399336776 82.41743788308187 76.10480885181074
246.11776414072543 76.8905984745993 85.36744711739121
231.57895913441791 72.60596655567753 98.01412806186707
244.33076434713982 103.02492400333702 81.73460795993839
235.68198859362568 74.1264715049045 89.97552235417572
245.95770345545694 85.35772300559664 78.02473813023603
241.21690175678333 76.07329286367822 84.58406097253183
243.15219160092724 89.38611723725542 77.32314734092046
233.11033648140798 92.24051839517242 94.62221367050921
227.48839392926035 93.34516936715757 81.20163490910123
225.1112383234236 98.43533416132881 86.27562017088763
245.62593524354867 92.98767576195553 78.57231316988278
237.6137468607876 103.79413110479396 88.92157336027041
246.5394149659493 82.29325716344218 77.65106766068743
235.3122869681167 91.87214819864953 94.48509335932415
246.83953728662726 85.88795170778714 86.39415354679514
247.43254595802742 85.59638152324888 82.49702031491486
245.88301412192672 97.63029331488055 93.69993548207061
232.2900218915448 83.25648885559472 94.0644856964096
237.76554940422344 95.37548700739146 74.97607322937736
239.9962676007388 95.84142824975262 95.08828646500038
243.61248394302703 89.96126878453559 90.74378966031634
246.6486719378813 87.33532503279262 84.29994001867264
245.2545983835318 88.12638424620064 78.94077126275411
226.75463588844931 73.50777970703069 95.84567984959486
240.2091148903912 76.35103513520082 81.13121259457874
239.45468113670023 99.64838836266337 95.44629464331017
235.5207061494649 75.87905338884804 95.22059534893373
246.7870333679788 101.09797190744544 82.18649435247755
226.66719855076258 95.51745193976647 92.96825333130187
237.47682879031166 92.74255112235623 94.30808648112183
239.81237761680077 83.7714180933358 74.9727968038494
245.1752560459962 99.00883105973287 94.2922963822556
242.5406592260822 99.37612502667298 74.28785443352845
226.3380141641985 91.56984546068068 84.39316586610525
248.04766074640088 98.45539261515151 79.60121445041746
233.86998112100184 93.3810600836201 76.527973283859
226.19682796164759 91.78781965444504 89.23604126707339
221.7860694452186 104.81336863214965 93.12182732517107
226.8596424489434 74.90153570655835 88.39869194485766
245.57092960682647 91.84801646215917 91.27423108582022
228.02638570109806 106.12776788596443 93.7300746002545
231.99468953240543 71.04328995106647 92.9413977224559
245.83367965376559 80.39951861549886 77.12178323036952
247.36238577151366 97.28104895507784 78.58610508140026
235.86520891351074 74.19030651660849 88.17710487199358
233.0443171015982 71.77975851248074 89.79674696907544
234.7309891843925 72.59616979521492 92.70570578469874
248.3324379567293 94.27417416644315 85.20888480004211
234.86629057325004 98.7524024090643 76.47917654013288
234.75544172730298 76.93059466878509 96.86667580031423
236.58668706248577 92.44297664925251 76.2123586990359
239.78892315895794 88.69405658923428 93.69461179085651
244.18012810716687 96.73300611088337 94.50480796868982
230.0660057686487 89.20355300147979 93.4439024818905
232.33348533657394 101.36956172433135 94.23189255283503
231.67636958087766 100.19062006884732 79.78637117907554
245.42707558223242 89.75035712662536 84.31467352548438
234.704543474933 72.6233633205299 94.4059652133641
226.9922379580227 78.51070906010418 90.26095138934338
228.32761257374986 91.063656188795 92.98848734164835
235.6806364115215 75.1779822279752 93.57210052898202
247.02727119317976 99.59389398562217 78.8039509264978
226.97031450409037 76.78435748558866 95.65793697349945
237.95122983403837 88.10522713878696 93.85439913141427
232.64804393797735 79.25971913963703 95.71802349393498
233.55889806473874 88.36764969692436 94.08659075114223
241.1314245351893 100.81783707267931 75.01041155808397
234.5983249616887 72.82547431934354 90.87196414513286
234.4287480708138 75.0213669323076 80.66966288831752
230.0857433070052 70.90531728754354 95.50019176389046
248.5418634611928 97.20993558302133 80.92085477873918
230.90285770996923 71.1341644289306 89.91004891537247
224.09036722704863 99.13506758058503 88.5231636366869
236.23841626991114 74.74849393274705 84.34856504529068
227.68111336497788 95.14791126119349 80.81667050425966
233.42531081819197 97.52977698109386 76.87666098420112
234.30913618549866 101.63846002519446 80.10886640681761
227.39327988375044 74.15648379642619 97.09638478804726
230.61332715057532 70.78811589256767 93.85632110855556
230.58979954871464 91.69399885180101 94.18464584284598
245.52686077010677 100.62215931663007 77.39777007068285
248.11674276656555 99.5634984965939 80.70906832158774
244.76635370232316 89.58712510701385 88.19404592025798
232.15901129200233 89.71783558794476 94.5275390813951
240.37702644348795 95.35649806966748 74.68178410324114
248.6868240341755 96.36482056231847 87.98090195538116
236.2938840542817 75.3496899778556 90.67177680511445
234.6469402388746 89.15928105862535 77.12946271573807
242.1902175981798 96.32828182141033 74.20179857126385
229.95379912628866 75.44379739845425 98.73449815115437
246.7967426719832 86.44452921469261 80.11225087756388
235.27556253575162 74.10805351898597 94.976227323162
245.4721512975689 90.79550596910569 81.5747425367081
236.95601207676376 102.85067735635032 80.3812544176653
230.16817103332374 70.89170327939019 91.9924565371241
246.77605919384095 77.90142044885928 80.03813276823901
232.9130304136807 83.138476216816 76.89287838313442
237.7796898830312 80.64470800013811 76.23436977199614
235.48386677599723 78.4791748417841 77.99099970340197
244.07422664374062 76.08481533795238 81.835141849657
POLYGONS 1188 4752
3 592 3 5
3 592 5 17
3 21 592 17
3 10 9 8
3 12 37 11
3 2 0 12
3 14 5 15
3 5 14 17
3 17 14 45
3 20 17 45
3 20 45 19
3 21 17 20
3 21 20 24
3 21 24 25
3 23 20 19
3 23 19 48
3 24 20 23
3 24 23 28
3 28 23 27
3 28 27 32
3 33 59 439
3 569 59 33
3 34 335 309
3 37 35 38
3 37 38 11
3 39 40 69
3 41 39 69
3 15 39 41
3 15 41 14
3 14 41 42
3 14 42 45
3 46 45 42
3 48 47 83
3 46 47 45
3 47 48 19
3 47 19 45
3 51 48 83
3 63 62 60
3 35 62 64
3 35 64 38
3 62 63 64
3 64 63 66
3 38 64 40
3 69 67 68
3 66 67 40
3 67 69 40
3 71 72 68
3 41 72 42
3 74 73 70
3 71 75 72
3 42 72 75
3 76 77 75
3 76 75 71
3 42 75 77
3 42 77 46
3 79 80 81
3 76 80 77
3 46 79 47
3 63 95 66
3 67 99 68
3 534 97 95
3 66 96 67
3 119 100 98
3 99 98 100
3 68 99 100
3 68 100 71
3 70 73 302
3 101 100 119
3 71 100 101
3 73 104 102
3 73 103 104
3 71 101 76
3 80 106 81
3 76 122 80
3 125 104 105
3 103 105 104
3 81 106 126
3 127 529 126
3 113 114 112
3 114 113 94
3 115 118 534
3 117 114 453
3 97 554 98
3 97 534 118
3 97 118 554
3 98 554 141
3 98 141 119
3 141 144 119
3 120 119 144
3 101 119 120
3 102 104 121
3 123 143 121
3 124 123 125
3 125 348 124
3 129 134 133
3 129 130 134
3 130 117 134
3 136 135 476
3 135 136 139
3 140 139 136
3 139 140 141
3 142 141 140
3 141 142 144
3 145 144 142
3 120 144 145
3 232 258 247
3 124 232 143
3 146 147 106
3 146 277 147
3 148 147 277
3 126 106 147
3 524 483 359
3 136 187 140
3 194 137 199
3 137 203 199
3 137 451 203
3 451 207 203
3 451 138 207
3 140 187 211
3 140 211 142
3 194 199 310
3 199 203 227
3 203 247 227
3 203 207 247
3 237 235 211
3 142 211 235
3 142 235 145
3 211 216 237
3 513 237 216
3 227 247 258
3 276 421 459
3 145 276 146
3 277 276 459
3 559 289 306
3 359 575 363
3 237 421 235
3 237 513 414
3 425 414 415
3 415 227 427
3 415 427 425
3 427 227 258
3 427 258 306
3 421 425 459
3 277 459 549
3 277 549 555
3 471 579 561
3 471 561 306
3 559 149 289
3 579 471 503
3 575 579 503
3 289 509 471
3 503 471 509
3 503 509 364
3 509 289 525
3 364 509 525
3 525 289 149
3 427 306 561
3 0 2 594
3 12 564 37
3 11 39 15
3 2 12 11
3 11 15 2
3 48 51 30
3 27 23 48
3 48 30 27
3 39 11 38
3 38 40 39
3 330 60 62
3 62 35 330
3 64 66 40
3 69 68 72
3 72 41 69
3 79 81 83
3 83 47 79
3 79 46 77
3 77 80 79
3 246 34 61
3 92 534 95
3 95 63 92
3 99 67 96
3 96 66 95
3 95 97 96
3 106 80 122
3 122 76 101
3 81 126 529
3 122 146 106
3 122 101 120
3 120 146 122
3 112 114 130
3 130 129 112
3 130 114 117
3 137 194 134
3 134 117 137
3 146 120 145
3 216 211 187
3 276 145 235
3 235 421 276
3 414 425 421
3 421 237 414
3 513 227 415
3 415 414 513
3 471 306 289
3 459 425 549
3 28 583 24
3 583 25 24
3 32 29 28
3 29 583 28
3 427 561 425
3 579 549 425
3 561 579 425
3 579 575 549
3 232 124 559
3 575 503 363
3 359 555 575
3 555 359 483
3 335 9 309
3 139 554 135
3 139 141 554
3 277 146 276
3 124 143 123
3 97 98 99
3 99 96 97
3 569 33 335
3 258 232 559
3 559 306 258
3 1 10 8
3 12 0 564
3 36 309 9
3 194 310 560
3 199 227 513
3 532 483 86
3 147 532 126
3 147 148 532
3 532 148 483
3 126 532 127
3 555 549 575
3 277 555 148
3 555 483 148
3 34 465 61
3 37 564 439
3 246 569 34
3 569 335 34
3 8 335 33
3 8 9 335
3 35 439 330
3 35 37 439
3 246 59 569
3 59 330 439
3 59 446 330
3 439 564 33
3 33 564 8
3 133 522 129
3 159 323 187
3 323 560 310
3 463 560 323
3 187 323 216
3 216 323 310
3 132 402 463
3 545 315 402
3 0 594 1
3 1 594 4
3 560 463 315
3 315 314 560
3 315 545 314
3 314 545 133
3 315 463 402
3 545 402 128
3 199 513 310
3 310 513 216
3 560 314 194
3 127 532 86
3 456 93 65
3 61 343 90
3 65 465 309
3 309 465 34
3 465 93 343
3 343 61 465
3 302 456 70
3 456 283 70
3 90 343 113
3 113 343 94
3 65 93 465
3 456 65 283
3 93 456 285
3 102 302 73
3 128 275 545
3 207 143 247
3 247 143 232
3 132 353 402
3 402 353 128
3 138 143 207
3 89 265 115
3 115 265 111
3 540 90 499
3 545 522 133
3 545 275 522
3 121 143 138
3 246 61 540
3 540 61 90
3 540 108 246
3 403 540 499
3 403 108 540
3 125 123 104
3 104 123 121
3 194 314 134
3 134 314 133
3 94 285 453
3 138 457 121
3 302 457 285
3 453 457 138
3 121 457 102
3 102 457 302
3 453 285 457
3 451 453 138
3 117 451 137
3 117 453 451
3 343 93 94
3 94 93 285
3 94 453 114
3 302 285 456
3 563 542 438
3 438 542 240
3 339 438 537
3 463 262 132
3 262 159 464
3 159 262 323
3 323 262 463
3 353 253 128
3 353 497 253
3 265 89 244
3 338 266 253
3 253 497 338
3 131 269 116
3 297 542 109
3 353 242 497
3 242 270 268
3 265 241 111
3 241 263 110
3 553 350 240
3 350 494 240
3 115 111 118
3 118 111 116
3 573 268 270
3 265 244 231
3 231 244 590
3 497 242 361
3 361 242 268
3 159 229 464
3 229 558 464
3 108 88 446
3 446 88 91
3 132 585 353
3 132 259 585
3 585 259 270
3 132 262 259
3 259 262 464
3 338 497 238
3 316 361 268
3 590 244 567
3 242 353 585
3 585 270 242
3 476 229 136
3 136 229 187
3 187 229 159
3 361 316 467
3 238 497 361
3 259 473 270
3 473 573 270
3 269 558 476
3 558 229 476
3 241 110 131
3 131 111 241
3 522 556 129
3 556 297 109
3 499 563 403
3 403 563 541
3 558 473 464
3 464 473 259
3 423 473 558
3 88 267 91
3 267 255 91
3 558 269 423
3 135 116 476
3 116 269 476
3 89 377 244
3 377 260 255
3 60 260 63
3 63 260 92
3 108 403 88
3 350 338 494
3 494 338 238
3 473 423 573
3 131 423 269
3 265 231 241
3 241 231 263
3 268 573 316
3 116 135 118
3 135 554 118
3 116 111 131
3 128 253 275
3 275 253 266
3 59 246 446
3 446 246 108
3 109 582 112
3 109 499 582
3 91 255 60
3 60 255 260
3 244 377 567
3 446 91 330
3 330 91 60
3 92 260 89
3 260 377 89
3 92 89 534
3 534 89 115
3 564 0 8
3 8 0 1
3 112 582 113
3 339 567 541
3 263 590 574
3 537 590 339
3 590 567 339
3 590 537 574
3 574 537 494
3 438 240 537
3 537 240 494
3 494 565 574
3 565 238 361
3 467 565 361
3 113 582 90
3 90 582 499
3 297 553 542
3 542 553 240
3 499 109 563
3 563 109 542
3 563 438 541
3 541 438 339
3 88 541 267
3 88 403 541
3 267 541 567
3 377 267 567
3 377 255 267
3 522 587 556
3 556 587 297
3 338 350 266
3 266 350 553
3 275 587 522
3 553 587 266
3 553 297 587
3 238 565 494
3 266 587 275
3 263 467 110
3 467 316 110
3 110 519 131
3 110 316 519
3 519 316 573
3 131 519 423
3 423 519 573
3 129 556 112
3 112 556 109
3 574 565 263
3 263 565 467
3 231 590 263
3 588 552 50
3 105 578 516
3 53 518 502
3 502 518 433
3 82 517 552
3 552 517 50
3 517 511 50
3 43 447 78
3 474 502 49
3 474 53 502
3 518 500 433
3 6 495 7
3 7 25 493
3 440 462 22
3 592 495 3
3 433 22 502
3 502 22 49
3 22 462 49
3 7 485 6
3 7 493 485
3 485 493 440
3 526 16 6
3 16 593 6
3 26 462 493
3 493 462 440
3 3 495 480
3 103 478 105
3 82 578 478
3 478 578 105
3 73 74 103
3 472 586 511
3 511 586 50
3 44 472 447
3 65 470 283
3 470 496 283
3 500 472 508
3 552 468 82
3 82 468 578
3 552 84 468
3 468 84 578
3 508 472 44
3 26 486 462
3 462 486 49
3 13 460 10
3 15 458 2
3 2 458 3
3 15 5 458
3 458 5 3
3 433 500 18
3 18 500 508
3 508 347 18
3 347 491 18
3 29 452 583
3 583 452 26
3 29 486 452
3 452 486 26
3 16 491 448
3 448 491 347
3 511 447 472
3 18 491 445
3 82 478 510
3 510 478 103
3 510 517 82
3 50 586 518
3 518 586 500
3 472 500 586
3 22 445 440
3 440 445 526
3 3 436 2
3 2 436 594
3 3 480 436
3 436 480 594
3 4 449 13
3 16 448 449
3 449 448 13
3 474 506 53
3 18 445 433
3 433 445 22
3 448 347 490
3 526 491 16
3 526 445 491
3 49 486 434
3 16 449 593
3 449 4 593
3 594 480 4
3 4 480 593
3 21 442 592
3 7 495 442
3 442 495 592
3 593 432 6
3 6 432 495
3 593 480 432
3 432 480 495
3 6 485 526
3 526 485 440
3 7 442 25
3 25 442 21
3 583 26 25
3 26 493 25
3 535 413 479
3 479 413 393
3 359 411 524
3 389 405 364
3 389 409 405
3 411 384 428
3 389 367 409
3 479 393 390
3 390 393 515
3 429 388 419
3 419 388 389
3 429 367 388
3 388 367 389
3 409 394 384
3 395 382 391
3 391 382 429
3 395 383 382
3 382 383 429
3 406 378 395
3 378 383 395
3 364 374 389
3 515 419 374
3 374 419 389
3 367 373 409
3 409 373 394
3 367 398 373
3 373 398 394
3 409 372 405
3 405 372 363
3 409 384 372
3 372 384 363
3 364 369 503
3 503 369 363
3 364 405 369
3 369 405 363
3 383 367 429
3 383 398 367
3 428 336 411
3 411 336 524
3 398 365 394
3 365 380 394
3 380 360 428
3 524 368 407
3 407 368 375
3 524 336 368
3 368 336 375
3 375 358 407
3 383 550 398
3 383 378 550
3 550 378 410
3 406 286 378
3 378 286 410
3 365 398 550
3 550 410 365
3 394 355 384
3 384 355 428
3 394 380 355
3 355 380 428
3 391 354 521
3 521 354 419
3 391 429 354
3 354 429 419
3 365 345 380
3 396 412 344
3 360 337 375
3 428 360 336
3 336 360 375
3 407 329 86
3 329 568 505
3 362 219 358
3 358 219 568
3 219 334 568
3 375 325 358
3 358 325 362
3 375 337 325
3 325 337 362
3 362 322 340
3 340 322 342
3 362 337 322
3 322 337 342
3 552 341 84
3 552 588 341
3 363 321 359
3 359 321 411
3 363 384 321
3 321 384 411
3 588 319 53
3 53 319 518
3 588 50 319
3 319 50 518
3 348 516 479
3 479 516 535
3 31 430 32
3 31 313 56
3 313 570 396
3 525 374 364
3 390 525 149
3 124 547 559
3 559 547 149
3 124 348 547
3 547 348 149
3 345 351 333
3 346 225 410
3 351 345 225
3 370 303 300
3 300 303 381
3 299 346 370
3 396 296 412
3 505 431 296
3 370 295 286
3 286 295 410
3 370 346 295
3 295 346 410
3 352 300 294
3 294 300 381
3 408 299 293
3 293 299 352
3 352 294 298
3 298 294 236
3 4 292 1
3 1 292 10
3 4 13 292
3 292 13 10
3 524 291 483
3 483 291 86
3 524 407 291
3 291 407 86
3 107 318 87
3 87 318 418
3 107 397 318
3 318 397 418
3 406 303 286
3 286 303 370
3 505 296 57
3 57 329 505
3 412 281 357
3 431 311 281
3 281 412 431
3 431 412 296
3 568 328 505
3 505 328 431
3 568 334 328
3 431 328 311
3 311 328 334
3 570 278 396
3 57 296 278
3 278 296 396
3 346 299 536
3 536 299 408
3 284 273 298
3 293 280 408
3 305 274 280
3 280 274 408
3 86 279 127
3 127 279 57
3 86 329 279
3 279 329 57
3 351 272 312
3 351 536 272
3 272 536 408
3 305 264 308
3 308 264 401
3 305 273 264
3 570 261 30
3 30 261 31
3 570 313 261
3 261 313 31
3 308 257 305
3 257 274 305
3 305 280 273
3 273 280 293
3 298 252 352
3 352 252 293
3 298 273 252
3 252 273 293
3 351 251 333
3 333 251 342
3 351 312 251
3 251 312 342
3 334 250 311
3 311 250 401
3 334 308 250
3 250 308 401
3 340 245 362
3 340 257 245
3 245 257 308
3 324 284 236
3 236 284 298
3 284 401 264
3 264 273 284
3 344 233 396
3 56 313 233
3 233 313 396
3 352 226 300
3 300 226 370
3 352 299 226
3 226 299 370
3 346 536 225
3 225 536 351
3 357 281 324
3 529 224 51
3 87 222 107
3 107 222 282
3 312 272 274
3 274 272 408
3 334 245 308
3 401 218 311
3 401 284 218
3 218 284 324
3 312 217 342
3 342 217 340
3 312 274 217
3 278 570 224
3 224 57 278
3 56 215 571
3 571 215 477
3 56 551 215
3 215 551 477
3 311 218 281
3 281 218 324
3 212 282 357
3 360 213 337
3 337 213 342
3 360 333 213
3 213 333 342
3 282 214 357
3 357 214 412
3 282 344 214
3 214 344 412
3 357 301 212
3 212 301 236
3 357 324 301
3 301 324 236
3 236 294 212
3 212 294 381
3 381 317 107
3 107 317 397
3 381 303 317
3 317 303 397
3 362 245 219
3 219 245 334
3 568 327 358
3 358 327 407
3 568 329 327
3 327 329 407
3 105 210 125
3 125 210 348
3 105 516 210
3 210 516 348
3 107 209 381
3 381 209 212
3 107 282 209
3 209 282 212
3 551 572 477
3 551 222 572
3 572 222 87
3 572 87 589
3 543 341 488
3 488 341 366
3 366 341 588
3 571 307 56
3 56 307 31
3 571 430 307
3 307 430 31
3 84 208 578
3 578 205 516
3 516 205 535
3 578 208 205
3 205 208 535
3 535 484 413
3 450 391 521
3 371 356 424
3 201 208 84
3 511 78 447
3 376 287 418
3 418 287 87
3 287 589 87
3 376 196 58
3 196 386 426
3 196 376 198
3 413 548 393
3 356 399 424
3 391 450 399
3 399 450 424
3 55 288 562
3 506 192 53
3 53 192 588
3 506 366 192
3 192 366 588
3 380 191 360
3 360 191 333
3 380 345 191
3 191 345 333
3 424 450 190
3 190 450 416
3 479 189 348
3 348 189 149
3 479 390 189
3 189 390 149
3 562 441 55
3 506 188 366
3 506 202 188
3 498 186 523
3 523 186 85
3 498 426 186
3 186 426 85
3 366 188 488
3 488 188 566
3 404 190 184
3 184 190 416
3 443 183 290
3 443 404 183
3 58 182 498
3 498 182 426
3 58 196 182
3 182 196 426
3 181 581 290
3 543 180 201
3 201 180 581
3 543 195 180
3 180 195 581
3 371 197 198
3 184 379 183
3 183 404 184
3 386 177 426
3 443 85 177
3 177 85 426
3 484 176 413
3 176 548 413
3 589 175 572
3 572 175 477
3 206 174 566
3 566 174 488
3 379 184 527
3 527 184 416
3 208 173 535
3 535 173 484
3 208 201 173
3 173 201 484
3 371 198 171
3 417 170 474
3 474 170 506
3 417 202 170
3 170 202 506
3 282 169 344
3 344 169 551
3 282 222 169
3 169 222 551
3 181 379 176
3 176 484 181
3 443 168 404
3 443 177 168
3 168 177 386
3 581 167 201
3 201 167 484
3 581 181 167
3 167 181 484
3 202 539 188
3 188 539 566
3 410 243 365
3 365 243 345
3 410 225 243
3 243 225 345
3 557 539 179
3 179 539 202
3 523 256 498
3 56 233 551
3 551 233 344
3 498 165 58
3 580 481 434
3 580 417 481
3 481 417 474
3 81 164 83
3 83 164 51
3 81 529 164
3 164 529 51
3 57 163 127
3 127 163 529
3 57 224 163
3 163 224 529
3 424 190 482
3 482 190 404
3 395 166 406
3 406 166 385
3 395 356 166
3 166 356 385
3 58 161 376
3 161 178 589
3 171 162 385
3 385 162 397
3 171 418 162
3 162 418 397
3 566 577 206
3 206 577 523
3 557 530 539
3 539 530 566
3 557 577 530
3 530 577 566
3 515 444 419
3 419 444 521
3 515 249 444
3 444 249 521
3 197 168 386
3 418 228 376
3 376 228 198
3 418 171 228
3 228 171 198
3 198 160 196
3 196 160 386
3 198 197 160
3 160 197 386
3 193 158 290
3 290 158 443
3 193 85 158
3 158 85 443
3 179 54 387
3 557 576 256
3 256 576 185
3 576 387 185
3 562 528 441
3 441 528 54
3 562 387 528
3 528 387 54
3 178 487 288
3 288 487 562
3 288 420 178
3 178 420 589
3 288 175 420
3 420 175 589
3 416 349 527
3 527 349 548
3 416 249 349
3 349 249 548
3 523 157 256
3 256 157 557
3 523 577 157
3 157 577 557
3 85 156 523
3 523 156 206
3 85 193 156
3 156 193 206
3 581 326 290
3 290 326 193
3 581 195 326
3 326 195 193
3 488 155 543
3 543 155 195
3 488 174 155
3 155 174 195
3 379 154 183
3 183 154 290
3 379 181 154
3 154 181 290
3 185 454 256
3 256 454 498
3 185 165 454
3 454 165 498
3 165 185 487
3 487 178 165
3 562 455 387
3 387 455 185
3 562 487 455
3 455 487 185
3 571 437 430
3 430 437 52
3 571 331 437
3 437 331 52
3 195 204 193
3 193 204 206
3 195 174 204
3 204 174 206
3 331 153 55
3 153 288 55
3 175 288 153
3 153 477 175
3 543 152 341
3 341 152 84
3 543 201 152
3 152 201 84
3 397 151 385
3 385 151 406
3 397 303 151
3 151 303 406
3 387 576 179
3 179 576 557
3 55 150 331
3 55 441 150
3 150 441 580
3 477 544 571
3 571 544 331
3 477 153 544
3 544 153 331
3 417 584 54
3 54 584 441
3 417 580 584
3 584 580 441
3 52 546 29
3 29 546 486
3 52 434 546
3 546 434 486
3 52 514 434
3 434 514 580
3 52 331 514
3 51 504 30
3 30 504 570
3 51 224 504
3 504 224 570
3 424 492 371
3 371 492 197
3 424 482 492
3 492 482 197
3 404 168 482
3 482 168 197
3 287 376 161
3 161 589 287
3 379 512 176
3 176 512 548
3 379 527 512
3 512 527 548
3 371 507 356
3 356 507 385
3 371 171 507
3 507 171 385
3 150 580 514
3 514 331 150
3 391 399 395
3 395 399 356
3 178 469 165
3 165 469 58
3 178 161 469
3 469 161 58
3 416 466 249
3 249 466 521
3 416 450 466
3 466 450 521
3 393 461 515
3 515 461 249
3 393 548 461
3 461 548 249
3 515 422 390
3 390 422 525
3 515 374 422
3 422 374 525
3 10 520 9
3 9 520 36
3 10 460 520
3 520 460 36
3 434 481 49
3 49 481 474
3 36 460 595
3 470 36 595
3 29 531 52
3 52 531 430
3 29 32 531
3 531 32 430
3 475 508 44
3 490 400 448
3 448 400 13
3 400 460 13
3 392 595 460
3 591 435 332
3 400 490 392
3 392 460 400
3 30 320 27
3 27 320 32
3 30 31 320
3 320 31 32
3 496 271 489
3 489 271 43
3 271 435 43
3 591 248 475
3 475 248 490
3 591 392 248
3 248 392 490
3 43 239 447
3 447 239 44
3 43 435 239
3 239 435 44
3 44 230 475
3 475 230 591
3 44 435 230
3 230 435 591
3 595 221 470
3 470 221 496
3 595 332 221
3 221 332 496
3 332 435 271
3 271 496 332
3 510 220 517
3 517 220 511
3 510 78 220
3 220 78 511
3 591 200 392
3 392 200 595
3 591 332 200
3 200 332 595
3 508 538 347
3 347 538 490
3 508 475 538
3 538 475 490
3 489 172 74
3 489 43 172
3 172 43 78
3 489 254 496
3 496 254 283
3 254 70 283
3 74 234 103
3 103 234 510
3 234 78 510
3 36 501 309
3 309 501 65
3 36 470 501
3 501 470 65
3 70 223 74
3 74 223 489
3 70 254 223
3 223 254 489
3 172 78 234
3 234 74 172
3 340 533 257
3 257 533 274
3 340 217 533
3 533 217 274
3 54 304 417
3 417 304 202
3 54 179 304
3 304 179 202
