# vtk DataFile Version 3.0
A great-looking cell
ASCII
DATASET POLYDATA
POINTS 686 double
233.0762418190779 78.68234629031613 77.93140221772401
235.23749139638088 77.70744471019015 77.64448659161667
235.75642870476122 78.6889454870118 75.30110868077185
237.0373534209166 76.89496439578197 76.0405968455665
231.35243373834788 79.84083728771492 78.2834072731793
230.88225899507475 81.556996045619 77.04946071272306
234.20915576659849 80.51273366166157 74.97639281992838
236.39630850559945 80.4638102135799 73.45671630343189
238.1108824752624 78.08259817276412 73.86896567847481
230.79409916168726 83.71376742796755 76.28017299422781
234.79342035651604 83.08659230441546 73.96661494994541
237.39144431710778 82.85191889984978 72.2941597853483
239.2673952989829 80.35124507761545 72.21046948078893
239.78715637009938 82.92691551733701 71.65303913229481
241.99755640786375 81.64718999857358 71.20990613238308
241.65205120051831 84.64105014979789 71.68957652811207
231.2651141792611 85.92477128654424 76.28028878568095
234.43240542610135 85.78246539742065 74.2755991726258
236.5332292280672 85.26523257369398 73.26458269840623
238.96794673420217 85.07174337997424 72.31733059454875
243.66522948346676 86.36547650998473 73.45794981934122
234.19841035725406 87.57575163829159 74.57409206495332
235.87933287238897 87.34223236493442 74.13271281822563
238.07480248650523 87.27315206443278 73.35556287277723
239.60134492584694 89.20901331653522 74.19631253935688
240.70268150091493 87.01753647739217 72.99536059345562
233.26397978850588 88.66697176068348 75.44914609616099
235.04942697014374 88.94086965118389 75.03820832106636
237.1171696443293 89.05878838561857 74.69073123166774
235.70123205054782 76.25467584609422 79.92790113920535
232.38625527980764 77.31170959638172 81.06961276967294
237.82500113347933 75.04161354907721 79.24800265850256
236.63015625661652 75.99745030613165 77.86439779943794
230.41863847385423 79.56448200795812 80.09196798996436
231.95744295494003 78.47462538839291 79.61954034232835
238.4291786016715 75.50778802959944 77.0665745240447
238.88429114637944 76.42612363307128 75.28705218134401
240.3947120457278 75.19453741915916 75.904915288698
228.8450930983007 82.55344389103935 79.72071393759174
229.7342075626333 81.09223705819507 78.88060182868055
243.47321677668197 76.76243930852348 73.43735522703899
240.63272046092453 76.76256468866355 73.80246994260631
246.60259974887205 76.14450362545843 75.01698404636727
244.64299799050954 80.252818650101 72.1807313985422
228.94587521757762 84.39330808680957 79.50415654115785
229.90346545065387 83.07708926100966 78.23255342726179
247.78302329443017 79.63707487470035 74.59454117262432
244.31958655295924 83.39549783742002 72.30228637510042
247.54476688159102 83.34759781540029 75.89735453486283
228.8832579322653 86.40054075174527 78.9859260678665
230.03732420299409 85.12473548558765 77.84452836202837
246.4105432706043 85.98836934804838 76.72580751075276
228.75430842642837 88.40384901606228 78.60073251085903
230.09484668202663 87.21725762824792 77.54369830674928
244.35825944918267 88.02063436882706 75.81375343070873
242.05078876523444 88.4214222865547 74.74820802408877
228.81851519317846 90.61003858404621 78.87113321998201
230.20873162323826 89.37445795947608 77.42158634901685
231.52859361849468 88.07475059917083 76.23500347199756
241.01846826650277 90.25375770440696 76.32318145821527
228.9035140353086 92.6662266931564 78.18739604784696
230.47842699447256 91.50311208584496 77.61136075454034
232.14057279967543 90.3378421300064 76.38161307576098
233.9901834147031 90.19710611981755 75.56491943241332
235.87347270392607 90.74755898943258 75.92520522537887
238.33362460759508 90.44030413386857 76.0495955326195
237.1739445670655 91.88204075944799 77.29645789788441
241.13413188989887 91.11230486284872 78.75956487871018
227.40331699989142 95.69084950923691 78.5190064808462
228.9394286336104 94.59243111802346 77.95026129118433
230.44990227055172 93.51722013723325 77.38041711236208
232.1406786982273 92.5191156260066 77.04539027010696
235.53406932476454 92.83731517709649 76.66473825001702
236.63476084933333 93.44514636133398 77.72037073083719
237.97867067311412 93.08341461817032 78.45774743641768
230.54583319315148 95.3988115342792 77.50912745859938
232.0486123020945 94.45600888496651 77.09470129258214
235.40473011408127 94.77690318874153 77.54367157150563
230.940831025905 97.00712019861749 78.26627822581452
232.0128565855376 96.04024945370278 77.49253800460639
232.9873329606162 97.20913239522315 78.47785087320383
234.57085365695522 96.22411645877399 78.3713280964732
234.82880460709058 97.4465496865701 79.51815629603065
236.05786841828 96.05058325691195 78.98701066342488
233.32908451898618 98.78316611095578 80.04692228205387
234.92200118302347 75.34179722524975 82.22894460332279
239.2295451243523 74.17130070687284 80.82368735520964
239.05234934616303 74.0074439140422 83.26221957692215
230.7491014461821 77.0180288333398 82.46755782846604
240.2036635445402 74.33481314148679 78.45250764032475
230.96120698260154 78.17234282013426 80.94156032546782
229.5139146279191 78.76519480238765 81.70143732024796
242.53930181727017 74.25199355724843 76.81720818064267
228.9261218494827 80.96944900343188 81.07321419537547
228.69908352260035 79.98998941488199 83.13802545295604
228.07773197981632 81.66698828319188 82.74248075403678
227.95073806967503 83.46727585542475 81.54283205743003
249.13190550229174 78.95699861546233 77.9309207685998
248.95651706137716 83.41595382178194 80.87515573992538
248.91719698707416 81.09317601204351 76.58073211574681
227.29104384981392 85.40981612006865 82.11574688787898
247.70065027788212 85.36575765620567 81.79505492043259
247.50756115924503 85.26797639217138 79.15226512509497
227.841627116961 85.6959992429445 80.55503419406118
227.32497910918943 87.07011756065386 81.76169059671902
245.72747830293113 88.30269971826434 78.09693630389619
246.6081000219075 87.5221842723226 80.48102131941214
228.0823674145961 87.63270944738905 80.21177867886594
227.35690338958304 88.90786670460167 81.3244580045784
227.91695405895825 89.26633181665514 79.82848419157814
243.30918323924035 89.77234688743007 77.84247462402467
227.13295542172037 90.84476028133308 80.49363458110636
226.7008125032051 92.95136248833315 80.37715845806117
227.7584821862906 92.15484262929486 79.31371835539323
239.24633814519308 91.68450086413324 77.6927024677408
244.76850044342234 89.55980527530984 80.11515354813876
242.74915818480864 90.7448675927784 80.14933122938521
243.68028203639363 90.49845862415847 81.93046392336312
242.40729855613017 91.3211086420307 83.24679765748579
242.3303298579341 91.48438653831579 81.64502618870952
227.654110410155 93.8174250827644 79.04903659974612
226.12243640526464 94.8041414339095 79.83259820570403
238.28612537365487 94.19046620386469 79.50736933495291
241.30293277275698 92.06853888035077 80.59659524505733
240.30351739109972 93.23419546430385 81.3104656516481
240.03538296313837 93.82116634437553 82.96343543982726
238.84926989409442 94.46718927015402 81.2233879005871
230.96630816663594 100.22943833798705 82.54406300361376
233.04635037316476 99.38404420218147 82.03396492190473
231.79681915122637 99.66018283107358 80.73385622057982
235.0211230590192 98.42806256788629 81.48088392536643
236.65514153244192 97.66275055297223 82.08462447801492
237.7796089936906 96.37282822411004 81.72870320329967
239.04076911545144 95.67577703593383 83.20319653189998
229.81292304874577 99.83823192156267 80.36038026792286
234.37387335306883 99.15073460852484 83.20438186068999
235.84154603130568 98.30279355124276 83.35482879583247
237.47836429645412 97.1738596599443 83.6135131307496
233.56100018029406 74.03740595241028 84.25062719048913
231.2967171900978 73.49792104922318 85.27092711586681
229.08092250569274 74.47884309400385 85.2443865466825
240.7636607949357 73.49338502996585 85.68934298127613
229.64466670450994 76.29681058681399 84.03219342948758
228.07384146417238 76.80958480414186 84.97891967496895
229.1854519393913 78.01573594114545 83.57450437593687
248.11870775022254 74.49255649801201 84.73620708657012
247.0775413638235 74.33558845875214 82.42129048348717
228.03583682243345 79.02344745779193 84.84378885704436
248.53269564543598 75.67954749688741 81.18577167346147
227.64183558088865 81.19668712514736 84.57425540157242
227.08549341996005 83.27776731730941 85.11035215133786
227.17135533659953 82.70314577803659 83.38492838986049
249.95444844222348 79.35708158181248 81.39212215628443
250.80864383153997 78.65139276436653 83.81431636375676
249.41457015110848 83.2184448234187 86.4957266913211
249.43011708734699 82.68291756892236 83.51760521705998
226.46217762292622 85.53027593652622 85.40393402616144
226.96301961564595 84.4457434269437 83.45586193920865
247.8562004379662 85.09318208227893 86.82054010662462
247.9502332290798 84.83726339291779 84.34510778705861
226.84214616877034 86.42282856634282 83.43180301239921
246.75360801058795 87.11311072208959 83.29141733404956
246.9918126099397 86.92308161523091 85.83416792900576
226.54800077357146 87.72837274012406 84.89286989372727
226.92986173816232 88.35525525369293 83.079442900787
245.40756390313837 89.09759200500113 82.4444340004566
226.63993211129306 90.24521536272248 82.53268495044149
226.51055866335113 89.71292445602616 84.45404457497214
226.13125431844017 91.6004504921475 83.89217931789868
245.725247274205 88.84098626807503 84.85606908641483
244.1902979792885 90.05021194863085 86.26258895567454
226.24927017756823 92.15208866011798 82.06416895876114
224.87258921892763 92.99902996466562 83.26000902293477
225.3927647096095 93.96715251088276 81.58550149255227
223.961345683885 95.07709966751352 83.12585469191374
242.59770694183845 91.3403905283793 85.2753606261748
226.07843130300287 99.71634655631831 81.4142623151998
241.38060398504203 92.81098901805163 86.41784129827116
239.8410998191148 94.64818840370977 85.35511809032315
228.76071026615827 100.41268613399455 82.27626743556615
229.49047042793086 101.13092482858765 83.89856678983436
230.95904977756078 100.67819921847995 84.43784759462612
236.25546302387897 98.1172507788549 86.27290861858665
236.50159190506372 98.1394741154964 84.74208518264504
238.71407743784076 96.35267467343608 86.33073067407497
232.97966724753545 72.16838583052322 86.65502311317019
237.96479593149974 73.92385090786182 86.14173167346642
231.63695343734898 70.96968731660694 88.41916340451566
227.6994636821801 73.0490790812332 88.97088930906273
238.03697294916864 73.16464130536251 88.75819604704252
240.9788821200645 73.3268361580857 88.77888953455127
229.94125017839173 72.47885010568328 87.06620176252527
227.04082726913057 75.39240752378782 87.04207701019975
245.04522264466016 72.59010612223305 86.5882961926771
243.503686423584 71.95978752382642 92.18684763604266
247.40919392023554 72.39756470931775 93.90042987773329
246.67685279086461 72.28339164817869 88.35578530781115
226.20214104885815 77.42006632616464 88.30810645707223
226.79329454485259 78.08650891848306 86.36178640591018
251.29234913096533 75.88461988542848 88.64213398977265
227.39546148852634 79.97542009894764 86.1632406864394
226.82452670647854 79.8139680761403 88.19105480421415
226.82421932757572 82.35341140656695 88.77977517319836
251.4975617616131 80.51737732068246 88.27746657431611
251.46450399498556 78.881862777972 93.63394728927172
250.53079559343445 82.18285812768828 91.46493094134559
250.28020540788057 82.47944990270504 88.96933514666418
227.16787901057035 81.76734090287357 86.67486185600625
226.6131372102562 83.89822533566776 87.11988962866312
248.58590599031433 83.85557426576594 91.74917845834133
248.3472944990033 84.19745641619562 89.0828183302508
226.3103293650445 85.89890095811003 87.54315370766298
247.0879514919486 86.60105458013567 88.35559484826237
247.37766606489748 86.14264530852945 90.89840628946169
226.42246422990934 87.65908022677517 87.997465759401
226.35743405827762 87.19668226921341 86.47439426426996
245.9218815131802 88.68160563216223 87.35288367776224
226.4789116528412 89.14109097101795 86.56133243578032
245.97258697560991 88.52543343581434 90.14978474375245
244.2344710165693 89.98980250636838 88.6475649079509
226.0467423853325 91.14638350220798 85.7399319932081
225.06018300221274 92.35038435730164 86.76727338876381
224.99848727073228 92.54042382186266 85.03478018337648
242.60839498644413 91.22441693804392 89.56257357324135
224.05722752985676 93.74980505863358 84.51785041433399
223.9844221940185 93.5186330273433 86.06414730631714
223.47699016573577 95.12340305607827 85.32410824847047
223.3572076918785 96.92033557172086 84.46614228127959
225.83739677415085 100.60826416709958 82.8853442380987
226.85189686246497 103.25580023315116 84.61977948639048
228.22509570875394 104.12241090548329 85.8749397923912
228.60991078553653 102.4213149406984 84.98763067791919
230.2377690201992 101.79805071829281 85.42131740196135
234.76214407285678 98.79715541513896 87.16953067800131
235.41021740887095 71.8419313041172 88.48342770078
231.60600952938296 69.9142753019294 92.43921096065516
235.58086376522436 70.64235805465069 93.55320460973313
237.92937384285227 72.7598310903471 91.58937958465698
227.6754215819693 72.54605736801194 94.07937914982837
226.42337433968788 74.19086736614614 92.35498465250643
234.13536796596043 70.6818778604608 97.45743623949141
237.08077829801886 72.30898335263831 94.41637967201436
239.26601124783727 73.96852339462305 93.93593811177861
240.82937114599625 73.40363880561986 91.62114267582746
241.9828866740936 73.36488285141155 94.41534782032377
244.7843162438005 72.38627858256835 95.12049349358786
226.09237567407942 75.43102796073738 89.96796290541619
225.8378714646969 76.79112941053167 92.6318207282686
243.1595706871783 73.92501986102647 97.29498324446823
245.71420391608876 75.33565923253964 98.09465663101714
226.1293546929073 78.33553198372948 90.38113511587572
226.7444714120819 83.10909039030308 90.83023519770637
247.71515479885227 80.36484742164329 97.66529287797186
226.61952884531712 84.82326566481252 91.07956800137188
248.3223154464331 83.44768068822182 94.37426685091077
226.55289869805847 84.68723203903181 89.26005987440213
226.4670762167895 86.25711807363679 90.47028864414301
246.62673250765025 85.40818996584312 95.53450351669711
247.18675299092487 85.48824856326559 93.2407484384077
226.42740215825728 86.46995219092746 88.99736901702623
226.41487128052268 87.83696414244476 89.71887003626962
245.45828494326983 87.8298481196898 95.33675507502636
246.18232003607216 87.66871277081447 92.7412256880944
226.44741283887913 89.40024123532946 88.6967526627591
226.12390050467275 91.17996385565208 89.64769545632855
244.5216287587129 89.30202975456035 93.28127677053139
242.4486941551769 90.78764695796968 93.05428404624378
243.9291699355495 90.0450840321775 91.11211437533751
226.07877479162156 91.04421410382197 87.65792904031926
225.06416164970423 92.48255348197873 88.57399470002767
224.22991929775318 93.3835631323433 87.54153416628516
224.11036985776147 94.12758335507053 88.98133664166562
242.31950671682281 91.29115494550062 91.22937355470883
223.5653163300392 94.81848400995125 87.24194454614327
222.9426491895144 96.89487132059035 86.66338323855456
223.13063955043808 100.02114690580395 85.1711039267063
222.77470204111506 103.70833358606698 85.83806712007618
228.07274568426232 106.49336446444073 90.95349870699482
231.39611099880807 103.60973420133858 91.26457281694992
229.4901873299474 104.27835581676703 87.45077209349279
237.51583880921424 97.29865041885593 88.65143962913137
232.14860584507807 72.97524050158103 99.00142386801522
237.9916230093318 74.21900709000542 96.17494162515024
240.43070026028744 74.70937443674099 96.28688103247995
226.33278947317447 75.11819982634682 95.2059493828117
228.56848079254428 74.81114612578169 98.83442247468939
233.28193292407025 76.86204940160012 98.96953270804232
236.42339907879793 75.10319545834965 97.95146492417769
238.6696668993627 76.57287262088074 97.33455071204148
241.55301051382494 76.30936162088761 98.49565570322413
226.4511784443296 79.48027118732838 92.68910567435745
227.17050712292334 80.72890511816877 94.74840485430548
233.70689340365095 78.8890796534545 98.86250860353395
237.28263394428862 78.62225143593905 98.75393382886944
240.2999297066549 79.07105182475345 97.97438688804364
242.92007273355355 80.1314465424291 98.9571410121065
244.12082674216998 77.63280584665307 98.97917198191439
245.44588847575224 81.47152917861929 99.0054774025154
247.20192860956718 83.27794513630505 97.14165697609947
226.96292554417806 81.893688709545 92.66358606781172
227.0298454918429 83.17101492419826 94.59280115034917
244.84490784344834 84.26007594500999 98.06566071805563
226.66333633853515 84.06574548659205 92.61032342861387
227.20394037211958 85.44306810955969 94.11120588025479
243.60328077380012 88.04711277303167 97.90220360560501
226.6153503028792 85.98294337550162 92.23213050291538
227.24645788883402 87.49239348159401 93.3684254017411
226.61336764988863 87.74268968637865 91.51173197839799
226.57906766510638 89.46832191552798 90.62037919413876
226.89775508999762 89.38068083257363 92.5583709805583
238.59716608500761 89.46725892971152 97.29556683247525
243.15200041727067 89.5940044119507 95.37238454887702
240.95113603658265 90.63863245041006 94.89330988624539
239.13852069444982 91.68374131754618 94.63614114104242
226.4988524115561 91.22358718066248 91.65838441132624
226.30382190793418 92.93852731198722 92.96190356680623
240.4902844868042 91.92631287242962 93.29098848480382
225.11307707418638 93.02137081564211 90.81172666507612
224.78141373269824 94.58147270676776 92.77973026284482
239.11870024418766 92.86974010411572 93.42745156142074
224.17647307500616 97.07763355414731 96.30322161963821
220.9214260967244 100.36395104148352 92.47317074570985
240.00615061817024 93.6150931706086 91.83134933495572
221.5971160906501 99.60530606835411 94.69454809128777
231.32659153027822 99.90596612256853 95.76502745483495
221.23134716998425 105.21957053605172 90.58435590534539
225.60320516789525 102.39391736602705 97.08039428770542
230.85919576439312 101.40030109302751 94.61438072470628
232.99823831522576 99.40358573922245 92.62722479379259
232.19599811454344 101.13399310582123 93.02006642802874
236.4113081094899 97.51145885535257 89.98350348441951
227.53474106051152 79.61466039505338 97.13368282647409
233.14934048388707 80.94204320433498 98.81042852485791
243.25285187526853 82.63563378980349 98.47415179763738
228.22825341901554 82.13801104730753 96.4727897955796
235.39041654410923 80.77666471049136 98.67073226337669
236.29979499620418 83.47114763473739 97.9025474564414
238.2068095719584 81.35947245840305 98.09021528466947
239.04932987925943 84.1914532850997 97.77792087223882
240.9878101865858 82.1010133011183 98.14398464503772
242.08375950222072 85.24261504978023 98.37370189892107
228.3306351570675 84.62991780483804 95.98876509102288
230.0491758134539 83.61733976729307 97.74011291899522
233.56265576698846 83.10870565704982 98.37266637615343
234.65812484453514 85.5336378254758 98.11108989568532
237.10194567754772 85.99599781628072 97.95982549088461
241.00726045367404 89.15225696338702 96.91921165941933
228.25549334061625 87.17225410375002 95.44851229229504
229.7722682079265 86.12198597680036 97.08355551520619
237.4498325725343 87.9874118335805 97.72735479445207
236.85139140249117 72.74440794790662 87.26706576743362
239.54522325539142 87.05009932049038 97.59469978956147
236.71215338746254 71.57558794424628 92.691110784871
227.7772422923336 89.22993007988006 94.405367135483
228.8988320705643 89.08943366039995 95.7479723394929
239.44094783939286 73.58888908459622 87.35928703179458
239.39465471225154 73.50522779658368 90.20393332321906
233.19094715517858 71.66214075507916 98.52023113789494
235.5628671122888 87.71966662081496 98.00600315121943
228.41921784338737 71.77782768404708 90.25797502564305
232.54447369635767 70.13046319908993 96.75921079289179
226.7407487838765 73.63139314509348 90.6575239787444
236.41927050811017 89.65551178869177 97.51764932152422
226.95880216219294 74.87910582569224 97.34013111945534
228.20401877663963 73.61630984567344 86.90374072446933
228.44492941082353 71.52687375839821 92.73442919104852
231.23221420123392 69.9168610107822 94.36006571339135
227.64682546617976 72.3784413070778 91.49152491973689
231.99329242299174 70.784348413627 98.20420240480786
244.1783556272886 86.0358915328631 98.55378612112179
228.98113504433974 71.64409704220427 95.88648287429247
245.9299461536055 84.75023804043359 96.91351097489472
227.65820975746777 73.24262263890483 96.78496597799364
233.42725119686048 70.98359429678702 88.22357904504557
229.45838326978136 71.23050548487798 89.2303415486065
245.63550319869688 86.3004779374532 97.43951134865361
241.53332746213763 87.42445466770222 97.84958096796032
234.41012337616598 72.53641161414474 98.82557967002191
227.33486766111093 91.12624435258162 93.56682690434899
227.4867979682086 92.87290701430467 94.71944603064796
245.64793940815483 73.81441261931079 80.53933443982241
245.9788366390559 73.51972014451088 84.55314422257413
247.61291040471173 84.51886159791987 77.44796217894302
242.27095670698287 73.58062851949575 78.9923255262773
245.7001699107436 74.78166689882455 76.80197788215992
246.0096255626658 84.80069294581419 74.16825447636019
246.44732478705458 71.8559378800503 91.12021202803717
246.59452225160317 86.71883844424569 94.27164667173578
250.79890017329853 75.98566890106858 86.72698617684395
237.83982325285072 93.01671188417556 94.41341729266024
244.8724112341845 73.25963192052184 82.58471952810932
243.30866841205165 73.25936119789802 82.70943645513903
247.52511399972667 75.8025549864145 77.19229765184984
249.55715928447992 79.20033822393873 79.64168972762079
242.31609121512244 72.75136061218129 90.43697304770842
242.2329866255705 75.33630932462376 74.80524940311325
245.18564885403805 76.20628155559156 73.89749171308478
235.46949955268764 70.90784567756182 95.59862995796779
250.71561988981355 81.92384941433792 87.2820222367922
244.34338567477448 73.9981379733097 78.47863122826593
226.07248618182228 95.93281738345556 96.32063006959679
227.57757315464895 94.54537608446503 95.88490204047041
251.85182000332082 79.97567124376361 90.91164185489491
241.98161311829793 78.85315146894784 72.43117713903277
249.80443347818942 81.46577462902528 81.65247221171826
235.37827645831297 92.2632475743978 95.68393246381532
236.248118073125 93.36020269169798 95.07848312520208
240.2292327953153 73.74792138204054 81.8783432396764
231.80300925490712 83.54539511247982 98.18570055633468
248.66481705879815 73.18071050876434 89.47706623701748
250.10363475456126 80.59935983632126 83.19085711170301
249.33867054587353 77.49309623327821 79.90292950122121
235.30770776413408 77.15007178374401 98.68472870254351
231.8781320014269 77.82179855555735 98.96223598102372
248.92897796688038 79.29147916321493 76.11550609803943
231.39976966236995 75.58474461889526 99.0222330597576
227.80973430027618 97.0408462877074 97.27582043156183
231.00944279864544 70.3941054987829 90.26036690559853
246.52179741552 74.65690536110276 78.72029981694676
235.36149158836352 73.73423051948392 98.37531118358186
229.41427425975004 81.00746871054051 98.51815240047902
226.8678650431573 76.86722492332089 97.576843356565
229.94783454977394 96.9852884647408 97.36787964108574
242.82568930362538 72.90954241897127 86.94436437973111
221.62339309444184 105.55443054334921 92.44608683146521
248.20780451121917 75.69883723880046 79.16840133831684
248.16276809027462 73.04639422708765 87.79990747724408
231.17064430030652 75.17728824823334 83.93626861679927
234.0163657808177 96.32065282701124 94.45730667995828
235.5705127592855 72.92460424766631 85.9935300208631
234.1020464835176 79.06902950631999 76.4077550349663
248.6348279364147 83.24144734253814 78.15011558579171
237.1910148866451 74.86201482896902 81.57479716517354
248.77602976000944 75.46712313218492 83.07307072879519
244.3103636906236 75.23335339852076 75.24926965913654
243.4764272489528 73.09052317642366 84.53443356382299
226.29043019919735 104.87892803186702 85.951013899149
243.31228158757833 73.40953302753195 80.94095973682194
222.73171179397482 107.24483672172582 93.22697955326058
243.9120056558789 72.20914825600772 89.15720971048417
222.35790838358878 99.1491978952397 86.77997607774172
227.52638894107446 101.46682153613185 96.70361319476058
221.8755582574568 103.60846870066595 95.47480702127042
246.7479673944183 81.96804490389539 73.50177114362933
241.36471201288998 92.0589756493813 91.98820315438152
229.11406093174568 98.58129698497376 97.29961336492583
231.7892213049598 96.98676235977058 96.82170853942574
233.8553953720982 76.3662001155068 80.98809276512459
222.01395366083528 106.29338651149784 89.09182525105211
229.6049146849008 71.93876880698674 98.36071353499229
247.38692327432582 73.05141571170078 86.38566630733342
230.8269489442643 98.6950065254027 96.91003505157524
232.91029423966918 96.70872996390548 95.41168603958016
220.62552865753443 104.25689121095628 91.85441258079562
224.18430137239392 105.37092409262085 86.27787489417257
232.36006737885802 98.46115760260952 95.7491458654225
223.2720013896156 107.74938707355227 89.59333292838835
225.7436466392412 106.31290052048173 87.52298373905754
233.42235093007244 97.95137227749748 94.03828476609985
234.96806154476553 96.76230559890391 93.34171464085681
223.28211484646408 106.83006174947407 95.1251580595186
226.30841264636643 106.63847859252593 94.60509539306388
223.47001392129673 101.96605683879797 84.68347942222059
222.2015754100564 105.44395746824772 94.33849145484658
222.31264122027443 105.2186049040914 87.30431139412751
226.3572281669625 107.28542359479825 90.69832967112777
222.20279120128455 107.03535175620415 91.09350995608638
238.336312978309 94.30502298266332 93.19794037878752
220.87484022769377 102.38565194511003 88.51781600422169
224.8021012647056 103.61380885152124 85.07393497797631
248.2517463057805 77.68909414604379 76.06863914782288
227.41122144263076 103.73202638167587 96.93725433591256
223.4696817611361 105.02908339525939 95.80105574498542
232.42195149767943 82.17119800607483 75.30613908229122
221.89365221840296 98.22004373937837 92.67751686023504
250.50888475588775 74.46332705561129 91.10765577260025
238.62205685545726 96.32267925388558 84.78498969431104
229.4850994127591 100.30464901926653 96.23466726267749
237.6286198006355 97.38899953475382 85.47132421399263
236.1745281699994 72.53912145879299 97.2251923287925
225.1784879946774 107.50511834998909 89.26086927820528
234.39107063173896 98.18791752121841 92.31410329299872
226.87571865248185 105.63681108225347 95.98581771981321
220.70306687177566 101.27959162273152 90.40419028074179
225.00562429789647 106.29160552960582 95.66395342600018
239.36459033939582 95.16018924689368 88.79168983190377
221.02108417999756 103.9775819213099 93.51914682051932
240.3444784653417 93.84629349098992 89.60898025918384
231.4314460772481 98.61936485272979 79.27386708273352
231.5456731487974 82.08645378618965 98.77240525887512
226.67783497497467 106.96034636174167 92.70658843004375
248.82192590329552 76.9794133462579 77.94393956775168
233.22582021254297 69.95995230630542 94.87870311582112
230.40071177180604 73.80837465926851 98.94278943361493
233.33267229061246 70.43621589378856 90.11724894126787
237.62486235308057 97.47270870888343 87.1460688946531
249.61184096063423 77.12008782971229 82.35471635604945
250.34798716566542 77.32990930663942 95.2584983889921
226.56903862886242 98.8462251617652 79.8217618754752
225.68121948348693 100.3036143209637 96.78416559197608
223.80386504267088 98.71782423188962 84.00996916095177
229.08786426606588 105.6717772691534 89.1664905652121
228.56349149560262 105.94709636889341 92.66939651592777
224.19486356878866 101.30304378767016 96.59329148747152
251.65541234061956 77.99588046330194 86.54707227502712
231.18056708339108 87.77510041423739 97.5554483167601
233.36967306968538 87.54117108929317 97.81574195415496
248.45959047495873 84.04456465460073 82.63095771528046
243.6230650321005 75.43258219878796 99.00558816435567
228.52589051591997 104.75418488441889 95.59140006348115
222.53228359250343 101.45545747773397 95.80823294916306
223.21996817254276 98.35059390051083 85.45791331822876
229.5252179601114 88.05607278180278 96.73045296275157
223.57068585572313 99.2965010068299 96.43072990775792
229.13061546771203 96.50753479377228 78.04006111301842
220.92930892955428 104.5199120488059 88.68365242967646
232.48506154999828 89.37098457397131 97.07267134794184
223.69504144574017 106.69115895080186 87.96310212780756
234.39256802739752 89.35955946556837 97.40247918921922
230.50838421219188 103.05789682620144 94.48646553443118
245.28125654133964 73.34962782783406 97.1490103305709
225.28962073760547 98.03877459406873 81.09594554648541
221.90448391839038 101.54209789522727 86.48212182749755
248.2809169414075 73.82220888152293 94.92942484765202
237.36492640750623 91.62808981911677 96.22267475217348
222.9365809330697 97.58432456925034 94.6968612866633
224.2733712789508 95.68441872007 94.74558328470155
227.18851945007614 106.84215995707063 89.03812435503805
222.72856798088532 97.20861563315599 90.72524034705559
232.7196568555216 75.75940969266935 82.38974186108972
247.43639401836404 75.46742347191211 96.95683259194226
227.90459433501562 105.93230843334102 94.30387095066337
251.10330191535706 75.89915577612264 93.71169784224384
239.36429622858708 95.34014487008409 87.22908362395718
235.10722932310426 90.97970047412079 96.61795727105134
230.99792831583855 102.48120126588348 87.32829420208293
227.717270840484 100.05657772473364 80.76026747142869
250.87151446310227 80.93199216637711 85.49824343371225
242.73641547342305 91.33518816194 87.44734787280686
248.59382788472294 81.55456049810287 95.82042242528803
247.02835046050424 73.77904872759717 96.2157187461598
242.17880063242606 78.28214398109365 98.76654868470419
251.34886320465472 81.47892386473573 89.8991996679233
246.18829286728734 78.93841460771894 98.99705794269805
251.91183076257107 78.28687434461641 89.09717847594113
224.83021144562147 99.18827863148343 82.58764423130198
251.88714192343022 77.11230563831548 91.22310637603846
249.57137173559187 79.23368845539066 95.94524372504671
229.5856144797725 103.10627197740065 86.13176442123992
228.78885452260647 91.04884470229192 95.26111351724803
227.44730939945842 101.32853036744496 83.69165928574839
235.86614150660148 71.01549696638384 91.18472902033521
221.66027964989445 103.49880718918924 87.30129896382996
229.4967506065402 77.96230500308694 98.72205830158588
246.1929402227255 77.13814168013722 99.02335310829969
241.62333555785423 73.62763088161657 82.81228291116912
227.1747850793204 100.3748003841122 82.22887407352695
229.55427613622808 70.70189627846547 93.89505898505708
232.78273301132563 99.99681961161032 84.21568713949182
223.76125067626646 103.06675436521519 96.39424240978182
248.14030957672574 81.62450380064183 74.89633704991303
234.55531195887414 93.6871858716799 95.53991680062123
229.8187123970127 104.57578206031702 93.84380437668617
239.3771735121595 94.94491402671385 90.37540321070993
239.68426705208896 92.955672581412 79.56626221796954
233.72154317449792 99.15176987102826 90.96405815500187
226.28505509790656 78.1824070143991 95.08795197630182
245.2825385888534 86.44925751211119 74.91262842069547
244.65934724491348 79.53176577365822 98.99914508375484
238.40993556302058 95.33332173565735 91.63517817886947
238.3061911210497 96.3710352004548 89.8888481183134
231.53072786104036 100.6350600830009 86.00572104442682
232.05017432671963 102.12564594656784 91.6938161665296
231.8798916187685 101.93116819157555 89.73473377669349
240.37428770354643 94.14205685245817 87.65670377621801
249.6089892764804 81.01638359925204 79.39432102910823
241.2050195500134 92.37641444851612 82.34934288875536
229.33137819541977 70.92911955678017 91.45312438711461
241.34490876088188 92.81000281503856 84.25241562894135
229.06910274197887 95.04630134390705 97.11690609408693
224.46941133667005 108.0588216039071 91.53444649016221
250.1013867918871 76.14900466979668 84.82238782716843
251.44933754221458 80.8260226985522 92.63180097914407
249.57091368544332 82.89112795909969 92.96139918587964
224.3915690281192 100.4088529776285 83.88342226062261
230.83234464803013 95.61898483615047 96.85403511923846
245.97272008360656 77.91093306990267 73.15602393363167
230.76913097734567 70.14464192595625 96.20646961411227
250.17483553663016 74.2697629662322 89.03992098750098
234.0191678757885 69.95928374402494 92.39072862368286
235.87309794629414 97.26033916709021 91.8446541632272
232.2140952754771 95.34745248504936 96.13874981829275
235.42555182122638 78.86140677973683 98.90803100700813
233.61557922040305 95.15843100009144 95.21955655368407
245.34155878324026 89.09396775256988 91.85765525498974
233.4681231898322 99.43417005434803 88.02786627800045
249.51434573246422 73.80698682523294 93.7109052885966
233.21910994576552 99.65687116524605 86.38336762438614
236.19969841798135 97.9879967350957 88.07331734361362
235.45602241576788 95.25022131443134 94.65338418982192
234.864025225033 98.97364715978445 85.0497393492256
249.47809603816 77.29284788090379 96.43911380993524
248.53190900123087 73.10349636043418 91.86225322352924
232.08079300209775 85.30279945227551 97.69048106098792
244.27512188409224 74.23949722504118 76.70909734182729
237.20010038142345 96.50397169846315 91.28823325471464
235.02481398629217 98.19942180009366 90.8711127539297
236.9503429726687 94.36301247881934 94.0655938388384
247.2474464253138 74.76082855951645 80.39200550908616
231.31274059352964 102.99949458793742 93.15723593504812
230.5812307201794 103.9438965879545 89.3476521483635
238.5982891938966 96.4348450977534 88.01879127042933
246.64224596925084 86.81133282071085 78.592625822668
232.86402380424857 99.89002210766543 89.51675282019963
232.20538963092955 100.58384887422906 87.85426034748669
236.91870920529493 95.90726894351562 93.04259956495223
242.77739821730705 89.28552285826537 76.06985218568686
229.04441932213626 93.2169754382858 95.87585260951828
224.02961031628516 97.3722641075474 82.57060866044439
224.80105561057158 95.98795272257365 81.07523167363833
225.9529960664078 96.89685130131707 79.46830958426297
232.4972783543516 100.54919637004616 91.25478201745099
222.1729437769559 98.02927177451569 88.65751117425299
225.67334941183043 98.10644190168074 97.39834663246917
221.002871605893 101.90179726529739 94.2081887104103
241.45932118928357 92.63237608618442 88.52469466338269
236.8912561306641 76.88881052367424 98.09917561672809
237.2487654201682 94.74651664017728 78.377424021522
227.82317218574923 105.65823059467458 87.29125094505078
230.84117441801874 104.3126076810271 92.47673403157226
236.96142943751394 71.97496432797621 89.94523248958043
221.49672683563597 99.15510590210859 90.56332024497867
234.6775587858502 98.78501595423941 89.2348727940366
233.52802161241848 90.5715481354086 96.62420379736376
248.94730832813707 75.54522335938077 95.6701750683425
234.10129008186559 74.84187731571282 99.00282045547095
227.46982363305233 95.44642411893854 97.03021104573403
246.54657584748458 79.9227759516734 73.01011843289089
241.41302612686812 92.50379486502803 90.46823457688538
230.547912123193 91.92422112989901 95.92177084688544
221.3527775995128 100.18873653923241 88.502627847499
223.76058538521715 95.15266412158273 90.83288960202606
247.84006219042016 77.36599923133501 97.56876186371981
227.6965985593617 97.67318864080849 78.70664428819443
226.79651044139095 80.81534080722622 90.5918843005013
226.13891913370497 94.49489994135601 94.51558828284384
224.83912034884784 107.83484771980034 94.09927389620951
232.0119254772178 92.52757011744049 96.02173084812084
244.05429699326433 78.27663646717643 72.36537559838786
239.41138693635483 90.51906553985609 95.99497749186204
231.51844177095225 79.79506043262278 98.96256279692295
233.6327206485648 91.99612125398161 95.66304086295682
223.25328226774798 96.06023520818229 88.84772795827553
236.34672349496637 96.96161518551695 80.60832899531017
233.68145677593628 77.43288275485577 79.50924410949521
245.54708732015436 71.87921312338175 93.1220011985691
232.10279896141677 90.93097786940947 96.02700683123872
220.48884147206428 103.39601835433884 90.34327524305496
220.74051270401392 102.52805111856713 92.13904124265746
236.3758071053184 74.20844946673121 83.91853408965278
229.54312420167358 98.24805351419361 78.83872569179223
237.65123143483643 95.67465416790041 79.9338081887774
230.39409213968074 89.86896619299579 96.6564967683168
239.83406043449224 78.18060453709546 72.46416920255953
233.46224090999291 95.39317359070961 77.66113168771965
230.90125497435204 93.96882108238094 96.05845274674331
225.48187631677558 101.82813741153632 84.21273632907995
223.20602860763262 96.27239951543565 92.77404487514963
233.74620004118 93.62625928845422 77.0430532712882
232.79124738106464 93.77689862025059 95.65062582201425
229.2191771629408 102.78190710938647 95.56273693741005
241.12274305776353 73.7135426232998 80.64045609699531
225.2774993819998 104.51249864240474 96.74766878016968
233.89848618588908 91.72299278052854 76.40844853672985
232.25394645024235 99.75147277405057 94.33168889238735
228.24508153978633 99.07987266112158 79.53282629484922
243.9134911864917 90.08056226108262 84.00213094648507
229.76150702833536 104.94102787412218 91.3890589358944
232.80557980838947 86.79128192554927 75.17210331436945
249.437857306691 83.1821782355505 90.31570747113744
250.33080313834262 81.53185847914776 94.10537094079207
247.3612806543889 77.75387655290274 74.53484378783199
232.4616963891175 84.59964029828606 74.7277070061415
227.52956501835328 99.25906558011073 96.74765352993288
232.57411919242014 80.20832784286965 76.552310679564
249.3899849658661 74.44854694599348 87.17719637516734
POLYGONS 1368 5472
3 684 4 5
3 473 684 5
3 473 5 9
3 13 12 11
3 14 12 13
3 15 14 13
3 682 473 9
3 682 9 16
3 678 682 16
3 20 15 25
3 26 21 678
3 27 22 21
3 27 21 26
3 28 23 22
3 28 22 27
3 24 23 28
3 32 35 31
3 32 31 29
3 34 90 33
3 3 32 1
3 3 35 32
3 36 35 3
3 37 35 36
3 39 93 38
3 4 39 5
3 4 0 34
3 41 37 36
3 45 39 38
3 45 38 44
3 45 5 39
3 5 45 9
3 14 15 47
3 50 45 44
3 50 44 49
3 50 9 45
3 9 50 16
3 15 20 47
3 53 50 49
3 53 49 52
3 53 16 50
3 16 53 58
3 16 58 678
3 55 54 20
3 57 53 52
3 57 52 56
3 58 53 57
3 58 57 62
3 26 678 58
3 26 58 62
3 26 62 63
3 26 63 27
3 27 63 64
3 27 64 28
3 65 28 64
3 59 24 65
3 24 28 65
3 24 59 55
3 61 57 56
3 61 56 60
3 62 57 61
3 62 61 71
3 66 65 64
3 66 64 72
3 69 120 68
3 71 61 70
3 71 70 76
3 73 66 72
3 73 72 77
3 73 74 66
3 76 70 75
3 76 75 79
3 79 75 78
3 81 664 80
3 81 80 82
3 83 81 82
3 488 84 80
3 488 80 78
3 84 82 80
3 130 82 84
3 126 661 132
3 85 138 529
3 659 138 85
3 87 432 86
3 90 88 91
3 90 91 33
3 90 30 88
3 93 94 95
3 96 93 95
3 38 93 96
3 38 96 44
3 44 96 103
3 44 103 49
3 96 100 103
3 51 54 105
3 102 101 98
3 104 103 100
3 49 103 107
3 49 107 52
3 103 104 107
3 115 106 105
3 105 54 110
3 105 110 115
3 101 102 106
3 108 107 104
3 52 107 109
3 52 109 56
3 107 108 109
3 65 114 59
3 113 111 112
3 108 111 109
3 111 113 56
3 111 56 109
3 56 113 60
3 65 66 114
3 117 115 116
3 110 116 115
3 110 67 116
3 67 123 116
3 118 117 119
3 116 119 117
3 116 123 119
3 120 113 112
3 120 112 121
3 120 121 68
3 120 60 113
3 620 68 121
3 74 627 122
3 126 125 124
3 84 488 129
3 128 84 129
3 84 128 130
3 653 131 132
3 133 132 137
3 127 129 134
3 135 130 128
3 136 131 130
3 136 130 135
3 137 132 131
3 137 131 136
3 427 139 140
3 185 139 138
3 143 142 140
3 88 142 144
3 88 144 91
3 142 143 144
3 144 143 147
3 91 144 94
3 151 149 150
3 147 149 94
3 149 151 95
3 149 95 94
3 95 151 96
3 156 157 150
3 96 157 100
3 159 158 154
3 159 154 155
3 156 160 157
3 100 157 160
3 100 160 104
3 161 169 162
3 106 115 165
3 161 106 165
3 161 165 169
3 158 159 162
3 161 162 159
3 161 159 101
3 101 106 161
3 163 164 160
3 163 160 156
3 104 160 164
3 104 164 108
3 166 167 168
3 111 171 112
3 163 167 164
3 108 166 111
3 170 169 676
3 165 676 169
3 165 115 117
3 165 117 676
3 676 117 118
3 172 171 168
3 112 171 173
3 112 173 121
3 171 172 173
3 172 174 173
3 121 619 620
3 119 576 118
3 125 126 133
3 133 137 476
3 135 600 136
3 478 183 182
3 136 600 183
3 136 183 137
3 184 476 478
3 139 191 140
3 185 191 139
3 140 192 143
3 192 246 197
3 143 198 147
3 188 246 192
3 149 207 150
3 197 201 198
3 147 200 149
3 255 208 202
3 207 202 208
3 150 207 208
3 150 208 156
3 154 210 206
3 154 158 210
3 211 208 255
3 156 208 211
3 212 218 213
3 162 169 216
3 212 162 216
3 212 216 218
3 209 210 213
3 212 213 210
3 212 210 158
3 158 162 212
3 214 215 211
3 156 211 215
3 156 215 163
3 167 220 168
3 214 217 215
3 163 217 167
3 267 218 219
3 216 219 218
3 216 169 170
3 216 170 219
3 221 220 268
3 168 220 222
3 168 222 172
3 220 221 222
3 219 223 267
3 224 225 226
3 221 225 222
3 172 224 174
3 170 175 538
3 227 174 226
3 619 174 618
3 174 227 618
3 230 231 229
3 180 231 232
3 180 232 181
3 280 495 598
3 185 429 234
3 242 241 237
3 237 243 242
3 243 244 242
3 244 243 194
3 244 194 245
3 246 247 250
3 246 250 197
3 248 244 245
3 201 644 202
3 201 197 250
3 201 250 644
3 202 644 251
3 202 251 255
3 251 253 255
3 256 255 253
3 211 255 259
3 255 256 259
3 213 218 262
3 258 213 262
3 258 254 209
3 209 213 258
3 260 259 256
3 211 259 214
3 214 259 260
3 265 261 262
3 263 308 264
3 214 263 217
3 266 265 267
3 269 268 264
3 268 269 221
3 267 272 266
3 225 273 226
3 221 270 225
3 223 272 267
3 226 273 274
3 226 274 227
3 247 290 250
3 282 288 287
3 282 283 288
3 283 289 288
3 291 290 566
3 290 291 299
3 297 252 298
3 300 299 291
3 251 299 302
3 251 302 253
3 299 300 302
3 301 297 298
3 298 254 257
3 303 302 300
3 253 302 305
3 253 305 256
3 302 303 305
3 306 305 303
3 256 305 307
3 256 307 260
3 305 306 307
3 346 310 351
3 308 309 314
3 308 314 264
3 306 309 307
3 312 346 311
3 311 266 312
3 264 314 317
3 264 317 269
3 314 315 317
3 316 319 313
3 316 313 312
3 266 316 312
3 318 317 315
3 271 269 317
3 322 319 316
3 324 674 327
3 324 327 477
3 328 329 674
3 481 565 328
3 650 292 332
3 292 335 332
3 335 293 337
3 293 294 337
3 294 339 337
3 294 295 339
3 295 333 339
3 295 297 333
3 291 334 300
3 335 337 336
3 337 338 336
3 337 339 338
3 339 340 338
3 339 333 340
3 300 334 341
3 300 341 303
3 332 335 343
3 332 343 489
3 343 335 336
3 345 344 336
3 336 344 343
3 336 338 345
3 338 351 345
3 338 340 351
3 348 347 341
3 303 341 347
3 303 347 306
3 341 342 348
3 603 348 342
3 345 351 349
3 345 349 358
3 349 351 310
3 353 354 549
3 309 378 314
3 306 353 309
3 524 362 310
3 379 378 549
3 313 389 524
3 524 406 405
3 524 389 406
3 683 416 445
3 446 451 422
3 445 416 422
3 445 422 451
3 452 455 446
3 451 446 455
3 455 674 324
3 455 324 451
3 455 452 458
3 477 445 451
3 477 451 324
3 458 459 481
3 328 458 481
3 481 459 590
3 345 358 344
3 348 512 347
3 348 603 505
3 344 358 506
3 354 347 512
3 512 662 354
3 516 505 506
3 506 358 518
3 506 518 516
3 518 358 362
3 518 362 534
3 534 362 524
3 354 662 549
3 524 405 534
3 639 617 549
3 379 549 617
3 379 617 401
3 561 669 651
3 534 405 651
3 561 651 405
3 313 319 389
3 665 617 639
3 669 561 593
3 591 669 593
3 593 428 452
3 593 452 591
3 406 599 561
3 593 561 599
3 428 593 599
3 599 406 607
3 406 389 607
3 422 585 446
3 446 585 591
3 446 591 452
3 428 599 459
3 599 607 615
3 459 599 615
3 615 607 467
3 518 534 633
3 0 4 684
3 23 24 25
3 19 23 25
3 25 15 19
3 30 90 34
3 34 654 30
3 33 93 39
3 4 34 33
3 33 39 4
3 14 47 43
3 25 24 55
3 55 20 25
3 60 120 69
3 70 61 60
3 60 69 70
3 79 78 80
3 80 664 79
3 93 33 91
3 91 94 93
3 122 564 74
3 427 140 142
3 142 88 427
3 144 147 94
3 151 150 157
3 157 96 151
3 166 168 171
3 171 111 166
3 166 108 164
3 164 167 166
3 619 121 173
3 173 174 619
3 185 187 191
3 186 87 141
3 192 197 198
3 198 143 192
3 207 149 200
3 200 147 198
3 198 201 200
3 217 268 220
3 220 167 217
3 217 163 215
3 224 226 174
3 224 172 222
3 222 225 224
3 239 247 246
3 257 254 258
3 263 264 268
3 268 217 263
3 263 214 260
3 260 308 263
3 270 271 273
3 273 225 270
3 270 221 269
3 269 271 270
3 241 242 282
3 242 244 283
3 283 282 242
3 248 289 283
3 283 244 248
3 294 293 288
3 288 289 294
3 308 260 307
3 307 309 308
3 301 340 333
3 333 297 301
3 342 341 334
3 353 549 378
3 378 309 353
3 353 306 347
3 347 354 353
3 505 662 512
3 512 348 505
3 603 344 506
3 506 505 603
3 561 405 406
3 467 607 389
3 662 505 516
3 534 651 633
3 549 662 639
3 647 651 669
3 7 2 6
3 17 10 682
3 682 10 473
3 17 18 10
3 18 11 10
3 18 19 11
3 19 13 11
3 19 15 13
3 21 17 678
3 678 17 682
3 21 22 17
3 22 18 17
3 22 23 18
3 23 19 18
3 71 673 62
3 673 63 62
3 72 64 673
3 673 64 63
3 514 75 69
3 75 70 69
3 76 668 71
3 668 673 71
3 77 72 668
3 668 72 673
3 78 75 514
3 79 664 76
3 664 668 76
3 81 77 664
3 664 77 668
3 311 261 265
3 662 516 656
3 518 633 516
3 633 656 516
3 647 639 656
3 656 639 662
3 651 656 633
3 651 647 656
3 647 665 639
3 669 665 647
3 3 1 2
3 8 3 2
3 2 7 8
3 3 8 36
3 41 36 8
3 524 649 313
3 346 312 649
3 649 312 313
3 12 8 7
3 7 11 12
3 37 92 89
3 89 35 37
3 452 428 458
3 428 459 458
3 585 579 665
3 579 585 422
3 422 416 579
3 585 665 591
3 591 665 669
3 432 31 86
3 299 644 290
3 290 644 250
3 299 251 644
3 378 379 315
3 315 314 378
3 266 311 265
3 201 202 207
3 207 200 201
3 362 358 349
3 349 310 362
3 659 85 432
3 304 261 311
3 311 346 304
3 310 346 649
3 649 524 310
3 564 122 126
3 122 661 126
3 1 32 29
3 29 654 1
3 659 186 429
3 114 564 67
3 34 0 654
3 654 0 1
3 68 514 69
3 68 643 514
3 77 83 627
3 671 86 89
3 133 126 132
3 627 661 122
3 132 661 653
3 653 661 83
3 83 661 627
3 131 653 130
3 73 627 74
3 73 77 627
3 81 83 77
3 35 89 31
3 89 86 31
3 130 653 82
3 82 653 83
3 565 621 328
3 328 621 329
3 606 632 565
3 548 535 232
3 600 233 182
3 597 614 595
3 279 610 535
3 535 610 573
3 632 595 613
3 558 181 571
3 280 598 330
3 598 632 330
3 610 278 573
3 279 548 230
3 279 535 548
3 632 613 565
3 573 572 621
3 572 329 621
3 571 597 558
3 597 595 233
3 614 613 595
3 614 573 613
3 233 595 632
3 597 571 614
3 614 571 535
3 182 495 478
3 182 598 495
3 565 613 621
3 613 573 621
3 674 329 327
3 329 609 327
3 233 598 182
3 600 135 558
3 558 135 128
3 127 128 129
3 232 231 548
3 548 231 230
3 632 598 233
3 600 558 597
3 329 572 609
3 606 565 481
3 597 233 600
3 127 558 128
3 330 632 606
3 183 600 182
3 178 125 133
3 219 538 223
3 219 170 538
3 535 573 614
3 278 610 677
3 574 177 178
3 66 74 114
3 74 564 114
3 332 489 650
3 609 572 278
3 278 572 573
3 343 344 603
3 232 571 181
3 232 535 571
3 180 181 127
3 181 558 127
3 327 670 477
3 271 652 273
3 271 641 652
3 317 641 271
3 317 318 641
3 379 645 315
3 641 318 667
3 400 645 401
3 401 645 379
3 641 667 528
3 320 526 400
3 526 667 318
3 441 477 670
3 641 528 652
3 652 528 622
3 645 400 526
3 631 622 528
3 458 674 455
3 458 328 674
3 622 440 274
3 276 522 552
3 562 519 609
3 609 519 327
3 562 670 519
3 519 670 327
3 273 652 274
3 652 622 274
3 320 513 525
3 525 513 323
3 274 511 227
3 274 440 511
3 511 440 275
3 562 509 670
3 320 525 526
3 526 525 667
3 441 471 326
3 326 503 499
3 501 527 277
3 230 628 279
3 457 527 628
3 445 477 683
3 683 477 441
3 400 623 320
3 683 499 623
3 441 499 683
3 441 326 499
3 683 623 416
3 416 623 400
3 511 275 500
3 500 227 511
3 227 500 618
3 640 622 631
3 640 440 622
3 677 502 562
3 278 629 609
3 609 629 562
3 278 677 629
3 629 677 562
3 279 501 610
3 610 501 677
3 501 277 677
3 277 502 677
3 401 636 400
3 400 636 416
3 401 579 636
3 636 579 416
3 579 617 665
3 579 401 617
3 315 645 318
3 645 526 318
3 605 330 590
3 330 606 590
3 590 606 481
3 280 611 495
3 611 280 570
3 569 605 615
3 615 605 590
3 322 569 467
3 459 615 590
3 570 569 563
3 325 515 657
3 326 559 503
3 605 570 330
3 513 510 323
3 184 611 533
3 533 178 184
3 563 485 570
3 570 485 611
3 320 623 513
3 513 623 499
3 277 490 502
3 490 580 646
3 325 453 424
3 325 657 453
3 453 657 658
3 638 487 322
3 322 487 563
3 487 485 563
3 624 486 658
3 531 502 490
3 611 485 533
3 438 424 463
3 658 483 321
3 658 657 483
3 509 482 471
3 471 482 672
3 509 531 482
3 476 137 478
3 478 137 183
3 178 476 184
3 178 133 476
3 471 672 326
3 672 559 326
3 528 474 631
3 631 474 321
3 323 474 525
3 323 624 321
3 321 624 658
3 672 472 559
3 559 472 442
3 484 672 482
3 323 510 624
3 472 672 484
3 569 615 467
3 611 184 495
3 495 184 478
3 670 471 441
3 670 509 471
3 483 468 640
3 468 515 552
3 277 465 490
3 490 465 580
3 465 480 580
3 517 464 448
3 464 276 552
3 502 531 562
3 562 531 509
3 424 486 463
3 463 486 442
3 472 463 442
3 275 522 462
3 462 522 276
3 646 461 490
3 490 461 531
3 646 484 461
3 463 460 438
3 438 460 646
3 460 484 646
3 522 640 468
3 468 552 522
3 517 480 457
3 457 480 527
3 448 464 515
3 515 464 552
3 499 503 513
3 513 503 510
3 484 460 472
3 472 460 463
3 480 456 580
3 448 466 456
3 456 466 580
3 457 454 517
3 454 469 276
3 658 486 453
3 453 486 424
3 321 483 631
3 483 640 631
3 325 448 515
3 325 466 448
3 480 465 527
3 527 465 277
3 316 444 322
3 272 638 444
3 389 319 467
3 467 319 322
3 624 442 486
3 624 510 442
3 550 228 666
3 640 522 440
3 440 522 275
3 515 468 657
3 657 468 483
3 323 321 474
3 448 456 517
3 517 456 480
3 517 454 464
3 464 454 276
3 580 438 646
3 580 466 438
3 229 436 230
3 457 628 436
3 436 628 230
3 550 666 229
3 666 469 229
3 531 461 482
3 482 461 484
3 178 533 574
3 574 533 485
3 625 177 574
3 469 436 229
3 279 628 501
3 501 628 527
3 570 605 569
3 569 322 563
3 330 570 280
3 525 474 667
3 667 474 528
3 87 555 141
3 30 447 529
3 30 654 447
3 447 654 29
3 186 659 87
3 659 432 87
3 29 432 85
3 29 31 432
3 88 529 427
3 88 30 529
3 10 6 473
3 473 6 684
3 11 7 10
3 7 6 10
3 2 430 6
3 0 684 430
3 430 684 6
3 185 138 429
3 429 138 659
3 138 427 529
3 138 139 427
3 529 447 85
3 85 447 29
3 666 462 469
3 469 462 276
3 457 436 454
3 454 436 469
3 625 487 638
3 625 638 223
3 223 638 272
3 438 466 424
3 424 466 325
3 290 247 566
3 566 247 284
3 287 479 282
3 479 241 282
3 566 331 291
3 331 334 291
3 566 421 331
3 285 553 421
3 421 553 331
3 331 420 334
3 420 650 489
3 553 650 420
3 420 331 553
3 334 420 342
3 342 420 489
3 285 415 553
3 635 286 415
3 0 430 1
3 1 430 2
3 650 413 292
3 292 413 286
3 650 553 413
3 286 412 292
3 286 635 412
3 412 635 287
3 415 286 413
3 413 553 415
3 284 421 566
3 238 284 239
3 239 284 247
3 635 415 281
3 343 408 489
3 489 408 342
3 343 603 408
3 408 603 342
3 292 592 335
3 335 592 293
3 292 412 592
3 592 412 293
3 118 175 676
3 676 175 170
3 538 625 223
3 538 177 625
3 578 177 175
3 118 578 175
3 118 576 578
3 175 177 538
3 125 178 578
3 124 576 123
3 124 125 576
3 123 576 119
3 485 487 574
3 574 487 625
3 177 578 178
3 126 124 564
3 564 124 123
3 272 444 266
3 266 444 316
3 322 444 638
3 442 510 559
3 559 510 503
3 578 576 125
3 67 564 123
3 275 584 500
3 275 462 584
3 584 462 666
3 127 179 180
3 127 134 179
3 231 550 229
3 180 179 550
3 550 231 180
3 550 179 556
3 556 228 550
3 500 545 618
3 545 500 584
3 545 228 176
3 129 488 134
3 619 521 620
3 619 618 521
3 176 521 545
3 545 521 618
3 498 176 536
3 620 643 68
3 620 498 643
3 498 675 643
3 134 660 675
3 675 660 643
3 643 660 514
3 514 660 78
3 545 584 228
3 228 584 666
3 78 660 488
3 488 660 134
3 134 675 536
3 536 675 498
3 228 556 176
3 176 556 536
3 134 536 179
3 179 536 556
3 620 521 498
3 498 521 176
3 114 67 59
3 59 67 110
3 102 612 106
3 106 612 105
3 102 51 612
3 612 51 105
3 48 385 51
3 47 20 385
3 99 575 97
3 154 537 155
3 98 507 155
3 155 507 159
3 98 101 507
3 507 101 159
3 153 496 152
3 153 581 496
3 145 381 146
3 193 450 196
3 193 381 450
3 450 381 145
3 145 581 685
3 504 581 153
3 443 43 47
3 193 196 439
3 380 390 437
3 141 555 435
3 148 433 146
3 146 433 145
3 433 581 145
3 141 423 190
3 193 439 423
3 423 439 190
3 194 439 386
3 386 439 196
3 450 145 685
3 97 414 99
3 99 414 46
3 97 470 414
3 414 470 46
3 148 425 411
3 671 407 86
3 86 407 87
3 671 555 407
3 407 555 87
3 555 671 437
3 203 504 537
3 537 504 153
3 435 193 423
3 423 141 435
3 155 404 98
3 152 575 404
3 404 575 98
3 152 410 153
3 155 537 410
3 410 537 153
3 496 148 411
3 411 152 496
3 380 608 146
3 425 148 608
3 608 148 146
3 404 155 410
3 410 152 404
3 41 403 40
3 403 14 43
3 203 398 206
3 206 398 154
3 203 537 398
3 398 537 154
3 97 491 470
3 97 411 491
3 491 411 425
3 42 396 586
3 586 396 40
3 42 434 396
3 396 434 40
3 37 395 92
3 40 434 395
3 395 434 92
3 190 394 243
3 243 394 194
3 190 439 394
3 394 439 194
3 152 393 575
3 575 393 97
3 152 411 393
3 393 411 97
3 418 425 608
3 608 380 418
3 470 392 42
3 425 418 392
3 555 391 435
3 435 391 390
3 555 437 391
3 391 437 390
3 146 390 380
3 146 381 390
3 685 426 450
3 450 426 196
3 685 409 426
3 426 409 196
3 504 388 581
3 581 388 685
3 504 199 388
3 388 199 685
3 581 433 496
3 496 433 148
3 98 431 102
3 99 48 431
3 586 681 42
3 42 681 470
3 586 46 681
3 681 46 470
3 196 409 386
3 48 443 385
3 385 443 47
3 99 431 575
3 575 431 98
3 46 560 99
3 99 560 48
3 46 443 560
3 560 443 48
3 40 395 41
3 41 395 37
3 42 384 434
3 418 399 384
3 671 383 437
3 92 399 383
3 383 399 437
3 586 637 46
3 46 637 443
3 586 43 637
3 637 43 443
3 102 382 51
3 51 382 48
3 102 431 382
3 382 431 48
3 51 567 54
3 54 567 20
3 51 385 567
3 567 385 20
3 435 381 193
3 435 390 381
3 399 380 437
3 399 418 380
3 392 418 384
3 384 42 392
3 434 604 92
3 92 604 399
3 434 384 604
3 604 384 399
3 92 383 89
3 89 383 671
3 425 392 491
3 491 392 470
3 205 679 209
3 209 679 210
3 205 206 679
3 679 206 210
3 235 557 577
3 240 397 479
3 236 241 397
3 397 241 479
3 281 377 635
3 240 479 377
3 340 376 351
3 351 376 346
3 340 304 376
3 376 304 346
3 257 261 375
3 375 261 304
3 14 403 12
3 551 494 234
3 187 374 191
3 191 374 188
3 234 373 185
3 185 373 187
3 234 494 373
3 373 494 187
3 238 372 284
3 372 449 285
3 494 589 235
3 236 492 589
3 589 492 235
3 285 493 415
3 415 493 281
3 285 449 493
3 493 449 281
3 577 417 235
3 577 374 417
3 417 374 187
3 235 417 494
3 494 417 187
3 587 370 557
3 557 370 238
3 587 449 370
3 301 369 340
3 340 369 304
3 301 375 369
3 369 375 304
3 367 238 239
3 235 366 557
3 557 366 587
3 235 492 366
3 366 492 587
3 281 449 368
3 368 449 587
3 238 365 557
3 557 365 577
3 238 367 365
3 365 367 577
3 236 397 492
3 492 397 240
3 191 364 140
3 140 364 192
3 191 188 364
3 364 188 192
3 284 363 421
3 421 363 285
3 284 372 363
3 363 372 285
3 188 361 246
3 246 361 239
3 188 367 361
3 361 367 239
3 240 360 492
3 492 360 587
3 240 368 360
3 360 368 587
3 577 359 374
3 374 359 188
3 577 367 359
3 359 367 188
3 372 238 370
3 370 449 372
3 236 589 551
3 551 589 494
3 189 356 237
3 237 356 243
3 189 190 356
3 356 190 243
3 635 419 287
3 287 419 479
3 635 377 419
3 419 377 479
3 281 357 377
3 377 357 240
3 281 368 357
3 357 368 240
3 261 387 262
3 262 387 258
3 261 257 387
3 387 257 258
3 257 371 298
3 298 371 301
3 257 375 371
3 371 375 301
3 186 355 189
3 189 355 190
3 186 141 355
3 355 141 190
3 236 352 241
3 241 352 237
3 236 551 352
3 352 551 237
3 189 350 186
3 186 350 429
3 189 234 350
3 350 234 429
3 551 630 237
3 237 630 189
3 551 234 630
3 630 234 189
3 267 594 218
3 218 594 262
3 267 265 594
3 594 265 262
3 293 626 288
3 288 626 287
3 293 412 626
3 626 412 287
3 12 663 8
3 8 663 41
3 12 403 663
3 663 403 41
3 194 655 245
3 245 655 195
3 194 386 655
3 655 386 195
3 40 648 586
3 586 648 43
3 40 403 648
3 648 403 43
3 252 539 298
3 298 539 254
3 539 680 254
3 475 602 409
3 195 386 602
3 602 386 409
3 195 602 596
3 596 602 475
3 409 588 475
3 475 588 199
3 409 685 588
3 588 685 199
3 205 582 402
3 402 582 204
3 205 680 582
3 582 680 204
3 642 547 252
3 204 546 402
3 475 199 546
3 402 544 203
3 402 546 544
3 544 546 199
3 642 252 543
3 543 252 297
3 206 542 203
3 203 542 402
3 206 205 542
3 542 205 402
3 195 540 245
3 475 546 532
3 532 546 204
3 249 530 642
3 642 530 634
3 249 540 530
3 530 540 634
3 547 204 680
3 596 475 532
3 532 634 596
3 634 523 596
3 596 523 195
3 634 540 523
3 523 540 195
3 245 520 248
3 248 520 249
3 245 540 520
3 520 540 249
3 248 508 289
3 289 508 296
3 248 249 508
3 508 249 296
3 547 497 204
3 634 532 497
3 497 532 204
3 203 544 504
3 504 544 199
3 254 583 209
3 209 583 205
3 254 680 583
3 583 680 205
3 252 547 539
3 539 547 680
3 59 616 55
3 55 616 54
3 59 110 616
3 616 110 54
3 634 601 642
3 642 601 547
3 634 497 601
3 601 497 547
3 296 568 295
3 295 568 297
3 296 543 568
3 568 543 297
3 642 554 249
3 249 554 296
3 642 543 554
3 554 543 296
3 289 541 294
3 294 541 295
3 289 296 541
3 541 296 295
