# vtk DataFile Version 3.0
A great-looking cell
ASCII
DATASET POLYDATA
POINTS 294 double
230.48357145281875 172.16304666116247 53.722245899385946
229.63123493915836 172.7995037766121 55.63736384303859
232.24961924356197 173.56030311464806 52.58898275468276
228.93827164133856 171.1407141055108 54.580705877752635
233.2060789897232 171.5742738375721 51.1786703550966
238.75886844684197 171.4685958459136 49.798585869691244
232.8471683510217 175.05332337988895 55.022211812054366
231.04962681312227 173.77796040132324 54.57826441635142
230.6559630829687 174.64111644242556 56.38048198794387
228.06203529477003 171.50467782045655 56.40111230851292
227.34701297492296 171.09572623748804 58.40451082543414
239.24845652621124 175.14885985494462 58.82475569384414
235.16482762875413 176.63827937637183 59.17853526963556
237.00195281090762 175.80697934628 57.3153956259522
232.2966002491453 175.480050425831 57.166359105242115
230.8104545141402 175.3447059296089 58.56069255472112
227.21811868433397 172.3456172747688 61.94161078203034
226.70114691064043 170.2007263571961 60.626478398399094
231.77098796866008 162.75985214272288 60.63293097057068
243.16674375089497 166.00763256569766 58.73339101330085
227.3932375155484 172.25454364962593 59.9128073267207
236.98818097398484 176.2564259620539 64.73654441835498
235.6488247872882 176.64092974952177 61.192625276550864
233.6513665206832 176.7567014678175 60.96705565132697
229.62976102253361 174.8154392090564 60.45421076368238
228.6072388151504 173.5590973374919 58.16647283036954
227.38302720742467 172.50394487026392 64.5689486361336
226.67459408297145 170.53294391776444 65.23531014255926
237.0198670724737 161.95342021043498 66.0017082038092
232.6802418918551 176.19395572548368 65.06001617932036
232.2052076594995 176.32285136771029 62.704281373744465
230.5383987533708 175.51610570045054 64.09223668683627
230.39784431205635 175.6006513511488 62.10627633351493
228.54166548853138 174.46578561135973 62.7411094301865
228.17448032235018 173.57625931010236 60.62557913685142
226.99393208521732 170.52799700514498 68.84035163513774
226.94883609972814 168.16077448312217 68.7291403511998
239.56373973625264 162.97335651858003 67.98527679259648
230.82346043688642 175.40911791796827 66.48173060596558
228.94357028168966 174.36715523604238 65.38047792137851
227.0574586340792 171.5438082432359 66.7779966742324
229.0824190042271 173.93606120923002 70.11432455638055
229.12885498006716 174.3118409470528 67.69885615690072
227.8081187330617 172.66922440110577 68.4971691646033
227.98465140120175 173.13895804554957 66.59178426781082
232.14394355749272 171.86623114769185 75.04011708669749
230.12898896834602 163.8847001074463 71.50922215414279
244.51255556380227 169.0053302473555 68.1505415336486
229.18038367021813 167.5439366992346 54.26499535012159
228.61259598791537 164.7014857526734 69.82712023665272
227.64435630440627 166.7242345154715 70.51108062846727
230.6929804562173 169.64834964760496 51.77166294053699
232.82551735956764 167.01427996082236 51.50166983209965
232.74747198023408 164.16589700910134 54.70101447875176
228.6418685720633 164.22034904459719 65.14376308619124
227.66680237028174 165.47472493232303 66.3554008349759
230.03349106285683 163.64785595958006 60.59322657064203
234.73259702204305 165.5121059798454 75.54331216196181
230.32468109244448 165.68705214942884 73.16252097318424
227.63155062153123 166.03108233051967 68.26303557379909
239.17097532999 163.23456872276293 58.44903508902029
241.5399020705308 168.4904204084452 51.078311470129535
233.8464677834031 162.84373121587555 71.96236912522689
243.04585476778436 165.96356552556364 65.65673044326945
244.81350303539455 166.97927427412358 59.34738409438157
232.97953610134087 168.53370602757587 50.970693512168246
241.22945456313573 164.2102756042512 67.88052869085148
237.4681734603388 162.70310037690373 71.2295488724026
238.47969235731273 162.77044912096497 69.75525469412288
241.821086420285 166.89550161996883 52.937305527692935
246.1285067166348 167.439619837975 64.05754655440028
244.2104694370169 172.3181353692408 58.903890371152244
244.75178072774713 170.89039972690904 63.08635130891017
236.86333350870623 164.32510907941827 53.980903244271595
239.15324252105734 167.71522631478146 49.94687356279749
245.29243445496982 168.34010304655718 57.722725681843585
240.32417734860314 163.7990666263308 69.81870318578753
244.81716624175831 171.2031169125085 60.82376962397778
243.800995272251 170.9054089025805 69.67874035524123
238.8770941427135 164.7737309827484 53.6685376666079
243.3118427295357 170.56457894115823 71.67782334736252
239.6878346792086 164.6103676336795 55.42404415957136
237.47764865284876 165.44106215435195 52.31939121108899
237.70375834931266 162.65164077872018 60.02030959392571
239.28511261457643 173.23128541740704 51.449405634487015
234.33412208079707 166.36844818370406 51.86723868573826
235.28944043278537 164.98571535247592 52.663205863844084
241.7945020318736 164.9893554810135 57.86068677825075
230.1487516879239 169.2594452925953 75.72812393875724
240.81597274053925 165.51024810366 54.02451152393845
235.72704066878063 162.58579880081345 71.70855239848989
234.76357000124003 176.67888406240638 63.33220990279278
239.00651878089582 167.30604682890458 75.0079480671308
227.66201565755537 168.1746134197522 57.45254759868918
231.73294500187347 168.03343480976918 76.20556451722452
242.11548203720966 165.15622364258078 69.65037285880129
237.81127771691635 174.42462371473914 72.3272538585136
244.6137623714776 169.83274394856315 55.9639412287461
242.70109004694945 165.5988994211638 67.61085164877773
231.8286718346711 170.26347688568538 76.04504793699535
244.65104503349033 169.96097788998932 66.25334135823
242.82352866381558 168.71173141336058 72.88683734625666
238.680684441399 162.5356702638173 66.49705892014732
245.78032100935116 169.26046077371407 62.33230669760153
240.92369482891715 174.34836817454237 57.783199585029685
238.59659762704393 162.4963159537299 64.65820757917659
240.9304404012254 174.36057783650395 66.24722761193287
237.95070019838678 172.89651183623315 74.52785309259193
243.5035950937072 166.0324654373206 60.8434515782158
239.04866680189517 163.56648934842778 71.6425259690721
232.11749783790606 162.61813921725408 70.802886755293
244.17246895220373 166.90580463665847 57.68711334061522
238.28492095787902 162.4424842115812 62.34750846093355
242.95459833909266 166.1199176720321 56.81058192002716
238.82344287214084 165.36956250215835 73.3293297960532
236.50006220627537 162.1653601882051 69.75416624697826
227.95710197742326 170.81382527765868 73.05244169309294
227.7017604867885 166.2699928780572 60.71777680826465
243.64828285498768 168.77779063795018 70.54478772828216
235.2092798654068 161.85819662779775 67.62474786818906
231.6076340842822 175.8277004737038 60.613752620562394
245.14221239633682 169.58108314371376 64.48118999939479
237.9053378414127 169.4935680618214 49.34445461376833
243.1641994242313 173.1321241573871 60.43995764021901
229.8862873317943 171.421922625207 74.86801112356882
238.81795076503596 175.16016451913973 65.60894553978565
244.09564557437182 172.2206815753522 56.7426369319453
240.47924760189088 163.32999946280157 65.88307231544427
235.5252742939 175.3415591452489 71.66567407559256
233.35548668912807 175.15558581735806 73.08814178938647
237.44503462955277 168.55526303769966 76.471112375675
245.22010577664904 170.61078786053437 58.28863074643973
244.20268099191927 167.5296670961899 55.95064338252478
233.43541148323956 175.92984889150353 70.30804485246455
240.74150690186383 163.99440842867895 58.766708079040235
230.42086871532942 163.31544923752463 69.05081703055248
237.22620584500405 175.46557345684354 69.79110728054717
240.6500856983039 171.03997432530778 51.123578537236135
242.46289898343844 173.64995912002067 64.51745706132647
236.00135796356278 161.92415786902242 61.60440232700596
237.70953410701011 175.0420146896151 55.046521507140895
234.96189978023557 176.34141849854547 66.07858503705114
237.14672023264484 175.92821874521908 67.145074739517
235.19980670420122 176.09183175011927 68.52054722379954
235.80603057121058 174.49983903634643 74.15488877344568
239.70300159740324 174.12928182659076 70.43313217760438
238.6200104712914 175.6439963051261 63.6698860796175
239.434052699004 174.84297652884428 56.40510250189972
229.19526296011074 173.06921780769795 72.63208494818927
241.41313606167986 173.7561266518641 68.54962494982695
227.4749699168814 166.14537383433014 62.41545097654333
237.36341849903218 176.17891575240148 60.06287166065312
235.5387522276953 175.56604765558305 54.92233460708618
242.7694784676981 172.98113133014925 66.7800263587637
239.89580320965658 169.6846064058165 49.72693639898021
243.5987936563507 168.61468822392047 53.52604935742786
232.3382599368236 162.15312011320458 62.22365923670494
235.2238659642682 161.78345926339918 65.3496927851218
232.2500500399326 163.8023772398443 73.2234288203635
243.88919538012107 166.02020536476928 63.41693050447799
226.71800523208324 169.43900737219843 66.82318654244041
234.34546774491102 175.03784398646067 52.96208904491747
236.84793174496255 164.93984266551217 74.48598106593438
243.65668036599646 172.5783199448406 62.69488634206298
230.69365518619503 163.0055716217205 62.30985846033294
233.72671131726716 171.22106267276504 75.95134432263555
235.68928607681602 169.44985664287975 49.203580400801314
229.655717625595 166.61881543556797 55.689783939756076
233.68388733623905 169.06653263740975 75.84313444609987
244.04090056110908 171.28024011352312 67.47558760878806
228.78841084787425 165.50939758783116 71.72170943577582
234.94009583627806 163.0656069135069 57.0468186337759
241.36661789800817 174.5478174863698 59.81509570943641
235.29040153861618 167.73520200253517 76.43945973571273
229.86570658848842 164.41789725923294 58.916952944303716
236.03346118699696 166.29113747459397 51.18807472862439
233.7473432140575 162.18594432208295 60.94251038224521
241.38131393045478 172.51861918120613 52.96982476385307
241.82882093856784 171.03677305600866 73.26765014264714
232.90392057089235 176.23082463959747 58.875983831069284
242.05259209869342 164.58238674169047 62.08064949959031
233.46161933441863 167.1237373696533 76.2543517545077
236.57284248810024 161.8666043867471 63.88626996552769
226.93316872857932 167.25789387024184 66.54239060482777
230.68293798999775 162.8945947981598 66.2774583625267
237.58740568491444 162.33274847026044 67.9399524974968
241.4828469124741 165.12263012436816 55.94627317422617
237.23687240049517 163.56383185039837 72.87449364725276
230.9197672847619 166.85122952144752 54.16588157349238
241.80027123962373 173.5455662872583 55.68274885891921
229.90715709933224 167.3072171489113 74.9294508402827
240.13453103819595 163.3803613166538 60.66655825546235
235.77864155679072 172.43244323888257 75.89893946479087
239.22307100758647 169.38525136877723 75.82979176297498
230.03137655181902 163.3119621902568 64.03256329620199
242.05881619500238 172.47958578837506 70.85442413174148
244.11892129747383 166.9602523665239 67.05800227189484
240.3142202104196 174.60274489152502 63.955505299223184
236.69414136496079 163.73538598446024 55.89396325154956
232.9006621326583 165.63973959331338 53.42825799348125
234.32366705081856 162.29166360513852 70.04177731890647
231.49117323708032 173.370685845764 73.81889030420302
232.07847975957432 165.72548726291996 75.19394785550689
227.20285126929127 169.2108293558956 71.2124948420993
229.81066903879994 165.39432796585416 57.258409843328344
239.91113520932058 165.97471488636177 51.734891954284386
242.72907115883504 166.37166676714838 54.72756129189941
231.13943694824366 163.459406887179 59.249074206883634
239.40386155708018 175.17227881636137 61.56352057250525
239.83493140018643 171.19616318053122 74.82824212995118
231.29232850208786 166.79325296647355 52.40188982254608
233.20415816948653 161.86724809389588 65.83484428839822
242.56691410566228 166.76313499231378 71.33436258857716
242.7083417927263 173.52178961122246 58.20747023608492
234.60637322460062 164.08086942290544 54.787120498708724
227.18540196259036 169.06997221078922 58.708023862279745
228.49599078043104 166.8257089296969 57.248023828768666
232.95151147488062 162.7952275986081 58.637907359461195
242.97016167150508 172.4230865964356 68.710223669607
229.11978595966897 169.28127251012037 54.35589779827756
233.39770641186874 164.29174696951125 74.79804298156127
241.01006724789943 166.89103836744803 73.34261342665894
235.53650034662695 170.08641175151433 77.0659500768214
240.38866254827377 163.25145718917102 63.339151927179124
228.28989112118097 167.36406552457927 72.89232806697545
237.10718432556916 162.94436406629515 57.82583767097783
237.76514426820535 170.89779378255426 76.10009223381464
241.885658486352 164.84813030462064 59.82752884500286
242.93093700357508 170.76058760703523 51.85992921947565
239.21363056762044 174.81587373450228 67.96428414476583
233.6029081818338 173.36887426776823 75.0398691067372
231.4288675988694 168.22961280785503 51.355121579372565
228.78180802833353 164.262714536832 67.50588961667621
245.7871734137929 166.84499369718853 61.52952281918913
233.85653613765584 169.76274936654087 50.29494317048559
228.44932043210105 168.28116618155926 55.88068226736183
228.74604688895892 164.71484935146705 60.230436376489685
226.59333318181322 168.59194930747594 64.73386048340244
234.25848911938775 176.14644798504966 56.98499556554849
228.1183565696971 169.973730611422 55.45234203316698
241.1364291174827 169.00125300581087 74.84916040909243
228.53084233276982 165.68441627735257 58.78964652811348
237.83130044880454 166.13787117228793 74.50226362881024
239.84119128797306 172.6587142291564 72.68243994471342
227.3509793393832 166.21095058865833 64.26901238705786
239.54896570420703 174.22050544175366 53.94520844936501
232.97658144611813 176.0835433388682 67.59247254415537
245.41438032099273 168.25157236721822 66.08840665278096
245.71399247134795 168.89522846253786 59.95523491799555
242.0249322051152 164.57483151790177 64.45062662623842
226.62666803325592 170.38885317197622 63.229765670131506
243.1925943585483 167.0891311429276 69.0313239587353
235.3721813150164 175.86963762252833 70.10710135101576
238.51188171506132 163.83920117741133 56.64765174765702
232.10123616967837 169.89174196330677 50.95038911980036
238.1113764590013 164.32753062013174 55.14324171023418
237.8876717077808 166.2833523654083 50.67455695739266
230.21714657235242 168.34044024753643 52.952535070361606
235.17082124786916 171.35679157515133 50.237659617050035
228.64440235323664 169.19424811638376 74.39153993265937
234.10300941927798 161.7902769560706 63.39481425306675
231.75697163196432 162.29120487366643 64.00959703488193
227.17834897968282 169.6674263047234 56.8408979297757
236.95588218939696 172.41854872433004 50.911426161664764
234.8945800128588 163.56864395836755 73.77268186177574
227.75819751575483 171.8383692321228 70.7929051943856
231.04443199816424 175.17974282259127 68.98121900362675
232.5672664348832 162.13719962803506 68.30680937092835
232.91659501396904 163.71260942520342 56.317204230102966
227.44448838048018 167.21244148801543 58.759325090299754
236.8564265964235 171.08437573373195 49.41644004454244
226.90343864026184 168.0752066537838 60.18667174046142
243.43089997845797 171.47011642475772 54.28989010032533
235.41266993343564 162.4229712633325 59.30495556241351
236.93423070493841 174.4450018670992 52.73489892450679
231.2039343460021 171.3584979380612 51.927583023014066
236.87473515109087 167.8761306405704 50.22762270175777
241.95856118369423 174.33889279562746 62.188022517448275
244.07226512898504 171.65663130751216 65.05997240033808
234.52454839925423 167.66617246043555 50.33449823551165
231.31520003965755 164.11394119810802 57.629981428493736
229.7483637128937 170.39800429757216 52.96170236510539
226.81832264116997 167.93305039908824 62.298723348123055
241.9948464515768 164.63876440504072 66.3053193041983
231.19307491317838 174.5882038753 71.54674448920936
236.93826785485012 166.56896740022424 75.62110605820286
237.2124692007873 176.3424970083625 62.42888056133004
241.00517636370884 164.85898375007056 71.83246161539603
244.60144739615168 166.8199175998809 65.29122009274401
231.25004245240146 164.97152152290357 55.43047315502642
227.5774243502274 169.09383676909263 73.09033488142556
234.7275488566933 173.4403788958592 51.24362259373951
240.3117203143612 164.126124492276 57.126280388029635
228.57088013056696 164.44013949034525 62.43364882453562
POLYGONS 584 2336
3 9 1 3
3 25 1 9
3 0 3 1
3 0 2 275
3 7 6 2
3 2 0 7
3 1 8 7
3 0 1 7
3 8 15 14
3 15 8 25
3 8 1 25
3 17 250 16
3 17 16 20
3 20 10 17
3 12 23 22
3 15 24 120
3 25 24 15
3 30 23 120
3 32 33 31
3 32 31 30
3 120 32 30
3 120 24 32
3 24 25 34
3 33 24 34
3 33 32 24
3 33 34 16
3 31 39 38
3 31 33 39
3 26 39 33
3 33 16 26
3 265 43 35
3 148 41 265
3 42 38 39
3 265 41 43
3 42 43 41
3 42 44 43
3 42 39 44
3 26 27 40
3 23 91 22
3 23 30 91
3 30 31 29
3 7 8 6
3 6 8 14
3 44 39 26
3 3 281 219
3 29 91 30
3 9 262 10
3 160 36 35
3 246 141 29
3 12 179 23
3 14 15 179
3 281 0 275
3 4 254 275
3 26 40 44
3 40 43 44
3 40 35 43
3 3 239 9
3 239 262 9
3 238 6 14
3 250 237 27
3 234 254 4
3 3 219 239
3 5 270 263
3 257 219 281
3 10 215 17
3 10 262 215
3 27 237 160
3 160 237 183
3 261 260 211
3 257 231 210
3 271 17 215
3 215 269 271
3 36 160 183
3 25 20 34
3 20 16 34
3 273 139 176
3 18 217 176
3 176 217 273
3 11 208 172
3 268 171 217
3 217 171 273
3 219 235 239
3 239 235 262
3 234 166 279
3 270 122 166
3 211 267 184
3 184 261 211
3 35 203 265
3 198 171 214
3 214 171 268
3 6 161 2
3 2 161 291
3 182 157 260
3 260 157 211
3 182 28 157
3 261 156 260
3 18 176 156
3 156 176 260
3 35 40 160
3 160 40 27
3 0 281 3
3 153 169 278
3 18 156 164
3 164 156 261
3 13 151 11
3 12 22 151
3 41 266 42
3 41 284 266
3 41 148 284
3 148 201 284
3 42 266 38
3 11 147 13
3 147 189 245
3 274 161 152
3 152 161 6
3 106 125 229
3 21 91 141
3 141 91 29
3 274 140 245
3 13 147 140
3 140 147 245
3 197 138 277
3 138 153 278
3 153 106 149
3 38 266 246
3 246 266 133
3 238 13 152
3 152 6 238
3 201 148 124
3 197 277 208
3 277 172 208
3 144 96 128
3 96 145 136
3 136 145 229
3 152 13 140
3 140 274 152
3 208 146 197
3 21 125 146
3 143 142 141
3 229 125 142
3 31 38 29
3 38 246 29
3 286 151 22
3 163 123 277
3 284 133 266
3 12 238 179
3 179 238 14
3 238 12 13
3 12 151 13
3 146 208 286
3 286 21 146
3 106 229 149
3 229 145 149
3 201 129 284
3 129 144 128
3 136 128 96
3 189 177 245
3 141 142 21
3 21 142 125
3 197 125 106
3 197 146 125
3 143 136 142
3 136 229 142
3 284 129 133
3 133 129 128
3 249 127 223
3 213 172 123
3 123 172 277
3 5 122 270
3 5 154 122
3 267 119 200
3 267 211 119
3 162 57 264
3 11 151 208
3 151 286 208
3 187 114 162
3 189 272 177
3 185 119 28
3 107 209 243
3 19 87 113
3 19 113 111
3 213 126 189
3 126 272 189
3 86 73 214
3 73 198 214
3 139 112 182
3 112 191 223
3 157 28 119
3 119 211 157
3 149 145 195
3 145 243 195
3 133 143 246
3 143 141 246
3 113 206 132
3 132 206 155
3 123 71 213
3 131 126 71
3 71 126 213
3 182 105 28
3 223 127 105
3 11 104 147
3 147 104 189
3 11 172 104
3 138 278 163
3 163 277 138
3 28 102 185
3 102 127 37
3 70 288 159
3 64 19 111
3 169 100 278
3 247 121 100
3 100 121 278
3 108 233 159
3 178 209 240
3 126 97 272
3 132 155 97
3 97 155 272
3 107 243 96
3 96 243 145
3 95 98 251
3 187 109 114
3 114 109 287
3 287 221 114
3 243 178 195
3 243 209 178
3 240 101 178
3 212 118 101
3 21 286 91
3 91 286 22
3 200 115 90
3 23 179 120
3 120 179 15
3 182 260 139
3 139 260 176
3 249 283 127
3 63 98 283
3 195 218 149
3 169 153 218
3 218 153 149
3 191 180 223
3 180 227 108
3 253 292 60
3 87 134 292
3 292 134 60
3 198 73 255
3 255 73 79
3 223 180 249
3 112 223 105
3 105 182 112
3 98 196 251
3 98 63 196
3 245 84 274
3 245 177 84
3 191 112 83
3 83 112 139
3 86 175 82
3 178 101 80
3 80 101 118
3 89 79 205
3 79 82 205
3 105 127 102
3 102 28 105
3 100 47 247
3 100 169 47
3 195 80 78
3 78 80 118
3 163 77 123
3 47 169 78
3 78 118 47
3 80 195 178
3 218 195 78
3 78 169 218
3 198 255 253
3 131 97 126
3 132 97 75
3 75 97 131
3 113 132 111
3 86 82 73
3 73 82 79
3 225 198 253
3 253 60 225
3 77 72 103
3 103 72 121
3 77 163 72
3 121 72 278
3 278 72 163
3 155 228 272
3 272 228 177
3 5 137 154
3 177 228 137
3 123 77 71
3 71 77 131
3 121 70 103
3 248 75 131
3 131 77 248
3 248 77 103
3 189 104 213
3 213 104 172
3 89 205 69
3 185 68 115
3 153 138 106
3 106 138 197
3 84 177 137
3 137 5 84
3 227 87 19
3 227 134 87
3 154 74 122
3 60 83 225
3 61 74 154
3 61 228 155
3 85 175 86
3 102 37 185
3 37 68 185
3 109 68 76
3 76 68 37
3 185 115 119
3 119 115 200
3 264 187 162
3 264 90 187
3 191 227 180
3 191 134 227
3 187 67 109
3 187 90 67
3 67 90 115
3 159 233 70
3 95 66 98
3 66 283 98
3 111 75 64
3 64 75 248
3 249 63 283
3 249 159 63
3 212 95 251
3 154 137 61
3 61 137 228
3 64 108 19
3 19 108 227
3 64 233 108
3 212 101 221
3 221 101 240
3 69 61 155
3 109 76 287
3 287 76 95
3 287 212 221
3 79 81 255
3 255 81 253
3 37 66 76
3 76 66 95
3 122 74 276
3 287 95 212
3 166 122 276
3 276 279 166
3 89 69 206
3 206 69 155
3 253 81 292
3 81 79 89
3 247 288 70
3 247 196 288
3 47 251 196
3 283 66 127
3 127 66 37
3 233 64 248
3 205 61 69
3 205 74 61
3 111 132 75
3 87 186 113
3 113 186 206
3 212 251 118
3 175 256 82
3 82 256 205
3 256 74 205
3 292 81 186
3 186 87 292
3 108 159 180
3 180 159 249
3 206 186 89
3 89 186 81
3 198 225 171
3 171 225 273
3 191 60 134
3 191 83 60
3 225 83 273
3 273 83 139
3 280 268 217
3 18 164 56
3 269 216 241
3 18 207 217
3 174 280 207
3 207 280 217
3 244 183 237
3 261 194 164
3 261 184 194
3 56 174 207
3 207 18 56
3 204 216 167
3 167 216 235
3 293 164 194
3 194 54 293
3 267 135 184
3 49 232 135
3 135 232 184
3 293 54 244
3 271 117 282
3 271 269 117
3 204 241 216
3 183 59 36
3 59 232 49
3 110 135 267
3 241 174 236
3 236 174 56
3 280 174 204
3 174 241 204
3 282 237 250
3 293 56 164
3 293 236 56
3 244 55 183
3 244 54 55
3 55 54 232
3 194 184 54
3 54 184 232
3 204 167 289
3 289 167 188
3 289 53 268
3 268 53 214
3 289 199 53
3 53 199 214
3 268 280 289
3 289 280 204
3 210 52 199
3 279 85 52
3 52 85 199
3 289 188 199
3 199 188 210
3 109 67 68
3 68 67 115
3 279 175 85
3 279 276 175
3 262 93 215
3 215 93 269
3 93 216 269
3 236 117 241
3 241 117 269
3 183 55 59
3 59 55 232
3 216 93 235
3 235 93 262
3 36 59 50
3 293 117 236
3 170 50 49
3 49 50 59
3 219 48 235
3 188 167 48
3 48 167 235
3 231 52 210
3 199 86 214
3 199 85 86
3 257 48 219
3 74 256 276
3 276 256 175
3 26 250 27
3 26 16 250
3 203 50 224
3 224 50 170
3 271 282 17
3 17 282 250
3 259 88 124
3 281 51 257
3 254 231 51
3 51 231 257
3 210 188 257
3 188 48 257
3 237 282 244
3 9 10 25
3 10 20 25
3 88 259 190
3 259 224 190
3 203 116 265
3 116 148 265
3 190 224 58
3 58 224 170
3 190 94 88
3 190 202 94
3 94 202 181
3 110 62 158
3 200 90 62
3 58 158 202
3 202 190 58
3 148 116 124
3 124 116 259
3 247 70 121
3 118 251 47
3 124 88 99
3 247 47 196
3 35 36 203
3 36 50 203
3 49 46 170
3 46 58 170
3 248 103 233
3 103 70 233
3 279 65 234
3 279 52 65
3 65 52 231
3 58 46 158
3 158 46 110
3 173 168 181
3 110 46 135
3 135 46 49
3 94 99 88
3 124 45 201
3 124 99 45
3 158 62 264
3 264 62 90
3 181 202 57
3 234 65 254
3 254 65 231
3 254 51 275
3 275 51 281
3 200 110 267
3 200 62 110
3 291 4 2
3 2 4 275
3 133 252 143
3 143 252 136
3 133 128 252
3 252 128 136
3 45 230 201
3 144 129 230
3 230 129 201
3 196 63 288
3 288 63 159
3 130 222 173
3 162 285 57
3 209 193 240
3 130 92 193
3 193 92 240
3 264 220 158
3 158 220 202
3 264 57 220
3 220 57 202
3 274 84 263
3 263 84 5
3 263 291 274
3 291 161 274
3 291 258 4
3 291 263 258
3 258 263 270
3 192 107 144
3 107 96 144
3 192 226 107
3 226 209 107
3 144 230 192
3 57 173 181
3 57 285 173
3 99 94 168
3 168 94 181
3 192 230 165
3 165 230 45
3 173 285 130
3 130 285 92
3 222 130 226
3 226 192 222
3 222 192 165
3 173 222 168
3 222 165 168
3 4 258 234
3 92 242 114
3 114 242 162
3 92 285 242
3 242 285 162
3 168 165 99
3 99 165 45
3 209 226 193
3 193 226 130
3 282 150 244
3 244 150 293
3 282 117 150
3 150 117 293
3 240 92 221
3 221 92 114
3 234 258 166
3 166 258 270
3 259 290 224
3 224 290 203
3 259 116 290
3 290 116 203
