# vtk DataFile Version 3.0
A great-looking cell
ASCII
DATASET POLYDATA
POINTS 331 double
222.9445183891148 177.027262046886 50.792382860732296
224.86071799173206 177.01425341641055 50.94525553850236
221.367431868925 174.41441109945498 46.81163150197312
222.11896024327487 176.17632590534615 48.56348119408375
220.19564899493105 174.97535168904994 48.681882879726274
224.15910469929756 174.8462719047243 46.949498579641734
225.518039620524 172.39028057088728 45.65270147781791
226.56948803078404 175.4440809375797 48.16244824080346
224.5010445898625 176.30133930513603 49.19552284162728
226.27454150491053 176.3982934344948 50.221536044756235
226.22573229515052 177.1418788637556 51.932779896339376
224.29819916890287 177.41000227804818 52.83875893612406
222.9969727220653 177.8060177336122 54.81482694985368
220.94424967074733 172.15917421328314 46.193861775959604
219.5672915520386 172.9532832726978 47.93424757604475
220.2356284141088 170.33881311983842 47.74479327891768
222.92715444985 170.48642623481547 46.379290978721265
227.26811433339202 170.86142100396327 47.31831796848531
220.2813718858484 176.29050641001228 50.80616270467958
218.6062902064754 174.10458002881717 50.035809870684055
229.11322237098756 174.73361542476877 48.73775701241721
221.7629624038902 177.4597402107241 52.861306704787054
229.91698445664935 176.7865202160526 50.728242173606624
227.89446307281054 175.98282691114878 49.83658259975456
227.66959442804074 176.9204755349939 51.05702602294433
220.3926450657472 168.79025866147515 50.44878182570165
218.2565287249617 170.08058935787386 52.52679602955823
218.6489659244756 171.34952999808812 49.916501421012825
222.2622778809755 166.95759477685837 52.12656316796518
226.11555837810997 164.50047528408956 52.18867239391768
222.96998005656735 167.75430360906924 49.80871844732026
218.16195827290196 175.2172857113382 52.281755621037476
219.76039437748437 176.41513698352216 53.425206408131515
217.39420017025915 172.7490679654025 52.03099859926367
231.527871204959 173.5242984621461 48.779114569039805
235.3342400180412 173.09846757179417 52.63866169842528
230.46424963457645 177.99266039357363 53.6775080322461
228.0724385162325 177.6339634963189 52.90162369757887
227.31615720278643 178.16492764897268 55.11221265124257
226.19333975994206 177.81109313320124 53.50319760944526
220.1480772484893 168.09104297723087 53.62373017665396
218.00873605352632 169.19655533805107 55.34951107048196
219.95092524765036 167.3297407433558 56.475392781411436
222.16242127812183 166.34678228764633 54.86348228415467
221.99103104981194 165.7123962850445 57.6057405375949
229.5726201170022 163.10857529269518 58.40257812828263
228.64166513603357 163.18211052759258 55.879510718270204
218.18705395033612 175.7277422863407 54.191566201708795
216.8614043065624 171.65773195828095 54.509580457232616
216.23686637409062 173.4950637442143 56.42148697403596
216.99864591558 174.18086842349894 54.12268150480965
234.77817314600097 168.7115370388412 55.8578147733928
235.5532868352529 177.0270436614728 58.40108942512564
219.157883252513 176.56242884023473 55.381959502370236
217.64507311551748 175.35611147646432 55.92104906922854
231.74971412084972 179.45667532599592 57.9826055016919
233.93825474182017 178.0431923253812 56.52225996384803
220.12161361272743 177.34215050900508 56.575947419371445
229.3482883972621 179.2796118977984 56.14554840820353
220.8954117988263 177.44683381034102 54.97307787335076
227.78344237431367 179.15016571291562 58.6215040988678
227.5230563837802 178.8638599471293 56.68648889902881
225.94113598207898 178.1426916656915 57.03137470204485
221.96518642477878 178.10655082007574 56.952353271829296
223.99344700605172 177.95415698115397 56.396813797477684
220.11155322242794 166.96991052542688 59.37064372625099
218.25138552481647 168.26654894596754 61.13654868109979
217.94645054469203 168.54943471732756 58.235787189618996
220.55510990091827 166.77186724951744 62.41151941378677
222.12294350436267 165.36772280468367 60.36644882919003
222.86186382431407 165.21359899192515 63.1817147083202
231.73185915099316 163.9793763765533 61.08275799884221
216.45482130346483 170.841111372276 57.211897063564784
216.55670065038103 170.33431450210904 60.05772913583548
216.07840009055974 172.95626992716257 59.10678832805963
237.4368563236936 170.30462113716277 59.69158025313053
217.1282340051371 175.1803361965355 58.180641026622446
218.78634988339212 176.2802763204402 59.42700532016251
218.8316550694065 176.36398406136493 57.29940063995696
217.25252126938378 174.9006855314868 60.86389387120339
233.3531759859294 178.85123214285966 63.30003107628533
232.7318427334939 179.354364144737 60.72176356045966
230.02670790421908 180.03236221236085 60.20921207052464
228.05010014938912 179.42919980409656 60.91160311496767
220.28208792196085 177.29076729495864 58.304639208334386
226.40070968381744 178.59550234408132 60.7831526762278
225.5793155076156 178.4176624224044 59.06946898104038
223.95938441593884 177.78260518011095 58.239267137997786
220.43661339153644 167.100627792943 64.91660230297775
218.62245664628873 168.2205287961567 63.86006373795033
222.25018659757828 166.1149486769216 65.69809500625753
229.6460293351221 163.53372804528752 68.12587947628559
226.46996937820305 162.88194628646858 65.29319651030973
216.89190562463256 170.03285508759424 62.825493808453935
216.70115539166065 172.19116014012937 64.32467249662109
216.2306857767911 172.49767875978375 61.78522047273868
234.07955715067462 168.5704302846491 65.93899676175987
217.90648275186504 175.4837394657537 62.4616282658742
219.23229727862335 176.31728601927267 61.73088146417065
217.0676864720607 174.32287645697056 63.18466387586219
230.14768762985724 179.61397691175097 64.70873182666217
221.5961951616478 177.50628740442556 61.77495836144174
229.00918481810123 179.72352369912946 62.5842767642024
227.62741463645511 179.04735385647837 64.55778266205996
227.2554814158076 179.10625077470343 62.38040042728583
225.52767783481733 178.06189795517258 63.03113968920319
224.1600961463487 177.5474457766546 60.68624117963136
220.3224682920653 177.1628629412494 60.13622663981784
223.50059236117735 177.27514649458408 62.78135612280432
222.0179768233315 177.80882904154618 59.375557957294845
220.85190859961477 167.33809676824643 67.1807355259834
218.8423272854311 170.0520525165119 67.79491724375885
217.42628237566547 169.9004460236717 65.48157627120396
220.8743682726096 168.96245982799738 68.82716977986989
222.3339849167092 167.12075567419515 68.97043475671694
223.48566596384507 168.07108550690944 70.99293642941839
228.94788584677408 164.35297272812514 71.39745170336329
217.4310782809407 172.1449932301635 66.76787194529568
235.02138780002096 169.47538511792885 68.22419822558396
218.6365649216707 175.73559518386307 63.99409017343245
218.7120607414158 175.54509757736028 66.07729399436575
217.35460073397252 174.2491062604453 65.42758833297002
230.69208980070283 179.21250868585386 70.06579463414309
220.33502699201117 176.82321954596142 63.42525069080735
227.46788443585865 178.59329817864366 67.47296510013827
225.8565101976017 177.53906272950073 65.47988472562096
224.02459688036362 177.09632254248672 64.51241393673506
222.65037283091692 177.01766895298863 65.8730284143705
222.06724230983207 177.2923473548825 64.01637891215452
221.669832032019 169.9114239504472 71.04110332344538
220.2252854985523 171.03196582835267 69.49211204637632
223.58295478236593 169.84571437514853 72.76761411323047
224.93489081876422 171.96815738663037 73.22329779167822
218.86272288095208 172.3969661633239 68.59705471706346
220.239844014679 172.77282687835094 69.5691382917237
219.7295288867264 174.2044749809853 68.93249219844932
227.47206275587658 173.2460956540954 73.78712046339933
225.49746728619718 174.53920281639432 72.65063055622826
226.89761959170423 176.63299272898288 72.21699109955851
218.2474401272584 174.24448919958937 67.50843630663007
225.90633118000818 177.01099631384983 69.65394924535903
225.3141172022531 177.03813669938776 67.44305837814491
222.36812338869453 173.70790440910307 71.37487923112131
223.74246265295568 173.49849706875872 72.41692184870361
223.6899045065101 175.05770557759976 71.61180922776349
225.0842697040449 176.0725987945295 71.39781457920476
219.82233299406462 175.70589217194834 67.57346516227271
223.99085953963728 176.13490516810052 70.13379306597234
224.3694554336229 176.3801954648616 68.66029847874094
220.47709294239516 176.57094771392076 65.52582787687923
222.4829172639212 175.1427019747464 70.22373571363593
223.5040155003154 176.748863593804 67.4274926285957
221.6181536197535 176.7049607875417 67.5190591713595
222.80653352083166 176.28040532826128 68.90943911794726
237.5140934175242 171.33591851898714 57.995842640640944
231.599616159571 178.21084216814984 71.57941018239312
226.90520803584457 175.09241006638942 73.39680250351883
228.85162890755657 179.16881726778558 66.00517226897342
232.3723357390934 173.0234198627209 74.81019760005992
234.93018019153754 177.2246849692617 70.08738113258339
236.1994368835932 175.68982619502532 61.75109556618392
229.09090582770693 174.17178933797007 74.38055850133402
236.38003228277574 174.03423916716616 63.89517527135976
232.44029409032788 177.0192451936043 72.66912620789118
234.844694662121 176.7718754395701 54.777599655355466
231.82120660404533 179.48833822735668 64.08480460052698
233.6365290883131 178.37885934440084 66.76701207385756
232.599378200811 178.85602098017876 68.07043734178627
233.96381446560403 175.04808310871982 74.00804824357205
235.5925095898821 175.66750049728748 69.81006623569445
234.9639192831253 177.75144631966268 63.39713619462097
235.4517925656476 176.3615205656836 56.38982897238048
228.345218562191 175.58404965697724 73.9140358996078
235.93306172717524 174.97820512348216 67.616119123292
227.25800247237666 163.99810448234348 71.27023913856448
225.9009385637202 163.9331857375868 70.63783909547091
234.03091635024523 178.5895012475231 58.94582855774482
233.03595080818397 177.6044617338205 54.1158660696225
236.2334013075167 174.36526387957701 65.44177717823318
219.8104316269468 168.5632166399786 67.61007786111529
235.10138317171635 168.64326667790436 57.42870449814286
232.27103584068163 164.46291024558232 63.157504447954636
232.0908556984097 165.4573742056516 70.52308295337376
233.53708410926737 166.99798621994304 65.12696821340522
235.39868598033377 170.1218351797317 69.64917062394844
232.0479729120066 167.12098502299474 72.29101195708766
237.35729952551847 170.37572626014074 64.23654619230172
222.21399552832955 166.53863020453068 67.37709696946709
232.32209142319263 177.26015090483776 51.95868494771572
233.95578891513074 170.22618258218597 72.36262590635882
230.56433930961092 163.75298204693627 66.6958878011362
230.47472794754395 163.3892007368846 63.26036340305356
224.60822546013983 166.7663445758902 71.93951739824094
233.31702359924725 170.56728239584243 50.51348115490312
221.9987091346539 168.43704866118426 70.0344984964667
236.40960002961594 171.0294278810072 68.72398837222453
236.46547960469434 172.68714715237473 66.98216398815367
229.09017808411895 166.16352717676284 72.7865512304943
233.32208126788515 165.6594409551787 57.20240548620482
236.40796927864193 175.36285235882943 60.02726339849126
225.14019233917227 164.2337765201377 53.90972405405021
230.74427028296563 163.36642008711243 59.733857099317866
237.73303845251706 172.01915542186399 60.842265540024776
232.95290564799075 164.88185933596418 60.15592344400374
236.24407506079064 172.77185426220018 54.46339925044921
229.369831956984 163.7254851465817 69.81985820373804
234.1333687636945 167.25712758665043 60.49624160022214
233.9813140198655 169.30594744495622 70.35796340131843
230.58481670930635 163.7740009928351 56.72439334875085
232.04087984782404 170.5237172728629 73.7934435917514
233.88668916115094 167.57981893103943 63.71570911979531
227.69914612661452 163.10615301312714 67.40352151264341
231.5790982072747 164.38702849291923 67.63907940292533
233.5561767523015 167.68780619379226 68.48261812152005
228.4002967986732 171.58415579406997 73.99881029632783
226.94346720521656 170.4474762385269 73.63912615995021
230.56819898512668 164.94205634158502 51.86912974044021
236.3473438005192 174.8423896872518 57.529529656033745
230.74544780457344 167.8478445883809 73.38339960370106
236.13440800236648 169.31792112743707 61.35065442919567
234.58686149884352 172.10472922625684 73.6613209838879
236.79572764763762 170.0435203787684 66.22598537369767
233.2631063268774 178.07049009383093 70.42620346740819
235.98655589243643 173.29041793141278 69.33710670429261
224.28180084905395 176.99727861738464 66.13664060539259
235.94450664494707 175.97486541654158 63.65303924169674
230.88419199887446 164.47660463060674 69.86123439568074
234.19496528768303 167.42784988361205 57.360262250886606
232.81001887931805 167.04676167383755 52.87616618311621
232.88059517359085 166.9058407237544 70.82923301434097
230.8532200551627 175.29933452603447 74.47471006836491
234.4440972211471 170.63503563188561 51.931610271907026
235.6680774417412 174.0614848964969 71.8275400352482
226.5478327312183 165.70576388376384 72.24059125075352
230.4711324629094 163.97239416162907 54.93067664948522
226.49326865462078 162.8263251207981 63.339900791701666
236.33100794683253 169.93613137032503 57.20817440895257
227.73714029001127 163.5120285894383 69.60021531346848
235.19387841814714 177.5918683970856 61.28183366772398
226.45002335787694 163.02745314961328 56.45784285544459
231.53544146152652 166.37141149651032 51.409410609434694
233.0523706782707 166.07643551530577 66.5664714715469
223.2838317537967 165.41481408198104 67.71717051272302
237.33637572022852 172.94591596434137 59.190477364717225
233.44713262849717 166.6507507978549 55.118848016353645
223.5541838709779 164.32139205301112 58.68133957559174
227.60296444105182 162.8058830116151 57.73373072166248
232.08478563410844 164.11800257889305 58.51901487236468
225.41462628716786 169.78733626587976 46.539295933539805
227.81967692506788 164.7236807169788 51.19047434902454
229.34445303832626 170.14855226661373 73.7842090193379
227.73579767322227 162.68385038063334 59.41425093796144
234.94689549419974 168.63902724419856 59.311914543961294
234.2027207045758 174.26090138711166 51.33911425415665
235.72692630916583 169.31006174256962 63.64408782105622
235.61987257892267 176.1765401055962 66.0133448806939
221.5512151630126 166.3413368857311 64.04527223268202
229.30249647760957 163.07888668782158 65.65822063710151
231.30313148632834 165.4948231664434 72.13666187674032
224.91148894269 167.23982373108825 49.192520891573004
234.84269658129548 177.43499014379788 68.03792661875097
225.16981117739985 170.09466467590187 73.35352607306767
231.03381823905139 167.58176467112276 49.21851294022897
228.67015713580744 167.07522780623083 48.70930954955762
235.6817687387284 170.8095280225199 54.46655246459419
237.54931596358847 170.86367968155497 62.37988936723275
231.75398503490098 170.5769204450805 49.18475697831262
226.52444463989386 163.48134863926097 54.42291177193295
229.32620614891525 162.91557157799645 60.950894791428745
224.01178838631014 164.20493369963756 65.5890961664648
231.85551308405226 179.01733270305172 55.476299433621094
223.9198999760091 165.21008853072388 53.258590907575176
235.56194521821394 171.29277207895112 71.01596072021358
229.9201509099162 172.54561568958417 74.30009493452673
224.91480574813767 163.31765174881187 63.31050873253805
224.1136901001158 163.75590347898185 60.93550352123394
226.6242869206145 168.43663093507476 48.25937381440048
235.8291594502892 174.66042293011174 54.910147382065325
229.05766981088559 179.0764533487886 68.80083051291635
228.11369599546396 162.83749880223243 63.32349430938022
222.1768356883062 169.3666106719057 48.59150601595145
222.86664990220524 173.08193592644932 45.253586401529795
222.72617153238073 171.88446385533445 72.20374192378169
225.86691327172875 173.98954182884918 47.0897635581439
221.27515409356184 172.22752065234835 70.74023460171118
228.94880765963083 164.15377838461677 52.952192984538016
229.38453143164352 172.05817967429178 48.17730454313052
224.18472564959498 168.9082193467177 48.182355304255246
227.18811300891272 173.19938136589445 47.694920783688964
229.70884979089266 179.62245979644788 58.215224313556355
229.2011219445689 169.38247692008744 48.19739998958019
233.9384200705769 168.79676973125552 53.58010214690716
229.38245442702043 165.66035377012264 50.603368505479125
230.17025170911649 179.4299100767305 67.28001076218096
228.12481493938336 168.25866434747542 72.55045909043733
233.15567701494155 165.76548076775148 64.29609594122898
231.64764330657158 164.20695400500398 65.34741293166762
225.34402980947016 163.57203058826764 68.1847869542233
224.21794028527611 164.127684826907 55.912860491175685
234.56757405774542 177.85215492540806 65.27869071571095
232.92922185571382 168.46535045871278 72.45545353577326
225.51163627146641 168.4833418181451 72.42061307731493
228.07656480242915 178.48166662772803 70.31346561566899
232.53883983775555 165.6873526153813 69.01414207132035
232.09465291421748 164.67609867363805 55.9344885950189
225.60245006903796 162.98628550002297 58.62237991320086
233.66933070920297 172.56654826926692 50.328269671257296
226.54606643359463 162.66142797968823 61.41759703422043
237.04958806796654 172.50038372625923 56.352187015885114
233.69516257654004 166.20897685808228 59.25055691100649
234.4439447924611 175.84834886233796 52.61114880813655
230.80272010267518 175.11855868565937 49.62993258819157
224.43121774777651 166.15658576128706 50.99290866845762
236.700907364281 173.61030264361864 62.01406606402725
237.17700958200794 172.3755000338377 64.5081497346865
232.95163631798334 168.6583851083038 51.07020094690994
234.77744051088945 176.586670922793 71.79481610105783
226.75281687501177 165.80542103998016 49.72132871658625
225.11609087892268 177.9353079328213 54.943054886178324
219.16249665992788 168.35518047153417 66.21566407661425
233.47571831894166 165.93306077488873 61.744963625676725
229.75994848368478 177.71171912706154 72.62033336971108
221.25676935019334 175.3320923823628 68.87701942131814
221.05497212902344 174.01058180689384 70.14787469159864
224.24497745796066 165.58653763837862 70.26627214349132
228.74174258601116 178.63480893487215 54.29365331560953
231.70414353020374 165.05546372861951 53.43430459807311
234.41832606965963 168.2561009132447 61.687584248677695
232.52679846641593 175.17022108928464 50.58980374524236
231.2252163508503 179.76437816140077 62.618270517994546
232.4139785244443 179.1668585183586 65.66343196911916
POLYGONS 658 2632
3 21 11 0
3 3 0 8
3 8 0 1
3 12 11 21
3 2 4 3
3 3 18 0
3 3 5 2
3 5 3 8
3 8 9 7
3 8 1 9
3 1 10 9
3 1 0 11
3 13 15 14
3 13 14 2
3 16 15 13
3 4 19 18
3 23 22 20
3 7 23 20
3 7 9 23
3 32 59 21
3 24 22 23
3 9 24 23
3 24 9 10
3 21 59 12
3 59 63 12
3 10 11 39
3 10 1 11
3 25 40 26
3 15 27 14
3 28 40 25
3 25 30 28
3 19 33 31
3 18 19 31
3 26 33 27
3 47 53 32
3 53 59 32
3 37 36 22
3 22 24 37
3 37 24 10
3 39 38 37
3 10 39 37
3 38 39 318
3 318 12 64
3 40 42 41
3 40 41 26
3 43 44 42
3 43 42 40
3 40 28 43
3 48 72 49
3 26 48 33
3 47 54 53
3 49 54 50
3 47 50 54
3 59 57 63
3 78 57 53
3 61 60 58
3 38 61 58
3 60 61 62
3 62 61 38
3 38 318 62
3 64 62 318
3 12 63 64
3 65 68 66
3 42 67 41
3 69 70 68
3 69 68 65
3 42 44 65
3 65 44 69
3 72 73 74
3 72 74 49
3 66 73 67
3 76 79 77
3 49 76 54
3 57 84 63
3 77 84 78
3 78 84 57
3 55 82 81
3 60 85 83
3 60 83 82
3 86 85 60
3 60 62 86
3 109 63 84
3 87 106 86
3 87 86 62
3 62 64 87
3 63 109 87
3 63 87 64
3 68 89 66
3 93 112 94
3 73 95 74
3 66 93 73
3 79 98 77
3 79 99 97
3 94 99 95
3 107 98 101
3 77 107 84
3 102 82 83
3 104 105 103
3 104 103 102
3 83 104 102
3 83 85 104
3 85 86 106
3 105 85 106
3 105 104 85
3 84 107 109
3 106 101 108
3 105 106 108
3 109 107 101
3 114 113 110
3 88 90 110
3 112 117 94
3 111 117 112
3 97 119 98
3 121 120 119
3 97 99 119
3 119 99 121
3 139 121 117
3 94 121 99
3 98 123 101
3 101 123 128
3 125 141 124
3 103 125 124
3 103 105 125
3 126 125 105
3 108 101 128
3 126 108 128
3 126 128 127
3 105 108 126
3 113 130 111
3 129 115 131
3 132 282 131
3 133 134 135
3 111 133 117
3 136 137 132
3 215 136 132
3 120 121 139
3 146 149 120
3 119 149 123
3 140 124 141
3 123 149 128
3 141 151 148
3 134 323 135
3 284 323 134
3 132 137 143
3 144 143 137
3 144 137 145
3 137 138 145
3 135 323 322
3 135 322 146
3 146 139 135
3 138 140 145
3 140 147 145
3 147 140 148
3 140 141 148
3 142 143 144
3 144 150 142
3 144 145 147
3 144 147 150
3 146 152 149
3 146 322 152
3 147 153 150
3 323 142 150
3 153 151 152
3 3 4 18
3 4 2 14
3 14 19 4
3 21 0 18
3 18 32 21
3 25 26 27
3 27 15 25
3 31 47 32
3 32 18 31
3 19 14 27
3 27 33 19
3 31 33 50
3 50 47 31
3 48 49 50
3 50 33 48
3 48 26 41
3 41 72 48
3 54 78 53
3 53 57 59
3 65 66 67
3 67 42 65
3 72 41 67
3 67 73 72
3 76 77 78
3 78 54 76
3 76 49 74
3 74 79 76
3 89 68 88
3 93 94 95
3 95 73 93
3 93 66 89
3 89 112 93
3 98 79 97
3 79 74 95
3 95 99 79
3 107 77 98
3 121 94 117
3 119 123 98
3 130 113 129
3 133 135 139
3 139 117 133
3 133 111 130
3 130 134 133
3 139 146 120
3 149 119 120
3 282 132 143
3 143 142 282
3 5 8 7
3 82 329 81
3 81 329 80
3 82 102 329
3 102 103 100
3 37 325 36
3 36 325 58
3 37 38 325
3 325 38 58
3 152 322 153
3 150 322 323
3 150 153 322
3 30 312 28
3 312 317 29
3 22 311 20
3 20 311 34
3 22 328 311
3 311 328 34
3 100 329 102
3 328 306 34
3 301 131 115
3 43 298 44
3 114 324 115
3 293 330 100
3 282 142 284
3 284 142 323
3 58 289 55
3 55 289 82
3 58 60 289
3 289 60 82
3 6 288 17
3 288 7 20
3 34 286 20
3 286 290 17
3 288 20 286
3 286 17 288
3 130 284 134
3 130 129 284
3 7 283 5
3 5 283 6
3 7 288 283
3 283 288 6
3 129 282 284
3 129 131 282
3 2 281 13
3 13 281 16
3 281 6 16
3 17 248 6
3 6 248 16
3 248 287 16
3 290 276 17
3 6 281 5
3 5 281 2
3 112 319 111
3 319 88 110
3 310 277 35
3 69 275 70
3 275 305 307
3 70 275 274
3 274 275 307
3 28 271 43
3 271 298 43
3 56 270 55
3 55 270 58
3 270 36 58
3 70 269 90
3 92 297 269
3 88 319 89
3 89 319 112
3 268 279 307
3 29 285 267
3 267 285 46
3 290 286 266
3 266 286 34
3 313 314 265
3 312 29 271
3 271 28 312
3 51 291 264
3 317 263 292
3 317 276 263
3 263 276 290
3 290 266 262
3 262 266 315
3 274 92 269
3 269 70 274
3 16 280 15
3 16 287 280
3 280 287 30
3 131 261 132
3 132 261 215
3 131 301 261
3 261 301 215
3 30 259 312
3 312 259 317
3 30 287 259
3 266 34 306
3 92 279 257
3 88 256 90
3 90 256 70
3 88 68 256
3 256 68 70
3 35 253 310
3 310 253 328
3 35 306 253
3 253 306 328
3 305 251 307
3 45 268 251
3 251 268 307
3 292 249 317
3 317 249 29
3 292 285 249
3 249 285 29
3 45 246 46
3 45 251 246
3 246 251 305
3 44 245 69
3 44 298 245
3 245 298 305
3 326 244 304
3 244 291 51
3 90 269 242
3 242 269 297
3 296 295 241
3 292 262 240
3 240 262 315
3 298 239 305
3 46 246 239
3 239 246 305
3 51 264 236
3 236 264 308
3 92 235 279
3 279 235 307
3 92 274 235
3 235 274 307
3 275 69 245
3 245 305 275
3 263 290 262
3 262 292 263
3 236 75 252
3 80 238 81
3 304 234 326
3 46 285 234
3 234 285 326
3 233 294 301
3 114 242 324
3 324 242 297
3 267 46 239
3 239 298 267
3 35 231 306
3 291 315 231
3 291 228 315
3 326 240 228
3 228 240 315
3 11 318 39
3 11 12 318
3 227 252 309
3 226 258 116
3 125 224 141
3 141 224 151
3 224 127 151
3 151 127 152
3 96 221 118
3 96 254 221
3 265 219 75
3 327 252 219
3 219 252 75
3 244 51 227
3 153 147 148
3 148 151 153
3 264 291 231
3 231 35 264
3 218 250 294
3 277 217 308
3 217 243 308
3 292 216 285
3 285 216 326
3 292 240 216
3 216 240 326
3 152 127 149
3 126 127 224
3 224 125 126
3 250 214 215
3 215 214 136
3 250 273 214
3 214 273 136
3 118 213 96
3 213 229 303
3 303 226 212
3 212 226 91
3 92 211 297
3 91 237 211
3 211 237 297
3 327 254 210
3 210 254 96
3 273 250 209
3 87 109 106
3 109 101 106
3 300 229 207
3 257 91 211
3 211 92 257
3 252 206 309
3 309 206 320
3 252 327 206
3 206 327 320
3 244 326 228
3 228 291 244
3 241 96 213
3 213 303 241
3 91 205 237
3 237 205 116
3 91 226 205
3 205 226 116
3 127 128 149
3 294 215 301
3 294 250 215
3 308 204 277
3 277 204 35
3 308 264 204
3 204 264 35
3 71 203 320
3 320 203 309
3 71 247 203
3 203 247 309
3 243 202 75
3 75 202 265
3 243 313 202
3 202 313 265
3 218 300 209
3 209 250 218
3 247 201 45
3 45 201 268
3 247 71 201
3 201 71 268
3 46 208 45
3 46 234 208
3 208 234 304
3 196 221 314
3 243 199 313
3 52 238 199
3 304 198 247
3 247 198 309
3 198 227 309
3 29 200 271
3 271 200 298
3 29 267 200
3 200 267 298
3 258 197 116
3 294 233 197
3 197 233 116
3 118 221 195
3 195 221 196
3 223 232 272
3 232 220 272
3 218 294 197
3 197 258 218
3 317 259 276
3 276 259 287
3 306 193 266
3 266 193 315
3 306 231 193
3 193 231 315
3 241 303 212
3 212 296 241
3 223 272 195
3 195 196 223
3 324 192 115
3 115 192 301
3 324 233 192
3 192 233 301
3 296 257 191
3 191 257 279
3 320 327 210
3 210 295 320
3 296 190 257
3 257 190 91
3 296 212 190
3 190 212 91
3 268 71 191
3 191 279 268
3 45 208 247
3 247 208 304
3 209 189 220
3 220 189 272
3 189 207 272
3 300 207 189
3 189 209 300
3 227 198 244
3 244 198 304
3 36 188 22
3 22 188 328
3 188 310 328
3 327 219 254
3 254 219 265
3 314 186 265
3 265 186 254
3 314 221 186
3 186 221 254
3 300 185 229
3 229 185 258
3 300 218 185
3 185 218 258
3 118 184 207
3 207 184 272
3 118 195 184
3 184 195 272
3 210 183 295
3 295 183 241
3 210 96 183
3 183 96 241
3 226 182 258
3 258 182 229
3 226 303 182
3 182 303 229
3 296 181 295
3 71 320 181
3 181 320 295
3 213 118 207
3 207 229 213
3 252 180 236
3 236 180 51
3 252 227 180
3 180 227 51
3 15 280 25
3 25 280 30
3 115 194 114
3 114 194 113
3 115 129 194
3 194 129 113
3 90 187 110
3 110 187 114
3 90 242 187
3 187 242 114
3 111 179 113
3 113 179 110
3 111 319 179
3 179 319 110
3 17 276 248
3 248 276 287
3 330 299 80
3 255 225 299
3 255 178 225
3 178 196 314
3 71 181 191
3 191 181 296
3 55 176 56
3 56 176 52
3 55 81 176
3 237 175 297
3 297 175 324
3 175 233 324
3 233 174 116
3 116 174 237
3 233 175 174
3 174 175 237
3 260 173 255
3 223 196 173
3 138 302 140
3 138 321 302
3 302 321 122
3 138 172 321
3 172 230 321
3 140 302 124
3 52 171 56
3 52 217 171
3 171 217 277
3 52 176 238
3 238 176 81
3 316 232 169
3 169 232 223
3 220 232 168
3 168 232 316
3 173 260 169
3 169 223 173
3 310 188 177
3 177 188 36
3 122 167 293
3 293 167 330
3 255 299 260
3 222 260 167
3 167 122 222
3 217 52 199
3 199 243 217
3 80 165 330
3 330 165 100
3 80 329 165
3 165 329 100
3 310 164 277
3 56 171 164
3 164 171 277
3 230 163 321
3 316 222 163
3 225 162 313
3 313 162 314
3 225 178 162
3 162 178 314
3 178 255 173
3 173 196 178
3 124 278 293
3 293 278 122
3 124 302 278
3 278 302 122
3 270 56 177
3 177 36 270
3 230 161 273
3 273 161 136
3 230 172 161
3 161 172 136
3 313 160 225
3 225 160 238
3 313 199 160
3 160 199 238
3 168 316 163
3 163 230 168
3 316 159 222
3 222 159 260
3 316 169 159
3 159 169 260
3 177 56 164
3 164 310 177
3 273 158 230
3 220 168 158
3 158 168 230
3 80 170 238
3 238 170 225
3 80 299 170
3 170 299 225
3 260 166 167
3 167 166 330
3 260 299 166
3 166 299 330
3 220 158 209
3 209 158 273
3 136 156 137
3 137 156 138
3 136 172 156
3 156 172 138
3 321 155 122
3 122 155 222
3 321 163 155
3 155 163 222
3 124 157 103
3 103 157 100
3 124 293 157
3 157 293 100
3 75 154 243
3 243 154 308
3 75 236 154
3 154 236 308
