# vtk DataFile Version 3.0
A great-looking cell
ASCII
DATASET POLYDATA
POINTS 494 double
174.7340482800897 83.48230909983073 57.69092827776771
175.30006597357337 82.04404788287613 57.26918539403595
176.7386917726547 81.20709900091644 57.80769263775466
178.2807969365326 80.137665167919 58.32915450635787
176.56625421983028 83.15977458636213 57.86376975120213
178.6517168543912 82.25670461901979 58.12317170281592
177.95599582049928 78.66208154149972 59.20258864603413
179.8157683539232 79.06083315515833 59.19944185775068
181.56671132161955 78.98169788008114 59.68950694958577
173.22555618307754 81.93324814461425 57.259730403388616
173.293287491375 80.07467592384796 58.404091930507136
174.93983742841368 80.49438577175232 57.87865989629529
174.61819208618385 78.94383630710963 59.117498708154905
176.48862649666947 79.35448909527183 58.49077264773195
179.80066169949737 80.75979604341109 58.479263524752355
181.33508944638754 80.35731657143812 58.899709513323906
170.70906062843176 82.91713486667906 57.40433365825716
180.80875166483557 82.1312461364541 58.44859448563869
181.62164015480053 83.32651623594461 59.65065251335814
175.69788848020602 85.14255836778885 58.84283681220616
174.1240816279663 77.86026440494163 60.840670203003846
175.48659259057686 77.3635574389511 61.994712575885956
176.3758106154499 77.73490545904663 60.15033647724618
177.46175907821092 76.90378007879809 62.404076215907175
178.74441035036304 77.58115132497728 60.47899357242209
180.8355064816398 77.65562061372533 60.41248462771029
181.92263861223032 76.98309493987946 61.56856740077491
182.7017791581138 78.19319302933428 60.62290304817473
170.7862657471261 78.78674670492931 60.21424329360721
172.66604997443312 78.971500999199 59.72307897605425
172.1594690427721 78.1585854568288 61.563556116561905
182.98960938861214 79.92299193953254 59.79103946881807
184.4972765140259 79.32137496018626 61.465880149455046
171.07667488141033 80.35528113647742 58.45240910871125
182.43805616693135 81.74240219662393 59.4244178125272
183.94401149433088 81.4993979237102 60.68051243266181
183.05478811649309 82.98744818188106 60.353628731909566
179.91708665247813 83.72167346154859 59.09036294627462
172.80188397446426 84.68842134559785 58.1917614173338
177.55374864825507 85.71786028650229 59.85843199573038
178.07935666581326 84.48998602447831 58.525279044597625
177.0507620145229 76.40836338876707 64.84805759193837
178.82943614721526 76.12672591966559 63.8404217315539
179.04064603895273 75.67606056957413 65.63151662352398
180.05631130608708 76.2532592035905 62.075351919198425
182.2238033502139 76.14872120787362 63.094718862393684
175.7342865047889 77.0623197930756 63.50390011959672
174.83148971848257 76.76522107365014 65.05563150234293
173.75273657131956 77.36049680857626 63.09608815519376
184.22024926510693 76.48717681186021 63.96557593905134
183.57953540722966 77.32471432557212 62.12887683410038
184.99682086758955 78.00239253524471 63.089916829296584
170.09149318069464 78.58364325441403 62.21335923808221
168.64526672980156 79.97721456929368 60.29067843700813
171.66349813251927 77.92813148605624 63.45114874374847
185.94090774918854 79.62669857075515 63.431267989036186
185.30920993616627 81.42563969865282 62.29252281481534
168.15380964891907 83.91918715908918 57.5333598841812
185.23132494112915 82.79080963898764 63.42118106102314
184.06854045995243 83.35138556707304 61.95644765313607
182.1705307544306 84.17877395515565 61.15805221585155
180.75597787268438 84.47187863730986 60.3270143797266
170.2491138662826 85.18289006368991 57.77875613515126
171.1049511393103 86.89331672282069 59.14936906961058
176.20855878336667 86.77762480034774 60.8081343865
178.29568655183797 86.27161273495516 61.50424163824514
180.52249642391996 85.4792437597742 61.96381012332593
179.3103535792958 85.26655213810984 60.0520772977044
173.77025933766737 86.89192086689474 59.93178170449565
179.35950543145057 75.09788077092036 67.56422232816753
180.93985686348324 75.22043968703441 66.31622710960715
182.79290829902 75.21542150469305 67.16149668546444
174.1515506420319 76.39352154623136 67.00191121274649
175.87777423377818 76.26299130629698 66.45624127249259
182.62917115912563 75.5293568193846 65.1220286704698
184.6341614755846 76.06319468179336 66.29852522916454
170.76449031316656 77.52617971183447 66.8780160153313
172.42772067934513 77.1459487489305 65.43487723439648
186.41449374232124 76.81002620645928 66.83130429543779
186.15730098283208 77.65296884535155 64.91613388335067
187.6138819950419 78.10792674893749 66.68205601871914
169.76551248967525 77.94612924304055 64.8325027079058
167.33148383044116 79.09190462820652 65.94973491614955
167.69383740768814 79.19108141504682 63.06760580923139
166.82407870587937 82.41879020152042 59.6042648030135
165.57589527166076 81.26429494105128 64.24626873522206
163.97415674920404 84.03373803507301 63.65915533225917
186.29425132391668 81.59326580129607 64.10364584798408
187.340109409187 79.97879415645555 65.41922908107327
164.42926937156207 85.2592299219615 60.97709089955186
185.94074941876207 83.32329435848432 64.8409409184584
166.97267231959864 88.7082474921239 61.9147589779598
182.59934412542225 84.80012935945962 63.07122117254478
184.41663815405886 84.17461063255635 63.98984756180762
168.24387145508928 86.76740540061758 58.44461882459539
175.9016211297492 88.14948754459982 64.28989823283453
177.00550287523168 87.42656602434101 62.8957292667857
178.98602724383127 86.52390767827055 63.60570043033412
181.04530111257358 85.80851809501428 64.37494797259032
169.29061648506405 88.16720004571613 60.564340672121915
174.57414882674723 88.16691472201626 62.46576332380097
171.83087084555785 88.04404654128827 61.512320083724
177.49902201235986 75.73370119199444 66.95938256121754
175.79880855358613 75.72647959138942 68.33845225529583
177.8234566487236 75.05844997081795 68.8676400558823
179.64653211741924 74.31116590246108 69.40121683359027
181.22593063963294 74.68492981012253 68.23981223054166
181.5344163265411 73.87059525496356 70.08068963241286
183.08180676295382 74.36580368796899 68.90450145027492
174.97011863692055 75.50564014771116 69.91740257552418
173.80922338583414 76.02510852060311 68.94467341612548
184.3011773531999 75.11273205634356 67.98114203494062
185.00440000792793 74.5362468359078 69.55877557151823
185.9153728306438 75.6516697317434 68.1199377445641
172.25682588880747 76.83518756286072 67.87260349844534
170.32024888352265 77.69422338474023 69.09569365085572
187.6512665900939 76.7093622472458 68.22780412340383
188.88658438359366 78.38550915321298 68.25964658004867
169.07735814639463 78.0865659626244 67.15649167510779
167.5381196754772 78.91790772134037 69.03213756709555
189.7853250110364 80.22069933689309 68.09519684332453
188.63953104963923 79.50746099992747 66.8941772829371
165.82186528986324 80.91902783159138 67.47762197726672
165.6211717339023 83.02378886986146 69.06696685362317
189.57543315138534 81.98569100073529 68.0593825847846
188.61094232585017 81.18384845126224 66.82172682475394
164.4407747270837 83.33586226202135 66.55791225125658
164.85624146900622 85.62409872731048 68.52099823031352
187.48188726610988 82.28934451527192 65.59327947901191
188.46765123161234 83.08596011811251 67.19429515231381
186.81659611757058 84.03886843027625 66.45865051483861
163.61053693625067 86.18143092089878 65.7516760436322
165.5283115849463 88.2342674118821 67.10122105136774
184.91173333564564 84.56992772560136 65.9141876310604
183.60476944954635 85.50554328595543 67.26496675547284
182.9850095581217 85.06238967297371 65.22645479797016
164.82575438058151 88.39708772751062 64.12652527033875
168.06669629416092 88.61282063423141 67.46991654449481
167.56712496529872 88.9064154143876 65.01716902235181
177.87175579013652 87.32961871586275 67.28936190792692
175.71230121361967 88.27879889436176 66.41868378177192
177.53611805612871 87.47959764026076 65.05166373754685
179.4935388880099 86.6430237953144 65.8414899440727
181.56631066410026 86.06616991429745 66.59028619169548
170.40837879557324 88.84069876370629 66.23069550330469
169.75330372368316 88.70172820611846 63.19776009073124
173.23727061016663 88.82016552445148 66.38549593801048
172.37346582385726 88.64517460892857 64.06677574588446
174.3837762818084 88.54872135082783 64.71359577218398
175.11113862054975 74.99923386247835 71.37433488422381
176.43369227240692 74.99579558216251 70.1891165050724
176.65049321436527 74.15156283008994 71.86404960791198
178.0873439434206 74.07710938237128 70.59631730292588
178.29276765409287 73.23926696734492 72.376543503741
179.88849305914118 73.32445073141787 71.17494583964917
181.82016520358908 73.1132420409445 72.04853190848485
183.8592985507133 73.01680214586875 72.88763631213051
183.54534748015993 73.571613440218 70.78019971565838
185.77549735446374 73.85951973461745 71.70359208521462
172.4483562440432 76.5531441345131 71.8406198436031
173.71122708028784 75.82744091198927 70.75187064702904
187.38954991230494 74.53157798141964 71.81499229442339
187.22466107431399 75.1893296845057 70.11900848830649
188.7633773146823 75.62430722451192 72.20580978458094
172.23585305387445 76.64971455257623 69.93130931034594
171.12234821329764 77.43497638417416 71.09725069175309
190.5633739522369 77.60498930673967 71.87508514663453
189.1161638303261 76.90045282566517 69.96320851942804
169.2396126587744 78.39646908962443 71.70018100565865
191.2355246580726 80.09306339851169 71.87553770081283
190.17045811186648 79.07292969678767 69.91476047496653
166.3764703422695 81.0655594293854 69.7225225440394
167.3435584914129 80.36087081133881 71.54002208283198
191.1489358173412 82.22384764719415 71.95275729327197
190.28832680809023 81.56396064603547 69.95448757480786
166.59467234511268 82.54842011190011 71.15160272818515
189.37801828910335 83.53074426838423 68.98988246472284
188.4879304110923 85.0891389789115 70.25479849495433
190.11496816721623 83.74035987146759 71.03661039313624
187.6512079227557 84.6260915093323 68.29456913815307
166.33943317009087 84.80584937905721 70.65633832000951
168.0355982792001 85.86862645866276 72.07837483539647
185.72191216350728 85.34858616665713 67.68226299530168
184.39449689985284 86.12937321176578 69.19625866936097
186.57077403977544 86.03322745872559 69.57438175930967
167.23287389986868 87.36776730420303 69.70457072054613
169.74138479793282 87.4432385127388 71.21083818484202
169.77126000837657 88.50950096730425 68.98663411990478
171.3968607265357 88.34536882250201 70.34500368933021
176.60448907692498 87.6704339838605 70.7572399843112
176.32255626826773 87.88098421370272 68.7503164028898
178.23264904049586 87.11037275654418 69.54726271609495
179.9806438919916 86.72046802885696 68.12094360700192
182.21269261940546 86.43952702440195 68.7552372615182
173.32734036383954 88.30434998210961 70.293122507519
172.08116990474196 88.73587144542923 68.46546018648598
175.1197231234139 88.23906593628097 70.06896934067599
174.31123135916886 88.43240868205666 68.40295139748872
176.82315380211793 73.41659941921723 73.6299827388124
175.2372691342874 74.37032421061929 73.09436420911848
178.51165394016883 72.71118729899734 74.20717195138454
180.08839884037198 72.77761171197179 73.13003842121277
180.04783193446417 72.25924130389274 74.75657482136121
181.99461331139412 72.39709672217228 74.3301892125507
184.2991017329668 72.64059698205871 74.96328684109345
186.50079491227407 73.05266849884238 75.57414605051027
185.58177031759465 73.28960183012555 73.70937493788651
173.82257908694731 75.4863919069091 72.53699140319809
173.8740078060231 74.88628048896486 74.37659837404809
187.44093392192335 73.99102480594496 73.44869084400837
188.32364357145 73.95794541608274 75.33431622855457
189.63767574245594 75.33292939346151 76.24595895353828
189.03596854383386 74.9335379232406 74.22134142362954
172.52860448103834 76.24707350183306 73.77681339368294
171.15642269977727 77.51280877890234 72.94074414431351
191.02907182990256 77.49941292632114 76.22468886207633
190.4027380080119 76.40083802413534 74.07883542593284
170.13209455411805 78.83547683464614 74.0174485277122
192.0763494946201 79.80954782209386 76.36800578621609
191.62314126942402 78.69869370507487 74.02830795152973
168.86883718114672 80.35602597773463 73.36420909849056
191.97322666765342 81.98470389731715 76.6104002764461
192.06523760201273 81.56705548280112 74.13691607128656
167.55211889030625 82.17442694935218 73.16372582979093
190.84482648979298 83.84827831959487 73.24375791860531
189.53885145620487 85.22027504440432 74.69240177400505
191.090211373564 83.66466467549708 75.61295746983261
189.21063458234224 85.37451310747284 72.39064981162095
167.24926556158186 83.97267325840676 72.33866459657
187.16387682806067 86.1231667707271 71.7010011346697
185.65833063814495 86.77939783191623 73.1212099356317
187.66367239604548 86.25710708508923 73.85434834277737
185.17314825285277 86.65377453956606 71.10220685626409
168.7849791587019 84.177409227893 73.86016810199898
172.05971918524946 86.1270254521094 74.35188640210686
170.21506608266947 86.03924297643435 73.15996426757148
173.9403979794283 87.01970088137408 74.03279032080823
172.19806820579092 87.41182377911649 72.25368062166056
175.9749462545638 87.29312986336473 73.87910039847402
174.8471016632783 88.00440219315298 72.06089523176871
177.88804620189154 87.16411145598136 73.62358427275413
176.73678189258993 87.50259342049395 72.4098328093208
179.91452296539967 87.03250494553139 73.11596891971384
178.2978654729135 87.08373042896301 71.68765207015349
182.11826974600186 86.98874738495384 72.7191168111033
180.55483715129128 86.95626226307624 70.67211105517477
183.96392285745412 86.8463037971835 72.44221096857724
183.0816722478293 86.7889083110201 70.79529104517788
177.0333467900054 72.72879169686023 75.45531570284224
175.6366208306046 73.19154422292692 76.84969754649661
175.43071870510713 73.79760893460744 74.94228911715331
177.43306862621424 72.34240083487194 77.4083719350622
178.85774404092004 72.16202600188588 75.98739372919466
179.44325217837894 71.90221789137773 77.93857039096362
180.84021555283556 71.90330528483499 76.30373163052109
181.77852595564715 71.72987184529896 78.48462272211654
182.92529699354054 72.06832101620476 76.48316882617102
183.71481725459586 71.88783675716628 78.03822990558902
184.84968884350093 72.4078251386655 76.8817646459277
185.18251861679855 72.34327705011408 78.70485517153347
187.0641608911194 72.9487466857015 79.40882439695133
186.40908415184478 72.71992148412303 77.57174347123721
174.1268204568527 74.43353050374925 76.30882433658708
188.08664603172824 73.73216247852343 77.37185728092744
188.67429122556024 73.98576102383265 79.26450779973104
189.9713700633042 75.20192777908196 80.27166984622296
189.50165384460746 74.82712446172502 78.26940715702455
172.7282919531567 75.79621766969662 75.77026605000715
171.9140726311029 76.82664436458553 77.28137967565235
171.38385420041988 77.50664039616153 75.22452459362086
191.0811961324897 77.35581360474512 80.23498921268562
190.5798046734629 76.38897260396593 78.26333395169384
170.5789673610097 79.10334909838201 75.6474144905959
171.09741586748433 78.55022838516756 77.0955764048104
170.6480731562016 80.31059255412409 76.76481403186429
191.73563304923422 79.22996375269295 80.25877635130182
191.68775114840673 78.45781791758631 78.37051172563154
169.21258333084313 82.08789204012945 74.5038299481555
170.03946538801844 80.4645662624249 75.01773727542795
170.42950947821126 82.00081465331823 76.00774281942034
191.5841905165635 80.91442452800874 81.70120412262737
191.9363409890911 81.02781714411954 78.84987946119332
169.9959389755218 83.40031725315659 75.22780683590298
171.1444395188111 83.81396870178135 76.6524114236946
191.04713784375127 83.36323880445119 77.98244091480584
189.80741680649663 84.90114169301708 79.33178204491982
189.73615672065236 85.06428431014754 77.00372101632632
170.665762155237 84.83457299704686 74.88683850907833
187.95939686152448 86.18046512098547 76.06918587930734
186.161739045354 86.37698483862826 77.30204493292945
188.09305254944692 86.03736809364136 78.28874818990117
186.00433763704052 86.77155936669541 75.21946714770937
171.96669630073737 85.25755458123349 75.89308146496383
174.4692660656191 86.43424168490017 77.49298862822062
173.40118350288333 86.13063720442071 75.8451423629289
176.44816939638918 86.76690886831172 77.30278857815084
175.23630861443843 86.83442946174759 75.67506646555286
178.46446033282652 87.05257683234824 77.09316049654772
177.19611486457546 87.29326384955357 75.48179871413288
180.56507592723082 87.07801855339213 76.84377525862126
179.23816298987268 87.12718493540179 75.16375924073532
182.72095879651746 86.86824376751348 76.59911176669756
181.39345377794638 87.05258606778446 74.82030308275735
184.57119715450722 86.72616239884657 76.41129070183946
183.77217281358645 86.79735970124304 74.4757301795404
177.95415184200576 72.32334258336513 79.41682001907456
176.58481105552212 72.98102319533083 80.79754398860135
176.1067421959469 73.03629013737174 78.83423346265779
179.92088024939895 71.77307047688251 80.0644592579941
181.93295731570305 71.57637722563732 80.8867355430257
183.66684665178173 71.79808693184471 79.74144222696246
183.82047523879802 71.89630115656757 81.77112541270631
185.3866986482577 72.31181914826922 80.59033665982886
185.58650635164418 72.50840700523123 82.55035937410871
187.5632860629741 73.35661868987621 83.21771975407648
186.83399615961244 72.87654960258315 81.36362003240254
174.40277157027944 74.00875695845424 78.26777231820066
174.9518428333011 73.98213560761292 80.21329789260263
173.32514073953794 75.08937870243773 79.6600684286158
188.38902123898396 73.67307915744742 81.03154512618569
189.46313037638865 74.7214983358958 82.63544539521934
190.30339561832355 75.96121946259056 84.21455849456402
172.927173731667 75.22149288958886 77.69540756787231
172.19082960565888 76.23278091722072 78.9397820552324
190.9387163361308 77.78379171350525 83.85444738561883
190.6520087438037 76.53295189112285 82.20985737409761
171.56869237749052 77.88259753176105 78.95915675063681
191.3628272822708 79.73592421788119 83.73292342165092
191.27809159661297 78.5796121243377 82.00422340328734
170.76030387978568 79.77559854194335 78.66843074253728
170.93826901162393 81.05776487891642 80.09544515078967
191.26861468259048 81.53096437083089 83.72994381515109
170.9546365227698 81.96433515275805 78.15817101671827
171.72731823157667 83.77130548335363 78.54843620628114
171.49018496641514 82.91687360025973 80.29979971984996
190.93981510661928 83.05135357780993 80.39038359995541
190.61579900183372 82.9352136078478 82.70303340538712
189.5842440933417 84.60441100476372 81.61550020730145
172.65969728630867 85.25690596777613 77.66609609727284
172.71077737528017 84.709258708649 79.89465441803576
188.03259003556138 85.78495318830156 80.4962837362674
186.1618605773735 86.20160678392705 81.48804487238021
186.22809952463675 86.2670008995136 79.4065247032209
173.9505245602303 85.81452499094581 79.08925820129446
176.78879651207828 86.53446526054891 80.83394301404232
175.6426957712197 86.3795276785576 79.1360036550061
178.84404538972998 86.77010207632213 80.63468289236461
177.63662316801452 86.84696747206564 78.9713292130734
180.89022338545894 86.78689920852226 80.46641195079111
179.7071272761907 86.99789928390997 78.7748351333666
182.9529242121626 86.679545507739 80.39342002504618
181.83911009844988 86.87697313595123 78.59003135567642
184.72738298512402 86.47770481564321 80.40837423837861
184.1837092463226 86.70000840988526 78.44967290727675
178.44328159642 72.53441423480065 81.40143831433294
177.15345770695612 73.3517895355173 82.583773987261
178.8564590948496 72.98462025430834 83.31341007832731
180.2506119577873 71.94950258071093 82.19973449515786
180.65996326724576 72.68051581710036 84.1007231011468
182.16216411066506 71.80766016189554 83.01335652246603
182.39227424097356 72.23169542592207 85.00413574797572
184.01183394178312 72.19272836981116 83.78263658752758
184.15882430940744 72.75672016653851 85.66553061355634
185.79456081090345 72.74076228449728 84.55159444784002
187.38569958656475 73.43776323566262 85.5214639138132
175.64260611890438 74.12781238679098 81.99599175964002
176.35112800341489 74.3957159172997 83.33274083181126
175.24798685759018 75.41521183898311 83.15681850985804
188.93507602118845 74.51969579029493 84.78538695667972
189.62740092450142 75.98647479144192 86.14043174790274
174.17432004387405 75.33584238254188 81.52721617590883
173.76693924970638 76.75605597395511 83.06206237204253
190.41797421538226 77.66182141208323 87.1315191522242
190.57010944689642 77.19798597122471 85.39657176010768
171.2876025855537 79.18208329024735 80.75284291391814
172.22100573643297 76.74764750806253 81.01686231152591
172.28487464322282 78.69868028075982 83.00617553674648
190.4144866189102 79.94760361294028 87.36750998530835
190.8853702538288 78.85276884687157 85.50579869300965
190.86806164138832 80.85818908397493 85.39154933170205
171.53515430389874 81.32504393965894 82.36213058017631
190.29478574438258 82.70568715583994 84.80029958923464
189.08493297236654 83.9886085083493 86.01624629773548
190.06724870105236 82.21649389818218 86.95388523672317
189.3632583060228 84.42008739905368 83.87525084404282
172.8703888997777 83.78219372067574 82.28513783023308
174.63869505431364 85.60169212015605 81.07938280752461
175.03052197925 84.68418657191232 83.32982919116834
184.13531420409578 86.14570872923979 84.41243404191617
185.59415900927326 85.83767860585456 85.26704620872391
185.9079043935597 86.0237300923916 83.55438500759075
187.50794524872003 85.41755966465945 85.08845464369651
187.8536489251413 85.61155200376638 82.71386408877024
176.22987848077526 85.98663392100953 82.52483260721004
179.27657013360565 86.10234695701952 83.98002306094313
178.0558353582089 86.28621750713576 82.42369239070932
181.11988744010836 86.30215248518043 83.73616078154907
180.0202508808943 86.58004220557775 82.2483155009355
182.71997435828922 86.42745361737622 83.60835750115884
181.9682224346434 86.60717963020058 82.13338866607107
184.0783669153345 86.32931675092678 82.28269137968144
179.28687333173025 73.80348822864894 85.12429117147983
179.81614742855936 74.62206306099573 87.16722387301982
181.01256655494032 73.29336029520654 85.95688312734913
182.64440698173814 72.96372852561038 86.74423435631219
184.30087989653987 73.18985555417794 87.49734187325103
185.83998426654895 72.96719044740483 86.48223179883409
185.9998665679907 73.40539595893424 88.27965287746275
187.69388464822208 74.24385983707307 88.57813164874607
187.19892252975552 73.47813519384086 87.18276400532895
176.49840426345304 75.407120900066 84.40168239946527
177.48680011644612 73.93858106210963 84.32023661811648
177.95658179752368 75.40358544727387 85.8136264363635
188.4436497666931 74.51518439491278 86.81293057239262
189.19654345125153 75.99958382097667 88.52868404994699
176.57184603625402 76.51348148367049 85.44015613234987
175.35146316750297 76.73054698332308 84.37912886987323
190.03943429277103 78.51466620805857 89.44409018847536
174.223455254238 78.37844947629078 84.47206230592019
173.53319605687236 80.73558937443656 84.19488440339192
175.32797682268668 81.74244694499859 85.24096561018663
188.1019648695868 83.69807576013599 90.26138926781367
188.82017871115508 83.71334556719094 88.18127912353374
174.18546625593845 82.83477092127492 83.97904909074647
176.59761682908473 82.49689868483337 86.00083956510584
175.91752691932018 83.52597798267163 84.875141075763
184.6588226154005 85.2331333384983 88.51149434015844
184.20841769406127 85.83116906747254 86.36391075033895
186.1678161893668 85.54043496525145 86.88071014313971
186.98804080861603 84.93529107767124 88.79905190852996
187.82473267419968 84.8920625305065 87.03106908279524
177.63115952664873 83.73167153360798 85.81657567001452
177.2992927204836 85.07479082493353 84.08868414728181
179.1861624468595 84.67779341993801 85.22633301787991
180.53442581593535 85.5110689277599 84.89877166036796
182.2589711258954 85.85454492016574 85.30549546871094
181.44900475483416 73.78838129156848 87.44093890465828
181.06513596483586 74.36634134719039 88.96109544449236
182.78177879616058 73.864284327811 88.29915283864965
182.75993434398157 74.66330125460196 90.03594617997352
184.42781245073508 73.96227248173145 89.23370146856229
186.2122758955293 74.56934615026876 89.79111637943659
184.57096066476566 75.08821043632243 90.92239450520488
186.5758458782597 75.79089598939032 91.43745829282061
178.5818614988635 76.19319789887719 87.5798908189733
187.967774003499 75.12984453868945 90.1615285906731
188.3966818825084 77.03507402536422 90.79034272018013
177.25518555304683 77.11846991376487 86.8340414600605
175.76483189177807 77.8546814757174 85.79448508869487
188.7163082447002 79.49310978288266 91.6898969403509
175.42089420705827 79.786425158195 85.49453158143683
189.61260286212988 81.53337285028626 89.63130636123392
187.56809508229688 82.0064491411848 91.84572741012178
176.65171246515604 80.97094946329334 86.48367055747998
177.9599791405492 82.1937414362429 86.8656828496233
179.38367192984708 83.42263440162783 86.70603133125778
180.80379611991992 84.71053175493414 86.30708468336651
182.4351467607265 85.35659700380319 87.5816850031811
179.73003807999828 75.94675386811711 89.01141014464042
181.12830856585933 75.62971667900682 90.51214571501099
184.69177219830414 76.67764191252584 92.50525540568498
178.45497859065225 78.11196593688149 88.80056543828961
176.96725565437907 79.04823643513434 86.85970142826449
186.7052407389431 80.06402369750562 92.8520663021847
178.09898094582465 80.47152002140487 87.86934939362244
184.97996353616858 81.68020441695333 92.81667345196936
179.46714401896443 80.33139563306446 89.55915676768136
179.39157392772134 82.11369006086976 88.33479945675312
180.85337520975634 82.2710702530166 90.52384897425215
183.0396168973424 82.98668716089244 91.91545533466126
185.50906274613556 84.1374671608425 91.0651660407853
180.7340707121433 83.92969650149782 88.35712624462009
182.62605649757458 84.57466654355007 90.02215678289446
182.68269591952884 75.59081009189445 91.99522219906521
181.33268727970054 76.88982779910963 91.6743850933842
186.8373499813248 77.85657164529334 92.55901403627608
179.9868772838508 77.24297310490267 90.56278199769933
179.54893894274437 78.89446735952134 90.60158887275577
180.3487138945973 80.19634046082392 91.24972208697116
182.2346648777818 80.48972177047744 92.59027770621013
182.62814297511525 77.80353416658824 92.67876632168837
180.8558772849023 78.56080271702585 91.78530156076911
184.66396222884094 79.04904287488085 93.51965378187175
180.61107225955908 75.67760703725764 64.31027499152108
167.54812265513905 88.18655463757885 59.893926839019485
165.7660683305866 87.42944917664384 59.61616722865885
163.3127072536978 86.49819394021542 63.10467784479734
165.09649242322908 83.56948435610066 59.87633321251147
164.42802569901266 87.86924249714035 61.59462933945237
165.26391060639494 82.81972633389097 61.61673676851604
168.8756791929603 81.64915811772852 58.26342431415373
166.52187435842652 80.88927238771534 61.61985195593141
166.15912879386013 84.90202859860788 58.97981381377272
172.6781032988695 82.34917973903387 83.61025353212322
POLYGONS 984 3936
3 38 19 0
3 5 3 2
3 1 0 4
3 2 1 4
3 5 2 4
3 38 0 9
3 40 4 19
3 4 40 5
3 11 12 10
3 11 10 9
3 9 1 11
3 13 12 11
3 1 2 11
3 11 2 13
3 3 6 13
3 2 3 13
3 7 6 3
3 14 7 3
3 3 5 14
3 15 7 14
3 15 8 7
3 15 14 17
3 38 9 16
3 37 5 40
3 18 17 37
3 5 37 17
3 22 23 21
3 22 21 20
3 24 44 23
3 24 23 22
3 6 22 13
3 22 6 24
3 25 44 24
3 6 7 24
3 24 7 25
3 25 26 44
3 27 26 25
3 7 8 25
3 25 8 27
3 29 30 28
3 29 28 33
3 10 33 9
3 33 10 29
3 12 20 29
3 10 12 29
3 22 20 12
3 13 22 12
3 31 32 27
3 8 31 27
3 8 15 31
3 16 9 33
3 15 34 31
3 15 17 34
3 31 34 35
3 31 35 32
3 62 16 57
3 17 18 34
3 36 34 18
3 34 36 35
3 16 62 38
3 63 38 62
3 39 40 19
3 67 40 39
3 40 67 37
3 42 43 41
3 46 47 48
3 21 48 20
3 23 41 46
3 21 23 46
3 42 41 23
3 44 42 23
3 45 44 26
3 50 49 45
3 45 26 50
3 26 27 50
3 50 51 49
3 28 53 33
3 30 54 52
3 28 30 52
3 27 32 50
3 32 55 51
3 50 32 51
3 56 55 32
3 32 35 56
3 57 94 62
3 59 58 56
3 35 59 56
3 60 66 92
3 18 37 61
3 60 18 61
3 60 61 66
3 60 92 59
3 60 59 36
3 93 59 92
3 36 18 60
3 58 59 93
3 99 63 94
3 62 94 63
3 65 64 96
3 19 64 39
3 64 65 39
3 66 67 65
3 39 65 67
3 67 66 61
3 67 61 37
3 38 63 68
3 38 68 19
3 68 64 19
3 73 103 72
3 73 41 102
3 43 69 102
3 41 43 102
3 70 69 43
3 483 70 43
3 74 70 483
3 483 45 74
3 74 75 71
3 74 71 70
3 77 114 76
3 47 77 48
3 47 41 73
3 75 74 49
3 45 49 74
3 79 78 75
3 75 49 79
3 49 51 79
3 79 80 78
3 81 118 82
3 54 77 81
3 52 54 81
3 54 48 77
3 79 88 80
3 82 85 83
3 55 87 88
3 55 56 87
3 56 58 87
3 90 128 87
3 90 87 58
3 87 128 88
3 90 58 93
3 145 99 91
3 96 95 141
3 97 96 141
3 96 97 65
3 98 66 97
3 65 97 66
3 66 98 92
3 135 92 98
3 92 135 93
3 101 99 145
3 63 99 101
3 63 101 68
3 68 101 100
3 95 96 100
3 100 96 64
3 64 68 100
3 102 104 103
3 69 105 104
3 69 104 102
3 106 107 105
3 106 105 69
3 69 70 106
3 108 107 106
3 70 71 106
3 106 71 108
3 103 109 110
3 103 110 72
3 111 112 108
3 71 111 108
3 71 75 111
3 111 113 112
3 111 75 113
3 114 164 115
3 114 115 76
3 78 116 113
3 75 78 113
3 117 116 80
3 78 80 116
3 118 119 82
3 121 120 117
3 121 117 80
3 80 88 121
3 122 171 123
3 85 126 86
3 82 122 85
3 125 124 120
3 125 120 121
3 88 125 121
3 127 126 123
3 86 126 131
3 126 127 131
3 128 130 129
3 128 90 130
3 124 125 129
3 128 129 125
3 128 125 88
3 132 131 127
3 131 132 136
3 133 134 182
3 133 93 135
3 133 135 134
3 133 182 130
3 133 130 90
3 90 93 133
3 137 138 132
3 136 132 138
3 91 136 138
3 91 138 145
3 141 140 139
3 141 95 140
3 139 142 141
3 141 142 97
3 192 143 142
3 192 142 139
3 97 142 98
3 142 143 98
3 98 143 135
3 134 135 143
3 144 145 138
3 144 138 137
3 146 147 144
3 145 144 147
3 101 145 147
3 101 147 100
3 140 148 146
3 147 146 148
3 100 147 148
3 148 140 95
3 95 100 148
3 150 151 149
3 152 153 151
3 152 151 150
3 104 150 103
3 150 104 152
3 154 153 152
3 104 105 152
3 152 105 154
3 107 155 154
3 105 107 154
3 157 156 155
3 157 155 107
3 107 108 157
3 158 156 157
3 160 207 159
3 109 160 110
3 109 103 150
3 158 157 112
3 108 112 157
3 162 161 158
3 158 112 162
3 112 113 162
3 162 163 161
3 164 160 159
3 164 159 165
3 164 165 115
3 164 110 160
3 113 116 162
3 167 166 163
3 162 116 167
3 162 167 163
3 116 117 167
3 115 168 119
3 170 169 166
3 170 166 167
3 117 170 167
3 117 120 170
3 171 172 175
3 171 175 123
3 168 172 119
3 174 173 169
3 174 169 170
3 120 174 170
3 120 124 174
3 123 175 180
3 123 180 127
3 175 228 180
3 176 177 178
3 129 130 179
3 176 129 179
3 176 179 177
3 173 174 178
3 176 178 174
3 176 174 124
3 124 129 176
3 181 180 228
3 127 180 185
3 127 185 132
3 180 181 185
3 182 183 184
3 182 134 183
3 177 179 184
3 182 184 179
3 182 179 130
3 187 186 188
3 191 189 243
3 139 140 190
3 191 139 190
3 191 190 189
3 245 192 191
3 245 191 243
3 191 192 139
3 245 193 192
3 192 193 143
3 193 134 143
3 183 134 193
3 137 187 144
3 194 195 188
3 187 188 195
3 144 187 195
3 144 195 146
3 196 197 194
3 195 194 197
3 146 195 197
3 146 197 140
3 189 190 196
3 197 196 190
3 197 190 140
3 151 199 149
3 153 200 198
3 151 153 198
3 201 202 200
3 201 200 153
3 153 154 201
3 203 202 201
3 154 155 201
3 201 155 203
3 156 204 203
3 155 156 203
3 206 205 204
3 206 204 156
3 156 158 206
3 207 208 213
3 207 213 159
3 250 208 199
3 209 210 205
3 209 205 206
3 158 209 206
3 158 161 209
3 211 210 212
3 209 212 210
3 209 161 163
3 209 163 212
3 159 213 214
3 159 214 165
3 213 269 214
3 216 215 211
3 216 211 212
3 163 216 212
3 163 166 216
3 269 217 214
3 219 218 215
3 219 215 216
3 166 219 216
3 166 169 219
3 172 223 175
3 168 220 172
3 222 221 218
3 222 218 219
3 169 222 219
3 169 173 222
3 233 223 277
3 175 223 228
3 223 233 228
3 224 225 226
3 178 177 227
3 224 178 227
3 224 227 225
3 221 222 226
3 224 226 222
3 224 222 173
3 173 178 224
3 228 233 181
3 229 230 231
3 184 183 232
3 229 184 232
3 229 232 230
3 225 227 231
3 229 231 227
3 229 227 177
3 177 184 229
3 234 235 287
3 233 287 235
3 181 233 235
3 181 235 186
3 236 237 234
3 235 234 237
3 186 235 237
3 186 237 188
3 238 239 236
3 237 236 239
3 240 241 238
3 239 238 241
3 241 243 189
3 241 189 239
3 242 243 240
3 241 240 243
3 244 245 242
3 243 242 245
3 246 247 244
3 245 244 247
3 245 247 193
3 230 232 246
3 247 246 232
3 247 232 183
3 183 193 247
3 188 237 194
3 194 237 239
3 194 239 196
3 189 196 239
3 248 251 249
3 252 253 251
3 252 251 248
3 198 200 248
3 248 200 252
3 254 255 253
3 254 253 252
3 200 202 252
3 252 202 254
3 256 257 255
3 256 255 254
3 202 203 254
3 254 203 256
3 258 259 257
3 258 257 256
3 203 204 256
3 256 204 258
3 261 260 259
3 261 259 258
3 204 205 258
3 258 205 261
3 208 267 213
3 249 262 250
3 250 262 208
3 263 264 260
3 263 260 261
3 205 263 261
3 205 210 263
3 265 264 266
3 263 266 264
3 263 210 211
3 263 211 266
3 268 267 322
3 213 267 269
3 267 268 269
3 271 270 265
3 271 265 266
3 211 271 266
3 211 215 271
3 272 273 274
3 268 273 269
3 269 272 217
3 276 275 270
3 276 270 271
3 215 276 271
3 215 218 276
3 279 278 274
3 220 217 278
3 220 278 277
3 278 279 277
3 281 280 275
3 281 275 276
3 218 281 276
3 218 221 281
3 277 282 233
3 277 279 282
3 279 283 282
3 284 285 335
3 226 225 286
3 284 226 286
3 284 286 285
3 280 281 335
3 284 335 281
3 284 281 221
3 221 226 284
3 233 282 287
3 282 283 287
3 283 292 287
3 283 338 292
3 288 289 290
3 231 230 291
3 288 231 291
3 288 291 289
3 285 286 290
3 288 290 286
3 288 286 225
3 225 231 288
3 287 292 234
3 293 294 338
3 292 338 294
3 234 292 294
3 234 294 236
3 295 296 293
3 294 293 296
3 236 294 296
3 236 296 238
3 297 298 295
3 296 295 298
3 238 296 298
3 238 298 240
3 299 300 297
3 298 297 300
3 240 298 300
3 240 300 242
3 301 302 299
3 300 299 302
3 242 300 302
3 242 302 244
3 303 304 301
3 302 301 304
3 244 302 304
3 244 304 246
3 289 291 303
3 304 303 291
3 304 291 230
3 230 246 304
3 305 354 306
3 251 307 249
3 308 354 305
3 251 253 305
3 305 253 308
3 255 309 308
3 253 255 308
3 310 311 309
3 310 309 255
3 255 257 310
3 312 313 311
3 312 311 310
3 257 259 310
3 310 259 312
3 315 314 313
3 315 313 312
3 259 260 312
3 312 260 315
3 316 317 318
3 306 317 307
3 249 316 262
3 319 320 314
3 319 314 315
3 260 319 315
3 260 264 319
3 319 264 265
3 319 265 320
3 323 322 318
3 322 323 268
3 325 324 321
3 325 321 320
3 265 325 320
3 265 270 325
3 273 329 274
3 268 326 273
3 328 327 324
3 328 324 325
3 270 328 325
3 270 275 328
3 330 329 374
3 274 329 332
3 274 332 279
3 329 330 332
3 280 331 327
3 280 327 328
3 275 280 328
3 332 330 334
3 332 334 333
3 335 337 336
3 335 285 337
3 331 280 336
3 335 336 280
3 283 333 338
3 333 334 339
3 333 339 338
3 340 341 392
3 290 289 342
3 340 290 342
3 340 342 341
3 340 392 337
3 340 337 285
3 285 290 340
3 386 343 339
3 338 339 343
3 338 343 293
3 344 345 386
3 343 386 345
3 293 343 345
3 293 345 295
3 346 347 344
3 345 344 347
3 295 345 347
3 295 347 297
3 348 349 346
3 347 346 349
3 297 347 349
3 297 349 299
3 350 351 348
3 349 348 351
3 299 349 351
3 299 351 301
3 352 353 350
3 351 350 353
3 301 351 353
3 301 353 303
3 341 342 352
3 353 352 342
3 353 342 289
3 289 303 353
3 354 356 355
3 354 355 306
3 357 358 356
3 357 356 354
3 354 308 357
3 359 360 358
3 359 358 357
3 308 309 357
3 357 309 359
3 361 362 360
3 361 360 359
3 309 311 359
3 359 311 361
3 363 362 361
3 311 313 361
3 361 313 363
3 313 314 363
3 363 314 364
3 365 366 367
3 317 370 318
3 306 365 317
3 314 368 364
3 314 320 368
3 369 368 321
3 368 320 321
3 371 370 367
3 318 370 375
3 318 375 323
3 370 371 375
3 373 372 369
3 373 369 321
3 321 324 373
3 376 375 371
3 326 323 375
3 326 375 374
3 375 376 374
3 378 377 372
3 378 372 373
3 324 378 373
3 324 327 378
3 374 380 330
3 374 376 380
3 376 419 380
3 379 383 377
3 379 377 378
3 327 379 378
3 327 331 379
3 330 380 334
3 334 380 385
3 381 382 383
3 336 337 384
3 381 336 384
3 381 384 382
3 381 383 379
3 381 379 331
3 331 336 381
3 334 385 339
3 339 385 386
3 385 423 387
3 385 387 386
3 390 388 389
3 391 392 390
3 391 390 389
3 390 392 341
3 382 384 391
3 392 391 384
3 392 384 337
3 432 393 387
3 386 387 393
3 386 393 344
3 394 395 432
3 393 432 395
3 344 393 395
3 344 395 346
3 396 397 394
3 395 394 397
3 346 395 397
3 346 397 348
3 398 399 396
3 397 396 399
3 348 397 399
3 348 399 350
3 388 390 400
3 388 400 398
3 399 398 400
3 350 399 400
3 350 400 352
3 400 390 341
3 341 352 400
3 356 411 355
3 403 436 402
3 403 402 401
3 356 358 401
3 401 358 403
3 404 436 403
3 358 360 403
3 403 360 404
3 362 405 404
3 360 362 404
3 406 407 405
3 406 405 362
3 362 363 406
3 409 408 407
3 409 407 406
3 363 364 406
3 406 364 409
3 366 410 367
3 412 411 401
3 366 355 411
3 366 411 410
3 411 412 410
3 413 414 408
3 413 408 409
3 364 413 409
3 364 368 413
3 413 368 369
3 413 369 414
3 412 415 410
3 367 410 416
3 367 416 371
3 410 415 416
3 369 372 414
3 448 416 415
3 371 416 418
3 371 418 376
3 416 448 418
3 372 417 414
3 372 377 417
3 450 418 448
3 376 418 419
3 418 450 419
3 377 451 417
3 377 383 451
3 420 419 450
3 419 420 423
3 383 382 422
3 451 383 422
3 451 422 421
3 424 425 420
3 423 420 425
3 423 425 387
3 389 388 427
3 428 389 427
3 428 427 426
3 429 430 428
3 429 428 426
3 389 428 391
3 428 430 391
3 421 422 429
3 430 429 422
3 430 422 382
3 382 391 430
3 431 432 425
3 431 425 424
3 387 425 432
3 432 431 433
3 432 433 394
3 456 434 433
3 394 433 434
3 394 434 396
3 457 435 456
3 434 456 435
3 396 434 435
3 396 435 398
3 426 427 457
3 435 457 427
3 435 427 388
3 388 398 435
3 436 437 402
3 438 439 437
3 438 437 436
3 436 404 438
3 440 442 439
3 440 439 438
3 404 405 438
3 438 405 440
3 441 442 440
3 405 407 440
3 440 407 441
3 441 443 442
3 407 408 441
3 458 444 402
3 401 402 412
3 402 444 412
3 445 446 443
3 445 443 441
3 408 445 441
3 408 414 445
3 445 414 446
3 412 447 415
3 447 412 444
3 417 449 446
3 414 417 446
3 415 447 448
3 447 462 448
3 448 462 450
3 417 451 449
3 450 453 420
3 451 421 452
3 451 452 449
3 426 472 470
3 426 470 429
3 452 421 470
3 421 429 470
3 424 454 431
3 431 454 455
3 431 455 433
3 471 456 455
3 433 455 456
3 472 457 471
3 456 471 457
3 457 472 426
3 437 458 402
3 460 473 442
3 442 443 460
3 459 476 458
3 443 446 475
3 444 458 461
3 444 461 447
3 461 458 476
3 446 449 475
3 463 482 475
3 449 463 475
3 464 462 461
3 463 452 465
3 452 463 449
3 454 464 467
3 454 467 455
3 467 466 468
3 468 479 469
3 469 470 472
3 469 472 468
3 465 452 470
3 465 470 469
3 467 468 471
3 455 467 471
3 471 468 472
3 459 474 476
3 480 474 473
3 473 474 459
3 460 480 473
3 474 481 476
3 482 460 475
3 477 481 478
3 477 478 466
3 478 468 466
3 468 478 479
3 479 482 465
3 465 482 463
3 465 469 479
3 474 480 481
3 480 460 482
3 481 480 479
3 479 480 482
3 0 1 9
3 20 30 29
3 48 21 46
3 41 47 46
3 52 83 53
3 53 28 52
3 30 20 48
3 48 54 30
3 59 35 36
3 102 103 73
3 72 114 77
3 47 73 72
3 72 77 47
3 81 82 83
3 83 52 81
3 76 118 81
3 81 77 76
3 114 72 110
3 110 164 114
3 118 76 115
3 115 119 118
3 122 123 126
3 126 85 122
3 122 82 119
3 119 171 122
3 149 207 160
3 109 150 149
3 149 160 109
3 168 115 165
3 119 172 171
3 198 250 199
3 199 151 198
3 207 149 199
3 199 208 207
3 168 165 214
3 214 217 168
3 220 277 223
3 223 172 220
3 220 168 217
3 248 249 250
3 250 198 248
3 262 322 267
3 267 208 262
3 272 274 278
3 278 217 272
3 269 273 272
3 305 306 307
3 307 251 305
3 316 318 322
3 322 262 316
3 316 249 307
3 307 317 316
3 326 374 329
3 329 273 326
3 326 268 323
3 365 367 370
3 370 317 365
3 365 306 355
3 355 366 365
3 411 356 401
3 437 439 459
3 459 458 437
3 439 442 473
3 473 459 439
3 460 443 475
3 447 461 462
3 461 476 477
3 477 466 461
3 466 464 461
3 45 483 44
3 186 187 185
3 185 181 186
3 185 187 137
3 137 132 185
3 453 464 454
3 453 454 424
3 424 420 453
3 4 0 19
3 5 17 14
3 79 51 55
3 55 88 79
3 332 333 283
3 283 279 332
3 462 464 453
3 453 450 462
3 466 467 464
3 477 476 481
3 42 483 43
3 42 44 483
3 478 481 479
3 423 493 419
3 419 493 380
3 423 385 493
3 493 385 380
3 57 492 94
3 57 84 492
3 83 491 53
3 53 491 84
3 83 85 491
3 53 490 33
3 53 84 490
3 490 84 57
3 86 489 85
3 84 491 489
3 489 491 85
3 33 490 16
3 16 490 57
3 89 489 86
3 86 486 89
3 86 131 486
3 486 131 136
3 94 492 485
3 485 492 89
3 84 487 492
3 492 487 89
3 84 489 487
3 487 489 89
3 91 488 136
3 91 485 488
3 488 485 89
3 486 136 488
3 488 89 486
3 94 484 99
3 99 484 91
3 94 485 484
3 484 485 91
