# vtk DataFile Version 3.0
A great-looking cell
ASCII
DATASET POLYDATA
POINTS 291 double
230.13298766907602 172.1621713745157 53.49075633318545
229.0269403752284 173.03562188119943 55.31981015484517
232.38578734194283 173.1409358289804 52.89641386814346
228.68432785478927 171.03849064955128 54.53120934358298
233.1341978997624 171.7254538930746 50.8386595184236
238.48151295157828 171.3293522240218 50.782551601248585
232.6799631283722 174.92989637032343 55.07290579753963
230.79592772180072 173.79575623542195 54.44816058936215
230.42931362540534 174.56335935162392 56.34392543014496
227.48919315255688 171.5932581813733 56.20172192661748
226.82040617851175 171.1675607170252 58.287309245083925
238.88269513009269 175.249919555599 58.8522318032725
234.86535651884637 176.44222356328314 59.21909716573062
236.73181782164198 176.0021593586558 57.33702797448923
232.03517737108092 175.45903095076255 57.14963092780221
230.5196040207021 175.32079966049247 58.5112140550859
226.7759966918555 172.3976094448471 61.870339733005046
226.38614128355388 170.22484725436433 60.560937581974144
231.5900954466651 163.27893670949643 60.66447854206926
242.7612312478952 165.77252155895104 58.52551902138884
226.9247663486925 172.333634400409 59.82319880178246
236.70999288472197 176.32977398859668 64.71978792182358
235.36298257814988 176.8269150804704 61.17608134911993
233.37076121808926 176.58986912492077 60.95985576697417
229.2316224375143 174.92244658407066 60.37949804903818
228.181991543054 173.65139643281753 58.05484084253416
226.87318162710397 172.57521512539043 64.51762515450503
226.23389011178858 170.54025101795625 65.17888414195593
236.63353116075646 162.19056909977846 65.81419242393177
232.4214051843577 176.01971727515436 65.03678471864848
231.97598563697048 176.02769986565391 62.66800403296232
230.1999757187699 175.54443564979292 64.06135319462223
230.07991817224521 175.60642821289417 62.06379444068154
228.37128174460852 174.28919053756053 62.68536226191263
227.7172431136095 173.681807439443 60.54641564485419
226.51391718559736 170.48606163370084 68.83483041628398
226.54271044620103 168.09816700448522 68.65920312968726
239.08816473259773 163.19491819256712 67.79219162022984
230.4694292201284 175.4319629733678 66.48260155066887
228.51914256909382 174.43412765496274 65.35271845022956
226.62980400794285 171.53749147300493 66.74874700750468
228.62876318346056 173.97045901498913 70.20030795653075
228.74498182174392 174.30022979142586 67.71411275397695
227.31858806854186 172.68950248421902 68.52362850815673
227.43038757982674 173.24981827748607 66.59097395955841
231.86703906137348 171.6246848404519 75.04980780173803
229.90898268465048 163.90637434964884 71.18397181234951
245.03385908563527 168.87349029331142 68.35267715969572
229.06930316100926 167.70404633093003 54.5478872807465
228.44885044580738 164.80249885023878 69.59188224396331
227.1917228380645 166.57536950307153 70.41319679582698
232.46154759730766 167.59706895086708 51.7220790421088
232.56710405921984 164.791586983489 55.07572189280048
228.39162835141676 164.35612948238236 65.01657800441525
227.49218658488942 165.60226100116756 66.22361514283712
229.88563188647166 164.05050332835546 60.61203253140947
234.29955461711876 165.77432885508182 74.5846797185568
229.7558665728352 165.2489512940002 73.18908262942662
227.27437056583736 166.00270800740634 68.1273300027992
238.59936078339635 163.66119739214932 58.516379427278686
240.24979311156847 168.87688823930895 52.487985108838124
233.51589041691966 162.96292033231293 71.59346889629397
243.20820928759287 165.51765300559964 65.54589184747068
244.1824044595632 167.02125246548803 59.11869936303143
232.57932030158892 169.56442041594167 50.91325627215235
240.88772910493407 164.22664408316655 67.7565553539148
236.96981925439147 162.9267227092389 70.89272414796923
238.06135650666374 162.81763877167012 69.53781307255825
240.38501744344953 167.5574528754874 53.96020609072999
245.80594366311774 167.46895530333862 63.47181348979402
243.34917548305737 172.1012631655183 58.80185143032754
244.6434434848983 171.03446751709882 62.84819233650903
236.4322223474715 164.91892295838994 54.34832603679203
238.58279195527055 168.2624162418151 51.202979022973146
244.66885050011413 168.3665658186732 57.45781080862256
239.88524409948332 163.85081694571534 69.64883089815105
244.47307121275335 171.3293880593912 60.56266386654224
243.3375918156617 170.59232462776555 69.65230250283875
238.31668732882358 165.2564638759729 54.07863687310051
242.53555763538503 170.22675258546465 71.46802406548936
239.1579721736182 164.7351831782657 55.590394343768985
237.07801911908575 165.80757905706398 52.69782131407015
237.22202056711757 163.0735020520788 60.02230328043068
238.81567999412974 172.91325332937828 52.25877936293404
233.86737891545764 166.3505571957204 51.66819034041344
234.98359041216244 165.5686579622192 53.04919245447819
241.11404618397736 165.240724435471 57.90172030406517
229.98992752906577 168.95951622920992 75.42633249914356
240.09268347010632 165.8741154015675 54.42714217661987
235.31163062440206 162.76665490085747 71.33661633729959
234.47569240458964 176.63327017955467 63.309520113558776
239.10258199013063 167.11597538684745 75.13966263291682
227.33610220465275 168.2020567804015 57.42027788163182
231.44469980766888 167.73113195162756 75.89785951265749
241.63046262294134 165.2628564981332 69.5440484096157
237.5588735548912 174.353620529321 72.33169724213903
243.57091900656667 169.8494136338455 55.96714015585405
242.60742436125395 165.43521693128386 67.5633834364725
231.62578879123092 169.84035947236262 75.58231524578656
245.06735050819404 170.05612169856673 66.20622659513343
241.96552642758974 168.63421279460144 72.49391076900883
238.29994122868342 162.63255785093133 66.31874163066713
245.26598812526763 169.3145480603224 61.96395746514732
240.4910668728493 174.46111168864186 57.82890321026914
238.18843659343665 162.69237165027386 64.50394143860842
240.58061872775585 174.2195984840366 66.19001475196606
237.84450121692086 172.99415875292954 74.70350996513986
243.2420235653795 165.6938060464536 60.57543762779566
238.48430163885234 163.74741004042244 71.34208539623117
231.95549267529083 163.08620200840664 70.38556030785335
243.47633941819342 166.9443631733411 57.52855755994065
237.82040304655723 162.8057205322997 62.25788573050805
242.00391404777673 166.51675052623307 56.97637365953223
238.37553431601188 165.22251521479518 73.34284355915231
236.09071611817 162.3629712258831 69.47350892325933
227.60761113371854 170.62708238335594 73.09891471731156
227.2072346305388 166.24552001871723 60.62733928177355
243.9192101995904 168.555027979698 70.98992040507231
234.86460830937608 162.1450452213114 67.38703172136856
231.31052826147592 175.74558993932865 60.577390625314145
245.23893714989035 169.67617621761366 64.21215599057531
237.88535501692797 169.63575383049127 49.91981147485691
242.71670835752127 173.14921392264472 60.31310472699179
229.73671017026817 171.04428737009647 74.64750744544493
238.68229229907163 175.50656710416166 65.6194176170908
242.96094994611278 171.933074809509 56.857059030038315
240.02564330553665 163.54378237847826 65.723206599184
235.27253337609875 175.1791516038646 71.64848102490234
233.2182187350939 174.3901784307857 72.75208985980892
237.28866031280404 168.29345614148377 76.30268356008685
244.4048332151981 170.59712414439431 58.10185416814775
243.27111174534465 167.6133744006946 55.860055714214404
233.17180981016227 175.78977096148483 70.34717081361809
240.15267374869458 164.25706390658323 58.761785092091806
230.21349279339452 163.5234580398668 68.78478455685055
237.0134451886614 175.57922502748534 69.84972904039118
239.83676386539082 170.95139350183496 52.18214097631546
241.98563583003562 173.3646971502245 64.40062295587471
235.60614032111937 162.3989900357285 61.56397388491139
237.33744905526038 174.93068010157134 55.27302351194062
234.6766923511714 176.59286661420785 66.09520139179868
236.9096976537611 176.09076731223078 67.16920241608862
234.93775910430162 176.24684186493738 68.58015814135203
235.485589822302 174.21780739091093 74.0537813873617
239.48630887703337 174.1395950093776 70.43403510164725
238.39673575585778 175.8853635157432 63.65158465623567
238.94039986695236 174.72431767492657 56.58227298902715
228.81914869674648 172.96286553709018 72.74730072049404
240.97502579354506 173.45799450086875 68.45407734090504
227.07373921718792 166.17702618977103 62.33551852985924
237.10530666960602 176.42462840193613 60.04161173719184
235.30821042513057 175.64405032593186 54.9723010983753
242.5856063260195 172.98824487627138 66.74325820584784
239.6093325670047 169.77732340872583 50.743383704266606
241.99487273502305 168.85582235753307 54.26164400875252
232.10908872615664 162.62813620917618 62.17787441887381
234.8819585260392 162.00332703649627 65.1766012080774
231.97605429861736 163.82683860840953 72.83293664778643
243.74961427487 165.75110690978534 63.140145629399896
226.1640960176287 169.4197130980826 66.77843960185923
234.2636893587814 174.59270528035654 53.29611574603051
236.06645704465473 165.08837992385335 73.57797898391934
243.45159696991294 172.71156049091107 62.54165439968401
230.47793690566084 163.3472330059242 62.246477718299715
233.53333036686345 170.77050326261363 75.54610722548075
235.85055872338222 169.7738184374206 49.71809055544796
229.35009737187127 166.73004585527985 55.788481475177676
233.34032355794773 168.69248246170486 76.12917692147089
243.9911867198235 171.2363730141247 67.50244201899751
228.36509591094747 165.29268981974806 71.57446630249564
234.59161629889627 163.47068693302654 57.17169049914449
240.76052427460905 174.26400408866067 59.81106242685636
235.06364916356765 167.27945803295006 76.45961602646602
229.5661288179555 164.56698587372605 58.92500860155859
235.76911460238375 166.4950377691478 51.3046709427518
233.43550438286314 162.5249158387801 60.91751431812822
240.39633314457674 172.20353575317512 53.761160245203676
241.08770082218214 170.6662127455411 72.79574141834541
232.62490097481978 176.1603882072195 58.872389351752474
241.6465297303889 164.61254980606807 61.91539304316737
233.1377455312512 166.70401432963448 76.13453200764116
236.20183274642895 162.0830347403598 63.73880180374495
226.6316065860403 167.2773300336226 66.44634246989948
230.40092674309082 163.04562720261038 66.10165022954524
237.21707965459714 162.37349207532108 67.73555318195373
240.6466192273709 165.56219499361265 56.202403428175835
236.6507009880492 163.80485381632178 72.3825462465533
230.36165237912172 166.72153319292406 54.14888938877255
241.00154270798842 173.32008614115603 55.957820848448385
229.70709301919885 167.13893910662566 74.64297164876861
239.58798089561665 163.7137847933804 60.6116936126513
235.53464864939332 171.9762728377043 75.44481922763944
238.84168408951066 169.23518287293368 75.3178163330051
229.7312274694717 163.4422553346457 63.90638299543859
241.37515910744077 171.99430391261106 70.58969778715245
244.3645696944967 166.66062777462562 67.01094294796673
240.14930975494136 174.90668529217473 63.924973666450825
236.3070377989177 163.7538926107239 55.88693821548128
232.51570444661638 165.87774984423254 53.53750727468368
233.98004707120973 162.38331659635463 69.74448040096317
231.2404151909997 173.11149090726607 73.78511225970591
231.7659538558459 165.48981086580073 74.89934291861316
226.7603873847655 169.07580081443388 71.21211490561701
229.37253592626556 165.37401666031184 57.21736985643534
239.2624421898866 166.55163828717477 52.50590100717966
241.4132535169911 166.98209831175205 55.2684066659435
230.90200458559477 163.79434399538766 59.29510665969438
239.22907175911237 175.5601260691937 61.524999456318895
239.60301902939358 171.0631397560986 74.6626488095091
231.18816439782233 167.43792135451667 52.89935178693765
232.92267943100916 162.21882955198612 65.6497363905817
242.17963585842946 166.67990440949018 71.31367343992699
241.8676912156054 173.18890083823655 58.26543692655118
234.29268884639689 164.63103453453562 55.06978374647932
226.5990287789783 169.082111403097 58.60374529210114
228.06673427815542 166.8049408822335 57.205239222448405
232.6717233332832 163.20450597168679 58.70790581189678
242.7729466438139 172.39680386050983 68.78026051367715
228.6946002475136 169.1914589580021 54.32972017333688
233.13137911200937 164.5493231392603 74.06415649555552
240.4509802522176 166.91033732409895 73.04218623105878
235.33869177995862 169.7665182988371 76.67599923141574
239.87792052803167 163.56549851352028 63.210186357755944
227.79776633883017 167.09987453650947 72.89335593090306
236.68640828401988 163.1302968998646 57.86208689390478
237.64706428773601 170.78589632424135 76.21715721897382
241.42512963870294 164.86866005154224 59.713420417654206
241.21424039337933 170.49791657865472 53.25347205499541
239.03620346536155 174.99445215575943 67.98305943460926
233.4427316725741 172.80242155425904 74.60107177993721
230.98283233620583 168.95076015071248 52.040005032978684
228.5495544866071 164.37516755155738 67.32808675714836
244.96544001636312 167.12502575507185 61.21375112900517
234.07489033581098 170.17890782742015 49.96555645999314
227.79388915291474 168.12218892335983 55.70327568254339
228.58877118648405 164.98236405830704 60.242806679964325
226.15972143632138 168.59582200546933 64.66163097144769
233.99609281847572 176.10908836560725 57.019702808532344
227.72939093904895 169.92729922695392 55.377899957118096
240.58436045916628 168.91303281134978 74.29765250168414
228.32146704949562 165.8652326515486 58.822827880716275
239.6701844235223 172.71221949904478 72.7026532598124
226.9463701868256 166.22662557029113 64.17975554028939
238.93174156993737 173.8393802540881 54.43530096176614
232.68311943979765 176.0509439059762 67.61193681836059
245.72387619104015 168.10632048130068 65.84467650766113
244.89688660625396 168.96042435533758 59.69989616778437
241.71768987841114 164.5798462963528 64.28628550338883
226.1353675350054 170.42116637875188 63.15481505124379
243.5742651737924 166.67103555567547 69.25975184463047
235.11686152310787 175.87302492973063 70.16470469210309
238.0359830812974 163.99520569744467 56.71946894896006
237.58753822979543 164.80031120206783 55.46773173510321
237.59420162983247 166.78789690906706 51.31606507377115
229.81098974971448 168.2657449545241 53.307002016720574
235.19987695692149 171.71265426263358 50.07921123134717
228.29415156159598 168.94501825053473 74.42223764390552
233.80614053566455 162.2792107987349 63.29451991813746
231.56544692623726 162.79453768412822 63.89449874688992
226.9635395091665 169.66486414650652 56.82007422736318
236.86923038476172 172.68458362567833 51.054272021098036
234.50464277240073 163.5689354922217 73.38668945833416
227.20120886202113 171.821445108209 70.88387993831759
230.62353452669663 175.33590440501308 69.05578030757418
232.3570210797135 162.61400884370588 68.02347692655016
232.68406359164 164.27809483547168 56.54923490655839
227.26016441765924 167.3403292224259 58.77191308547859
237.0096113410441 171.29378258131732 49.6319752982986
226.51130363094788 168.10506489255968 60.11673715860005
241.91166930358088 171.1406768186218 54.96758489025935
235.03986188891975 162.67965761920104 59.310487778923616
236.6588277703886 174.18536380530307 53.15267364322145
231.27118310894463 171.05790762507542 51.90791166550665
236.66233295609416 168.15920140162544 50.604277272534226
241.33941318935067 173.92878931926418 62.08583207636492
244.00705748671538 171.71390193838957 64.93831904737937
234.2951598074878 167.99044881879215 50.13788303232739
230.98602333950325 164.30246304614403 57.66955146289898
229.4799786572347 170.16477718058252 52.8208335035688
226.36483082195846 167.94166798085757 62.21613053683084
241.71520716468194 164.62195870481418 66.17890823136354
230.81965798387674 174.61339486794088 71.66222076518432
236.72669906530305 166.34523590581747 75.0179800283235
236.94531592135925 176.52949206827765 62.41682708928695
240.48317978384014 164.90164118839016 71.65119319105933
244.94049952356096 166.3083216680278 65.0617295091348
230.96583469755473 165.18153176507232 55.55967177334169
227.29110540306837 168.91124721010493 73.06097754439644
234.69735434833945 173.28316544233206 51.64122056153684
239.57358083621537 164.65832259605966 57.30997140081246
228.36499302411377 164.65803432640976 62.36405859628145
POLYGONS 578 2312
3 9 1 3
3 25 1 9
3 0 3 1
3 0 2 272
3 7 6 2
3 2 0 7
3 1 8 7
3 0 1 7
3 8 15 14
3 15 8 25
3 8 1 25
3 17 248 16
3 17 16 20
3 20 10 17
3 12 23 22
3 15 24 119
3 25 24 15
3 30 23 119
3 32 33 31
3 32 31 30
3 119 32 30
3 119 24 32
3 24 25 34
3 33 24 34
3 33 32 24
3 33 34 16
3 31 39 38
3 31 33 39
3 26 39 33
3 33 16 26
3 262 43 35
3 147 41 262
3 42 38 39
3 262 41 43
3 42 43 41
3 42 44 43
3 42 39 44
3 26 27 40
3 23 90 22
3 23 30 90
3 30 31 29
3 7 8 6
3 6 8 14
3 44 39 26
3 3 278 218
3 29 90 30
3 9 259 10
3 159 36 35
3 244 140 29
3 12 178 23
3 14 15 178
3 278 0 272
3 4 64 272
3 26 40 44
3 40 43 44
3 40 35 43
3 3 238 9
3 238 259 9
3 237 6 14
3 248 236 27
3 233 64 4
3 3 218 238
3 5 267 260
3 254 218 278
3 10 214 17
3 10 259 214
3 27 236 159
3 159 236 182
3 258 257 210
3 254 230 209
3 268 17 214
3 214 266 268
3 36 159 182
3 25 20 34
3 20 16 34
3 270 138 175
3 18 216 175
3 175 216 270
3 11 207 171
3 265 170 216
3 216 170 270
3 218 234 238
3 238 234 259
3 233 165 276
3 267 121 165
3 210 264 183
3 183 258 210
3 35 202 262
3 197 170 213
3 213 170 265
3 6 160 2
3 2 160 288
3 181 156 257
3 257 156 210
3 181 28 156
3 258 155 257
3 18 175 155
3 155 175 257
3 35 40 159
3 159 40 27
3 0 278 3
3 152 168 275
3 18 155 163
3 163 155 258
3 13 150 11
3 12 22 150
3 41 263 42
3 41 281 263
3 41 147 281
3 147 200 281
3 42 263 38
3 11 146 13
3 146 188 243
3 271 160 151
3 151 160 6
3 105 124 228
3 21 90 140
3 140 90 29
3 271 139 243
3 13 146 139
3 139 146 243
3 196 137 274
3 137 152 275
3 152 105 148
3 38 263 244
3 244 263 132
3 237 13 151
3 151 6 237
3 200 147 123
3 196 274 207
3 274 171 207
3 143 95 127
3 95 144 135
3 135 144 228
3 151 13 139
3 139 271 151
3 207 145 196
3 21 124 145
3 142 141 140
3 228 124 141
3 31 38 29
3 38 244 29
3 283 150 22
3 162 122 274
3 281 132 263
3 12 237 178
3 178 237 14
3 237 12 13
3 12 150 13
3 145 207 283
3 283 21 145
3 105 228 148
3 228 144 148
3 200 128 281
3 128 143 127
3 135 127 95
3 188 176 243
3 140 141 21
3 21 141 124
3 196 124 105
3 196 145 124
3 142 135 141
3 135 228 141
3 281 128 132
3 132 128 127
3 247 126 222
3 212 171 122
3 122 171 274
3 5 121 267
3 5 153 121
3 264 118 199
3 264 210 118
3 161 56 261
3 11 150 207
3 150 283 207
3 186 113 161
3 188 269 176
3 184 118 28
3 106 208 241
3 19 86 112
3 19 112 110
3 212 125 188
3 125 269 188
3 85 72 213
3 72 197 213
3 138 111 181
3 111 190 222
3 156 28 118
3 118 210 156
3 148 144 194
3 144 241 194
3 132 142 244
3 142 140 244
3 112 205 131
3 131 205 154
3 122 70 212
3 130 125 70
3 70 125 212
3 181 104 28
3 222 126 104
3 11 103 146
3 146 103 188
3 11 171 103
3 137 275 162
3 162 274 137
3 28 101 184
3 101 126 37
3 69 285 158
3 63 19 110
3 168 99 275
3 245 120 99
3 99 120 275
3 107 232 158
3 177 208 239
3 125 96 269
3 131 154 96
3 96 154 269
3 106 241 95
3 95 241 144
3 94 97 249
3 186 108 113
3 113 108 284
3 284 220 113
3 241 177 194
3 241 208 177
3 239 100 177
3 211 117 100
3 21 283 90
3 90 283 22
3 199 114 89
3 23 178 119
3 119 178 15
3 181 257 138
3 138 257 175
3 247 280 126
3 62 97 280
3 194 217 148
3 168 152 217
3 217 152 148
3 190 179 222
3 179 226 107
3 251 289 59
3 86 133 289
3 289 133 59
3 197 72 252
3 252 72 78
3 222 179 247
3 111 222 104
3 104 181 111
3 97 195 249
3 97 62 195
3 243 83 271
3 243 176 83
3 190 111 82
3 82 111 138
3 85 174 81
3 177 100 79
3 79 100 117
3 88 78 204
3 78 81 204
3 104 126 101
3 101 28 104
3 99 47 245
3 99 168 47
3 194 79 77
3 77 79 117
3 162 76 122
3 47 168 77
3 77 117 47
3 79 194 177
3 217 194 77
3 77 168 217
3 197 252 251
3 130 96 125
3 131 96 74
3 74 96 130
3 112 131 110
3 85 81 72
3 72 81 78
3 224 197 251
3 251 59 224
3 76 71 102
3 102 71 120
3 76 162 71
3 120 71 275
3 275 71 162
3 154 227 269
3 269 227 176
3 5 136 153
3 176 227 136
3 122 76 70
3 70 76 130
3 120 69 102
3 246 74 130
3 130 76 246
3 246 76 102
3 188 103 212
3 212 103 171
3 88 204 68
3 184 67 114
3 152 137 105
3 105 137 196
3 83 176 136
3 136 5 83
3 226 86 19
3 226 133 86
3 153 73 121
3 59 82 224
3 60 73 153
3 60 227 154
3 84 174 85
3 101 37 184
3 37 67 184
3 108 67 75
3 75 67 37
3 184 114 118
3 118 114 199
3 261 186 161
3 261 89 186
3 190 226 179
3 190 133 226
3 186 66 108
3 186 89 66
3 66 89 114
3 158 232 69
3 94 65 97
3 65 280 97
3 110 74 63
3 63 74 246
3 247 62 280
3 247 158 62
3 211 94 249
3 153 136 60
3 60 136 227
3 63 107 19
3 19 107 226
3 63 232 107
3 211 100 220
3 220 100 239
3 68 60 154
3 108 75 284
3 284 75 94
3 284 211 220
3 78 80 252
3 252 80 251
3 37 65 75
3 75 65 94
3 121 73 273
3 284 94 211
3 165 121 273
3 273 276 165
3 88 68 205
3 205 68 154
3 251 80 289
3 80 78 88
3 245 285 69
3 245 195 285
3 47 249 195
3 280 65 126
3 126 65 37
3 232 63 246
3 204 60 68
3 204 73 60
3 110 131 74
3 86 185 112
3 112 185 205
3 211 249 117
3 174 253 81
3 81 253 204
3 253 73 204
3 289 80 185
3 185 86 289
3 107 158 179
3 179 158 247
3 205 185 88
3 88 185 80
3 197 224 170
3 170 224 270
3 190 59 133
3 190 82 59
3 224 82 270
3 270 82 138
3 277 265 216
3 18 163 55
3 266 215 240
3 18 206 216
3 173 277 206
3 206 277 216
3 242 182 236
3 258 193 163
3 258 183 193
3 55 173 206
3 206 18 55
3 203 215 166
3 166 215 234
3 290 163 193
3 193 53 290
3 264 134 183
3 49 231 134
3 134 231 183
3 290 53 242
3 268 116 279
3 268 266 116
3 203 240 215
3 182 58 36
3 58 231 49
3 109 134 264
3 240 173 235
3 235 173 55
3 277 173 203
3 173 240 203
3 279 236 248
3 290 55 163
3 290 235 55
3 242 54 182
3 242 53 54
3 54 53 231
3 193 183 53
3 53 183 231
3 203 166 286
3 286 166 187
3 286 52 265
3 265 52 213
3 286 198 52
3 52 198 213
3 265 277 286
3 286 277 203
3 209 51 198
3 276 84 51
3 51 84 198
3 286 187 198
3 198 187 209
3 108 66 67
3 67 66 114
3 276 174 84
3 276 273 174
3 259 92 214
3 214 92 266
3 92 215 266
3 235 116 240
3 240 116 266
3 182 54 58
3 58 54 231
3 215 92 234
3 234 92 259
3 36 58 50
3 290 116 235
3 169 50 49
3 49 50 58
3 218 48 234
3 187 166 48
3 48 166 234
3 230 51 209
3 198 85 213
3 198 84 85
3 254 48 218
3 73 253 273
3 273 253 174
3 26 248 27
3 26 16 248
3 202 50 223
3 223 50 169
3 268 279 17
3 17 279 248
3 256 87 123
3 278 230 254
3 209 187 254
3 187 48 254
3 236 279 242
3 9 10 25
3 10 20 25
3 87 256 189
3 256 223 189
3 202 115 262
3 115 147 262
3 189 223 57
3 57 223 169
3 189 93 87
3 189 201 93
3 93 201 180
3 109 61 157
3 199 89 61
3 57 157 201
3 201 189 57
3 147 115 123
3 123 115 256
3 245 69 120
3 117 249 47
3 123 87 98
3 245 47 195
3 35 36 202
3 36 50 202
3 49 46 169
3 46 57 169
3 246 102 232
3 102 69 232
3 276 64 233
3 276 51 64
3 64 51 230
3 57 46 157
3 157 46 109
3 172 167 180
3 109 46 134
3 134 46 49
3 93 98 87
3 123 45 200
3 123 98 45
3 157 61 261
3 261 61 89
3 180 201 56
3 64 230 272
3 272 230 278
3 199 109 264
3 199 61 109
3 288 4 2
3 2 4 272
3 132 250 142
3 142 250 135
3 132 127 250
3 250 127 135
3 45 229 200
3 143 128 229
3 229 128 200
3 195 62 285
3 285 62 158
3 129 221 172
3 161 282 56
3 208 192 239
3 129 91 192
3 192 91 239
3 261 219 157
3 157 219 201
3 261 56 219
3 219 56 201
3 271 83 260
3 260 83 5
3 260 288 271
3 288 160 271
3 288 255 4
3 288 260 255
3 255 260 267
3 191 106 143
3 106 95 143
3 191 225 106
3 225 208 106
3 143 229 191
3 56 172 180
3 56 282 172
3 98 93 167
3 167 93 180
3 191 229 164
3 164 229 45
3 172 282 129
3 129 282 91
3 221 129 225
3 225 191 221
3 221 191 164
3 172 221 167
3 221 164 167
3 4 255 233
3 91 282 113
3 113 282 161
3 167 164 98
3 98 164 45
3 208 225 192
3 192 225 129
3 279 149 242
3 242 149 290
3 279 116 149
3 149 116 290
3 239 91 220
3 220 91 113
3 233 255 165
3 165 255 267
3 256 287 223
3 223 287 202
3 256 115 287
3 287 115 202
