# vtk DataFile Version 3.0
A great-looking cell
ASCII
DATASET POLYDATA
POINTS 277 double
230.70262303097678 171.89818940964363 54.39146492057201
229.97670357755294 172.425587467458 56.133455146117704
232.58692640557865 172.6895260536402 53.798196537958404
229.5187734224347 170.74466176517373 55.27493337557209
233.05129673011123 171.38049460595943 52.37192834907691
237.79739670026788 171.72891912473298 50.41044994071925
233.14391519594005 173.90875087045308 55.8024072066543
231.44261375613922 173.09133611304645 55.32702788714099
231.27428168948975 173.66953658672588 56.967756132853225
229.00194392622262 170.95671744445028 57.15372653620285
228.06627084427333 170.97042779904928 59.04362155257581
239.27825649269244 175.59186412551796 58.62898724693905
235.25136088281238 175.3120055502725 59.37634273406404
236.90147096643724 175.08274989903438 57.51533338117808
232.69209765843328 174.34734753361727 57.63788381603424
231.4280321322555 174.23078337500266 58.86069904389925
228.1663356384257 171.82174634717035 62.40656790456755
227.56802191417722 170.5541609558496 61.162679644317826
231.9362056321239 163.59430938767431 60.511086412266344
243.41567291175767 165.26667238189864 57.94449890490667
228.5935657974743 172.43127262484992 60.66864960345469
236.98277032151665 175.74913736259367 64.52046965754684
235.70621882822064 175.7298004177519 61.16206301527422
233.96560120042977 175.21862465026322 61.01421435089324
230.1482685889938 173.9610781869394 60.51684824738575
229.6274556633403 172.809874652138 58.421678195068466
228.2481177048505 172.00850862677189 64.32091217563575
227.65207266632908 170.3785087880251 64.8171248829446
236.7270182679661 162.17580733820975 65.44997176358316
233.07594547431478 174.80385590224068 64.68407729295879
232.6691169475684 174.91892356608608 62.57247180188643
231.1449041346922 174.33087733076027 63.82015219110715
231.05059813827643 174.32356878611822 62.05857356328318
229.3578703408757 173.4458944091882 62.683982794767815
227.80020432929854 170.28123353417848 67.88343623691405
227.65704988790915 168.20876907193042 67.73125742191763
239.23909602245283 162.64641940847665 67.60267180590223
231.3257744522916 174.34577990763282 65.92927591756047
229.66258754578595 173.4877527206547 64.96075680306713
227.8593936702804 171.2093599088888 66.14190064401132
229.71181284610512 173.09070503090183 68.99981642532344
229.79880000923646 173.43184466329052 66.95678934985534
228.50036287365413 172.14919317506366 67.626607160873
228.6678341838858 172.58491593904898 66.0100066502434
231.69460136149405 171.58372490676135 73.84896020893683
230.3369133687409 164.33894022541517 70.03106329067825
244.83949673257231 168.77683875893177 68.2285463495694
229.04291199673432 165.07940908241508 68.57474632701181
228.28218932484998 166.85758941952818 69.19511643227966
232.513881973993 167.8236336051003 53.02845476079546
232.84821739219154 164.61481416139216 56.35836509447305
229.20757241143664 164.78680216309087 64.51138364558581
228.34425074226579 165.92886089824836 65.55385592863536
230.4969211943677 164.57454896839877 60.62186302372999
234.03651893518798 165.69801853519942 73.63935684145444
230.23844213613998 165.6633899137221 71.64246710692515
228.21272180397693 166.31413975238044 67.24744331085937
238.8441980109882 163.38151853858758 58.061585054876744
240.29509545655276 168.91138077694512 50.92381760463031
233.53205554845414 163.52607012417016 70.5996087293349
244.0563006099176 164.51747029668977 65.44103911907526
244.65524240667744 166.82717838583883 58.73322265981888
232.6422499025366 169.6433823193089 52.241197247134664
241.23168735475178 163.53547612669618 67.72284879314317
236.75769045912654 162.8008875655966 70.44681508202935
237.93081022500482 162.64711814878595 69.20905202108443
241.15391566790538 166.920698229523 52.158958612005556
245.2562817330339 167.59243205218587 63.415707896626564
244.468240294143 172.83546049207726 58.25630786805469
245.20820062289934 171.3195852781758 62.74111037512033
236.42218507754862 164.81190034461656 54.08889411796855
237.79526343774393 168.29275230195475 50.2491665927584
244.93819156435032 168.40019792575566 57.078942837947835
240.03715801931497 162.99156697566093 69.68412662859448
245.14077053869428 171.63212217996866 60.31161783555006
243.55640710617743 170.78199818109815 69.81791043497012
238.20012580218642 165.2550241567716 53.56134188051655
242.78821331231646 170.33480507740768 71.83385203523032
239.2606118612405 164.47145836959743 54.9216876083461
236.7388561703604 165.8118208497003 52.453112693883
237.4736981470269 162.81160160399983 59.649472638387614
238.34107496243595 172.94128937711088 51.92120553326898
233.83491773777016 166.81310148501575 52.710188380381304
234.86336067631976 165.53786095011864 53.18921886011305
241.71936121186113 164.5077875282942 57.15599627419314
230.02753452562612 168.9941344946897 73.66277327012126
240.2385890692904 165.4093920704087 53.373828219097554
235.09844745089964 162.89338482895374 70.64192470919596
234.92271001997366 175.48341574796504 63.141702733553615
238.24045704721937 167.13133709167147 74.65727490839474
231.32109603665805 167.86478989282355 74.2880565470036
242.05343164101458 164.3988974991938 69.76227791661631
237.262361006263 173.89158753932006 71.7553212136575
244.21366085419592 170.00703917840994 55.25499244349817
243.5484200156489 164.20359052718794 67.75210654554138
231.40625066327007 169.88207103986147 74.29505780599925
245.14204775187224 170.1115805976031 66.15408087927656
242.2094917898647 168.42818393093657 73.06742270427367
238.4073043061948 162.38832852778654 66.03253072675525
245.37109106177274 169.40763679769577 61.84421046900058
241.0043934529187 175.17844446841556 57.340630945368865
238.39724623245897 162.33617586540592 64.19826839376434
241.2250763662247 174.94089693964023 66.28580709271893
237.13536710409568 172.5049363841824 73.82774142366812
243.87930001676082 165.1295915055702 60.16948167497025
238.23244172424882 163.63859119192315 70.95042757946722
232.21638579612534 163.68326814224133 69.40709328872256
244.11838845058327 166.64109945614885 56.91624408251525
238.07369326279772 162.44096858526666 61.90326419047893
242.83322274020676 165.75954360872282 56.00985913904082
237.94180388715904 165.32273745790465 72.75147652092635
235.98654559970961 162.5364523816394 68.9384194671786
228.6507113494464 170.67756924410818 71.31344469377015
228.3361079002143 166.74365703512655 61.2317844585692
243.49921436227595 168.44595745563214 70.78458337152613
234.94230687699653 162.3315273993169 66.88063822619353
232.08405437776833 174.60069763625953 60.69712007473576
245.27925688395746 169.79861485264672 64.1348366289012
236.61565408426532 170.2169815622387 50.41153717760722
243.76616985442257 174.02813832156167 59.98740722614141
229.92842093450466 170.94839455813718 73.0059009073507
239.03274152135364 175.74663900032843 65.54158945894056
243.79316751702424 172.4800180994418 56.126782113862006
240.42224829840183 162.71898722397432 65.52993550889364
235.19867997457587 174.4721045106047 70.81988159085283
233.30455374648955 173.6899903477191 71.6176503027781
236.43459425499543 168.40778375193185 74.66717913930005
244.79076989576535 170.75488116634597 57.70349593941732
243.92123068005918 167.4926035873126 55.113312085295924
233.66368744648577 173.91772923954758 69.22017719808359
240.54856120841384 163.70849400304186 58.19759958894425
230.68903523882585 163.98143127039518 67.91474563061806
236.93520878794766 174.77796580634447 69.3226720373899
239.8158897602465 171.55304983097423 50.681771445811805
242.96531062578575 174.333244752383 64.43113251041295
235.79517391585347 162.3910760116 61.24224487997059
237.42384698754725 174.38524830297183 55.40567880682674
235.02326526535845 175.43321703141223 65.71056757197996
237.05576176354305 175.51449958443982 66.87715747271118
235.12119358199993 175.13059972824158 67.98199661627672
235.1904388727653 173.30491592538004 72.7580041587734
239.41272261471067 173.9161580583117 70.27891647283317
238.71616276075906 175.80094012396557 63.52455206462501
239.1990447298032 175.30401441642937 56.148209606783475
229.68889698907174 172.3511893622097 71.07627336651417
241.59832277730916 174.23351417520124 68.77429314448646
237.33057376280607 175.51699098688394 60.06411178823831
235.43508174135502 174.44125802707865 55.560168195996695
243.36251910879471 173.6406344583999 66.93918257517281
238.53982383495858 170.1464422791218 50.00837379929875
242.6544457530947 168.85952638177272 52.98610501991903
232.57676628850294 163.3004991222212 61.972103718605226
235.04488121413033 162.26842896339323 64.7734959313696
232.08022379702805 164.3200835966926 71.57138247290655
244.28425776238188 165.167164486407 62.90554203116909
227.41514553258244 169.4108784505853 66.12360812236697
234.43351151929198 173.42538283587913 54.232859941226636
235.7727175609209 164.8573625071103 73.10550619338726
244.2318443531388 173.2360295281007 62.40807830221867
231.03537735321987 163.74415523878733 62.047398749812366
233.1463817110564 170.82602182620448 74.65185983187973
230.02590583025415 167.73550746216443 56.22015372219468
232.9993524698638 168.8062844780657 74.68451008963476
244.6834894827257 171.57392863868293 67.69698761289922
229.0500685993003 165.62336144260053 70.26498589873064
234.8111838819885 163.8562570250518 57.07837027516604
241.60384476354955 175.30127673625216 59.4614348417522
234.55865095908555 167.6382168124985 74.50254894430621
230.04835307205812 165.22569726335107 59.10440731697998
235.31394226071376 166.90314084557036 51.923293041781356
233.7581984010589 163.09177467512637 60.73785140082053
240.83021254848222 173.1105161033577 52.41677967002731
241.160452830779 170.85043558561787 73.31134936641598
233.2899314446273 174.810838920733 59.16881733672544
242.3244248400136 163.66435177000346 61.51306781283449
232.9086518474353 167.08347172780438 74.30799667167693
236.34518989320057 162.11851599813306 63.407796517429254
227.6109238311267 167.48526448422987 65.77661007539723
231.04368234202735 163.73011882325812 65.51435148066612
237.20442711328596 162.45850459919038 67.35205024061108
241.18405606419705 164.79524926467505 55.212967480111054
236.3337773498663 163.86461492841644 71.72825435654997
231.14710686088347 167.51690171768288 54.51000154105637
241.620445935134 174.1719324020349 55.11312332130974
230.12790351838393 167.4070599906825 72.75683910276956
240.02170124497061 162.97593049042476 60.137369200659386
235.04064040370096 171.6069560297239 74.15557618095595
238.0917760857916 169.16068912748307 74.71772798517236
230.49345702802373 164.01919346329427 63.57160450055693
241.99476592052483 172.69554470168828 71.19871449563493
244.39498151656713 166.34652852373577 66.9006222700118
240.68581649631136 175.39254009969565 63.86207708841041
236.42013383087829 164.06217980440198 55.80391176097676
232.8336596830908 165.90842517419316 54.22215732292536
234.0192337195714 162.84115705906586 68.99820996231979
231.34749256488382 172.85869106459214 72.49109264800632
231.75564719541583 165.85971216148874 73.33509529930676
227.8982969013465 169.08324680525533 69.98538005803847
229.7743737825646 166.19675230661437 57.510979961773145
238.8566657204914 166.36284024466275 51.495026179873726
242.19692339199773 166.3589820990156 53.97961750692698
231.3305486862188 164.38227516272778 59.323481891874664
239.62776547650603 175.80081357215727 61.392086671258234
238.9275835342121 170.97383406228525 74.4717287915489
233.272564858331 162.8108716880892 65.16687126979521
242.227716487361 166.27023381082924 71.51608242841384
242.85823554767506 174.18986195396005 57.65170357838899
234.64040471882356 164.58862025364706 55.025664251113476
227.83130666556949 168.62398005504122 59.70973237354622
228.61607235249195 167.85561825918896 57.66661887637241
232.96754417351582 163.74380971816691 58.64340776524394
243.3389413104644 172.8146614503299 69.05581010115691
232.9653481163843 164.79641160812022 72.8599002684147
240.5583215400262 166.22701766063716 73.76471105535106
234.81070178762263 169.64280897980103 74.8994958033642
240.3128265973716 162.8049680218045 62.88019437919601
228.90097224702194 167.20578211841212 71.11107735346404
236.8296653067914 163.49060344118524 57.66070311441666
236.74704426125479 170.49151336217838 74.93211796875289
242.0221569473124 164.13787223066265 59.16844748669203
241.58326467330014 170.91080502699245 51.817614181298495
239.2965456673578 175.36244909777864 68.02058348843778
233.21561877597512 172.79597020231623 73.72799734680802
231.1242453295455 169.15037937616418 53.38891801302325
229.23966172641323 164.75721963623192 66.56124329957406
244.99191504339942 167.11895531888047 61.065109205916364
228.64923209567237 169.21702828869374 56.174291026947884
229.24424960449804 165.47034623061677 60.450231262196695
227.41747927535147 168.80169656092053 64.29138726451603
234.45057408021228 174.6559899363696 57.50880444667773
240.0800663807349 168.8029851202241 74.51186180495648
228.70976554875236 166.52790401360522 59.20431512071258
239.4555636772247 172.806973363068 72.73875086624926
227.97201299937393 166.61987140752402 63.66253959566401
238.97732681990803 174.2034922605649 53.940847825955956
233.2575698660698 174.69915465584793 66.9545548086828
245.10289213293063 168.13068257859604 65.63711744164927
245.2041004977564 169.0108672220897 59.433152916015466
242.36408833485348 163.62213905382717 64.05647125077226
227.4787532193685 170.42176282273076 63.20107751853874
244.02811376930023 166.16012957497497 69.46215414697758
235.17655410523878 174.77085380819807 69.38340838394257
238.18387969890125 163.67600527693844 56.22109223138652
237.69506850204763 164.606960380234 55.00315136550695
236.932484276842 167.20479154038446 51.5191406140374
230.0772825747746 169.07066063308253 54.88340291084018
234.6704827170123 170.38550465999901 51.56403621489584
228.75550440865462 169.00038011442052 72.2899915122616
234.08372969981718 162.630892801934 62.96685827332551
231.96145642987432 163.05836997427426 63.52791893819657
228.26809347373248 169.53294900806046 57.901561816239436
234.18726281801452 163.73557315881158 72.42173969105882
228.46362743286934 171.3988487439286 69.54191481374248
231.4417392253509 174.17204846231084 68.12407681391768
232.6412013828002 163.0848180548422 67.32731151874647
236.45857063760008 171.7570032195548 51.84750412392973
242.91486273084965 171.81016670906786 53.631154794429996
235.24793042388043 163.07748174341094 59.123200875766265
236.5322934409438 173.27376857017856 53.69246979711282
231.73897080487328 170.8802199895482 53.35072760252038
235.9180571497417 168.56789483958397 51.32902730526038
242.29125290841702 174.95227304389903 61.939539807431494
244.76801682484523 172.18595279688702 64.96399059943172
233.92588566674914 168.21893230941131 51.590075531189676
231.34625991875563 165.00448887325487 57.81579938491217
230.80510115327522 170.32670475908523 54.43255666347512
227.55744781745383 168.5901609347181 62.19102757496984
242.3457453437844 163.66855562796724 66.10421303803007
231.3904101401705 173.78475599219487 70.36800575979115
236.1668760802413 166.4347341223891 74.02120555229891
237.21475078321672 175.66949362056917 62.30103710627929
240.3733479360957 164.3702555071199 71.75721120740805
244.66989811825462 166.33286238451683 64.8645205815167
231.267612332833 166.1011828079135 56.0609499614828
234.50624716281038 172.64982320349657 52.397438775719294
239.95679485034685 164.08477646504159 56.627129483307996
229.31362150802656 164.91757747335276 62.25761766544694
POLYGONS 550 2200
3 9 1 3
3 25 1 9
3 0 3 1
3 0 2 259
3 7 6 2
3 2 0 7
3 1 8 7
3 0 1 7
3 8 15 14
3 15 8 25
3 8 1 25
3 17 239 16
3 17 16 20
3 20 10 17
3 12 23 22
3 15 24 116
3 25 24 15
3 30 23 116
3 32 33 31
3 32 31 30
3 116 32 30
3 116 24 32
3 24 25 20
3 33 24 20
3 33 32 24
3 33 20 16
3 31 38 37
3 31 33 38
3 26 38 33
3 33 16 26
3 252 42 34
3 144 40 252
3 41 37 38
3 252 40 42
3 41 42 40
3 41 43 42
3 41 38 43
3 26 27 39
3 23 88 22
3 23 30 88
3 30 31 29
3 7 8 6
3 6 8 14
3 43 38 26
3 3 265 245
3 29 88 30
3 9 250 10
3 155 35 34
3 235 137 29
3 12 173 23
3 14 15 173
3 265 0 259
3 4 62 259
3 26 39 43
3 39 42 43
3 39 34 42
3 3 226 9
3 226 250 9
3 229 6 14
3 239 228 27
3 246 62 4
3 3 245 226
3 10 208 17
3 10 250 208
3 27 228 155
3 155 228 177
3 249 248 204
3 245 223 182
3 35 155 177
3 257 135 170
3 18 210 170
3 170 210 257
3 11 202 166
3 50 165 210
3 210 165 257
3 255 118 246
3 204 254 178
3 178 249 204
3 34 197 252
3 192 165 207
3 207 165 50
3 6 156 2
3 2 156 274
3 176 152 248
3 248 152 204
3 176 28 152
3 249 151 248
3 18 170 151
3 151 170 248
3 34 39 155
3 155 39 27
3 0 265 3
3 148 163 262
3 18 151 159
3 159 151 249
3 13 146 11
3 12 22 146
3 40 253 41
3 40 268 253
3 40 144 268
3 144 195 268
3 41 253 37
3 11 143 13
3 143 183 234
3 258 156 147
3 147 156 6
3 102 121 221
3 21 88 137
3 137 88 29
3 258 136 234
3 13 143 136
3 136 143 234
3 191 134 261
3 134 148 262
3 148 102 145
3 37 253 235
3 235 253 129
3 229 13 147
3 147 6 229
3 195 144 120
3 191 261 202
3 261 166 202
3 140 92 124
3 92 141 132
3 132 141 221
3 147 13 136
3 136 258 147
3 202 142 191
3 21 121 142
3 139 138 137
3 221 121 138
3 31 37 29
3 37 235 29
3 270 146 22
3 158 119 261
3 268 129 253
3 12 229 173
3 173 229 14
3 229 12 13
3 12 146 13
3 142 202 270
3 270 21 142
3 102 221 145
3 221 141 145
3 195 125 268
3 125 140 124
3 132 124 92
3 183 171 234
3 137 138 21
3 21 138 121
3 191 121 102
3 191 142 121
3 139 132 138
3 132 221 138
3 268 125 129
3 129 125 124
3 238 123 215
3 206 166 119
3 119 166 261
3 5 118 255
3 5 149 118
3 254 115 194
3 254 204 115
3 157 54 251
3 11 146 202
3 146 270 202
3 181 110 157
3 183 256 171
3 179 115 28
3 103 203 232
3 19 84 109
3 19 109 107
3 206 122 183
3 122 256 183
3 83 70 207
3 70 192 207
3 135 108 176
3 108 185 215
3 152 28 115
3 115 204 152
3 145 141 189
3 141 232 189
3 129 139 235
3 139 137 235
3 109 200 128
3 128 200 150
3 119 68 206
3 127 122 68
3 68 122 206
3 176 101 28
3 215 123 101
3 11 100 143
3 143 100 183
3 11 166 100
3 134 262 158
3 158 261 134
3 28 98 179
3 98 123 36
3 67 272 154
3 61 19 107
3 163 96 262
3 236 117 96
3 96 117 262
3 104 225 154
3 172 203 230
3 122 93 256
3 128 150 93
3 93 150 256
3 103 232 92
3 92 232 141
3 91 94 240
3 181 105 110
3 110 105 271
3 271 213 110
3 232 172 189
3 232 203 172
3 230 97 172
3 205 114 97
3 21 270 88
3 88 270 22
3 194 111 87
3 23 173 116
3 116 173 15
3 176 248 135
3 135 248 170
3 238 267 123
3 60 94 267
3 189 211 145
3 163 148 211
3 211 148 145
3 185 174 215
3 174 219 104
3 242 275 57
3 84 130 275
3 275 130 57
3 192 70 243
3 243 70 76
3 215 174 238
3 108 215 101
3 101 176 108
3 94 190 240
3 94 60 190
3 234 81 258
3 234 171 81
3 185 108 80
3 80 108 135
3 83 169 79
3 172 97 77
3 77 97 114
3 86 76 199
3 76 79 199
3 101 123 98
3 98 28 101
3 96 46 236
3 96 163 46
3 189 77 75
3 75 77 114
3 158 74 119
3 46 163 75
3 75 114 46
3 77 189 172
3 211 189 75
3 75 163 211
3 192 243 242
3 127 93 122
3 128 93 72
3 72 93 127
3 109 128 107
3 83 79 70
3 70 79 76
3 217 192 242
3 242 57 217
3 74 69 99
3 99 69 117
3 74 158 69
3 117 69 262
3 262 69 158
3 150 220 256
3 256 220 171
3 5 133 149
3 171 220 133
3 119 74 68
3 68 74 127
3 117 67 99
3 237 72 127
3 127 74 237
3 237 74 99
3 183 100 206
3 206 100 166
3 86 199 66
3 179 65 111
3 148 134 102
3 102 134 191
3 81 171 133
3 133 5 81
3 219 84 19
3 219 130 84
3 149 71 118
3 57 80 217
3 58 71 149
3 58 220 150
3 82 169 83
3 98 36 179
3 36 65 179
3 105 65 73
3 73 65 36
3 179 111 115
3 115 111 194
3 251 181 157
3 251 87 181
3 185 219 174
3 185 130 219
3 181 64 105
3 181 87 64
3 64 87 111
3 154 225 67
3 91 63 94
3 63 267 94
3 107 72 61
3 61 72 237
3 238 60 267
3 238 154 60
3 205 91 240
3 149 133 58
3 58 133 220
3 61 104 19
3 19 104 219
3 61 225 104
3 205 97 213
3 213 97 230
3 66 58 150
3 105 73 271
3 271 73 91
3 271 205 213
3 76 78 243
3 243 78 242
3 36 63 73
3 73 63 91
3 118 71 260
3 271 91 205
3 246 118 260
3 260 263 246
3 86 66 200
3 200 66 150
3 242 78 275
3 78 76 86
3 236 272 67
3 236 190 272
3 46 240 190
3 267 63 123
3 123 63 36
3 225 61 237
3 199 58 66
3 199 71 58
3 107 128 72
3 84 180 109
3 109 180 200
3 205 240 114
3 169 244 79
3 79 244 199
3 244 71 199
3 275 78 180
3 180 84 275
3 104 154 174
3 174 154 238
3 200 180 86
3 86 180 78
3 192 217 165
3 165 217 257
3 185 57 130
3 185 80 57
3 217 80 257
3 257 80 135
3 264 50 210
3 18 159 53
3 208 209 231
3 18 201 210
3 168 264 201
3 201 264 210
3 233 177 228
3 249 188 159
3 249 178 188
3 53 168 201
3 201 18 53
3 198 209 161
3 161 209 226
3 276 159 188
3 188 51 276
3 254 131 178
3 47 224 131
3 131 224 178
3 276 51 233
3 208 113 266
3 198 231 209
3 177 56 35
3 56 224 47
3 106 131 254
3 231 168 227
3 227 168 53
3 264 168 198
3 168 231 198
3 266 228 239
3 276 53 159
3 276 227 53
3 233 52 177
3 233 51 52
3 52 51 224
3 188 178 51
3 51 178 224
3 198 161 273
3 273 161 182
3 273 193 50
3 50 193 207
3 50 264 273
3 273 264 198
3 182 49 193
3 263 82 49
3 49 82 193
3 273 182 193
3 105 64 65
3 65 64 111
3 263 169 82
3 263 260 169
3 250 209 208
3 227 113 231
3 231 113 208
3 177 52 56
3 56 52 224
3 209 250 226
3 35 56 48
3 276 113 227
3 164 48 47
3 47 48 56
3 182 161 245
3 245 161 226
3 223 49 182
3 193 83 207
3 193 82 83
3 71 244 260
3 260 244 169
3 26 239 27
3 26 16 239
3 197 48 216
3 216 48 164
3 208 266 17
3 17 266 239
3 247 85 120
3 265 223 245
3 228 266 233
3 9 10 25
3 10 20 25
3 85 247 184
3 247 216 184
3 197 112 252
3 112 144 252
3 184 216 55
3 55 216 164
3 184 90 85
3 184 196 90
3 90 196 175
3 106 59 153
3 194 87 59
3 55 153 196
3 196 184 55
3 144 112 120
3 120 112 247
3 236 67 117
3 114 240 46
3 120 85 95
3 236 46 190
3 34 35 197
3 35 48 197
3 47 45 164
3 45 55 164
3 237 99 225
3 99 67 225
3 263 62 246
3 263 49 62
3 62 49 223
3 55 45 153
3 153 45 106
3 167 162 175
3 106 45 131
3 131 45 47
3 90 95 85
3 120 44 195
3 120 95 44
3 153 59 251
3 251 59 87
3 175 196 54
3 62 223 259
3 259 223 265
3 194 106 254
3 194 59 106
3 274 4 2
3 2 4 259
3 129 241 139
3 139 241 132
3 129 124 241
3 241 124 132
3 44 222 195
3 140 125 222
3 222 125 195
3 190 60 272
3 272 60 154
3 126 214 167
3 157 269 54
3 203 187 230
3 126 89 187
3 187 89 230
3 251 212 153
3 153 212 196
3 251 54 212
3 212 54 196
3 258 81 255
3 255 81 5
3 255 274 258
3 274 156 258
3 274 246 4
3 274 255 246
3 186 103 140
3 103 92 140
3 186 218 103
3 218 203 103
3 140 222 186
3 54 167 175
3 54 269 167
3 95 90 162
3 162 90 175
3 186 222 160
3 160 222 44
3 167 269 126
3 126 269 89
3 214 126 218
3 218 186 214
3 214 186 160
3 167 214 162
3 214 160 162
3 89 269 110
3 110 269 157
3 162 160 95
3 95 160 44
3 203 218 187
3 187 218 126
3 266 113 233
3 233 113 276
3 230 89 213
3 213 89 110
3 216 247 197
3 247 112 197
