# vtk DataFile Version 3.0
A great-looking cell
ASCII
DATASET POLYDATA
POINTS 429 double
130.0735700055996 163.14961846273303 80.47121588617763
125.65065685418314 164.70799906891227 80.5772467316913
129.23786986245636 164.4090027895976 80.30706367401511
127.54258535529024 164.96947805151586 80.14654324387259
130.88493660582478 164.79331656609645 80.18386409331303
131.18544673457967 166.8028766175524 79.96463379546483
124.05353357466424 165.68518038582872 81.20135898012393
127.87628699745353 167.0073647870192 80.16269012479304
129.37134840794275 165.94481291139428 79.978024525946
123.82219051102769 160.74103028794678 81.30513185829918
127.44469380848822 161.37576664304652 80.74163616057993
129.15335268683674 161.8960484121745 80.54303900295665
130.6356908274651 161.61854139998397 80.99933324818798
122.7777531789527 164.2909970939788 81.63785758050237
122.1602834820166 162.46263338134975 82.02087226746384
124.29043620427667 163.24139192215378 80.96985942676396
125.56349773467262 161.70296201702394 80.87473760282823
122.1594826721511 165.7583817558758 81.85841019260515
132.1478805083515 163.1296543606574 80.85440773658298
133.2351270768696 165.47157560560936 80.18687280835663
122.96997214490334 167.1644783448008 81.85367073816307
135.23470386899473 167.2716714583342 79.98877670635208
126.04495112654948 166.47878309612724 80.58021870505353
128.23867618425987 168.41138232710156 80.6288443208251
126.72112324573443 168.29726087825318 80.73848297882627
129.51605806993132 167.7094025224478 80.35714949494502
133.00152386726074 167.9951817603549 80.2901025158928
124.65295239201969 168.1177480575486 81.42836227348037
122.91009527901532 158.6480634014793 81.70878868879217
121.78715483735571 160.25528998100535 82.27900733390238
120.50188455179455 162.96054211161308 83.08803692356192
124.56643951738545 158.9550303340604 81.32939467928765
125.8253377508561 160.01754065915577 80.97564045467796
127.60816091054163 159.352480432675 81.26224685095676
129.1964670784292 160.44829309622622 81.07715343034161
129.31987488442405 158.80940836618353 81.99132217672198
130.77436268055118 160.10499875611788 81.96875426604637
121.36022753002342 164.3261230648345 82.43707051564647
132.1838282385584 161.34908045885535 81.8814441596068
120.80058731738436 165.78271382639377 82.57796587182095
133.5089431315931 162.23889908916973 81.74822565386735
134.36566454374463 163.53868149120095 81.09465583716907
135.70670899580688 165.06847930229173 80.46639675660387
137.26081205802652 166.51419801589148 80.81500505171815
121.5352084920335 167.1954277782264 82.625466441163
127.7260788291055 169.66446530204308 81.15048539321666
126.0101306383209 169.83411431829393 81.44398050040446
129.34924423172617 169.3490857059345 80.8490265520858
131.05514626274416 168.76231579575528 80.52323225005007
132.5862990171865 169.94965994661194 81.14554934378572
134.71005378665848 169.5591181943571 80.63862105575603
120.6217887531481 168.67938075231356 83.43785124143645
122.57600998592889 169.00516925582522 82.47089008536433
124.36239015368267 170.25333801243517 82.19330352731728
120.8288345790864 161.4656142226721 82.8831992262406
120.27176246570383 160.0129209826766 83.52841249573001
121.11059955647285 158.25301431297834 82.8442317272333
122.46563056971871 156.6245551704968 82.30785450425294
124.35727666912842 157.32881061595893 81.86524431124285
130.83754664896946 158.68139668199254 83.17355230302603
119.76308373719435 161.68062058892983 83.92941153790005
126.02834713962069 158.22119607677843 81.51877399985356
127.70681802753494 157.6274072034475 82.20188156286888
132.2730544117638 159.97936050973252 83.04657661830181
119.5119627378151 163.13098998220994 84.2068578539156
119.90712864607866 164.73268171315655 83.65890180273853
133.7073469067291 161.09636174915312 82.76286024087189
135.39284754754945 160.86375421796322 83.53182368074418
135.1279472989464 162.07833649147523 82.13086625556164
137.27431540478312 161.78522757401748 82.75364366796296
136.4274486186061 163.33260347555674 81.33519737589373
138.3868011302042 163.5515513244134 81.85544905764463
138.96661470516472 165.50709470032416 81.54921666988345
137.4513545055681 164.72296205706292 80.92412392157443
138.95952481527124 167.74640985344683 81.70234997195445
138.47727586783583 170.0320228271396 82.46905634840634
136.8753212706475 168.717119369942 81.11993927089244
128.30540828570855 172.38878361553452 82.526520088534
127.14719551760481 171.15390090711236 81.82741456590675
134.01900462051225 171.32221491844763 81.86958913312628
125.65486010352812 171.2330123699787 82.13294862270114
130.16238972791498 171.9886994584197 82.32629089154115
128.89327272865123 170.88485184081378 81.57853130698551
132.0316140668459 171.68689864978424 82.00683934364629
130.6813599644981 170.54263685064387 81.20487112210303
122.8078330356486 171.16800283261998 82.94203791833155
119.58578521966045 158.14075600653828 84.7933467010268
119.56906043978454 155.5897616260479 85.91502979838458
120.59957467578695 155.99694686039925 83.56870494110068
122.33046906928232 154.74287830986998 83.12133975748262
119.34068856409188 160.3885721340563 85.10316110238318
124.18350418520261 155.40371371140708 82.67789555145389
125.88920864669485 154.92767297511284 83.8186321535021
129.1817799314006 156.12230500379505 84.83504630114393
129.35634764906516 157.30621125325598 83.24502361493292
130.73028446395125 157.47836222665924 84.68212171439919
126.05809491591887 156.36601609782556 82.2571646340571
127.70397724795856 156.04708295889762 83.44440597907969
132.2163118713408 158.84639380575808 84.51841721579889
133.5835462788882 159.24778430024244 85.92854478919656
119.03590787266107 162.22994139325473 85.39239817037387
133.76352927014733 160.02047145030278 84.18276517254886
135.44876684003265 159.97553846247027 85.24340212808652
118.7780455056335 164.09371217575267 85.25731656038194
136.96787881247235 160.50014970168442 84.31487077558634
138.8796987324881 161.0056278118254 84.3525822106067
141.0318458663814 162.56537344387957 84.63064903638178
139.27141852227376 162.49857869374034 83.1226962674337
118.9595686709243 166.07791228257906 84.99759753689757
142.21163005499022 165.07336196212256 83.98179879268648
140.30326164220062 164.16065442506147 82.6909272543425
120.13380746878433 166.77052985321612 83.64321032760924
119.21081531970133 168.1289022032296 84.78318490677457
142.295598873174 167.43022710126854 83.83906931418548
140.81921588647498 166.47428699739584 82.46169507276497
142.35178114248487 169.53579003890306 85.45319189136023
140.68552421932768 168.88194161878687 83.12058829278199
129.26942976444806 174.82192558385685 84.68606351719181
137.51914562209652 172.09952171067113 83.68554936922473
136.19439181202034 170.81506472555193 82.02485193106264
121.32213827237243 170.32694894828492 83.37886547309262
127.63905280940608 173.918934855183 83.73431834529613
126.35575914889674 172.57362693217078 82.80554649468647
130.8939233497267 174.04817975134912 84.55886218151237
129.62031027671495 173.36355532845815 83.50674805456653
132.57401644507763 173.67144550379254 84.42951201338838
131.4264823618136 172.93050755657453 83.30137978661482
134.1446721697713 173.3796302827493 84.32222241198811
133.24324783959065 172.61852258473496 83.16354642984456
135.23459406890294 172.54894151053495 83.19365643112735
121.36528061541927 172.07908858857624 84.08946870040816
124.50539617367313 172.12889126056672 82.86464753729743
118.82217338541238 159.5221462199362 88.00316971047776
119.12813026384867 157.67115060352455 87.16101242647802
120.31658086665283 153.45609526267154 87.22617379643333
122.96487254521519 153.05177876238497 86.84397262334795
121.15315916158119 153.6314823857501 84.74891654925162
118.9732140771363 159.32218377174198 86.33632894144979
123.8643960379218 153.78191852184403 84.47645668383976
125.70564312007527 153.9943443441012 85.56979150768515
127.07590956905791 154.27340287816904 87.01099351056551
130.33789347821747 156.59671480831022 86.3905208443633
118.75715574988598 160.99774716800235 86.78701814988179
127.50562422323158 154.8921909540336 85.1164003032429
128.83603894245115 155.29002027845863 86.56208621540013
129.7731495872259 155.96144074090674 87.80654375099023
131.16284472489968 157.26791499340075 88.29472679764262
131.8381339273477 158.04808042133658 86.29306267820662
133.14907798881202 158.67318842716844 87.92187663354284
135.30959341402863 159.40852016770526 87.27618953551666
137.2240692216881 159.24924623861253 88.74231137120958
137.65578265234424 159.8415842595312 86.24268585190875
139.2569778704425 159.62030111393264 87.99138855473697
140.26871327877714 160.4814731346065 86.22976355975253
141.23879058668436 160.5548126196514 88.5707147766703
143.06127968424133 162.79564173973333 89.08237360673995
141.96529084103602 161.8897555010494 86.86095928529956
143.93402449089982 165.68476314990977 88.34763415134259
142.8412734185624 164.0248032662591 86.35634495084128
144.05524520139193 168.5338090088353 87.81116495268371
143.50880099265854 166.70285519075532 85.7306482682723
118.21405922108536 167.3709749844178 86.34283522217136
143.01163833801365 170.8421960049408 87.80345919572156
118.35034867249274 169.33624177130363 86.14525840348257
119.68375210975393 170.47340722847272 84.69138357195477
129.2810614467365 175.5936945654509 86.49286233321342
139.91828168031662 171.09255696657408 84.4236779122713
141.06662898086728 172.04873121340137 86.79557710814574
138.46753175109217 172.7490588197168 86.04055214502338
127.34735221501134 175.35000223904714 85.42757800047342
125.37976000912768 175.93075796650095 86.57200942421954
127.56514076914854 176.4796188122551 87.52808464938458
131.0645327350206 175.30736715779406 87.09365943905479
130.49811821272803 174.88404804519638 85.70891301904382
132.82692152291008 174.76175749473333 87.26108841356158
131.95943108421883 174.59006656046196 85.73904260659599
134.72362854287744 174.25162517649744 87.37390353830602
133.7119712149221 174.13294146800294 85.70934797061766
135.87725521712716 173.48949530094583 85.36029877497505
124.94104066426931 174.25995227733168 84.26818072497275
123.08121864649036 172.86915006847352 83.61360464336397
119.63913219767042 155.60830434081188 88.72036461535465
120.07089380386567 154.94398056404188 91.05161525270663
119.39480394057787 158.07262901296897 89.23265481691607
121.75408034989312 153.67981421662685 89.53186364402983
119.02706752630876 159.7822476540458 89.65194013233425
125.18867373310601 153.4321863407851 87.24529730542544
124.1917776708035 154.2942333811947 90.71855706553366
126.29441766358559 154.15654421897412 89.23775744726134
128.39300717956894 155.04457977912497 88.41255504701516
129.64111330217378 156.2344886449604 89.34708823481897
130.75686855233639 157.23469583500034 90.11477714038742
132.4338249566129 158.4148873701 90.20180272450347
134.3416720551726 159.0779999779438 91.72594853565936
118.59558586624549 161.46824679915198 88.80936234482292
118.22509479006008 163.2694853108258 88.99521898046514
134.8596575202275 159.01703418483243 89.4972758743831
136.71198646360128 159.14498566502925 91.12877040906336
138.33999335942568 159.5589132396076 92.94114752452387
118.35292053375974 163.1443075017638 87.17999859642427
117.77552588937026 164.7555217806094 88.47896576412685
139.42926679066642 159.4934012187698 90.44863066898604
140.41366264151088 160.22769469931603 92.64075643013271
141.71033636768567 161.1022301169518 91.04304917450257
141.50760507617957 162.2114191740859 93.54597173590058
142.66483338031753 164.52800367681172 93.16935172197998
142.98182226333142 162.89393700893694 91.70018910678893
118.1175508950464 165.3621887616352 86.69342779368706
143.28002758934792 166.77122837092222 92.68980104656981
143.87219249289126 164.93169322207808 90.99882090734826
143.47811125221526 169.18728190860796 92.30658989065194
143.98520848855162 167.55374723579632 90.39215526753004
117.17639099607038 166.81002650289494 88.12275185243826
142.85781686142892 171.2352015581694 91.75713604624234
143.72654624698322 170.1723460904253 89.99028662415225
117.10461707656042 168.8186770540217 88.85846403489862
117.62508307621742 168.5143553759153 87.40078362137801
117.6150326215988 170.2161343853566 87.6902174610811
127.75294494921273 177.12659994308515 89.89868225545078
139.45026864379534 173.47850837320829 91.05883292092463
141.68936282453728 172.1893664287934 89.75419058197434
139.24517408868496 173.26557213013336 88.51866743110962
118.30325271524582 172.52076409306505 88.48018709303126
118.38489739575476 171.26072654824458 86.3722324062623
125.6200423919261 176.81548456705178 88.78101919467726
129.8411910381934 176.3131458724276 88.68893886115896
132.70658381739392 175.3347184273679 90.0852578411177
131.8938982530701 175.44712625321426 88.75454207641869
133.61012580534057 174.86110375294143 88.88716027653474
134.055114770238 174.81405597843013 90.57840004595265
135.43595710557565 174.5018640695825 89.27439308570183
137.39517033408427 174.03335526603544 89.97698264937075
136.88481412243462 173.80352382601373 87.73739987503237
121.14703757214468 175.31064193248733 87.12907173654634
119.7658770762057 173.06765571441943 85.91153542463317
122.09715486247643 174.1354609793085 84.84657167601192
123.51142591902878 176.28624089763366 87.94439344847078
123.3192422549975 175.64350533459705 85.86656793110627
119.75126497432913 156.86422742930392 90.56140148040343
120.7412258314087 156.78929980494374 92.13406130690014
119.98172960356143 159.00670871325622 91.31223017006256
122.2266910646213 155.06114868281608 91.85144322355578
124.32781736677698 155.92375562728722 92.3477353664273
126.31752921921255 155.0546357660977 91.64559864268358
128.1337853430013 155.39931072330972 90.37381844420574
128.02436722749948 156.31040682984053 92.15509982243391
129.49408129283015 156.700213776218 91.05357379137806
129.3799515876091 157.44688879332892 92.61069032130966
130.81757420539512 157.90185798235422 91.60275861463833
130.5714056691451 158.62482324981232 93.25365232855262
132.26282230447393 159.01339212677303 92.39987477378219
131.8262063796514 159.73030744521557 94.16748922300695
133.79320210006856 159.56244096096657 93.75511593333432
135.98298655716826 159.26517405340127 93.40177007050076
135.15870969202456 159.70946330469081 95.49551395202589
137.43759977674316 160.05849907861193 95.09802586008048
118.53780449491357 162.67289288629166 90.33979789214627
139.64057752364147 160.74658181474697 94.5763573402573
140.46204638262702 162.408601271282 95.77726688263753
141.31638024918996 164.38694086253588 95.18772928441626
118.01045901311304 164.35395799234436 90.16269857786595
140.69259128786715 167.01972011874437 96.20608129644167
142.23964180335673 166.18037262466788 94.44295475867234
117.09790518706374 165.70823255766163 89.76935055151296
142.46608158019254 168.30298714466022 94.40869235604687
117.59887423907914 167.94655244015462 91.56975329973383
117.01197073881842 167.41240976919178 90.16567111351591
141.10473204800655 169.84888567561373 95.81052862895277
142.41887108525182 170.77078555827714 93.89354552955605
117.36948404731655 169.2610742296602 90.59240814786327
128.09676236534588 177.63568555004036 92.64434002658314
141.18126816168555 172.43080973828657 92.50536100026456
139.1163449277041 173.40045811264162 93.47569838950315
140.41657175161373 171.8480083037649 94.69411991452898
117.50223862289215 170.481494728777 89.35643898414553
125.64519147898982 177.23040883795701 91.1449619702395
123.36476144278369 176.3740245356205 91.88876479346152
123.95781998857973 176.75686310690745 89.88466314587265
130.85822357358617 176.62505988483812 92.96243521627476
129.64920863444866 176.99350174071807 90.89987562584243
132.65643621158713 175.43084585873885 91.7046670604207
131.3339462839858 176.15614941595453 90.49465203947892
134.2924406586652 174.69806909064752 92.32821603810093
135.8047327473411 174.25921735865145 92.78034649022756
135.74479447590997 174.43866887834315 91.18177625497427
137.43719047744116 174.11151654206938 92.14395530128012
118.83835328182386 173.4719526426821 90.86653134337568
119.75860586598407 174.74991696276663 89.32306847707684
121.87107537464624 176.16722389954165 89.71977498528683
122.66163402235496 157.0233132092017 92.74982494265353
124.3082224324137 157.61224651438502 93.45363844862419
119.18870813722717 161.04865765281593 90.65231343213935
126.28991039929845 156.88787313928557 93.21237471710621
128.027065278149 157.38875614719052 93.2934422743339
127.317404309746 158.386978429404 94.09838420372584
128.9676136257943 158.3992935252647 93.8895819875257
128.29790808898218 159.53042866783323 94.85283565997264
130.0227858545273 159.56921068059512 94.6725891670405
129.15803491599274 160.72229349439763 95.68660011396825
131.1912086690624 160.88072063727697 95.74068007323565
132.71927576311322 161.48003832505378 96.47128957298231
133.16021529766766 160.3804093724967 95.4224676961562
134.30222678141973 161.1328575850126 96.78590737477997
136.41137449682222 161.0109966964614 96.91605318361015
118.64602668240529 163.79833121408714 91.67072005759492
138.55251183811478 161.65665316360145 96.45312411702683
137.18119846758094 162.8556097798878 97.33262741481703
139.07564075484152 164.26730634734898 96.90808598713137
138.06490360485472 166.98276849328735 97.69121595447555
139.10740563601036 169.29142072608545 97.09701326464963
117.78551925347948 165.92575071075535 91.7198419521439
118.20611072967884 167.71336763676013 92.9757761957488
117.94104477378426 169.4111134210753 92.26151856596672
125.32730342107651 175.73909412548508 96.75452823765006
127.8496700889803 177.41803342239476 95.68270277277017
129.39711713134685 176.05381329272765 97.61324356186748
139.56231450901376 171.19058457393 96.37216065472627
137.65846580154528 171.19810178699217 96.97240924802759
138.43086435441558 172.60419518702437 95.49997239993483
118.46021839967936 170.82848861306542 93.09745014298952
117.871204092395 171.3602880845347 91.15745366796206
119.11978097456964 172.6966424487818 92.93390652454916
122.90854830310475 175.4469203209263 94.48825742208419
125.40963385366317 176.96071537741517 93.83689506024939
131.84575169395129 175.03177003874293 95.75163720866172
130.38383606000747 176.53833616195425 95.42979555900399
133.66838113969112 174.10862493916483 95.35442945565366
132.76356304402194 175.0837500695809 93.7795579973406
135.23625749031035 173.62927184200063 95.26773423307384
134.7398516288832 174.19177127799344 93.94563375301236
136.81206292690095 173.8828762126645 94.30454498221839
121.00850239606592 173.25314302201153 94.65409817860996
120.76506350072192 174.8665818529946 92.09564911988146
120.87079655929598 159.99968740703943 92.868275736751
121.48290759287123 158.49340090770647 92.91584827423331
122.95785528156682 158.4268078433672 93.51154439569105
124.05144319354373 159.1495323847422 94.26609793174683
120.02712686636634 161.1433216630231 92.12939178600004
125.63927987548517 158.5465489487773 94.23423387614811
125.22875462124763 159.84701375254832 94.98776327265594
126.67488384404088 159.65181283818646 95.04277928021867
127.62193740189727 160.67196353592638 95.45628759711482
131.62489562529706 162.5175935620591 96.8199452499059
133.31626079369562 162.52972499787603 97.56151769066169
119.1311849645319 162.28235624655892 91.60990023744505
135.27994925908683 162.73420280557903 97.53437052305611
134.085127108266 164.2654784892484 97.9080937897845
136.33186697022023 164.8415356387481 98.0047134503584
119.22488330426094 164.84162933141323 92.94806759631126
118.77348231971305 166.28870297756094 93.37031538091084
119.52725240369368 167.5030809012044 94.22398922481672
126.0063131184253 171.824369562559 98.9707427135218
128.00436622628766 171.8469771107147 98.9781470833414
124.89104228575377 173.6058255292476 98.27468339695439
127.49326894868169 174.2581150629949 98.68230989064206
129.85638153579416 172.69023743271075 98.60850221220741
136.76115392561888 169.25042155021399 97.79837845582738
118.91869989644556 169.27204341378746 93.82741917648228
119.87257755547341 171.04010270476533 94.38758926018703
122.86768099896669 173.69605619891624 96.80671237429387
131.05749280521323 174.44162350257417 97.65640510339993
132.90552987550467 173.72832655741286 96.92593633113479
134.53752309033527 173.02260537041204 96.47034796939727
136.39482745798958 172.82132658752303 96.20078457939256
122.45735601306663 160.05987208660395 93.74270517160494
120.0129010348478 163.04027373242468 92.77829534998838
122.56870519403715 161.9557982521497 94.55420246844133
122.70023406051521 163.72466769463276 95.14801600639876
129.1988834622421 165.22208923876738 97.54873544054058
132.86278350144516 165.69534902648704 98.02255781598797
134.51399001133925 165.87806817913525 98.1710853744483
120.35122119623588 164.33771194700407 93.79928620965718
121.3517200306011 164.8966343345563 94.80968496659482
122.81944282952341 165.52700951302447 95.7450182881708
124.41031584206793 165.96731290730503 96.67884128584333
126.10119493092051 166.30272557702745 97.47048720868946
127.94746499530169 166.64674204387458 97.89052419285966
129.83001353966793 166.96398901585303 98.07396337749636
120.05757060489935 165.795941040372 94.10505665766188
124.76373186487 167.7825150869939 97.44763154633007
126.65407689165926 168.1614679058031 98.04059160212648
128.5776030743698 168.47499030212612 98.44632743114947
130.51163169526382 168.80959747497928 98.24866388880272
132.47216061917146 169.02746940249068 98.19067301134399
134.50669581509666 169.18705383557995 98.01429674807446
123.07593038761391 167.37648889012854 96.43909049717473
121.31296710410469 166.98762149917266 95.22700616767699
133.6256036387373 167.37721479355062 98.13776988944865
131.72216729295482 167.21621337619885 98.16613197444343
121.96730643746885 168.7462618666206 96.06210071621832
123.36233329298521 169.332230102171 97.16449609335848
125.30306067391253 169.7713158316297 98.06890495136875
135.6614423956386 167.26168217695343 98.20150451956604
127.28621524903242 170.05316946341262 98.65595100961374
131.0209291732922 165.4512686773408 97.95726637636893
129.2416787800541 170.43641702022612 98.51732922713542
127.39576226320276 164.94232376719793 97.15306350991682
125.73219908356987 164.71041455977615 96.52731528597772
131.23418728719358 170.71993179521937 98.33077694278775
124.14217595916439 164.24900683676498 96.03821727708328
133.19792986569607 170.84775961564318 97.90997362575689
132.19463337585816 163.99196205457386 97.76709122763832
130.39983656734987 163.79659602615038 97.30643338685677
128.58766466787014 163.53131332206092 96.93445926767485
126.86760815605213 163.3595561328388 96.27516813292719
125.37566671022641 163.2881421943378 95.92330040205341
124.1249404652011 162.58020770930864 95.36470503539267
121.38094285482273 163.2619211907668 94.05155387675157
120.44374236840346 169.07863536622932 95.13421054436297
129.83218212813898 162.24850738525924 96.40436881527806
128.01220252412492 162.01437252337922 96.02730405962214
121.14879922466334 161.54895092478708 93.4386560591157
121.71875807732832 170.9708967559891 96.22965494586214
123.81047306816716 171.5196416423111 97.93479949658317
125.96932924212359 161.490923370071 95.60393617210252
124.02322359627888 160.81059677332146 94.85673361100054
132.0354824055639 172.50344610580453 97.97346203042763
133.6469229420134 172.34661424894708 97.48151853553506
135.26880266301362 171.28645482674514 97.38026636991769
119.4218708534182 174.1784313867366 87.58070705527486
124.10316904601655 153.49732620242284 88.7763742385227
124.50617241006243 153.21503110224245 85.95026814267204
129.5621357826223 174.4981101630053 98.55038606800126
127.38067691677712 176.33485559252574 97.65954309860264
128.31768977828122 163.1356467735301 80.27921787207366
126.45014140402331 163.1708098227874 80.48093827887588
129.3760306932214 177.27730254394146 94.20312435617697
130.8276994309423 175.6872262784611 96.72605996479822
131.49134678988275 175.85586080856865 94.491506032025
POLYGONS 854 3416
3 424 10 425
3 5 4 8
3 7 3 22
3 7 8 3
3 25 8 7
3 424 11 10
3 0 12 11
3 0 11 424
3 10 16 425
3 0 18 12
3 425 15 1
3 4 18 0
3 0 2 4
3 6 1 15
3 4 5 19
3 6 17 20
3 22 1 6
3 5 26 19
3 19 26 21
3 7 24 23
3 7 23 25
3 8 25 5
3 48 5 25
3 26 5 48
3 53 27 52
3 20 52 27
3 54 14 29
3 9 28 29
3 31 28 9
3 14 54 30
3 14 9 29
3 9 32 31
3 33 32 10
3 35 33 34
3 10 34 33
3 10 11 34
3 36 35 34
3 11 12 34
3 34 12 36
3 14 30 37
3 12 38 36
3 12 18 38
3 37 13 14
3 13 37 17
3 38 18 40
3 18 41 40
3 18 19 41
3 39 17 37
3 19 42 41
3 43 42 21
3 19 21 42
3 44 39 111
3 44 17 39
3 17 44 20
3 20 44 52
3 26 50 21
3 46 45 24
3 23 45 47
3 23 47 25
3 25 47 48
3 48 49 26
3 49 50 26
3 82 47 45
3 84 48 47
3 84 47 82
3 49 48 84
3 52 51 120
3 52 85 53
3 53 85 131
3 29 56 55
3 28 57 56
3 28 56 29
3 60 55 90
3 55 60 54
3 58 57 28
3 28 31 58
3 54 60 30
3 31 61 58
3 31 32 61
3 61 32 33
3 61 33 62
3 62 33 35
3 59 35 36
3 64 65 30
3 64 30 60
3 30 65 37
3 38 66 63
3 38 63 36
3 38 40 66
3 37 65 39
3 68 69 67
3 68 67 66
3 40 68 66
3 68 70 69
3 68 40 41
3 68 41 70
3 70 71 69
3 111 39 65
3 41 42 70
3 73 72 71
3 70 42 73
3 70 73 71
3 42 43 73
3 43 74 72
3 43 72 73
3 76 75 74
3 76 74 43
3 51 111 112
3 45 46 78
3 82 45 78
3 82 78 77
3 50 79 119
3 50 49 79
3 75 76 119
3 50 119 76
3 80 131 122
3 80 53 131
3 77 78 122
3 80 122 78
3 80 78 46
3 46 53 80
3 81 82 77
3 83 84 81
3 82 81 84
3 84 83 49
3 79 49 83
3 52 120 85
3 88 136 87
3 88 87 86
3 55 56 86
3 86 56 88
3 89 136 88
3 56 57 88
3 88 57 89
3 57 91 89
3 57 58 91
3 90 100 60
3 96 97 92
3 91 58 96
3 91 96 92
3 58 61 96
3 96 61 62
3 96 62 97
3 93 97 94
3 94 97 62
3 59 98 95
3 59 36 63
3 59 63 98
3 64 103 65
3 60 100 64
3 101 102 99
3 101 99 98
3 63 101 98
3 63 66 101
3 101 66 67
3 101 67 102
3 65 103 108
3 65 108 111
3 67 104 102
3 67 69 104
3 105 104 69
3 106 105 107
3 69 107 105
3 69 71 107
3 110 109 106
3 110 106 107
3 71 110 107
3 71 72 110
3 112 111 108
3 114 113 109
3 114 109 110
3 72 114 110
3 72 74 114
3 116 115 113
3 116 113 114
3 74 116 114
3 74 75 116
3 51 112 164
3 51 164 120
3 119 79 129
3 75 118 166
3 75 119 118
3 115 116 166
3 75 166 116
3 130 120 164
3 121 122 179
3 117 124 121
3 121 124 77
3 77 122 121
3 123 124 117
3 77 124 81
3 125 126 123
3 124 123 126
3 81 124 126
3 81 126 83
3 127 128 125
3 126 125 128
3 83 126 128
3 128 127 129
3 128 129 79
3 79 83 128
3 118 119 129
3 85 120 130
3 131 180 179
3 131 85 180
3 131 179 122
3 180 85 130
3 180 130 235
3 133 183 132
3 87 181 133
3 87 133 86
3 134 181 87
3 87 136 134
3 135 134 136
3 137 133 132
3 137 86 133
3 138 135 136
3 89 138 136
3 89 91 138
3 138 91 92
3 138 92 139
3 95 141 93
3 132 142 137
3 90 142 100
3 143 144 140
3 143 140 139
3 92 143 139
3 92 97 143
3 141 146 145
3 148 146 147
3 141 95 147
3 141 147 146
3 95 98 147
3 147 98 99
3 147 99 148
3 100 199 103
3 99 149 148
3 99 102 149
3 103 199 207
3 151 152 150
3 151 150 149
3 102 151 149
3 102 104 151
3 154 152 153
3 151 153 152
3 151 104 105
3 151 105 153
3 155 154 156
3 153 156 154
3 153 105 106
3 153 106 156
3 103 207 108
3 158 157 155
3 158 155 156
3 106 158 156
3 106 109 158
3 108 207 161
3 108 161 112
3 207 212 161
3 160 159 157
3 160 157 158
3 109 160 158
3 109 113 160
3 216 161 212
3 115 162 159
3 115 159 160
3 113 115 160
3 163 112 161
3 163 161 216
3 223 164 163
3 112 163 164
3 165 171 225
3 166 168 167
3 166 118 168
3 162 115 167
3 166 167 115
3 164 223 234
3 164 234 130
3 169 170 171
3 169 121 179
3 169 179 170
3 169 171 165
3 169 165 117
3 117 121 169
3 172 173 165
3 172 165 225
3 117 165 173
3 117 173 123
3 174 175 172
3 173 172 175
3 123 173 175
3 123 175 125
3 176 177 174
3 175 174 177
3 125 175 177
3 125 177 127
3 232 178 176
3 177 176 178
3 127 177 178
3 127 178 129
3 178 232 168
3 178 168 118
3 118 129 178
3 130 234 235
3 179 180 235
3 181 182 238
3 183 185 132
3 238 183 181
3 184 182 181
3 134 184 181
3 184 134 135
3 186 139 140
3 186 140 188
3 142 194 199
3 132 194 142
3 140 189 188
3 140 144 189
3 189 144 145
3 189 145 190
3 191 190 146
3 190 145 146
3 146 192 191
3 146 148 192
3 194 195 199
3 196 197 193
3 196 193 192
3 148 196 192
3 148 149 196
3 196 149 150
3 196 150 197
3 200 199 195
3 199 200 207
3 201 202 198
3 201 198 197
3 150 201 197
3 150 152 201
3 204 202 203
3 201 203 202
3 201 152 154
3 201 154 203
3 205 204 206
3 203 206 204
3 203 154 155
3 203 155 206
3 212 207 200
3 209 208 205
3 209 205 206
3 155 209 206
3 155 157 209
3 211 210 208
3 211 208 209
3 157 211 209
3 157 159 211
3 266 212 263
3 214 213 210
3 214 210 211
3 159 214 211
3 159 162 214
3 215 216 212
3 215 212 266
3 274 217 215
3 216 215 217
3 163 216 217
3 163 217 223
3 225 218 279
3 225 171 218
3 167 168 221
3 220 167 221
3 220 221 219
3 213 214 220
3 220 214 162
3 162 167 220
3 222 223 217
3 222 217 274
3 223 222 234
3 224 171 170
3 224 170 236
3 224 218 171
3 281 225 279
3 226 227 281
3 225 281 227
3 172 225 227
3 172 227 174
3 227 226 228
3 227 228 174
3 230 229 284
3 174 228 176
3 230 176 228
3 230 228 229
3 231 232 230
3 231 230 284
3 176 230 232
3 219 221 231
3 232 231 221
3 232 221 168
3 234 233 235
3 236 237 233
3 235 233 237
3 237 179 235
3 237 236 170
3 170 179 237
3 229 228 226
3 238 239 240
3 238 182 239
3 238 240 183
3 182 241 239
3 182 184 241
3 242 241 187
3 241 184 187
3 187 243 242
3 187 188 243
3 245 243 244
3 243 188 244
3 188 189 244
3 247 245 246
3 244 246 245
3 244 189 190
3 244 190 246
3 249 247 248
3 246 248 247
3 246 190 191
3 246 191 248
3 251 249 250
3 248 250 249
3 248 191 192
3 248 192 250
3 250 252 251
3 250 192 193
3 250 193 252
3 194 291 256
3 194 256 195
3 291 344 256
3 253 254 252
3 193 253 252
3 193 197 253
3 253 255 254
3 253 197 198
3 253 198 255
3 304 256 344
3 195 256 260
3 195 260 200
3 256 304 260
3 198 257 255
3 198 202 257
3 257 202 204
3 258 257 204
3 258 204 259
3 204 205 259
3 310 260 304
3 200 260 263
3 200 263 212
3 260 310 263
3 261 259 262
3 259 205 262
3 205 208 262
3 264 267 261
3 264 261 262
3 208 264 262
3 208 210 264
3 265 266 310
3 263 310 266
3 268 267 264
3 210 268 264
3 210 213 268
3 265 269 266
3 266 269 215
3 312 269 265
3 215 269 274
3 279 218 270
3 271 272 273
3 271 220 219
3 271 219 272
3 267 268 273
3 271 273 268
3 271 268 213
3 213 220 271
3 320 274 269
3 320 269 312
3 222 274 320
3 275 276 323
3 224 236 277
3 275 224 277
3 275 277 276
3 275 323 270
3 275 270 218
3 218 224 275
3 278 279 270
3 280 281 278
3 279 278 281
3 284 282 283
3 284 229 282
3 285 284 283
3 284 285 231
3 272 219 285
3 219 231 285
3 286 222 320
3 332 287 286
3 222 286 287
3 287 332 288
3 233 287 288
3 233 288 236
3 276 277 288
3 288 277 236
3 280 226 281
3 282 229 280
3 226 280 229
3 239 241 289
3 289 241 242
3 240 291 185
3 242 290 289
3 337 291 240
3 291 337 344
3 292 290 242
3 243 292 242
3 294 292 293
3 292 243 245
3 292 245 293
3 296 294 295
3 293 295 294
3 293 245 247
3 293 247 295
3 298 296 297
3 295 297 296
3 295 247 249
3 295 249 297
3 297 299 298
3 297 249 251
3 297 251 299
3 299 251 301
3 251 252 301
3 300 299 301
3 302 300 301
3 252 254 301
3 302 301 254
3 302 254 303
3 254 255 303
3 306 303 305
3 303 255 305
3 255 257 305
3 305 307 306
3 305 257 258
3 305 258 307
3 258 259 307
3 307 259 261
3 307 261 308
3 304 348 310
3 261 309 308
3 261 267 309
3 349 310 348
3 311 265 310
3 311 310 349
3 357 312 311
3 265 311 312
3 315 325 314
3 273 272 318
3 316 273 318
3 316 318 317
3 316 317 309
3 316 309 267
3 267 273 316
3 319 320 312
3 319 312 357
3 321 320 319
3 322 323 276
3 323 314 270
3 326 327 324
3 278 327 280
3 328 329 326
3 327 326 329
3 329 283 282
3 329 282 327
3 363 330 328
3 329 328 330
3 283 329 330
3 283 330 285
3 317 318 363
3 330 363 318
3 330 318 272
3 272 285 330
3 286 320 321
3 286 321 332
3 331 322 332
3 321 331 332
3 332 322 276
3 276 288 332
3 282 280 327
3 239 334 240
3 333 240 334
3 239 289 334
3 289 335 334
3 290 336 335
3 289 290 335
3 337 240 333
3 338 339 336
3 338 336 290
3 290 292 338
3 414 339 340
3 338 340 339
3 338 292 294
3 338 294 340
3 340 341 414
3 340 294 296
3 340 296 341
3 341 296 298
3 337 365 344
3 300 342 299
3 300 343 342
3 300 302 343
3 344 365 304
3 345 346 343
3 302 345 343
3 302 303 345
3 345 347 346
3 345 303 306
3 345 306 347
3 347 306 307
3 304 365 348
3 365 371 348
3 307 308 347
3 309 356 308
3 378 349 348
3 309 317 356
3 386 350 378
3 349 378 350
3 311 349 350
3 311 350 357
3 354 351 352
3 354 313 353
3 354 353 351
3 355 354 352
3 408 357 350
3 408 350 386
3 412 358 408
3 357 408 358
3 319 357 358
3 319 358 321
3 321 358 331
3 413 359 412
3 331 412 359
3 359 322 331
3 351 353 413
3 359 413 353
3 359 353 313
3 313 322 359
3 416 360 355
3 417 361 416
3 360 416 361
3 324 360 361
3 324 361 326
3 418 362 417
3 361 417 362
3 326 361 362
3 326 362 328
3 362 418 363
3 328 362 363
3 363 418 317
3 333 364 411
3 333 411 337
3 298 299 409
3 365 337 411
3 342 343 401
3 393 352 351
3 352 393 395
3 352 395 355
3 355 395 398
3 355 398 416
3 16 15 425
3 19 18 4
3 22 27 24
3 24 7 22
3 32 9 16
3 16 10 32
3 44 111 51
3 51 52 44
3 24 45 23
3 46 24 27
3 27 53 46
3 29 55 54
3 94 62 35
3 35 59 94
3 21 50 76
3 76 43 21
3 90 55 86
3 86 137 90
3 95 93 94
3 94 59 95
3 103 64 100
3 181 183 133
3 142 199 100
3 142 90 137
3 144 93 141
3 141 145 144
3 194 132 185
3 185 291 194
3 185 183 240
3 313 314 323
3 323 322 313
3 409 299 342
3 401 343 346
3 392 347 308
3 392 308 356
3 391 393 351
3 351 413 391
3 418 356 317
3 2 0 424
3 3 425 1
3 3 424 425
3 2 424 3
3 22 3 1
3 8 2 3
3 8 4 2
3 6 27 22
3 20 27 6
3 15 9 14
3 16 9 15
3 13 15 14
3 17 6 13
3 6 15 13
3 364 333 334
3 336 364 335
3 335 364 334
3 415 364 336
3 336 339 415
3 415 339 414
3 410 414 341
3 409 410 298
3 298 410 341
3 407 365 411
3 366 411 364
3 366 407 411
3 406 366 415
3 415 366 364
3 405 406 414
3 414 406 415
3 404 405 414
3 403 404 410
3 410 404 414
3 402 403 409
3 409 403 410
3 409 342 402
3 402 342 401
3 407 371 365
3 367 407 366
3 399 367 406
3 406 367 366
3 397 399 405
3 405 399 406
3 396 397 404
3 404 397 405
3 368 396 403
3 403 396 404
3 394 368 402
3 402 368 403
3 369 394 401
3 401 394 402
3 401 346 369
3 369 346 370
3 392 370 347
3 347 370 346
3 372 371 407
3 373 372 367
3 367 372 407
3 374 373 399
3 399 373 367
3 375 374 397
3 397 374 399
3 376 375 396
3 396 375 397
3 377 376 368
3 368 376 396
3 394 377 368
3 388 394 369
3 388 377 394
3 370 387 369
3 387 388 369
3 392 387 370
3 378 348 371
3 386 378 372
3 372 378 371
3 373 386 372
3 374 385 373
3 385 386 373
3 375 379 374
3 379 385 374
3 376 380 375
3 380 379 375
3 377 381 376
3 381 380 376
3 382 381 377
3 383 382 388
3 388 382 377
3 384 383 387
3 387 383 388
3 356 384 392
3 392 384 387
3 390 389 385
3 385 389 386
3 391 390 379
3 379 390 385
3 393 391 380
3 380 391 379
3 395 393 381
3 381 393 380
3 398 395 382
3 382 395 381
3 400 398 383
3 383 398 382
3 418 400 384
3 384 400 383
3 356 418 384
3 412 408 389
3 389 408 386
3 390 412 389
3 391 413 390
3 413 412 390
3 417 416 400
3 400 416 398
3 418 417 400
3 412 331 358
3 327 428 324
3 324 428 325
3 327 278 428
3 428 278 325
3 97 93 143
3 143 93 144
3 315 427 325
3 325 427 324
3 315 360 427
3 427 360 324
3 270 426 278
3 278 426 325
3 270 314 426
3 426 314 325
3 354 423 313
3 313 423 314
3 354 315 423
3 423 315 314
3 355 422 354
3 354 422 315
3 355 360 422
3 422 360 315
3 139 421 138
3 138 421 135
3 139 186 421
3 421 186 135
3 135 420 184
3 184 420 187
3 135 186 420
3 187 420 188
3 188 420 186
3 222 419 234
3 234 419 233
3 222 287 419
3 419 287 233
