# vtk DataFile Version 3.0
A great-looking cell
ASCII
DATASET POLYDATA
POINTS 473 double
154.76547104709417 314.68222809478 -3.2030945600254404
151.3058642357049 308.68633355916563 4.9425357897894155
149.45204883050565 309.7863541923032 0.4763374979911571
147.96299470669794 316.09636075663246 -2.9953319528852442
143.65053836100685 326.92470084398445 7.60028047461982
144.15911902884105 322.00829561608464 11.47475624665005
144.9346953000274 314.6516235539499 12.032670691881492
146.77643510611128 312.68352718946306 9.06799828995718
147.89568717560758 318.02688641231174 14.339650479162097
153.35899323153157 308.5733050869611 5.46404708560502
155.83507728004344 312.4347457785826 -2.914611324687968
154.45865161046333 327.1672459381166 2.688210858227073
153.19208557892205 326.3802889556146 9.240321524620967
151.59092555335008 326.1133109200608 7.3749677778911105
153.6658003443447 323.8307453172303 12.563115214028722
151.61483752014786 324.8990516467984 10.92548983756867
148.65410230962235 320.79977750898405 13.248297265707599
153.78357716894843 319.59907130555183 14.565289914749659
150.57110175692296 317.79971285309074 14.808085833648304
162.3262544578791 309.84027685080025 0.9745758232993514
160.69090236487597 316.88360397688825 -3.211934497550014
160.45530722822792 321.8153912231084 -2.7920673475858377
156.06557552811842 325.05918167104244 12.114855088559274
162.45100723873267 309.79378980318796 2.9092565991492165
158.69669611259397 322.71254263850557 13.20317159889381
160.56545264987224 321.41199582445677 12.706123804857578
155.3857005793971 317.83939373815247 15.068394098857826
152.98150838620268 317.1350287750264 15.008997619883461
153.17290521216265 315.09285158992947 14.582116161460489
160.45608531621886 308.14288271653487 5.1546125598421515
164.033634575807 312.53262441181903 4.2133264272869315
160.98601524874263 313.10385825594426 10.165428543121537
157.89881273823505 314.75742108017425 14.323323905450911
156.09531219816006 314.3800220802355 14.57401692749182
154.77605716528865 315.7898155924277 14.55171029135897
162.24262837615487 321.0167264934205 11.137658884416167
158.54032086672018 316.28267429436835 14.896401109310915
156.73849420465797 316.20689250830696 14.628596215811651
157.77244936250116 318.0895340059174 15.059698852121826
164.23973602303124 319.01194447047135 9.02988938380901
163.22877367743294 315.96054158495235 11.66578799962869
159.13194572825736 309.93419078436165 -3.0007504533205824
157.52406894966418 307.89528437872957 3.563413298877095
164.8467096070566 315.26215892311916 1.7923229698751406
161.1501517027929 324.38577909129634 1.773408898780862
163.86383675586617 321.16630014420696 2.6012501103929435
162.84772965924589 323.0591788963001 6.8479215063073715
161.4319799576678 319.4756479758886 12.979580943025995
158.81636069973885 320.1744095685088 -2.9703761471884733
155.8015608213444 316.7271220032548 -3.168109762955502
159.07523933158853 315.8175790947932 -2.978062196203099
164.42868920911204 319.7096758834908 0.583855683243389
161.41432549998933 308.7738091142923 4.076760089831676
163.93483459574045 313.34044481477116 5.768246315373231
161.7208687687941 323.55571782139896 8.840036064259834
165.16077667002187 316.1740851712012 -2.1970163369176916
161.92727692123978 313.0530483917242 8.410564881024047
163.1340039285659 311.0152662699955 2.009495463027572
162.94559901976893 313.9282442209745 10.158789701561995
162.55047659076237 310.0518876745695 4.733888156294546
158.88443838166154 307.67832608942507 5.503300609717661
154.25225684755375 308.2781223523348 1.2988915211258019
150.42753654990432 309.23632539681034 1.9970614848603454
157.02448293891206 308.5122578787203 5.824224034697788
159.0339147880518 313.61067619504627 13.351886663612994
159.1351068149647 307.70547531573243 1.5969485740915976
157.36621112555216 310.9703854137367 10.456059061315285
134.70930730559172 310.4028390397494 3.7484270678394793
141.02369774294485 321.3893292541883 11.776005064838172
133.20171110903667 313.7772694468954 6.489734449456718
136.68319367235492 311.7468854635407 7.257342859080853
154.13886228493288 309.3634823674433 10.705013902481722
133.38634556297004 318.06257130254585 5.878712945584786
132.51449464935152 311.28089403406653 0.37735749097387705
154.82335436833435 308.6418313145859 9.080402489452364
137.71385673681178 309.68240545246437 1.0919411281044686
137.9058529333441 310.2760876477047 4.518160072585133
137.36155837184404 309.9840245847014 -1.8351619162213402
139.86729300569516 310.7045751952149 4.9747871646792685
155.47778021860452 310.7085260578536 10.874378317826979
139.9894283164685 310.3086255066171 -2.0700613517504673
131.96326528099777 312.5785771015963 -0.9469773193705144
132.06476597665892 316.84922088382467 -1.4407015446051272
135.84397874439517 315.38433751620386 8.687467199056568
133.61328396584767 312.51428781701645 -2.859287711762442
136.16924649125193 309.70865517985806 -0.17829450645492642
131.7370783376849 314.78652404376766 -2.97153949765464
135.87103042552806 310.97009772127166 -2.8799787666779686
133.8503822583694 316.95995803807597 -2.8319476394405414
133.62437599585712 325.51659080496825 3.2304583219072134
148.41563767284393 310.59278321122457 4.718003219611059
132.0312447523561 321.3279282149434 -1.2117778584297165
133.41116724678926 310.21880421569864 -1.265309207508745
132.01659893566745 322.7835321434048 1.794559775869553
132.50409273948455 318.38888001483065 3.6521602197420755
138.52263674414036 310.93279746832917 -3.0886711168908523
149.08459437603435 315.91304452671375 14.627306071363412
137.3083294342324 313.6126091843619 -2.9602698722102088
135.36606005284096 312.99207486608753 -3.0604866401831647
134.24069356728683 314.4962544805223 7.988349043589879
156.24210668364233 319.09349084442795 -3.2226192236843976
137.2827443765995 328.331395839122 6.1861124503177205
134.44062513006648 321.8621813425185 8.790399463933328
141.70863347452772 309.4571468484437 -1.1162796784729863
137.9298498425213 327.08129776190015 9.651886151783618
159.88796298162842 318.4761675027124 -3.143848055770263
141.92061552440381 328.70228483204625 -2.486179785392508
135.38868787051894 323.98456387754806 -3.01503950541722
134.53991585790186 324.4221720755256 7.567067703468012
134.43593439696102 325.76307103472465 5.055052190582643
156.23752139574557 308.7220305853113 7.88854326266847
162.10563173374013 310.43532425644423 -1.1012138350664984
141.63837122371555 328.6032267862846 8.517939548417997
156.05240948320116 309.3793339746958 9.901412724744242
132.98026991949044 324.96326708619563 -1.779534280189462
158.54781422664487 308.85707689127685 7.446390495062544
134.85775247720102 326.2791884632625 -0.4872445405273893
132.59961466980528 323.80114474923846 4.0974852772465225
138.64903183093688 328.692628636637 7.6016636386353245
131.77434972728045 320.71475219170253 0.6319158425246248
152.41274670118023 309.37358341634643 10.142534802695028
145.30276929729823 312.75365458717533 6.537567656231102
153.29336938132178 308.871680247177 8.951779914416369
136.7659624500117 324.61675681544256 9.558490330196037
144.89747185578312 326.7764410865777 2.796067961440824
137.53440462659935 328.40495013976545 2.6734513157858735
144.9229575035305 326.72935126899165 4.548121326998473
136.83086381308664 318.28312797917715 9.490154527866288
141.43642135097258 317.05065246558837 12.845996684378719
155.9704496344856 312.14895141332926 12.128562327912773
132.02494475356258 322.01680301405827 5.090001380111696
138.33407267529748 315.6689062846691 9.991109597884236
163.27426481039873 311.64254569117423 0.3574080998669701
139.54967890645747 328.28165858571157 9.567100004750552
162.20359222883152 317.49361791385644 13.053223473653874
131.9137392704072 321.07716010283735 3.3598657105706997
131.70020269383517 315.09590228573563 0.017446241613799093
136.61977102436956 326.6760105858011 -2.3920288219867016
140.31898368805452 309.50512689436505 0.5538804553055225
137.21032889770584 319.33342119394854 -2.901431699458036
134.65717639929642 318.68780784482556 -2.902436315795559
143.70689552926677 310.25636290498977 3.844525056367532
160.58374056756088 309.7207414560458 -1.9135895553239006
132.71723355176496 322.22355813435854 -2.945182850658195
164.4884245131312 316.7539617862667 8.004658525416104
144.14543814090996 322.34448779229723 -3.1617956728303698
136.839837263688 328.0702151539542 0.11965871116743597
134.5614919132887 319.1996574910396 7.726725356961381
138.30129715364248 324.7566742273178 -2.933217245128636
152.7627757278395 313.76254406897067 13.497984326916841
142.51617051721493 326.26165816544597 9.273553465483403
154.19624680387918 312.51044620431634 13.206009921214111
163.53475276604783 320.17582208587794 10.211611316461942
141.42907857666899 309.3403177275314 1.463586102651994
136.18635866276782 326.97149804860555 7.386514422028454
139.1656117066717 323.67588232863096 11.195982812074451
163.28240717109657 311.26500783389866 3.5739944735353237
139.08505938898261 329.18243875900316 2.995619280947551
132.97011120305046 325.02263515689555 1.26212924692062
136.93364485599204 321.4978149134527 10.375355401149418
152.47805735984699 310.4631062841812 11.406219640269882
132.69202527266754 320.29972679430637 5.8094537078782915
147.57626202682516 311.7451463154442 6.711985851501173
154.14541886351756 311.1810386965383 11.83753680744626
144.6335874400327 325.1070882277496 -2.886632979335908
144.79999175557515 326.9153289531989 0.9411471951276548
152.14364754582513 308.5020685888355 3.0165330015480314
137.6141475768364 322.09763050098906 -3.1886566267152037
154.35961526179543 313.9304212800211 14.403976298357316
140.67824671058395 329.19336864895615 -0.7730274251356215
140.3335679421077 323.0324786109222 -3.034235514104486
139.1115880303747 328.164663528217 -1.78401128423316
139.30271151063695 309.84575433618386 2.333273981490805
157.7975609450366 308.620327119058 -2.088352668766753
131.869378257723 317.94949326154256 0.8158393176071634
131.85482350136834 315.6974014239898 2.693238594584954
138.30787699152887 317.48870100674475 10.915352356742423
133.41156520505695 320.99420804429303 7.432125803028538
142.80703778198563 327.9062500452658 5.611000355556094
136.44589254518962 309.8866546228953 2.7541911956912464
134.2002626680952 312.0642942014304 6.230539339306974
132.60850547327132 322.75888349761084 6.788033853469037
141.45399824488302 318.69262861017756 -2.9884353372564
147.4256677807432 311.69315423461916 2.8134641175771926
164.43400846203878 319.4487839463795 4.194126050286565
138.22884152066342 315.51473188838946 -2.8279354428836614
164.58486279312427 313.42328743561745 0.019774904494978703
154.1829758970173 322.03150837852036 -2.995678331191744
157.54248547448432 321.48131142618536 13.999851823299924
158.47715895080705 312.1388805238466 -2.791331128277736
140.75510744331248 311.74933542747243 -2.8458690007877636
154.88855965919896 321.1997547638148 14.675832754961734
149.42973726704062 314.5751772771597 -2.9451025188349247
151.05923120165124 311.7346956172556 11.346684316428782
148.28945466348566 312.17149782922854 10.261285941073336
160.24825888909163 314.158399072397 -3.1487687420019155
162.3841029879818 310.5293023323217 6.533346585359249
143.3636807833895 314.11433169894207 11.000241097029603
145.1931588033289 325.7569061628888 6.577319392596521
153.91704025961383 308.8188107267765 -0.9790202741182958
146.59134779092824 314.43510075926355 -2.9612016931483147
161.85830510078955 322.1897739499071 9.917502706122988
163.1342021241753 321.3738043787349 8.736297413398116
151.72999703275005 308.7673607255845 0.271806685436263
163.8990201660198 321.4098563838315 0.993789680668007
156.94012236521533 310.2299698517774 -3.041670322854283
140.98114158774024 318.8026682932295 12.90818656238111
164.61088365006563 315.4002377830123 5.948454399081791
158.5585487456905 326.5854092164013 3.0319267745585905
159.43047028632125 311.86137155248565 10.487216310428657
135.24744108079133 326.6708616466561 2.3730209499766444
163.57710415711307 321.58461604355836 6.891602131761964
143.08214306447297 317.66312568069196 13.452140889929824
152.14448850018073 318.7453716036917 14.839327645389117
135.4712960604175 320.102889182971 9.441487815203365
164.62817553969552 318.3961183212759 7.422442436293374
138.58529579019014 326.690976528505 -3.0354396180272927
148.75827487936414 310.3657600530405 6.69710009049697
155.5299932460123 308.55357773421156 4.5134271953895375
150.4075561097814 320.347883256274 -2.926120799383595
164.48006506101586 319.5854482062131 2.4596877067560463
131.8131262953518 312.70863861348585 1.8963955034066289
164.79771698193963 317.9215121799528 2.4680290172429578
148.00849857974129 324.3564559869694 9.58786409376369
133.446037182299 324.28750826754487 5.87984399353322
157.06801875176987 326.3899422739425 -2.212406112268581
159.91087112195362 313.27608100361994 11.745793311077584
156.1175005246425 327.1214526712649 3.7331533276243336
149.53771799204338 311.0616646658174 10.461489953789535
139.9628623735106 314.47130011476736 -3.1314917240232054
147.11114731788558 326.37730288719774 0.514047652860786
143.16036671502894 323.9091350956072 -3.2175456874142903
161.09957299747208 308.5664931663294 2.1469845584120044
151.6264305528548 325.406755964728 9.052406724060289
142.65406314189346 321.1038759778724 -3.234414556059421
138.58878798960922 328.87551605535884 4.824321820078196
148.64960207238897 311.0652901442371 8.587752302381144
139.80754520058414 314.0483241217023 9.130146143553159
160.16867382789843 325.1785215926645 -0.46959849884936045
151.0497210055704 310.1305763398584 10.366255839589474
141.95209408241462 313.81911583270585 9.687693150755171
164.8475717160856 317.7664764120007 5.795875480108503
135.65999318916073 310.61570342971976 5.725066049337913
146.90420619691236 312.10029360862586 4.810058146318431
144.43775103091684 323.95074254693105 10.591430260010716
151.48990560668318 309.2334844865073 8.67010903325659
153.33015684282196 322.0460442247797 14.506038454190616
148.3349157870981 326.08236155365074 3.384646303733912
134.69879620399112 314.8470375631152 -3.208002400815482
143.50256024078814 326.44908841841624 -2.9200102593542674
149.24205916423668 314.4744158472514 12.904159716116329
145.984959347547 318.00911582296493 -2.8526864519758552
148.325414534119 311.23109013499504 -1.0333891575862388
151.0071497524589 325.8878357673502 5.677891886493737
161.95471954568734 311.3070260404171 7.927557690063914
137.78361235742395 313.1168643792106 8.339754421520889
158.48833797706772 308.0103193862006 -0.43175387253764347
148.08854639725803 311.046721434198 1.0268089729509238
152.47050332414946 327.68838289869655 -1.0596739399494122
151.26709293408814 326.66827896444386 -1.7018915275236737
145.46491627845808 320.6747186773793 -2.930781826957114
157.24271069938055 326.04529686414804 10.945349002365923
163.2807271152655 311.61450278994056 5.335547058282272
153.34699147082117 312.64867808446746 -2.8107801060688447
160.20754459309737 308.2686367186612 6.599554521423994
161.71350533313054 324.173091672659 7.204121497977665
152.61056883588176 312.20975094283386 12.26943578178084
159.17405511838334 326.28333026759935 1.3651894692759146
157.41688484113638 324.11833136451384 13.085281835422673
151.36352088088748 320.09145188121005 13.917008270069706
141.80463978975084 309.8446693528172 3.797828595456561
163.7626306751449 321.8414660032665 -0.5208823061838468
145.3487580295857 312.73432125864093 -2.299220801978432
140.66580239273642 325.9530958810383 -2.819526030040361
136.57971627563882 316.57383935328716 -3.236083891482175
146.75288127403005 321.50743934825294 11.469439616923848
144.24217928940712 310.70049140785295 -0.9698510630501092
156.85408195076658 307.6612495349413 -0.9367007901317722
146.69148872512616 326.59097165718316 2.73001345717481
148.87429541438934 323.25696274337514 11.037716338703584
152.9759747380892 327.26472956970497 1.4726113958907026
138.8895770737311 309.6811763621641 -0.5724676199401348
151.6357942764255 310.8376395526103 -3.196357603574366
162.85617803449986 314.9873943813844 -2.7773767983050903
143.05445006267288 311.375430870214 5.537433127782916
154.14410247541466 327.39097326684634 -0.007853520889146048
156.32464701192634 326.67804418876074 7.351839116711101
147.2087838378699 315.3928701000119 13.46370777730067
149.61212447965175 319.1999376382139 14.117664125115331
159.68591362286804 315.2955531647587 13.992199273030383
160.6596649487591 323.04205590481104 11.132197314177096
148.1136185804933 321.8879227069347 -3.204569011164227
158.61144039681975 324.93448815699804 11.681756531921476
155.69053077152174 308.40457092398555 2.7328430583331995
133.71576437888464 310.2191085517312 1.795533766685444
149.77810429146146 324.98437099582793 8.938566449923984
152.7469426582923 308.72117518448704 7.460572218217984
141.0277474324835 329.12518863926726 3.4426654811138917
131.84067413490993 319.5167824565625 2.1441637267118336
142.7453170139331 313.73804980940326 -3.177392806368269
148.59638225139665 324.73572646227854 -3.033504096749516
140.62412059609613 329.1626326127877 6.041993910875667
157.09877982566167 324.6309156499564 -3.0523024581240055
153.97859045379568 320.30821959167514 -2.9917324065079542
159.85595053569358 307.726737055335 3.66023765000271
161.0459320455075 311.53215225390534 -3.0723334584528748
158.96265166846482 326.22236643055555 -2.265858841853554
156.36004156057086 320.2118170962035 14.666577411964603
154.28853081653932 308.6246345129264 7.510569480298872
158.52895149240302 326.2232274730836 6.940394144121243
143.79341926252013 327.54007107167087 -1.189288282987623
150.99116032892277 322.9474588852814 13.29590048729448
158.33373627035544 317.4265492827436 -2.8849250828274573
160.6532939067809 311.6009312986556 8.919559583237318
155.68404461944948 327.11609340433813 1.1871467184415414
144.51924840038245 325.07739941836746 8.926506069617938
157.4861019015367 309.5898584319357 9.005262885224814
150.14024037353408 325.789631984907 3.9675235143251855
155.69874256378966 326.4860217635236 9.909076236233663
139.80882383487534 320.2579847853964 -3.030101614042548
143.4621683892818 327.68754944895494 2.9872612557490528
150.1245508302958 322.79017343793697 -3.2387017289883198
147.45946128723594 326.01059180817646 5.119199072172536
159.7026420467217 325.77068802216615 5.683806101029623
163.83631876796014 314.1752806792121 7.944187697724881
142.23738809443464 328.5266049174214 0.559476023404073
164.94383269527927 316.39367304866823 4.023645427658819
155.76721999296421 308.5947152695605 -2.0600778904377397
151.43546094645367 324.6992225877867 -2.7731915653509303
149.94383930738334 326.35032162579824 -2.950148846308776
152.34720923249498 309.68547647247186 -1.6923327078095822
145.4744490839307 319.8290833854 13.458092052186883
132.36662007700406 316.09237211188696 5.275916572996732
155.2882284949312 308.56427407733827 6.2344378646310625
138.96364635588557 321.4709541132177 11.325702731266352
142.10720017134489 315.0663685881344 12.507938492006277
164.80801304983822 317.8868600125457 4.116300600198717
146.2717134485404 323.3948432939418 9.901478092247917
150.08947384763064 309.2871433241668 3.803115346110363
157.00620641646734 326.9622429908524 2.3464604462877716
163.7188116854356 318.80399211772806 11.657923749758712
149.86121501712776 309.5669767626922 7.658523228738429
148.87156098862104 310.14310129178676 2.4631199532064465
164.16390581731707 312.668855229234 2.2776564359453957
149.8192336785618 318.07028171682555 -2.9743699275288495
143.72429668813575 318.42348129531064 -3.1346816031262263
163.20085346448215 312.1605402531023 7.164504151570448
142.71209454334374 309.76662074958244 0.25676306703484275
161.09663278829714 315.91387554689913 12.792656140662858
157.53582224087506 314.77152272168314 -3.0520690349420248
154.19593415824085 308.34373238320904 3.4053878749272704
154.23057078519153 323.9269569042068 -2.811179409341844
146.0040449515286 326.28641434157345 -1.841827922649659
139.70780798373556 316.7241219091058 12.133989419219485
143.07423569248374 312.9552012038127 7.575936480049255
149.56771921647282 325.31419805521944 6.450597797975385
150.81498001749108 313.29527394131514 -2.963482389930961
159.06071301456612 326.5178711231399 -0.4328378259814453
157.15484043861727 313.22213537453086 13.527559639556676
155.55088958000005 313.18134769312985 13.630086138223186
139.14235845061907 312.7136520853396 -2.986208370815042
161.4970894893578 309.05890393486203 5.874190715885839
163.24272024119009 317.70983599350774 -2.807042112316884
141.35491548953553 310.9411329698459 5.4593888825783825
144.15465377633788 326.84526626938344 6.091172385408071
135.18629601610783 321.20520168362714 -3.1790348661208925
142.3235759445871 324.14054686946315 10.59121605823754
159.1431476665435 310.2586930893873 9.174157743133016
138.70517275682468 319.39128292232374 11.704809876307001
152.23193422991002 320.25950689989656 -3.213756353410476
163.70035413375254 321.7855942159913 5.16041599432527
161.45916242299245 314.36302561927744 11.622854879633808
160.69293449548925 308.61604279097645 -0.190373901427876
160.01638597099256 325.68802351167824 3.6601849229651005
162.78451568480205 323.42372722101726 3.5540255162392844
158.26696587961243 326.1169716893959 9.251105438665775
149.06987622259697 326.03216205895774 1.7299737000593374
160.76222615144707 309.8043642737693 7.67238133958206
164.20744041108193 317.18624559896597 10.07987381456278
160.28583623332563 324.9871935127945 9.907659694736404
152.55766037733412 326.73067953397816 4.96020731495247
149.0386293906354 326.45807209450516 -1.0018195826669798
161.40042881871557 319.6483941155734 -2.9182630781674597
152.1392823750323 318.51412685469876 -3.1594713810840176
155.45247790589235 325.9695520556406 -1.791122235499659
144.50270616051958 313.77162702131284 9.399444593400045
162.73462336043934 322.2779446275338 -2.879236996157186
142.87567767675463 320.14412495872165 13.015584772767703
164.86007323084235 315.2531269276172 -0.37389254046446196
143.19765559585466 311.2462858508772 -2.8378954189033836
153.94043573197143 325.7682220350464 11.283007419973314
164.55463052302338 314.2268027332316 4.0099023592699075
146.00555536564875 314.0025795355133 10.361523428640764
150.9275778493084 313.1177769548486 12.934715737951795
164.14602490312492 315.46037498593955 9.690401870181027
133.91344230622178 316.36085715448166 7.397390390692533
132.05732631431587 319.35460514118347 -2.053346434275741
162.94902913197961 323.37391888594567 5.264314889972208
156.74959034177027 307.7932977363652 1.0713570948547804
147.35362291167687 313.61325677395354 11.462692707507495
165.01293510746393 317.12044602981064 0.13066057233162282
161.9457980367615 323.4534899210628 -0.589628892165394
160.17608393312082 314.5363194959193 12.643064962586067
151.38452966740022 308.8291463179462 6.675073076650136
133.5376792473385 320.40698418439706 -3.18520794292666
158.85981835850615 324.5052068561504 -2.8489650619641265
147.91396756980186 319.2461380989428 -3.1551563595936285
163.4013964216395 312.4744892586026 -2.0140326842247056
151.21639539837028 315.2623077477783 14.19946341168973
159.09921054695428 320.2697970628992 14.25033646446364
139.40406488049325 329.3561322380211 0.9604946093147119
161.452998775366 324.37397659201133 5.428047363592569
161.98191565500832 313.27107952997943 -2.989400086945911
147.2647498815783 325.1655496234038 8.006273899051628
133.29539793481217 311.67704420063603 4.477398395786608
158.63971325467975 322.9246647856335 -3.0278662276216424
152.00859697285293 326.7998032891627 2.6501509783895174
150.68677521000248 326.303464310073 2.2120678714291193
159.53098495732448 308.51101166128416 -1.8327762897363489
153.15351747854638 325.99747645876715 -1.643922761817374
163.58507962248746 319.969691903662 -1.8548390019929009
161.24142584786648 324.3276256017489 3.608612604935548
134.58647913635846 326.068470775789 -2.5307535763939972
140.37115353496696 326.52478829096333 10.656390211903195
155.99892969193127 322.6501211490483 13.710112134840895
152.37628315037148 322.0665688963771 -3.08556810285701
140.624659925575 312.3921331085973 7.063903435876651
158.15073265299662 312.49051037554636 11.971004423155133
152.69407646023924 314.6853923873649 -2.7903486981646988
146.83434240703204 311.8569014837415 -1.6409766795536194
131.87266641769665 313.8548372783808 4.375271470701637
164.88652682681823 318.36645319552656 -1.5043015232713857
153.9318557321083 326.6422821335794 7.07167014855049
157.08954778912545 326.74974040077956 -0.25761749327182615
138.52852219138188 325.4510627441166 10.300169301807948
154.2610115752793 318.21931368534496 -3.0032961878060926
160.60051609222097 324.1397017357218 -2.6143120171694463
135.2097409803383 312.7937671921447 7.6374273319364265
145.74351076597927 323.57134348072725 -2.9138220789478044
143.69127218780008 310.0497928796429 1.6177093045006246
156.19952105401012 321.87183320484814 -3.0990164937409066
135.2838369024203 317.3081869617843 8.344062169710716
155.42323685665036 307.9568988542309 -0.369629905742263
149.88313718230694 309.42486360605704 5.747684662747128
138.14456268938434 311.1991610478169 6.519424354795272
160.22425976334915 317.54209245906065 14.314235775634716
145.35200432368796 316.85560990595764 13.620481267294048
145.0371307682046 311.73559695741795 3.578922361041297
154.19479202240845 310.31370392322015 -2.911189274131373
132.40414942372837 322.84706123134976 -0.37176995055987355
149.46008022300856 312.81349496893915 11.435462211541553
162.99413213700885 322.68942160079916 1.290180837127072
142.04207166257416 316.39228193513475 -2.8328114970948888
146.03349940952143 311.8947487386902 0.4157597949041945
135.585524267111 323.19232839011477 9.201451284946058
153.47633916576882 316.5051087966748 -2.9136835174981637
144.79597747290228 315.6767281961658 -3.209695344807477
160.37326443076506 325.21872870139254 7.626674237281835
150.07881218252248 310.16425234709334 9.166398168202887
148.01268784620345 312.91894332808664 -3.0420828746056423
151.50369069483148 326.6660993124417 0.5167656279143862
149.5207193900348 311.257048813928 -3.0319230483633515
155.19093045184098 326.8146348154162 5.084641435688926
150.287912593543 309.7763010932232 -1.6041016749049914
139.3346439773952 317.3328719175664 -3.076804755565118
154.7848106303956 326.60809005086884 8.394485334562198
136.3329620388864 327.77002304938793 4.760220363468304
164.4139852334377 320.02228978693387 6.781182490822317
164.2624654407897 314.41204386038896 -1.5544106762732557
140.23229606705158 314.803115229519 10.889299798128606
143.84016690355995 315.8837815571033 13.268071877312899
150.98925038063828 315.9589983580182 -3.2075137692184503
157.7439413935972 326.7104442227019 4.745970966263325
POLYGONS 942 3768
3 34 27 28
3 28 27 408
3 26 27 34
3 18 408 27
3 290 25 35
3 33 32 37
3 37 34 33
3 34 37 26
3 36 37 32
3 445 36 289
3 463 330 203
3 38 36 445
3 36 38 37
3 17 27 26
3 445 409 38
3 26 37 38
3 38 409 307
3 307 26 38
3 26 307 17
3 25 24 409
3 0 10 263
3 282 356 263
3 10 448 263
3 459 356 461
3 461 356 282
3 2 252 463
3 252 461 463
3 471 428 356
3 461 282 463
3 327 199 448
3 448 199 330
3 447 439 453
3 453 183 447
3 10 0 349
3 0 428 455
3 455 428 471
3 356 428 263
3 263 428 0
3 263 448 282
3 282 448 330
3 424 22 14
3 330 463 282
3 183 243 447
3 296 245 403
3 458 228 236
3 2 342 257
3 252 257 453
3 399 7 194
3 257 183 453
3 461 252 459
3 183 90 243
3 341 217 443
3 443 217 90
3 90 162 243
3 236 7 162
3 193 239 160
3 7 121 162
3 228 194 236
3 194 7 236
3 257 342 183
3 62 342 2
3 257 252 2
3 250 393 408
3 122 71 120
3 120 71 160
3 160 266 193
3 266 149 393
3 243 162 121
3 163 71 79
3 447 243 121
3 149 151 168
3 120 245 122
3 447 121 284
3 239 228 458
3 34 28 168
3 193 228 239
3 308 74 122
3 228 450 194
3 151 266 163
3 90 338 443
3 458 341 245
3 296 9 308
3 7 385 121
3 296 122 245
3 193 450 228
3 193 393 450
3 193 266 393
3 236 162 217
3 162 90 217
3 28 149 168
3 28 408 149
3 33 168 359
3 239 120 160
3 163 129 151
3 160 163 266
3 443 338 1
3 1 338 166
3 245 341 403
3 403 341 443
3 113 79 71
3 341 236 217
3 341 458 236
3 129 359 151
3 342 90 183
3 342 338 90
3 203 166 62
3 463 203 2
3 203 62 2
3 408 393 149
3 359 168 151
3 399 450 250
3 450 393 250
3 74 71 122
3 120 239 245
3 239 458 245
3 194 450 399
3 71 163 160
3 163 79 129
3 113 71 74
3 36 32 289
3 166 350 9
3 308 122 296
3 113 316 66
3 129 427 358
3 66 129 79
3 79 113 66
3 359 358 33
3 166 338 62
3 62 338 342
3 266 151 149
3 166 9 1
3 33 358 32
3 359 129 358
3 168 33 34
3 1 403 443
3 9 296 403
3 403 1 9
3 371 402 226
3 427 226 64
3 64 226 402
3 377 367 115
3 209 226 427
3 209 66 367
3 66 209 427
3 196 254 377
3 377 361 196
3 361 59 196
3 254 313 377
3 31 209 313
3 115 264 377
3 29 361 264
3 264 361 377
3 346 254 196
3 199 203 330
3 205 189 41
3 173 327 205
3 205 41 173
3 156 59 23
3 189 305 41
3 327 173 277
3 10 205 448
3 448 205 327
3 349 189 10
3 189 205 10
3 195 189 349
3 402 371 348
3 348 371 40
3 59 262 196
3 262 346 196
3 57 156 23
3 367 66 316
3 156 30 262
3 262 59 156
3 371 58 40
3 58 394 40
3 56 254 346
3 144 394 324
3 31 58 371
3 289 348 445
3 445 348 134
3 59 52 23
3 59 361 52
3 313 254 56
3 20 50 312
3 312 50 349
3 20 195 50
3 50 195 349
3 111 305 407
3 57 19 132
3 25 290 24
3 202 46 54
3 343 391 30
3 326 207 391
3 189 195 305
3 23 232 19
3 23 52 232
3 30 53 262
3 262 53 346
3 53 30 391
3 391 207 53
3 209 31 226
3 226 31 371
3 144 207 241
3 343 186 43
3 467 202 39
3 394 58 324
3 58 56 324
3 30 156 343
3 156 57 343
3 20 283 195
3 326 391 43
3 43 391 343
3 468 407 283
3 340 378 39
3 394 144 378
3 43 222 326
3 402 289 64
3 402 348 289
3 64 358 427
3 115 316 110
3 115 367 316
3 312 349 49
3 49 349 0
3 25 47 35
3 134 340 47
3 47 340 35
3 134 47 445
3 25 409 47
3 47 409 445
3 56 346 324
3 346 53 324
3 57 132 343
3 132 186 343
3 372 65 256
3 264 60 29
3 264 115 60
3 305 142 41
3 305 111 142
3 142 111 372
3 277 173 256
3 111 19 372
3 58 31 56
3 31 313 56
3 142 418 41
3 142 372 418
3 418 372 256
3 370 467 184
3 467 241 184
3 173 41 418
3 184 45 370
3 45 374 370
3 394 378 40
3 40 378 340
3 326 241 207
3 377 313 367
3 367 313 209
3 324 207 144
3 324 53 207
3 129 66 427
3 39 378 144
3 40 134 348
3 40 340 134
3 358 64 32
3 32 64 289
3 232 52 304
3 398 442 277
3 455 49 0
3 42 398 65
3 304 29 60
3 63 333 218
3 316 113 110
3 42 293 398
3 65 232 304
3 218 293 42
3 60 115 63
3 333 63 110
3 304 60 42
3 74 308 110
3 110 308 333
3 218 9 350
3 350 293 218
3 218 42 63
3 63 42 60
3 218 333 9
3 63 115 110
3 398 61 442
3 442 61 199
3 199 327 442
3 327 277 442
3 74 110 113
3 19 111 132
3 166 61 350
3 256 65 398
3 203 61 166
3 256 398 277
3 173 418 256
3 308 9 333
3 199 61 203
3 19 57 23
3 350 61 293
3 361 29 52
3 29 304 52
3 61 398 293
3 195 412 305
3 305 412 407
3 195 283 412
3 412 283 407
3 132 111 407
3 51 222 400
3 400 222 43
3 55 468 283
3 186 388 43
3 55 400 388
3 388 400 43
3 362 431 55
3 362 420 431
3 49 100 312
3 100 48 312
3 400 55 431
3 431 51 400
3 48 21 382
3 304 42 65
3 51 420 271
3 51 431 420
3 55 388 468
3 468 388 186
3 435 49 455
3 100 49 435
3 435 303 100
3 374 397 370
3 370 397 46
3 374 411 397
3 397 411 46
3 45 451 374
3 271 401 451
3 440 302 415
3 373 421 44
3 44 421 374
3 373 411 421
3 421 411 374
3 420 386 271
3 386 401 271
3 383 435 455
3 383 455 471
3 415 436 21
3 303 435 383
3 303 369 425
3 425 369 219
3 303 383 369
3 369 383 219
3 20 382 362
3 362 382 420
3 406 344 3
3 3 344 471
3 344 383 471
3 383 344 219
3 219 344 406
3 16 331 8
3 6 392 399
3 399 392 7
3 6 385 392
3 392 385 7
3 318 375 286
3 315 337 413
3 425 328 351
3 351 328 419
3 15 311 14
3 16 269 311
3 292 24 290
3 381 300 352
3 352 300 438
3 406 291 219
3 438 300 291
3 269 288 18
3 18 288 8
3 269 16 288
3 288 16 8
3 48 415 21
3 48 440 415
3 16 311 279
3 279 311 15
3 12 432 13
3 432 380 13
3 286 309 472
3 286 375 309
3 309 375 457
3 413 295 355
3 355 295 13
3 24 268 424
3 424 268 22
3 24 292 268
3 268 292 22
3 44 267 373
3 317 380 416
3 416 380 11
3 381 376 460
3 285 433 384
3 384 419 285
3 46 265 54
3 54 265 457
3 46 411 265
3 265 411 457
3 438 291 260
3 260 291 406
3 322 413 355
3 355 317 322
3 250 287 399
3 287 6 399
3 373 323 411
3 411 323 457
3 373 472 323
3 460 259 381
3 419 328 259
3 279 15 295
3 374 451 44
3 44 451 401
3 419 384 351
3 351 384 302
3 419 258 285
3 285 258 460
3 419 259 258
3 258 259 460
3 317 253 380
3 380 253 13
3 317 355 253
3 253 355 13
3 406 251 260
3 260 251 345
3 251 456 345
3 17 246 269
3 424 14 246
3 386 21 436
3 436 401 386
3 352 230 381
3 278 376 230
3 230 376 381
3 472 462 286
3 462 11 380
3 381 329 300
3 300 329 328
3 381 259 329
3 329 259 328
3 432 286 462
3 462 380 432
3 460 280 285
3 285 280 11
3 460 416 280
3 280 416 11
3 16 275 331
3 16 279 275
3 275 279 337
3 14 390 15
3 15 390 12
3 14 22 390
3 22 261 318
3 318 261 375
3 22 292 261
3 261 292 375
3 3 456 251
3 251 406 3
3 436 238 401
3 401 238 44
3 436 306 238
3 299 456 272
3 4 150 315
3 315 150 366
3 150 423 366
3 328 321 300
3 219 291 321
3 321 291 300
3 260 345 234
3 13 233 12
3 12 233 15
3 13 295 233
3 233 295 15
3 54 379 290
3 290 379 292
3 379 375 292
3 317 417 376
3 376 417 460
3 317 416 417
3 417 416 460
3 240 335 469
3 184 336 222
3 222 336 326
3 184 241 336
3 336 241 326
3 249 231 273
3 278 126 322
3 11 227 339
3 339 227 472
3 11 462 227
3 227 462 472
3 12 390 318
3 318 390 22
3 337 223 413
3 413 223 295
3 337 279 223
3 223 279 295
3 222 220 184
3 184 220 45
3 222 51 220
3 220 51 45
3 39 215 467
3 467 215 241
3 39 144 215
3 215 144 241
3 132 407 186
3 186 407 468
3 433 314 339
3 339 314 11
3 433 285 314
3 314 285 11
3 46 211 370
3 370 211 467
3 46 202 211
3 211 202 467
3 286 465 318
3 318 465 12
3 286 432 465
3 465 432 12
3 219 321 425
3 425 321 328
3 21 386 382
3 382 386 420
3 306 225 433
3 433 225 384
3 306 302 225
3 225 302 384
3 440 351 302
3 202 201 35
3 35 201 290
3 202 54 201
3 201 54 290
3 339 267 433
3 459 192 356
3 356 192 471
3 459 3 192
3 192 3 471
3 375 379 457
3 457 379 54
3 322 198 413
3 4 315 198
3 198 315 413
3 17 213 27
3 27 213 18
3 17 269 213
3 213 269 18
3 44 238 267
3 331 446 8
3 6 287 446
3 446 287 8
3 322 247 278
3 278 247 376
3 322 317 247
3 247 317 376
3 345 182 234
3 234 182 319
3 269 246 311
3 311 246 14
3 424 191 307
3 307 191 17
3 424 246 191
3 191 246 17
3 309 457 323
3 323 472 309
3 373 208 472
3 472 208 339
3 373 267 208
3 208 267 339
3 24 188 409
3 409 188 307
3 24 424 188
3 188 424 307
3 267 357 433
3 433 357 306
3 267 238 357
3 357 238 306
3 182 464 319
3 271 204 51
3 51 204 45
3 271 451 204
3 204 451 45
3 319 170 234
3 231 234 170
3 170 273 231
3 438 164 352
3 352 164 249
3 438 231 164
3 164 231 249
3 423 155 366
3 39 152 340
3 340 152 35
3 39 202 152
3 152 202 35
3 325 297 320
3 273 170 148
3 234 145 260
3 260 145 438
3 234 231 145
3 145 231 438
3 171 146 410
3 319 139 167
3 274 140 139
3 319 167 170
3 167 148 170
3 297 325 410
3 137 146 171
3 159 127 368
3 146 125 410
3 146 210 125
3 126 320 178
3 178 320 297
3 320 165 325
3 278 124 126
3 126 124 320
3 278 165 124
3 124 165 320
3 158 210 116
3 116 210 146
3 158 116 114
3 178 112 4
3 123 159 155
3 352 165 230
3 230 165 278
3 198 322 126
3 210 109 466
3 466 109 154
3 154 108 123
3 154 109 108
3 167 107 148
3 107 143 114
3 137 116 146
3 137 148 107
3 125 210 466
3 466 235 125
3 312 105 20
3 20 105 382
3 312 48 105
3 105 48 382
3 123 104 154
3 104 118 154
3 102 108 181
3 235 101 118
3 118 101 154
3 235 466 101
3 101 466 154
3 303 440 100
3 100 440 48
3 425 187 303
3 303 187 440
3 425 351 187
3 187 351 440
3 273 106 249
3 273 171 106
3 229 452 299
3 452 182 345
3 8 96 18
3 250 408 96
3 96 408 18
3 272 200 459
3 459 200 3
3 272 456 200
3 200 456 3
3 284 141 447
3 447 141 439
3 284 270 141
3 141 270 439
3 464 274 139
3 139 319 464
3 174 119 396
3 135 94 161
3 135 93 119
3 135 117 93
3 93 117 158
3 464 182 452
3 452 229 464
3 158 114 449
3 449 114 143
3 174 298 119
3 119 298 135
3 174 94 298
3 298 94 135
3 135 130 117
3 117 130 181
3 135 161 130
3 130 161 181
3 143 107 365
3 365 107 167
3 19 232 372
3 372 232 65
3 139 140 365
3 365 167 139
3 88 396 140
3 136 175 174
3 332 94 175
3 175 94 174
3 365 404 143
3 143 404 396
3 365 140 404
3 404 140 396
3 299 190 229
3 426 255 444
3 270 153 439
3 270 172 153
3 248 274 97
3 119 91 396
3 396 91 143
3 119 449 91
3 91 449 143
3 272 389 299
3 95 360 190
3 190 360 229
3 95 97 360
3 360 97 229
3 299 452 456
3 456 452 345
3 117 89 158
3 158 89 210
3 117 109 89
3 89 109 210
3 274 88 140
3 274 248 88
3 175 136 221
3 95 87 97
3 92 87 85
3 414 221 294
3 85 179 294
3 294 92 85
3 86 88 248
3 92 84 87
3 84 86 248
3 255 83 437
3 174 82 136
3 174 396 82
3 82 396 88
3 190 299 389
3 389 103 190
3 86 81 136
3 136 81 221
3 95 80 281
3 281 80 103
3 95 190 80
3 80 190 103
3 136 82 86
3 86 82 88
3 270 78 172
3 78 426 444
3 85 77 281
3 281 77 95
3 85 87 77
3 77 87 95
3 172 76 179
3 444 242 76
3 76 242 179
3 179 75 172
3 172 75 281
3 179 85 75
3 75 85 281
3 221 73 294
3 294 73 92
3 221 81 73
3 73 81 92
3 426 237 255
3 426 240 237
3 237 240 469
3 94 72 161
3 161 72 147
3 72 395 147
3 437 70 255
3 255 70 444
3 437 242 70
3 70 242 444
3 332 69 395
3 395 72 332
3 332 72 94
3 206 68 368
3 366 155 68
3 414 67 242
3 242 67 179
3 414 294 67
3 67 294 179
3 78 444 76
3 76 172 78
3 93 158 449
3 449 119 93
3 84 92 81
3 81 86 84
3 414 430 221
3 332 175 430
3 430 175 221
3 69 332 430
3 430 414 69
3 437 180 242
3 242 180 414
3 437 69 180
3 180 69 414
3 131 127 83
3 83 255 131
3 131 255 237
3 237 469 131
3 453 429 252
3 252 429 459
3 453 272 429
3 429 272 459
3 20 362 283
3 362 55 283
3 181 224 117
3 117 224 109
3 181 108 224
3 224 108 109
3 181 177 102
3 102 177 147
3 181 161 177
3 177 161 147
3 395 99 83
3 83 99 437
3 395 69 99
3 99 69 437
3 306 405 302
3 302 405 415
3 306 436 405
3 405 436 415
3 229 185 464
3 464 185 274
3 229 97 185
3 185 97 274
3 87 98 97
3 97 98 248
3 87 84 98
3 98 84 248
3 439 276 453
3 453 276 272
3 276 389 272
3 315 244 337
3 337 244 5
3 315 366 244
3 244 366 5
3 446 331 212
3 148 216 273
3 273 216 171
3 148 137 216
3 216 137 171
3 325 169 410
3 410 169 171
3 325 106 169
3 169 106 171
3 335 197 6
3 6 197 385
3 335 240 197
3 197 240 385
3 250 96 287
3 287 96 8
3 240 354 385
3 240 426 354
3 354 426 284
3 249 310 352
3 352 310 165
3 310 325 165
3 106 325 310
3 310 249 106
3 410 157 297
3 297 157 235
3 410 125 157
3 157 125 235
3 368 353 206
3 353 131 469
3 426 363 284
3 284 363 270
3 426 78 363
3 363 78 270
3 335 353 469
3 118 301 235
3 118 112 301
3 301 112 178
3 103 389 276
3 366 68 5
3 131 176 127
3 127 176 368
3 131 353 176
3 176 353 368
3 423 434 155
3 155 434 123
3 423 104 434
3 434 104 123
3 118 133 112
3 112 133 423
3 118 104 133
3 133 104 423
3 206 128 212
3 212 128 335
3 206 353 128
3 128 353 335
3 103 138 281
3 281 138 172
3 103 153 138
3 138 153 172
3 121 385 354
3 354 284 121
3 137 422 116
3 116 422 114
3 137 107 422
3 422 107 114
3 6 470 335
3 335 470 212
3 6 446 470
3 470 446 212
3 395 441 147
3 147 441 127
3 395 83 441
3 441 83 127
3 331 275 5
3 5 275 337
3 5 387 331
3 331 387 212
3 387 206 212
3 68 206 387
3 387 5 68
3 4 364 178
3 178 364 126
3 4 198 364
3 364 198 126
3 368 334 159
3 159 334 155
3 368 68 334
3 334 68 155
3 159 214 127
3 127 214 147
3 159 102 214
3 214 102 147
3 235 301 297
3 297 301 178
3 4 112 150
3 150 112 423
3 123 454 159
3 159 454 102
3 123 108 454
3 454 108 102
3 103 347 153
3 153 347 439
3 103 276 347
3 347 276 439
