# vtk DataFile Version 3.0
A great-looking cell
ASCII
DATASET POLYDATA
POINTS 358 double
154.27763713599256 311.83541150956506 11.932429676838504
149.46762306632039 316.38833097944666 6.533514703080739
152.46523076908886 314.7826639076992 11.2438345645258
153.43617637966702 306.1331516517207 1.563364989140845
151.95088946488676 309.0003043522562 8.880652301887197
152.29168619362585 307.70462610965075 7.345035205803332
153.73796152708317 306.1619670174868 3.748977592996632
151.7845190362723 308.11491621055967 5.691613424286239
154.76202454611885 305.9156673481841 5.756488620830742
150.90131469056038 308.9665735359386 1.0129859699462256
150.28075237812885 309.9339821752392 2.3261120534878623
150.2394553154301 317.5469386183239 7.871716050974433
150.94818655901636 308.76436254427364 -0.7519786662953738
153.03851426622305 306.12121869052544 -0.16545181150665098
151.28224775685808 309.6596287171094 6.785609971881765
152.35335986438713 306.92858601963655 2.5630690287505216
151.8907354234012 310.55973218764905 10.161133705936132
149.8343987243208 312.56612991059643 5.157320236814902
150.95730773803947 309.3385881953401 4.402325837506462
147.61706106938445 318.533882619139 4.518780699678559
155.72170589600316 305.7884997231865 7.50935123520396
153.13826771720431 308.8953050114213 10.739645561702597
154.81921473180552 306.2123237779407 9.038108200382617
151.4532700388023 313.70185534238414 9.99057976719487
151.34077834147797 310.665610796869 8.460866743059293
151.2056570026625 312.17067724274347 9.274770166262584
155.42216662722268 307.80967273959544 10.364196574699504
148.6137265113339 314.70749231208043 3.3889018409085834
151.25120815967944 316.8045917207857 8.917388023416853
153.70291882610334 313.46810535500526 12.035308849366508
155.3517033305948 313.27153777382927 11.528375054924211
150.59863601569558 313.88583097445166 8.428455384839646
149.73947856144648 329.73594850488354 3.2524110438615823
151.37431640207606 315.2903829716861 9.465271463569609
157.92319780357803 326.3767477371319 9.558685972451208
156.08650886375946 314.56455308918515 11.825370775898415
149.07895863120942 313.84444207804 1.680005246191677
167.4342346929443 317.36244693909606 3.1878656010911497
159.16870009904136 316.82402931444847 11.156962830687513
152.63798538999933 312.4634063146349 10.797138303852794
158.14745731841552 315.25149442050775 -2.979506300931796
150.02840180113313 310.5124624558905 0.19657457763238334
167.81502282410352 313.07102941675834 6.091655456229893
163.3576496799816 316.3194989298749 -2.9712284160014755
150.33281228060312 317.63907391895987 -3.153578780084197
152.8383925887526 320.4279974260052 9.525159161585478
157.11955006035535 309.49114850890413 11.37936175881889
154.6848305643763 320.1363845964038 10.924929132942962
148.71862290980792 326.7636522860276 3.2201342158947543
156.62635939535633 319.51556943101997 11.951302953966474
160.98887095767816 321.3896994595736 10.447626252722284
153.32914373074684 318.3814765592837 10.362601440087419
155.14000595885454 318.03125901392974 11.41466895356495
148.8693580174478 323.52677585827325 2.5790083870929466
156.02480771043398 304.8603718867179 -1.4142898256604797
159.93990904773844 319.10251230247263 10.538295952199668
152.13836816125834 322.3567312741358 8.964227449475665
159.48902976052972 329.33886892189196 7.9524012514917795
159.1892037500563 328.19644215075704 -3.0600551139170555
155.62673453441067 316.1601592277504 11.835329163270254
148.74097261729628 322.2340497388395 5.168823638946198
163.989713584751 320.3937731505624 8.350588254374012
148.89664166793088 320.8303321018365 7.183503710485913
152.0760169540351 316.7611250031624 10.306585163772013
147.62884588788418 321.3409191622428 -1.9467717693659028
151.6829737090079 306.7209212921427 -1.7337110656818882
152.37893484178704 324.24689153780804 -2.9043883687598493
152.34289418274466 324.8696311582666 9.302245206364477
163.49375200509476 317.6605223842221 8.622528303600742
150.30573399917594 326.16079386564877 7.340055210451767
158.68761676003925 321.00367785878205 11.755635556665606
158.04864989714628 323.8820886444929 11.292763307771482
148.9062032187161 327.78070815706485 -2.926450252920379
159.92859862774293 305.748932496031 -2.9851001792614875
147.93962056508528 315.78384585312614 1.6877551324952855
164.12295124216297 324.25439186186145 7.402522601475216
167.08863320754125 309.6976267190727 -1.0425655971539334
157.05663214240022 317.47694685588823 11.447346848953261
162.49191636704617 320.9661972917029 9.38141151669881
167.3927932278662 310.4907694519859 1.2394816537507924
153.81961852655826 305.51404616090474 -1.7608542914595071
158.99262882051121 331.01180556920696 5.535421481695295
148.2526190220891 325.38414143100727 0.7118196603726326
155.87847582482306 305.608952540519 4.173185837390967
163.2248348657247 322.6424826479981 9.626862816492219
152.95762475776465 306.7961368503098 5.709394925982795
149.92529141474253 322.8957992197057 -2.986689712120848
151.96524002500072 322.3373064077145 -3.1871127332811118
167.7848153734716 314.83155638333125 -2.588695102710511
165.81232214074808 308.3451121226829 3.6746114714065063
155.52346057669988 324.9624410488754 9.79326452527273
164.2891653445379 311.0698492785062 8.364369717020729
148.4664080056759 327.04976249084274 1.0804530751310473
159.7929725017331 331.6442018213764 -1.708852060558171
159.55991714528847 331.2638927900154 2.7091863535325005
156.18648227595554 321.84977069664177 11.79777619354795
162.30755466076442 325.32121740904955 -3.029533356203534
162.9572651328012 321.1046543400833 -2.6894664527641776
160.4966379874861 327.17426981206523 9.22059647461087
164.7831616229008 317.902558968669 -3.1564019488594957
150.79002050822612 320.7946423636323 8.548862826210256
151.00276107643128 315.73618902885636 7.641291356892527
161.6586676819672 313.15210944056844 9.959409165315662
157.3314030768072 313.4880057790124 10.877977679662822
149.44751418196336 326.4887615597172 5.389796494825448
157.37766648182563 315.53811988758827 11.478139484231422
157.65941206290427 330.55436894835947 -2.689720671438095
148.6982014795337 328.6078354679637 1.193254851524874
155.32920744566175 324.01784226640814 -3.2353915013800343
153.7565205721173 321.75914229589876 -3.0548498609599943
152.1941316613636 326.62360690843053 8.163913018851247
148.38456233582113 323.7713044946235 -0.9649742215405871
165.91515079295183 316.48918918180607 -2.8025165308580053
161.7493328584069 319.46169308063116 9.055473934084267
159.5866293607758 308.0132043188513 8.839080357475298
164.96089762572078 321.3714022168547 3.4858752855992656
153.98621098516654 331.3728597794066 5.919842718299706
158.67526406936295 327.87577486971105 8.80688686287516
154.1123014011208 322.6260469157259 10.383210061684883
167.79274371447198 312.27882094103484 -2.8312042717115125
153.1411805487601 318.0292777698811 -3.0805642990491022
161.99537367366702 327.22892031823113 -2.82946547385864
160.8816849183647 317.8993014504472 -2.906161830454731
167.80214928800518 316.5565305449518 1.0489928545733367
155.7162626619675 316.7088295259005 -2.894473876984408
149.91299139115083 328.2700800278511 5.627398396684386
164.473769869437 324.18642430803794 4.401989596316753
161.09675927674857 320.5939423372085 -3.2213757366046822
157.1669088003639 325.9299559446925 -3.1338775005302155
162.26439896772936 305.7466465859767 -2.4402043217405547
159.66120662221496 306.49976672452635 7.156348684102317
154.30711320202977 329.95541867982723 7.467246598443851
149.30452333827324 313.3564788898228 -1.9576944331869839
158.29086167482765 320.7941041257497 -2.970093543100624
161.24284507293353 328.9925714349433 5.714035541558036
147.62802133235365 320.72480856469565 3.166566602172498
160.72780478046488 314.9987383796536 10.654958612802655
158.64768860656312 304.4473745993692 -0.9997464589575742
164.6976773389153 323.45689080993293 -0.3061118369277769
156.58371193647451 332.63749304759835 0.8311672676536653
165.29396614625756 307.4290853027051 -2.1082153559351466
164.48399529550704 323.65429458661276 -2.2577714773537063
149.2642260055402 324.71832464979394 5.215429485457171
158.46577857325596 305.5701771659236 5.760205986921516
158.9133887479301 304.684617552241 1.609168778400441
163.7766412557259 325.67778446932266 5.835862041942903
167.7989657296417 311.12304569631874 -0.40750544350925055
167.97947881197825 315.14858376621737 3.1007210093879087
166.60649996304795 318.3329817868542 4.084609056362158
157.43986093843964 305.9192374365014 -2.9805530982674973
150.27377360451405 330.34217294671544 0.536695441224039
159.30422525372882 309.4589862563376 10.472059957127222
151.73037720119774 320.41142965309075 -2.9636425802644193
148.0125880643606 325.5715404869844 -1.053383945200949
148.69731020535673 325.6316595716874 -2.8719289688705683
161.63073283506014 307.85448763726885 7.67169712711647
156.15817073988478 330.4849294982272 7.835679854913575
163.30538277712233 313.086402402018 9.941765229905192
152.02677442849986 328.24242517154005 7.31283263024214
157.83329065384902 323.43379696581894 -3.219687704464863
151.94521559009718 331.1496968086157 2.4455330006783895
167.95865618778308 311.95452747439623 1.9624110229862068
150.49704624362076 323.1041238314694 7.259424019851117
159.91215458436477 313.1522594788464 -3.058779929453889
151.67212377250445 309.2242246371623 -2.9511549299627156
165.51755947521474 307.3247086620083 -0.41083165852805226
156.31488002531646 328.5042851230719 -2.985354368452946
166.25855487544266 319.0699286048269 -2.5890016732095398
147.07266926134236 316.8459310759552 -0.4597561502172618
158.129085925274 307.2904354392837 10.768840150738983
146.6809198097394 320.19766340695594 1.5093660937754807
160.83045403590822 311.2581036776615 10.779641578163158
163.5049565000425 309.5554490264825 7.924276973499153
163.93586570331144 306.03587762330636 2.736244434048908
149.5769864475918 311.59425474756216 -1.4058973879781054
151.56789076688963 329.48013908692104 -2.5259656100495005
160.70858736320523 330.3806825034461 0.3778790237748533
156.1201754104971 326.7178324906619 8.962439891824689
167.294223408921 310.0280514271264 -2.4948596474215954
162.86963270124826 311.4859425838382 9.338000353891319
149.22099635370822 329.05564856081105 -0.315037055419887
162.29454912127818 305.6891274157581 3.099079254920392
163.66742944093858 307.38427063528763 -3.048157086987297
165.90608786453444 318.4495280199541 7.587019339606099
153.67362052844652 307.45872976187826 -3.1373220460640847
166.0197754083807 319.6292169681699 5.197845452208998
164.74987033646389 309.0710967353871 6.845331907664729
153.9257294094466 306.533159277372 7.443620542727421
162.48136433541978 327.9611251611643 0.020844944380449967
163.81114949074367 307.57113033322963 6.342153369575664
161.55429049761884 306.57963513623474 5.8852661367553045
167.95406608951657 315.15033449618824 -0.538958370540209
164.56775870253318 321.6918302496288 6.195519477819152
148.48528288432988 320.147265842 5.2379285142993774
165.4230891132187 321.06237915068573 0.6938077769320222
152.05039918009797 331.18325984451013 -1.3402418330445587
151.9016481872992 331.4353194841186 0.6520360354771279
168.2027480711096 313.53824304691307 2.565620781598014
157.6766921370231 305.70453870773594 7.4663789883119085
162.56965104774682 305.321827822144 -0.5404303870859706
161.2590320766853 309.6386292483377 9.123935711109015
158.4599571043655 318.71704100859967 11.873839202343538
150.12503985126148 314.31781558964695 6.300350526881731
167.92583621652545 316.35296868052797 4.287748413239543
165.13151169101664 309.2108854221565 -3.054834501478459
148.57183551830406 327.3957258051478 -0.8191236725286343
159.19650272084195 310.7919341706004 -2.9684450281980457
162.90131878074638 325.6101188520616 9.78519328841491
165.49389698569527 307.63626582403003 2.0482165840398827
156.8121880024708 305.0032145659393 0.7550123870501184
165.81081057895946 308.8883262248081 5.400945359649731
157.51269509050508 312.6046376030069 -3.222236071683139
165.90298219994435 310.2169463270697 7.759996396499422
162.45871329540316 313.56580840364245 -2.87236752106606
164.16834145335804 325.7252578166991 1.5358572117960854
158.86000461188434 331.9978201548779 0.47925353834134965
161.36911795939858 326.28879584678504 11.198745439042503
161.7100278401634 329.2068930661059 2.794864980792795
148.41439649836994 323.61627402079307 0.7222530767174431
162.40380438764203 305.64261986196124 1.459012363667543
164.34793486471054 305.84414233567077 0.6669274023484377
160.39435608495728 330.136926310902 4.194048150736741
153.29351679143338 310.71458323973565 11.149602549396413
153.27487677637416 307.2919615881455 9.239330956033543
149.52413004468545 312.6852347852372 0.020943252840633347
147.38114031474902 318.4806382910876 -2.8240181629380148
150.96811357114612 314.66276970581845 -3.1569926807138837
165.3688917103987 313.74664987823104 -3.1500553221252914
164.92267663163068 319.9150155145876 6.733900850611392
166.3303642718542 319.2122947475578 2.650039206015144
155.7745468029282 330.10739222975815 -2.8929277169921206
153.43271964060696 315.4741381418687 -3.065255293633538
155.54788704103288 319.54360125231307 -3.1971757557300204
161.2089399516022 329.6535281445664 -2.0590450787428796
162.694882181524 309.39355087147777 -2.9623891748251494
167.90167611009332 315.12098568528495 5.452736207447654
157.4617252747933 305.1237915462246 4.568157396568331
159.9506495143663 322.56497701216256 -3.2106980355875834
162.81773862740815 327.42504073020507 2.1436624738252745
154.5566596173789 314.73369525429985 11.294874218482489
151.84384175020506 307.3211621249182 0.7401410603736452
152.0630971182684 307.4904811477016 4.125180618536692
152.23663039565702 330.19938776863927 5.189936251081507
167.21473206305686 318.045230516886 1.7610427034459668
164.79987286828216 323.16912179851533 1.9600121239521255
157.52781450195226 330.3380046867581 7.295662686467919
156.0651592919856 331.85554210034263 6.290375154842556
155.58765661378462 314.0668232230623 -3.1712920365423614
163.02308639951343 326.899043193972 4.234039449841048
151.12606116269572 318.61481010626517 9.5720417723779
151.19062194206157 327.28249098927193 -3.042223821060767
160.7790229791932 304.71768933704607 0.4486062617903144
167.20384115164035 317.47220327480767 5.334101879923246
159.19682835307768 305.02492340108563 3.920032271989089
151.3392886436403 308.28607032173664 2.536629387904336
146.54582188006512 319.54920456375396 -0.25797143672021106
154.16093556704874 327.1797801714218 8.593778851582277
154.33454741969817 326.5545626894749 -2.9530366038087985
165.86007674134157 311.30113833655423 -2.920469390743442
156.65227162281042 305.5263793527818 5.8823456004824894
166.75117780415908 308.36353950468754 -1.6607903318986426
157.22706796684975 304.9812310750474 2.8940806470281952
160.16662216538748 325.14620764932704 -2.8520471739868225
153.71455398969078 332.4588781347002 0.9569863141371058
156.25400604811 311.57683163628235 11.499383624505796
166.89750074148844 309.7969911212727 2.985081078806721
150.333154170314 311.94396989275555 7.227334231318602
167.28137773322274 316.3864145776785 7.280591225906451
149.49563672223394 329.7818983383926 -2.170619147155311
158.57197312787918 306.3857616799443 8.87019108957124
155.73505095667673 323.6344405623762 11.368977307283211
168.26408740732808 313.3315472110185 -0.8403452415121986
156.0707996666354 307.9960596024062 -2.980653809736348
149.62923887132888 314.0945960719499 4.558994380904793
154.89672641938253 309.96953729017986 11.424962696683977
156.70553008010614 305.9166652600783 9.368233362785292
156.1698295503037 321.86453357344527 -2.9273493217009405
150.21894988486687 310.18478546205597 -1.761503776564304
158.4608585308594 311.4099367947461 11.211162487320165
155.28577608121003 305.49738375950056 2.228056598528357
167.9766725823886 313.03557064501814 4.039081274877044
159.62575184760988 313.17489252522813 10.67464770618995
158.20099455926854 318.07172112531083 -3.2314713918259526
161.24864369804953 305.4744121925611 4.306019907154181
154.18729933340646 310.05532196497165 -3.2307749971745
157.08570508973145 332.40963234433104 3.4433199563246912
168.22017238702392 314.0497428593926 1.1081116084189992
164.09418194930888 322.2505307627954 7.93833373934936
160.66096700608787 309.4450572367145 -2.9571964384490457
150.36724285887752 310.8987069468544 5.491675538492778
155.18146366680008 331.8527638862197 -1.7847497748196668
155.35446370804573 306.14314542375644 -2.82628947162518
159.43992988417142 316.64007603873205 -3.0854775144155684
149.69153899875693 319.23102381469096 8.17333342101971
161.30902788775455 307.69156628252375 -2.784846695006348
154.24593734186632 331.9771137825488 3.8607451662595045
148.49951201303955 314.6555787441385 -0.306858790130619
164.9440676181803 307.129344620692 4.243480279005853
166.69556174076664 309.2086691373621 0.3945362794257025
161.01242516555325 304.3709802456682 -1.573832482025464
158.80192415133845 308.2178144568338 -3.2213370081680517
158.86095076495562 314.78614539731075 11.063368004779983
164.69373577372602 305.36162154926797 -1.81777501737888
153.8865637276362 316.4587335739024 11.002314313831492
156.78529299473772 328.59086925857923 8.443695903181414
158.13102260823692 332.3508429406389 1.8949512329050522
167.12334461700766 311.1679953605321 5.362263670672614
150.04370441682016 311.2528765407536 3.7878243448983526
163.46131571419522 319.19666740190536 -2.8444009290433674
167.1644627441874 314.2213389819574 7.674928743150724
163.4822503850412 325.34541391847347 -1.5218485936626174
147.32711526862622 322.012785601769 0.7105488674712525
164.79353296524712 321.4811796832407 -2.074481193373022
165.84435090500162 320.1107369816381 -0.9674645633527866
159.58838804888148 330.16903961583944 -2.846284667061103
165.50740068826664 315.8276117772713 8.714779329757413
165.01693574910516 312.8354558156464 8.865984719752356
168.00779143390554 312.619938396057 0.4554369107465931
154.80470142114493 305.7173838686167 0.18116175289116157
153.37679652404898 319.9927952436852 -2.9897202960275484
156.8919843206947 310.26103431184026 -2.979542510162079
161.44897706232558 317.1978132466915 10.095808916769016
151.91113515502707 316.426008579127 -2.8232479359731184
149.59037295389038 311.8335421813572 1.9100051108628402
167.56936709947124 316.9850521835061 -1.4140639358231022
160.9457144454261 328.0851212248571 7.522111250533403
148.14518064664304 316.68090089151474 3.6212735043368953
166.9887904004464 312.1647688964548 7.446213632458593
149.07670004459195 315.5423710383912 4.943307036229224
155.39779641011398 332.46347191114324 2.2896474793379253
162.47903727896838 326.7751640731878 7.146908278007466
153.266361091748 312.67070467374714 -2.82991911616686
166.6994951104638 318.7483766178858 0.16173253808955412
160.66405385104113 315.4721319882785 -3.225679727413014
163.86194535174437 311.43453474877504 -2.9928805555792515
148.21420300859776 315.52148288771593 -2.8206560649202825
149.27941484002608 320.08728290207824 -3.102853655699938
159.7645602054858 322.5502900565463 11.456073634112345
160.8148939665912 305.17442382648125 2.479876554746619
153.62029210044074 329.38906795854433 -3.0394416633527443
157.6935080856591 332.4994358207578 -1.3204812122063667
162.47856208658268 323.1811958061903 -2.784116084299479
162.96268313216547 314.9431139863247 9.404867307317687
159.709964905523 325.71731878882105 10.809383316042698
146.487541914976 318.1437304611689 2.1764951233508216
161.11886249344232 323.9898727686153 11.365359415462324
161.46469594729243 311.2723720333568 -3.1585703645261956
148.9007101970979 318.51950734393137 6.439254008264557
149.4820199631205 313.05198465844035 3.4090291050179173
148.398191310487 317.0417416029135 5.324387206143366
163.00790840363098 306.3092353627436 4.48161814467789
150.72093178907753 311.81199652634825 -3.1735489232490863
155.51660129305677 311.87577944201087 -2.9723659515100342
167.52051070687787 311.47458648906473 3.593485159697777
160.1490614384632 305.35640013367413 5.630932609072159
159.59369029959473 319.3452626593299 -3.189137805819308
152.45524746179288 310.910681474653 -2.9624614590812244
150.49999011955964 325.03669601608436 -2.972766426280596
POLYGONS 712 2848
3 132 174 224
3 164 184 65
3 320 284 352
3 284 331 352
3 211 352 247
3 247 352 331
3 164 284 184
3 231 247 331
3 351 226 331
3 132 335 226
3 226 351 132
3 247 40 211
3 130 269 198
3 323 36 224
3 190 130 354
3 143 198 259
3 114 269 130
3 198 269 275
3 114 169 269
3 269 169 275
3 247 231 124
3 40 247 124
3 190 350 189
3 200 171 151
3 190 189 155
3 114 151 169
3 169 151 46
3 172 179 200
3 179 171 200
3 200 155 172
3 155 189 172
3 232 133 282
3 190 155 130
3 130 155 114
3 232 282 124
3 124 282 40
3 124 120 232
3 200 114 155
3 200 151 114
3 171 278 151
3 151 278 46
3 331 226 231
3 231 120 124
3 136 102 342
3 64 225 255
3 19 347 193
3 255 311 64
3 193 135 19
3 293 100 62
3 62 100 162
3 77 38 201
3 193 60 135
3 193 62 60
3 60 62 162
3 281 301 103
3 301 105 103
3 55 201 38
3 77 52 59
3 53 311 135
3 52 77 49
3 49 77 201
3 48 53 142
3 171 281 278
3 171 102 281
3 77 59 105
3 70 95 49
3 301 281 136
3 136 281 102
3 50 55 113
3 55 70 201
3 201 70 49
3 293 249 100
3 63 51 249
3 45 51 47
3 162 100 56
3 100 45 56
3 70 71 95
3 303 51 63
3 293 347 11
3 293 62 347
3 347 62 193
3 69 142 162
3 47 51 52
3 162 142 60
3 95 118 47
3 49 47 52
3 49 95 47
3 100 249 45
3 45 249 51
3 142 53 60
3 60 53 135
3 152 120 44
3 53 48 82
3 168 255 225
3 68 342 315
3 226 335 44
3 335 225 44
3 59 35 105
3 105 35 103
3 301 38 105
3 38 77 105
3 68 61 113
3 301 136 38
3 113 321 68
3 113 55 321
3 321 55 38
3 55 50 70
3 136 321 38
3 252 185 183
3 171 179 102
3 316 315 342
3 315 183 68
3 68 183 61
3 68 321 342
3 342 321 136
3 63 2 303
3 63 249 28
3 30 103 35
3 52 51 303
3 56 118 67
3 56 45 118
3 2 29 239
3 30 29 0
3 59 239 35
3 35 239 30
3 47 118 45
3 46 274 26
3 39 0 29
3 278 264 46
3 264 30 0
3 52 303 59
3 274 0 222
3 56 67 162
3 162 67 69
3 29 30 239
3 348 273 27
3 274 21 26
3 266 31 202
3 101 31 33
3 222 16 21
3 222 39 16
3 39 222 0
3 4 16 24
3 169 26 275
3 23 31 25
3 39 23 25
3 39 25 16
3 293 11 249
3 11 28 249
3 202 328 273
3 2 23 39
3 328 27 273
3 2 39 29
3 33 28 101
3 33 63 28
3 109 66 108
3 59 303 239
3 103 264 278
3 2 239 303
3 26 22 275
3 22 223 187
3 198 20 259
3 198 275 20
3 20 275 22
3 46 264 274
3 307 17 348
3 348 17 273
3 307 289 17
3 241 18 254
3 348 36 323
3 348 27 36
3 307 18 289
3 10 18 307
3 27 328 326
3 28 11 101
3 4 24 14
3 10 9 254
3 254 9 240
3 16 4 21
3 323 307 348
3 254 15 241
3 10 307 323
3 323 41 10
3 174 41 224
3 224 41 323
3 41 9 10
3 164 277 351
3 347 1 11
3 326 74 27
3 27 74 36
3 36 296 224
3 168 344 255
3 17 202 273
3 17 266 202
3 63 33 2
3 41 12 9
3 9 12 240
3 209 261 279
3 261 83 279
3 85 241 6
3 20 8 259
3 83 6 279
3 5 4 14
3 85 8 187
3 223 5 187
3 5 223 4
3 13 240 65
3 240 12 65
3 279 3 318
3 318 3 13
3 22 187 20
3 187 8 20
3 85 187 5
3 259 8 83
3 8 6 83
3 6 8 85
3 7 85 5
3 7 241 85
3 241 15 6
3 6 15 3
3 3 279 6
3 241 7 18
3 14 7 5
3 26 223 22
3 31 101 202
3 74 344 168
3 1 328 202
3 2 33 23
3 74 326 344
3 328 1 349
3 1 347 349
3 13 3 240
3 240 3 15
3 101 11 1
3 1 202 101
3 0 274 264
3 328 349 326
3 344 19 135
3 349 347 19
3 222 21 274
3 103 30 264
3 21 223 26
3 21 4 223
3 349 19 326
3 326 19 344
3 254 240 15
3 281 103 278
3 26 169 46
3 18 10 254
3 31 266 25
3 266 24 25
3 266 14 24
3 18 14 289
3 7 14 18
3 289 14 266
3 16 25 24
3 266 17 289
3 168 296 74
3 74 296 36
3 23 33 31
3 184 80 65
3 54 318 80
3 279 318 209
3 318 54 209
3 65 80 13
3 13 80 318
3 206 300 320
3 300 272 320
3 352 211 320
3 320 211 206
3 40 163 211
3 320 272 284
3 284 272 184
3 351 356 164
3 164 356 284
3 351 331 356
3 356 331 284
3 43 333 122
3 333 163 40
3 346 163 213
3 206 288 300
3 206 346 288
3 288 346 234
3 208 298 265
3 294 288 234
3 211 163 206
3 163 346 206
3 334 204 234
3 213 227 334
3 234 346 334
3 346 213 334
3 350 297 189
3 189 297 210
3 234 182 294
3 234 204 182
3 65 12 164
3 12 277 164
3 351 174 132
3 351 277 174
3 335 168 225
3 335 296 168
3 302 165 220
3 220 165 208
3 165 298 208
3 174 277 41
3 277 12 41
3 54 137 209
3 300 149 272
3 137 54 149
3 73 137 149
3 130 143 354
3 130 198 143
3 299 137 73
3 294 129 73
3 73 129 299
3 129 199 299
3 332 123 324
3 332 324 167
3 163 333 213
3 272 291 184
3 54 80 291
3 291 80 184
3 208 173 220
3 350 181 173
3 306 212 210
3 306 210 265
3 161 317 286
3 286 317 271
3 161 146 317
3 317 146 271
3 338 283 253
3 88 271 119
3 324 112 167
3 227 43 112
3 122 308 43
3 122 127 308
3 308 312 167
3 253 261 144
3 144 338 253
3 42 306 280
3 112 324 88
3 354 283 190
3 190 283 350
3 283 181 350
3 181 338 219
3 199 251 299
3 37 243 229
3 229 243 332
3 37 123 243
3 243 123 332
3 286 191 123
3 123 191 324
3 191 88 324
3 137 144 209
3 209 144 261
3 286 123 147
3 147 123 37
3 251 144 137
3 300 288 294
3 220 173 219
3 219 173 181
3 199 129 302
3 220 199 302
3 220 219 199
3 199 219 251
3 224 296 132
3 132 296 335
3 283 338 181
3 182 302 129
3 129 294 182
3 338 144 251
3 212 186 210
3 210 186 189
3 212 172 186
3 186 172 189
3 299 251 137
3 338 251 219
3 261 236 83
3 261 253 236
3 236 253 143
3 122 292 282
3 282 292 40
3 122 333 292
3 292 333 40
3 43 213 333
3 43 227 213
3 54 291 149
3 149 291 272
3 133 355 282
3 282 355 122
3 133 127 355
3 355 127 122
3 138 194 312
3 194 229 332
3 334 258 204
3 204 258 178
3 258 119 178
3 232 276 133
3 232 109 276
3 276 109 108
3 204 178 260
3 133 276 159
3 159 276 108
3 185 148 229
3 229 148 37
3 185 252 148
3 148 252 37
3 257 108 66
3 108 128 159
3 108 257 128
3 58 233 121
3 253 354 143
3 253 283 354
3 262 96 341
3 341 96 310
3 262 121 96
3 96 121 310
3 159 128 262
3 128 58 262
3 262 58 121
3 127 97 308
3 308 97 312
3 127 341 97
3 97 341 312
3 316 91 212
3 212 91 172
3 316 179 91
3 91 179 172
3 34 90 71
3 90 256 67
3 210 89 265
3 265 89 208
3 210 297 89
3 89 297 208
3 88 191 271
3 271 191 286
3 227 88 119
3 227 112 88
3 83 236 259
3 259 236 143
3 178 119 146
3 146 119 271
3 229 115 185
3 126 192 115
3 115 192 185
3 265 79 161
3 161 79 146
3 265 298 79
3 79 298 146
3 61 78 113
3 113 78 50
3 61 84 78
3 78 84 50
3 260 298 165
3 298 76 146
3 146 76 178
3 298 260 76
3 76 260 178
3 75 192 126
3 300 73 149
3 300 294 73
3 194 115 229
3 312 313 167
3 167 313 332
3 312 194 313
3 313 194 332
3 43 99 112
3 112 99 167
3 43 308 99
3 99 308 167
3 350 173 297
3 297 173 208
3 185 228 183
3 183 228 61
3 185 192 228
3 228 192 61
3 84 345 50
3 212 327 316
3 327 42 309
3 133 237 127
3 262 341 237
3 237 341 127
3 42 235 309
3 252 203 37
3 37 203 147
3 252 235 203
3 203 235 147
3 147 197 286
3 286 197 161
3 147 280 197
3 197 280 161
3 42 327 306
3 306 327 212
3 147 235 280
3 280 235 42
3 179 157 102
3 102 157 342
3 179 316 157
3 157 316 342
3 161 353 265
3 265 353 306
3 161 280 353
3 353 280 306
3 316 309 315
3 316 327 309
3 309 267 315
3 315 267 183
3 267 252 183
3 252 267 235
3 235 267 309
3 138 244 194
3 126 115 244
3 244 115 194
3 341 141 312
3 312 141 138
3 341 310 141
3 141 310 138
3 106 314 58
3 58 314 233
3 106 93 314
3 314 93 233
3 66 250 257
3 250 339 257
3 257 166 128
3 106 58 166
3 166 58 128
3 166 257 339
3 217 176 94
3 233 93 176
3 256 304 131
3 330 248 134
3 134 248 217
3 48 125 32
3 125 242 32
3 57 117 98
3 98 117 34
3 57 304 117
3 117 304 34
3 242 116 295
3 295 116 246
3 242 131 116
3 116 131 246
3 119 258 227
3 227 258 334
3 50 337 70
3 70 337 71
3 50 345 337
3 337 345 71
3 98 207 330
3 84 75 207
3 207 75 330
3 339 195 290
3 290 195 263
3 263 160 295
3 32 242 160
3 160 242 295
3 256 131 158
3 158 131 242
3 32 160 150
3 125 69 158
3 158 242 125
3 256 110 67
3 67 110 69
3 256 158 110
3 110 158 69
3 32 107 48
3 32 150 107
3 290 263 139
3 69 104 142
3 142 104 48
3 69 125 104
3 104 125 48
3 150 195 268
3 84 207 345
3 192 287 61
3 61 287 84
3 192 75 287
3 287 75 84
3 310 214 138
3 248 126 214
3 233 188 121
3 121 188 310
3 330 145 248
3 248 145 126
3 330 75 145
3 145 75 126
3 188 214 310
3 262 237 159
3 159 237 133
3 204 140 182
3 182 140 302
3 204 260 140
3 118 90 67
3 48 92 82
3 82 92 205
3 48 107 92
3 92 107 205
3 205 180 268
3 268 180 150
3 205 107 180
3 180 107 150
3 268 175 250
3 250 175 339
3 268 195 175
3 175 195 339
3 255 170 311
3 311 170 135
3 255 344 170
3 170 344 135
3 109 87 66
3 66 87 86
3 109 152 87
3 87 152 86
3 250 72 268
3 268 72 205
3 250 154 72
3 72 154 205
3 111 154 86
3 64 311 111
3 111 86 64
3 165 302 140
3 140 260 165
3 225 336 44
3 44 336 152
3 225 64 336
3 66 357 250
3 250 357 154
3 66 86 357
3 357 86 154
3 82 218 53
3 53 218 311
3 82 111 218
3 218 111 311
3 154 153 205
3 205 153 82
3 154 111 153
3 153 111 82
3 81 57 134
3 233 176 188
3 188 176 217
3 330 325 98
3 98 325 57
3 330 134 325
3 325 134 57
3 246 285 295
3 94 285 81
3 81 285 246
3 246 245 81
3 81 245 57
3 245 304 57
3 34 343 98
3 34 71 343
3 343 71 345
3 71 270 95
3 95 270 118
3 71 90 270
3 270 90 118
3 248 238 217
3 217 238 188
3 248 214 238
3 238 214 188
3 81 221 94
3 94 221 217
3 81 134 221
3 221 134 217
3 44 322 226
3 226 322 231
3 44 120 322
3 322 120 231
3 93 215 176
3 176 215 94
3 290 340 106
3 106 340 93
3 290 139 340
3 215 93 340
3 340 139 215
3 295 329 263
3 263 329 139
3 295 285 329
3 329 285 139
3 94 305 285
3 285 305 139
3 94 215 305
3 305 215 139
3 138 214 244
3 244 214 126
3 106 230 290
3 290 230 339
3 106 166 230
3 230 166 339
3 98 216 207
3 207 216 345
3 98 343 216
3 216 343 345
3 150 196 195
3 195 196 263
3 150 160 196
3 196 160 263
3 34 177 90
3 90 177 256
3 34 304 177
3 177 304 256
3 304 156 131
3 131 156 246
3 304 245 156
3 156 245 246
3 120 319 232
3 232 319 109
3 120 152 319
3 319 152 109
3 152 336 86
3 86 336 64
