# vtk DataFile Version 3.0
A great-looking cell
ASCII
DATASET POLYDATA
POINTS 925 double
339.7418740554112 128.6153976094345 38.15312948471573
341.02973953059137 130.42495017770634 38.738668042190575
339.0585652922373 126.38446461972026 38.045569812283425
337.28461856766404 126.78570677289925 39.446516704524974
340.6313756354385 127.3718386535822 37.25206707477026
341.58015126608865 128.67302195224 37.55937833692338
338.69622966987373 130.02343382169093 39.70746902716589
338.3246978830056 128.1064879103918 39.087080208918785
342.96912422474395 128.5547064162231 36.93209084743253
338.45965957820044 131.51645392248818 41.125921118604815
341.77105831715215 131.8888586634076 40.06212154810813
342.36903037478936 127.04497601859384 36.854220779700086
336.96912445876666 130.52874313847659 41.22425885320053
342.81184545157555 129.96394686025687 37.56338531880104
337.2263210960533 125.54419985299839 38.23759806280367
339.9851606023786 124.47894427262031 37.33634567983639
340.9755204909971 125.81869802222192 37.06930307084054
341.26557048084015 124.41846672623187 36.506909300834394
342.3590639662295 125.28432113131208 35.996244681447514
343.6250576900534 126.24861835337059 35.85875166604907
343.9748590009786 127.71960721537985 36.13804975588346
344.1456760662917 129.35739058028685 36.57904174983752
344.5624526022121 130.6465260873326 37.73098886315225
343.1474997836503 131.0548704632243 39.093589447624645
337.1440559732085 132.5659970023348 42.26705566837466
339.98323485243566 131.70849834814982 40.30484598512226
335.84108651297123 125.50140777685478 39.31635288448008
342.6284213097599 123.30829454717211 36.40346017655914
336.89763688173485 128.69403107352622 40.126556226219314
345.52052811499954 126.34513112402 35.6564946412096
345.593171315655 128.43634443682103 36.12379589159044
345.5170796217411 130.14267391737954 36.35078120561531
346.704327645905 131.20362982353697 37.503216414965884
345.0523285049257 132.21929378139095 39.24486037413892
343.2329798551009 132.51834596083214 39.92496484190634
340.9890225480823 132.45828742113787 41.27464575290019
338.23388335689634 124.40833966551111 37.56193597773097
337.785098153591 122.77046659389661 36.972623846828135
339.2198487370303 123.26598778407124 37.06110490888169
335.5454084665995 127.18895364274894 40.44119476069782
340.56061154291 123.10739519373945 36.17394793062657
344.843060200171 122.60866530595214 36.260266774526386
344.2008355317477 124.61923209005865 35.76999996485461
346.3916735326458 124.05556900239576 35.49600778331628
348.9100769113481 123.89288779287513 35.84632046922014
347.3662688929962 125.53643460286787 36.390345995090065
349.1411031414475 126.3276779013741 36.19018043843852
335.20791586105213 129.08459882586948 41.76070348599403
349.0389083712683 128.54281229916543 36.20152559201995
347.2803367911056 127.46142481587133 36.28626042347676
347.16593517071476 129.53847246347993 36.02519562571465
348.7005632544831 130.44720825955707 36.87226902064684
342.2265570883164 133.28749894666524 40.90386509208984
342.71181904219804 134.26446661848502 42.192701051952554
335.95242335629666 132.25564498800483 43.75227836393068
339.4097697667115 132.89586020572014 41.90876450700065
336.1611983940663 124.0110575630827 37.684285808211015
334.4752753562026 122.33034939315517 37.755021460053584
336.24095677555994 122.10622778823964 37.08360523688159
335.4069705033833 120.30832696177539 36.69706968309617
337.53590754362074 120.93113461811284 37.072197889301876
338.94349949216144 119.88491560315687 37.20870799535151
339.4912620219054 121.6303875379338 36.97018462571401
340.7661900382331 119.82465311554816 37.19589765262234
334.1158823426236 125.85759098662103 40.211034177088706
333.736457451843 127.40546428145943 41.35994904748957
334.3223863387921 124.16637373382643 39.09642823268127
341.6406944145753 121.57680024277528 36.812685551495804
343.38450282491203 121.38859694792563 36.10651910053354
342.9452797583311 119.98323066364487 37.3510160992517
345.10834248127253 120.49370465791563 37.00063757096263
347.3262359158068 121.71473453337164 36.53645132581607
350.10861409640245 121.45830186733784 36.413567054089505
351.2628651514207 124.97170918858005 36.30101932894982
353.411152243372 126.48803222443388 36.603056462399614
351.0211854684175 127.49001906930783 36.70523882950848
334.3240919148524 130.1739873065486 43.147465621083455
352.8301960327905 129.0113540030323 37.33162178851833
350.58098569368275 129.68162183544288 37.11730105589191
351.91873054933546 131.3189892287156 38.18584530198953
335.66833223175894 131.03929948524703 42.68558995171648
349.91643733530657 131.11481877501296 37.80972969481759
348.55593649556874 131.7539485253226 37.893483936811265
349.88758634724155 132.46336480159013 38.841416233603596
334.71727474096224 131.35216594689484 44.23594601189028
349.42937515594764 134.34171099353827 39.9648701146404
347.5303243313204 133.05200776478964 39.016761501160985
347.37667725046464 134.5407013098157 40.684701357312974
345.98299330831304 133.59790713453265 40.31657263554818
344.1968581624444 135.07056994443784 42.35583581577405
344.16378356966453 133.65245135718175 40.93788470843601
345.7416594982596 134.69440588914017 41.53454822924555
341.1603054349339 133.5815945044931 42.23133898488069
341.4875052894569 134.94153543350933 43.28822758203062
340.0196341578347 133.88683294548048 43.57799168333232
337.1418976436276 133.05797637108572 44.344224016657456
338.47480228879726 133.29900292951476 43.4482843985864
333.5050175041942 120.14619639936578 38.49780582793425
333.0288750161719 122.43038694979968 39.63691620209731
335.14406325986863 117.95455975666373 37.87436304494394
337.3891025091286 118.87097143113549 37.10944230674734
339.54951951849466 118.16069194724415 37.72066433735998
337.67061903992226 116.77726288432568 38.314482213284265
340.3420800809656 116.32958302017974 39.58834258843626
332.88737597370454 124.42651304799864 40.599366219571756
331.7519246982961 125.11895229327713 42.01672068476218
332.79514185350894 126.0279329912978 41.156425185562824
331.6892249227872 122.81571331617938 41.78140952474076
342.00285305318454 118.0034063896327 38.11071206240138
344.77400009394245 118.44301924924548 38.56841449103819
343.29532434643846 116.60464941976086 39.99344499030313
346.0721679006764 116.86647467735885 40.55407545899223
332.16088987134964 126.95216087648714 42.3420393240139
333.0936235793898 128.74767477291522 43.000073628816835
347.2656128652005 119.38948093853237 38.06839307420902
350.0128823856469 119.26177540091157 38.250344099893084
331.8325104109379 129.12953151434687 44.710710058344254
352.6942914720105 122.75936721400588 35.75364219987007
357.12960848031497 125.95143205433449 37.67462367526219
355.3217798123676 128.09105403544385 37.7585320010916
332.4260783030502 130.2971867894911 45.75478771503762
356.8322530936862 130.7664073234717 40.09635646515094
333.2375112864348 130.3179853738981 44.380367326088304
354.6928419466127 132.64418939792841 40.4557495843075
353.5017090256663 134.64329811799752 42.073216832611486
352.05449193917275 133.501262943837 39.75959021377598
350.997463897076 135.44186597102978 41.391084488253156
348.71379930494965 135.57766540303095 41.68946334521358
347.0642508996977 135.31515672869605 42.12800300530878
347.64619547237265 136.47856853351288 43.436878125107754
345.73546338101255 135.75325525357587 42.97700688986245
342.9515082470566 135.30574610179107 43.19379369436866
344.0869132458111 136.02790880202937 43.87647060116264
342.4038000322911 135.8166005863782 44.51570794683871
340.63354948755153 135.0914778407736 45.121393722865555
338.64198953480843 134.10788394762457 45.09672623127003
333.3349681472451 117.81497789258577 40.28049990945421
332.17014131512735 120.46924296253769 40.67646008701601
335.5348172681116 115.95245545414573 39.546422817062364
334.12701966143845 115.59688963424765 41.19662453029148
335.96229553532123 114.29677871639608 41.31965039631372
337.97043271354426 114.90665084000631 40.00519691913682
338.2635465709173 113.32854767243315 41.92767281434054
340.9937853173442 112.73046728255771 42.38926534532199
339.92126730689085 114.51796096094336 41.13781429030473
330.5155217499077 124.25696430030156 43.040861520726466
330.93714146771975 120.84652720998885 42.238654280873604
342.1186341425797 114.66430049968754 41.092824626692554
343.09649374218645 113.79385464547602 42.89925469615912
344.40282059621796 115.40054068915647 42.11621368708873
345.20623874480424 113.65759431660913 44.31193620719187
347.0747144262506 115.67956273696693 42.91671210340506
331.0182354510288 126.04809224885378 43.620326207562655
329.68025864751957 124.74013333698785 45.096996234880656
330.34176661148257 127.48754065203025 45.416801426727254
331.59414488035884 127.7325106063453 43.75080116889524
349.564702789048 115.69725347137657 41.80548981751043
357.09602195654253 120.6211637127338 38.719991075663316
353.6759448394739 117.52927929036204 38.76965823874999
359.31759507823904 126.10202871195466 39.53949788527837
358.8840603750665 129.51424321766106 41.21441348802591
357.63376144251083 128.32654346530896 39.24266884643307
356.93604738789384 132.59703036447422 42.094681676268465
331.98819197562744 131.18844403441327 47.019984735098674
355.6443105421805 134.41906678845672 43.56167326339653
333.47618878390665 131.742442754902 45.79659641743383
353.49864498963075 135.69809423561472 44.86625161157435
351.82846920797584 135.94599008108338 43.25066702250504
334.2700199802696 132.9510493424834 46.96346634543874
349.9031799382101 136.49203487093598 43.11853390878043
351.01924441639517 136.89044964283372 45.03920481315356
349.0750600161532 136.95599992615533 44.64167354919516
335.44643660169567 132.79985279834753 45.44696121079509
347.5383637610685 137.1312952412773 45.51983197190474
345.7377487504916 136.62280617217468 44.72435185342987
343.71725343730185 136.55262377772283 45.94842297300809
341.8361955478104 136.14038933889822 45.96205198027986
340.5689901971924 135.85651572635152 46.907495974491574
336.9040501864243 133.90392992762958 45.7516839522149
337.82700067154417 134.7158951764622 46.830698024137824
339.23329240095467 135.3366693177329 46.23910738171346
331.9657631947581 116.03148268361556 42.4116941423841
330.243418243935 117.6535302897949 44.21481440038879
331.56276196618893 118.82743955677591 42.280442787086244
331.367829025108 113.4842989159395 44.00432948603047
333.7192164418053 113.73616292393683 42.30167100772502
333.36639329688774 111.58143040387024 43.43023785853673
336.00147236056785 111.87031542669298 42.57598277234901
335.2107782482486 109.88407104190632 44.189112391485764
338.74702200684703 110.94296748117802 43.27975337744384
340.09443003141996 108.81113819373678 45.26867664575795
343.1072250211899 109.54786878320188 45.19088065662683
341.3132316104003 110.5573401178993 43.65950549820726
329.92604298033996 122.1899486378517 43.72081122733281
328.4505491295323 122.55314213433634 45.97760735145079
328.7831924352843 120.07002123207461 45.03857469862826
330.0985737319068 119.89218329633134 43.34019311364368
343.22458422368913 111.82742670184774 43.73408844002372
344.6701044168451 111.3597141868797 45.40412655160943
346.4985239155405 112.17453536993246 46.91814638923518
348.9394913714574 113.83846689752049 48.195621323889796
351.5314187438949 114.5821150748787 47.13538713154613
328.4412966318142 124.42864327910368 46.86153989848672
347.9630620148879 114.5865781737981 45.435682906151946
354.65142135416386 115.4517995166355 42.758458902794146
329.2339303127545 126.12107465117742 47.12947986579941
329.76003735282865 128.27489324850114 48.008170609887955
360.89010127191654 125.20167189021018 43.74942099601784
331.1208723195325 129.5095583853197 46.51547826014308
360.19916320219716 128.73307050941304 44.473162776302516
360.1948600611757 127.36098867764221 42.109344005462205
358.76270582886656 130.75353893984354 43.477684712968305
358.91751632051705 131.43919603523392 45.903908133748594
330.83556780617585 130.35132815564265 48.399926080730616
332.18699465337716 131.81880838508673 48.818000630652875
357.8847411803523 133.30043443320355 47.51010934882182
357.52233189037565 133.05415927185365 44.76283929197477
355.94506571634037 134.89659833952012 46.34474955507482
333.15358037011055 132.2071945379644 47.50338552147583
354.20179605913097 136.2647767544373 47.05357901487799
353.07224396966967 136.51308761910852 48.668257274892476
355.2139350302381 135.50448191019083 48.89324947502124
352.3295125757213 136.7396629625248 46.78984805326567
350.70485592833325 137.20944013161463 46.87276414438337
349.54525926699324 137.41406302188284 48.000304849511245
351.26301274316074 137.1576940671486 48.36501572597814
349.27323459170003 137.21108863588503 46.250673863801815
347.7618346712872 137.46985795505975 47.476194856004504
345.83194088348034 137.09488171423905 46.816690211092045
335.8779594952375 133.96581794264347 47.460633150538335
340.54571525135214 136.26831782076798 48.72718694739569
342.1164389126386 136.67970202261648 47.54674766462915
337.4138373586144 135.0379228199578 48.703721815224235
339.04177598403413 135.60960035871827 47.83467669399204
330.5222813475435 111.40377073504867 45.77073665791157
330.20228952339886 111.79559049390933 48.370458006927784
329.8133066827728 115.22249435276514 45.683052776807294
332.33329861529774 111.53827257645045 49.58612838209685
333.315001742125 111.05441881331132 45.713505707121364
334.48147262629146 111.19273801463639 50.591884338228596
336.02483912395445 110.25578128092017 46.88192546096905
336.79950032628227 110.74443747019048 51.44957374665174
339.91882171206925 109.34470012108822 48.09005201734921
340.1551291804513 109.61690710135069 51.95458657901282
344.379523275983 107.66188996583243 50.307587859576095
328.5178998427421 117.78338950505035 46.60430436175679
327.0388694432558 120.47728925518369 47.503668842378616
326.3878857852192 117.60533623593692 48.525160866368196
327.95411381712466 115.34562668594913 47.94943599957233
345.19884288896424 109.55989830447201 46.92887688390357
347.1354080368412 111.67097920443555 49.93859129046443
351.1090741071735 114.52829924418236 52.52154101618834
327.58751177667597 123.1927996364535 48.125134704181455
326.8523867664833 124.41221265871323 49.854635451741636
327.86382202819607 125.29083277693691 48.3323908261611
356.32141616092207 115.06905416276368 49.13614909321054
356.88780462312377 115.67187762879621 44.437293349308455
327.6183068008055 126.30429915284121 49.98446094488689
360.31268654303585 119.65480725683186 43.491463815727194
328.5461785592842 126.8268800095498 48.64304114508266
328.38470052945473 128.05810528617596 49.83240228843014
360.9747486557066 126.76500652028454 45.79541920227029
329.3345548948836 129.83661574816233 49.81767252737222
360.06343406557704 129.75681336416292 46.58490091991511
330.7304343727228 131.38127244620176 50.26322348134987
357.39875475600115 133.30650201976377 51.79978515309792
358.3738031190273 132.40165700294466 49.86475283172601
356.9699302855871 134.15721557780682 49.65217651075151
332.35277426268476 132.69685075989824 50.70536243072842
355.63954575046597 135.1285513593102 51.6838410777885
353.59187011629604 136.18738902113415 50.73640967684514
351.7308318789877 136.91790733620113 50.17057118789251
350.29165187432613 137.05137659963245 51.40923683003833
349.9956448110579 137.29311295829334 49.69616429310519
348.2314031372447 137.38869251713697 49.37187763724061
348.85708650080227 137.21763018361733 50.82040633723733
333.83418636475085 133.34270526444124 48.904415006056354
334.21097579943046 133.85577638115 51.460973551839686
346.21574606612427 137.35993160771875 49.00340010294427
344.45503207512326 137.03199731647422 50.83725640629164
335.6702174859636 134.5570898997946 49.763535969657944
344.08552499137517 137.05768282429702 48.29288982397505
342.29559817333507 136.80146486512163 49.66630295091136
335.9421302831137 134.69489789264654 51.56202693290091
337.34805321514403 135.1333314559916 50.69173890275662
338.7963119191256 135.87928051498264 51.66708494591602
338.8715396251279 135.8899705212915 49.71065174180737
332.6857729340114 111.73187394358862 52.02278439772608
330.7795564305384 112.44770065596903 53.572257566785474
330.34447610451133 112.17789360123635 50.919117783073574
333.0089490569489 111.66450214623174 54.62377325333426
334.9157544238409 111.25149099243468 53.09560529234526
335.15743217521634 111.03451398099806 55.6533285151645
337.1561652017782 110.65314284379494 54.350834209522965
341.39929602936104 109.04291377316459 53.862748893721644
345.4935228939622 107.79584537895235 56.08480306983479
344.28784305069496 107.89189485928867 53.43221189578028
326.8661927465784 115.6795180134091 50.61863174129726
324.83342455895865 119.73088222670174 49.63776073445266
328.36746534752393 113.11212775671385 52.60975803390835
346.38339439200007 109.87576569262582 52.063565333190866
347.818409702509 111.8088233857862 52.9292865763473
347.93198032122086 112.0497418628515 55.550064064169845
349.70676394336186 113.50495692051052 54.14728618286598
349.20062962630095 113.60004568476076 56.42746656455115
351.14651250000253 114.83064647289638 56.103557157299676
325.9213113047007 122.25266092548377 49.64477158696783
324.6211324033817 121.4582130938878 51.86258630057172
325.8469643446765 123.63409852395704 51.67240272107477
354.12469143516523 115.7943688570489 55.72593582332012
352.7711117759582 115.22527741748675 54.01828168719207
326.86628867254205 126.43175201299364 53.020818638244904
326.824952662861 125.53576356101543 51.620046818559864
327.7150818302724 127.46498498253877 51.780961312866204
361.1464427246867 122.32621717737712 54.40712682356158
328.26967612099395 129.21707941348646 51.19236999113887
358.29596241829745 131.5436656617425 55.634086782608755
329.3712985286078 130.6677819293286 51.97149027607544
356.98625607799426 133.0296762299595 55.66703915302116
356.3848809943628 133.9416988927578 53.77081358479115
354.9387331985942 135.06169076113554 53.80787314999551
353.60180994055645 135.5328966990632 54.83558597753261
355.1878559675199 134.4812105406044 55.7948908822723
353.709657442011 135.977210317662 52.89232513204509
351.9573458028986 136.51685680319002 52.0749393972889
352.0300866393321 136.18434615634558 54.01229762127847
350.3847936579482 136.74307882617106 53.227038430499526
348.7542624434056 137.17537518980808 52.414161271525565
347.1301650874443 136.86220281550266 53.3971629315238
347.0239689332848 137.21200376433748 51.21944644841225
332.70297544676185 132.87501916800608 52.73255651387502
345.5717902068654 136.82573704047047 52.623687643531134
333.98810735689875 133.68020459881973 53.4439019817569
342.2207580484388 136.64896749112117 51.86271934757437
335.428463021756 134.34559550118243 53.1433670285436
337.25743528980223 135.0672337170986 52.75035800491368
340.45644442370786 136.50757514978304 50.73439040732145
333.21287560438185 111.39386019694787 57.34371152947759
330.95160882456463 111.93483797536523 56.20663022537106
335.81385744891685 110.50753051738732 58.2713628508073
338.5629287987475 109.72790163623522 56.94551688367547
338.0125760924438 109.5939952722096 60.003239308381865
341.1953102958218 108.63998382585612 57.473218530870454
342.2362126393784 107.93648981075745 59.742957165542165
345.45507203227527 109.630712467871 59.880135538829315
344.855089163203 107.20980032981669 58.81142189416367
327.64130716234035 114.21183939051282 54.82563424666087
326.0217987120978 115.82110331316815 55.17920689391832
325.0375020496223 116.45267396345237 52.67968592172495
328.00417567860563 113.86728730203724 57.0268517691057
328.6122805925086 112.05786042333804 55.16901671335934
329.0401808853247 112.10334727207974 57.43861707051762
346.52803731411456 110.38432293881078 57.34271290831022
346.9553998051759 111.46069891361697 59.428928336841615
348.13056986263405 112.44658866088913 57.905506133902065
348.3115003026135 112.90583936477299 60.152953101258326
349.8960073200049 114.1724416859666 58.537616363559486
349.64606019491254 114.32521215524974 60.77655723019068
351.78447516748923 115.44463519594916 60.292231523847974
323.9289722375301 120.62152161675915 54.64228082785963
325.28976460173953 122.93650893120112 53.82042341915426
354.11177945553857 117.0035862089345 59.81084358208771
352.900017770408 115.80545066294867 57.62111141770286
325.70197205620264 125.12218931908694 53.276593167556044
325.700931884649 124.58509684967788 55.36195093940277
360.1912160077451 120.70784100914362 57.759384593524615
326.6264523702718 126.28018500795133 54.63778622631578
327.67222648238555 127.58646262656845 53.821888233084216
328.14960846760755 129.18933000999104 52.9388285709663
328.14966341161227 129.0689854476398 54.83586320457279
359.3560751514167 130.07129990248094 55.92799216226587
358.3138389600576 131.0020800072447 58.66503369026215
328.93478554035397 130.54013579691602 54.06200882475643
356.8762157361092 132.27356521412742 59.12787316058827
357.66270965769723 132.14193124016222 57.31918628903742
330.19587825752814 131.3927832380754 53.52374552590097
355.43830581040663 133.28717858813573 59.287782014353105
355.96957811403126 133.15927413813782 57.53581531495591
331.05743337696526 131.99756958445158 52.19736929220387
331.4134017439896 132.33406404299052 54.02761348581805
354.34631141116375 134.62898230959914 58.2375254003925
353.5773113831337 135.37982952534435 56.553292110901324
352.12111985009216 136.0358756004904 55.934165097889235
350.49379372232113 136.16274143859 57.09219403275845
352.2830669576453 135.53542283707154 57.836594005654845
350.4499082198991 136.4707935153377 55.1300769929797
348.8058775844834 136.96319794587592 54.30687257759188
348.83587569244656 136.6288313017908 56.18537225307597
347.2446947443693 136.47065640506545 55.25982355913896
345.38735092395467 136.50461927891536 54.55287638130739
333.02549843373373 132.9741692958436 54.55045383042836
343.8606937139182 136.57758080001196 53.12235090257156
342.0026519319213 136.10246587822022 53.96281064698006
336.43759029520214 134.69901563874626 54.33776129968078
340.3621894701385 136.12636653401233 52.741964035319164
339.8651480321566 135.93526007192034 54.908587146024225
338.84195930953416 135.6483655652182 53.32180014960902
333.32868511265906 111.18205081438892 60.22561060463272
330.9998123241716 111.9704282994922 62.14441458307557
330.7278438574084 112.0636554262399 59.10769431945412
333.54304457486666 111.21151303468783 63.00711120340905
335.82416002432933 110.61829586882884 61.42117566168497
336.00273164537776 110.98015294583153 64.2356478184792
338.03418315799456 109.62926667804359 62.77355232319687
341.63392259186037 108.98273423344594 65.53090904166461
345.2377886893197 111.75903828199158 64.82793432399035
344.4039319907607 109.53752824907133 62.846200379154965
327.3258835457368 115.47135382019141 60.13012277069074
326.7957844532304 115.70180196368683 57.612729408369034
346.60672809376734 111.65705302483464 61.91679594319072
347.20148796914395 112.97201657330447 63.88403406386677
348.49333827517233 113.47253817086077 62.322954055815764
348.74614891098724 114.2321771845149 64.45644456307379
350.1735042704658 115.03037192092528 62.65953796215354
350.363104112459 115.78719573544674 64.99180067460671
352.3336112319318 116.42980118257167 63.19800221752161
323.3900063061824 118.35730323389187 57.88649169149051
324.2917918650129 120.13098955189022 59.826622953778134
325.86321540941583 121.98806407465732 58.48521476168797
325.4857448132372 122.35066137060946 56.11958334301622
354.5597725744344 117.51122643325621 62.339849302530716
325.91510642606954 124.23725481525845 57.54683691768946
359.6427739854006 121.01963143510373 61.402654158715826
326.54438797773787 126.1408913514636 56.62996889598164
327.99329776360383 127.28895119019542 57.64108322063079
327.7072304073823 127.47727742392664 55.694894570063234
359.0317515370355 123.4483948187643 65.15084713519767
328.4592858717267 128.9758995635295 56.68550038736269
359.97538282998687 127.95066357738902 61.97612657462061
358.4813972102789 129.81925617747356 62.4010052724193
328.9587749984874 130.20924725875372 55.69095425707394
330.29527075540943 131.2895132731488 55.33355067212621
356.9677726546211 131.2596530346572 62.61910157086856
331.0592135761059 131.64559725964625 56.885822767081855
355.7815754934681 132.50475235011967 61.16983482573004
331.91620188283173 132.2405521419807 55.709928685256585
354.15070315734107 133.82820690578876 60.34385433610499
352.6764767656316 133.99845989600354 61.170784997334536
352.60874832522387 134.988342668426 59.790337232284436
349.09321646400934 135.01933526815486 61.10832316660766
350.43624455621864 135.71613238402492 59.328620824016156
348.74227261676816 136.14640110214495 58.03416147975067
347.0293168117533 135.95622549662 58.78554482287228
348.38929643224157 135.64903482401692 59.64013421649894
347.2465432234155 136.27469792118623 57.03126976376264
345.9778011844409 136.38323900780352 56.20112369462795
345.6512127445927 136.00064411475788 57.69486673995333
344.38562236905227 136.186282001441 56.384248192451274
333.2675933084895 132.89273571357398 56.07089114877149
343.53914120797776 136.27266679235024 54.88242056243407
334.7795781988008 133.97304424958764 55.312324904502226
339.7601323314335 135.49345676888285 57.161467536261085
342.0667697939328 135.94671121299191 56.38197275504345
336.8272557427752 134.75817712090205 55.93193959071467
338.3966377288253 135.3461757261615 56.086177816960024
337.8821018400634 135.38946183423994 54.56125198600896
333.8426155134372 113.05756046734847 65.16039014973185
331.0172278729236 114.06284731288828 64.3162741409929
336.7488149940583 112.60898646958181 66.5905363850814
338.71681894179807 110.07545322671737 65.7310227799324
339.82676872846326 112.60272694115625 67.5933107208322
342.6184166285094 111.58760083258271 66.55111801167126
342.4118612507533 114.0429942774876 68.42410836304492
344.80914892684604 113.43965745932535 67.27989010341604
328.11138185884477 116.91126116776488 63.60453614411586
328.7498419020245 114.21876044890534 62.227659047888025
330.338666798617 116.83151158100073 65.13833837365526
346.9088228463338 113.75116843654993 65.86676753611586
346.75570128282425 114.94943431381402 68.05801951353173
348.2961253962268 115.67644295602854 66.30446349530553
348.4758433849296 116.53543660132965 68.60071643879081
349.96535527791855 117.04226429965591 66.93057174793616
351.82426985464457 117.48327268879231 65.68185191411852
325.59327828341037 119.70864806168402 62.45757677077428
327.02474457714834 121.97200945511035 63.21830672206758
326.15870979638566 121.9065046837755 60.89390724521031
353.03241973713034 119.44080265964905 66.68627692419216
353.624705964713 118.29713751784202 64.50704419611706
326.11488700171356 124.08963206722613 59.815045060115956
326.8837237654289 124.01918710783832 61.95165029167604
327.10243433900473 125.91725732692562 60.8496351591748
355.34618156408214 119.26658377861295 63.756052743878115
354.68985493876716 121.4106461056782 66.01099175244961
354.130316692531 123.7488731694877 66.44411836300858
326.65363506411506 126.06315575899131 58.76286967636405
328.48502627593126 127.04669841909784 59.67232279089984
356.82088810507184 124.17511379810512 66.3710952148582
329.0399147915433 128.84890465162098 58.663071403630504
329.8857384511588 130.40912251551143 59.44274909538274
357.74923969203894 126.79911980604153 66.35260357224166
355.6250542937759 128.4787429321478 66.18805315813519
329.6226883897232 130.6128515844168 57.381729936834546
355.0255729099939 130.42242763667466 65.46631934485062
356.64274773660276 129.58837122795427 64.15252468451781
331.2255254906646 131.45105078393 58.572239135672376
353.2124747567236 131.2412345054345 65.24967574529951
354.932028553934 131.63682531691578 63.59356542063591
353.6282923083495 132.89806719076282 62.03313352392201
352.6724390240846 132.50682909536513 63.78760428836317
351.8245643721007 133.5681466853809 62.47597351834304
351.12426809313627 134.66175873950758 61.15988126718883
350.0205237795066 134.4668446661264 62.96252821188839
332.4581097743252 132.27032531439784 57.34355065436094
346.6370120467341 135.18629404761634 60.84386220729387
345.52370186301715 135.80371885294707 59.27063014769794
344.58485113449717 135.67214253550782 60.38146158131293
343.7171337414923 135.7421423614083 58.539724741266426
334.08528162206215 133.141604010119 57.4304158051489
334.9456538300288 133.4842443214122 59.05569083466011
339.3076644712377 135.1597600678152 58.948382356361705
336.37150203154175 134.33105878610579 59.03690028647507
335.77914126025297 134.12397995561747 57.44061974547915
337.68795650411494 135.03042267866607 57.853978204515116
332.54409716942797 115.53825466612392 66.35358254203071
337.70374393926767 114.93026435354054 68.16751645676635
335.034794824029 114.91663401200705 67.35403509738872
340.1692731585264 115.28369084035549 69.29221125656018
342.5019266695038 115.95571894900037 70.64027456050837
329.6712020811071 119.13587134924104 66.54985604406924
331.5851035605896 117.68028439065034 67.4357494156796
333.4890769513848 116.68343377877112 68.6231582432496
344.59078505271395 115.29551193523238 69.22247075523998
346.45492141059964 116.60982730604925 69.81244648436609
347.5742699159203 118.48940116833056 69.58197176163337
349.46998350401145 118.56228447029325 68.4490232873441
327.39856713494703 119.62593471111309 64.85053744837538
328.8604848221617 121.05778440933469 66.29021552836471
327.92002422030686 122.4358802376883 65.36664438440003
351.0329216811278 118.57059459125549 67.17767932974786
350.98389681333003 120.20823471399927 68.24440874866734
350.64546787430385 122.4325454582863 69.03855511106535
327.65883968818974 124.24396422683733 64.02406793592029
329.0774824754356 125.94799564717991 64.27839982047406
352.67625853952535 121.8508863813243 67.52140514636243
351.92365622100317 123.93427780556257 67.72195757128914
328.06585462924306 125.73540382468292 62.58338794610299
329.1027370134984 127.36271468461628 62.9420056186448
328.6557764117136 126.84531153030301 61.40528763869765
352.8486990154589 125.6317516516939 67.01610487782466
329.5343890011363 128.88215535466526 61.19340735330538
355.1527274271797 126.06846764805057 66.94934599713959
353.3997865574647 127.55488355962993 66.85696832853164
351.61516283737444 128.6020411052163 66.7369760349951
353.4123240121967 129.4230494796015 66.0758567972764
351.55095659824013 129.956529530127 65.36359700023077
351.363828125812 131.66490681050513 64.89101484783886
349.70118737266444 132.08143147865133 64.93672698173225
350.67661702097286 132.60584264095235 63.5198145077483
348.89621208495953 133.03440883033343 63.78530126244828
347.9443568257355 133.93415712107924 62.45474121143696
346.0031764271735 134.34526522521833 63.02986386886835
344.53456206350313 135.13625292636448 62.05514170933842
342.90372516996297 134.69831715106358 63.1331727343828
344.4729101111381 134.6821203704087 63.693619237219885
342.56389916760793 135.16978975644716 60.88112814130609
333.07711439625905 132.4890359533189 59.37213619451739
341.232639454154 135.5760112178479 58.78834941383191
340.05951533477423 135.18520894761 60.68790728589829
337.73875659426665 134.87772539440655 60.270202889318405
335.9942830011941 116.81268046375284 68.95853281356419
340.4579122218504 117.45449854402932 70.67264758265877
338.79240779574957 118.92675376349925 70.87236748294028
338.4421229092887 117.25561206814895 69.28577624036105
340.5109391969949 119.21618177306601 72.139684646718
342.69804384924487 120.07835434506664 73.05332622666687
342.155600807495 117.7849164004949 72.11685685466665
331.42747748981867 119.81410281416598 68.3514257428233
332.02468874301456 121.82582850530255 68.33955660902161
330.1853343235809 121.33389839294932 67.59907444959103
332.94372399318314 118.69699851175584 68.58347282535263
333.5770733024085 120.6262776056343 68.94745744974358
334.59958223063217 118.62937490424234 69.62152838226432
336.812634382282 118.75892098925154 70.03675756763928
344.8587978495652 119.85617241926766 72.24453737564232
346.7863727354352 120.81066457881751 71.76105908405042
331.10875641568805 123.1334357747805 67.49942246541998
329.77304572183755 122.70183519655325 66.30848548111436
348.60377753511113 120.65120931987502 69.8355290072532
348.2179310114798 123.29320795766239 69.62044984651835
329.30055332011693 124.31461470296551 65.40844420128067
330.5713776966317 124.2537569689656 66.49611135796768
350.09396778365704 124.50345032455095 68.63939535216541
331.0074193295792 126.12114848690918 65.67660033202814
330.20062830267005 127.23817531233333 64.2173829725724
350.1213598050202 126.36052882226967 68.53351659908773
351.3919249243224 125.49100264106514 68.03389953915114
330.537692673885 128.45775157551094 63.24365738297864
331.3644853944545 128.2046722976761 64.84218689943769
331.48215131423916 129.59319526615565 64.00436445825912
351.6273648211194 126.9785554698879 67.62944319169348
349.9934241682261 127.93108698019861 67.67220030656348
331.05016977755605 129.82775211975547 62.55586623723532
331.42041700913586 131.02338302748868 60.914178855829014
333.40124847246733 132.23431310362733 61.6046953758554
350.24114362384955 130.90453419195984 65.63312781487696
349.6064559636992 129.39896557073942 66.29972238078803
348.7366553808055 131.07882227612004 65.86901072803673
348.030793562531 132.3718852245446 65.15026748160146
347.0562987011862 133.18873988289715 64.04096358765034
343.912627780859 133.562322746376 66.22863920459066
346.50256409372776 132.58633769663268 65.36565348070685
343.4309028798521 134.4738776372019 64.93337413128668
345.32657010533296 133.77890943272595 64.9766935147312
335.0827615360492 133.09344985471745 61.9784893632011
341.5400303005372 134.44349081240355 64.61887735122757
340.8818468232211 134.78757742236166 62.682683105787866
334.51957552077073 132.9484075253229 60.498241583275025
338.7264259331216 134.6399019231584 62.38352197910376
335.84102101607806 133.89358457709494 60.523011379344005
337.5864439651044 133.827091556678 63.966544790285084
336.75097572310926 134.0185078852557 62.162601925911034
341.179382233636 120.84123072111555 71.6870273582541
339.5530170855361 120.72500176188164 71.14774242910981
340.5194728263486 122.32443091824753 71.04604016579748
342.41158112946414 122.07494134405802 71.58560604804667
333.3313470990151 122.42776060298854 68.97850541577435
334.65055385532213 122.31189515967343 69.83650459054321
335.70425677522167 120.59909671639893 69.75776847930233
336.5173117749448 122.43246118335955 70.65855969087231
337.6397650696218 120.644463426061 70.61346878237885
338.58554008990865 122.41638433931017 70.85444287070715
343.8122991935717 123.5579557998965 71.21932189848752
346.13842432526604 123.15026845145923 71.08330537601417
332.7939463802494 123.43710509555348 67.98882158173781
331.87169672807266 124.83780032255147 67.33205104316251
346.6774596016565 124.98236787180984 69.92218213265531
348.5421828552106 125.58565396371057 69.41820001382942
331.99262811276145 128.0102242810549 66.41915760016924
347.0269209231534 126.76860400413057 69.54710796265702
348.7324237057481 127.51277152663717 69.13165123704678
347.0744386835959 128.39628390065474 69.01230944486004
348.57289414230416 129.11439732793193 68.16967765094758
332.81285675305156 129.86277487226144 65.5650536656529
332.471397017659 131.0147642252208 63.305560188399824
347.8717066610415 130.26607719513504 67.08444944986707
347.020135201455 129.58916739498025 68.14733322800153
347.10931485774637 131.65777262768918 66.38748104121429
334.19750814826983 132.27035384360533 63.38423435090316
339.5235747925351 134.35475382744488 64.31439830944015
334.66403226385313 125.08813120410682 69.21676491187995
334.13813661758564 123.7138974431976 68.93744994713278
335.63006054394435 123.96154220228645 69.74911343111903
339.6570825760578 123.83466353489604 70.73229554084688
341.63411935637106 124.15945892076523 70.93046451439687
333.5892743855381 125.06603219369366 68.0832013557362
344.9537753335638 125.04490766705477 70.74451720540785
344.004081663644 126.83649892948354 70.41260608731051
332.7687176780191 126.610302294508 67.29794118767494
345.6678809979551 126.31515019953395 70.18103443303654
345.61499757657566 127.8924157175741 70.00323588265323
345.3953486100639 129.26527254495312 68.65984980557498
346.125150510665 130.6464609460521 67.4846964631415
344.24488982150757 130.77518173352462 67.92808038474207
345.02474466522835 131.98681378899565 66.29002848624252
342.960826016524 132.50065388839704 67.56287623577421
342.2500850828523 134.18417523317706 66.44719788671104
340.29816902278276 133.92535633950834 66.12363028472986
335.85750724356967 133.07460846494098 63.63183655982311
336.38454263216147 133.2398318722766 65.40504030210995
336.0016581260179 125.7922023561667 69.81149739473778
337.7489559693277 124.39895460881023 70.17509432030859
343.267456855827 125.20156437207898 70.86227335270299
341.99484071617655 126.21362139376419 70.31031406125962
334.3397746028696 126.83653575227724 68.94736573142079
342.4573165613588 127.85659523375307 69.2688017542764
344.2407783217534 127.99509008275436 69.05937287962443
343.44880488855415 129.33990004817468 68.65205644107682
342.5659953652805 130.90267555316026 68.91341303177072
333.7138578276572 131.40244579017983 64.66962699103827
341.0268165599733 131.87330616169595 68.37431443742155
334.98932281053334 132.27081727191367 64.91763430371357
341.1477208414277 133.21206482142202 67.40628306396854
339.2586857866454 132.72881831263447 67.62016038171697
338.2784993786263 133.63803874305736 65.87039376069872
337.782147624855 126.72194584803562 70.28934298470611
339.87913392103326 125.75187191442652 70.24401516676254
340.84881194363425 127.18956564592567 69.60963198294807
333.1545553163494 128.82690749239376 67.99477028181391
334.03990576840965 130.40194168827844 67.19405173794188
341.9859985144979 129.44165784271976 68.99185429689001
334.16966987581907 131.49725818419225 66.11268881447504
334.5229344777963 128.74922292975518 69.60609288186491
335.86683744208045 127.72279506225217 70.41127661279096
337.70433327889134 128.8169780579389 70.69873526104963
339.49000787431265 127.831409623348 70.36785687613899
340.8055630871536 128.7328188032128 69.51360074158866
334.66834905802557 130.31855748052575 68.82379394615907
334.9971440731025 131.75604161465353 67.63740732481938
340.90396668876247 130.408288430728 69.38932940892032
339.33589495514275 131.22820889096977 69.01418605508859
335.41847471315066 132.39934522703194 66.32242482023375
336.8448613271692 132.75393100879324 67.39464711457116
339.3934881109901 129.70802998861913 70.03508796955887
335.6677846291649 130.0044603423225 70.85108059815052
335.9992284978601 131.94029080181542 69.43719948215873
337.79926854345905 130.94380369313038 70.35320796433197
337.9095017565288 132.25528514810506 68.98657656004978
340.0254980171037 108.70075729954358 63.73311344232789
346.05507326615606 110.6815262881245 48.38620489893226
330.0659008326811 113.30366011891932 45.49424998781904
330.9432263746758 115.63922227647551 44.1461691759936
343.94463259778985 107.74831016823931 45.956100011079954
343.2861645224657 108.63361524728687 64.31311168306952
331.7555975067533 111.22201960108502 44.189011438672885
340.6985129583097 110.5898330530062 66.75385243356234
336.91371020386697 110.17567383481864 43.31261714300569
344.16453881613245 107.8500042951953 51.7450044567675
342.9175469876584 108.22330244125087 49.49759356992953
342.8001218472823 108.42500148897999 53.66775917960976
328.9793492035476 113.12112879229174 46.9180866894298
351.7636759682525 118.13903401668568 38.12425898714265
332.08655943097745 111.35905682636914 47.50874023801976
340.63106325050074 109.16595579986382 55.67583783114338
337.5385533463647 109.84144429084732 44.931706029891515
334.0462597057977 111.02313838803575 48.241356543006205
351.4130520543721 116.29884722703478 41.389866810027456
357.90342035273665 130.9472316231125 41.689495924383756
326.90290754715335 118.3925690814554 63.13146403308841
358.77858739780277 117.27569848595701 43.531490814549834
327.557297151102 115.90783030277473 61.98699547102226
328.8163788772173 118.0718368743584 65.11899484453298
360.71354912498805 123.68734407472404 42.79377463840007
361.0850779696393 121.38533879558406 43.62343024482347
355.06245117741923 116.48454119638491 40.56870846183375
342.3228886333522 108.6874780826082 47.41165602556475
324.83214693081254 117.32933467208375 50.43138726559134
324.27577486300845 118.19359664674835 61.12849023869202
323.6016699534499 117.66329868232926 55.086738494877466
341.3194146301617 109.28348456518363 49.810602789526264
327.31883886530244 115.07433962996697 56.12700610402176
323.43957226760983 118.8115407912328 52.15923260260411
326.94666485161264 114.96589952069417 52.89174522465364
326.164846304952 117.13263156305287 61.901814500249294
327.9491806885944 114.66462712053892 58.5653417036359
329.3744643590393 115.37797574583537 64.04235239582577
324.2002914516571 120.61069239513691 57.226502905684406
345.93500533269827 107.56498129805424 51.74587871326417
325.0509898844184 116.89850148916301 59.39450193644928
327.5373260098711 112.70048645148752 49.63389303071589
356.8439926543122 116.84223821808632 41.94918028494923
346.59884385984697 118.20795005108656 39.40007136146118
350.7308193116042 123.26983816082074 36.02874990806422
343.3546955387886 116.93847381330411 71.83691102013567
355.3132462594293 133.77847500955244 41.89045544676206
347.3370819186171 119.56714921924453 70.6960864561911
345.5406743646131 108.7949949473067 58.01934730298422
343.55209865036477 110.00383574802058 64.943989331129
344.7196405263533 116.51993640228864 71.27039423939546
344.50120891167904 121.7600472047515 72.26222213403152
339.3807229834227 109.87863876974794 54.28144151678756
336.6636299261472 110.5022779430378 56.29861967533044
346.5424983866212 110.16813206650988 54.58703836771103
346.02391324664046 118.53941095932167 71.19434409686492
339.9533998321997 108.79526282737912 59.11616620815172
342.7402191900326 108.32842846774388 55.49793368509319
353.05209357717234 124.6644901042296 36.356393254544955
358.0400027797622 122.01949538401016 39.34519748599653
347.8053637707609 116.86516354866282 41.55777248897215
348.67240927367965 120.41421467767873 37.269428711891884
358.30899460710395 119.19625172725065 39.33349000290964
352.65498004736367 119.80134876557705 37.06618557779645
355.82088750651997 117.762184787151 60.77994674153119
349.214018354924 113.46660202702684 51.29862764506643
354.3350483560203 130.35617748850106 39.05030414802331
355.9325974080596 120.29871703241145 65.08424150373169
354.86989686255015 124.42874386562534 36.82005629760364
343.2642542387506 107.88261361504641 57.50407751628149
339.9807734388231 108.45159621669973 61.37673759965368
357.3963121847732 128.54444124590322 65.51936955385662
361.2611162346713 123.7760734634661 48.863537717316206
361.2172795413169 122.92015114339956 43.91597623412274
359.75628989476513 120.27541307849475 41.61460005194483
360.2904080994661 124.61786330337291 41.56515002946015
359.230646510154 120.7754186595261 39.90528001645456
354.9178668928963 121.70691362806875 37.43917723056092
353.2333505780113 116.54936966872529 61.42458969790014
355.09112695597815 114.84141436351192 44.61660578536637
323.43271333430175 119.38964205600493 56.20211869974177
360.547762061924 122.03217767568526 41.921360362686976
359.91944188162444 129.5906634828702 52.14751641912465
361.0105026790218 127.03208281438803 49.771419242355876
351.08087963352625 117.10743724657642 39.76122385817078
359.38113687351085 130.47518908934447 50.12390856225486
360.9920838091189 121.10273497575012 52.99484878757011
361.1990331011204 125.82732634188159 48.15688748298462
354.03808679507637 114.94832174765448 52.70005539068134
360.83814955141776 125.76277342199954 56.75518606080205
342.58014027506675 108.56586334602576 51.78865344886545
360.04423127671424 128.58133610200267 56.62471346965382
357.19543790129063 123.19347724626856 38.1389948258832
357.98074836298804 116.3214858619068 52.01087678152117
357.10170447277807 116.30650010509642 53.822680556824025
360.78380332385825 121.66778209984102 56.104052680936654
354.9993159742771 116.85378102928016 57.418415091553896
344.5885598945531 106.94731266922554 48.04438864481971
360.04342962303025 127.11337951636995 63.490502382149266
360.65827703464385 127.03394503876503 44.01392012443686
358.34219668046956 117.87751320597162 56.8334288177617
356.47222725260536 115.65674162850264 52.386108600588045
353.3819641984119 132.11048041137087 39.104721149898666
356.80209609942574 115.68062351611474 50.943231313361764
324.79729537139076 116.66230374709149 57.05559630684304
358.60348992357166 125.03430804437876 66.09860746835459
329.38689778747107 112.41692669616812 60.862867386724254
355.3669465556914 114.6662279673153 46.56482987567252
351.2291645535274 114.4502988316244 49.94703487121696
357.96020648838135 118.21212254817955 58.42337922463848
360.86509795411285 119.839078247215 51.40059232125232
338.5630644732543 110.12988603342036 51.07256518306479
358.1712204683581 116.300296126596 49.82580786851132
360.0194020103087 128.5325060514571 58.33726209698936
360.5095031578199 126.70111901451148 61.107624227951796
356.2705981371681 117.45124066148553 59.035608542506
357.9267989960264 132.4118791252966 53.81776244109214
357.82899903383935 117.14001267410211 55.46426597569407
358.9279754930714 117.25868614687587 53.68507710842986
360.79481832588885 118.92855402438076 49.64904680746859
361.3073458248628 122.84392932025632 52.65859556170392
361.33977972541805 122.2752417805677 49.66548187250246
357.4211492126253 118.47729233042324 60.34899838207801
357.7920728005188 131.21985941257634 60.70213719917752
360.8244321580413 127.21083093858545 54.210871975895685
360.74914706496554 126.08861885132579 58.51041004135886
361.1879286981262 124.71033158220783 52.44481022195835
357.97583028792656 116.03287537673914 47.04864037893623
359.11398265408457 131.17447162422025 48.09201803991652
361.36278713445284 121.66807918986939 51.201901623736205
355.3057683624912 126.32639762426506 36.813820672087395
360.90534346892065 124.49444474135807 58.22499361737592
360.7824777918601 127.12542071891026 52.251142694582306
356.08486739675544 129.46425049068466 38.9069356248586
361.28378490955316 123.86512731051697 54.00548848159594
338.4101103035399 110.28478729894465 52.644291362552686
338.28772486043385 109.61362274731364 46.85313485977714
360.4804413161969 127.42201918420491 59.698378005052106
344.3096210789305 107.66733406705889 61.08429682662306
361.24232855439163 123.94548716080388 46.24544327775846
353.4720640752968 114.49489226648528 46.90415715308072
361.29751361540514 123.4292629045136 50.87094770565203
356.62969088026557 118.54418687062123 62.28490177563434
360.36313213793363 128.67378115948486 50.12590123756501
358.62339598799934 116.37069183940281 45.13592910234746
355.1737781661477 119.36428801591275 37.85495739819001
359.7001683145593 117.78056263598089 51.26679475833624
358.7178896617159 120.99707474159615 62.83916905942364
344.12361457071574 118.12241670222282 72.47597227395839
355.60312450437266 122.88163058968242 65.82356298531002
360.2853393107323 128.71182145942115 54.415939569750755
360.174528207882 124.3047927235018 63.52770116247155
361.41693815473104 120.63287452012143 49.54186947803384
353.2259153477838 114.8711425675672 45.023808435530995
360.3118425947509 125.91582381108964 62.42641144297805
360.8886587889764 123.37886427174153 59.861352226638616
360.6560932865848 122.3396150259406 61.22898873669553
332.2915041446787 112.4827563651032 63.7531840489417
357.0132729900596 117.08635460283796 57.207432880714926
360.84049558277957 119.44684700092805 45.4806026341566
360.67099918713996 125.42507478825871 60.23252317159843
361.36908518316 121.89094092291687 47.85495000576594
342.2807519138889 107.4555389387467 62.90465258718006
360.7518314488981 127.34520780789431 57.62274965962342
358.7647469891132 131.52114760706502 51.96177376858897
353.00555479505 114.84562177629945 51.576661264832396
359.54600442949504 129.10805155634253 42.80660922669645
358.3604326963433 124.61990110646055 38.574390004309116
337.8813432922849 110.08609388416362 49.11084165745432
345.9839278205098 108.48651900884988 53.60177251598752
361.03204475798185 125.67343705076023 54.48417927768098
359.8548288055431 122.42376633100339 62.992388322937046
360.32497347592226 119.1699006892859 53.6615254657079
323.77338350708817 118.267314717723 59.68274543665297
327.1739137078126 113.9955247010637 51.46881713051562
361.15957663065245 123.7609789627359 56.00568601603561
360.6496112061946 128.37485178854203 46.16681062168785
359.04930837364014 128.37498844029668 64.45620757982884
359.8058921861187 117.52201670531903 48.50252208615572
360.1039678664127 129.71160424891696 48.57278054687044
359.75217140976196 125.91287925949403 64.80217793991304
361.16418816210734 125.31650288102941 50.39414089175152
356.1007483767021 116.27124383982009 55.614026773896555
360.68603077113494 120.84118398714202 54.60479576461725
360.369418190379 121.5595103027301 59.65087706922148
356.6299226563841 134.62146443146946 48.0934928576255
359.45743349897526 130.1521805829651 45.11452430359656
361.12859560588595 121.23423908542956 45.42493814315188
358.4572278785409 119.51250514775533 61.865383739567655
339.56822881764657 109.68135044608927 50.03865931689134
347.3809643194504 121.95609827578035 70.52285744366509
360.04145151952264 119.98673940609936 55.826083936442856
360.9622503868884 122.54549244280247 57.957739497726145
359.9431848781764 117.72780744939779 45.75447646084578
352.98333987368466 116.30887882015907 40.94744834221555
352.0455996887898 115.46263129800941 42.70078082513413
359.13170033182433 119.15899490866467 57.318541992274774
359.3081795189812 127.97060183205414 40.30432191899812
359.29804380549785 123.29634778739444 39.6042301386948
335.87655091000056 110.67653451892618 49.26242008537896
356.9353534319011 121.92382647598016 65.3569256990881
349.7041861476549 114.58041109244394 46.35029991472686
355.15565205924617 114.86203922364022 51.38318860249904
360.6475993116727 123.96384637133382 61.7637408362349
357.37434588503254 120.12629041562023 63.80361878780847
359.27717112606973 129.4371363416395 59.947733760667646
358.602193662448 118.8276505320964 41.305234994216384
358.52179193193075 130.85111624306072 57.05485649066036
354.60655754053676 119.66526648547804 65.30518444752988
327.93761636610895 112.91426185734554 59.48007386787688
352.6826146927624 115.58632771861518 55.84327164048123
348.7621111274231 115.20752237246906 43.68009478047429
346.0006440198203 108.98367322043958 49.552185845247465
353.74843408834 114.50273060363477 48.95929011721302
351.44263922996555 115.05553540626093 58.141637940462736
360.90692801816067 128.100637711207 47.88385603600188
358.72081306393 121.48605481312897 64.3591953569906
361.00726665689024 119.53233195185797 47.442371237176445
355.15907536002965 115.42067306368607 53.70804536468571
351.1372534439183 114.61861936267846 54.190487117684896
359.2989126436491 129.76696036523828 57.76498757415224
359.31683817658467 118.2676918575164 55.54089364757085
360.8530023293413 127.2684240801133 55.698068599092025
348.33806569990173 117.58540668102314 39.87631302466708
356.5195081099025 118.22378099677454 39.60593186162555
350.40970292643425 114.72552432480103 44.52520762331918
359.09106427405 119.75699412015793 59.55839051572055
359.2243014159372 130.722518781504 53.99725146750118
POLYGONS 1846 7384
3 25 1 6
3 2 7 0
3 7 28 6
3 2 3 7
3 2 0 4
3 0 5 4
3 1 5 0
3 1 13 5
3 12 6 28
3 28 7 3
3 4 5 11
3 11 5 8
3 5 13 8
3 12 28 47
3 1 25 10
3 12 9 6
3 6 9 25
3 4 16 2
3 11 16 4
3 24 9 12
3 3 2 14
3 15 2 16
3 17 15 16
3 18 17 16
3 16 11 18
3 11 19 18
3 11 20 19
3 11 8 20
3 13 22 21
3 8 13 21
3 80 12 47
3 13 1 23
3 1 10 23
3 12 80 24
3 55 25 9
3 26 39 3
3 3 14 26
3 27 17 18
3 19 20 29
3 20 30 29
3 20 8 21
3 20 21 30
3 21 31 30
3 22 32 31
3 22 31 21
3 22 33 32
3 23 33 22
3 23 10 34
3 23 34 33
3 10 35 52
3 10 52 34
3 35 10 25
3 24 55 9
3 35 25 55
3 36 56 14
3 36 37 56
3 14 2 36
3 38 37 36
3 2 15 36
3 36 15 38
3 15 40 38
3 15 17 40
3 40 17 27
3 42 43 41
3 42 41 27
3 18 42 27
3 18 19 42
3 42 19 29
3 42 29 43
3 39 47 28
3 45 44 43
3 29 45 43
3 46 44 45
3 49 48 46
3 49 46 45
3 45 29 49
3 29 30 49
3 47 76 80
3 50 51 48
3 50 48 49
3 30 50 49
3 30 31 50
3 32 51 50
3 31 32 50
3 32 82 51
3 33 86 32
3 33 34 90
3 52 92 53
3 52 35 92
3 52 53 90
3 52 90 34
3 80 54 24
3 92 35 55
3 58 59 57
3 58 57 56
3 60 59 58
3 56 37 58
3 58 37 60
3 62 61 60
3 62 63 61
3 26 66 64
3 39 26 64
3 57 66 56
3 38 40 62
3 67 69 63
3 67 63 62
3 62 40 67
3 67 68 69
3 67 40 27
3 67 27 68
3 68 70 69
3 68 27 41
3 68 41 70
3 41 71 70
3 44 72 71
3 44 46 73
3 75 77 74
3 75 74 73
3 46 75 73
3 46 48 75
3 78 77 75
3 48 78 75
3 48 51 78
3 78 79 77
3 81 83 79
3 78 51 81
3 78 81 79
3 82 86 83
3 82 83 81
3 82 81 51
3 84 80 76
3 86 33 88
3 86 88 87
3 86 87 85
3 80 84 54
3 90 53 89
3 91 88 90
3 91 90 89
3 90 88 33
3 87 88 91
3 54 84 172
3 53 93 131
3 53 92 93
3 53 131 89
3 92 94 93
3 92 55 94
3 54 172 95
3 95 135 96
3 24 95 96
3 24 96 55
3 96 94 55
3 59 99 97
3 57 59 97
3 100 102 99
3 100 99 59
3 59 60 100
3 101 102 100
3 60 61 100
3 100 61 101
3 101 103 102
3 61 63 101
3 104 107 105
3 98 107 104
3 64 66 104
3 104 66 98
3 137 107 98
3 57 98 66
3 108 110 103
3 108 103 101
3 63 108 101
3 63 69 108
3 108 109 110
3 108 69 109
3 111 110 109
3 109 69 70
3 105 112 106
3 106 112 65
3 70 114 109
3 70 71 114
3 155 116 113
3 113 122 76
3 77 119 74
3 165 122 120
3 76 122 84
3 122 165 84
3 83 86 85
3 125 124 123
3 83 125 79
3 124 125 126
3 85 126 125
3 127 129 169
3 127 87 128
3 127 128 129
3 127 169 126
3 127 126 85
3 85 87 127
3 128 130 129
3 89 132 130
3 89 130 91
3 128 91 130
3 87 91 128
3 131 133 132
3 131 93 133
3 131 132 89
3 134 93 94
3 134 133 93
3 172 178 95
3 179 135 178
3 95 178 135
3 134 94 135
3 94 96 135
3 138 139 136
3 97 99 136
3 136 99 138
3 138 140 139
3 99 102 138
3 141 142 140
3 141 140 138
3 138 102 141
3 144 143 142
3 144 142 141
3 102 103 141
3 141 103 144
3 107 145 105
3 193 107 146
3 183 146 137
3 137 146 107
3 147 148 143
3 147 143 144
3 103 147 144
3 103 110 147
3 150 148 149
3 147 149 148
3 147 110 149
3 149 151 150
3 149 110 111
3 149 111 151
3 152 153 154
3 193 153 145
3 105 152 112
3 155 154 116
3 118 161 159
3 118 119 161
3 116 208 120
3 121 160 161
3 120 163 165
3 121 123 162
3 218 165 163
3 124 166 164
3 167 170 166
3 167 166 124
3 124 126 167
3 168 165 218
3 84 165 172
3 165 168 172
3 169 171 170
3 169 129 171
3 169 170 167
3 169 167 126
3 129 130 174
3 173 129 174
3 173 171 129
3 175 132 133
3 174 132 175
3 132 174 130
3 172 168 229
3 134 177 176
3 175 133 176
3 134 176 133
3 172 229 178
3 179 178 229
3 233 180 179
3 135 179 180
3 180 233 177
3 180 177 134
3 134 135 180
3 185 186 184
3 185 184 181
3 136 139 181
3 181 139 185
3 187 188 186
3 187 186 185
3 139 140 185
3 185 140 187
3 140 142 187
3 187 142 189
3 192 191 190
3 192 190 189
3 142 143 189
3 189 143 192
3 193 195 194
3 196 182 195
3 196 195 193
3 193 146 196
3 183 196 146
3 197 198 191
3 197 191 192
3 143 197 192
3 143 148 197
3 199 198 150
3 197 150 198
3 197 148 150
3 200 199 203
3 150 203 199
3 150 151 203
3 154 205 206
3 202 205 153
3 213 214 163
3 216 215 212
3 216 212 211
3 162 216 211
3 162 164 216
3 163 214 218
3 214 276 218
3 217 215 216
3 164 217 216
3 164 166 217
3 219 220 221
3 166 170 222
3 219 166 222
3 219 222 220
3 219 221 217
3 219 217 166
3 223 224 225
3 170 171 226
3 223 170 226
3 223 226 224
3 220 222 225
3 223 225 222
3 223 222 170
3 168 218 276
3 224 226 227
3 173 227 226
3 173 226 171
3 228 281 278
3 228 174 175
3 228 175 281
3 228 278 227
3 228 227 173
3 173 174 228
3 276 280 229
3 168 276 229
3 231 176 177
3 231 177 230
3 281 175 231
3 175 176 231
3 232 233 179
3 230 177 233
3 286 233 232
3 186 188 238
3 238 188 240
3 245 247 246
3 195 246 194
3 245 248 247
3 195 182 245
3 191 198 249
3 249 198 199
3 762 250 200
3 250 199 200
3 252 306 253
3 194 252 202
3 254 253 257
3 205 259 206
3 202 254 205
3 260 259 257
3 259 260 206
3 260 262 206
3 206 262 213
3 264 213 262
3 213 264 214
3 266 265 861
3 214 264 268
3 214 268 276
3 267 269 265
3 267 265 266
3 215 267 266
3 221 220 270
3 269 221 270
3 269 267 221
3 271 272 324
3 225 224 273
3 271 225 273
3 271 273 272
3 271 324 270
3 271 270 220
3 220 225 271
3 272 273 275
3 274 275 273
3 274 273 224
3 224 227 274
3 277 276 268
3 278 281 279
3 278 274 227
3 276 277 280
3 231 230 282
3 231 282 281
3 281 282 279
3 283 280 277
3 280 283 284
3 280 284 232
3 286 285 336
3 336 230 286
3 286 230 233
3 230 336 282
3 285 286 284
3 232 284 286
3 287 290 288
3 237 289 235
3 291 292 290
3 291 290 287
3 237 239 287
3 287 239 291
3 293 292 291
3 239 241 291
3 291 241 293
3 247 298 246
3 247 248 297
3 288 299 289
3 302 751 301
3 300 301 751
3 300 250 301
3 304 302 303
3 301 303 302
3 301 250 762
3 301 762 303
3 305 304 303
3 303 762 251
3 306 307 308
3 306 308 253
3 312 363 311
3 253 312 257
3 313 312 311
3 257 312 313
3 257 313 260
3 315 368 317
3 260 315 262
3 262 317 264
3 813 318 316
3 861 265 813
3 319 322 318
3 319 318 813
3 265 319 813
3 265 269 319
3 317 378 264
3 264 378 268
3 320 321 322
3 269 270 323
3 320 269 323
3 320 323 321
3 320 322 319
3 320 319 269
3 324 326 325
3 324 272 326
3 321 323 325
3 324 325 323
3 324 323 270
3 327 328 386
3 275 274 329
3 327 275 329
3 327 329 328
3 327 386 326
3 327 326 272
3 272 275 327
3 268 330 277
3 329 278 279
3 329 279 331
3 328 329 331
3 274 278 329
3 277 330 332
3 279 333 391
3 279 282 333
3 331 279 391
3 334 277 332
3 277 334 283
3 283 334 335
3 284 283 335
3 336 394 333
3 336 333 282
3 285 284 335
3 394 336 285
3 290 338 288
3 292 339 337
3 290 292 337
3 340 341 339
3 350 351 349
3 350 349 346
3 346 299 350
3 399 351 338
3 288 350 299
3 352 353 344
3 355 353 354
3 352 354 353
3 352 751 302
3 352 302 354
3 357 355 356
3 354 356 355
3 354 302 304
3 354 304 356
3 358 357 356
3 356 304 305
3 307 360 308
3 363 364 366
3 363 366 311
3 419 364 360
3 311 366 367
3 311 367 313
3 366 425 367
3 368 369 372
3 368 372 317
3 425 369 367
3 317 372 375
3 372 431 375
3 374 373 371
3 316 318 374
3 377 376 373
3 377 373 374
3 318 377 374
3 318 322 377
3 431 379 375
3 322 321 381
3 380 322 381
3 380 381 384
3 376 377 380
3 380 377 322
3 330 379 390
3 382 383 384
3 325 326 385
3 382 325 385
3 382 385 383
3 382 384 381
3 382 381 321
3 321 325 382
3 386 388 387
3 386 328 388
3 383 385 387
3 386 387 385
3 386 385 326
3 389 445 388
3 389 388 328
3 328 331 389
3 332 330 390
3 391 392 449
3 391 333 392
3 391 449 389
3 391 389 331
3 332 390 450
3 334 332 450
3 450 393 334
3 334 393 335
3 394 395 392
3 394 392 333
3 395 396 455
3 335 455 396
3 335 396 285
3 396 395 394
3 394 285 396
3 397 400 398
3 401 402 400
3 401 400 397
3 337 339 397
3 397 339 401
3 403 402 401
3 339 341 401
3 401 341 403
3 349 351 906
3 399 906 351
3 409 410 405
3 409 405 406
3 344 409 406
3 344 353 409
3 412 410 411
3 409 411 410
3 409 353 355
3 409 355 411
3 414 412 413
3 411 413 412
3 411 355 357
3 411 357 413
3 413 415 414
3 413 357 358
3 413 358 415
3 364 423 366
3 418 421 419
3 419 421 364
3 424 423 484
3 366 423 425
3 423 424 425
3 369 430 372
3 424 427 425
3 425 427 369
3 372 430 431
3 430 491 431
3 820 432 429
3 371 373 820
3 491 433 431
3 434 432 820
3 373 434 820
3 373 376 434
3 435 433 502
3 435 502 448
3 435 431 433
3 431 435 379
3 436 437 497
3 380 384 438
3 436 380 438
3 436 438 437
3 436 497 434
3 436 434 376
3 376 380 436
3 440 439 500
3 384 383 440
3 437 438 500
3 440 500 438
3 440 438 384
3 441 442 443
3 387 388 444
3 441 387 444
3 441 444 442
3 439 440 443
3 441 443 440
3 441 440 383
3 383 387 441
3 445 447 446
3 445 389 447
3 442 444 446
3 445 446 444
3 445 444 388
3 449 392 452
3 449 452 447
3 449 447 389
3 448 507 450
3 390 448 450
3 511 450 507
3 452 395 451
3 392 395 452
3 453 450 511
3 393 453 455
3 454 455 453
3 455 454 395
3 451 395 454
3 402 458 456
3 400 402 456
3 459 460 458
3 459 458 402
3 402 403 459
3 461 462 460
3 407 906 465
3 513 466 457
3 468 463 467
3 463 405 467
3 405 410 467
3 470 468 469
3 467 469 468
3 467 410 412
3 467 412 469
3 469 471 470
3 469 412 414
3 469 414 471
3 471 414 472
3 414 415 472
3 473 525 474
3 417 475 418
3 476 472 477
3 472 415 477
3 415 420 477
3 478 479 480
3 474 479 475
3 418 478 421
3 420 481 477
3 485 484 480
3 484 485 424
3 487 539 488
3 424 487 427
3 493 492 490
3 429 432 493
3 494 592 555
3 491 494 433
3 496 495 492
3 496 492 493
3 432 496 493
3 432 434 496
3 497 499 498
3 497 437 499
3 495 496 498
3 497 498 496
3 497 496 434
3 500 439 501
3 500 501 499
3 500 499 437
3 443 442 503
3 501 439 549
3 503 549 439
3 439 443 503
3 555 507 502
3 448 502 507
3 504 506 505
3 446 447 506
3 504 446 506
3 504 505 503
3 504 503 442
3 442 446 504
3 508 507 555
3 452 556 506
3 452 506 447
3 507 508 511
3 556 509 557
3 556 451 509
3 451 556 452
3 510 511 508
3 558 512 510
3 511 510 512
3 453 511 512
3 453 512 454
3 509 512 558
3 512 509 451
3 451 454 512
3 458 460 514
3 514 460 516
3 460 462 516
3 516 462 517
3 519 566 518
3 520 519 513
3 513 519 466
3 559 520 515
3 513 515 520
3 462 521 517
3 462 463 521
3 521 463 468
3 521 468 522
3 523 522 470
3 522 468 470
3 470 524 523
3 470 471 524
3 525 526 527
3 525 527 474
3 528 529 524
3 471 528 524
3 471 472 528
3 528 472 476
3 528 476 529
3 531 579 532
3 479 535 480
3 474 531 479
3 533 534 530
3 533 530 529
3 476 533 529
3 476 482 533
3 533 482 483
3 533 483 534
3 536 535 532
3 480 535 537
3 480 537 485
3 535 536 537
3 483 538 534
3 536 539 537
3 540 541 538
3 540 538 483
3 486 540 483
3 486 489 540
3 540 489 490
3 540 490 541
3 488 539 592
3 543 544 542
3 543 542 541
3 490 543 541
3 490 492 543
3 495 545 544
3 495 544 543
3 495 543 492
3 593 555 592
3 498 499 547
3 545 498 547
3 545 547 546
3 495 498 545
3 501 549 548
3 546 547 548
3 501 548 547
3 501 547 499
3 549 550 598
3 549 503 550
3 551 552 553
3 505 506 554
3 551 505 554
3 551 554 552
3 551 553 550
3 551 550 503
3 503 505 551
3 555 593 606
3 555 606 508
3 554 506 556
3 554 556 557
3 608 508 606
3 607 557 558
3 558 557 509
3 508 608 510
3 608 610 558
3 510 608 558
3 560 563 561
3 565 564 563
3 565 563 560
3 516 517 560
3 560 517 565
3 566 570 567
3 566 568 518
3 569 570 566
3 566 519 569
3 571 570 569
3 519 520 569
3 569 520 571
3 572 571 559
3 559 571 520
3 561 572 562
3 559 562 572
3 526 576 527
3 567 575 568
3 518 568 526
3 524 577 523
3 524 529 577
3 577 529 530
3 577 530 578
3 579 580 582
3 579 582 532
3 575 580 576
3 530 581 578
3 530 534 581
3 532 582 583
3 532 583 536
3 585 584 581
3 534 585 581
3 534 538 585
3 586 587 588
3 582 587 583
3 536 586 539
3 589 590 584
3 589 584 585
3 538 589 585
3 538 541 589
3 589 541 542
3 589 542 590
3 633 591 588
3 539 591 592
3 591 633 592
3 542 595 590
3 542 544 595
3 593 592 633
3 544 545 594
3 544 594 595
3 596 595 594
3 594 545 546
3 594 546 596
3 597 600 636
3 548 549 598
3 597 548 598
3 597 598 600
3 597 636 596
3 597 596 546
3 546 548 597
3 602 599 653
3 600 598 602
3 600 602 653
3 602 598 550
3 601 604 655
3 599 601 655
3 601 553 552
3 601 602 553
3 550 553 602
3 637 657 603
3 593 637 603
3 593 603 606
3 554 557 605
3 552 554 605
3 552 605 604
3 610 608 603
3 606 603 608
3 604 605 638
3 607 638 605
3 607 605 557
3 610 609 607
3 558 610 607
3 563 612 561
3 563 564 611
3 570 615 567
3 570 616 615
3 617 618 616
3 617 616 570
3 570 571 617
3 619 620 618
3 619 618 617
3 571 572 617
3 617 572 619
3 613 620 612
3 561 619 572
3 621 614 748
3 614 564 748
3 564 573 748
3 748 622 621
3 623 640 644
3 567 623 575
3 622 578 625
3 644 647 624
3 575 624 580
3 626 628 625
3 578 626 625
3 578 581 626
3 626 581 584
3 627 582 647
3 587 632 588
3 582 627 587
3 629 630 628
3 629 628 626
3 584 629 626
3 584 590 629
3 629 631 630
3 629 590 631
3 588 632 633
3 595 634 631
3 590 595 631
3 668 633 632
3 593 633 637
3 633 668 637
3 651 635 634
3 634 595 596
3 634 596 636
3 634 636 651
3 636 653 651
3 636 600 653
3 670 637 668
3 637 670 657
3 655 604 656
3 604 638 656
3 603 657 610
3 673 638 609
3 609 638 607
3 610 657 609
3 640 641 639
3 615 616 640
3 640 616 641
3 618 660 641
3 616 618 641
3 620 660 618
3 642 620 613
3 613 643 642
3 613 614 643
3 643 614 621
3 640 639 644
3 645 621 622
3 622 625 645
3 646 645 648
3 645 625 648
3 625 628 648
3 677 647 663
3 649 648 628
3 627 677 632
3 630 650 649
3 630 649 628
3 650 630 635
3 630 631 635
3 635 651 650
3 651 653 652
3 651 652 650
3 599 654 653
3 652 653 654
3 655 656 671
3 655 671 654
3 655 654 599
3 673 609 658
3 656 638 673
3 641 659 639
3 642 675 660
3 620 642 660
3 643 675 642
3 639 663 644
3 661 662 643
3 621 661 643
3 621 645 661
3 661 645 646
3 661 646 662
3 647 644 663
3 646 664 662
3 646 665 664
3 646 648 649
3 646 649 665
3 649 650 665
3 678 632 677
3 678 680 632
3 650 666 665
3 632 680 668
3 680 670 668
3 667 669 688
3 679 666 667
3 679 667 688
3 652 667 666
3 652 666 650
3 654 671 669
3 669 667 654
3 654 667 652
3 669 671 672
3 672 671 656
3 670 658 657
3 691 673 658
3 673 691 672
3 673 672 656
3 657 658 609
3 674 682 659
3 659 660 674
3 660 675 674
3 643 662 675
3 659 682 663
3 676 662 664
3 677 681 686
3 664 665 666
3 664 666 679
3 677 686 678
3 670 690 658
3 658 690 691
3 674 683 682
3 684 683 674
3 674 675 684
3 676 664 685
3 676 685 684
3 681 693 686
3 664 679 685
3 686 687 678
3 688 685 679
3 687 686 694
3 678 687 680
3 680 687 690
3 688 669 689
3 680 690 670
3 669 672 689
3 691 690 687
3 691 696 672
3 684 692 683
3 692 684 685
3 693 694 686
3 685 688 692
3 689 692 688
3 696 689 672
3 691 687 694
3 691 694 696
3 683 692 695
3 692 689 695
3 695 689 696
3 693 683 695
3 1 0 6
3 13 23 22
3 3 39 28
3 26 14 56
3 47 39 65
3 65 113 47
3 113 76 47
3 32 86 82
3 64 106 65
3 65 39 64
3 56 66 26
3 97 137 98
3 98 57 97
3 104 105 106
3 106 64 104
3 112 155 113
3 113 65 112
3 116 120 122
3 122 113 116
3 83 85 125
3 136 183 137
3 137 97 136
3 145 107 193
3 152 154 155
3 155 112 152
3 152 105 145
3 145 153 152
3 154 208 116
3 208 213 163
3 163 120 208
3 181 182 183
3 183 136 181
3 183 182 196
3 153 193 194
3 194 202 153
3 154 206 208
3 153 205 154
3 213 208 206
3 246 195 245
3 245 182 236
3 236 248 245
3 252 253 254
3 254 202 252
3 252 194 246
3 246 306 252
3 254 257 259
3 259 205 254
3 287 288 289
3 289 237 287
3 306 246 298
3 298 307 306
3 312 253 308
3 308 363 312
3 317 262 315
3 315 260 313
3 313 368 315
3 330 268 378
3 337 399 338
3 338 290 337
3 350 288 338
3 338 351 350
3 359 419 360
3 360 307 359
3 363 308 360
3 360 364 363
3 368 313 367
3 367 369 368
3 378 379 330
3 378 317 375
3 375 379 378
3 393 455 335
3 397 398 399
3 399 337 397
3 421 484 423
3 423 364 421
3 427 491 430
3 430 369 427
3 435 448 390
3 390 379 435
3 453 393 450
3 456 513 457
3 461 405 463
3 463 462 461
3 465 398 457
3 473 474 475
3 475 417 473
3 478 480 484
3 484 421 478
3 478 418 475
3 475 479 478
3 487 488 491
3 491 427 487
3 487 424 485
3 485 539 487
3 494 555 502
3 502 433 494
3 494 491 488
3 488 592 494
3 456 458 515
3 515 513 456
3 514 559 515
3 515 458 514
3 518 526 525
3 531 532 535
3 535 479 531
3 531 474 527
3 527 579 531
3 539 485 537
3 514 516 562
3 562 559 514
3 560 561 562
3 562 516 560
3 566 567 568
3 568 575 576
3 576 526 568
3 579 527 576
3 576 580 579
3 586 588 591
3 591 539 586
3 586 536 583
3 583 587 586
3 602 601 599
3 604 601 552
3 611 613 612
3 612 563 611
3 611 564 614
3 614 613 611
3 619 561 612
3 612 620 619
3 623 644 624
3 624 575 623
3 623 567 615
3 615 640 623
3 624 647 582
3 582 580 624
3 632 587 627
3 647 677 627
3 635 631 634
3 659 641 660
3 663 639 659
3 675 662 676
3 676 684 675
3 681 663 682
3 677 663 681
3 682 693 681
3 683 693 682
3 6 0 7
3 695 694 693
3 695 696 694
3 37 38 62
3 62 60 37
3 303 916 305
3 305 916 310
3 303 251 916
3 916 251 310
3 356 911 358
3 358 911 362
3 356 305 911
3 911 305 362
3 309 907 310
3 310 907 305
3 309 362 907
3 907 362 305
3 362 361 358
3 476 905 482
3 476 477 905
3 905 477 481
3 371 917 904
3 904 917 370
3 95 24 54
3 428 902 429
3 902 917 371
3 899 910 255
3 203 898 200
3 200 898 201
3 203 922 898
3 898 922 201
3 156 908 151
3 151 908 203
3 156 922 908
3 908 922 203
3 486 897 426
3 861 782 266
3 518 466 519
3 362 793 361
3 362 309 793
3 211 883 209
3 209 883 263
3 211 212 883
3 883 212 263
3 879 793 309
3 263 876 912
3 429 874 428
3 489 877 874
3 263 873 209
3 209 873 261
3 263 912 873
3 873 912 261
3 890 914 875
3 210 863 209
3 209 863 211
3 210 160 863
3 863 160 211
3 779 861 924
3 779 782 861
3 493 874 429
3 888 365 893
3 258 856 890
3 890 856 914
3 258 884 856
3 856 884 914
3 923 893 365
3 365 881 923
3 917 788 370
3 853 868 422
3 900 853 852
3 852 853 881
3 900 857 851
3 426 848 877
3 426 868 848
3 783 817 314
3 817 838 823
3 912 784 261
3 784 878 769
3 422 844 885
3 885 844 901
3 422 868 844
3 900 852 857
3 857 852 828
3 828 852 889
3 889 852 881
3 912 876 840
3 481 839 901
3 839 885 901
3 769 878 838
3 838 878 823
3 881 853 422
3 836 858 884
3 918 869 888
3 888 869 880
3 834 902 428
3 881 422 923
3 923 422 885
3 872 831 867
3 867 831 823
3 831 817 823
3 314 817 831
3 831 872 314
3 783 314 880
3 314 792 880
3 881 365 889
3 365 792 889
3 889 872 828
3 828 872 786
3 365 888 792
3 888 880 792
3 807 826 783
3 807 849 826
3 212 825 263
3 266 782 825
3 824 890 875
3 878 829 823
3 823 829 867
3 860 822 786
3 786 822 828
3 822 857 828
3 867 821 919
3 919 821 847
3 867 829 821
3 821 829 847
3 899 862 910
3 862 310 251
3 429 902 820
3 820 902 371
3 812 819 761
3 819 923 885
3 858 818 849
3 838 826 818
3 818 826 849
3 783 826 817
3 817 826 838
3 875 816 843
3 816 849 807
3 815 791 790
3 791 814 879
3 814 855 879
3 374 371 904
3 904 316 374
3 918 888 893
3 261 836 207
3 857 811 851
3 851 811 428
3 857 834 811
3 811 834 428
3 902 810 917
3 902 834 810
3 810 834 860
3 843 809 875
3 809 824 875
3 849 816 914
3 914 816 875
3 839 761 819
3 819 885 839
3 316 924 813
3 813 924 861
3 793 812 361
3 255 800 899
3 899 800 798
3 917 810 788
3 788 810 860
3 857 822 834
3 834 822 860
3 876 263 825
3 825 782 876
3 923 806 893
3 812 855 806
3 201 805 200
3 201 910 805
3 426 913 868
3 901 844 913
3 913 844 868
3 853 900 868
3 900 848 868
3 862 251 805
3 805 910 862
3 255 824 809
3 910 804 255
3 779 924 847
3 924 370 847
3 426 802 486
3 486 802 489
3 426 877 802
3 802 877 489
3 897 901 913
3 913 426 897
3 255 809 800
3 800 809 790
3 812 806 819
3 819 806 923
3 800 790 798
3 798 790 791
3 824 255 804
3 804 256 824
3 310 915 309
3 915 899 798
3 879 309 915
3 815 918 814
3 814 791 815
3 855 797 806
3 806 797 893
3 855 814 797
3 209 796 210
3 210 796 207
3 209 261 796
3 796 261 207
3 877 795 874
3 874 795 428
3 877 851 795
3 795 851 428
3 838 818 769
3 769 818 858
3 855 793 879
3 855 812 793
3 314 872 792
3 792 872 889
3 918 893 797
3 797 814 918
3 879 915 791
3 791 915 798
3 843 790 809
3 843 815 790
3 847 788 919
3 847 370 788
3 877 848 851
3 851 848 900
3 872 867 786
3 786 867 919
3 899 785 862
3 862 785 310
3 899 915 785
3 785 915 310
3 784 836 261
3 880 869 783
3 783 869 807
3 482 846 483
3 483 846 486
3 482 897 846
3 846 897 486
3 922 850 201
3 918 815 869
3 815 843 869
3 843 807 869
3 843 816 807
3 761 839 420
3 420 839 481
3 158 891 781
3 788 860 919
3 919 860 786
3 912 780 784
3 784 780 878
3 912 840 780
3 829 779 847
3 829 840 779
3 266 825 215
3 215 825 212
3 924 316 370
3 316 904 370
3 779 840 782
3 782 840 876
3 204 892 891
3 204 850 892
3 892 850 922
3 778 773 895
3 160 894 161
3 161 894 159
3 160 210 894
3 894 210 159
3 256 776 204
3 204 776 850
3 256 804 776
3 776 804 850
3 358 775 415
3 415 775 420
3 358 361 775
3 775 361 420
3 156 892 922
3 207 772 210
3 772 778 895
3 773 771 903
3 903 771 258
3 773 778 771
3 771 778 258
3 115 920 114
3 884 770 836
3 836 770 207
3 836 769 858
3 836 784 769
3 157 774 789
3 878 780 829
3 829 780 840
3 489 768 490
3 490 768 493
3 489 874 768
3 768 874 493
3 884 858 914
3 858 849 914
3 765 774 117
3 901 764 481
3 901 897 764
3 764 897 482
3 79 763 77
3 77 763 119
3 258 718 903
3 258 890 718
3 361 761 420
3 361 812 761
3 117 760 72
3 72 760 115
3 774 760 117
3 903 759 773
3 773 759 157
3 903 921 759
3 759 921 157
3 157 842 774
3 158 760 842
3 842 760 774
3 403 341 767
3 72 758 71
3 71 758 114
3 72 115 758
3 758 115 114
3 781 156 920
3 920 115 781
3 111 757 151
3 151 757 156
3 111 920 757
3 757 920 156
3 774 765 789
3 789 765 118
3 789 756 157
3 157 756 773
3 789 895 756
3 756 895 773
3 210 772 159
3 159 772 895
3 74 755 73
3 73 755 117
3 74 765 755
3 755 765 117
3 121 763 123
3 295 754 296
3 343 753 342
3 341 340 753
3 753 340 342
3 767 341 753
3 753 343 767
3 845 752 573
3 522 523 752
3 295 751 352
3 573 574 748
3 748 574 622
3 521 747 517
3 521 522 747
3 573 752 574
3 405 746 406
3 405 461 746
3 746 461 404
3 845 747 752
3 752 747 522
3 221 882 217
3 217 882 215
3 221 267 882
3 882 267 215
3 574 744 577
3 577 744 523
3 574 752 744
3 744 752 523
3 564 845 573
3 564 565 845
3 123 743 162
3 162 743 164
3 123 124 743
3 743 124 164
3 517 742 565
3 565 742 845
3 517 747 742
3 742 747 845
3 229 280 232
3 232 179 229
3 159 864 118
3 118 864 789
3 159 895 864
3 864 895 789
3 578 887 577
3 577 887 574
3 578 622 887
3 887 622 574
3 118 827 119
3 119 827 74
3 118 765 827
3 827 765 74
3 73 741 44
3 44 741 72
3 73 117 741
3 741 117 72
3 114 740 109
3 109 740 111
3 114 920 740
3 740 920 111
3 905 481 764
3 764 482 905
3 41 43 71
3 43 44 71
3 204 739 256
3 739 921 903
3 299 738 289
3 297 248 738
3 407 737 408
3 398 803 399
3 399 803 906
3 398 465 803
3 803 465 906
3 408 801 347
3 408 737 801
3 801 737 416
3 418 735 417
3 417 735 416
3 418 419 735
3 465 734 464
3 464 734 466
3 465 457 734
3 734 457 466
3 906 733 349
3 349 733 408
3 906 407 733
3 733 407 408
3 732 737 407
3 359 735 419
3 346 731 299
3 731 348 297
3 298 730 307
3 730 359 307
3 158 842 921
3 921 842 157
3 348 731 347
3 347 731 346
3 347 727 348
3 417 726 473
3 737 732 726
3 726 732 473
3 349 729 346
3 346 729 347
3 349 408 729
3 729 408 347
3 730 725 348
3 348 725 297
3 730 298 725
3 348 727 730
3 730 727 359
3 891 723 204
3 921 739 723
3 723 739 204
3 778 722 258
3 258 722 884
3 778 770 722
3 722 770 884
3 207 721 772
3 772 721 778
3 207 770 721
3 721 770 778
3 466 720 464
3 464 720 525
3 466 518 720
3 720 518 525
3 464 719 465
3 465 719 407
3 464 732 719
3 719 732 407
3 256 739 718
3 718 739 903
3 473 717 525
3 525 717 464
3 473 732 717
3 717 732 464
3 162 716 121
3 121 716 160
3 162 211 716
3 716 211 160
3 891 715 781
3 781 715 156
3 891 892 715
3 715 892 156
3 123 799 125
3 125 799 79
3 123 763 799
3 799 763 79
3 119 830 161
3 161 830 121
3 119 763 830
3 830 763 121
3 200 805 762
3 762 805 251
3 850 837 201
3 201 837 910
3 850 804 837
3 837 804 910
3 256 841 824
3 824 841 890
3 256 718 841
3 841 718 890
3 293 241 832
3 243 832 808
3 808 832 241
3 292 750 339
3 339 750 340
3 292 293 750
3 750 293 340
3 293 749 340
3 293 832 749
3 865 808 241
3 191 724 190
3 190 724 242
3 724 728 242
3 235 289 738
3 808 886 243
3 242 728 886
3 886 728 243
3 787 243 728
3 299 871 738
3 738 871 297
3 299 731 871
3 871 731 297
3 242 833 190
3 242 865 833
3 833 865 240
3 239 896 241
3 240 865 896
3 896 865 241
3 865 242 886
3 886 808 865
3 237 714 239
3 714 896 239
3 188 713 240
3 190 833 713
3 713 833 240
3 921 723 158
3 158 723 891
3 240 896 714
3 714 238 240
3 238 711 234
3 238 714 711
3 711 714 237
3 115 710 781
3 781 710 158
3 115 760 710
3 710 760 158
3 340 712 342
3 340 749 712
3 754 342 712
3 712 294 754
3 749 832 243
3 234 711 235
3 235 711 237
3 787 294 243
3 294 749 243
3 712 749 294
3 400 854 398
3 398 854 457
3 400 456 854
3 854 456 457
3 236 709 248
3 235 738 709
3 709 738 248
3 235 709 234
3 416 727 801
3 801 727 347
3 190 713 189
3 297 725 247
3 247 725 298
3 737 870 416
3 416 870 417
3 737 726 870
3 870 726 417
3 859 767 343
3 359 777 735
3 735 777 416
3 359 727 777
3 777 727 416
3 909 250 300
3 300 751 866
3 344 835 345
3 345 835 343
3 344 406 835
3 859 343 835
3 835 406 859
3 342 766 343
3 343 766 345
3 342 754 766
3 345 745 344
3 344 745 352
3 345 295 745
3 745 295 352
3 296 866 295
3 295 866 751
3 294 708 754
3 754 708 296
3 294 787 708
3 708 787 296
3 249 909 794
3 794 909 244
3 866 736 300
3 866 296 736
3 728 707 787
3 787 707 244
3 707 794 244
3 909 300 736
3 736 244 909
3 724 794 707
3 707 728 724
3 736 706 244
3 244 706 787
3 736 296 706
3 706 296 787
3 189 705 187
3 187 705 188
3 189 713 705
3 705 713 188
3 459 704 460
3 460 704 461
3 459 404 704
3 704 404 461
3 186 703 184
3 184 703 234
3 186 238 703
3 703 238 234
3 345 766 295
3 295 766 754
3 404 702 746
3 746 702 406
3 404 859 702
3 702 859 406
3 249 701 191
3 794 724 701
3 701 724 191
3 701 249 794
3 184 700 181
3 181 700 182
3 184 236 700
3 700 236 182
3 234 699 184
3 184 699 236
3 234 709 699
3 699 709 236
3 250 698 199
3 199 698 249
3 250 909 698
3 698 909 249
3 767 697 403
3 767 859 697
3 697 859 404
3 403 697 459
3 459 697 404
