# vtk DataFile Version 3.0
A great-looking cell
ASCII
DATASET POLYDATA
POINTS 366 double
165.62221876196944 99.75209221483622 67.19085274648735
166.443577574182 96.77779291217243 65.05311418091665
164.95999472878358 102.44195583144891 69.2135169219286
168.65969107188187 93.6029601592099 65.42274770272415
162.56896054984787 100.05932727440708 66.00029136196994
168.76600569881253 97.88850136779438 67.83203383449587
161.9318753859066 102.42617151896623 67.92249164883061
168.12229037606153 102.44283843251613 72.45281824830194
165.34699501684244 103.84824241416861 72.32576348222307
164.50119813657003 87.91550669667222 65.95037683228126
162.2914422403094 92.02015163835132 63.22794539699413
163.30694778163843 97.59647246453534 64.00262695406576
156.5081542749869 98.83318912593417 67.41066423132108
170.51688442064204 95.29589397702073 67.33012493249718
158.73701392213002 101.78916796368587 68.25410525727575
158.75536015866078 104.17898978060015 70.9707901485994
167.8906175720874 100.69778825697028 69.8241353677565
170.5220640596385 99.99230047485496 72.10151171657112
170.25408023383687 102.2740000698251 74.96124785904547
162.16555981216234 103.98103208348653 70.7451618089244
164.6032133701586 106.17502465423587 76.61732610927072
167.49723569839358 104.6500726888236 75.09214132046094
162.60757922432816 85.29484197310045 67.13797489251778
166.57509944737572 86.71023937362204 68.45104756464626
159.40373470863406 90.56691399487802 64.29671665581118
156.996213737081 94.34129306184805 65.79514471921506
155.03957576490336 95.51151684196863 68.06771764412545
172.36634862150987 92.08298216142099 70.05171035628659
173.16252240591217 94.22903769066251 71.26530643993576
154.87771440415213 99.85985215336795 70.1606722255298
172.6164757882117 97.71422544505774 73.06118988841969
154.10475656911564 103.60519185077332 75.26196383082183
159.38902077067357 105.77647979670587 74.21113234631854
162.71264141263254 105.0914001406575 73.8717048383965
169.89566397317859 103.96485776947027 77.74255154029672
167.5795978155069 105.92409154936624 78.52385032985488
166.90043766091102 84.00924525963082 73.87184410523275
158.50799882311597 82.22559085350565 71.9806663812265
155.19848404844268 89.00715399750742 68.02988892319462
165.48865525308693 83.76097831656732 71.4905026991762
167.79180611013783 85.83500342370179 71.44844373670055
170.0327437176663 86.60203156551115 73.57730885714221
154.41850420371162 92.03288914940651 69.08528949706107
152.8634777024816 93.22261147000938 72.41183095829359
153.80011266005693 96.66908999445131 71.0501765146484
172.22472034860516 90.23882049794385 72.15173454861366
173.87984717377597 95.33739373259262 73.74312495638837
173.5869267734848 97.47283326087879 75.63228766342036
153.32450100028245 99.53004074603517 73.39604786038704
152.83757762265762 100.88419442263091 76.49834834413299
154.4184357064406 104.11351843991179 81.28141491727533
154.2958406212426 104.59777931116058 78.03247910021042
171.66833894729686 101.395773041042 78.05161384928668
157.4732126591425 105.78332884122517 82.64868647414025
163.83916940777732 82.1232843937349 72.9395455416504
165.32776235932366 82.02586528119055 75.40351473297994
157.17510116932294 81.72705238596802 75.13243993642713
168.9305958297755 84.60257964737397 75.82020869665955
170.74311963145504 86.63324740572399 76.06461030873999
153.70854544854714 85.94702724795783 72.87118972158811
153.2871763248087 89.93004974924537 71.58825835101543
152.28595043555973 91.67438706925147 75.48733003861005
152.67409616778784 96.29252175309408 74.5166513804251
171.93912610736268 88.56910044403025 74.7478706969795
174.60240040721715 91.69762793887843 75.55516491245534
152.3202581484279 97.61289594729044 77.64650833036661
174.82178871375075 95.35874652395349 76.36300736663318
172.96386580230865 99.09913020568672 80.22547927594827
170.08121549253488 105.07206253461935 80.86083279114573
159.2205824286053 106.64895910782472 77.60059711340399
162.17017179705337 106.23381168984105 79.35843061023154
161.83786265260505 81.20862125207518 78.32080071871549
167.32007862647103 82.89913553106496 77.68748418729386
156.21466454965574 82.13229530407216 79.37779724497491
154.053483255349 84.10829867322289 79.04876564361851
168.853272855885 83.72132191913616 79.89035731601192
170.3638581130996 85.64421143601766 78.54372244678815
152.44480462677558 88.99018087028165 77.5259623480366
172.40225895976008 87.79036018023086 77.62695209911726
152.12242014017508 91.84889707462854 79.0746529674665
151.91887248523165 95.3258624027639 80.14563162527945
152.03067958440639 94.44922429895196 76.92884167126867
173.87590763224134 89.69870724621806 76.46104519548551
174.52334280305976 89.52517151061245 79.40633097740105
175.12119662071146 91.14889217522962 77.48820239857253
152.50720609446148 97.74105695067267 82.39783820224571
152.70165080744226 99.97266608280587 79.93800837800615
175.29574538150155 94.83171405996228 78.84776420351903
174.6648595696814 96.59579246368469 80.83146102687444
153.75164742304332 101.09929653743916 82.98409188148788
171.7266542964925 102.09570572905179 81.40999470492763
163.98848544920557 105.87662190091935 84.59565964224001
167.0362346376446 106.21339984869438 81.82649279373086
164.15310473515135 106.47138093244504 81.98729592168337
160.72926157046467 81.12693093088001 81.32174738493342
164.7407381769655 81.61015120180184 82.86118013693192
166.4981444985528 82.0835795964083 80.8828931272893
156.15316552989086 82.98704497160905 83.66491124567673
168.6800652479934 83.35897748523661 82.67558140891894
170.5942957276219 85.07757070335808 81.66584088361178
153.43624575926296 85.33825775813426 81.33339609704854
152.77490897802792 87.64237375431426 80.11159177029663
172.34409489721472 87.2995622533349 80.67984578079911
151.76342883504483 92.79787636967464 82.02298215572029
152.27097994561697 90.10257211913196 81.76312491478157
151.68462061801995 95.06715823884167 82.94110803443174
175.6651179315619 91.2940802886348 81.88374043477343
175.72194576372928 94.08303975846478 81.40586332802783
175.03503061778585 95.84892686404076 83.43733842355402
173.98657970505204 97.33380393262786 85.1047352178926
153.6904234465028 98.68991189154619 85.3861549817354
152.21185367821158 96.13424249884524 85.21420353345378
159.0426513686328 103.99128003246136 84.74538084908927
172.47222175354224 101.59515483384445 84.39353846479167
161.1401701810917 105.6657943838212 82.80478615758206
156.2424433643893 103.14641290693542 84.0448693317619
161.85258330271864 104.1407041523852 85.6180049594096
167.18821316722943 105.32222034666312 85.03363032138438
170.34909828526588 103.88249713551828 84.1559831902826
159.95447869951133 81.18036589820066 84.07434710593569
164.36806392185565 81.61299427499573 85.17704632446878
166.6442839550608 82.17983144353558 83.98450504273926
154.47081418972536 84.7803126492128 84.12438554530172
168.49584707142992 83.53132528402818 85.43119512599384
170.21025821167183 84.65105448277598 84.17106397664816
153.06383993381937 87.46005903457556 83.08725804490078
172.07794567109468 86.77099211805456 84.12481696795948
151.93010927545703 93.09164297862756 84.82750828060293
152.68809478446983 90.05077435631388 84.93768171080536
173.57576585165725 89.30554259477464 85.51882442701161
175.35674880526832 93.19369358147564 84.01709024108423
155.6208536560158 100.92195476201749 85.88001863026983
173.01955484012936 99.27885297656823 84.65501206628375
157.64967341502302 102.42407841600993 86.14506070063463
171.16318369008928 101.99370178135129 87.03906550340135
164.56796434048852 103.95914493734921 86.61348153555994
169.05452147780323 103.61831428262009 86.6010687710726
161.20576562821054 81.83336787593812 88.01694618002375
163.75399211768632 81.9486661294527 88.0504663651285
166.29669699516472 82.5938233111809 86.68104300092098
159.38165735125534 83.01274464986564 88.84261272935969
167.9554218762188 84.21429200600049 87.89757006803991
170.3103153541016 85.4480327221535 86.8179028438197
155.92448443598656 85.31390179155615 86.67800885483572
153.9222764267696 87.23052350969701 86.00171200278878
171.77279043962514 87.98513025629603 87.0428871320715
152.82459000137496 91.86730466520908 87.36028813234437
153.81339764104163 89.43574192966838 87.83262726405658
174.4307250300878 92.0232711742593 86.57289387167565
173.73853931022967 93.95356288471045 87.88626817616036
174.67933518127128 95.08663744923197 86.14637572068928
152.58660271909469 94.44440594303258 87.43310582637953
153.29312855381298 97.04478034846478 87.75456618217571
174.00219917322093 97.05387918811263 86.9517698901851
155.4005245803063 98.80487663799667 87.78408445766004
158.0473128362833 100.3706943651585 87.91057571251484
173.02488797472407 100.51432574798211 86.29583468901453
173.13495926107416 98.5800533156812 86.53856728769456
160.00335098209186 102.38408223297435 86.82505908133125
164.93681586008435 101.89406474905047 88.369437699254
162.54915387740232 102.41164895356724 87.61885791826195
167.00151118874814 103.38859599032517 87.68640151049533
161.7948491113805 82.9675697154062 89.90424940706671
163.96470453765943 83.41485250260493 90.12039585280988
165.76415850172668 83.66067487403045 88.94947477442142
160.1391556501858 84.91198552265527 90.40205828298247
157.4648037578346 85.18948647387289 89.29718909217829
167.02187203161313 85.4960646032198 89.68209798726133
168.78532170364969 85.97574875444626 88.7796247625214
155.49255828216877 87.32235219606855 88.46083212587592
170.24381229814094 87.38687415818916 88.85441223879795
153.65055609426128 93.21308933019316 88.89759707955405
153.97019889168544 91.31737643472589 89.56689416718135
155.40904734139042 89.4587308375367 89.91115524333651
171.45960181655954 88.97034700618971 88.92897867963366
172.9187062767453 92.35323148337108 88.8119328238176
172.50932637974734 94.49000635412465 89.31648682126675
173.4786024320837 95.82762742892616 88.10318027139704
153.9973891254434 95.19669372660861 89.50447765048496
160.97474194152815 100.64551860978541 88.5275102477416
163.14117146716654 100.77174904044695 88.93675067873527
169.10745597425486 102.59027519416493 88.57869469956285
167.21030736740508 101.63429665154469 89.82044210391899
162.76634183537905 85.25287646866795 91.02396744686602
165.1452374700144 84.9539812377764 90.71329431309334
160.79966459933715 86.84956923894529 91.78745650238184
166.26682183301224 86.59703288277132 91.34889135896428
168.4098753923099 87.30809466825798 90.64411557827697
158.81291276785288 86.53535881253707 90.95818857110172
157.05441819137644 87.72399419563553 90.55141237366928
155.00131594154064 93.24605671416677 90.50622469669138
155.7148547540188 91.34625621070656 90.76393130370022
157.24616636886876 90.07697314708179 91.37299918473288
169.95582475278152 89.24324788690883 90.20819804585693
171.52708321659736 92.95855544246884 90.64144485180373
172.23716645507668 96.5727307934681 89.54889993938065
154.85220344046377 97.33932128917846 89.68722542633948
157.12967613168814 98.15726295864991 89.82173567328908
172.7665934439587 97.67124214656445 88.0755080877359
159.7459177543201 98.84255826579614 89.89748603736484
172.42745413215775 99.77989939006696 88.21336050185064
164.4891170067232 86.31780354967984 91.77463954275373
165.1337786474601 87.94151503704144 92.40766623141707
166.79159773732212 88.29271179587407 91.67439017288756
159.13403516472488 88.56746870565188 91.52179899487624
168.1490364588872 89.66416884058823 91.60581945325785
157.3943434973668 92.76768648352396 91.6598019696875
156.33331172875975 95.62069211149982 91.12852284741204
169.85547838247498 93.75123529411191 92.37419716453869
158.8964738398881 96.78079052629698 91.13326211591945
170.10066928697083 100.20742373692387 89.92534802152915
166.07999451937536 89.88263160811222 92.53365264503162
161.35706538601792 89.21024120827276 92.33363294413404
164.82678458712317 91.8610572390454 92.87028695330888
165.77314585625223 93.74981449032208 92.81558723782715
167.50905209584863 92.11355479323322 92.61672293799938
158.59550201760922 94.79991161857843 91.74307232684
163.73314004197394 93.90861633455658 92.65867849902507
171.01126499132292 97.65319445376281 90.96799608822617
161.76071518827476 94.12127360625438 92.73899337859979
165.243970097314 95.90127520102932 92.18066212255155
169.47271796233701 96.23195330552238 92.05174736569472
160.47041420733902 95.46712971145153 92.18400336969343
164.6914745338489 95.84311396937773 63.3625322276879
160.7617843245097 96.67652574632726 63.26844983877559
160.8419786218238 98.45788202008517 64.58533211651009
165.1336604605481 105.3539865330265 74.27350843014086
156.35466947282657 103.68458689162729 71.40351209126332
156.30853453972674 104.81621198620418 73.13372382171691
156.615977418247 100.72412960878117 68.95469488382605
153.34725852345198 101.98593883915291 80.8468955384365
167.43456021817812 97.24095321445272 92.22298284135677
156.42591528182493 105.77445950203736 76.16630405596916
166.61213935897248 102.40535887906803 70.9285007726172
161.63002943019728 106.08729811516852 76.31471383967279
169.18454429720677 98.29191579941788 91.5906934224299
162.68321841766368 94.95429036087333 62.88809546440511
160.37134279021038 103.3086926215155 69.3244880132754
153.27704584081616 102.50780563629704 78.9840754616188
152.63177714576324 98.59676217644531 75.48930946271493
152.34847008688277 97.66383492664484 80.03673248955268
159.52447334264616 99.71376059349174 66.15881377029925
153.40723178279694 101.71265902072926 74.27957629381568
171.58418784378043 98.32308491748351 89.25122980868075
154.59819122528114 102.42728085384674 72.31695963095993
167.5858708500014 94.89761160336943 92.9372285923361
165.64204179154788 106.35940656878559 83.46686924849928
169.1027173550153 91.1592047528419 66.31986601549991
162.68185716737247 95.9448778265693 92.5745516031792
156.378502542236 106.62867348060645 79.45217149609222
172.16862899576324 94.20232398086783 68.9726126265193
173.46185664517026 90.42890450768303 74.36726632987673
170.656439997557 92.16250218016452 67.74311296633527
164.5278686444988 98.61783464572679 65.48572017055527
165.50216523036283 93.37603452826144 63.49524167666493
155.43135248628303 93.30074873122744 67.0492224340988
156.6316730422369 91.38581904170836 66.34648148534605
161.23617666985064 97.51399571443913 91.47325106952458
159.49967285916222 94.01589951559458 63.57462328218803
158.33248444523798 97.12999580256431 64.84135885221863
152.52985333849827 87.4006976207691 76.24861577112827
175.41562768046225 93.15921850740737 77.03925709833366
166.79588072555885 88.49544574740318 66.88816321235684
153.71977933815452 84.44007317183632 76.70383003493559
153.18852705485156 87.90813017071585 72.19898144916925
163.67966378219805 97.80926038166402 91.41461863695419
161.16754568784214 81.91622767970318 72.45244040357213
157.8584711989247 92.53092018546845 64.67884686025249
168.38408233067545 87.40134965565993 69.67644354131436
173.30895020795006 92.12513231026249 71.53332939711309
171.20159477561893 95.28361135631229 90.91952524064166
171.103143509294 88.35699088040361 72.84939959986208
152.99564720266815 85.95312671380265 75.3679956380612
165.7670306307836 98.0034356851131 91.35792558806655
162.1040201296008 91.86360287516477 92.668757226342
155.57923580458817 82.52719134805318 74.82294600015332
159.89410853886247 93.34540768057124 92.51686885154334
168.95495347088257 84.12530371390845 77.97152445771705
154.77704620608844 97.78691257274359 69.00884788454078
160.92743375671242 87.48298180457004 65.29805373912605
152.09094040781207 91.49302799836619 83.40066726116453
165.13318228650832 106.57694824370648 79.64721584007341
152.29111404536462 89.62666498287788 79.62373086990968
152.4681007540753 93.9075406211833 74.84096827616337
157.63286099319654 83.4789835644912 86.98723530176018
169.8610580959569 99.04041059917238 69.8311125876339
168.76866943353764 96.01353518288099 66.18703540686032
159.42949464370744 90.92160761542782 92.39224216712343
160.99689276775604 83.63052181116319 68.66897022822597
163.75313889780253 89.6997067376806 92.59457872507494
170.82839501925233 90.36980775386502 69.79564028406284
163.04267590341004 87.51431691945992 92.09735880847364
156.40671187581327 86.10803843839405 68.45866380719056
162.23090718584496 99.45555035160304 90.33563126408134
157.27694296781888 81.46901946330418 77.39672103024728
171.11829600815932 103.28949522968583 79.46720739544861
163.53249491633338 81.37241556272315 76.80630780585443
162.8233876086834 83.9081520472522 68.62597002519601
164.66012361082116 86.00551249470325 67.47860669498168
169.90851747005976 91.31896397283296 91.44983909335559
160.7796465807403 104.99813459346925 72.34687999900217
164.91009893259442 99.87674012539938 90.2490558620405
166.28435205904418 85.03441673175585 69.9581088931454
165.4360767685087 82.91662328728029 73.40413468382171
152.8291520428823 90.842662431407 73.46617765991788
157.0716473509671 83.24274313587206 71.40679194815858
157.84647904202555 82.44082612971131 84.80129534825737
171.71128949243518 90.69722358304004 89.94312092357916
162.55629636775964 81.22212986653768 83.37806068960938
173.8043467971349 92.49484568358649 73.31826228789406
155.11573757382126 84.42639935682507 72.97104189126634
154.0337313276135 89.57930993824222 69.65225780418571
164.59917262817373 84.58700937178122 68.91708153612508
173.18395671175773 96.20648104733156 71.88533334714955
156.29383672045617 83.67622966376837 85.33314267803134
160.31315232357534 82.50851519332213 70.45597468019679
168.5615310010843 85.07368989525371 73.59171226085806
175.73632390861744 92.28073790087011 79.30783021748462
172.81932973694845 90.13311301737227 87.91212785356672
154.18144413735737 87.44286592736489 70.38077518260869
157.7145035524221 81.78347482239691 73.48761088017064
160.66930443109067 101.08496962549772 66.98136221064152
156.53659101225384 96.4928276486281 66.36497677085451
159.31700809123558 106.86234279334427 80.50568583610311
159.26777104045865 85.22823384021214 67.02147768088541
159.39758970316353 80.97144340384392 76.53370262686104
162.09713795574788 81.29507930298901 75.17962162142584
164.49434597669045 90.40988619466584 63.9810483889488
154.52743725466308 84.00625137127533 74.60761051536285
153.81656642467576 94.37111861985143 70.05716199374349
153.51518922979338 102.9472242031949 77.18797706283097
156.54929592940084 102.22513726793781 70.21078581300736
174.9993392754197 93.62486641766692 75.00525734356751
158.24025605338446 83.79539213375774 69.77446280197358
174.96361346836923 90.82026909110273 84.2372484879946
174.1815069629728 88.91310907397873 82.67547742813437
152.58481314988362 88.5409997725964 74.29105491955475
167.424348630458 99.48433376224185 91.34608267415874
159.5605892986528 82.02008027920279 86.51018032772127
167.01324757574227 90.44525663990089 65.4582610009074
155.113057848132 83.26142796755362 81.65790338115885
163.86054977779582 101.34575564093488 67.38846468789849
173.61140750608084 97.95081894799179 82.83088174842995
153.02068906529956 85.73396402584474 79.60088301889496
152.8350591817858 86.24521918237718 77.81415371287099
155.69195652198474 84.6806987957996 71.16950222769914
164.69982044141182 81.7463317143138 78.32640410978318
162.8717084464115 82.79942601406992 70.31630117366657
172.74009527593333 99.99357407502505 82.70975916782045
159.32353309527053 81.3198015551467 74.05445974539855
174.31111805573914 97.2045408245205 78.20823008019077
155.30967592422735 82.68148050659062 76.72685941303224
172.94808786686374 98.99619290684427 77.46633987884385
162.33024692874218 89.53036081604256 64.27556234558476
156.20457145458857 82.8097560645025 73.06306588597546
163.5385571740377 81.33803236425398 80.84975507975018
171.78410869993044 99.54017301923166 75.26538233767486
167.1994264767782 83.27957537848896 75.66066498566681
158.8136047303439 81.14094479809958 79.19313371565455
170.0723357736856 88.12771110869693 70.9634205002888
171.5951470639972 96.97181660447606 70.12561601801447
168.78892501266603 89.261689552611 68.0712964147506
161.90117958018476 81.51887837425087 85.89282989045007
157.52192896317092 87.99109841366813 65.87870633175713
157.6994539823033 81.70341802429212 82.06640015079492
168.84707372962438 105.48005186987024 83.07881160401485
POLYGONS 728 2912
3 2 16 0
3 1 0 5
3 6 19 2
3 2 19 8
3 7 8 21
3 13 5 360
3 16 7 17
3 19 33 8
3 18 7 21
3 356 30 17
3 52 356 18
3 356 17 18
3 18 21 34
3 21 20 35
3 35 34 21
3 36 39 40
3 60 43 42
3 62 48 44
3 44 48 29
3 352 356 52
3 34 52 18
3 81 65 62
3 46 47 66
3 65 86 49
3 68 35 92
3 77 79 61
3 63 82 78
3 78 82 83
3 81 80 65
3 132 342 348
3 67 348 342
3 67 90 348
3 50 89 115
3 100 125 101
3 79 103 80
3 103 79 104
3 125 104 101
3 80 103 105
3 80 105 85
3 87 88 107
3 107 88 108
3 85 111 110
3 85 110 89
3 111 85 105
3 53 112 114
3 100 122 125
3 122 144 125
3 99 126 124
3 99 102 126
3 144 128 125
3 125 128 104
3 151 111 127
3 127 111 105
3 108 109 150
3 150 109 153
3 152 110 111
3 110 154 131
3 112 158 116
3 112 116 114
3 117 136 118
3 136 134 118
3 162 140 137
3 122 143 144
3 143 169 144
3 127 128 146
3 146 128 147
3 169 147 144
3 144 147 128
3 132 156 157
3 156 113 134
3 117 161 136
3 161 181 136
3 134 136 181
3 183 165 162
3 162 165 140
3 143 166 169
3 166 189 169
3 142 170 168
3 142 145 170
3 146 147 172
3 172 147 173
3 189 173 169
3 169 173 147
3 190 178 171
3 171 178 151
3 194 307 175
3 152 196 154
3 156 200 157
3 200 198 157
3 181 210 134
3 165 188 166
3 291 185 183
3 183 185 165
3 166 188 189
3 188 204 189
3 172 173 191
3 191 173 192
3 204 192 189
3 189 192 173
3 206 207 190
3 190 207 178
3 194 299 307
3 198 200 243
3 188 185 204
3 185 212 204
3 187 205 203
3 187 193 205
3 191 192 206
3 206 192 287
3 212 287 204
3 204 287 192
3 270 208 194
3 194 208 299
3 185 291 212
3 291 289 212
3 289 274 212
3 205 299 215
3 209 216 222
3 209 222 257
3 43 62 44
3 30 47 46
3 58 41 63
3 350 66 47
3 35 68 34
3 57 58 76
3 76 58 78
3 58 63 78
3 79 80 81
3 81 61 79
3 82 64 84
3 84 83 82
3 66 350 87
3 85 89 86
3 53 50 115
3 118 90 68
3 114 91 93
3 93 70 114
3 76 102 99
3 76 78 102
3 78 83 102
3 83 335 102
3 127 105 103
3 130 106 107
3 107 108 130
3 131 89 110
3 131 115 89
3 131 133 115
3 112 115 133
3 112 53 115
3 118 113 90
3 91 114 116
3 121 95 96
3 121 96 98
3 98 123 121
3 98 99 124
3 124 123 98
3 150 148 130
3 130 108 150
3 157 109 132
3 131 155 133
3 158 133 155
3 158 112 133
3 91 116 135
3 117 135 161
3 117 91 135
3 138 162 137
3 142 124 126
3 126 145 142
3 146 171 151
3 151 127 146
3 149 175 148
3 148 150 149
3 152 111 151
3 152 154 110
3 155 131 154
3 118 134 113
3 160 116 158
3 159 135 160
3 160 135 116
3 161 135 159
3 163 183 162
3 162 138 163
3 164 138 139
3 166 140 165
3 164 139 141
3 141 167 164
3 141 142 168
3 168 167 141
3 172 190 171
3 171 146 172
3 176 194 175
3 175 149 176
3 177 149 150
3 178 196 152
3 152 151 178
3 177 150 153
3 153 198 177
3 153 157 198
3 197 154 196
3 197 155 154
3 197 199 155
3 179 155 199
3 179 158 155
3 179 180 160
3 160 158 179
3 301 159 180
3 180 159 160
3 161 159 182
3 188 165 185
3 187 168 170
3 170 193 187
3 191 206 190
3 190 172 191
3 194 176 270
3 196 178 207
3 197 196 207
3 293 179 199
3 293 301 180
3 180 179 293
3 182 301 337
3 182 159 301
3 201 183 184
3 201 184 186
3 186 202 201
3 186 187 203
3 203 202 186
3 198 243 195
3 209 197 207
3 209 199 197
3 209 257 199
3 257 293 199
3 202 289 291
3 291 201 202
3 202 203 211
3 211 289 202
3 211 203 205
3 206 287 276
3 215 208 245
3 195 218 270
3 208 270 221
3 218 243 210
3 210 235 218
3 210 337 235
3 16 5 0
3 18 17 7
3 30 360 17
3 41 40 359
3 352 47 356
3 356 47 30
3 57 41 58
3 352 350 47
3 350 352 67
3 346 55 72
3 96 72 75
3 75 98 96
3 88 87 350
3 342 88 67
3 67 88 350
3 96 346 72
3 98 75 99
3 75 76 99
3 106 335 83
3 109 108 342
3 342 108 88
3 132 109 342
3 113 348 90
3 120 95 121
3 139 121 123
3 123 141 139
3 129 126 335
3 335 126 102
3 106 334 335
3 148 129 334
3 334 129 335
3 153 109 157
3 156 132 113
3 132 348 113
3 121 139 120
3 139 138 120
3 141 123 142
3 123 124 142
3 318 145 129
3 129 145 126
3 148 318 129
3 163 138 164
3 184 164 167
3 167 186 184
3 318 174 145
3 174 170 145
3 307 174 318
3 176 149 177
3 195 177 198
3 182 181 161
3 164 184 163
3 184 183 163
3 186 167 187
3 167 168 187
3 174 193 170
3 299 193 307
3 307 193 174
3 177 195 176
3 195 270 176
3 210 200 134
3 200 156 134
3 337 210 182
3 210 181 182
3 291 183 201
3 299 205 193
3 243 200 210
3 213 289 211
3 213 211 215
3 211 205 215
3 274 287 212
3 274 276 287
3 213 274 289
3 245 214 215
3 215 214 213
3 221 245 208
3 206 216 207
3 276 216 206
3 219 276 274
3 217 274 213
3 217 219 274
3 214 217 213
3 218 221 270
3 216 209 207
3 219 222 276
3 276 222 216
3 220 248 217
3 217 248 219
3 245 220 214
3 214 220 217
3 195 243 218
3 248 222 219
3 245 231 220
3 231 245 221
3 235 231 221
3 218 235 221
3 265 257 248
3 248 257 222
3 273 265 220
3 220 265 248
3 231 273 220
3 301 293 265
3 265 293 257
3 273 301 265
3 231 337 273
3 235 337 231
3 273 337 301
3 130 148 334
3 334 106 130
3 175 307 318
3 318 148 175
3 215 299 208
3 352 52 67
3 52 90 67
3 119 308 362
3 94 358 71
3 57 357 36
3 36 357 55
3 57 72 357
3 357 72 55
3 95 308 355
3 355 308 94
3 39 54 347
3 346 355 71
3 71 355 94
3 364 73 358
3 358 94 364
3 344 101 77
3 101 343 100
3 100 343 74
3 101 344 343
3 343 344 74
3 74 340 100
3 119 338 306
3 119 362 338
3 338 362 137
3 137 362 138
3 138 362 120
3 308 119 94
3 119 364 94
3 37 266 349
3 266 347 54
3 55 326 54
3 349 325 56
3 325 71 358
3 97 340 364
3 364 340 73
3 100 340 122
3 122 340 97
3 349 320 37
3 37 320 354
3 349 56 320
3 320 56 354
3 326 71 325
3 325 349 326
3 319 345 59
3 122 314 143
3 122 97 314
3 314 97 306
3 39 347 312
3 38 311 42
3 42 311 60
3 38 319 311
3 311 319 60
3 354 310 345
3 345 310 59
3 354 328 310
3 310 328 59
3 120 308 95
3 120 362 308
3 351 73 74
3 73 340 74
3 40 316 36
3 36 316 57
3 40 41 316
3 316 41 57
3 37 315 266
3 266 315 347
3 37 333 315
3 97 364 306
3 306 364 119
3 36 303 39
3 39 303 54
3 36 55 303
3 303 55 54
3 42 256 38
3 140 338 137
3 23 298 9
3 9 298 22
3 23 312 298
3 298 312 22
3 345 305 354
3 354 305 37
3 345 333 305
3 305 333 37
3 71 296 346
3 346 296 55
3 71 326 296
3 296 326 55
3 73 294 358
3 73 351 294
3 294 351 56
3 345 292 333
3 292 324 333
3 315 288 347
3 315 333 288
3 143 314 284
3 284 314 306
3 22 279 9
3 22 324 279
3 45 271 359
3 359 271 41
3 45 63 271
3 271 63 41
3 351 275 56
3 56 275 354
3 351 328 275
3 275 328 354
3 359 268 361
3 361 268 23
3 359 40 268
3 268 40 23
3 95 355 96
3 96 355 346
3 22 288 324
3 324 288 333
3 38 292 319
3 319 292 345
3 101 282 77
3 77 282 79
3 101 104 282
3 282 104 79
3 61 336 77
3 59 272 336
3 59 328 272
3 60 304 43
3 43 304 61
3 60 336 304
3 304 336 61
3 54 326 266
3 266 326 349
3 60 264 336
3 336 264 59
3 60 319 264
3 264 319 59
3 344 263 74
3 344 272 263
3 263 272 328
3 74 263 351
3 351 263 328
3 10 353 24
3 9 279 353
3 353 279 24
3 336 260 77
3 77 260 344
3 336 272 260
3 260 272 344
3 324 292 363
3 363 292 38
3 358 294 325
3 325 294 56
3 10 24 258
3 143 284 166
3 166 284 140
3 324 363 279
3 279 363 24
3 338 140 284
3 284 306 338
3 9 262 23
3 23 262 361
3 9 339 262
3 262 339 361
3 24 363 256
3 256 363 38
3 39 302 40
3 40 302 23
3 39 312 302
3 302 312 23
3 347 297 312
3 312 297 22
3 347 288 297
3 297 288 22
3 25 255 26
3 26 255 42
3 25 256 255
3 255 256 42
3 254 1 3
3 9 327 339
3 9 353 327
3 327 353 10
3 43 329 42
3 42 329 26
3 43 44 329
3 329 44 26
3 106 317 107
3 107 317 87
3 46 309 28
3 309 269 28
3 28 269 27
3 309 45 269
3 269 45 27
3 361 290 359
3 27 45 290
3 290 45 359
3 3 13 252
3 64 261 84
3 66 87 261
3 57 277 72
3 72 277 75
3 57 76 277
3 277 76 75
3 317 84 261
3 261 87 317
3 45 251 63
3 45 309 251
3 251 309 64
3 63 251 82
3 82 251 64
3 84 317 83
3 83 317 106
3 3 247 339
3 339 247 361
3 3 252 247
3 247 252 361
3 66 332 46
3 66 261 332
3 332 261 64
3 309 46 332
3 332 64 309
3 27 250 28
3 27 252 250
3 250 252 13
3 28 250 360
3 360 250 13
3 30 313 360
3 360 313 28
3 30 46 313
3 313 46 28
3 361 252 290
3 290 252 27
3 1 286 3
3 3 286 13
3 1 5 286
3 286 5 13
3 360 285 17
3 17 285 16
3 360 5 285
3 285 5 16
3 339 254 3
3 29 278 44
3 44 278 26
3 29 12 278
3 278 12 26
3 1 253 0
3 0 253 4
3 1 11 253
3 253 11 4
3 20 281 35
3 93 92 281
3 281 92 35
3 117 246 91
3 91 246 93
3 117 92 246
3 246 92 93
3 29 48 244
3 31 242 49
3 49 242 48
3 31 244 242
3 242 244 48
3 93 281 70
3 70 281 20
3 86 240 85
3 85 240 80
3 86 65 240
3 240 65 80
3 48 239 49
3 49 239 65
3 48 62 239
3 239 62 65
3 51 238 50
3 49 86 238
3 62 283 81
3 81 283 61
3 62 43 283
3 283 43 61
3 258 25 259
3 104 280 103
3 103 280 127
3 104 128 280
3 280 128 127
3 14 241 12
3 241 259 12
3 15 237 14
3 14 237 6
3 15 19 237
3 237 19 6
3 92 365 68
3 68 365 118
3 92 117 365
3 365 117 118
3 49 330 31
3 31 330 51
3 49 238 330
3 330 238 51
3 32 300 15
3 15 300 19
3 32 33 300
3 300 33 19
3 14 331 15
3 29 244 331
3 114 323 53
3 114 70 323
3 323 70 69
3 15 228 32
3 228 244 31
3 52 295 90
3 90 295 68
3 52 34 295
3 295 34 68
3 25 267 256
3 256 267 24
3 25 258 267
3 267 258 24
3 53 249 50
3 50 249 51
3 258 236 10
3 236 254 10
3 70 234 69
3 70 20 234
3 234 20 33
3 69 234 32
3 32 234 33
3 4 321 6
3 6 321 14
3 4 241 321
3 321 241 14
3 51 232 31
3 232 69 32
3 249 69 232
3 232 51 249
3 50 230 89
3 89 230 86
3 50 238 230
3 230 238 86
3 323 69 249
3 249 53 323
3 29 229 12
3 12 229 14
3 29 331 229
3 229 331 14
3 31 232 228
3 228 232 32
3 10 254 327
3 327 254 339
3 6 341 4
3 4 341 0
3 6 2 341
3 341 2 0
3 12 322 26
3 26 322 25
3 12 259 322
3 322 259 25
3 7 233 8
3 8 233 2
3 7 16 233
3 233 16 2
3 244 227 331
3 331 227 15
3 244 228 227
3 227 228 15
3 8 226 21
3 21 226 20
3 8 33 226
3 226 33 20
3 11 225 4
3 259 241 225
3 225 241 4
3 259 224 258
3 259 225 224
3 224 225 11
3 254 223 1
3 1 223 11
3 254 236 223
3 223 236 11
3 236 258 224
3 224 11 236
