# vtk DataFile Version 3.0
A great-looking cell
ASCII
DATASET POLYDATA
POINTS 257 double
283.9079031964102 103.34113633812362 92.37046847562497
282.81829481450245 102.2306294154852 90.97565718011612
289.40591234857357 104.4274514157944 87.03871421524516
293.47245336127196 100.86243789040645 95.2088203627176
280.5364329411397 94.77125831248061 87.749058562139
287.9082564891415 98.58125271436461 98.29066554414084
284.95806084871856 97.58103382259677 97.41161051415207
285.0561413596137 101.19164719414246 95.50812450895454
282.1661387614718 97.56499326141007 93.35762928943203
288.0859870953739 104.20118284045714 93.13101225091273
287.4259957231859 105.0220188009969 89.99353260020463
286.93652487915426 104.85829933926277 87.84824743203546
296.36403982797316 93.47031725598413 85.92196959887194
288.63688739589367 102.4407508179842 95.94374503772946
292.38286809913546 79.64834057571001 85.28476316582466
296.550166343933 83.28509854743542 84.55910582661217
287.4456131491419 103.19815245917931 94.76138176054937
289.5954139922509 80.47991369002025 84.28482478931923
297.205234275456 89.06401912432658 96.04003208014063
288.19233602264137 79.66421792495984 87.05450228852784
283.96049560526853 83.4687527000068 90.28374018512324
286.2839099522482 80.66753892925561 93.42633061501573
287.23228955065673 85.59853894988689 98.206603878101
294.7069926031872 100.00258652037986 92.07623865572113
291.3621291881452 80.23350851316054 83.7294482803841
290.14178755471914 103.97280244380289 92.56043929694886
286.86377453673333 79.76461220623085 90.09165794827523
289.3083633805339 81.4134577504774 97.16931783077821
283.0938188131485 88.52519963400971 82.7488612008442
289.25355896922355 93.37531986502499 98.83338593588994
298.6856332669522 83.52239007744959 89.58805287650097
295.52001546971167 97.43130533857983 87.40541783820333
281.25901061522393 93.10911478695573 83.88173258789067
284.3568172752998 82.85310534037966 87.97379417950401
293.4943918997491 99.72658332833288 81.17251963029854
283.29108299961285 90.7260924345129 80.94502515836308
289.7154715141936 78.73853169304337 91.28832847231004
293.33854173387687 82.80700554363128 98.99482534076515
286.48420852132 80.50760381975319 88.07662088265585
286.2666448982703 93.31895279865577 78.23981536189643
296.40974245556527 89.59041200678998 82.31032136700682
283.4568415578347 85.84847185335497 86.13211509998064
292.60445335751734 90.13859485479169 78.90710681676023
286.2030752051716 100.04435461526656 96.91770072063193
285.11703645390736 85.61982548808847 96.6137537635338
286.4913239860622 91.39567107547738 98.25549494975868
288.9884516047376 83.95549148056658 80.74463147459991
285.1107770706017 103.87395681553774 85.94414641741652
286.7913498790032 93.62643485847386 98.62021737416835
284.4804718243259 99.51555180493934 96.0353350377108
287.80013622104144 103.84212106183209 85.07907235023876
298.43560609756594 89.13663290405239 90.15450659410034
291.49501804383436 100.80272986214115 80.60634431096547
283.1694767224248 102.18578936841033 86.99798803826758
296.03201564657047 94.16243625119462 91.95066101803992
291.96985299030706 102.84769803357798 93.78077200622737
282.6808342467411 92.05961699951449 95.60830462375283
282.99670267030876 101.72010121225985 92.8103319594223
291.3372213197899 92.09167612710884 98.9363675392127
282.48093446176733 89.58864889422962 94.03034552833836
298.0772692360931 83.80026547307554 87.33049373443706
283.42234904355513 100.10197147273337 94.18443107642986
294.4567920429089 93.06545806321085 96.53701775787619
285.81258041373866 102.66151418118126 94.9207872736719
282.5459040010754 97.91254902230004 83.80988357665856
294.8464185772254 94.67310477148611 81.58911389271081
291.1269459463823 94.83853443538773 77.94084196089347
287.6565327420729 101.65271342145277 80.61890787110293
290.5943819960082 79.03649256202787 93.44494042209514
283.25867576376794 87.25702194804576 84.3057405635931
280.8736594679389 95.87572634208703 90.82734867000354
293.1491494142652 80.91919200684222 98.34201403948367
289.0067880182865 104.67512382213457 89.20890903968007
284.15274131444477 102.19905896184156 84.86542644324444
292.6907793539047 96.2425980549139 97.63654431738773
291.3311747803906 102.66452727820943 83.02923448161168
282.2912407178498 93.74794753137346 81.79075937967255
285.79232624158334 103.94906951367987 93.46020052809119
288.4694822875035 100.88076014824685 97.10589726575483
296.0621617614838 85.18137152580108 97.05108202486726
283.2341505414953 102.72798798552591 89.18358756399309
287.1184686537031 84.21321869476152 82.04280002029988
290.576787074162 99.65511760851481 97.87001703704824
283.9835776765862 84.7216338797996 94.53138463286345
294.5651017319207 97.9831579672621 82.17346142785648
284.4138760216839 102.23217379590704 93.95705518088893
295.157113247115 99.37368259109044 86.98051988974947
296.1291716308512 81.24283347981066 86.84778452598067
284.5113388012594 94.04731000971974 97.56755322354259
293.6330057017383 78.8866662685157 93.13447511391712
287.80844722860604 97.01619860541858 78.53860844753495
289.38658715167 103.40386805364545 83.3749644830023
285.0709535237541 104.49005644153792 91.67234508328104
291.12087457682804 78.90517215079447 88.26891218692167
290.1438812599417 89.25738938440054 78.56728786498638
290.9169000624531 98.89547064783147 79.57768218589473
287.2538862172724 95.6862758693454 98.54362963281775
283.33943003315625 99.70567461770827 83.31487687279804
285.8017203397752 102.8514610638218 83.85268775109961
282.0249427476594 98.92181646239382 85.53719191881856
290.86417764611707 86.91119732833391 79.44895737202957
294.14444596343986 95.73066216192034 95.95845098165232
289.385605985678 82.08403720320182 82.47813733999348
283.80104342250087 84.34418659366682 92.30044126692182
295.9390504037049 90.90478260358539 95.7941811936171
283.24686535472375 85.59493905646583 89.67229354283926
296.0247716525565 94.75029662181588 89.36280172569771
289.813121572303 86.08195538567172 98.4793794877336
290.4711077328138 104.08901951847245 90.56635650323902
295.8006748210038 86.84702366932635 81.99546836736226
291.8013551126506 78.7576485923179 90.43902417112712
281.21648651125946 95.13671997505215 84.5349540709268
293.45888360149166 79.34479410810816 87.42648627024153
289.4051215009913 91.65870288808766 77.86044591511667
285.7574563219853 100.51349094004303 81.13641905616166
295.14488345393636 88.84594037735492 80.94557329903769
299.3963583968704 85.78375541625185 89.41541634315617
290.459777904694 96.92098484770331 78.73472049390362
294.53843347867365 98.35705528512011 94.79636266102746
297.5251098612389 83.46786540988481 95.36750867435762
280.67968168983396 90.47664929223323 85.61398938939668
296.9903092304667 92.0989661301506 91.67715643425197
287.61447722486326 88.54318843298546 78.78503542761605
285.4568071916798 82.7413787801827 94.55153495131108
284.92426493816396 90.63782292579891 79.5451871006649
294.54553851555653 91.18262221641939 80.29921639625722
294.9157440253159 79.51573065079093 90.41023128091014
296.15176026444595 92.23906401137806 83.11005821545288
295.530403579706 96.03932890671372 84.67343064309506
293.95605178115164 101.80072701035317 89.52933910284297
284.65579002764963 86.06335750320721 82.89059339332063
281.6138779130096 97.96424139940825 91.31754473830301
280.4724062028509 92.50411382368989 85.8125260037164
288.82937184100564 99.50576634995622 79.5103021046814
295.8213832319782 94.14051765222149 83.79826217474174
282.1837631486966 95.91327121300218 82.69744765412392
287.8665552028904 83.4145887356603 97.17472499107274
280.59170517435456 93.73645538839142 91.93011978663051
296.3542208427672 84.99941008178915 83.25780274002426
284.01589148800645 103.8085091812185 90.43088797918368
295.7826226747008 95.41362091522599 86.84655469798942
280.06626828150974 92.60529938073188 87.88279292260738
294.50618695583375 79.65914756888569 96.1035422254056
297.13566913727624 81.65438244532373 89.71300456167248
280.5287881435831 90.6943423416946 90.52394635922052
288.36541611678234 86.22037149023575 79.6477690886933
296.37555415237244 80.91581841340549 93.27369197889945
294.0320005094583 96.61667705118471 80.52630170910729
292.76447577384573 98.17432367841843 79.94009573469161
292.41339477209215 88.02837963512692 98.48276100194892
297.9639431642074 89.69752718423358 93.83068588335769
287.6830466061308 80.9808244666085 85.20679560273247
285.10373724246296 81.33460246933997 91.15215011715064
286.77328812791217 104.86083439888546 91.66782674204536
298.13010057649444 86.82958195507719 95.74407807377113
297.57227238772924 86.34067787943802 84.95729405760451
286.8900542222662 101.84071143311377 95.98952184841036
293.80763193112665 93.4807802335975 79.58070266161947
286.1189261702554 85.96568168336005 80.88136738324832
284.4559234629714 104.04787837277087 88.34099800813125
292.44880061317855 78.90450870304348 94.95799128943372
280.2195627850714 92.81749693716532 89.98622770221121
291.8024891992673 92.4870398914514 78.37506578286406
284.4697596178781 91.68631672966865 97.0266428627976
292.6992345192497 103.06976250241692 87.7937142729719
289.92648897530495 89.9722437181011 98.74468901070576
281.6037267761412 94.48537224141796 93.84293648458038
281.9906789348376 99.79302346363389 87.07041806913077
294.1835721025709 80.8823004932008 84.2557013376424
292.493679498914 94.09548132902358 98.22397861913903
290.8607919323069 103.95070907958008 88.56910847666866
288.6884385515316 104.63961157737954 91.2197838371642
295.70263417410615 93.4308245268563 94.08511566057322
291.55698213492883 84.60173497816906 80.52341743204222
297.0513766518624 88.18453866580967 83.54329279673445
286.1386182621709 102.02688542467085 82.10325735904979
295.3892823564128 96.33907861218412 92.65509200017516
292.84102772550347 95.36557858219436 79.31878472043084
287.793030497799 79.55377393788376 92.03754258028835
295.3363029737197 88.041688472313 97.31308589085052
294.03795130394843 85.62857240392093 80.7280810782972
283.0834699309615 86.33166977568182 91.73842747071726
281.58363590742925 97.36333334738438 86.6782707671352
295.58902806767696 80.20975539402366 88.55224523772414
285.5477667570958 83.28775890176269 84.7434708296788
296.7326142626865 91.58700936599477 93.88737870418139
295.4455133538099 82.46721280551246 97.80838050837872
293.6268268602856 100.90653302252313 83.26150893287368
288.97798213001766 79.21314615101721 89.16097227867594
281.7905576313057 88.46232688247689 91.13662579229569
281.0218078544404 91.61284693446738 92.61851358858742
285.77469047467105 81.67391430740743 86.37390319127891
283.63010948431577 96.5139128032956 81.1904782331864
285.64112236263117 104.92814568478136 89.98291038886694
294.7507428013643 83.72771489988273 82.02393724878127
285.60564554484904 95.35168931590297 78.9887036183488
293.25639428573345 90.91583209008434 97.95680868801783
282.7120593656195 94.18649085861723 95.88662468283718
290.7319448003654 101.59687705495179 96.01212079896449
293.27469851994584 87.82902871826889 79.78777080471421
286.90750750083515 100.19166491828031 79.93383352790006
282.89358387921226 100.37316604912834 84.86306954685
281.8214401198305 88.5759180903559 85.43142326205977
295.08230294785096 98.93514194423695 85.1231833641458
298.8837465880991 87.91027756246928 87.31398445859563
291.088433845919 79.82199099222748 96.66308313786652
281.5568619628812 98.38925824279106 89.34691754825666
282.20006573694064 99.91005341725001 91.65353272827446
295.0329766055745 99.65640255014824 88.79130257178356
287.26643779410347 82.44318276201619 83.445921379212
297.6010107222238 89.98087709134236 85.30618544673204
281.5530426434921 91.02216032325705 83.59400638332988
291.0324739243596 82.71234553661571 98.2545381602281
290.258113166581 79.25877679868798 86.13773763753149
283.53652766198945 86.91850560793625 93.81221207548394
293.2651203571173 102.43535928956436 91.78014920841568
289.45428517778834 101.31123507632958 80.24688438284132
281.07075292743536 96.62538870288162 88.64984706982413
296.32224972283376 81.37767666821335 95.80461809540142
292.38344670435333 102.73869346847754 85.37057563919565
286.9228819657741 90.94202254467758 78.19148175862618
291.2215893046369 103.79558463695663 86.74262715827639
283.03931700429143 96.06540851809962 95.7344382933606
285.51815447036836 88.385413673704 80.33247834197854
295.4744276197644 97.6729286501044 90.07194145794875
290.51366891675985 96.61510604954252 98.31646260038953
282.16095851438223 87.75674304707688 88.09121523465933
293.3965472962736 85.06710818253414 98.27063450678331
293.20945230564865 98.4589713377014 97.42009320403663
299.43161800675006 86.8187748098993 92.67707261549874
284.37517937036347 101.16116408322439 82.9822628622745
291.7007072285975 103.49423285875388 91.76942331936324
293.7121584511247 101.82600822795135 93.3224564124594
283.3342088107325 98.26481045734724 95.53667265562596
289.52531236803765 103.14916730579776 94.42999845077084
286.9567685816872 87.9689204535908 98.2888861237561
292.31719817526476 103.40145231973783 90.01518785798955
298.38152379600245 89.784745673442 87.75933259050761
284.445574427741 89.30307927619951 96.32118915203264
298.7440809184506 83.60961548060848 92.09849608922549
299.24402541056253 84.98672768092669 94.28553947066176
288.2183623875677 80.76849404639123 95.05268344258596
284.4492828824054 92.74901143121565 79.35546664469027
292.2527877728167 100.5612364748382 97.09679606231015
292.3257857052222 82.01862285277753 82.22802312467734
288.6332504085643 94.13509056752585 77.76311722053788
280.5722954592442 90.32942898115401 88.05684496142175
297.45206529334155 91.61210562856012 88.36239726511035
289.5725458911198 102.38746631590222 81.58105501578262
282.2518692213666 100.97181835927371 89.2044373695198
284.0842435580787 99.12797246158931 81.90611361442832
287.6817317980886 103.00250233686302 82.6246782848161
290.29648721794047 103.63419564193208 85.07290429508286
285.89725532669917 98.44588169901319 79.86705541889218
294.4181299629444 101.24497800272827 86.62650121174255
283.74386470899856 94.66451506065536 80.0793810145834
299.06085921178783 85.84869323709827 87.00779397540569
POLYGONS 510 2040
3 92 139 0
3 159 139 193
3 139 92 193
3 77 9 153
3 92 153 193
3 193 153 10
3 0 77 92
3 92 77 153
3 77 16 9
3 0 85 77
3 156 16 63
3 63 16 77
3 207 57 1
3 57 85 0
3 1 57 0
3 85 57 61
3 61 57 207
3 11 47 159
3 0 139 1
3 139 80 1
3 231 25 55
3 156 13 16
3 16 13 234
3 78 198 13
3 13 198 234
3 164 219 221
3 221 219 252
3 171 153 9
3 72 170 2
3 153 171 10
3 234 9 16
3 55 215 231
3 78 156 43
3 78 13 156
3 207 8 61
3 231 108 25
3 171 108 72
3 61 7 85
3 7 43 156
3 171 9 25
3 25 9 234
3 77 85 63
3 43 5 78
3 91 251 50
3 63 85 7
3 7 156 63
3 198 3 55
3 50 251 98
3 80 159 53
3 219 75 252
3 252 75 91
3 252 2 221
3 72 2 11
3 207 131 8
3 8 131 70
3 207 206 131
3 131 206 70
3 98 47 50
3 50 47 11
3 61 49 7
3 7 49 43
3 128 203 31
3 55 234 198
3 55 25 234
3 201 53 73
3 70 166 8
3 98 230 73
3 53 249 80
3 80 249 1
3 139 159 80
3 50 252 91
3 50 2 252
3 221 2 170
3 55 232 215
3 215 232 23
3 55 3 232
3 232 3 23
3 25 108 171
3 11 2 50
3 221 170 164
3 73 53 47
3 47 53 159
3 5 6 96
3 96 6 88
3 64 111 182
3 111 4 182
3 8 233 61
3 6 49 233
3 233 49 61
3 166 222 8
3 222 88 6
3 182 217 206
3 206 217 70
3 182 4 217
3 217 4 70
3 206 167 182
3 206 249 167
3 167 249 53
3 5 43 6
3 43 49 6
3 233 8 222
3 222 6 233
3 67 114 175
3 72 11 10
3 170 72 108
3 215 236 231
3 236 164 170
3 72 10 171
3 114 250 230
3 114 253 250
3 73 47 98
3 73 230 201
3 193 11 159
3 201 167 53
3 1 249 207
3 207 249 206
3 11 193 10
3 187 254 203
3 67 216 133
3 133 216 52
3 67 248 216
3 216 248 52
3 164 236 129
3 129 236 215
3 208 254 129
3 231 236 108
3 108 236 170
3 101 172 176
3 169 225 29
3 148 177 117
3 4 161 70
3 238 214 44
3 133 200 67
3 67 200 114
3 133 253 200
3 200 253 114
3 253 195 192
3 251 248 67
3 190 144 189
3 189 144 246
3 190 161 144
3 144 161 246
3 175 98 251
3 251 67 175
3 251 91 248
3 91 75 248
3 70 137 166
3 166 137 190
3 70 161 137
3 137 161 190
3 248 75 52
3 75 187 52
3 250 253 192
3 192 64 250
3 246 120 202
3 202 120 211
3 246 132 120
3 120 132 211
3 111 132 4
3 202 226 246
3 246 226 189
3 226 105 189
3 98 175 230
3 230 175 114
3 64 97 250
3 250 97 230
3 64 201 97
3 97 201 230
3 29 225 96
3 96 225 5
3 210 127 12
3 127 125 65
3 169 62 101
3 101 62 172
3 62 104 172
3 101 118 228
3 228 118 3
3 101 176 118
3 107 212 227
3 254 86 203
3 203 86 31
3 254 208 86
3 86 208 31
3 203 84 187
3 176 224 23
3 176 106 224
3 224 106 31
3 65 157 177
3 177 157 162
3 65 125 157
3 157 125 162
3 4 141 161
3 161 141 246
3 4 132 141
3 141 132 246
3 182 99 64
3 64 99 201
3 182 167 99
3 99 167 201
3 5 82 78
3 5 225 82
3 82 225 228
3 130 81 184
3 225 74 228
3 228 74 101
3 225 169 74
3 74 169 101
3 162 66 177
3 177 66 117
3 162 245 66
3 66 245 117
3 78 82 198
3 165 58 29
3 29 58 169
3 165 196 58
3 58 196 169
3 23 129 215
3 23 208 129
3 190 56 166
3 150 51 121
3 195 255 192
3 192 255 76
3 195 242 255
3 255 242 76
3 123 103 152
3 45 165 29
3 254 187 219
3 219 187 75
3 129 254 164
3 164 254 219
3 64 135 111
3 111 135 76
3 64 192 135
3 135 192 76
3 65 84 128
3 128 84 203
3 116 229 239
3 150 154 229
3 145 122 94
3 94 122 220
3 145 223 122
3 122 223 220
3 117 90 133
3 133 90 253
3 90 195 253
3 184 41 130
3 31 140 128
3 128 140 12
3 31 106 140
3 140 106 12
3 169 196 62
3 62 196 104
3 238 59 214
3 238 56 59
3 59 56 190
3 172 54 176
3 176 54 106
3 172 121 54
3 54 121 106
3 88 48 96
3 96 48 29
3 88 45 48
3 48 45 29
3 199 42 125
3 125 42 162
3 199 94 42
3 42 94 162
3 125 127 40
3 40 127 210
3 195 39 242
3 242 39 220
3 195 245 39
3 39 245 220
3 242 35 76
3 76 35 211
3 84 34 187
3 187 34 52
3 84 148 34
3 34 148 52
3 44 235 238
3 165 45 235
3 235 45 238
3 132 32 211
3 211 32 76
3 132 111 32
3 32 111 76
3 211 28 202
3 28 223 130
3 220 113 94
3 94 113 162
3 220 245 113
3 113 245 162
3 35 223 28
3 28 211 35
3 177 147 65
3 65 147 84
3 177 148 147
3 147 148 84
3 12 134 128
3 128 134 65
3 12 127 134
3 134 127 65
3 166 197 222
3 222 197 88
3 166 56 197
3 197 56 88
3 44 83 123
3 123 83 103
3 44 214 83
3 83 214 103
3 148 95 52
3 52 95 133
3 148 117 95
3 95 117 133
3 195 90 245
3 245 90 117
3 198 243 3
3 3 243 228
3 198 82 243
3 243 82 228
3 3 118 23
3 23 118 176
3 145 158 223
3 223 158 130
3 145 81 158
3 158 81 130
3 12 247 210
3 121 51 247
3 23 224 208
3 208 224 31
3 107 136 212
3 44 123 136
3 107 165 235
3 116 204 51
3 204 155 210
3 194 180 109
3 109 180 199
3 194 173 180
3 180 173 199
3 103 181 105
3 105 181 189
3 103 214 181
3 181 214 189
3 102 209 81
3 81 209 184
3 102 151 209
3 209 151 184
3 172 185 121
3 121 185 150
3 172 104 185
3 185 104 150
3 104 196 179
3 214 59 189
3 189 59 190
3 238 163 56
3 56 163 88
3 238 45 163
3 163 45 88
3 227 149 107
3 107 149 165
3 149 196 165
3 239 146 143
3 223 124 220
3 220 124 242
3 223 35 124
3 124 35 242
3 205 241 68
3 199 100 94
3 94 100 145
3 199 173 100
3 100 173 145
3 112 93 213
3 213 93 188
3 112 110 93
3 93 110 188
3 142 89 146
3 89 68 110
3 119 146 239
3 194 244 173
3 173 244 102
3 194 168 244
3 178 68 241
3 146 126 143
3 146 89 126
3 126 89 110
3 143 87 60
3 87 112 168
3 186 79 227
3 154 179 79
3 79 179 227
3 205 71 212
3 205 142 71
3 71 142 186
3 173 46 145
3 145 46 81
3 173 102 46
3 46 102 81
3 33 38 152
3 212 37 227
3 227 37 186
3 212 71 37
3 37 71 186
3 68 36 110
3 110 36 188
3 68 178 36
3 36 178 188
3 239 30 116
3 116 30 60
3 239 143 30
3 30 143 60
3 112 126 110
3 109 174 155
3 155 174 210
3 109 40 174
3 174 40 210
3 123 241 136
3 146 218 142
3 142 218 186
3 146 119 218
3 218 119 186
3 68 160 205
3 205 160 142
3 68 89 160
3 160 89 142
3 212 27 205
3 205 27 241
3 212 136 27
3 27 136 241
3 152 26 178
3 178 26 188
3 152 38 26
3 26 38 188
3 102 244 24
3 24 244 168
3 184 33 41
3 41 33 105
3 107 22 136
3 136 22 44
3 107 235 22
3 22 235 44
3 152 21 123
3 123 21 241
3 152 178 21
3 21 178 241
3 202 69 41
3 41 69 130
3 202 28 69
3 69 28 130
3 188 19 213
3 213 19 151
3 188 38 19
3 19 38 151
3 103 20 152
3 152 20 33
3 103 105 20
3 20 105 33
3 196 149 179
3 179 149 227
3 104 18 150
3 150 18 154
3 104 179 18
3 18 179 154
3 102 17 151
3 151 17 213
3 102 24 17
3 17 24 213
3 60 15 155
3 15 168 194
3 213 14 112
3 112 14 168
3 213 24 14
3 14 24 168
3 150 229 51
3 51 229 116
3 121 247 106
3 106 247 12
3 154 240 229
3 229 240 239
3 154 119 240
3 240 119 239
3 155 256 60
3 60 256 116
3 155 204 256
3 256 204 116
3 51 237 247
3 247 237 210
3 51 204 237
3 237 204 210
3 202 41 226
3 226 41 105
3 87 168 15
3 15 60 87
3 151 191 184
3 184 191 33
3 151 38 191
3 191 38 33
3 143 183 87
3 87 183 112
3 143 126 183
3 183 126 112
3 155 138 109
3 109 138 194
3 155 15 138
3 138 15 194
3 125 115 199
3 199 115 109
3 125 40 115
3 115 40 109
3 154 79 119
3 119 79 186
