# vtk DataFile Version 3.0
A great-looking cell
ASCII
DATASET POLYDATA
POINTS 196 double
338.7497807815271 35.27698261744058 42.003783771105056
338.3632641152274 37.80135737441531 41.704493326799415
339.43335538047586 32.74057675415063 42.78968418571387
336.208059916203 36.156305536733754 41.57276170090219
340.3376754499815 36.910135340559684 42.28892566271874
333.59619349417625 34.505982744856915 42.396819460173376
339.94584417154965 38.60185146382328 42.99990600129425
341.81232877669146 37.564702098692 44.233238630707966
334.41780066624113 31.26239065960508 42.76061194320699
333.40179804345996 39.49592789080874 42.78921442656966
335.65238431102415 41.420865671404776 43.637497447037745
340.3423016587387 40.06230017766036 44.59078065123798
335.74617599995105 24.820765034821115 48.861694028475355
340.9410698709382 28.038793509124172 45.487764040137975
332.09145711169737 29.497147070037695 44.5105675888142
327.5921976853954 37.090619636707025 46.62203655359498
340.3149965194207 41.15560505180913 46.687184289778024
338.25461453875505 42.06482195975151 45.20025659819305
328.89331886244975 30.419591791182413 47.403726381770824
327.0449084399543 35.4792327250721 48.55101514274017
327.63727122172867 38.54189837584189 49.1270649374472
341.40018529354904 40.98697891481861 49.222070591357856
345.54276670853744 29.685080911617984 54.401702125131
344.7733332102054 37.34450963570919 51.298889302307764
343.21604129367773 39.78837029268147 51.48412623029122
339.2196254214016 42.360243871470274 50.818246388683555
340.38098551165183 24.311312578233448 54.858387081081105
333.41684748884734 24.66380293458638 52.7106514753404
344.12914179879766 38.674666279936815 53.23876201093851
327.8701754162728 38.09164249017801 55.429536939514826
342.88679219170376 40.43083297231244 54.152808057359685
334.8129357790903 42.81829585249785 56.37469595360587
335.2226937585198 23.912524858330816 54.57888450930091
337.6765683774827 24.056696553363288 56.31110456601682
344.9860115309793 31.392485255182823 56.717616833105026
326.7212509244408 35.89580742967591 53.56438252501716
327.7673519203611 34.95885810776501 56.754034198840856
329.59354672710396 35.239354973023254 58.8971529192793
329.3995130027454 37.52848820313811 57.97173250172189
344.2097219251994 38.585857550611024 55.36247534230332
332.12092226579773 41.64191732535247 56.80872260366108
334.42061370544224 40.87635930957581 58.73347142761008
340.2060638500601 41.2930882084779 57.65219660305901
334.9012019779138 25.315098622149424 57.38514906622374
340.2853573735154 24.80120243921082 58.059106566512234
332.92116798547164 27.173690532675206 59.00805361456163
341.83537461603385 27.662696678647485 58.547000033955186
329.2172545048361 32.95744360500289 58.6062581522717
331.09877045008255 33.90917075590089 60.2392408891567
331.58713046755713 36.55789161875657 59.659712724428225
334.069959869311 38.17788740995655 60.25856074098267
331.8195573001956 39.21397922894217 58.45318389854113
336.7804286689599 40.030197158150905 61.03332477646441
337.60348429299523 41.79929633430845 57.9477929475717
343.25849171853883 30.493644882370834 59.0468242998406
340.2615930745322 30.012074093594702 59.76592905080795
329.79544994750506 30.451591604734535 57.86429150379778
344.10594799402367 33.75873012211085 58.68822727299777
339.98036717023865 40.494566573201865 60.02973665001108
331.9938078370962 29.90834719218398 59.13661356487385
332.9533157746559 31.98211864800393 60.46552413505448
333.95782528672515 34.96531715738447 61.35459524136787
339.8692661920739 34.39036699573651 61.40675551332088
338.9639876114212 27.257606281161827 59.6426616684721
337.3928876214044 29.63775600961449 60.66996284224872
334.45985321574534 29.62870112534451 60.13833882328093
337.3044422193121 34.6916003798946 61.36516087817663
342.5740592467826 30.196796404393503 45.41241528562576
336.4331006704286 43.49226944225223 47.028124440026524
345.9742996500702 34.85353327301122 54.457355886782864
344.89280683193107 36.63431961251821 48.81437848476945
345.2666817109382 33.732386003082304 56.192190393491565
330.2995135404757 29.821227073558525 45.93936576450342
331.41163175421974 43.44434475238257 47.93742844147072
328.3128006165965 29.975863758258626 56.67257426821194
329.76142325880994 40.00595108509365 56.514869102470655
345.0271912077843 36.2368685630026 56.623461796577466
330.8199868726443 31.712470775955694 59.56973541815324
330.88118254725674 26.85933653448011 49.63371789608768
328.777478035722 39.48207501531085 46.32213282472568
342.63129511274474 25.587508577660355 52.74005872387883
343.87068589141364 32.41112031296515 46.06614157323621
343.1946091564356 28.194910105338476 47.08698333509329
332.4506217908593 43.63477559628207 54.77932386516463
337.4513062028525 25.099698949141807 58.822617306382654
330.10073236326684 27.118455100006692 52.01760070956155
346.05585573351595 31.29667971408101 51.539424362450184
327.4818596734976 38.897219085590066 52.316312335768025
330.20800072745016 42.02261431731857 54.72499756403219
344.8667978297739 28.05975469175443 51.936854867946145
328.4177743564367 40.412130371282316 54.38435666919616
344.4127600764863 27.254329823183078 54.47103943207987
327.7786015004873 30.0486027193857 54.70027522256963
342.09042393642716 39.47311367518712 46.605204002680146
326.8953837812033 32.86203527239771 54.30638909152994
346.17794074813906 33.74997612474974 52.62649935306043
343.17368147900544 34.9007706373074 44.996623135046235
333.88515811791143 24.797071930111354 50.526880189619526
335.7798454870829 32.16237389128776 60.973657068028096
345.46330121050175 32.04094035659069 48.363035202943806
337.896763357765 23.75640181116548 53.399443960671775
330.70267235359717 43.517712769404 52.98846148778264
341.4850172811258 32.68007350836996 60.26699058082939
330.73802006748207 39.68435392770728 43.984236738957286
328.0122167433895 31.82033793805968 56.64741518436208
329.7643057141048 31.702707376373443 45.01662995688047
329.2573710131129 37.07407279017242 44.52940657774615
334.1122279399949 37.254798597697054 42.05064094278835
327.42733757947406 32.70873036241224 48.1316007467047
328.2631749521107 34.343357694859066 45.92427211921823
346.1012485298852 32.415756212371726 54.418888403508724
328.33466904791874 32.19478940513581 46.4606845383871
330.93734627374624 28.073858096483125 47.24245244927933
327.6071600317746 30.774769262856704 50.06985795069913
330.64728612013494 43.67267598813088 50.55692564459928
338.1847565311151 24.153717756377873 50.64289749367079
336.50698888298786 26.307211636496582 46.210198168229944
339.34292870747254 37.33454002697514 61.497005095440045
342.23712178908096 35.50112167635597 60.87620473065441
335.1505510881699 44.20019112383151 51.09726908940953
332.9995851039779 25.96242086319689 48.58330428386039
329.12949447723554 41.49679880610807 48.86040985003903
331.941836909844 25.529216073298265 51.0304350637879
335.64459039517703 23.837953931056184 51.70260761640419
343.3285813778408 26.657064888948163 49.5889563889336
340.8703679393053 24.929404350183912 50.02135183310649
332.81634717838375 44.19126159786584 52.16362589257977
330.6345917395056 41.743765614384195 46.03541127636385
338.69380234958754 24.977596200971274 47.97177958134807
336.649790171648 33.33474419437427 42.043106854295715
343.8925599527279 38.61199386874909 57.804995534074294
335.1818475754892 44.10478039298088 48.94774416796064
344.5138292669297 30.240738491230598 46.83819940517071
331.9276824867214 32.1889651479999 43.35216866102758
342.1900625468773 38.34758494602425 59.97242683679199
332.7080934231096 25.310148823419976 55.297013979688906
331.41313596479324 26.829564776264334 56.852810932400196
329.16764374312476 28.502318800168478 49.65054104852406
334.58453435595123 42.97213490268933 45.42269920409653
331.7800317681457 37.10019595172926 42.90127399247793
339.2463534757553 26.361026471344054 45.994023178029096
328.72972381098145 41.85728840826192 52.108285691205246
340.0528020773695 24.380533043065455 52.31553210664625
337.1986237948992 43.21629546055515 52.28373802292695
333.8654059228098 43.848279717827765 47.4092925211692
341.3337692615875 26.059034973322326 47.38738562060358
328.2683550275969 29.149288631382902 52.126291884700045
333.65863158837874 27.15652500399778 46.15297548566855
340.34916417691596 30.122368017846707 43.67808436250985
332.7718035714294 41.73521039849816 44.256488142873124
344.7356939232281 34.646670642250115 47.39612742436436
335.9646792873388 38.89465936676133 41.988450085278025
335.9761885803241 27.233008491853443 59.502077019810024
326.8921685939466 33.617170967460716 51.12518649257678
344.9295641815485 29.247135344037975 49.11920056181117
339.26167305732065 42.258395159845065 53.39880721580183
341.53144802709085 41.043895533922125 56.09104419762383
341.24827931734376 41.376684613096835 52.22541051919462
334.67364342705014 25.88818948822211 47.34393941386133
339.5056904064372 41.88102691034971 55.74741754598814
338.6423398011957 32.3258791437384 60.47388868013618
331.5648195672852 25.62133990896384 53.14871260104188
343.65832248174985 38.80255815535972 48.92692232554457
337.30961960584494 42.88247354557141 54.96779127337174
344.42867602663904 28.416809730426625 56.94685644510228
335.0125916274481 43.79475042680121 53.683566393642096
345.1510138615424 36.959186155133985 53.92080244288027
328.9929992300339 28.101537020005082 53.97122505341442
336.20693534791405 37.10807282931458 61.64588853344127
337.4870160469266 30.38435979972894 42.566939686496085
340.92777783628674 41.482961133155584 54.32816430199232
345.7002701558484 34.520121704153716 50.30173804698407
342.12611502837166 40.36861022482935 58.2049756995987
338.1988355013089 40.04319228173444 43.06445412619908
329.3896835859361 28.41391943002517 56.27007459075045
343.96420950765685 36.58280197129946 59.12998503904976
330.51021005635516 26.688196326058602 54.640711898621305
335.3365253000847 28.46756151655629 44.04416896566243
327.8312473299376 40.38777197817467 50.54591771743445
327.33258110332747 31.24191507078906 52.46062938658822
343.7300847993247 37.156280016058716 46.63562196259023
330.8158032451857 28.370261947187263 58.145372055356134
333.13177858036033 44.30430188622393 49.64554887600945
343.1415759923168 40.02228260115605 56.35981187264794
342.8036250244137 25.80506892050323 56.164455596323336
326.7779077184263 36.544476985733446 50.90836484290564
332.52371479519076 43.10179511112412 46.00220354437613
338.3924353337614 27.906243205663014 44.2028187176722
336.27807061367895 42.705392974534746 45.17921180684963
338.92108289738167 42.488828571530114 48.075110867320674
345.77924439349067 35.56634922836141 52.49928266577343
337.09057801429134 43.472253195308745 49.706398502723495
332.7558466497742 25.707844209617193 57.37454889941413
341.97607711074255 32.493475102545524 44.0505264092615
330.5512092414201 34.443869992646526 43.69891690044854
341.1357812653318 34.956086433607034 43.081154921095084
POLYGONS 388 1552
3 151 173 1
3 8 177 14
3 9 103 149
3 103 127 149
3 47 37 36
3 33 26 44
3 37 48 49
3 37 49 38
3 38 49 51
3 51 49 50
3 48 61 49
3 52 58 53
3 48 60 61
3 58 52 117
3 55 64 63
3 63 64 152
3 65 98 60
3 102 118 62
3 57 118 102
3 60 98 61
3 64 98 65
3 102 62 160
3 160 62 66
3 0 1 4
3 3 151 1
3 4 1 6
3 173 6 1
3 4 6 7
3 10 17 173
3 47 48 37
3 51 50 41
3 41 40 51
3 50 52 41
3 50 49 61
3 63 152 84
3 64 65 152
3 60 59 65
3 66 61 98
3 160 98 64
3 64 55 160
3 55 102 160
3 160 66 98
3 33 84 43
3 46 63 44
3 11 17 16
3 68 191 189
3 189 191 25
3 16 189 21
3 21 25 157
3 21 189 25
3 53 42 159
3 157 25 155
3 172 156 42
3 6 11 7
3 28 30 39
3 68 189 17
3 17 189 16
3 30 157 170
3 52 53 41
3 41 53 31
3 172 42 58
3 58 42 53
3 170 159 156
3 156 159 42
3 17 11 173
3 173 11 6
3 151 10 173
3 8 169 177
3 8 129 169
3 129 5 3
3 169 187 177
3 177 147 14
3 14 133 8
3 2 169 129
3 1 0 3
3 18 113 108
3 155 159 170
3 170 156 30
3 116 128 12
3 18 112 137
3 120 112 147
3 147 112 14
3 128 116 140
3 140 187 13
3 13 187 148
3 187 116 177
3 177 116 147
3 148 169 2
3 148 187 169
3 116 187 140
3 195 2 0
3 24 28 23
3 23 28 166
3 162 24 23
3 157 155 170
3 16 93 11
3 11 93 7
3 130 172 134
3 47 104 56
3 87 185 35
3 35 185 153
3 15 19 20
3 4 195 0
3 195 193 2
3 2 193 148
3 3 0 129
3 0 2 129
3 117 168 66
3 66 168 61
3 168 50 61
3 108 19 109
3 109 19 15
3 3 107 151
3 3 5 107
3 107 5 139
3 15 106 109
3 50 168 52
3 52 168 117
3 5 194 139
3 5 133 194
3 151 107 9
3 9 107 139
3 139 103 9
3 139 106 103
3 139 194 106
3 106 194 109
3 129 8 5
3 8 133 5
3 14 105 133
3 133 105 194
3 194 105 109
3 55 54 102
3 102 54 57
3 62 117 66
3 87 20 185
3 59 45 65
3 65 45 152
3 33 100 26
3 33 32 100
3 115 142 100
3 100 142 26
3 12 97 120
3 120 97 122
3 27 32 135
3 44 84 33
3 44 63 84
3 63 46 55
3 41 31 40
3 103 106 79
3 79 106 15
3 103 79 127
3 127 79 121
3 20 79 15
3 9 10 151
3 32 33 43
3 46 44 184
3 184 91 164
3 164 46 184
3 157 24 21
3 21 24 162
3 128 125 115
3 115 125 142
3 36 38 29
3 38 75 29
3 36 29 35
3 35 29 87
3 153 185 19
3 19 185 20
3 37 38 36
3 141 88 101
3 29 90 87
3 87 90 141
3 141 101 114
3 40 83 88
3 121 79 20
3 141 90 88
3 75 90 29
3 40 75 51
3 51 75 38
3 28 39 166
3 166 39 76
3 108 153 19
3 60 77 59
3 59 77 56
3 60 48 77
3 56 77 47
3 47 77 48
3 195 7 96
3 70 180 162
3 180 93 162
3 99 150 171
3 132 81 99
3 132 67 81
3 110 71 34
3 4 7 195
3 180 7 93
3 21 93 16
3 21 162 93
3 99 81 150
3 150 81 96
3 57 71 76
3 130 76 39
3 171 150 70
3 70 150 180
3 23 70 162
3 23 171 70
3 7 180 96
3 96 180 150
3 193 81 67
3 114 121 141
3 10 9 149
3 172 183 156
3 172 130 183
3 183 130 39
3 118 175 134
3 134 175 130
3 76 130 175
3 76 175 57
3 57 175 118
3 58 134 172
3 58 117 134
3 134 117 118
3 118 117 62
3 156 183 30
3 30 183 39
3 28 24 30
3 24 157 30
3 100 123 115
3 27 97 123
3 12 123 97
3 153 94 35
3 94 92 104
3 97 27 122
3 32 43 135
3 35 94 36
3 165 126 83
3 73 182 144
3 83 101 88
3 83 126 101
3 40 88 75
3 88 90 75
3 40 31 83
3 83 31 165
3 59 181 45
3 174 136 181
3 181 136 45
3 147 158 120
3 120 158 12
3 147 116 158
3 158 116 12
3 43 152 45
3 43 84 152
3 137 113 18
3 176 135 136
3 174 181 56
3 56 181 59
3 36 104 47
3 36 94 104
3 101 126 114
3 128 115 12
3 115 123 12
3 27 123 32
3 123 100 32
3 125 145 124
3 154 124 82
3 82 124 145
3 140 145 128
3 145 125 128
3 125 80 142
3 125 124 80
3 22 89 86
3 184 80 91
3 154 82 132
3 99 154 132
3 13 82 145
3 86 89 154
3 89 91 80
3 26 184 44
3 164 91 22
3 91 89 22
3 140 13 145
3 154 89 124
3 69 71 110
3 142 80 26
3 26 80 184
3 124 89 80
3 13 148 67
3 67 132 82
3 193 67 148
3 13 67 82
3 34 22 110
3 22 86 110
3 54 34 57
3 34 71 57
3 55 46 54
3 46 164 54
3 22 34 164
3 34 54 164
3 86 154 99
3 195 96 193
3 96 81 193
3 176 167 85
3 92 167 174
3 136 192 45
3 45 192 43
3 136 135 192
3 192 135 43
3 92 94 179
3 179 94 153
3 171 190 95
3 166 69 190
3 190 69 95
3 71 69 76
3 76 69 166
3 166 190 23
3 23 190 171
3 99 171 86
3 86 171 95
3 110 95 69
3 110 86 95
3 85 167 146
3 146 167 92
3 179 113 146
3 146 92 179
3 108 113 153
3 113 179 153
3 85 146 137
3 137 146 113
3 136 174 176
3 176 174 167
3 176 161 135
3 135 161 27
3 161 122 27
3 105 111 109
3 109 111 108
3 105 18 111
3 111 18 108
3 120 78 112
3 112 78 137
3 120 122 78
3 174 74 92
3 92 74 104
3 174 56 74
3 74 56 104
3 122 161 85
3 85 161 176
3 137 78 85
3 85 78 122
3 105 72 18
3 18 72 112
3 105 14 72
3 72 14 112
3 31 163 165
3 159 155 163
3 191 143 25
3 25 143 155
3 191 119 143
3 149 138 10
3 138 144 68
3 182 131 144
3 182 119 131
3 131 119 191
3 159 163 53
3 53 163 31
3 165 119 126
3 126 119 182
3 163 143 165
3 143 119 165
3 155 143 163
3 73 186 127
3 127 186 149
3 73 144 186
3 144 131 68
3 68 131 191
3 138 149 186
3 186 144 138
3 10 188 17
3 17 188 68
3 10 138 188
3 188 138 68
3 73 114 182
3 182 114 126
3 114 73 121
3 121 73 127
3 20 178 121
3 121 178 141
3 20 87 178
3 178 87 141
