# vtk DataFile Version 3.0
A great-looking cell
ASCII
DATASET POLYDATA
POINTS 398 double
360.1598178804199 228.5974921397956 19.63358947927236
358.8759284698501 226.81466276155854 20.377236670493186
361.5774495069115 228.2029040379782 18.034532191955236
361.65521648215935 230.20183634283867 18.913771679326256
358.024244869903 224.92265276046757 21.708673107999214
358.83325851509534 222.28142271741936 20.58407454805567
359.32138475747195 224.76939817082152 19.736307744472825
358.9683528676357 228.75386929109982 21.583175496238663
360.50233244282094 226.37757540404814 18.561184648323955
361.4461489879792 223.5392817838253 18.52158604064087
363.4254703486921 229.26404967215154 17.286749108501738
363.33352598490586 226.30875067282892 17.821609342549607
365.8334326177441 227.99029752620925 17.613505186208535
363.43696111449776 231.65029091767167 18.368216706890397
361.4527396866877 232.45730428901194 19.31186927088007
358.15741068785627 227.02563353444242 22.276847842319444
363.68032737691215 220.77473584897942 17.47202902522557
366.48206496319614 225.19583778307123 18.23772221857276
369.52435388708085 229.84289703795247 19.18248311337402
369.49399486555797 233.05056352785184 19.66583966874206
365.49337081130136 232.6795979206757 18.737566536464303
362.97654606845146 235.6398578287183 21.96848320983585
356.1737575024055 224.3229849562933 26.499374064933477
356.52780278664824 222.46986566629442 23.476706024156538
357.1188565363619 226.05994536953338 24.21673333345441
359.0313469197915 218.992695200494 20.82174430840749
358.09339356719624 228.46966684738896 23.618138533036905
362.2823355956545 217.70861982425123 19.2861739971534
358.6950387534861 230.52065070353908 22.89836375421422
368.82622449668384 223.19889403530712 18.387071808586473
370.3353524689625 225.60878641046264 19.65737367284262
358.812172227436 232.04908438054247 24.313290316453624
372.3447847083741 233.24543331144835 22.862469910091022
359.1789061752034 234.02211529428521 23.63650486409863
360.99903651085873 235.86828459578567 23.908903787509058
368.88538510675124 236.5744139386169 23.452615472931804
363.2582887520352 236.94134861622356 23.805096576986678
363.855830212089 238.03389686417646 25.46079753615406
357.2426285296465 226.39464883190732 26.691014086865387
360.6220687303212 216.71224028584288 22.52812049581515
358.1619339141549 230.1941127913746 24.9933825165321
362.82619066305324 215.2301956645017 24.216431856303778
370.33735356306033 221.16205463665742 20.47446106086047
357.58497541193003 230.0070199667535 27.095091127973536
372.76189318129354 226.5760930548092 24.008076394026684
357.89733397661917 231.85439637197513 28.630301163660643
373.34040230157376 230.88981651647248 26.211073120456877
373.0849946531831 233.6839350822496 25.714177355873733
358.62043304398213 233.66976967596477 27.12935514306439
369.24989868740175 237.24146242332313 26.164850617112876
364.8417948640726 237.93329737698664 27.236530457834128
362.5297952667223 237.78931802181108 27.39707098959028
364.0306325064285 237.9422275752129 28.918631555915972
360.27092930425954 215.11039577833552 25.471791753525928
364.434199725262 214.11154927129886 26.564500614793083
357.1427592733215 228.03176478623027 28.009734864636215
357.6444970689836 228.18066031868375 25.786012766194737
373.077150595253 223.70620926445616 26.34989284367196
373.50631666059184 229.02757863751074 29.6143070290992
357.2376883206728 229.72081797478123 29.044273720420215
358.3923905384849 234.2174132038371 29.222500871260703
370.2579907420887 237.6450440860685 28.778694726771313
366.1513284738371 238.27508243266882 29.201636973950446
362.32243910517224 237.79664093978406 29.895669918324916
360.4077625396329 236.9444675196119 26.335215636774628
364.3232737511278 237.89326706922392 30.858006103806517
354.5372490770943 221.68266018951766 26.562688586733255
356.50143294419 225.88900065052846 28.713926151173943
357.13474966877254 214.80181721474014 29.6074991768913
361.78781366959316 214.846757184809 27.882656526177858
373.3948419604802 218.95282260981202 25.459102979264244
374.38011196801574 218.72927639684036 30.93102829009611
373.55717726318903 223.31560907930705 29.24209618689737
358.1211445080289 232.78136858242948 30.959435839014922
374.53226204177935 232.08302935932454 31.553422611386505
372.32845231456145 236.98861444611407 34.76191502969629
358.8351309201408 234.92054273416852 31.28227758246675
366.450868770286 238.3662899729904 32.07943811082766
362.50037017805175 237.9857883463371 32.2031168741191
360.29405717895224 236.9906631993234 31.295639999293687
364.3911019301055 237.92815579980302 32.83539861492093
353.84595892126276 221.16026904904825 31.10110614626921
354.04937347987163 219.017388861335 28.329847816447096
356.0360372896803 225.3948869674356 30.894888682217214
358.4028665495477 214.36162920133017 33.9277215340559
356.82189435288825 227.9343576729449 30.758939518831376
364.1555490487946 213.91361113073404 35.21240749935197
357.0679852196939 229.67321782899697 32.42960124404615
373.85985630648963 223.09409554681758 34.33923039010202
357.70672234277816 231.4938991482385 32.73757157417988
373.567062327441 227.6372001013691 34.207988844852196
373.1458863122716 236.02724401754477 36.45771861177718
358.76579204457215 234.2572632197137 35.274483272980376
370.31565424508165 237.67743949852195 33.98883785229946
367.83165693502383 238.23839994164962 34.33996325078365
360.8533678364718 237.52265655133786 33.946479189795205
363.1587715120269 238.02028179557843 34.45107164141712
353.7414497281405 216.60454675357744 33.15517091426898
354.98861284016584 223.7751842702128 32.95876546548729
355.1246307346655 223.40482806807165 29.353763472635542
361.45704806845623 215.07111059997442 37.727695494326845
367.06696164790577 213.75772052450674 36.402814215744634
357.47357274821655 230.05505787611116 34.33602571237326
374.07372690807574 220.82189559475077 37.25702902492988
358.0914347836361 232.14402250070356 34.81308340484633
373.31680073176386 227.87574522824187 36.80133990493818
373.1592152355463 233.46207179663554 40.47241048291925
358.4816935619258 232.74821459558896 36.92420508143489
369.2360440729163 237.3379712916046 38.2146348969023
366.8566335684743 238.08736803548118 36.92187738825869
359.48381849544916 236.48957264669244 35.85358678733108
361.68118115261655 237.6543037540071 36.42081030758034
353.8831834677381 222.16897855331877 35.74106696658914
353.39693348516676 217.44313988183168 36.38836950324604
363.6205775358933 215.01775348510012 40.53437366010814
356.76097051907897 228.01693089004795 33.557097838263694
373.30263434115557 219.98935303864405 42.11591086890442
367.99640937220573 223.34595851656687 47.55742786220285
357.5522396747495 230.74213949416801 36.522467364259434
371.8608004145911 228.76403815714406 42.45561605487368
370.2859819389642 230.43846797845333 45.145723647290325
358.5666478099307 233.35923662999883 38.76282598092077
370.81441405834266 234.26844785698663 41.58853545718427
360.8843359271328 236.32661420756372 40.633172292015004
360.2713797893569 236.58015619260468 38.275512015856506
365.161712232912 237.34671091240247 38.591197950716726
356.9753426568348 215.1467110030369 40.56808052692961
356.69336242048314 226.77108310609043 37.92747345051575
356.5482134457105 225.6926950469302 35.14999294233185
364.9667211751693 222.00117285577744 48.38951027747523
358.16203169305027 231.41631299406112 38.70740622303908
367.0242130594273 226.34358470128294 47.891209927973115
365.6849279915276 229.36949873548704 48.20600339961613
358.6965705441964 232.6957038918992 40.89396611572594
359.23788619347397 234.93222630950103 39.737820330017506
354.33749219516307 220.19142268733842 41.62016359700455
355.76108996618854 223.9050537053224 37.77362016041236
361.6712242472348 219.89588181822856 48.4711476647913
364.20127766841296 225.28324966241567 49.451059266367665
363.23563858338935 228.13877413776328 49.08874682531286
357.1663296612565 229.25595288495612 38.32754663102458
362.79810670867266 233.54388792581028 47.992686236068344
359.69516818994657 234.8375406599152 42.04277568158285
362.4190711754658 236.72856013045853 44.225942866203205
356.2262899115971 223.04259806974312 42.38634285333313
363.04318901386137 214.28649544499606 32.595149463865
367.664772059568 215.9326394826245 21.635793825993268
367.6354757546898 212.97270908132268 31.671678012766844
357.687581184111 220.69789344660532 21.867245919780608
353.37529581825913 219.91982544934154 36.077811716673644
354.25475655308463 222.36227993430077 37.93467343568358
355.9022880267663 223.6819648901619 40.070160706603055
355.51333464808613 220.1139936082323 24.841167796107246
355.3873246305061 216.36015271307633 27.917169532003314
354.813488779072 222.377433490637 39.73691653326397
364.20224320575903 223.69987981642453 17.691162693869977
354.0248739413789 217.26628742413638 39.84578508335339
354.16106756448477 221.3813792902373 28.80619121605549
356.6189125564465 225.4824940944808 40.415725288807664
353.2308579726873 219.67898761422109 33.86340620137483
373.3935602590058 215.42437690839583 40.240672216235
360.93479638199153 220.62792876617723 19.152175834135942
372.0859625406178 212.2150715293738 26.94621306832472
371.1657321225489 228.20539092274674 44.60584417974021
363.40936368665695 215.82280230449553 21.621049206615485
356.05999256298975 214.95759734881912 32.26810443190408
374.224642057685 212.33372762075334 34.10971407534318
365.9213346164289 215.02529093245036 23.17516879461144
374.1642748627487 216.56171669699336 25.85887236413866
373.0962809900678 226.1293422102734 26.515915143685525
373.0382638313963 211.4278761929144 35.40486811399264
368.80860858337303 212.01518200719232 36.05003670399646
373.38830651960455 221.2932419373795 25.953307302449062
358.18428704054264 216.68361633506856 43.541397006552394
370.44964730294225 211.2246469148155 34.325430737816404
368.9301137696525 212.82989659158775 38.05245568840855
359.27081134939806 218.17982993281754 46.36580023351214
358.02504876758314 214.28580472191052 37.25383556062205
369.9603324337507 212.4238020224904 27.83886558714685
369.61991077637344 211.72224166882245 31.11515266830585
374.8875047606204 214.0523625797928 33.051129069591084
363.092793230641 215.4401801473161 42.938139949247365
358.7463705656763 221.76333806630254 46.78063631042158
359.3751325294511 214.78532802025987 28.085363713457458
360.33412977156627 214.54105058740558 31.01240557324081
369.58322553083894 221.83676011560524 46.674166796467986
371.9834257002009 221.4052612893448 21.984251114044994
369.1108572496284 217.78654091461604 21.13626484376104
366.7116765212583 217.14094826929178 45.50652600130911
375.1086958182698 215.97568732620294 30.69567161984207
374.54877264824955 213.3470108457677 35.69997286225801
372.0063928270195 219.0465630373164 22.40470036548101
356.90699551405373 227.8654526155079 39.91942244066749
367.9487326265579 212.73930316308812 33.77732431968564
359.2960645586053 224.52779646928283 47.500320309829384
371.13390637065675 213.26843066238794 25.20170989869614
362.33637654493674 214.84040146567466 26.034783344602182
374.02676954973145 218.08499811256945 39.43467576102282
361.07589160311215 233.88824220216807 46.59337169741589
371.59394987764273 217.07199775176178 41.42865764136862
360.42864437925925 235.0092013892516 44.60639537013833
366.8100813885677 236.22328307697524 42.0151774473024
357.5961951528582 230.00989477557317 40.8605139091733
373.7305469881935 225.72881364035072 38.47119350003815
361.08391921202957 226.24665099100682 48.619835634144344
363.0142470522846 230.8572492485941 48.65468520719652
373.2186085661829 230.70810492395626 40.389776561176696
373.0838536113031 211.48280289981912 32.31169680622679
372.77294591583603 223.9307529740031 23.98396906749977
370.51067777296504 233.267896955444 43.866373038311366
358.2251221350175 231.34523910504066 42.66365521623572
371.5206240888617 231.79698142245473 42.242089513918415
365.57567458239197 237.75855493892564 25.634486065053764
365.23702781849664 232.37549106668232 47.953515772176836
365.2111179398237 227.35989236943237 49.108966840832856
360.81353889255814 233.84473706074758 21.49071665383532
364.7526478850253 234.65100203205958 46.76138166328449
364.59607934177575 236.78748606999693 22.420385246056913
367.54104862724296 231.38906293898813 46.8546790554694
367.6395126313454 235.19400309554163 20.499865665838765
364.8756502883423 218.39469386922147 18.13211163943234
365.7825871293907 234.35924580733777 19.64944354157868
373.8752721004439 214.12759541426226 26.947195490990584
354.6337724717249 219.60052163354393 26.17930267480756
354.481982216272 216.31378301402034 30.282019975361383
369.1132603801256 217.8022972632764 43.65039844623604
358.86704813759144 231.13668800938865 44.53136796339253
365.70252031063904 213.63329462354017 32.43080543205307
367.1421502274292 237.6348217220465 24.645146375886185
368.3530298826782 235.88838368692834 22.00978261682921
360.6753491714814 229.18832839336287 47.63672656881621
369.02544654642963 237.59622624107251 35.97115295821213
368.79742341970336 234.89880921617652 43.126235390611605
360.84309479255074 231.97145263875626 47.53809596718211
375.202607255663 215.44034568060889 35.28750838177921
358.8122644646978 233.16453121169903 43.50435551744079
355.3757594766616 214.75225297632656 35.1448025802702
371.0228289730162 237.08816928048657 36.44801729617955
368.6828153433383 237.9554294495528 32.41214583781846
370.1960574868114 227.76004163879296 19.232025810679275
371.6889699283289 226.02743130409817 21.560851292773034
362.44223139183015 235.49592501820163 46.34860675557903
353.6709142408254 221.82978990657 33.389405984978
370.5127063672995 237.73093293987435 31.32007499800621
366.2521686056561 224.20223632066472 48.78686460035273
366.48796374506685 235.30879175846667 44.75475526972883
368.23113789693986 238.13372880074084 28.226017836548305
374.26899792043713 233.19468301366155 30.08768657195467
365.9149395289699 216.68458798541104 20.01345537779551
366.76917159976256 236.87719799990083 22.312974008553113
366.89241899891226 238.23375095615282 26.783583497750403
364.90418048810164 214.4677141257141 38.28342834820415
368.55780689735826 233.3080539499245 45.27378917988434
370.8455257396838 223.95938844687504 46.30852597283873
372.583076360654 216.04515651350178 24.009159081554422
368.6602867042844 225.304858972388 18.283098066513134
359.28015287049146 214.5573328589229 39.301964378957535
373.69659479336764 222.8454483416016 39.97184852546242
372.92539972682255 228.97052271884084 25.159275648335395
373.5495577167843 229.93317498919635 35.184693452939946
373.91487401632173 232.61694018357957 27.26321927899133
355.3678316780228 223.83463660870993 35.396672103586695
374.36576876479546 232.11983057139815 38.762449140458045
367.60120891516976 214.61078634462544 39.48759435036618
372.812012120187 223.27427165735406 43.41136424262543
375.04496253796475 217.0125006409322 33.3458781984549
357.04274461586675 227.6698079885067 42.022326066323686
369.38602348415264 215.22680395102114 23.067995104604943
372.66974923891786 221.72461067287412 23.9793791119924
365.57819111286955 214.78790746284534 40.24392507378567
367.03272448156065 213.3225153745944 29.34447308146828
373.8554444534338 220.71980176698835 28.17825893836824
366.2064464977066 215.41288448640165 42.57335257983729
373.8720604786806 224.47501979483636 31.470068181832872
357.95673632371347 214.42454315473788 31.686756967552643
374.23868131460716 219.83481847151205 33.911435673089066
361.0810740299694 216.06495540459326 44.65867441034376
373.7361638342362 223.61997650517355 37.157186582846876
357.6113431580183 224.51422589859783 45.198589174090344
358.86978251769443 226.9011972013035 46.76119606797339
371.7873541205524 223.7214052180265 21.847153639466324
370.8842328191674 220.68981700333617 44.76451820000865
374.73536031597035 215.13447500916044 37.97530916603913
373.96992179731643 221.69889842558862 31.344664042118193
367.5242724536499 229.51594385795374 17.805050283754355
364.06398486534505 216.04967759112427 45.39806954750395
367.22563082963865 233.5037804033393 19.179782459384015
369.1058191801801 215.7132601727202 41.450172733480024
355.4013285602989 217.37556055371596 42.62841396733784
353.3486471274442 218.49963352096717 31.259312014502918
371.33962924474446 218.77353444397107 43.14513684674515
355.0981795448161 215.1552174953694 37.986037988656065
364.6264481657131 236.64687084948605 43.19218367572461
364.2191688803623 236.0422216497795 45.212299038313105
369.229721897883 236.34398688727498 40.80932109994301
368.400664770466 238.176329652419 30.335898532672527
355.4864326176895 217.70317958456607 25.485529970979965
374.2885041403865 213.63060101547865 30.10848117115012
361.04768409550684 236.25375108343184 42.71891067568193
365.4654349667628 238.15323916528314 34.555086134750894
353.7079273342735 220.29290586564383 38.24880670735841
362.6700510582801 237.3298012206118 41.84968031457388
370.8914320108912 211.44601718020022 37.353147882628164
364.18917866988517 237.58571125313932 36.63958543258047
373.9482347006408 234.23159420555322 37.92766461638948
372.46151341030526 236.57389654500463 29.87933861858735
373.54370418730986 230.20875075298574 37.79717319151791
358.60632731949704 217.71670976983154 22.47995600372287
373.6513275077016 229.73338432103853 32.37691847394879
369.59077260305446 227.0024571857768 45.75254806478859
372.6307620578669 232.0086210489556 24.628538167486486
374.5087438253028 217.21657045202994 28.08101922766498
373.97395601379844 231.55621546416495 28.954641989305532
373.4240069392707 225.99801865809104 28.81821459503958
373.34838783254594 225.96549318356196 41.495250051913004
374.025643534261 225.60501700490605 33.48436614076696
373.7859061649246 235.63129014627987 34.13697317042408
373.4066704598354 213.95367813702484 39.397371996909534
373.8592665715636 225.61150242119882 35.754369444464764
359.3009680070891 230.91554607086775 46.522219906000025
370.26556396672004 235.25120967748398 21.56815402222565
373.59668368562325 227.079877926332 31.666229376130737
374.47618435705715 231.41233641491615 33.82880327256721
359.49314189298013 232.86843155924444 45.779061826423636
363.4611234973485 234.06300882974912 19.731230909972815
362.7494605407768 237.53808463852272 39.071736925970804
371.88378062783227 236.0868584499229 27.134287109895805
364.84538611871284 237.11086661371434 40.74368595634249
374.6131286132685 232.20362767940262 36.20303962099414
371.4855439950791 231.31894308189695 20.88576151321199
356.96774437684087 225.61084006485638 42.900354233637835
359.8214704453814 214.50661164360355 35.81845398961788
361.2417601263542 215.0012490949336 34.35436190833286
366.26762742562346 213.69752552179605 34.435156425499365
360.5162379239739 215.26304103354852 41.37057168909856
371.330298731163 228.1931202199844 21.065227810837495
358.6265569004972 233.40707160857448 25.349739029921476
372.53822400966646 236.97084452809173 32.56557927811613
373.68700272812106 234.2199372747794 28.55780312451363
368.1436898128719 228.92975453927434 46.94822772538082
374.1644812427161 234.8202040881782 31.442612438353997
374.13564728835536 230.54123129842105 30.61006874926534
374.8139403996163 217.77184773720822 36.234287383468086
372.3733151053215 212.00659220838585 29.07969476586846
361.62727389067555 223.27624099436127 48.317275565649574
372.78965964255144 228.18236666039655 39.49316738869454
373.51499907619376 229.92624188280655 27.913777318676743
359.7958058220972 231.07144102450354 20.661450895631162
356.9056317192806 219.91769235717808 44.155606204996445
365.17805111005543 237.6385547453987 23.943492959990454
374.7887638837562 233.51022871609828 33.80698053248824
357.9205161730584 216.42783969178512 23.843649783168743
367.0750517255273 237.6199602409108 39.736733512777704
364.9151368424594 218.21533876496076 47.89347022560374
359.24066755222344 232.3771978691722 22.4986210374833
373.38707163003636 212.58010296221164 38.02351006909291
361.9046604908602 216.5876688720784 47.683501719209985
367.9173265699766 213.57735331578525 25.745450166404762
359.50952119786245 235.72755293007 29.661700260917595
373.9248842968479 220.44623409228151 39.722656123181885
366.1725665192325 222.53796734612544 17.578534718775543
372.2149443956993 226.36830007398723 44.43536313121193
362.0431122316525 237.4986468717588 25.231596250237352
374.7698008772579 215.17574375535352 28.882747262998883
371.0944266187334 233.31580009894293 21.052147705637083
357.3799969465306 215.39420234862484 26.562307258678175
357.9601420340683 231.9438499702271 26.19296039570509
358.9814089350469 234.79295695635346 37.48711627560771
357.35672315731836 222.31328515677808 44.641473784077505
357.6208363139284 230.53986993079573 30.765961304217534
359.25894441350334 235.73229396818377 33.4597913521355
359.3748567287341 235.50553813740606 27.77314848639646
373.1836515189602 228.22263311876378 26.893664990488706
357.8266879089421 229.4957889962027 43.40859787207133
368.9104036204197 225.1867550771305 46.96525685147292
366.76538691590895 233.67055566093072 46.69584057798882
374.5010969079371 234.50235100722443 35.7767828831641
357.692144288391 227.26370207863036 44.38076439456418
357.3336532928402 219.19050104995947 23.321342757167482
371.05192476533466 213.54181821192674 40.21099087684628
371.7149736641442 235.8388366799675 39.01888924871739
372.27844945867577 230.17616718371494 23.58350668623403
356.95192442190165 228.44448104327373 35.972907193045096
367.59093307855403 231.65319636047758 18.304361706214987
370.9607328696468 216.83701499213655 22.30919391230893
371.09167312296927 235.5132471924273 24.413155605595826
370.8329597565806 223.34529020736153 19.657609144349287
367.638716806024 220.2285080928699 46.197500815864586
363.72400408749144 214.12176345242577 29.971533931847965
358.1508005395619 233.6663755568557 33.104284442153194
368.58886331644106 227.29620621576132 17.99137464909821
359.0272682308494 235.22897952890463 25.561974176116703
367.02103622439597 220.05343339242603 18.962915256522113
360.52909400551124 237.08826779752047 28.719993729160045
356.32239967728265 226.13371677194942 32.65927902284705
365.21161437162215 235.40633958488579 21.172808087065345
365.5463140448451 230.47249591040767 17.979947282594164
358.87608236833063 229.15222224210567 45.53832210985857
POLYGONS 792 3168
3 3 2 0
3 24 15 4
3 4 1 6
3 5 4 6
3 6 9 5
3 7 1 15
3 7 15 26
3 7 0 1
3 1 0 8
3 6 8 9
3 9 8 11
3 347 0 7
3 0 2 8
3 8 2 11
3 2 10 11
3 11 10 12
3 24 26 15
3 383 19 18
3 28 26 40
3 336 33 31
3 56 24 38
3 24 56 26
3 40 56 43
3 31 366 336
3 336 366 48
3 55 38 67
3 53 39 41
3 38 55 56
3 99 22 66
3 67 85 55
3 67 83 85
3 369 89 73
3 81 98 99
3 99 98 83
3 394 83 98
3 98 128 394
3 104 118 107
3 118 140 130
3 118 130 107
3 121 133 134
3 136 127 128
3 344 137 129
3 130 202 133
3 205 139 132
3 133 142 134
3 136 158 127
3 127 158 192
3 158 266 192
3 139 204 138
3 202 210 133
3 133 210 235
3 133 235 142
3 235 210 226
3 235 226 323
3 158 144 330
3 278 330 144
3 194 279 278
3 194 204 279
3 204 230 279
3 397 279 230
3 204 139 230
3 397 230 319
3 230 233 319
3 226 319 323
3 323 319 233
3 373 397 226
3 15 1 4
3 1 8 6
3 3 13 10
3 10 2 3
3 22 38 24
3 24 23 22
3 23 4 5
3 28 40 31
3 67 38 22
3 59 45 43
3 63 52 51
3 60 45 73
3 78 63 79
3 79 63 393
3 62 65 77
3 77 65 80
3 83 394 85
3 76 73 389
3 96 78 95
3 95 78 79
3 96 80 78
3 102 104 89
3 104 107 92
3 92 389 104
3 110 111 95
3 111 96 95
3 251 114 100
3 102 118 104
3 109 303 125
3 130 133 121
3 121 107 130
3 134 123 124
3 298 301 123
3 138 344 129
3 192 202 140
3 140 127 192
3 202 130 140
3 144 135 348
3 344 138 204
3 200 142 235
3 330 266 158
3 278 182 194
3 266 202 192
3 266 373 202
3 373 210 202
3 226 210 373
3 278 377 330
3 377 278 279
3 377 279 397
3 397 319 226
3 4 23 24
3 23 66 22
3 27 39 25
3 194 182 344
3 344 182 137
3 204 194 344
3 377 266 330
3 377 373 266
3 377 397 373
3 99 67 22
3 83 67 99
3 394 128 115
3 87 115 102
3 369 87 89
3 87 102 89
3 127 382 128
3 128 382 115
3 118 382 140
3 140 382 127
3 102 115 382
3 382 118 102
3 87 85 115
3 115 85 394
3 59 85 369
3 85 59 55
3 73 45 369
3 369 45 59
3 111 110 124
3 92 110 370
3 370 110 95
3 107 367 92
3 92 367 110
3 367 124 110
3 45 366 43
3 121 367 107
3 369 85 87
3 124 367 134
3 134 367 121
3 76 370 79
3 79 370 95
3 134 142 123
3 393 358 79
3 76 79 358
3 60 371 48
3 393 64 371
3 92 370 389
3 389 370 76
3 48 45 60
3 48 366 45
3 73 89 389
3 89 104 389
3 73 76 60
3 76 358 60
3 63 51 393
3 393 51 64
3 393 371 358
3 358 371 60
3 21 34 36
3 31 354 28
3 31 33 354
3 43 366 40
3 40 366 31
3 59 43 55
3 43 56 55
3 40 26 56
3 64 391 371
3 371 391 48
3 34 362 36
3 51 37 362
3 33 391 34
3 26 28 7
3 7 28 347
3 0 347 3
3 48 391 336
3 336 391 33
3 14 347 215
3 14 324 13
3 215 354 33
3 215 347 354
3 354 347 28
3 347 14 3
3 3 14 13
3 90 105 318
3 75 316 337
3 318 315 90
3 90 315 321
3 318 88 315
3 58 321 313
3 314 203 345
3 345 119 314
3 32 310 381
3 381 310 46
3 32 47 310
3 310 47 46
3 321 308 90
3 321 58 308
3 90 259 105
3 259 322 328
3 123 325 124
3 124 325 111
3 111 325 303
3 301 325 123
3 111 303 96
3 325 327 125
3 125 327 352
3 301 327 325
3 96 299 80
3 96 303 299
3 94 299 109
3 109 299 303
3 125 303 325
3 109 352 108
3 109 125 352
3 80 299 77
3 77 299 94
3 298 143 301
3 77 295 62
3 295 243 61
3 380 122 106
3 200 298 142
3 298 123 142
3 352 294 108
3 352 201 294
3 19 329 18
3 329 32 381
3 292 327 301
3 50 52 62
3 52 65 62
3 65 63 78
3 34 215 33
3 21 324 215
3 215 324 14
3 383 286 19
3 12 284 390
3 12 396 284
3 284 396 383
3 372 58 313
3 283 275 71
3 318 277 88
3 88 277 103
3 318 203 277
3 72 313 273
3 273 313 321
3 315 88 273
3 273 321 315
3 283 88 275
3 275 88 103
3 257 103 277
3 277 203 257
3 72 283 271
3 275 265 71
3 281 116 264
3 264 116 257
3 271 283 71
3 101 263 251
3 313 72 57
3 72 271 57
3 72 273 283
3 283 273 88
3 314 257 203
3 314 264 257
3 381 44 335
3 30 386 29
3 29 386 42
3 30 280 386
3 386 280 42
3 29 255 30
3 30 255 390
3 29 17 255
3 255 17 390
3 64 34 391
3 32 385 47
3 385 35 49
3 63 65 52
3 281 264 253
3 380 108 294
3 294 122 380
3 243 93 337
3 337 93 75
3 52 50 51
3 51 50 37
3 46 346 372
3 372 346 58
3 46 312 346
3 346 312 58
3 340 305 337
3 61 326 49
3 61 305 326
3 62 250 50
3 86 251 100
3 86 101 251
3 117 129 387
3 49 246 61
3 49 250 246
3 246 250 62
3 131 244 117
3 117 244 129
3 131 138 244
3 244 138 129
3 337 305 243
3 243 305 61
3 324 221 20
3 219 286 221
3 221 286 20
3 30 240 280
3 280 240 44
3 30 335 240
3 240 335 44
3 18 239 390
3 390 239 30
3 18 335 239
3 239 335 30
3 395 249 219
3 94 238 77
3 94 93 238
3 238 93 243
3 93 237 75
3 75 237 91
3 91 237 380
3 380 237 108
3 201 292 245
3 245 292 293
3 201 245 232
3 232 245 252
3 109 231 94
3 94 231 93
3 109 108 231
3 219 229 320
3 320 229 35
3 219 249 229
3 229 249 35
3 295 77 238
3 238 243 295
3 35 249 228
3 228 249 349
3 295 61 246
3 246 62 295
3 201 232 294
3 294 232 122
3 237 93 231
3 231 108 237
3 37 349 36
3 36 349 217
3 322 308 74
3 320 35 385
3 385 32 320
3 35 228 49
3 49 228 250
3 324 395 221
3 221 395 219
3 217 395 21
3 21 395 324
3 19 219 320
3 19 286 219
3 49 326 385
3 385 326 47
3 249 217 349
3 249 395 217
3 213 216 141
3 245 293 216
3 21 215 34
3 132 214 131
3 131 214 138
3 132 139 214
3 214 139 138
3 132 213 205
3 132 218 213
3 50 212 37
3 37 212 349
3 50 250 212
3 228 349 212
3 212 250 228
3 122 232 209
3 209 232 252
3 119 211 120
3 120 211 209
3 209 252 120
3 252 218 120
3 206 106 211
3 106 122 211
3 211 122 209
3 233 230 205
3 205 230 139
3 105 203 318
3 105 345 203
3 20 383 396
3 20 286 383
3 245 375 252
3 213 218 375
3 375 218 252
3 131 339 132
3 131 309 339
3 339 309 120
3 362 37 36
3 51 362 64
3 64 362 34
3 91 304 376
3 376 304 328
3 316 340 337
3 74 341 312
3 312 341 58
3 74 308 341
3 341 308 58
3 80 65 78
3 305 340 338
3 106 304 380
3 380 304 91
3 213 141 205
3 141 233 205
3 132 339 218
3 218 339 120
3 47 260 46
3 46 260 312
3 47 338 260
3 260 338 312
3 305 338 326
3 326 338 47
3 46 258 381
3 381 258 44
3 46 372 258
3 258 372 44
3 216 213 375
3 375 245 216
3 74 350 322
3 316 376 350
3 322 350 328
3 328 350 376
3 90 308 259
3 259 308 322
3 376 316 91
3 91 316 75
3 206 345 306
3 306 345 105
3 345 206 119
3 119 206 211
3 293 292 143
3 143 292 301
3 304 262 328
3 206 306 262
3 262 306 328
3 312 247 74
3 74 247 340
3 312 338 247
3 247 338 340
3 206 262 106
3 106 262 304
3 241 293 143
3 316 350 340
3 340 350 74
3 352 327 201
3 201 327 292
3 298 200 143
3 143 200 241
3 233 198 323
3 233 141 198
3 141 216 241
3 241 216 293
3 217 21 36
3 328 306 259
3 259 306 105
3 141 241 198
3 390 284 18
3 18 284 383
3 381 335 329
3 329 335 18
3 396 13 20
3 20 13 324
3 10 396 12
3 10 13 396
3 11 12 17
3 12 390 17
3 323 200 235
3 323 198 200
3 32 364 320
3 320 364 19
3 32 329 364
3 364 329 19
3 198 241 200
3 263 269 251
3 251 269 114
3 263 272 269
3 269 272 114
3 281 387 225
3 137 353 129
3 129 353 387
3 117 374 131
3 131 374 309
3 117 253 374
3 374 253 309
3 270 388 54
3 54 388 69
3 270 227 388
3 116 199 197
3 53 196 69
3 69 196 54
3 53 41 196
3 196 41 54
3 57 208 44
3 44 208 280
3 57 268 208
3 208 268 280
3 70 191 268
3 263 287 272
3 199 225 287
3 287 225 272
3 42 392 29
3 119 361 314
3 309 253 361
3 71 311 271
3 271 311 70
3 267 254 195
3 254 191 70
3 265 189 71
3 189 311 71
3 272 188 285
3 272 225 188
3 188 225 387
3 42 191 187
3 225 290 281
3 281 290 116
3 225 199 290
3 290 199 116
3 268 186 280
3 280 186 42
3 268 191 186
3 186 191 42
3 103 342 275
3 103 197 342
3 342 197 282
3 275 342 265
3 117 185 253
3 253 185 281
3 117 387 185
3 185 387 281
3 53 183 365
3 365 183 68
3 53 69 183
3 285 181 272
3 272 181 114
3 285 276 181
3 353 285 188
3 188 387 353
3 189 180 297
3 297 180 207
3 189 265 180
3 285 356 276
3 285 353 356
3 356 353 137
3 179 270 178
3 348 176 182
3 182 176 137
3 114 334 100
3 54 357 270
3 357 267 195
3 222 195 254
3 356 137 176
3 176 276 356
3 311 363 222
3 222 363 297
3 311 189 363
3 363 189 297
3 282 355 190
3 355 379 302
3 190 234 282
3 265 342 234
3 234 342 282
3 178 270 357
3 357 195 178
3 101 175 263
3 302 379 175
3 175 379 263
3 193 179 174
3 174 179 207
3 126 334 173
3 173 334 276
3 181 276 334
3 334 114 181
3 271 172 57
3 57 172 268
3 271 70 172
3 172 70 268
3 193 171 101
3 193 174 171
3 171 174 302
3 302 174 170
3 170 174 207
3 348 173 176
3 176 173 276
3 175 101 171
3 171 302 175
3 355 302 170
3 170 190 355
3 265 234 180
3 180 234 190
3 179 343 207
3 207 343 297
3 179 178 343
3 297 343 222
3 227 333 86
3 86 333 101
3 227 193 333
3 333 193 101
3 222 168 311
3 311 168 70
3 222 254 168
3 168 254 70
3 41 167 54
3 267 357 167
3 167 357 54
3 190 166 180
3 180 166 207
3 190 170 166
3 166 170 207
3 53 351 39
3 53 365 351
3 372 169 44
3 44 169 57
3 372 313 169
3 169 313 57
3 27 164 39
3 39 164 41
3 27 248 164
3 314 361 264
3 264 361 253
3 182 368 348
3 348 368 144
3 182 278 368
3 368 278 144
3 135 288 348
3 126 173 288
3 288 173 348
3 222 162 195
3 195 162 178
3 222 343 162
3 162 343 178
3 5 161 25
3 5 9 161
3 161 9 16
3 199 160 197
3 197 160 282
3 199 379 160
3 116 359 257
3 257 359 103
3 116 197 359
3 359 197 103
3 309 163 120
3 120 163 119
3 309 361 163
3 163 361 119
3 97 113 159
3 100 332 86
3 84 184 332
3 128 261 136
3 136 261 112
3 128 98 261
3 261 98 112
3 97 236 113
3 84 177 236
3 100 256 177
3 177 256 126
3 100 334 256
3 256 334 126
3 68 165 224
3 224 165 97
3 99 157 81
3 81 157 82
3 99 66 157
3 157 66 82
3 126 288 156
3 156 288 135
3 68 183 184
3 184 183 69
3 300 113 156
3 156 135 300
3 165 84 236
3 236 97 165
3 144 154 135
3 154 300 135
3 68 153 365
3 68 224 153
3 153 224 82
3 42 187 392
3 392 187 248
3 164 248 167
3 167 41 164
3 126 291 177
3 126 156 291
3 291 156 113
3 82 289 81
3 82 224 289
3 289 224 97
3 378 152 23
3 23 152 66
3 378 296 152
3 159 81 289
3 289 97 159
3 153 82 296
3 296 365 153
3 136 151 158
3 158 151 144
3 136 154 151
3 151 154 144
3 300 150 112
3 112 150 136
3 300 154 150
3 150 154 136
3 159 149 112
3 112 149 300
3 159 113 149
3 149 113 300
3 378 148 25
3 25 148 5
3 378 23 148
3 148 23 5
3 236 177 291
3 291 113 236
3 81 242 98
3 98 242 112
3 81 159 242
3 242 159 112
3 270 147 227
3 227 147 193
3 270 179 147
3 147 179 193
3 86 145 227
3 86 332 145
3 145 332 184
3 29 360 17
3 29 392 360
3 360 392 16
3 365 296 351
3 351 296 378
3 388 184 69
3 267 384 254
3 254 384 191
3 267 187 384
3 384 187 191
3 39 307 25
3 25 307 378
3 39 351 307
3 307 351 378
3 263 379 287
3 287 379 199
3 282 317 355
3 355 317 379
3 282 160 317
3 317 160 379
3 184 274 68
3 68 274 165
3 184 84 274
3 274 84 165
3 84 331 177
3 177 331 100
3 84 332 331
3 331 332 100
3 66 223 82
3 82 223 296
3 66 152 223
3 223 152 296
3 27 220 248
3 248 220 392
3 27 16 220
3 220 16 392
3 25 161 27
3 27 161 16
3 9 155 16
3 17 360 155
3 155 360 16
3 267 146 187
3 187 146 248
3 267 167 146
3 146 167 248
3 184 388 145
3 145 388 227
3 17 155 11
3 11 155 9
