# vtk DataFile Version 3.0
A great-looking cell
ASCII
DATASET POLYDATA
POINTS 424 double
90.6103867704869 273.6778949018128 45.06658593880845
92.37009249137748 274.8164267060443 45.83147966099794
89.27544342231722 267.57207314615914 42.005323398164705
85.68937113134207 266.356482331072 40.134797838883244
91.08686541288594 271.7852133364393 43.11229019191935
92.79656295991461 275.0920899984723 47.58445446675386
88.00642236927312 265.54654114865025 42.14622877221833
85.63580060939086 268.1305056472035 40.49946409973522
93.19508604832639 273.0986155973508 44.44865012229727
83.3885279387021 270.3846309127468 41.7506718703494
88.21957193579763 272.27103106292674 44.12184981425788
91.9603719115694 267.05121612244824 43.37940300960426
85.44371430665068 262.6428456244291 42.89865501832729
89.69804818262732 265.13732549286897 43.499771256467724
84.28524273513891 265.1325077688981 39.84241890478026
80.17658969008626 273.40002001586646 44.04121541487616
81.65081993366454 272.3272958235989 43.67294178109553
85.34152518464377 260.83867766629515 47.79445682110755
87.38649317146776 263.9340016007102 43.45210642069611
83.73453259876807 260.9171963683407 42.602491189541766
82.14828934939057 263.8311650194259 39.1407146933607
79.64351654788338 263.2476056224934 37.56435422282489
91.97434717990683 264.4139168347758 45.6819182630298
85.36747001257181 260.99730457291804 50.56297329698512
87.56569860831677 262.1104832101905 47.5778677088922
90.06856509376539 262.9341890127106 47.922227008052346
93.7706770490017 269.95847117306494 43.65784952663112
82.7597685809915 259.38480870689204 50.555552857354634
80.49096350682672 257.3146715662486 50.43611734958648
79.83288872900701 260.194734169799 38.66080464361519
75.12660971550086 261.0089092260771 36.88484206649854
73.32766679606627 270.00886934172354 39.30918654536491
81.40375280336907 273.2459728609549 45.81513023729226
86.23459022279644 273.47060427944047 48.26817472940788
88.21885312639174 261.99093892926015 50.01486039426495
92.55060545787177 263.3272769756475 48.382997662513596
94.70200206909168 264.8318658663728 47.73321077345304
94.360884455204 267.01049839112227 45.403452080562985
87.19425434459288 261.7891046908192 52.18835011160439
91.17034176166088 262.5825591228928 50.383823694532495
82.13260276079515 260.0430359203781 53.431026989493574
75.60237039155368 257.5643602632683 56.0625959719788
64.13308866340758 272.6140387628524 47.82559974605914
97.23972302294094 270.51051000099403 48.035133899959895
96.2408049269194 273.3810807191124 48.0241291152008
77.59813633772755 275.2596367444744 46.58466240653089
76.00065333628076 276.01570847605143 48.49759412307549
83.86719367034476 273.0485947165086 47.0913801814736
91.98055083240752 275.53810460400246 49.68550135119801
89.58088384135216 261.8285515068637 52.42202799757358
92.3170487298754 262.1360811168276 52.847363963855436
94.2152886517467 263.452657570726 50.730169520131156
84.92348475224632 261.6123943205513 53.66287306143999
87.90852560867248 262.2308912747124 54.27869140706733
81.3746879842674 261.0537988559555 56.10609664520649
79.62374048153092 261.49715787542516 58.39316904869852
78.44099335616316 259.35304451043487 56.40170219256976
76.66536455783007 260.97508048959736 59.2552651267314
71.73589053515605 263.7617918013042 61.30964544723901
97.76950724318493 268.2576468415913 50.065055726519134
75.48668385899515 273.78017982914906 57.361445356337946
72.42675377542334 277.6960555808126 53.055826282453474
98.13317735769499 270.4943740696446 50.47455183944569
77.58826906820823 275.35841602890713 52.73831379839571
79.99908139224429 274.71789623944 49.49638047746077
81.79978618536799 273.7468232580276 48.29489272894447
83.9701168186174 273.4557764936333 49.422125889521574
90.53661111224022 261.9012511313638 54.86853416423158
83.69247382745233 262.56517039651635 56.05795161355114
86.25748318432291 263.2603758633474 55.91550749007225
88.94568577361613 263.2099784703109 56.486647335340756
81.85808269600732 263.60176874028514 58.259946610498346
78.73895161391843 263.9371151856034 60.31056187523906
75.68771297098218 268.707245184901 60.8484963777761
77.64080575482893 274.65046756799313 55.32560216229955
79.99368133366151 274.71064348380565 52.00643091150152
82.40864872076158 273.72889189046225 52.60646692852579
90.19539578443774 275.6766261000004 51.74976938779794
94.30437179478888 263.77815869461716 56.59034657095528
96.41837055182282 265.6207954844537 55.10194355324771
84.74826010098742 264.39563494218845 57.662474398278725
87.3673670319989 264.6345636668711 57.912314842091995
83.5255786306775 265.8982379056198 59.08208095916809
81.04266068469387 266.1380906166048 59.74138983761789
78.5869635503526 269.7404529997189 59.68784749002934
78.57883097721992 267.1443658672596 60.50636807383386
77.5677104599783 272.082883620123 58.67208869210802
79.69885902442901 272.9606989536303 56.965654103231834
80.71156497945223 274.06169677107147 54.52286619396251
83.37861116347129 273.3727171101234 54.44319106597304
84.73791695548931 273.5981791573678 52.89059271416681
88.1798299097365 274.8285673908937 51.796116629534644
92.58883808921877 275.9184259391277 52.29562059231522
89.98846839189653 264.29068081299226 58.81746568113156
92.9404588877209 264.47141702909096 59.07312024471124
85.86514115440767 265.98535136827513 59.11992042915247
91.12097347742812 265.95019597925085 61.32930079288706
84.75056123192518 267.33243199070955 59.64851616916499
81.16244164370725 269.8201365940878 58.9570823127877
98.27877985568693 269.33293872929477 52.377037463556746
80.47171776464945 268.24286271541814 59.864099023205775
79.80133251033911 271.2920238602947 58.50294271438561
81.8350338105211 271.4785014742147 57.76608207699251
82.40886591069453 272.72301827507226 56.12599763803717
84.45552827313458 273.117289389646 55.94530866559247
97.16591119199484 273.71623334276956 51.995903318814726
85.51547020186631 274.0196810589472 54.80021276372191
86.85239632747977 274.44334312281825 53.21380606595398
88.8535843455599 275.5244574985515 53.57063613021909
95.87496898883154 274.97862235194395 51.94554859580665
88.24973889690533 266.02691725348086 59.92329450135586
86.52933358887809 267.618746176156 60.43709264648674
83.5186368485243 270.17998911317665 58.70518353050201
97.97011241387197 268.18968386202084 54.689118425083386
82.79582590599749 268.12489181881324 59.5878936383105
98.30185221103157 270.7431794934331 54.429300307167935
84.41901985088928 272.0307918080077 57.56445260408308
86.42737475655916 273.66624258902675 56.92011579461084
97.61380476673659 273.0064427598801 54.04769824393251
88.63489924819291 275.08147084595095 57.26844637255994
87.57470580754757 274.95652660664695 55.24890806291055
89.60548510282258 276.0411706822478 55.58955936230508
91.00494373426153 276.38821086185595 53.90360709694077
94.33905481966427 275.440708708616 50.969953837857396
95.74945406369685 267.7706281421634 60.94344119595318
96.10927434987563 265.5939784397387 58.701041605142734
88.68525727557541 267.82850592203823 61.70839029860876
97.56204592738156 267.3779306620922 56.91897046290094
98.16892116493572 269.7521446156976 56.80923479780303
86.30577595096321 272.6501662053584 58.68722505244451
97.70233122197044 272.25670375336813 56.32571104389741
87.91608869758791 273.9067564907809 58.987864717201774
96.46975464268668 274.7880001845948 53.609062036733604
93.22112832548095 276.0487374354671 54.50021027045813
87.11196426895798 269.93932640549394 61.16043485119435
97.19606062866337 271.4157699990955 58.897981090127665
85.04552391813951 269.05300197889005 59.851029578218274
85.60990478149445 271.04681956829023 59.416568863457925
89.27752299340625 273.4622549385846 60.78133582521087
96.66288258443126 273.8208130313208 57.83969480468311
96.86184207993092 274.34379078992606 55.66076175445922
94.6770945386481 275.6014990603763 53.05235536101536
97.45272436055598 268.5129607940298 59.073951549941995
89.07833687211065 269.8061939201219 62.50673193736161
90.89399236276704 268.48353156505414 63.24169285698383
93.42106556865241 267.89186752122004 62.25212102615966
95.81921639378909 273.2554445564311 59.620232301211274
87.42985933992341 272.19427177851287 60.255058026928836
90.30784025167745 274.95677332671005 59.165437254971906
90.45141281007312 275.9702311767087 57.33593225566614
95.30951273729984 275.71585561375537 55.04670782601768
95.0250259370045 269.8661341786036 62.08827484372249
88.75476300768527 271.72532952664636 62.02043434907966
95.78810812765532 271.79507831622476 61.03536718784144
94.52853467888293 274.89416751716976 58.66107166666037
92.27551395280732 275.68602644109154 57.99070645884328
95.53243640071719 275.0785907593062 56.80317568741052
91.76118543698722 276.487362159902 56.044703367089745
67.10496112903424 274.60036523624035 57.05496429098888
66.45224986814476 259.2660489931835 46.4019466640533
61.70629246320107 266.82698298412345 56.7653377339243
64.34842699988417 260.4976402463822 48.45408928798713
69.95944958914141 258.6356893926919 58.27237833768522
65.19340179149484 256.90338332538875 51.4560574865705
62.88742351495888 260.4545703489177 53.99122756002205
76.67085632643236 254.8431384445897 42.1971146379048
80.11274293279175 255.51425271312473 45.604694091250224
69.14298753697784 264.2899674424768 60.74831130974188
70.12519673811511 276.8676868785267 55.04966043980247
63.99508610586209 271.2856352200199 57.553200412427714
92.8776671833716 262.3799567802863 55.157151453858816
65.69853920797573 274.9935456176731 47.41655287997863
79.6677315190326 256.4935123434746 42.40879202884874
67.37348368834205 267.49520117306815 60.287119913534006
76.57928129583807 265.881999174137 61.37142988693668
70.44786809691615 268.9906545809152 60.935694305679014
72.35963582018718 273.2987417959217 58.47567313391852
83.0761177395191 261.24675061655824 54.867004159702034
67.78067845237162 256.48863249055404 49.43909147556148
67.37888983706894 262.892145642722 42.78915997924963
63.39940104407147 262.4108514915159 48.53826517964486
74.27479943196568 255.49095226785533 52.053269098147695
65.59083129701726 258.6517572996457 48.35384842491949
76.66334058722215 270.5485337390674 59.81143216826449
73.18832637432207 254.80401777636044 47.88853049371254
72.93867747956038 257.0514397826803 40.487667487368775
77.19147633970113 253.8258149016722 48.96101071469031
77.76405022095949 261.19916842668067 37.10340457674893
73.00181024813696 259.8829026031263 38.00024966440756
82.34293553117259 258.37186437821674 45.59417510052235
71.94182034255203 256.65939539149923 42.15206952838668
78.97131883576215 258.2368384635236 39.576438468730984
71.65072696188372 270.70315351422045 60.22420679279231
70.33021707679791 260.63936829906066 40.392539156787365
96.49594002612398 269.88353921119426 60.59266498404412
86.23091098310874 262.08645503147443 45.213538964173544
82.31757485578241 259.77987102368644 41.86444969328923
90.43385841417592 272.76606246964843 62.17229157337111
86.58133374124805 261.5901670525037 48.99780655283304
78.86044806364393 256.5977770164929 51.83432789825902
78.58264576360256 254.87616672270408 43.81257356641092
81.91865069410693 258.0875059289187 49.06790528738825
80.24075313459089 269.1062780302726 38.990311109174655
63.665061226859784 258.4973543103898 52.66063535899608
84.20044580396699 260.0173440093332 49.19638115584066
94.16239023871658 271.727600171321 62.19877064613621
74.73851501804216 259.01312394167564 37.58438282190156
88.83199695952547 263.4235167796577 45.55208315830048
80.75398710933318 257.0198568931078 44.19605295022668
81.19882368334405 258.76026710833474 51.93725586808693
80.36727642200715 259.6538591543169 54.83151286198642
76.15186652548643 259.2441787969373 57.6047633967423
75.95945420252981 256.744629463774 39.50148221667357
71.898406016691 255.34440879711855 51.00461717359025
75.32908301381583 254.92258350419692 50.0534490842672
68.4865055640789 257.08741789727526 56.912505614444676
82.46045597281804 258.9708257174382 43.40252915506882
81.06721759394591 262.0304417832139 38.76981067161906
77.57079489448205 257.80844854434616 54.706702480505534
71.61400252533609 258.88547356114543 40.31877004150128
80.69119070931025 258.3590189194624 41.2724098868033
69.71303092667502 272.5029279268576 59.265780618223886
78.97691752534762 254.2319915296732 47.24767107011988
72.60439291354504 257.07450632558107 56.84002729611322
84.09852206867812 262.9499642328667 40.89981860865475
64.21824170662084 270.5626245136196 45.91927231855029
78.29960401435531 265.662348914507 37.07347697474554
74.72639155600177 255.9303248373533 41.28057627119404
83.23813002262347 258.9523075201515 47.83194536587308
61.841834346670865 269.065732303726 51.81463708231139
73.86185790366376 261.4662418431738 60.40070664776701
66.06962405573894 255.8453832782706 53.583895604947415
81.0157570115197 256.8683673692818 47.37134943745736
64.21160387669556 274.214893906356 53.620099284755845
70.84426941057208 263.6761182708615 38.67585634582222
78.30434758894665 255.3526472051087 50.178757416729475
73.71401477766832 265.0115062766335 37.091151662125405
64.69374298141916 257.64325432511134 54.662734051194825
69.35324459050976 262.4457531875245 40.417708375577746
69.24770351782912 264.95219777258137 39.95526303735352
62.01437716446812 263.3402329159642 51.7359838102489
74.15783693153739 257.7443524154869 39.06944800658013
75.8183342157931 253.943454519517 47.14838389887082
65.04759374571061 263.82252520469405 44.832944768517216
66.48825463898052 267.8405577964102 42.58386089070704
68.1667719834644 257.7303867114529 46.64104188277561
63.65374460290087 267.74778480060553 45.73208296844793
91.48138563323418 273.8872563222424 61.02981376009206
70.14838041438577 256.48776400240763 55.37812505758676
68.81735671244657 261.8194511883716 60.06856383229315
63.61143823654207 259.9891584439316 50.65671689018457
69.47110009311359 260.11193388364734 42.05290474906957
77.90986390880603 256.4887971004012 40.82204603703862
62.84822360436072 269.4331092274937 48.44226925814277
65.36538684365175 268.35657796714247 59.123082035167705
63.157300649786364 262.5424191593483 56.72894117332209
65.1203020919452 261.1017689924737 46.42639567828413
71.22147354568706 261.31237355453635 39.084150178828594
70.27277605252856 255.71478814571586 47.96671415227465
68.2513249080256 269.26047241675235 41.953742483186566
70.78695365106383 269.2475883010085 40.03777564432729
65.26821194725579 266.47185978542484 43.64645995585989
73.17719448937369 256.13670032505195 53.98770342843789
64.6992874888134 274.733170078299 50.17822935824094
70.055196739237 270.7074840307653 41.50049737765656
96.40967243487368 265.71941826125544 50.091873592720155
79.53770167883651 258.12257043933374 53.379829362897645
65.77826719856235 269.47253645980607 43.82797607538675
73.78047841428847 259.3776165591932 58.38416216690763
69.96873772881186 257.82701027636625 44.07298826109869
63.18902967662059 265.0247290600184 47.06794328875468
69.29322440217693 267.19807285947974 40.322370410991624
92.85430157390695 270.27022059845075 62.896883576943445
93.92564292035878 273.4747300561932 60.862153792441866
81.94325151949349 269.89923195332165 40.39183420615771
98.14453452312067 271.72186383749806 52.21657363364644
81.66641338768926 271.33796577650946 41.9370060125632
74.25089294233156 277.0409267388058 51.97535247134636
82.11469992751903 261.06689360180076 40.341206786422866
76.64968840866544 256.27658216661524 52.90140314114939
62.78419329295803 268.465169739403 57.43759737208517
71.21636160718504 277.93531547275524 50.99041501758089
77.9529937901551 275.4708159898595 50.40378491646656
61.56556602521522 264.9910935701902 55.20666947539004
69.46590337364849 274.78960332376 57.33154164869097
78.20067119462648 268.0080848671812 37.8747392396012
66.13994437386988 276.20504824193574 52.13476676841408
72.73095236698587 275.6083309612441 44.556157431247996
64.45584319734701 263.5414696983444 58.666864959834705
67.07436937454047 276.66440627999185 49.415711954329794
77.22675275586936 253.7155847936552 45.461242780176796
75.4838110778669 271.1749653042136 39.80934584612304
78.9971228200296 274.7570025524142 53.66114853540646
71.99863281023578 271.8235202357059 41.29561108163952
92.53972039181413 274.7585979491304 59.65339721382422
73.14365184243681 274.0335388058794 43.16799285622345
68.96355783303275 277.6448656767457 52.197764606177316
96.11924450963387 274.40838081089595 50.23272635687505
61.92372737996785 262.6752705077885 54.500011249532015
72.03769957880648 276.625569376368 46.48203003462739
71.34424337602333 266.39889992102127 38.607796398458234
75.95650268363454 273.90325496499645 43.202358328053386
72.060165564811 255.3735633954203 45.05581196523115
73.32270892681852 277.276053763013 49.79462268999642
68.53615155286795 255.5807940678067 52.47329064420138
72.3989978173299 268.30672307448606 61.40856231212322
67.67535207025253 259.84720883877316 58.98872122317229
69.14252607071361 272.5068914993529 42.63780302142164
75.41907823328793 263.36292201038657 61.6290262557516
68.34142778361621 269.8408509593199 60.00070489634733
75.21832083706411 276.2038625949178 53.80982591408375
76.48014019909618 263.71298489411475 36.6523704683384
69.547420392252 255.46758106192587 50.18614829957714
74.65381138695251 272.43019094180954 41.56836770595766
77.18975038164547 274.58224270723304 44.77829730726955
79.12095797930266 274.24412298392286 45.287224427274964
93.94951164444494 266.18534641817564 60.62251771023662
68.42207892937654 275.9089120110423 46.200953718879
75.72593863628326 276.2533968330555 51.205294784739046
93.92338561311774 276.1533199517744 56.62776075889852
70.63115872395942 275.14767853091723 43.835880285087235
83.84241527598664 273.51011433197965 51.28364320545206
81.96884696351846 273.88278594049876 50.52631226788758
74.72205649329227 271.31576616597107 59.47008115164488
91.62680024690599 263.05209486015394 57.00394466727985
69.97324304011686 256.48254384283064 45.84782223799776
79.77815320648614 274.59990466110696 47.28987191627615
71.60938162993021 260.74734665294636 60.10745543450197
83.02124769855743 271.42599770755413 43.02998114108431
84.66631177915077 271.02173582448205 42.99084776087788
97.49121892465953 272.51985913319766 50.07106198302923
77.48261662215587 272.3867892873452 41.287988145186695
79.97874501101501 255.67769542153763 48.93880147974962
63.394462358982615 265.6317135638154 58.00056471463098
66.65551962459855 258.3915417276825 57.40619379068507
71.15826014104029 273.7481757745299 42.223104047362106
94.57073619673963 263.45395096897454 53.82615137124223
90.65641981605152 271.05651388421785 63.11747195428208
95.98555858478598 264.8680186918968 52.43599323460338
73.98080142079499 266.098491478238 62.03931415967875
66.00044735156509 261.82532245599606 44.44306917296949
61.696730302016235 268.2121550897506 54.97633049193674
75.38057207575918 275.2519200417602 55.75170538466248
83.8510090407215 260.41963490273855 52.08852390719678
71.8911191279969 266.23890053622506 61.67844128299047
90.77069475611961 274.79866071229014 47.33170608363951
70.65917650849948 258.30612788157674 42.08823281796667
73.62902568449081 267.7572389866582 37.84904377878676
76.98515920358108 258.424897465505 38.065647166048
94.48342867761805 275.13018651285785 48.71966480513176
95.64763657127246 271.9822604141223 45.612479136506806
84.27297081648271 259.98492319165746 45.14318176426796
70.94418828189268 255.705730711284 53.26581688432213
62.55680116838951 267.17092421304136 47.58681269361558
65.36234767576359 273.7905194297962 56.36700147885264
68.14961708981903 264.0139767807876 41.050604030758265
95.99713569584144 269.2856593461273 45.6642336940578
87.25018179817634 269.05279242531043 41.31754227249828
63.019855434665786 272.05775643415996 50.999078445838606
74.86893087818459 275.4436779350792 45.54539050122169
84.94262231421463 261.39462230007354 43.9569242248702
85.24998285320979 269.7436742146482 41.59705185139731
67.47667210036522 260.08501062244574 44.66160621828819
86.07315884534663 272.6732061151357 45.85515412750276
88.3965723422328 273.7650902279434 46.629597881797515
72.17290607126924 268.4567268269224 38.75242722845495
67.05370696387283 272.63968616982874 58.30763398328947
66.01743395771983 264.7070063058194 43.01954715850677
84.22936990668904 267.19883378529846 39.573713094188875
92.35108436631087 272.4807606334182 62.48543099597951
82.84269559016406 266.1259450310892 38.9301635537409
61.36882020821969 266.3981942598842 52.65349985209395
79.90576961782298 271.0610532518466 40.60033192047404
88.8189451125009 274.64160899220883 49.47717040295819
73.83474716755521 271.5219234904923 40.35393872524373
73.36564889281786 255.27612826136345 43.01872707877028
63.94574024700228 265.70510425080516 45.08297441579522
77.61544184697091 273.4465729395884 57.13418433303313
85.88365895838504 271.8141969027925 44.04986929886515
97.2936942870027 266.9212603891904 52.458100952555625
66.32190889030325 272.9195800510229 44.83572973732336
86.13632954546684 273.8514639938882 50.93156685125548
75.25641809880979 254.49918879598187 44.16568904012761
78.34923371839317 273.69164669304666 43.40277520731596
67.23593032102426 275.6410185461961 54.91515064055107
62.648699059323114 271.24511845806694 54.44168128993031
83.77298621072084 272.09790939687986 44.71344137535015
94.28458092446532 274.15617294307583 46.557356728632634
64.281888033748 259.87721535566476 56.56123847089386
72.57984932577483 262.5204989356006 37.11882717300848
63.76688012833608 272.83898361607515 55.626335002865744
61.95036700852622 266.3850838512318 49.688374191414006
64.07873302308823 263.0518062742345 46.65148059123457
73.9233138165838 254.16417485668381 46.017843709902216
88.9948144442788 270.31724630362277 42.22611359559141
79.92098358169588 272.501720361747 42.40854927990044
76.01590048887412 266.5998336689867 37.341452248640294
67.33931240763305 256.4806354847047 55.26010343425492
71.89556636618094 264.4740319427206 37.507940522725455
78.30543745850376 275.34774848866016 48.44849188183215
82.46780715555234 268.1643612686782 38.93815043899879
86.14402722406466 264.6536332775548 41.33559802235481
91.31158450990982 269.3735521988765 42.06610371070577
67.20879230321417 271.13845225264515 43.08692361936811
83.85422952467393 268.99380207260504 40.385086949677074
96.62424608556 267.351937457367 47.54133934636204
62.45917702469242 264.2483278089927 49.19595187526448
66.51863797353589 264.87247021863976 60.051822981537846
77.89316876921953 270.358198336818 39.22900993032826
66.1146326676458 270.5938379814626 58.902231780406126
80.66628700673047 266.3528785085362 38.0699768871457
74.44550099567898 263.07172899103364 36.62735320834233
73.6308241139521 269.86120813968904 60.65865101333971
74.05897090718794 276.36339908125336 47.577902513098714
67.22918953568787 265.9337915816172 41.59286919961828
68.34452439854861 274.49112018643115 43.97414228689667
87.00998307369078 266.890649718564 41.22675579554581
86.70862732950964 270.8287547955136 42.60699964087218
62.53341106862786 269.90476006830136 56.200955093205664
70.11586436091014 277.41693525084185 49.06550920949572
73.02061522275997 275.909176113029 56.22754194099806
69.63059576974817 266.7492880460658 61.14671323132216
65.69255493709336 261.39515234077794 58.737624168846224
75.74630414991914 269.2210550393259 38.16232269214578
POLYGONS 844 3376
3 2 416 357
3 0 345 1
3 4 0 8
3 1 5 387
3 12 401 18
3 26 4 8
3 26 8 350
3 18 13 207
3 22 207 13
3 35 25 22
3 22 25 207
3 52 23 38
3 49 38 34
3 34 38 23
3 51 39 35
3 35 39 25
3 356 350 43
3 52 38 53
3 67 53 49
3 49 53 38
3 50 51 336
3 51 50 39
3 55 57 56
3 373 77 48
3 52 53 69
3 69 53 70
3 324 70 67
3 67 70 53
3 54 71 55
3 80 71 68
3 68 71 54
3 55 71 72
3 55 72 57
3 66 321 381
3 77 92 48
3 69 70 81
3 81 70 93
3 324 93 70
3 95 82 80
3 80 82 71
3 74 87 88
3 81 93 110
3 96 93 94
3 82 114 83
3 111 97 95
3 95 97 82
3 83 114 100
3 83 100 85
3 87 102 103
3 87 103 88
3 90 106 107
3 91 108 77
3 93 96 110
3 94 316 96
3 379 113 79
3 379 99 113
3 115 275 118
3 113 99 115
3 99 275 115
3 102 116 103
3 104 117 106
3 106 117 120
3 106 120 107
3 120 117 119
3 120 119 121
3 110 96 126
3 127 79 113
3 127 113 128
3 97 111 136
3 97 136 114
3 115 118 130
3 128 115 130
3 113 115 128
3 118 105 132
3 105 109 132
3 119 149 121
3 121 149 157
3 121 157 122
3 126 96 144
3 142 127 128
3 134 136 111
3 111 126 134
3 142 128 135
3 128 130 135
3 129 147 131
3 131 147 138
3 118 132 140
3 149 155 157
3 144 143 126
3 124 151 145
3 194 124 142
3 134 126 143
3 135 130 139
3 135 139 146
3 138 148 131
3 149 148 155
3 155 319 157
3 92 133 141
3 133 150 141
3 143 337 152
3 144 337 143
3 134 143 152
3 134 152 147
3 194 142 135
3 194 135 153
3 153 135 146
3 147 152 138
3 154 146 139
3 148 247 294
3 139 140 156
3 148 294 155
3 319 150 133
3 133 157 319
3 144 272 337
3 272 151 205
3 151 194 153
3 152 197 138
3 138 197 247
3 247 273 294
3 294 273 154
3 294 154 155
3 155 154 319
3 272 205 369
3 345 5 1
3 387 5 349
3 2 402 11
3 2 11 13
3 5 345 48
3 13 11 22
3 48 349 5
3 24 25 34
3 26 350 356
3 48 345 373
3 349 48 123
3 39 49 34
3 34 25 39
3 50 67 49
3 49 39 50
3 405 37 356
3 54 55 56
3 64 65 326
3 338 336 51
3 69 80 68
3 68 52 69
3 92 123 48
3 81 95 80
3 80 69 81
3 82 83 71
3 85 72 83
3 83 72 71
3 84 73 85
3 89 90 76
3 90 321 76
3 110 111 95
3 95 81 110
3 114 82 97
3 98 84 100
3 100 84 85
3 98 101 84
3 101 86 84
3 118 275 105
3 101 102 87
3 87 86 101
3 103 104 89
3 89 88 103
3 104 106 89
3 106 90 89
3 122 77 108
3 122 92 77
3 110 126 111
3 112 98 114
3 114 98 100
3 112 102 98
3 102 101 98
3 116 117 104
3 104 103 116
3 120 121 108
3 108 107 120
3 122 108 121
3 122 133 92
3 316 145 96
3 124 145 316
3 316 125 124
3 137 112 136
3 136 112 114
3 137 116 112
3 116 102 112
3 129 131 117
3 117 116 129
3 157 133 122
3 125 127 142
3 137 147 129
3 129 116 137
3 130 140 139
3 118 140 130
3 109 141 132
3 123 92 141
3 141 109 123
3 142 124 125
3 147 137 134
3 134 137 136
3 140 132 150
3 150 132 141
3 151 124 194
3 273 153 146
3 146 154 273
3 154 139 156
3 150 156 140
3 150 319 156
3 337 197 152
3 153 273 205
3 205 151 153
3 138 247 148
3 337 272 369
3 197 369 247
3 387 8 1
3 1 8 0
3 36 22 37
3 37 22 11
3 51 35 36
3 36 35 22
3 37 405 36
3 405 265 36
3 79 336 338
3 79 78 336
3 94 93 324
3 78 94 324
3 125 94 78
3 79 127 125
3 145 144 96
3 272 144 145
3 151 272 145
3 319 154 156
3 369 197 337
3 273 369 205
3 273 247 369
3 297 44 349
3 387 349 44
3 387 350 8
3 43 330 62
3 330 105 275
3 297 123 109
3 59 43 62
3 297 105 330
3 350 44 43
3 43 44 330
3 44 297 330
3 349 123 297
3 387 44 350
3 105 297 109
3 62 275 99
3 62 330 275
3 265 379 338
3 379 59 99
3 94 125 316
3 59 62 99
3 79 338 379
3 51 265 338
3 79 125 78
3 402 26 11
3 11 26 37
3 59 405 43
3 43 405 356
3 379 265 59
3 59 265 405
3 356 37 26
3 36 265 51
3 394 4 402
3 402 4 26
3 394 10 4
3 4 10 0
3 401 416 6
3 401 3 416
3 2 13 6
3 401 6 18
3 18 6 13
3 24 207 25
3 6 416 2
3 394 402 2
3 357 394 2
3 7 416 3
3 7 357 416
3 10 394 417
3 417 394 357
3 21 410 20
3 329 361 9
3 66 47 65
3 65 47 32
3 32 47 386
3 378 10 417
3 381 91 373
3 131 148 119
3 119 148 149
3 131 119 117
3 361 357 7
3 361 417 357
3 15 32 16
3 32 386 16
3 10 363 364
3 364 363 33
3 33 363 47
3 378 363 10
3 345 0 364
3 364 0 10
3 47 66 33
3 373 345 364
3 364 33 373
3 368 3 14
3 3 401 14
3 363 386 47
3 363 378 386
3 386 378 329
3 329 378 417
3 386 328 16
3 9 276 328
3 328 276 16
3 404 7 368
3 368 7 3
3 400 404 368
3 7 404 361
3 361 404 9
3 65 32 326
3 329 417 361
3 76 322 75
3 322 66 65
3 383 315 15
3 15 315 32
3 45 315 314
3 314 315 383
3 399 45 46
3 46 45 359
3 63 318 310
3 63 310 74
3 46 303 318
3 60 323 86
3 326 32 315
3 315 45 326
3 314 359 45
3 383 301 314
3 314 301 359
3 320 317 299
3 359 301 295
3 295 301 313
3 295 313 293
3 74 292 63
3 63 292 75
3 74 88 292
3 292 88 75
3 31 291 423
3 313 331 291
3 373 33 381
3 33 66 381
3 313 301 331
3 331 301 383
3 359 287 299
3 299 287 320
3 359 295 287
3 287 295 320
3 29 187 21
3 30 311 187
3 187 311 21
3 15 395 383
3 383 395 331
3 395 372 331
3 372 408 331
3 423 291 408
3 408 291 331
3 16 395 15
3 399 282 64
3 282 318 63
3 45 399 326
3 326 399 64
3 91 77 373
3 108 91 107
3 91 381 107
3 372 395 276
3 276 395 16
3 404 274 9
3 9 274 276
3 89 76 88
3 76 75 88
3 64 322 65
3 75 282 63
3 41 262 279
3 260 293 31
3 42 171 380
3 380 171 317
3 42 263 171
3 267 244 261
3 261 244 414
3 267 259 244
3 244 259 414
3 269 362 251
3 269 245 362
3 239 271 300
3 259 260 271
3 271 260 300
3 257 234 389
3 234 239 300
3 9 328 329
3 329 328 386
3 202 285 408
3 408 285 423
3 313 374 293
3 293 374 31
3 313 291 374
3 374 291 31
3 320 335 307
3 307 335 293
3 320 295 335
3 335 295 293
3 66 322 321
3 321 322 76
3 72 308 57
3 322 64 75
3 64 282 75
3 58 230 308
3 308 230 57
3 230 268 57
3 318 282 46
3 46 282 399
3 236 396 311
3 423 285 396
3 276 274 372
3 21 226 410
3 410 226 285
3 21 311 226
3 107 381 90
3 90 381 321
3 14 224 20
3 19 278 224
3 224 278 20
3 268 223 41
3 41 223 262
3 223 248 262
3 30 188 389
3 389 188 257
3 29 278 220
3 41 218 56
3 56 218 266
3 41 279 218
3 218 279 266
3 21 217 29
3 29 217 278
3 21 20 217
3 217 20 278
3 408 372 202
3 372 274 202
3 214 235 279
3 389 411 30
3 30 411 311
3 389 236 411
3 411 236 311
3 252 212 348
3 348 212 241
3 252 227 212
3 212 227 241
3 303 299 419
3 419 299 317
3 86 377 60
3 60 377 74
3 86 87 377
3 377 87 74
3 20 370 14
3 14 370 368
3 20 410 370
3 228 351 17
3 351 216 19
3 423 347 31
3 236 300 347
3 52 343 23
3 23 343 27
3 52 40 343
3 343 40 27
3 235 332 28
3 28 332 232
3 235 222 332
3 332 222 232
3 57 211 56
3 56 211 41
3 57 268 211
3 211 268 41
3 40 210 266
3 266 210 56
3 40 54 210
3 210 54 56
3 40 209 27
3 27 209 28
3 40 266 209
3 209 266 28
3 220 216 208
3 241 206 348
3 348 206 30
3 241 188 206
3 206 188 30
3 27 204 23
3 23 204 17
3 27 228 204
3 204 228 17
3 202 274 400
3 400 274 404
3 410 202 400
3 410 285 202
3 235 199 279
3 279 199 266
3 235 28 199
3 199 28 266
3 228 201 232
3 232 201 28
3 228 27 201
3 201 27 28
3 23 198 34
3 34 198 24
3 23 17 198
3 198 17 24
3 278 196 220
3 220 196 216
3 278 19 196
3 196 19 216
3 19 224 12
3 220 191 29
3 29 191 348
3 220 252 191
3 191 252 348
3 18 195 12
3 24 17 195
3 351 195 17
3 296 168 61
3 296 384 168
3 168 384 284
3 257 193 238
3 238 193 251
3 257 219 193
3 193 219 251
3 190 302 269
3 232 189 228
3 216 351 189
3 189 351 228
3 241 219 188
3 188 219 257
3 235 186 222
3 222 186 242
3 235 214 186
3 186 214 242
3 227 185 241
3 241 185 219
3 227 190 185
3 185 190 219
3 214 184 242
3 258 302 184
3 86 183 84
3 84 183 73
3 86 323 183
3 183 323 73
3 269 325 245
3 245 325 258
3 269 302 325
3 325 302 258
3 12 360 19
3 19 360 351
3 12 195 360
3 360 195 351
3 219 346 251
3 251 346 269
3 219 190 346
3 346 190 269
3 262 181 279
3 279 181 214
3 262 213 181
3 181 213 214
3 251 179 238
3 179 251 362
3 29 348 187
3 187 348 30
3 258 178 245
3 178 182 245
3 213 258 184
3 184 214 213
3 61 420 310
3 296 286 384
3 263 233 286
3 286 233 384
3 250 240 180
3 24 195 207
3 207 195 18
3 216 189 208
3 189 232 208
3 296 419 289
3 289 419 317
3 60 176 323
3 176 192 323
3 305 175 421
3 421 175 309
3 305 192 175
3 175 192 309
3 73 174 85
3 85 174 72
3 174 308 72
3 309 173 421
3 421 173 407
3 309 254 173
3 173 254 407
3 318 277 310
3 310 277 61
3 318 303 277
3 277 303 61
3 299 413 359
3 359 413 46
3 299 303 413
3 413 303 46
3 303 281 61
3 61 281 296
3 303 419 281
3 281 419 296
3 208 172 220
3 220 172 252
3 208 200 172
3 172 200 252
3 253 358 42
3 42 358 263
3 358 233 263
3 50 170 67
3 67 170 324
3 50 336 170
3 78 324 170
3 170 336 78
3 249 327 58
3 268 230 327
3 327 230 58
3 242 290 222
3 222 290 200
3 242 382 290
3 290 382 200
3 54 177 68
3 68 177 52
3 54 40 177
3 177 40 52
3 284 420 168
3 168 420 61
3 284 176 420
3 420 176 60
3 31 365 260
3 260 365 300
3 31 347 365
3 365 347 300
3 310 342 74
3 74 342 60
3 310 420 342
3 342 420 60
3 305 339 73
3 339 58 308
3 260 264 293
3 293 264 307
3 260 259 264
3 264 259 307
3 58 167 249
3 249 167 407
3 58 421 167
3 167 421 407
3 222 166 232
3 232 166 208
3 222 200 166
3 166 200 208
3 368 370 400
3 400 370 410
3 200 165 252
3 252 165 227
3 200 382 165
3 165 382 227
3 304 352 248
3 248 352 262
3 304 213 352
3 352 213 262
3 250 164 240
3 250 182 163
3 12 224 401
3 401 224 14
3 268 327 162
3 162 327 249
3 250 161 182
3 182 161 256
3 250 180 161
3 161 180 256
3 239 234 238
3 238 234 257
3 245 159 362
3 362 159 256
3 245 182 159
3 159 182 256
3 223 268 162
3 162 248 223
3 300 398 234
3 234 398 389
3 300 236 398
3 398 236 389
3 236 347 396
3 396 347 423
3 256 392 243
3 243 392 270
3 256 180 392
3 392 180 270
3 285 226 396
3 396 226 311
3 238 355 239
3 239 355 414
3 238 179 355
3 355 179 414
3 179 340 243
3 243 340 256
3 179 362 340
3 340 362 256
3 259 271 414
3 414 271 239
3 414 367 261
3 261 367 243
3 414 179 367
3 367 179 243
3 261 246 267
3 270 353 246
3 246 353 253
3 270 391 353
3 353 391 253
3 341 371 283
3 283 371 240
3 371 391 240
3 255 333 283
3 407 254 333
3 309 409 254
3 254 409 169
3 309 366 409
3 409 366 169
3 334 388 237
3 255 164 388
3 388 164 237
3 233 354 384
3 169 366 354
3 240 406 180
3 180 406 270
3 240 391 406
3 406 391 270
3 407 422 249
3 248 397 304
3 397 334 237
3 302 393 184
3 184 393 242
3 302 382 393
3 393 382 242
3 169 390 385
3 385 390 233
3 169 354 390
3 390 354 233
3 190 375 302
3 302 375 382
3 190 227 375
3 375 227 382
3 178 304 163
3 163 182 178
3 358 385 233
3 304 231 163
3 163 231 237
3 304 397 231
3 231 397 237
3 286 296 289
3 289 263 286
3 385 229 341
3 229 253 391
3 267 225 380
3 380 225 42
3 267 246 225
3 169 280 254
3 280 333 254
3 384 158 284
3 284 158 366
3 384 354 158
3 158 354 366
3 334 215 162
3 162 215 248
3 334 397 215
3 215 397 248
3 237 203 163
3 163 203 250
3 237 164 203
3 203 164 250
3 304 312 213
3 213 312 258
3 304 178 312
3 312 178 258
3 341 418 385
3 385 418 169
3 341 280 418
3 418 280 169
3 323 412 73
3 73 412 305
3 323 192 412
3 412 192 305
3 366 221 284
3 192 176 221
3 221 176 284
3 174 73 339
3 339 308 174
3 380 415 307
3 307 415 320
3 380 317 415
3 415 317 320
3 263 289 171
3 171 289 317
3 58 344 421
3 421 344 305
3 58 339 344
3 344 339 305
3 255 288 333
3 333 288 407
3 255 422 288
3 288 422 407
3 192 221 309
3 309 221 366
3 333 160 283
3 283 160 341
3 333 280 160
3 160 280 341
3 261 376 246
3 246 376 270
3 261 243 376
3 376 243 270
3 42 225 253
3 253 225 246
3 253 229 358
3 358 229 385
3 307 403 380
3 380 403 267
3 307 259 403
3 403 259 267
3 249 306 162
3 162 306 334
3 249 422 306
3 306 422 334
3 341 229 371
3 371 229 391
3 283 298 255
3 255 298 164
3 283 240 298
3 298 240 164
3 334 422 388
3 388 422 255
