# vtk DataFile Version 3.0
A great-looking cell
ASCII
DATASET POLYDATA
POINTS 1149 double
230.99242944317115 217.93975761576485 40.96473603226192
234.11237420224717 216.95301716466528 42.85957328918769
231.61171695651174 219.87998912676386 39.36328656478089
233.79064536211635 218.67766454785263 41.15147640816894
233.81269791564307 220.84424653135747 39.163548434276734
235.37837821502364 220.33094080107074 40.295933177217016
229.82001033633034 223.70372689589692 37.21041871132079
231.9747425461645 222.20742046855497 38.081705515222595
234.0179026157752 222.83367607532986 38.17707681739685
235.6200368485026 222.13674068255565 39.38561308940992
232.8434105994289 224.90724410139458 36.62257892774714
235.6509149184011 224.3609314623559 38.16285058370543
224.35993492974077 217.88773690752956 45.259560087330485
225.69582054252908 216.567515476103 46.29365115905263
227.61076391624803 216.0540021758433 45.362539956494295
229.46936544110096 215.4991064968679 44.49765159228445
231.44742757584373 215.46627115205433 44.05023818621133
233.36719945378516 215.76032883784507 44.03586188552433
235.16584207537267 216.2866822476689 44.20950398270459
223.39233746678195 219.38670464316624 44.40163386575607
224.67958044358463 218.5812372779485 43.65947726219157
226.1661825859036 217.44026505827952 44.039882887481404
228.18509508026543 216.74215437102313 43.33335339197436
230.17666512268605 216.4999582402825 42.671475766023605
232.35380030602394 216.67870018712304 42.4361592972978
235.5839008147011 217.9361082352117 43.0467264914129
222.642933166252 221.08633107311945 43.437104966152106
224.11921456338925 219.86515103255522 42.57808249230967
225.58182207168667 218.5931830814419 42.17596929260145
227.06635546891846 217.6758724225366 42.215481948777295
228.71259126174095 217.4934245765447 41.330058064162465
236.17638213284525 219.5343969932621 41.818889176461084
221.75539111878408 222.97908197974587 42.27720577473008
223.65450530176253 221.72405439750415 41.461204891228405
227.00298766671096 218.74604152748728 40.52273370400712
229.18938394288395 219.15354237803655 39.60064988718646
236.97029389755252 221.19494195258346 40.83174190829744
237.86008903944017 220.23175624477375 42.19824156495355
221.01563611065387 225.30835279414697 41.01513234107535
223.05309790858553 223.73723036627834 40.19416488511109
225.069815261445 222.42309456884325 39.55985710970642
227.26595529771154 221.00572128094004 38.9797538133043
229.70491549087424 221.2859555358311 38.34373058744909
237.7379956205777 223.41889451129015 39.9709631385663
239.4674266053783 223.6559662622728 41.450321148126996
222.8051610697555 226.0721203178278 38.80450375900054
224.62624063004813 224.4432715901232 38.72934637733896
225.3469320621212 226.3233400837367 37.312553081012254
226.97337195287744 223.77471980373997 37.97295549599614
228.41336920080545 226.28572937922615 36.352370320995206
231.15008424538993 227.56382773449153 34.84658512949942
235.53145205628363 227.11429787701584 36.78182429103004
237.80435306882168 226.0902298811409 38.70389538719843
239.80366145746672 227.60445361189434 40.176417761456506
239.22742158665037 225.18018717294817 40.42398914564818
223.1902671332497 228.94990823167652 37.04792979677106
226.34345131390134 228.7322033122382 35.55373687947686
231.9888357838364 231.04834988215995 34.08204005783176
234.1832874310483 229.20825349685364 35.29060825567786
238.20393389210125 229.26440046815685 37.569537656782444
227.00276192767222 215.00538892588463 47.355338231425556
228.53464678151988 213.85962384483827 48.42585878475348
231.92678718150378 213.60312171941098 46.741187575045835
235.4871260913368 214.42572638365465 47.12729418859049
223.87860283826606 217.25032472977787 47.2799100416243
228.93902519070215 214.67810476338025 46.43762250686242
230.72245233157247 214.22246868989095 45.57100736626687
232.598036846702 214.57049080275166 45.428764766813345
234.39626022734132 215.09782336559 45.60147549056339
236.15096526904665 215.7449262020028 45.85982298693773
222.99091938734676 218.89175712293465 46.31803150529032
236.99697547012653 217.02403694379566 44.50988302312642
237.84300421284394 216.52854506610817 46.49815873715755
221.98091150825755 220.39002865737538 45.40104685591217
238.83572134919314 218.1105730474965 45.18896389191477
221.17571384038808 222.34755197034815 44.641519543128325
239.29196408862202 220.38832203741035 43.868224128637486
220.1343224111707 224.54026123120767 43.651506277707675
240.25052785689445 222.79187419946004 43.236774517862564
217.562401333291 228.2922789868731 43.87422530638592
219.07591027937397 226.9688572722036 42.43079636082841
240.81587829810397 225.35570419364527 42.31527361079462
241.6203273920772 227.8153826898025 42.109864179617475
218.1493478127898 229.85338188541968 41.63284611613635
220.41235764545263 228.31675854729878 39.617036018933284
220.6411114036887 231.38497109734567 37.94611544135399
223.0380983518993 232.1473860218474 35.6880442942232
228.0951978153935 233.43255141219313 33.50576655958346
234.221492243753 233.4477630668923 34.20723529490061
236.09388654045404 236.13712524053304 35.04913118523962
236.45450984907959 231.41172091761086 35.47709268001028
239.9563760779808 232.105409295032 38.87421916848769
241.04082655862172 229.87913200484596 40.88481600650765
218.44715350127683 232.30180993367026 39.85334602250527
219.41980523067446 234.474998545531 37.66367858049431
238.3781361268325 234.13065482538596 36.42827776712068
226.5758634235223 214.03280113075212 49.69121013395304
228.38206587874998 213.24108671070005 50.17220301951243
230.04167085767816 212.904147020218 49.52797092294337
232.29035592351562 212.92873951712318 48.721564562020355
234.8033703525209 213.0778211757839 48.707936547324486
223.36078903062085 216.73267999750323 49.488521725428555
225.10983429566855 215.67640875038947 48.4093811055332
236.73269199970687 214.14159964659342 48.71412696335815
236.93085502829615 215.27897361787538 47.3374246566698
238.36748146814978 215.67411459638058 48.57549703553272
222.42857341908774 218.4781957873058 48.31272394722198
220.72837481542473 220.06953644111064 49.11128021308804
221.6662657835684 219.7589535107839 47.14855899674114
239.6104154749141 217.5589879405764 47.660959779229756
219.59844622924976 222.54961123581623 48.63246932328013
220.65390206658662 221.3653813943285 46.797777908601645
240.27179699057527 219.60738067773573 46.30999115219428
241.12243806869333 219.0319068979651 48.18890739642184
218.3308633688281 224.74028419039738 48.03156898559519
219.74787636179659 223.64718862765164 46.21762682877029
241.90327675437808 220.80215773404743 47.49447415672663
240.98125567323135 221.71052545829392 45.403954612021046
217.25720597132488 226.6804852468751 47.719320480026994
218.2990708429254 226.17490503596656 45.43412933797492
216.65690329383713 228.79423752321904 46.34371612952809
241.6485257441728 224.07127873170904 44.92611148748542
242.44375942649836 226.85905019492625 44.68430839982879
215.64341280955898 231.70848380405417 45.72934083176291
216.73880831063593 230.24192693224455 43.97686836181651
229.18148474089196 236.48478512134906 33.47705465011848
242.06256301513824 229.7439883360014 43.574123358095044
241.46878026799226 232.43935426652789 42.10038887417854
216.60184058694827 232.89780850895409 42.66950282041575
217.34126787635176 235.09075651739798 40.07073766526637
218.5157845539551 237.67082356668473 38.4918914809326
221.86981527417876 235.5704222704744 35.6308113469743
228.81209942577377 239.7304112386027 34.13375748043205
237.4020943231913 239.13271202190145 36.56487908143231
239.6983518653597 236.92559104416287 37.786346393954894
240.98161787113443 235.34769873847526 40.41011615733325
215.78566264441594 236.43717804159832 42.43128688025494
216.8148431640691 237.141344802954 40.34069071122184
224.6394542104619 215.142379487315 50.68967179722876
225.8514288669868 213.95079589410554 51.76023426206138
229.36341929436946 212.43118353892447 51.539875336278556
231.4277304077589 211.87795025487912 51.01578092937516
233.8301596400947 211.95817948921075 50.736160354331
236.4770107670961 212.6171271018504 50.76796831896699
222.76647534333296 216.26139066738003 51.99716842015068
221.31374223273517 217.7715533683225 52.35066713125278
221.73755570144849 218.02671484463912 50.44732481572314
238.05650306395657 214.2106258345856 50.06981626685681
239.60068836444356 215.60562873328539 50.69830427564336
240.96089816027862 217.59643069989963 49.83863549216678
218.42820908406827 223.8433980544562 50.510858102627424
242.49917656691304 219.88139008872594 49.86187952684272
217.1170557464775 225.87396040488946 49.80379920226341
242.25397539236678 222.75998202806338 46.76345037458764
243.23184924532035 222.3946196954018 49.03331303289493
244.34144054216017 224.76915823500198 49.88815450437279
216.23753434432277 228.0292250722522 49.08121105485886
243.1579113850587 224.96608350962592 47.15452711649161
243.98571721826417 227.1185465268987 48.521759113715916
215.21089752477337 230.6187665189467 48.67192991232788
242.66690614296832 232.2327905812264 45.054655365081146
243.32657131469318 229.25790151318904 46.537181086126814
243.73186788221415 232.19882198850166 47.897959439096915
214.51240451611474 233.07633632057758 47.60556975284656
214.90777516795595 234.90614749253567 45.36343266641252
231.4402635462259 243.50919601180553 35.63043713217637
223.65530758593806 243.8107092585494 35.18665738310514
240.70178906434023 238.95057760663585 40.57419541316328
242.17599220514964 235.3437354387366 43.77538807460651
243.01393316277787 234.42994894659668 46.52671105302815
213.77487173074203 237.90493479078592 46.35093628540853
216.59349061987118 239.39847515462654 41.03577950676465
224.36013818034297 214.47409684562282 52.91107452824547
226.14193442156915 212.94503573982556 53.76287784344781
230.45066265871256 211.2068300592833 53.214940378843956
232.7727921543143 210.96956277845842 52.8773145533206
235.1362156800366 211.06094912338267 52.72933544777918
237.547037919841 211.5464833978525 53.20736638846427
222.8728792874704 215.31201158393003 54.30997956637941
240.42474465553528 214.76729704596744 52.99260236349275
238.69209568578398 213.5015849784798 51.92997781658854
221.47103198207162 216.81663960306975 53.95612218680491
220.4642521766353 218.62988661858705 53.78206941320753
241.6332636492972 216.39645948433883 51.90980290254106
241.90193125168128 215.87980102918138 53.90279165586892
219.32002468113947 220.53476916661683 53.39011890308674
242.49544793547037 218.24613862233616 51.454552425296754
220.46261691805915 219.39548002321115 51.67777194575959
218.13634276707884 222.74685850089406 52.98753326443303
243.95044519236268 220.07393515678766 52.452176409826826
219.4061798580261 221.49678315962885 51.04043232416741
216.9480867485811 225.0461969220021 52.2567083438156
244.38526741208645 222.5882464675729 51.5966738145311
245.20724698696745 224.68473453062978 52.068640336123934
215.83621178424232 227.14608441291412 51.31331594008457
245.11980400048563 227.08053799749513 51.35834999407429
215.30461234158986 229.07183636623165 50.60872378489761
244.37303765032024 229.643107501769 49.61324197118102
244.84668246921942 232.43235601827908 50.68705340870492
214.5214252812484 230.84301385580468 51.36451095978449
214.05348662865018 233.02507388545237 50.07015291195294
235.07596212589976 250.02465747573717 43.25222626904426
241.10009307924733 241.6021243918776 44.576379204028896
242.80544994544275 237.20250602019573 46.762517931656596
244.05846725032262 235.22110973035265 49.006410129751565
213.70052890340548 235.44273579195902 48.45633406050203
213.0114800215301 238.43791563157032 49.60659047245521
214.13124386579497 241.13883824716393 45.86841991137797
219.96764710156185 247.48062360661686 40.01139884833886
228.43717350112968 249.4563590888051 38.12081063793334
230.75115371412357 250.98218258521413 40.71706673947354
213.59061865172686 241.6493839853452 49.0876018940995
215.60072493068054 246.33325757902023 47.21352784226776
224.25793950617614 213.76581469775067 55.13703650598675
227.3493143856541 211.68811617158187 55.272762644800835
231.78643922863046 209.852406297787 55.28968604954001
233.99812210220702 209.86867532775085 54.290135241982746
236.06404584437055 210.07638552464448 54.89266315325518
222.67903034942205 214.6358662540042 56.3100338636911
221.69056184443184 215.95905564921927 55.548994625184484
239.61558148878282 212.74737287233472 54.187150360146916
241.33442996650865 214.31729042095319 55.193753216313006
220.5791433969666 217.65963431137948 56.00560427491236
219.48467803542803 219.54203428218054 55.278416408671944
218.16421521961936 221.55248080590957 55.62399357779902
216.55059811335255 224.0397390350104 55.096981735785185
245.5957336975793 223.27230998343683 53.855546560905935
215.43848321735948 226.5377295257305 53.75521707076405
214.27257494714928 228.4891576814219 55.070183202222445
214.8571970122027 228.80235459515077 52.640865500522
246.03259864132465 225.8435024257287 53.86178014426001
246.2829123080441 228.3074197187502 55.10705350722106
213.77074120803724 230.7619455797686 53.723352624695664
245.47250733690694 229.8056280769124 52.58280878381705
246.23678364065668 230.79630291436982 54.72290476958226
245.57916493498794 232.66621122005728 53.395467899508944
212.9468369122077 233.37533228985004 54.747276087637914
213.55452995308602 232.6803985059365 52.35658626036909
241.84172285560388 242.43815383270294 47.65979862007446
243.9829321877004 237.65638564144575 50.885205298703816
244.82534198220023 235.03836482610558 51.96483300857927
212.89152701040447 235.54747238008608 51.96596461027416
212.55048106344069 238.1462397265775 51.959732771883296
232.44334930185505 252.09310384433022 43.60305656497746
212.7319004978348 240.6531356078954 52.040290325992935
214.4079889086062 244.91647914837804 50.11308394148253
219.5948026689764 251.16965909744022 46.4372887703819
222.86264708511928 251.07758846670865 41.73854357934139
234.24301261355652 208.5826760220112 56.40607461823819
224.0334911264147 213.34004298436034 57.37638209651498
225.37525104333423 211.97934823783666 58.61993106640868
227.55002886712924 210.93809452282255 57.611507362329455
232.02411065159876 208.50894637085418 57.506443050084215
236.95929729702968 208.9589549506642 57.342367507483274
240.13246959545734 212.61242766167902 56.72458113507405
222.41762362825602 214.29256486271993 58.3642670506937
221.28418241853512 215.75370226461408 57.30301775988977
242.12533746204582 214.15837843623527 57.67729213999414
220.06491223441438 217.17330145696363 58.405714901391526
219.06188034214247 219.47123433660343 57.62619402395204
245.02736971530976 217.90361334537317 57.56392766911111
217.25907982417908 221.56311305860865 58.13549934730126
246.12545540670203 220.057264504322 57.10100556937539
215.92112672163537 223.9577392887331 58.12240737196487
214.53942608752394 226.0998244052677 58.68729188397086
214.98066320171853 226.16252198112576 56.38133494449564
246.1616488771866 222.87361173491627 56.706452646657446
246.66697025328583 225.5767582027848 56.59270420650963
246.9035215034073 228.02046320981626 57.95450824514256
246.61470490795082 230.39517422173546 56.88190258680882
246.18617594536815 232.7744635213416 55.91575735688111
213.071727181526 232.91230556204124 57.48402164503368
242.66032119679855 241.97228012091213 51.36097098202562
245.42521421439378 235.12318923359524 54.62369381156688
244.78313023709939 237.11489432846332 53.25415977998392
213.47527461692093 230.73282497424162 56.36627483621857
212.3915492939076 235.66226885061164 56.934254419352555
212.3409333855156 237.9957300468725 54.32808304678069
236.7991658833188 250.32675679459336 49.5568004381796
237.75224437924166 249.83270726771926 54.0560746393868
243.88663391128262 239.5941986195016 53.11895703085565
212.38587337489116 241.43794129323425 55.37821741855784
213.48100098779688 243.87421011862958 53.10215825281288
227.31734148099326 253.57848031416182 45.796928132666785
232.13759761067874 253.78728024823567 52.334761522935295
221.18856887639112 252.84300550717876 50.147329135208714
215.94552657462089 247.6622361249227 51.635484079178575
233.54532533919087 207.54968948840903 58.991767464538825
236.25993812433333 207.49864269841487 59.86893859487246
224.68963877110957 211.54412541573402 61.01587208716749
223.05432409216164 212.7076162348669 61.1522976340354
223.62941734158505 212.98176222232996 59.498144472676124
226.51161182896428 210.7177207313619 59.86087815524223
228.5435489583598 209.42020821316365 60.14032939672404
231.03513482039406 208.2114275512753 59.77716328873462
238.105150755884 209.15336827390215 59.49644640780694
239.7512679697603 210.33770448061696 60.549974645562116
240.90652994148388 212.2637125973722 59.213920791339845
221.98489410798675 213.80495327580877 60.32225220974484
220.96863676457912 215.38293617120206 59.39496300577761
242.86476765096944 213.87406976021578 60.316054621256995
219.873069455834 216.7720890352617 60.57758743261993
219.12623156736944 218.33959585075718 59.6591598744993
218.10747017072612 220.09719538303494 60.10376634498885
246.1724219015187 217.55701358397474 59.84701252266165
216.2748579937575 222.22077860861214 60.83002044439191
246.68126889242794 220.16075389257662 59.75448144018402
246.89369833595393 222.86685323154146 59.590364243453806
214.8993870146144 224.89363678117974 60.969234287594965
214.1064262995298 227.72953430378038 60.3672646991759
247.00657677690967 225.5504545303401 59.45820539060125
247.1101583235786 228.24122634907442 60.682579857878515
213.40564482447033 230.75371928585793 59.48867310747564
246.7422437293451 230.05811003313087 59.12257652497045
246.49000109104514 232.3868453926845 58.56181851984145
213.89729563935558 228.256859543133 57.710086269804194
212.78747596211676 233.99482239673884 59.87315740066916
241.5222703061862 245.73648264499982 57.13361527849716
239.92231214373635 247.97927053918127 55.60996338999612
245.76177213484058 235.1234048034433 57.451679963679496
244.73373212895868 237.89737572337313 55.86333788436941
211.78206054160336 236.9074951686475 60.02374524643133
243.67543518646013 240.98205793922776 55.84037834681517
211.87361739524115 238.98279771618368 57.627667616672895
212.01664924704866 242.13812000935374 58.645664700660014
230.6204157350857 254.39272120993175 54.86098557939373
234.41768101840046 252.83373279490132 54.65852078461717
232.28759439617792 253.73631017522135 57.14953620947743
213.41928196216864 244.70273187021547 56.74455443921445
222.29050226926475 253.6800720086994 56.42846863588117
226.48275651006475 209.91265028592468 61.912195454166145
233.71389417799685 206.59944844311624 63.91331654929725
233.91781458455398 206.99961958515576 61.43948265073868
236.32960291897254 207.047727648748 63.04218229834486
238.32586791615873 208.51658591982704 61.65452530962975
223.29726442683636 212.16905747415197 62.743580991526166
224.81246664673452 210.87797512167427 63.42110474119031
228.60928850216698 208.5968746425401 62.93687904084741
231.38742559902724 207.5351793336118 62.49538527251339
240.06084175723493 209.99629458707295 63.11686928517649
241.54036410800262 211.9300080956274 61.8445774250534
221.9616257502518 213.4529183533708 62.26995335585773
220.7369972495711 214.9627993153428 61.54698927050668
243.3350115468932 213.81788914664412 63.069494745115946
219.6773317650994 216.52938157354382 62.841695089617296
218.79573570908755 218.3681493219112 61.634739134683954
217.4257673143301 220.17165349158685 62.58150361078412
246.49843481360233 217.65475679215615 62.63296933275824
216.05393402513872 222.24086246475096 63.79806193193711
247.23024290947987 220.20530012151383 62.53798873390595
215.06063652880823 224.52969454049153 63.58479649550204
215.502959313186 223.43189848171755 62.293753712715905
247.46107447599738 222.9418970422617 62.446905594025715
214.17447075083732 226.86900597925464 62.994236754560255
247.58084491214126 225.72366288262205 62.32314137686988
247.445754350423 228.81770517785557 63.737769289910645
213.46176156107256 229.4780203686526 62.34241653663243
246.95737128449818 231.31370292620792 61.48762346678144
212.6922126011122 232.14117572688917 62.24999843413381
245.3233062659847 237.93263237836518 59.211728716166924
246.2963686605984 234.6306319617206 60.53717829993544
245.98028663023985 237.18098084656697 62.55809505832509
211.88728299323915 235.25294881874254 62.89156641296011
211.30087129399135 237.99175271387378 62.33148445644322
244.14849754759106 241.21682008879432 59.11079640901603
245.32958800910257 239.81419824938368 64.32696094791696
211.51184790524636 239.8141312109674 60.608202589240975
212.01088705181326 242.52219370855286 61.746264094294006
238.15285469821066 249.71541086105992 61.605269762293986
218.9408265715839 251.4517581927955 58.968882460999076
212.93165906595803 244.87818783798716 60.02300188754755
228.39751203196585 254.8289177388063 60.04114380898271
226.41171858917448 209.42724349410364 64.34500424284518
228.02640718186728 208.55346296432953 65.3694089877489
233.41094071977545 206.40990386225104 66.32330326355988
235.56555954308305 206.3251334144038 65.50303651842228
238.5784294989888 208.17957440843392 64.13661743701938
222.21804210213259 212.96101715866976 63.89036005910367
223.29752121440825 211.81808237146777 64.7455865663544
224.82266838213917 210.59464921566274 65.75548210474274
229.99445418461397 207.79163836862978 65.08132718782018
231.85541622349749 206.8059538213124 64.94849068636283
239.99872956423158 209.5953685061984 65.66314832255273
241.88210727564862 211.72229964327025 64.90804532548101
220.82870998438653 214.49928108324522 64.01068465623464
243.87778896723438 213.98861692131524 65.76789394452283
219.48056991616875 216.40608047926455 65.28328095725172
217.3168153694893 220.14428502440185 65.17716360077067
246.50614932387424 217.76937205500016 65.43132023958111
218.3136895942931 218.19007908442617 63.98439279599965
216.31023312721285 221.97802727264957 66.54022568236776
247.5283046059046 220.246102622345 65.42509120106321
247.71973490578216 223.04968212767236 65.37421683646457
215.3502000519086 223.73059835071518 65.58830010166841
214.63429616612018 226.1464104837231 65.8570697367695
247.75737466129044 225.86401110131027 65.28650322790098
247.5872303492188 228.28120629557048 66.47071951096264
213.5894558868282 228.70769807019946 64.84271407569453
247.28326467111455 231.03854842071766 66.11365294417756
212.98434949975342 230.75816272840498 64.12198265222715
212.3602700030957 232.82680956707227 64.87201621772056
246.6567048867816 233.75576869062903 64.00101342845804
246.16493180276586 236.95513104485366 65.7846396067303
211.46398356654333 235.19875960320016 66.08370006961492
242.03618212042346 245.43839531804517 63.07719485529342
243.91137874330718 242.21909999896133 66.11809180360862
242.6411671922409 244.2278883524908 59.878216909888295
245.22129196931812 239.63707868495547 67.26671377062347
211.06153950710603 237.82289392501318 64.84004647556176
211.17709900685858 240.30008198792547 63.4006498013498
211.47546732098337 242.77520035084717 64.41525356412103
239.54672522940334 247.85951374165393 66.24747478964676
213.03858707267958 245.23211217263403 63.392158984374696
216.2255828152139 248.55315696876755 64.34349143177138
235.54068951763375 251.64628690487913 62.820251034506434
232.4177178145686 252.91529670462126 63.73183139911798
222.60597385994726 253.4467314921956 63.11529226884034
226.59279264865629 209.4113054450787 66.78803308775962
231.31740999861765 207.16145257789879 67.06195036884706
238.63531655637482 207.861446914017 66.38367654752565
223.17356447396693 211.77089038367973 67.00533210814608
224.8752025001497 210.59018296382902 68.2141180677379
228.93975212743402 208.40323057186032 67.68535597967528
239.54871664411905 209.22850524564313 68.2317139467618
241.11605879042946 210.76680664779587 67.21168176618053
221.87164548020334 213.38382473295556 67.93685914561405
221.9828906982863 213.16928638389473 65.6981933710051
220.66688084277015 214.76308279974162 66.59137135182316
219.4365292816041 216.45173779062193 67.75114938702015
217.91148928178268 217.99804041723394 66.5102235274618
217.43412401137329 220.10930728466363 67.63183252354571
246.06695309006375 217.59262354990418 68.42899002543173
216.7062608419477 221.82773538225504 68.88128337715038
247.38223218756528 220.3249885540445 68.30836226243723
215.42919404366958 224.0851332900321 68.1239246118222
247.5986272589798 223.1805570457662 68.32720767944852
214.65141047439002 226.52720925372972 68.46301796166338
247.69168163406295 226.2260756019305 68.40066256592769
213.77079954392738 228.47258623748533 67.42267917082782
212.98763532293677 230.72152928679859 66.30659789002485
247.46216426104257 229.462891462575 68.80392560983961
246.8811608538818 232.15873666229334 70.42913734902935
212.24374882310335 232.96472948047744 67.58732748416045
246.67857867070376 233.95468819910727 67.67630164566893
246.3268867240872 234.94400088977608 70.27929973556888
245.74285963760832 237.08505821960935 68.82520964639369
211.41666438193528 235.0811522056273 68.56878556215842
243.15533541896883 243.03093888974237 69.14310812426606
242.04810229743467 245.26858456909 66.5787112010671
244.57062740953674 239.9976726245372 70.20089763500108
244.4002634719118 241.31688578868344 68.20864538850815
210.91991546224864 240.7853266978157 66.61574136302403
212.34743342522992 244.2296674952673 67.09529488315866
213.58693662626382 245.78294460542068 70.01937066768842
214.53507268420125 246.65144538537413 65.85355186767872
237.7838354542175 249.1199356917719 68.92098184690069
232.70060222160316 251.96861682578123 72.5330595140107
219.60683361812548 251.23394724920954 69.41622779764374
227.62865974548404 253.91254778159598 68.09575857997025
226.84576523607902 209.5206621929432 69.30615719592467
228.85501855378448 208.72905912903627 70.60561355085406
230.9018952207268 207.52071119022534 69.59300145779535
235.0024853545442 206.29837292399517 70.1727874079795
238.3059291980372 207.99703422032908 69.92156395302985
221.7275971086172 213.73362117790774 69.79823208646994
223.03244121430373 212.0146150940063 69.66321313948778
225.06927714936427 210.65856575620836 70.72362740801638
239.60570466953376 209.58760113735448 70.8314563307998
220.7417601773417 214.9690595321589 68.84821821667283
242.7745277877668 213.41217940591176 70.70998191486912
219.62448476316732 216.3870070468706 70.07367320752999
218.3413109777953 218.32359733985987 69.18309356562501
217.5200082388129 220.22189819336532 69.53931573497803
216.94482234537142 221.22126851080876 70.85853609887359
247.32046453260187 220.5140934552118 70.972603383347
247.7066359700419 223.14623541739482 71.23632103535677
216.10025565757698 223.13940020740924 70.61863508944262
214.85312381592493 225.54236646640794 70.8778587350596
247.42188514542144 226.0902485671231 71.4518059554191
214.06695854893076 228.2421086252471 70.04913757265527
247.2031638428878 229.0837618235636 71.76578520136175
246.41409828694685 231.58203830179147 73.44096997602524
213.135548451288 230.69287285077922 68.98937534722607
212.19508429334655 233.36132818417906 70.71013953479975
246.228497484304 234.33312218570364 72.67115945845198
211.35174943881435 236.6415687683302 70.57605921559453
242.96187146619533 242.20174590504445 72.41707024152626
241.71886722803225 244.8350541224062 71.25330077743476
244.0599002304574 239.26886762300256 73.602983276134
245.45843196565013 237.0380277109911 71.7260008538377
210.8793513518622 240.2299897179722 70.3119882712631
210.87273233783077 237.58711097343038 67.83494097183721
236.82756108847892 248.99980345611283 72.52976015269728
232.8715623989958 250.90293706992355 76.8769881246633
215.4684742123406 247.5603717552937 68.2852827418395
217.1792316694654 248.74674328161134 72.81797434650905
225.7589271139066 252.36348156194356 75.25341634123865
226.9859303527323 209.76747859520103 71.76250082552272
230.76816713090128 208.0956349218648 72.1871681725895
232.7750472197166 207.60007217732038 73.7065008297471
234.96550895646445 206.63945109900794 72.69148425438584
238.25676276612722 208.38049008685834 71.85435656609985
222.21656418468228 213.47993384761105 71.56920501853585
225.6023091593554 211.03588476104463 73.02256217226319
223.67363734631186 211.95532650283678 72.2006798424941
228.70921837847172 209.08829332502359 73.08723186445292
239.23487741003535 209.61951536229452 73.29570227718796
220.94399702645967 214.9806404213584 70.94390040785947
242.05151319417376 213.3349011983362 73.52649565723074
220.05152553229834 216.31473138683378 72.03479718731279
218.77103524765457 217.7136607886491 71.61541026680075
243.61343189808042 214.81608199836774 72.78245595962825
217.83565684782454 219.504577780218 71.13335214188918
244.83861502242246 216.91379641080417 73.80743138812815
217.48987938166104 220.71659411220287 72.67215328737697
246.44723020171637 219.9782357199775 73.72309152431839
216.0293469234044 223.9730698420232 72.72088110013136
216.860880285216 222.33220554439504 72.2184003431655
246.94960782417786 222.96347072270743 73.95267623580675
215.24000919938777 225.80352136090954 73.30286435503055
246.84614309474895 225.89408505921105 74.31938373031173
214.53237901607392 227.83731325442574 72.6751104177061
213.44807058280634 230.4068880416294 71.87328157818058
246.67583207864413 228.97884185389685 74.84908223686925
246.1215234097931 231.4093997910523 75.72431449418306
213.12044411115778 232.7087007167735 73.95322252140501
245.8624496784331 233.62623324215159 75.26752860045352
245.0812502438847 236.35010236681302 74.63087036657126
212.1577502954851 235.59551816388986 73.20451236032119
242.08474676832043 241.3663172104038 75.75072177052164
240.8901483259246 243.9806741097338 74.11997393812658
243.3893860131492 238.29030012581865 76.62006600683985
211.37302880769624 240.8546316836123 73.95956315997773
211.7020273037133 238.23253346086022 72.61707527884472
212.98261915230364 243.10441529478413 76.2995489767199
234.45237285972274 248.6799819995981 78.80130294967339
228.55656906094504 251.0934975638455 79.88672469121066
212.556382089696 244.0630011518444 72.98393133631524
219.79527668897592 248.85925436902195 78.73734716858685
214.77201955021144 246.54537630277045 72.90484080052019
223.54255136932395 250.73279519735024 77.8419134320946
227.16578205336285 210.15982598817192 73.70376739190986
232.9533580865983 208.50397283382335 75.95976237751385
234.8652750034514 207.56680396802378 74.98763297918191
237.32998884280735 207.6512279103835 73.91620181509374
224.46294805515367 212.56846000060736 74.2970777977185
226.50076324801788 211.47268012740338 75.30843453088332
228.43393402806615 210.0737818920606 75.0876412132116
230.58258551097617 208.82615512845965 74.88860065118327
236.3739949359266 208.54391827231814 75.91530376252018
237.92716707708271 209.9082947553976 75.48707463783573
240.06944230116102 211.87146668351255 75.00009827339181
222.87232000942703 213.4096266575133 73.40432459742667
221.36567399785693 215.07811321715394 73.3156454107732
243.105674544049 214.9988567842261 74.82864483421747
219.72310522042568 217.57112260660875 74.17094145540636
218.20041316997361 218.98739806625684 72.897078115586
244.58185385726534 218.88798211180426 76.50479423443628
218.49273167243484 220.14221770800063 74.46157749194835
245.95854511787707 221.55820994475516 76.29116924078957
245.71997912355414 222.7550097353085 78.17001103833421
217.11706222439577 222.36093902228237 74.32979062739322
216.00783713866895 224.6907257597843 74.97289651807414
246.40697589442115 224.14526862827287 76.61022701192738
246.11643412667937 227.08722467713653 77.49817463493451
245.748971624377 230.1998813796056 77.80004172416159
214.2205022649592 229.85270343086452 74.77731057565327
244.3639250217394 232.50876130408633 79.11862511243596
245.3072807201923 232.57255085892862 77.09638330494998
244.42209148925107 235.13623869130754 77.54746457333749
213.05647789600252 235.0393325346665 76.05809609503763
212.8094760568769 237.1714603797019 77.6916413316124
240.87045923155767 239.8429202541853 78.71698815477866
238.90704216756967 242.96655938447086 78.8096317645858
242.60016868115295 237.13855867095523 78.80859433148274
212.18045175641132 237.78235445047608 75.15039141560108
212.59612854668603 239.94723833689946 77.21760864425319
214.37131312586746 242.00730841402103 79.29753001696245
215.64236466037312 244.90712717312593 77.77127356512868
217.3032945604154 243.76640466664875 80.60345659338239
232.75238626691885 247.46151783235257 81.62995442434372
227.05823082247105 247.852425637165 83.04546169870528
218.91329127885393 246.51771107335244 80.30836174853279
222.24086621804244 248.93174595622634 80.20534377804442
234.8021681689671 208.84395540679347 76.47277648601175
225.07762938624688 213.21537421889556 76.41364816900784
229.60136404550042 210.0007944837693 76.51097803100124
231.37117021956695 209.72460191704343 77.18346058890945
236.14930482473343 210.15018271946235 77.45412679505529
238.3149016930003 211.70934194427755 77.271502953662
223.17675739041383 214.49725528846267 75.3433283534132
221.46101186210504 216.07943432285683 75.38725246380929
240.25081794533355 213.58550851679135 77.54487130361038
242.3227871936155 215.11423532089705 76.97852732821032
219.54636566117557 219.44098567955638 76.47879779505564
242.7028609113588 217.2666895530004 77.92164343245496
243.44563294574274 219.15608902223647 79.12406666016572
244.90486869221888 220.88654806073941 78.52001303538866
218.33289995816114 221.5054069624179 76.42087375533224
217.33076795934383 223.58246980124633 76.62858658387226
245.66026817973474 224.7209230607123 79.10303675812833
244.73780101518736 227.058265371869 80.2707495047454
215.08618512130224 227.11066207488017 75.21300910401536
215.54447689467318 229.07756937500412 77.84605884238655
244.21996602721217 229.91186202767864 80.3566500023543
243.22706220621927 232.2466116298602 81.15871291386438
242.6715534542965 234.83109731251884 80.39082964412319
214.28904539729143 234.99842315985998 79.17143274662614
238.95136697846118 238.77495228521022 81.49052554139604
237.11894796962855 241.7771552662881 81.40824160687383
241.10963832462707 237.29187530177097 80.35134656412666
213.89786287343716 238.5549093525861 79.96955703200757
216.3563568706933 240.39076318165132 81.75098381482786
219.2674954941602 241.9459004210424 83.33500794856778
230.18803487099362 246.2264967483909 84.13745464701336
224.97102716212603 245.31446598582195 84.50635724015937
219.5059738784002 244.8190724315732 82.30946659701796
221.20861689025884 246.87204734597506 82.18770016937152
233.63957622660027 209.8520315493376 77.69210394626371
229.71599590851616 210.7935676726377 78.24218040440267
231.96037420406796 211.33034426750743 79.16347020844246
234.60063349486214 211.31397363952075 79.27132166458446
236.87293259129743 211.9020196960333 79.16357548470856
238.5695807159876 212.91493624314543 78.94213139718418
224.04810605828618 214.64870146723212 77.66911289316806
225.64569732841466 213.81042343156008 78.19123055463363
239.40294959128875 214.4369108072999 79.8348044972633
220.83608567557735 217.49867465253348 76.78772171261036
241.10366332224777 215.7235590020365 78.93263463187286
220.6216330315235 219.0318335786333 78.43830187157448
241.69879988255443 217.8274239036469 80.24836082672071
242.64159457103085 219.50555969664072 80.84685729978106
219.47389682890358 221.0332363388971 78.49514822105341
243.54941659119905 220.97630591162033 80.33862037758627
218.28804920031558 222.63544709633533 78.02438277342308
218.9424094654336 222.8985915778872 79.64565704925892
243.35900678393799 222.66205217309016 81.70229388328184
217.74564434826476 224.37921581242156 78.75824457150317
244.17084624459872 224.65364373053265 81.05918012016065
243.54821039735023 226.2366666875262 82.0475663722963
217.38705593196872 226.86760987850187 80.01481508160408
243.1094354912372 228.16143374378595 82.08715838646542
242.3435713087319 230.53518990872328 82.49884461704124
216.44401295330155 225.9170604064591 77.27211214355371
217.1379175239582 230.0594617650344 80.71521081844554
239.15814523688408 233.80449294684794 83.83395865073805
241.4250866642528 233.10930095502445 82.51785585829263
216.9559076271264 233.21548160025282 81.99099393522944
233.2701181380435 239.95900920343007 85.50397619151049
237.78587436426844 236.42777766347805 83.70286446163355
236.23675942833168 239.30312682653826 83.63708148635543
240.23596966416673 235.7379211569609 82.11473398206897
216.18980430941295 236.6546326342348 81.80855401423206
218.53170284202184 238.70259513143836 83.58741487156072
230.06643517750396 241.72079588410273 86.21768116814171
228.019340480111 244.05371222669265 85.62928680595017
225.384692425134 242.1816237307141 86.16239606140482
227.30750647071002 213.78218069772345 79.78632043880808
229.69310467760894 212.50971354543955 79.63332416094342
231.38751286399383 213.0944009929896 80.85269990716402
233.381314541967 212.39277194936506 80.94887758552215
235.50411061001535 212.88784278883318 80.68829040136941
224.9209209402078 214.7722889270497 79.59124612947265
223.37811909117627 216.02154022939402 79.0803854035406
236.30338728325557 214.41755891056349 82.045958266532
238.3276118010868 215.17724409704323 81.68436269547425
240.0315528875883 216.29360212755057 80.90381111244615
240.46248393199056 217.76592517781347 81.88675999717196
221.62286322401528 218.83528080080077 80.15988017899801
241.49548915854746 219.10734749112015 82.0914654327555
221.8799659765146 217.37982948889754 78.74906182323461
220.54755231057942 220.13142261654835 79.85234023964755
240.93588685259738 220.59428984542018 83.38265709038096
242.43052375895022 220.82416922651157 82.03274252542658
220.09184518389802 221.63790726208305 80.55702042130099
241.8680811832581 222.44025472524933 83.20470842301194
242.71370423319183 224.5969244670836 83.0744683710775
219.60546712415507 223.18139961373845 81.22945223847628
242.35607397587347 226.68782269801991 83.20645532299554
218.7712644031169 226.137711540247 81.87081198856146
240.83984052152857 225.87159199212456 84.46199446755163
241.06889332337994 228.49404882376868 83.76564703004236
218.63741116223792 224.63578852234326 80.6969278558734
218.59668762707938 228.24939316134382 82.28517290559951
232.18628194272475 235.36920460071488 86.8461220682029
234.97478360862607 236.69922061704824 85.62937730765728
234.68033719297839 233.62419909059912 86.40640285427381
238.2072363394818 232.18970447934265 84.97356730927338
240.14138328131907 231.1257533013821 84.16143296907053
218.5834048825555 230.88181040709418 83.01978968147563
218.8435557101517 233.10628313118045 83.85725361246374
220.4971863778715 234.22510591343075 85.10874123678853
229.2476549179226 235.73351786405834 87.32515413910423
230.5230680742777 238.23600143711474 86.69439426945203
236.92531350211112 234.11632128912981 85.16756286833062
218.60798195717365 235.59830297766973 83.73363568762295
221.2146502864131 237.4833960718776 85.33803515870365
226.4619916383395 236.47984986484045 87.08334749512083
227.55596515638152 239.6359206252547 86.99622576600373
224.3338798268564 238.9229558432572 86.4906823434311
222.12433487068498 241.21849157280593 85.25612116848427
221.75504537585957 244.39029860697715 84.07217860423314
229.54133610651635 214.11381116658748 81.1632325583128
231.19160477245057 214.60268082463935 82.18435419108235
232.6098259974241 213.75139110495232 81.88673140198395
234.2835402543125 213.83202043509777 82.17863156164832
224.21157289685968 216.14416519711182 80.639603568111
225.86636291009782 215.64645502833457 81.31088449876056
229.70567822004557 215.3464544309617 82.5412627709695
234.87646105721004 215.52482026539687 83.30982872817431
236.96073594129615 216.26567404408817 83.15051310096611
238.9281739430961 217.07495806459107 82.59442841693226
224.37686327119218 217.4073864863291 82.28199691536496
222.94835872508102 217.381798565048 80.51690750057236
237.64857079770556 218.44881948683894 84.26183471810712
239.9397843639605 218.74418000655947 83.38290303280604
222.79947893373094 218.99529716062915 81.74175793790367
239.1409180980652 220.44666817991998 84.57587028664496
221.5290740489477 220.50234342334375 81.23251112774135
222.763318390676 220.7665759786873 82.83659195758274
221.1250314142641 222.50880496912913 82.41472389980376
240.37826551639222 222.21812310560244 84.5776902428605
219.8851010495965 224.58114500087237 82.3435940450407
221.5708561036953 224.65740349221923 83.93031735125176
220.1362857199597 226.6251136431609 83.38904400490009
228.78286453678638 231.05015587627642 87.51982278801094
239.26577941420572 225.72588490919208 85.87244317291712
239.24828311313365 227.78341024573126 85.4450419307833
220.1486055305938 229.07377232018007 84.25493498228523
222.05001567955736 230.10223269695078 85.68780253243243
230.2539746532318 233.1548787811748 87.48506855220552
232.67924178857353 232.41928839419435 87.35191949332349
234.67150914351075 231.22628811020903 87.0448424721282
236.5386272171595 231.85074175455455 86.07036944875384
238.38702482409505 230.13080475620853 85.78633981164747
220.367219407118 231.66703986888177 84.6773993445119
222.1448746346314 232.61390827473087 86.07927321592798
227.54786694365114 233.48412231940262 87.3652329486553
224.5045744336638 233.68221611447046 87.03184295450225
222.30290884488707 234.87165864198687 86.26364641376671
223.66240099335425 236.32705877246593 86.7722414089768
227.9513238489612 215.3022785111769 82.01105707982953
232.85926727841573 215.01136541777115 83.06843705917986
228.8067394172879 216.49188004536984 83.67722289249669
231.06647767895433 216.34573811915004 83.53115858094314
233.2861050286385 216.88979597562673 84.01012304918154
235.4025829584939 217.42335548823425 84.3223473245945
223.90166263668596 219.3071284666314 83.08969995015327
237.0766533901823 220.59825110067797 85.62285020426258
224.50329175246083 220.83541940365507 84.0517166121477
223.3930870476164 254.14520053518194 60.89449267250226
231.0749185002389 233.8714079603051 33.319124634222156
231.28802128131332 248.5764557888739 38.53637393516462
227.59672676697645 247.5651122195075 36.62046950747264
233.95123185398285 243.87463528375983 36.719910968194824
242.81946280529496 243.17680116685085 57.2715150059821
223.151117116432 222.72048283069483 83.96252533766835
238.1331250307673 236.63519201544545 36.12408358187936
239.01200544777856 246.4237576592355 45.237533023682964
235.72976580344726 248.39800438874562 41.639424180229085
234.64081398728067 238.82481459226037 34.9738167280942
238.4610510217811 222.41410750145198 85.44319056922329
241.90249177400355 245.06309854791022 69.11702590517153
223.2790705447055 253.37197106055555 49.508169649372846
225.02379424376667 253.38262250371886 46.4877690361542
234.25190856146565 252.71177689503378 52.37530954922117
236.21575358777113 251.40794510983415 54.48282728528982
223.66015296432877 224.74511582013554 85.21705807260177
239.33877304576058 248.34556094368804 53.450095353137904
237.96069067073668 224.40475364957715 86.16992031926945
227.70019606111427 249.7433927064798 81.66476610173811
238.57152282349668 248.8421560199827 49.30040343838711
219.3279154395308 239.59398595654417 37.13445583840427
216.4179669148618 246.50325866245967 44.9727184744335
223.17678681107097 241.34128106997824 34.882362654361344
225.32760449498258 248.1382329197612 37.11841815160282
227.0195229025967 235.51428000058291 33.37417718095754
245.2691962141245 239.84116041552178 61.5368927616332
221.71922754622742 251.83510227437455 44.38524883815196
222.6628310756772 249.25493045556627 39.09000452950751
222.22581390456 227.19692350964925 85.21585846051197
214.46520309045445 243.7139629572753 47.307734862854026
225.15495634771747 252.01482422193928 41.8621809162183
239.94803136467087 234.607621518951 38.2520890347656
224.45593268262698 246.0406677567725 36.0770352242057
228.1814772193295 251.2092390242257 40.01821362490038
227.93414542095317 229.14089007550578 87.14513202551721
229.88312211034747 228.95243544091431 87.60188584966642
221.4012385275587 244.0463701874983 36.46641752679709
242.42187793121718 239.95077013956427 46.25909933701052
226.78008155394633 245.57855269302328 35.3902362449944
231.05868882271517 230.79496653255134 87.6822474822323
226.0421042487302 243.41872800895288 34.572229550393814
230.289769931915 252.46945519478007 42.57267633007159
217.89253374644142 250.08230742535287 47.572754511415084
231.72909091610896 228.9809754613568 87.89915705015184
220.5659691378209 252.65864069923663 57.779623423400515
237.2824403117401 250.0818921081388 51.88561277393396
228.11107036300137 254.2793849421816 47.853267931728716
237.6059293785727 226.48710785784965 86.39299083292258
241.72156975050564 237.1038914240894 42.03179932918222
241.25456489154854 246.0945525399833 54.9318326534806
222.2450069423914 246.32383793764532 37.189143480275774
219.9291765614369 249.59164534481994 43.03998134499497
215.3330798610862 244.31697330219163 44.38566474200859
218.48671355156048 240.95978274528474 38.579741335401174
238.43977634691893 231.6749839461101 36.898558959822765
222.91256400543855 246.16061769367246 83.46666258603442
243.6155801462918 237.42225797215724 48.86144478597915
217.30666999228757 249.5385987409629 50.7347690104958
220.19333552589475 239.86890461062376 84.53241992934245
232.59652519567402 236.7725784924226 33.957892724950646
224.08613597529617 228.94524786166392 86.57112655553232
234.27078562912197 231.23123920673254 34.583074542161874
220.42629310327604 252.14231320118415 48.310673085281245
228.79900459222952 230.2202969612908 33.99896810377374
225.5360826868537 241.1162978193745 34.365306568396136
236.42846662458902 233.7671028017915 35.02729059775307
226.10119268671903 230.7836583810093 87.15968078209241
233.59156906217208 227.01611195471273 35.46488339489677
238.81757281116424 248.9319485649536 51.47238835958988
233.03704767755582 230.16831043489626 87.60461810759247
232.86597579168796 237.6562296920475 86.58607076383643
229.36119403875665 254.5323419353997 57.19175228500694
238.24355260515205 248.31563179842388 46.81791238515447
234.6597831828122 229.40848249640365 87.51787853882934
233.14532853347578 245.9707441696027 38.055542434294274
236.84259665507045 251.026069673873 59.85378719759122
234.5671721885828 252.82504492541224 57.01500182761653
236.33970021823566 229.81153949250006 86.95421692682282
231.88708430586695 253.46445067425478 49.24655664456453
237.5853576565874 228.36882010894624 86.63436244078895
240.92673551102658 246.6518901718386 64.7342023957993
234.30999911255614 251.54022749481328 44.9139925924606
240.84291784498143 242.01987222549235 77.65810676929419
218.35805107624972 245.4784143607749 40.396975348310576
223.70359789895804 231.20886651152838 86.71261507355355
224.55715023974847 252.75355198714288 44.15644306590324
234.15187617902566 252.09277070403724 65.14420146433785
239.87466859045452 241.8456539777478 41.95326868766539
223.6497032572106 253.73474167734784 51.82130668385292
237.8181917661955 249.44080289185368 66.54917468592234
225.68985052121457 250.86661914192584 39.74932980087853
213.3908309468676 239.80345830069413 47.68057639168658
230.14359467218475 241.61032283261068 34.5279254877683
239.90387602514818 229.66974519692226 39.25168353727379
226.65822261000736 216.9046966190244 83.16214203945503
237.7754444072704 247.2967157225715 74.30455954889145
229.88758971009287 217.67102930830606 84.65893431030602
219.6556738739755 251.90822674367269 55.969066412157346
231.70183922358524 218.07980177948951 84.97953596189924
217.3239962534664 245.60629810676113 79.18738895891119
240.92630543926205 243.55220004501078 45.72949194518528
225.99042317554017 237.60856508473674 33.66969666703565
233.58766633806295 252.85474080899357 61.64091497801649
240.53286987560801 243.37694183179156 76.60505720090357
230.65297817729385 238.3284534120153 33.75105531677934
229.34815420947209 254.57434155523814 52.83835597030724
215.36387148589742 241.43120329889302 43.0850964063203
221.046306996777 241.4083655870436 36.355686955712024
225.46586867220356 218.7822505242201 84.03242197884086
230.41966547260324 254.20283326603257 58.72561400921428
230.27276437902407 244.02941316082914 85.43127187752422
219.39458331927605 230.4547427423403 39.750368727779986
227.89585335740276 218.56827628351832 84.76216675497737
230.5418470471068 251.85072543977182 77.89915753602588
234.7091743103891 241.6427860144385 36.016425518132124
227.55137689716747 245.92917982123726 84.43317820472497
243.13603609624073 243.93984815174343 64.61720634667105
222.96264771413422 238.8711447378751 34.73782737029765
239.04528356885524 240.89097810203606 80.19008783561644
229.94890419605744 253.0335533909219 44.398710275193764
216.19069869546644 248.49355970579842 54.50382932308629
237.58814312349128 247.4119776873671 43.231191322078246
233.8122071711496 218.64033108970247 85.33455008532479
218.09928294731498 250.53180831474506 52.944329925667425
233.4323230035795 252.74456907081134 46.77287937981736
238.45963063106086 249.76369056136988 56.258059938838464
226.13536681725768 254.63923125098694 59.53551708497176
233.15561262704762 250.75649171933117 41.81375844466544
225.69383467824696 253.99155135210276 48.82997603150902
227.89618257477204 254.68837049520008 54.88816875779424
220.54979394615546 238.26156728454924 36.461485428403975
213.1872025326967 242.87887739645905 51.016792373191706
229.76588553580748 246.6033714266691 36.61014604411205
226.33116644564203 220.56654489818115 85.2325683021639
220.36507819433524 248.03956290855535 80.57246270223338
229.19410913921269 254.2771738194437 50.01922027964302
231.58315958929012 253.12528722890596 45.38172958856902
216.83440254895055 248.66069439422324 48.82779664948654
227.9802134800362 253.49281573301582 70.50676319423162
235.73803680697506 219.112576604265 85.33712597960812
214.87354502206577 246.2938033179333 54.257396831048354
224.34729163450191 254.72442058616778 56.90987888984356
222.76366530664234 251.40627052239387 75.09733497045764
227.64571387602146 254.57685877466068 62.24937380055631
225.21041232843612 222.7578780791558 85.40736595703034
230.2512565972124 253.70816229246645 47.027632280820484
235.89725203976647 250.76016160692228 46.26929030052436
220.57496289299516 252.21056132367772 64.01621204219566
228.28055006487497 242.84831191444613 34.69681763799635
225.73630455642373 253.25517091212458 72.95107576078188
214.85354865451436 238.88137918738008 43.76454316581929
227.0581028000492 222.14851624032514 86.04892043844406
214.08088626294284 246.20144773722689 58.745239505861605
217.31215392557442 243.20049894800596 41.20826081901688
221.39519272665663 252.18510350888405 71.16803471234124
214.6286018998898 236.9888070645953 44.392111355695256
229.9919273505392 232.10601005414338 33.547657650216564
228.183119642188 252.89834475808306 75.1016211205029
213.77063176156778 246.2543255884413 67.8070539737766
224.8872427608432 254.0955883163598 63.87496793805525
218.27802671172608 250.37912441544677 71.41841302906093
225.02398380006787 234.58968073844596 34.18299689300768
215.61794584337383 247.5960113105404 70.80336433328132
238.7620291610205 245.59676434434047 76.01936791260064
216.75843455941381 249.34165969947543 59.07780468459105
214.43047113705748 245.1292018756764 75.08487869402676
226.23437666449865 251.6857320986362 78.30986284462374
230.14870649260203 253.39155188817506 67.90683916265252
232.6800283383907 252.30884125621716 70.10931772576949
228.11803230892343 253.17181503958952 72.85270929798666
219.21317924540304 251.0291247536417 66.85021482308875
234.55055496400576 220.9153170950774 86.26379665236641
216.0346143998463 247.96219420443293 66.3969638795105
235.87096380846364 251.38195653910145 52.446635676512365
225.15174100426148 253.80402226284454 68.63667366434768
229.5680120294419 254.16966864786147 62.81247577273996
211.2226979216205 242.23813691046007 71.90793891871974
211.09181039415037 242.25154460910676 68.53092480326329
234.85536718074218 250.79454303745777 72.46757369032956
223.89798541753953 247.73972087301473 82.59671396184919
221.6266677430496 253.24114136822473 59.74870935254108
225.3174831998348 224.69498690880047 86.19306781567276
211.6427374487705 243.30359011115777 70.15560357227952
218.50135979945625 249.01176399375058 75.85564040125396
236.1040617900844 243.83233429120764 38.04365672532394
226.561636744275 225.77213849440113 86.92717735151957
233.81215275995146 249.0449546190177 40.27983472982648
231.90990953379895 240.1202608333584 34.50469180263006
247.17036010587827 231.23950764894997 63.83254276080342
242.26521148082168 243.8191042982913 54.36480812346913
235.82941903918686 246.5697343008388 40.28161477884526
228.06753667821124 224.823164620952 87.14099675587055
234.57303200523796 249.58401518361956 76.59311236428857
219.51688079592833 244.24847202224498 38.31325324883667
227.7321364486091 252.41586797029646 42.27296497556215
234.8299986611273 241.88324365207427 83.44060001168047
237.0770128608638 243.98492064327303 80.47848320285603
236.39871370435966 222.79685482937 86.35652901640036
232.73681161442937 245.650737001159 83.2757517228171
236.05527180569572 225.06040466471683 87.17917760954158
234.96353676153169 246.95082649847728 80.62975741192088
224.8484865642468 254.5091770620468 54.7999788546947
225.45246835874647 250.13674761228097 80.84873148386485
221.6480570661216 249.67431015700083 78.32729584175115
236.34286262314845 248.20005175703707 76.04382798145504
224.64850155439308 226.54101494234112 86.30134908171657
239.9172501163091 247.90851178315484 63.01038863695507
229.9119470122104 253.56058537788664 65.74126491889488
220.1900548930782 250.8627077194761 73.15832429573847
226.2468134731963 227.99248271409976 87.23486690129997
239.2456139778176 239.17323262178425 38.33655937059243
228.5486782733277 226.90557583449635 87.33165941447153
229.0892656216882 244.67534786408348 35.47802133847703
216.2645368157652 246.98802474869728 75.44047476450777
225.51129919688677 254.50642588719862 61.657575336737445
236.20874262520874 229.16143470740124 36.07479997681249
231.3218888802384 226.86494418911917 87.5449483497756
232.32976152230637 222.09316449225867 87.08176979441184
240.36573384839332 247.52997310918715 57.85016282051206
229.7545338664991 249.028106801195 81.98679404165647
232.8122818946375 251.71815164958352 74.82619057479128
226.73910302572446 254.5885070196341 52.16921185967332
220.00856499875823 236.48678775597404 36.97547827282699
228.7124065273106 222.93738833531938 86.7851706396823
218.7000695661512 251.0450624919532 49.541297356033034
226.75184160126003 223.7958894129466 86.61516963023475
230.46822704083303 252.81851720393226 72.69584935417546
236.44327044124793 251.16347487296204 56.79441102303581
231.69603900396984 250.19241791091815 79.79002460655741
222.60202201607203 252.90388903849762 47.23742840007255
228.30271209731092 252.31165514229 76.99622695963001
239.8173255827466 224.03669799618797 85.35777811985034
235.71073203973813 227.58977579608418 87.41839482700381
230.32552321980907 253.08299082132305 70.28693562452709
241.32000301188813 223.79800682898153 84.37391964501306
233.38852829362287 228.14236236008446 87.77466513853621
220.98589618976976 250.2712566650274 76.56689766428507
227.75652468219764 241.9515274625477 86.42654070934452
226.45126499030476 254.73524679456034 57.47508165371694
214.51046201167622 245.78454104314088 52.26441024180454
234.60813890923612 250.53126013851283 74.62534212982821
219.70122960947845 251.83772695057135 51.47774131270616
231.637640398676 253.72208408097367 60.51442737429928
217.46580363150028 249.90354691044894 56.45461601482348
225.91596261715839 231.51993583701034 34.598211922033016
237.89933046815108 249.68517535971023 64.47310889987283
225.8211397213291 253.5490124650248 70.74475620253456
240.99099495824464 240.3087163108223 42.67714413536225
228.3105919388836 212.0959801626168 78.43458039782875
224.42081199011955 253.78038322416796 66.26747888308074
232.13180920239463 220.0145037776182 86.08103674766535
218.87208100082012 250.79048745466696 64.61484836921535
232.50834998843837 243.59435909344123 84.58134538757072
223.39147667311812 252.69910519933373 72.61974363617416
232.59013164642667 252.52723603628766 67.45495232986192
228.37216140871737 220.7721717710169 85.9444428207757
215.47433702889134 232.07967286718375 79.55068139443414
227.0883701862131 254.3345264954004 64.419274695692
244.8105421774987 222.69622784843094 79.98988806859212
230.0432090257984 219.35349954588747 85.6045431622264
217.55780102732788 249.98754394461116 61.68570713016864
228.4503500446482 237.53571672470804 87.15592437611173
230.5538866651624 225.60976192236296 36.24836096450726
230.5560510146875 252.40641366179128 75.01542953004397
227.99043783986195 210.811559197999 77.05019969957182
226.76713257166907 212.48137978121565 77.56604821811783
222.95079881825274 252.88039222163465 69.30769131496561
234.8379865809385 244.66866116851386 81.83062928046148
217.1171263385241 249.33014522048393 69.98549771892061
213.99359240393926 232.15983276801538 77.0069348898056
234.77319786607404 250.9677656351972 70.08186678827157
243.53365027179746 216.61935211446504 76.02073285777125
241.60168407690955 213.7357808177101 75.59541285937156
217.6042583118769 246.58628882907485 42.6895321137055
232.37915301487493 253.72071331871746 54.75162235518397
240.68092805686203 246.4871083496102 52.668403485908584
230.3622847709476 221.3487672680966 86.51157428414572
235.87532433800243 250.90801676427088 66.51482865242582
236.6111550673989 245.96853450906127 79.03741259746347
234.50511896184642 252.58285460470947 59.41114888585879
221.0536300739547 252.6308505296697 53.265921938204535
219.8944688609923 252.0379142377335 62.043765363787784
221.16509174656977 252.21565186304775 66.23031226085038
230.64407418278333 223.07761093354176 87.16936052625866
217.45674211662467 249.54428053435808 67.1287930042379
239.3552508144195 246.5791216923452 72.68895905689018
214.67038523793786 246.98530973643133 63.65456157046807
224.19472323981827 254.42284492836754 58.960538761962326
247.19277286214205 227.51258128444763 73.12834560857783
247.21335446343335 224.51715499139536 72.73788978226207
247.23714205551948 221.62127273268865 72.5081080565619
246.34226350472355 218.16079226404904 71.32182612343641
244.7338205295755 215.8929734983782 70.91083860640498
243.95493682471775 242.47886698003015 62.6599323397507
215.1031738287644 247.3099371137533 61.024193267658966
237.01493254443892 206.86721245062233 71.34348493355344
229.8827645100983 224.821621139756 87.27945003548528
232.86717850645798 206.99564998165403 71.19923517809445
240.41275066841652 246.93917304757784 69.4452375685878
243.26946183409294 227.04256521670925 46.707359480589076
247.4533100889234 227.71094976964093 70.10878291796763
247.82892337825317 224.66155666337102 69.86327881342073
247.51219821608393 221.7851274663477 69.71212599102813
246.8099446466066 219.12847316315901 69.75862445355361
235.32387082424512 207.75582220642454 57.97899416147346
235.24596956501532 251.73433979091288 48.16540371510976
217.46432563525116 247.23055254558952 78.04947766632174
244.43072058725963 214.73376802212525 68.35881996583628
237.60020800939435 213.44662931193696 80.55433003930285
233.0871546070876 206.6767714496338 68.70058786289425
223.81845303832955 236.63156357777385 34.232575646274874
239.7018239934995 229.37831380656516 84.78410998370335
247.7875454052757 224.57214917021705 66.85169420978175
247.659356695465 221.6871065202773 66.86472805175049
246.81521137152194 219.00203107292174 66.89443886630104
233.7944778706727 225.9033499532944 87.48766776957717
247.0046397096646 231.6352742540098 68.25562573254064
245.28987647220467 215.89866293857696 66.4267616803437
232.4113031374673 207.4299261321607 60.64068488924464
240.83938964929186 247.03374350951654 60.0530204637165
238.981492121637 210.75818130070084 58.19180123896782
238.08928791906374 244.34004508942712 40.97961473557414
221.0099574102196 233.29155932996454 36.430976637523685
247.67255735101952 224.38727325750136 63.85684867935985
222.949502113119 253.65624238556563 54.0772530908879
228.40169585965634 222.37857232808858 37.97397076434083
247.61256685008942 221.59424191199113 63.93604581541143
247.18881319745046 218.87561651382055 63.99781575590477
245.1443426260464 215.71560788067512 64.12353857288204
242.5944436885243 212.56846293087628 67.74624960992858
229.86187529801825 208.39845708737053 61.33185966823751
221.24378583519726 249.4771511899885 40.8832118756701
235.19519761764698 206.26488298383373 67.80492729095032
238.805185235321 249.07486661524572 58.607807981074906
247.28589792586783 224.26149498497966 60.94719826357727
247.13453253044435 221.53074223441882 61.07136762419781
244.55975976315702 239.5334922036795 57.49307595200934
246.6954349269792 218.87554088296466 61.18772540403665
215.63529949944035 234.17005139855925 80.65230435594087
244.76692500648798 215.66321918193194 61.44535583109785
243.25451537145958 241.64361944412713 53.65512471139956
234.2571445211643 252.34663243142853 50.12515655553512
222.4886236385167 216.0423285182241 77.16153494087949
246.70245418608613 224.20750833710738 58.08537514109681
246.48310951313383 221.48121074294568 58.28618627635633
246.16489586329533 218.85008961980057 58.5095871890271
245.86621449497244 227.75732061181384 53.18437897044875
244.07968361938657 215.85400759799236 58.77514295891244
224.54510768144718 230.26981378263886 35.57056704057374
229.92292381146413 209.4326574910058 57.55022690019241
240.88403007378244 211.43053363267725 72.16085649707051
239.81255578940474 247.2102006907667 49.50751083843105
245.3283176259041 228.57320680465884 79.0527246584144
215.45590508307805 247.42699505864857 57.26296908168519
246.0038546002978 224.40476925401924 55.281487798612176
245.17787854064701 221.13054240525298 54.745054173409294
241.0995454156495 211.1513285686535 69.48358716674394
244.52392159965987 218.77439237632677 55.16050751751634
243.12781581823833 216.355620946456 55.96635268338695
228.55362473402403 227.95953669591267 34.76634451810515
238.28310791867221 207.49373462628117 68.14724953871827
238.2766922035428 211.03820299547758 55.72489116208906
229.24464412526203 210.86469944963565 55.41601905715351
237.49605398591686 206.76260774178195 65.12733178785125
236.97497612195076 206.57812310543517 69.09524921563752
225.77086898745827 212.39551378298484 56.29179087210329
241.69864154561452 244.22367390719242 52.108355582686976
243.04103462674442 239.4918915040963 48.9662754913293
239.5163193135689 244.3438940618224 44.11255011230363
240.28915041078383 245.38998929601834 46.9542230206796
244.91028787688313 221.71537549861918 53.10967471200905
243.10158313956902 217.50847676072468 53.40510335859872
232.03235876245287 224.35234411744358 87.45122197035575
223.4621486839532 243.39337339337072 85.28724954838854
228.33935880770525 212.0355541764377 53.49206721732056
239.57497800612546 248.5756958587014 60.822957572402004
234.25116728009712 223.43754050982736 87.3274158545335
238.49001106697216 241.35993860996533 38.97519163922696
241.74174817799585 238.6421868381431 43.79665630368458
243.56137618585615 221.21167478409257 50.71493359278377
237.13102302450517 206.62859191668463 67.01182906092555
217.0469818645484 222.81941479097202 56.76693752323287
236.73698228133054 249.15878381830618 44.875723852723304
215.45614030801835 247.03477123177478 49.42526364002585
238.6944547405379 248.0248325438202 70.93662291174245
243.32475757481726 239.65181133586233 51.09858390789381
217.49399532517296 248.56873962293292 45.73652878507394
227.38955580945458 212.97655945545037 51.69036752422544
233.61820573897978 213.80287404636863 46.96590472446384
230.39879985861285 213.66037201024434 47.551748113255485
236.76303607912465 241.54662345183007 37.293937773453905
238.62752983172865 221.923345586301 41.894381593109664
241.33153786563508 244.69842034927942 50.01688941391613
237.48666356456025 218.83503658585192 43.39831669593908
225.40315311164304 220.3544467991665 40.828638991506764
212.38677463872085 235.60249519692172 54.47060621014475
239.64131780898708 216.59693256926624 49.18635516415189
POLYGONS 2294 9176
3 2 3 0
3 4 2 7
3 3 4 5
3 5 4 9
3 4 7 8
3 4 8 9
3 9 8 11
3 10 7 6
3 11 8 10
3 7 10 8
3 13 12 21
3 13 21 14
3 14 21 22
3 14 22 15
3 15 22 23
3 15 23 16
3 16 23 24
3 16 24 17
3 20 12 19
3 21 12 20
3 21 20 28
3 24 3 1
3 18 1 25
3 1 3 25
3 27 20 19
3 27 19 26
3 28 20 27
3 28 27 1146
3 30 29 34
3 30 34 35
3 0 30 35
3 0 35 2
3 31 3 5
3 25 31 1145
3 1145 31 37
3 33 27 26
3 33 26 32
3 1146 27 33
3 1146 33 40
3 35 34 41
3 35 41 42
3 2 35 42
3 2 42 7
3 5 36 31
3 36 5 9
3 31 36 37
3 37 36 1143
3 39 33 32
3 39 32 38
3 40 33 39
3 40 39 46
3 9 43 36
3 43 9 11
3 36 43 1143
3 1143 43 44
3 45 46 39
3 45 39 38
3 46 45 47
3 48 46 47
3 48 47 49
3 6 48 49
3 10 51 11
3 11 51 52
3 11 52 43
3 43 54 44
3 55 47 45
3 56 49 47
3 56 47 55
3 58 50 57
3 59 52 51
3 53 52 59
3 61 60 65
3 61 65 1141
3 1141 65 66
3 1141 66 62
3 62 66 67
3 62 67 1140
3 13 14 60
3 60 14 65
3 65 14 15
3 65 15 66
3 66 15 16
3 66 16 67
3 67 16 17
3 67 17 68
3 63 68 69
3 68 17 18
3 68 18 69
3 64 70 12
3 12 70 19
3 18 71 69
3 18 25 71
3 69 71 72
3 71 25 1145
3 73 70 108
3 73 108 111
3 73 19 70
3 19 73 26
3 75 73 111
3 75 111 115
3 75 26 73
3 26 75 32
3 77 75 115
3 77 115 119
3 77 32 75
3 32 77 38
3 78 1143 44
3 78 44 81
3 80 77 119
3 80 119 79
3 80 38 77
3 38 80 84
3 38 84 45
3 81 53 82
3 83 84 80
3 83 80 79
3 55 45 84
3 55 84 85
3 55 85 86
3 53 92 82
3 94 85 93
3 100 1140 63
3 100 63 103
3 102 60 96
3 60 102 13
3 106 101 146
3 106 146 107
3 106 64 101
3 64 106 70
3 72 109 105
3 109 72 74
3 108 107 111
3 107 110 111
3 74 112 109
3 112 74 76
3 109 112 113
3 111 110 115
3 110 114 115
3 76 117 112
3 117 116 112
3 117 76 78
3 112 116 113
3 115 114 119
3 114 118 119
3 78 121 117
3 121 78 81
3 119 118 120
3 119 120 79
3 120 123 124
3 120 124 79
3 79 124 83
3 92 91 127
3 126 92 127
3 126 122 82
3 82 92 126
3 83 128 93
3 128 129 93
3 93 129 94
3 94 129 130
3 135 127 91
3 136 129 128
3 137 130 129
3 137 129 136
3 139 96 1139
3 1139 96 97
3 1139 97 140
3 140 97 98
3 140 98 141
3 141 98 99
3 141 99 142
3 142 99 100
3 142 100 143
3 143 100 103
3 172 144 138
3 138 144 101
3 180 143 147
3 103 147 143
3 103 105 147
3 180 147 148
3 147 105 148
3 146 145 187
3 146 187 107
3 107 187 190
3 107 190 110
3 110 190 150
3 110 150 114
3 116 117 153
3 114 150 152
3 114 152 118
3 117 121 153
3 153 121 157
3 153 157 154
3 154 157 155
3 118 152 156
3 118 156 120
3 157 121 122
3 157 158 155
3 159 120 156
3 120 159 123
3 126 127 160
3 161 160 162
3 163 164 123
3 123 164 128
3 134 167 135
3 168 160 127
3 169 160 168
3 127 135 168
3 160 169 162
3 205 164 163
3 136 171 137
3 130 137 171
3 144 181 145
3 213 178 172
3 172 178 144
3 145 181 182
3 145 182 187
3 148 183 179
3 148 149 183
3 179 183 184
3 150 188 191
3 150 191 152
3 192 154 155
3 192 155 193
3 194 152 191
3 152 194 156
3 158 161 197
3 195 158 197
3 195 193 155
3 155 158 195
3 196 194 229
3 159 199 200
3 196 156 194
3 156 196 159
3 197 161 162
3 197 162 198
3 168 203 169
3 203 204 169
3 204 198 162
3 162 169 204
3 163 200 205
3 205 206 170
3 215 175 216
3 175 176 216
3 216 176 217
3 249 218 213
3 213 218 178
3 256 222 219
3 181 219 222
3 181 222 182
3 223 222 259
3 223 182 222
3 182 223 185
3 1123 189 1109
3 1109 189 1107
3 185 224 188
3 225 188 224
3 188 225 191
3 226 192 193
3 226 193 230
3 227 225 265
3 227 265 228
3 227 191 225
3 191 227 194
3 195 197 233
3 228 232 229
3 235 234 233
3 233 197 198
3 233 198 235
3 233 234 231
3 229 232 199
3 232 236 237
3 232 237 199
3 199 237 200
3 240 204 239
3 240 235 198
3 198 204 240
3 200 241 205
3 206 242 244
3 206 244 211
3 1114 215 1101
3 1101 215 252
3 287 252 248
3 248 252 215
3 291 255 249
3 249 255 218
3 299 258 256
3 256 258 222
3 259 261 224
3 265 264 315
3 265 315 228
3 267 230 231
3 267 231 268
3 228 315 275
3 228 275 232
3 234 235 270
3 269 234 270
3 269 268 231
3 231 234 269
3 240 239 274
3 273 240 274
3 273 270 235
3 235 240 273
3 236 271 276
3 241 277 242
3 280 274 239
3 323 277 276
3 281 282 244
3 328 282 281
3 289 250 292
3 250 251 292
3 292 251 293
3 1101 252 294
3 287 294 252
3 334 288 295
3 253 295 288
3 253 1072 295
3 334 295 296
3 295 1072 296
3 290 298 291
3 291 298 255
3 258 302 259
3 342 301 299
3 299 301 258
3 263 308 264
3 261 305 263
3 264 308 309
3 264 309 315
3 310 267 268
3 310 268 311
3 269 270 314
3 313 269 314
3 313 311 268
3 268 269 313
3 273 274 320
3 319 273 320
3 319 314 270
3 270 273 319
3 276 321 323
3 323 324 281
3 281 324 328
3 289 335 290
3 335 289 336
3 372 336 330
3 330 336 289
3 331 338 332
3 334 296 339
3 341 335 377
3 341 377 384
3 341 290 335
3 290 341 298
3 384 344 342
3 342 344 301
3 351 350 308
3 354 310 311
3 354 311 355
3 356 309 353
3 309 356 312
3 357 355 311
3 311 313 357
3 312 358 316
3 319 320 359
3 360 359 361
3 316 358 362
3 317 1071 406
3 321 363 366
3 321 366 323
3 324 367 370
3 324 370 328
3 378 335 336
3 378 336 379
3 417 379 372
3 372 379 336
3 380 338 381
3 381 331 374
3 331 381 338
3 377 426 384
3 426 427 384
3 344 389 345
3 427 386 384
3 384 386 344
3 348 393 350
3 350 393 394
3 350 394 353
3 395 354 355
3 395 355 396
3 397 353 394
3 353 397 356
3 398 396 355
3 399 400 358
3 401 360 361
3 401 361 402
3 403 408 362
3 362 408 363
3 1071 404 406
3 363 409 366
3 367 410 412
3 367 412 370
3 1061 374 1084
3 378 379 420
3 420 379 421
3 459 421 417
3 417 421 379
3 373 380 422
3 461 422 418
3 418 422 380
3 426 425 427
3 425 468 427
3 468 428 427
3 427 428 386
3 390 434 393
3 437 395 396
3 437 396 440
3 438 394 436
3 394 438 397
3 398 401 443
3 445 444 443
3 443 401 402
3 443 402 445
3 443 444 441
3 411 1050 448
3 403 446 491
3 403 491 408
3 408 491 451
3 408 451 409
3 420 421 465
3 465 421 466
3 497 466 459
3 459 466 421
3 498 460 461
3 461 460 422
3 425 464 468
3 464 507 468
3 428 471 429
3 507 470 468
3 468 470 428
3 432 476 434
3 434 476 477
3 434 477 436
3 438 482 439
3 479 436 477
3 436 479 438
3 480 440 441
3 480 441 481
3 444 445 489
3 484 444 489
3 484 481 441
3 441 444 484
3 1050 1037 487
3 446 485 491
3 465 502 464
3 541 503 497
3 497 503 466
3 460 505 497
3 498 505 460
3 464 502 507
3 502 553 507
3 553 509 507
3 507 509 470
3 470 510 471
3 517 473 514
3 517 516 476
3 521 477 519
3 477 521 479
3 523 480 481
3 523 481 524
3 479 522 482
3 484 489 527
3 526 484 527
3 526 524 481
3 481 484 526
3 1037 530 487
3 485 528 533
3 503 545 504
3 547 546 541
3 541 546 503
3 547 505 548
3 548 505 498
3 548 499 542
3 499 548 498
3 549 543 544
3 544 550 549
3 552 504 545
3 504 552 502
3 509 555 510
3 510 555 556
3 510 556 512
3 556 555 558
3 559 557 515
3 515 518 559
3 517 561 516
3 561 514 558
3 514 561 517
3 559 518 563
3 559 563 560
3 563 518 520
3 516 561 562
3 516 562 519
3 521 566 522
3 602 519 562
3 519 602 521
3 565 564 523
3 523 524 565
3 526 527 569
3 568 526 569
3 568 565 524
3 524 526 568
3 525 1021 570
3 525 570 528
3 528 570 575
3 528 575 533
3 575 570 571
3 575 571 576
3 534 577 578
3 546 585 545
3 586 548 587
3 587 542 618
3 542 587 548
3 588 549 550
3 588 550 589
3 590 545 585
3 545 590 552
3 551 592 589
3 551 1024 592
3 553 591 555
3 595 1023 557
3 595 557 596
3 555 594 558
3 597 596 557
3 557 559 597
3 598 558 594
3 558 598 561
3 602 562 643
3 643 603 602
3 604 565 567
3 604 567 605
3 566 602 603
3 566 603 1021
3 1021 603 1008
3 570 607 571
3 571 607 611
3 571 611 576
3 577 612 579
3 577 579 578
3 579 613 616
3 579 616 582
3 586 587 619
3 619 587 620
3 621 620 618
3 618 620 587
3 621 588 622
3 622 588 589
3 624 585 625
3 585 624 590
3 591 1094 627
3 591 627 555
3 630 595 596
3 630 596 631
3 633 631 596
3 596 597 633
3 598 634 599
3 598 594 632
3 598 632 634
3 632 635 634
3 635 637 634
3 599 634 637
3 599 637 643
3 604 605 642
3 641 604 642
3 641 639 601
3 601 604 641
3 646 642 605
3 605 606 646
3 645 646 651
3 645 651 649
3 608 649 651
3 608 651 610
3 651 646 606
3 606 610 651
3 607 652 611
3 612 653 613
3 612 613 579
3 655 615 656
3 613 701 616
3 619 620 658
3 658 620 659
3 662 625 657
3 625 662 624
3 664 661 1060
3 1060 665 664
3 669 667 630
3 630 631 669
3 673 669 631
3 631 633 673
3 632 671 674
3 632 674 635
3 636 638 676
3 635 682 637
3 635 677 682
3 677 635 674
3 676 680 986
3 676 678 680
3 678 681 680
3 641 642 681
3 678 641 681
3 639 641 678
3 688 646 645
3 688 645 687
3 688 681 642
3 642 646 688
3 647 689 690
3 648 654 693
3 648 685 650
3 685 686 694
3 687 645 694
3 645 649 694
3 647 690 695
3 647 695 652
3 695 690 691
3 695 691 696
3 698 693 654
3 699 698 656
3 699 656 700
3 613 700 701
3 662 706 663
3 702 703 708
3 710 665 711
3 665 666 711
3 712 713 706
3 663 706 713
3 663 713 670
3 706 707 712
3 714 710 711
3 711 715 714
3 717 714 715
3 715 669 672
3 715 672 717
3 667 669 715
3 668 716 718
3 668 718 671
3 716 719 718
3 721 717 672
3 721 672 675
3 719 720 718
3 677 722 682
3 677 674 720
3 677 720 722
3 720 723 722
3 983 986 680
3 983 680 726
3 723 724 722
3 730 684 692
3 730 692 737
3 730 731 684
3 686 732 733
3 734 688 687
3 734 687 733
3 683 728 689
3 689 728 735
3 689 735 690
3 735 728 729
3 735 729 736
3 737 692 697
3 737 697 738
3 686 733 694
3 687 694 733
3 691 736 739
3 691 739 696
3 738 697 740
3 697 699 740
3 696 740 699
3 699 700 696
3 702 741 657
3 704 742 703
3 743 846 741
3 707 657 741
3 708 744 743
3 744 703 742
3 745 744 742
3 703 744 708
3 846 712 707
3 748 891 714
3 714 717 748
3 716 747 719
3 719 747 749
3 761 748 717
3 717 721 761
3 719 756 720
3 719 749 756
3 749 896 756
3 896 767 756
3 769 983 726
3 769 726 799
3 767 957 780
3 787 725 786
3 725 787 791
3 799 726 727
3 799 727 831
3 724 723 780
3 724 780 728
3 780 957 812
3 786 725 818
3 725 737 818
3 725 791 730
3 730 791 731
3 791 795 821
3 731 791 821
3 731 821 732
3 732 821 825
3 729 812 836
3 729 836 736
3 738 818 737
3 736 836 738
3 736 738 739
3 739 738 740
3 744 848 743
3 846 860 712
3 850 1011 848
3 743 848 864
3 848 1011 864
3 903 975 977
3 748 949 923
3 977 975 943
3 977 943 937
3 767 896 933
3 767 933 957
3 937 943 963
3 937 963 961
3 963 787 786
3 963 786 961
3 963 943 1048
3 963 1048 968
3 787 963 968
3 984 951 799
3 799 831 984
3 786 818 961
3 795 968 987
3 795 987 821
3 825 984 829
3 831 829 984
3 1002 874 923
3 874 891 923
3 885 864 1007
3 885 1007 903
3 903 1007 975
3 1002 1028 1011
3 975 1028 1035
3 951 984 1067
3 968 1067 987
3 850 1002 1011
3 1002 969 1028
3 1035 1028 969
3 975 1035 1048
3 1048 1035 1124
3 1048 1124 968
3 1128 951 1067
3 4 3 2
3 17 24 1
3 1 18 17
3 0 3 24
3 22 29 30
3 30 23 22
3 25 3 31
3 6 7 42
3 40 46 48
3 48 41 40
3 13 64 12
3 1140 67 68
3 68 63 1140
3 71 1145 74
3 74 72 71
3 54 43 52
3 52 53 54
3 54 53 81
3 81 44 54
3 61 1141 98
3 98 97 61
3 138 101 102
3 102 96 138
3 69 104 63
3 63 104 103
3 104 105 103
3 72 105 104
3 104 69 72
3 106 107 108
3 108 70 106
3 81 82 122
3 122 121 81
3 124 123 128
3 128 83 124
3 139 172 138
3 138 96 139
3 144 145 146
3 146 101 144
3 113 149 109
3 149 113 151
3 151 113 116
3 154 151 116
3 116 153 154
3 126 160 161
3 161 122 126
3 159 200 163
3 163 123 159
3 164 205 170
3 173 213 172
3 172 139 173
3 178 219 181
3 181 144 178
3 180 148 179
3 1123 184 183
3 1123 186 189
3 149 151 186
3 186 151 189
3 185 187 182
3 185 190 187
3 188 190 185
3 188 150 190
3 196 229 199
3 199 159 196
3 1117 249 213
3 213 173 1117
3 174 175 215
3 215 1114 174
3 248 215 216
3 216 217 248
3 220 177 180
3 218 256 219
3 219 178 218
3 180 179 220
3 220 179 221
3 179 184 221
3 184 1110 221
3 223 259 224
3 224 185 223
3 227 228 229
3 229 194 227
3 230 193 195
3 237 236 241
3 241 200 237
3 241 242 206
3 206 205 241
3 248 217 253
3 250 291 249
3 249 1117 250
3 255 299 256
3 256 218 255
3 259 222 258
3 263 264 265
3 265 225 263
3 271 236 275
3 275 236 232
3 277 323 281
3 244 242 277
3 277 281 244
3 288 332 287
3 289 290 291
3 291 250 289
3 330 289 292
3 292 293 330
3 298 342 299
3 299 255 298
3 297 254 257
3 257 300 297
3 301 345 302
3 302 258 301
3 303 259 302
3 305 351 308
3 308 263 305
3 303 305 261
3 261 259 303
3 312 315 309
3 312 275 315
3 316 271 312
3 312 271 275
3 274 280 320
3 320 280 322
3 316 321 276
3 276 271 316
3 337 372 330
3 330 293 337
3 333 331 332
3 332 288 333
3 296 297 340
3 340 339 296
3 341 384 342
3 342 298 341
3 345 301 344
3 346 303 345
3 345 303 302
3 348 350 351
3 351 305 348
3 346 348 305
3 305 303 346
3 350 353 308
3 353 309 308
3 356 399 358
3 358 312 356
3 314 360 357
3 357 313 314
3 319 359 360
3 360 314 319
3 362 363 321
3 321 316 362
3 366 367 324
3 324 323 366
3 373 417 372
3 372 337 373
3 375 374 331
3 331 333 375
3 376 333 334
3 378 426 377
3 377 335 378
3 337 380 373
3 337 338 380
3 418 380 381
3 381 374 418
3 376 334 339
3 339 382 376
3 383 340 343
3 343 385 383
3 386 429 389
3 389 344 386
3 387 346 389
3 389 346 345
3 393 348 390
3 387 390 348
3 348 346 387
3 397 439 399
3 399 356 397
3 360 401 357
3 400 403 362
3 362 358 400
3 405 407 365
3 402 361 365
3 365 407 402
3 409 363 408
3 409 410 367
3 367 366 409
3 422 459 417
3 417 373 422
3 1061 461 418
3 418 374 1061
3 382 383 424
3 424 423 382
3 378 420 426
3 426 420 425
3 429 386 428
3 430 387 429
3 429 387 389
3 432 434 390
3 430 432 390
3 390 387 430
3 436 394 434
3 434 394 393
3 439 397 438
3 440 396 398
3 442 400 439
3 439 400 399
3 447 405 448
3 449 450 447
3 447 450 405
3 449 407 450
3 450 407 405
3 402 407 445
3 445 407 449
3 442 446 403
3 403 400 442
3 451 452 410
3 410 409 451
3 412 410 452
3 460 497 459
3 459 422 460
3 1049 498 461
3 461 1061 1049
3 465 464 425
3 425 420 465
3 423 467 463
3 1108 424 1081
3 1081 469 1108
3 471 428 470
3 472 430 471
3 471 430 429
3 473 517 476
3 476 432 473
3 472 473 432
3 432 430 472
3 482 438 479
3 482 483 442
3 442 439 482
3 486 447 487
3 488 449 486
3 486 449 447
3 445 449 489
3 489 449 488
3 485 446 483
3 483 446 442
3 490 491 485
3 490 451 491
3 537 539 453
3 499 498 1049
3 465 466 504
3 504 502 465
3 504 466 503
3 467 1108 1102
3 1102 506 467
3 509 510 470
3 510 512 471
3 512 472 471
3 512 514 473
3 473 472 512
3 519 477 516
3 516 477 476
3 521 522 479
3 525 483 522
3 522 483 482
3 529 486 530
3 530 486 487
3 531 488 529
3 529 488 486
3 489 488 527
3 527 488 531
3 525 528 483
3 528 485 483
3 532 490 533
3 533 490 485
3 532 534 537
3 544 543 500
3 545 503 546
3 541 497 505
3 505 547 541
3 500 543 499
3 499 543 542
3 544 501 506
3 506 550 544
3 551 1102 508
3 508 1024 551
3 555 509 553
3 513 515 557
3 557 1023 513
3 556 558 514
3 514 512 556
3 520 523 564
3 564 563 520
3 566 521 602
3 568 569 567
3 567 565 568
3 566 1021 525
3 525 522 566
3 574 531 572
3 572 531 529
3 527 531 569
3 569 531 574
3 575 576 532
3 532 533 575
3 576 577 534
3 534 532 576
3 585 546 1017
3 542 543 584
3 584 618 542
3 584 543 549
3 549 588 584
3 550 551 589
3 553 502 552
3 590 591 553
3 553 552 590
3 598 599 561
3 560 563 600
3 600 1010 560
3 643 562 599
3 599 562 561
3 567 569 606
3 606 605 567
3 608 610 572
3 610 574 572
3 569 574 606
3 606 574 610
3 611 612 577
3 577 576 611
3 616 617 582
3 618 584 588
3 588 621 618
3 624 663 1094
3 1017 625 585
3 1017 657 625
3 623 589 592
3 592 626 623
3 629 594 627
3 627 594 555
3 629 632 594
3 636 633 1010
3 1010 633 597
3 640 643 637
3 640 603 643
3 640 644 603
3 644 1008 603
3 649 608 650
3 650 608 609
3 652 653 612
3 612 611 652
3 701 617 616
3 622 623 1060
3 1060 661 622
3 663 624 662
3 663 670 1094
3 670 627 1094
3 668 629 670
3 670 629 627
3 673 675 672
3 672 669 673
3 668 671 629
3 671 632 629
3 636 675 673
3 673 633 636
3 675 636 676
3 676 986 675
3 676 638 639
3 639 678 676
3 679 640 682
3 682 640 637
3 679 683 640
3 683 644 640
3 644 683 689
3 689 647 644
3 692 684 693
3 685 694 649
3 649 650 685
3 695 696 653
3 653 652 695
3 698 699 697
3 657 658 702
3 658 659 702
3 703 702 659
3 705 661 664
3 664 709 705
3 664 665 710
3 710 709 664
3 662 657 707
3 707 706 662
3 711 666 667
3 667 715 711
3 716 668 713
3 713 668 670
3 718 720 674
3 674 671 718
3 680 681 727
3 727 726 680
3 722 724 679
3 679 682 722
3 730 737 725
3 686 685 684
3 728 683 724
3 724 683 679
3 735 736 691
3 691 690 735
3 739 740 696
3 704 705 742
3 741 702 708
3 708 743 741
3 742 705 709
3 709 745 742
3 709 746 745
3 709 710 746
3 707 741 846
3 746 710 714
3 714 891 746
3 712 747 716
3 716 713 712
3 756 767 723
3 723 720 756
3 723 767 780
3 780 812 729
3 729 728 780
3 829 734 733
3 727 734 831
3 831 734 829
3 744 745 850
3 850 848 744
3 745 746 874
3 874 746 891
3 864 860 846
3 846 743 864
3 860 864 885
3 885 749 860
3 860 749 747
3 747 712 860
3 923 891 748
3 761 949 748
3 761 769 949
3 769 799 951
3 951 949 769
3 957 961 812
3 961 818 812
3 984 825 987
3 987 825 821
3 874 1002 850
3 1011 1007 864
3 1007 1011 1028
3 1028 975 1007
3 949 1128 923
3 949 951 1128
3 984 987 1067
3 23 30 0
3 0 24 23
3 28 29 21
3 29 22 21
3 1146 34 28
3 34 29 28
3 41 1146 40
3 41 34 1146
3 76 1145 37
3 76 74 1145
3 78 76 1143
3 1143 76 37
3 60 61 96
3 96 61 97
3 99 1141 62
3 99 98 1141
3 100 99 1140
3 1140 99 62
3 1126 173 1139
3 1139 173 139
3 174 1126 140
3 140 1126 1139
3 175 174 141
3 141 174 140
3 176 175 142
3 142 175 141
3 177 176 143
3 143 176 142
3 180 177 143
3 183 149 186
3 186 1123 183
3 192 1131 154
3 154 1131 151
3 192 189 1131
3 1131 189 151
3 1126 214 173
3 214 1117 173
3 1114 1126 174
3 1114 214 1126
3 1113 217 177
3 177 217 176
3 1113 177 220
3 254 220 221
3 221 257 254
3 1109 1110 1123
3 1123 1110 184
3 226 1122 192
3 192 1122 189
3 226 1107 1122
3 1122 1107 189
3 251 1117 214
3 251 250 1117
3 1101 251 1114
3 1114 251 214
3 254 1113 220
3 254 1072 1113
3 1099 257 1110
3 1110 257 221
3 260 1110 1109
3 260 1099 1110
3 262 1109 1107
3 262 260 1109
3 266 1107 226
3 266 262 1107
3 267 1106 230
3 230 1106 226
3 267 266 1106
3 1106 266 226
3 294 293 1101
3 1101 293 251
3 340 297 300
3 300 343 340
3 1091 300 1099
3 1099 300 257
3 304 1099 260
3 304 1091 1099
3 306 1097 262
3 262 1097 260
3 306 304 1097
3 1097 304 260
3 307 1096 266
3 266 1096 262
3 307 306 1096
3 1096 306 262
3 310 1095 267
3 267 1095 266
3 310 307 1095
3 1095 307 266
3 334 333 288
3 1080 343 1091
3 1091 343 300
3 347 1091 304
3 347 1080 1091
3 349 1089 306
3 306 1089 304
3 349 347 1089
3 1089 347 304
3 352 1087 307
3 307 1087 306
3 352 349 1087
3 1087 349 306
3 354 1086 310
3 310 1086 307
3 354 352 1086
3 1086 352 307
3 419 376 382
3 382 423 419
3 382 339 383
3 339 340 383
3 1069 385 1080
3 1080 385 343
3 388 1080 347
3 388 1069 1080
3 391 1079 349
3 349 1079 347
3 391 388 1079
3 1079 388 347
3 392 1078 352
3 352 1078 349
3 392 391 1078
3 1078 391 349
3 395 1075 354
3 354 1075 352
3 395 392 1075
3 1075 392 352
3 1069 1059 385
3 1059 1081 385
3 431 1069 388
3 431 1059 1069
3 433 1066 391
3 391 1066 388
3 433 431 1066
3 1066 431 388
3 435 1065 392
3 392 1065 391
3 435 433 1065
3 1065 433 391
3 437 1064 395
3 395 1064 392
3 437 435 1064
3 1064 435 392
3 455 1050 411
3 462 1061 1084
3 462 1049 1061
3 501 463 467
3 467 506 501
3 1044 469 1059
3 1059 469 1081
3 1043 1044 431
3 431 1044 1059
3 474 1055 433
3 433 1055 431
3 474 1043 1055
3 1055 1043 431
3 475 1054 435
3 435 1054 433
3 475 474 1054
3 1054 474 433
3 478 1053 437
3 437 1053 435
3 478 475 1053
3 1053 475 435
3 480 1052 440
3 440 1052 437
3 480 478 1052
3 1052 478 437
3 462 500 1049
3 1049 500 499
3 501 1047 463
3 1047 500 462
3 1044 511 469
3 511 508 469
3 513 1044 1043
3 513 511 1044
3 515 1043 474
3 515 513 1043
3 518 1042 475
3 475 1042 474
3 518 515 1042
3 1042 515 474
3 520 1041 478
3 478 1041 475
3 520 518 1041
3 1041 518 475
3 523 1040 480
3 480 1040 478
3 523 520 1040
3 1040 520 478
3 550 506 551
3 506 1102 551
3 511 554 508
3 554 1024 508
3 1023 554 513
3 513 554 511
3 547 1016 546
3 1016 1017 546
3 548 586 547
3 586 1016 547
3 593 1024 554
3 593 592 1024
3 595 593 1023
3 1023 593 554
3 601 600 564
3 564 600 563
3 607 1021 1008
3 607 570 1021
3 1000 1017 1016
3 1000 657 1017
3 619 1016 586
3 619 1000 1016
3 622 589 623
3 593 628 592
3 628 626 592
3 630 628 595
3 595 628 593
3 638 1010 600
3 638 636 1010
3 639 638 601
3 601 638 600
3 647 1008 644
3 654 648 1004
3 658 1000 619
3 658 657 1000
3 621 660 620
3 660 659 620
3 622 661 621
3 661 660 621
3 628 666 626
3 666 665 626
3 667 666 630
3 630 666 628
3 660 704 659
3 659 704 703
3 661 705 660
3 705 704 660
3 983 721 986
3 986 721 675
3 732 686 731
3 731 686 684
3 769 761 983
3 983 761 721
3 738 836 818
3 818 836 812
3 745 874 850
3 885 903 896
3 896 749 885
3 977 896 903
3 937 933 977
3 977 933 896
3 961 957 937
3 937 957 933
3 1048 943 975
3 923 969 1002
3 1128 969 923
3 1128 1124 969
3 969 1124 1035
3 732 825 829
3 829 733 732
3 787 968 795
3 795 791 787
3 338 1082 294
3 294 1082 293
3 338 337 1082
3 1082 337 293
3 102 101 64
3 64 13 102
3 1130 203 168
3 560 1010 597
3 597 559 560
3 1124 1128 1067
3 1067 968 1124
3 276 1147 236
3 236 1147 241
3 276 277 1147
3 1147 277 241
3 136 128 164
3 109 1148 105
3 105 1148 148
3 109 149 1148
3 1148 149 148
3 454 412 452
3 564 1104 601
3 601 1104 604
3 564 565 1104
3 1104 565 604
3 590 1094 591
3 590 624 1094
3 322 1088 320
3 320 1088 359
3 322 364 1088
3 1088 364 359
3 688 1063 681
3 681 1063 727
3 688 734 1063
3 1063 734 727
3 623 626 1060
3 1060 626 665
3 263 1133 261
3 261 1133 224
3 263 225 1133
3 1133 225 224
3 1108 469 1102
3 1102 469 508
3 1047 1116 463
3 1084 1132 1116
3 419 1115 376
3 419 1132 1115
3 1115 1132 375
3 463 1112 423
3 423 1112 419
3 1112 1132 419
3 1132 1112 1116
3 1116 1112 463
3 376 1115 333
3 333 1115 375
3 1084 1116 462
3 1116 1047 462
3 500 1047 544
3 544 1047 501
3 375 1084 374
3 375 1132 1084
3 423 1108 467
3 423 424 1108
3 383 1081 424
3 383 385 1081
3 6 1077 48
3 48 1077 41
3 6 42 1077
3 1077 42 41
3 297 1072 254
3 297 296 1072
3 332 1070 287
3 287 1070 294
3 332 338 1070
3 1070 338 294
3 440 1068 441
3 441 1068 443
3 440 398 1068
3 1068 398 443
3 1072 253 1113
3 1113 253 217
3 253 1056 248
3 248 1056 287
3 253 288 1056
3 1056 288 287
3 157 1051 158
3 158 1051 161
3 157 122 1051
3 1051 122 161
3 230 1098 231
3 231 1098 233
3 230 195 1098
3 1098 195 233
3 1046 370 412
3 414 997 368
3 413 1038 454
3 454 1038 412
3 413 1046 1038
3 1038 1046 412
3 326 1026 327
3 327 1026 325
3 326 284 1026
3 1026 284 325
3 455 1022 492
3 455 1029 1022
3 457 1036 1020
3 1020 1036 494
3 1018 1034 457
3 413 1012 1046
3 1012 1033 369
3 1036 1003 413
3 1034 1001 416
3 458 1009 1001
3 414 1029 997
3 1001 1034 1018
3 1031 327 994
3 1022 1029 1006
3 406 1045 364
3 405 365 1045
3 998 1018 1005
3 493 980 535
3 980 580 535
3 493 972 1015
3 1015 972 456
3 493 992 972
3 972 992 456
3 1085 970 318
3 318 970 317
3 1085 1071 970
3 970 1071 317
3 539 965 495
3 167 962 1129
3 1129 962 133
3 167 134 962
3 962 134 133
3 458 959 1009
3 1006 415 959
3 492 992 956
3 1119 238 272
3 540 955 583
3 583 955 538
3 540 988 955
3 955 988 538
3 954 540 583
3 580 952 535
3 535 952 1030
3 580 1019 952
3 952 1019 1030
3 1071 958 404
3 1030 956 535
3 1019 948 1030
3 1030 948 573
3 1019 609 948
3 948 609 573
3 1004 947 1019
3 1019 947 609
3 947 650 609
3 581 614 971
3 971 614 580
3 614 950 580
3 580 950 1019
3 614 1004 950
3 950 1004 1019
3 238 1144 272
3 1103 1027 1144
3 538 1058 582
3 1058 965 578
3 364 755 406
3 406 755 317
3 364 322 755
3 357 940 355
3 355 940 398
3 357 401 940
3 940 401 398
3 988 935 538
3 988 960 935
3 935 960 495
3 935 495 965
3 453 934 537
3 453 452 934
3 329 932 1039
3 369 1033 932
3 416 932 1033
3 456 930 1022
3 1022 930 492
3 456 992 930
3 930 992 492
3 490 929 451
3 451 929 452
3 490 934 929
3 929 934 452
3 537 928 532
3 532 928 490
3 537 934 928
3 928 934 490
3 415 994 927
3 927 994 371
3 458 926 998
3 998 926 1018
3 458 1001 926
3 926 1001 1018
3 1036 924 494
3 494 924 454
3 1036 413 924
3 924 413 454
3 1034 922 457
3 457 922 1036
3 1034 1003 922
3 922 1003 1036
3 1006 920 1022
3 1022 920 456
3 1006 985 920
3 920 985 456
3 1006 919 985
3 985 919 458
3 1006 959 919
3 919 959 458
3 578 917 534
3 534 917 537
3 917 539 537
3 1046 916 1105
3 1046 1012 916
3 916 1012 369
3 1037 915 530
3 915 956 1030
3 411 958 997
3 997 958 368
3 495 912 1020
3 1020 912 457
3 495 960 912
3 912 960 457
3 1009 911 1001
3 1001 911 416
3 1009 966 911
3 911 966 416
3 454 910 494
3 494 910 453
3 454 452 910
3 910 452 453
3 1012 413 1003
3 1003 1033 1012
3 1015 909 982
3 982 909 496
3 1015 921 909
3 909 921 496
3 495 914 539
3 495 1020 914
3 914 1020 494
3 457 906 1018
3 1018 906 1005
3 457 960 906
3 906 960 1005
3 370 904 328
3 328 904 1105
3 370 1046 904
3 904 1046 1105
3 539 914 453
3 453 914 494
3 496 901 1005
3 1005 901 998
3 496 921 901
3 901 921 998
3 959 415 927
3 927 1009 959
3 371 823 990
3 327 325 823
3 539 917 965
3 965 917 578
3 1033 899 416
3 416 899 1034
3 1033 1003 899
3 899 1003 1034
3 1009 895 966
3 966 895 371
3 1009 927 895
3 895 927 371
3 982 918 536
3 540 954 918
3 918 954 536
3 496 894 540
3 540 894 988
3 496 1005 894
3 990 893 1039
3 1039 893 329
3 990 953 893
3 893 953 329
3 136 902 171
3 170 207 902
3 985 978 456
3 456 978 1015
3 985 921 978
3 978 921 1015
3 1105 892 328
3 892 282 328
3 998 890 458
3 458 890 985
3 998 921 890
3 890 921 985
3 404 1045 406
3 582 886 538
3 538 886 583
3 582 617 886
3 886 617 583
3 244 883 211
3 211 883 245
3 244 282 883
3 883 282 245
3 990 881 953
3 881 973 953
3 1105 916 995
3 995 916 369
3 201 879 243
3 243 879 210
3 201 938 879
3 879 938 210
3 368 1127 1085
3 1085 1127 1071
3 368 958 1127
3 1127 958 1071
3 966 878 1039
3 1039 878 990
3 966 371 878
3 878 371 990
3 279 877 318
3 318 877 1085
3 279 979 877
3 877 979 1085
3 573 915 1030
3 650 947 648
3 648 947 1004
3 581 931 615
3 931 583 617
3 283 871 946
3 283 897 871
3 538 935 1058
3 1058 935 965
3 988 894 960
3 960 894 1005
3 572 870 608
3 608 870 609
3 572 573 870
3 870 573 609
3 405 868 448
3 448 868 404
3 405 1045 868
3 868 1045 404
3 615 867 581
3 581 867 614
3 615 655 867
3 867 655 614
3 535 944 493
3 493 944 992
3 535 956 944
3 944 956 992
3 536 865 982
3 536 980 865
3 865 980 493
3 540 918 496
3 918 982 496
3 492 1136 455
3 455 1136 1050
3 492 1037 1136
3 1136 1037 1050
3 655 862 614
3 614 862 1004
3 655 654 862
3 862 654 1004
3 327 861 994
3 994 861 371
3 327 823 861
3 861 823 371
3 980 536 971
3 971 580 980
3 212 889 1138
3 325 857 881
3 881 857 973
3 857 887 973
3 530 855 529
3 530 915 855
3 855 915 573
3 414 854 415
3 415 854 994
3 414 1031 854
3 854 1031 994
3 853 132 125
3 238 852 1121
3 1121 852 1120
3 238 202 852
3 852 202 1120
3 582 851 579
3 579 851 578
3 582 1058 851
3 851 1058 578
3 583 931 954
3 954 931 581
3 202 839 1120
3 839 167 1129
3 369 849 995
3 329 1032 849
3 956 847 492
3 492 847 1037
3 956 915 847
3 847 915 1037
3 53 845 92
3 92 845 91
3 53 59 845
3 845 59 91
3 132 844 939
3 939 844 165
3 132 900 844
3 844 900 165
3 206 843 170
3 170 843 207
3 206 211 843
3 843 211 207
3 997 841 411
3 411 841 455
3 997 1029 841
3 841 1029 455
3 1093 925 278
3 415 838 414
3 414 838 1029
3 415 1006 838
3 838 1006 1029
3 283 946 837
3 905 835 945
3 945 835 208
3 905 1025 835
3 835 1025 208
3 529 834 572
3 572 834 573
3 529 855 834
3 834 855 573
3 243 833 201
3 201 833 898
3 243 876 833
3 833 876 898
3 404 832 448
3 448 832 411
3 404 958 832
3 832 958 411
3 1032 840 285
3 953 973 840
3 1093 830 284
3 897 887 830
3 830 887 284
3 1031 828 327
3 327 828 326
3 1031 979 828
3 828 979 326
3 368 827 414
3 414 827 1031
3 827 979 1031
3 208 802 945
3 1121 824 1103
3 824 898 278
3 325 881 823
3 823 881 990
3 648 822 685
3 685 822 684
3 648 693 822
3 822 693 684
3 820 1027 1103
3 693 1013 692
3 692 1013 697
3 693 698 1013
3 1013 698 697
3 982 865 1015
3 1015 865 493
3 58 967 51
3 51 967 59
3 58 90 967
3 967 90 59
3 57 751 88
3 87 125 751
3 89 817 88
3 88 817 90
3 89 95 817
3 817 95 90
3 880 973 887
3 282 991 245
3 245 991 286
3 282 892 991
3 991 892 286
3 995 872 1105
3 286 892 872
3 872 892 1105
3 50 815 57
3 246 814 981
3 981 814 285
3 246 976 814
3 814 976 285
3 50 819 10
3 10 819 51
3 50 58 819
3 819 58 51
3 88 811 89
3 696 810 653
3 653 810 613
3 696 700 810
3 810 700 613
3 875 995 849
3 849 1032 875
3 88 813 57
3 57 813 58
3 88 90 813
3 813 90 58
3 286 809 889
3 889 809 976
3 286 875 809
3 809 875 976
3 203 808 204
3 204 808 239
3 203 1119 808
3 808 1119 239
3 131 913 86
3 90 806 59
3 59 806 91
3 90 95 806
3 806 95 91
3 945 805 905
3 905 805 171
3 945 859 805
3 132 816 900
3 804 1025 905
3 803 208 1025
3 942 826 938
3 942 936 826
3 317 801 318
3 318 801 1027
3 317 941 801
3 801 941 1027
3 167 800 135
3 135 800 168
3 167 1130 800
3 800 1130 168
3 283 798 897
3 897 798 887
3 283 880 798
3 798 880 887
3 131 882 869
3 882 859 869
3 898 1057 278
3 278 1057 1093
3 898 876 1057
3 1057 876 1093
3 278 797 820
3 820 797 279
3 278 925 797
3 797 925 279
3 938 752 210
3 210 752 209
3 752 884 209
3 615 807 701
3 701 807 617
3 615 931 807
3 807 931 617
3 246 794 976
3 976 794 889
3 246 1138 794
3 794 1138 889
3 86 913 996
3 996 913 87
3 976 993 285
3 285 993 1032
3 976 875 993
3 993 875 1032
3 946 793 210
3 210 793 243
3 946 871 793
3 793 871 243
3 243 888 876
3 876 888 897
3 243 871 888
3 888 871 897
3 165 866 939
3 171 858 905
3 171 902 858
3 858 902 207
3 939 856 132
3 132 856 125
3 939 811 856
3 856 811 125
3 869 816 853
3 853 816 132
3 239 1137 280
3 280 1137 272
3 239 1119 1137
3 1137 1119 272
3 1119 789 238
3 238 789 202
3 1119 203 789
3 1130 202 789
3 789 203 1130
3 945 788 859
3 859 788 166
3 945 802 788
3 788 802 166
3 210 785 946
3 946 785 842
3 210 209 785
3 785 209 842
3 171 805 130
3 135 783 134
3 134 783 95
3 135 91 783
3 783 91 95
3 247 782 842
3 842 782 946
3 247 837 782
3 782 837 946
3 246 803 1138
3 1138 803 1025
3 211 781 207
3 211 245 781
3 781 245 212
3 842 779 247
3 779 802 208
3 804 905 858
3 858 207 804
3 364 777 359
3 365 361 777
3 777 361 359
3 87 776 125
3 125 776 853
3 87 913 776
3 776 913 853
3 981 778 246
3 981 837 778
3 778 837 247
3 209 775 842
3 884 826 165
3 889 1135 286
3 286 1135 245
3 889 212 1135
3 1135 212 245
3 166 792 816
3 816 792 900
3 166 790 792
3 792 790 900
3 1025 773 1138
3 1138 773 212
3 1025 804 773
3 773 804 212
3 286 872 875
3 872 995 875
3 655 989 654
3 654 989 698
3 655 656 989
3 989 656 698
3 656 1125 700
3 700 1125 701
3 656 615 1125
3 1125 615 701
3 130 974 94
3 94 974 131
3 130 882 974
3 974 882 131
3 1103 1144 1121
3 1121 1144 238
3 942 873 1073
3 1073 873 1120
3 94 1074 85
3 85 1074 86
3 94 131 1074
3 1074 131 86
3 779 842 775
3 775 802 779
3 853 1062 869
3 869 1062 131
3 853 913 1062
3 1062 913 131
3 802 784 166
3 166 784 790
3 802 775 784
3 784 775 790
3 166 774 859
3 859 774 869
3 166 816 774
3 774 816 869
3 130 772 882
3 882 772 859
3 130 805 772
3 772 805 859
3 1103 771 820
3 820 771 278
3 1103 824 771
3 771 824 278
3 887 857 284
3 857 325 284
3 246 778 803
3 803 778 247
3 318 768 279
3 279 768 820
3 318 1027 768
3 768 1027 820
3 326 766 925
3 925 766 279
3 326 979 766
3 766 979 279
3 880 840 973
3 1027 1118 1144
3 1144 1118 272
3 1027 941 1118
3 1118 941 272
3 283 764 880
3 880 764 981
3 283 837 764
3 764 837 981
3 925 765 326
3 326 765 284
3 925 1093 765
3 765 1093 284
3 979 827 1085
3 1085 827 368
3 581 770 954
3 954 770 536
3 581 971 770
3 770 971 536
3 285 763 981
3 981 763 880
3 285 840 763
3 763 840 880
3 897 830 876
3 876 830 1093
3 942 1073 936
3 936 1073 1129
3 898 1134 201
3 201 1134 873
3 898 824 1134
3 1134 824 873
3 900 964 165
3 165 964 884
3 900 790 964
3 964 790 884
3 83 863 84
3 84 863 85
3 83 93 863
3 863 93 85
3 89 760 133
3 939 866 760
3 760 866 133
3 201 759 938
3 938 759 942
3 201 873 759
3 759 873 942
3 873 758 1120
3 1120 758 1121
3 873 824 758
3 758 824 1121
3 134 757 133
3 133 757 89
3 134 95 757
3 757 95 89
3 322 941 755
3 755 941 317
3 936 754 826
3 826 754 165
3 936 866 754
3 754 866 165
3 790 753 884
3 884 753 209
3 790 775 753
3 753 775 209
3 938 826 752
3 752 826 884
3 125 811 751
3 751 811 88
3 56 996 815
3 815 996 87
3 133 1142 1129
3 1129 1142 936
3 133 866 1142
3 1142 866 936
3 1129 1073 839
3 839 1073 1120
3 939 760 811
3 811 760 89
3 167 999 1130
3 1130 999 202
3 167 839 999
3 999 839 202
3 941 1092 272
3 272 1092 280
3 941 322 1092
3 1092 322 280
3 247 1083 803
3 803 1083 208
3 247 779 1083
3 1083 779 208
3 365 777 1045
3 1045 777 364
3 953 1076 329
3 329 1076 1032
3 953 840 1076
3 1076 840 1032
3 50 1014 49
3 49 1014 6
3 50 10 1014
3 1014 10 6
3 170 907 164
3 164 907 136
3 170 902 907
3 907 902 136
3 329 796 932
3 932 796 369
3 329 849 796
3 796 849 369
3 487 762 1050
3 1050 762 448
3 487 447 762
3 762 447 448
3 57 908 751
3 751 908 87
3 57 815 908
3 908 815 87
3 1039 750 966
3 966 750 416
3 1039 932 750
3 750 932 416
3 49 1111 50
3 50 1111 815
3 49 56 1111
3 1111 56 815
3 86 1100 55
3 55 1100 56
3 86 996 1100
3 1100 996 56
3 207 781 804
3 804 781 212
3 607 1090 652
3 652 1090 647
3 607 1008 1090
3 1090 1008 647
