# vtk DataFile Version 3.0
A great-looking cell
ASCII
DATASET POLYDATA
POINTS 221 double
339.9402893967065 29.632884902277862 40.0613189606734
345.6085491121418 31.798400662757977 41.0882162965921
342.29974601843355 32.248651205695424 40.35842963239023
343.6086463429804 28.996533588159068 40.10038964585472
341.5866801615397 35.15193689334699 41.47722549896366
341.2464231000917 26.33781371619469 40.18621862888395
339.1789478474893 32.74264727003914 41.6274810137702
339.04057303074484 36.06306349277643 42.53928754147457
343.99204665938083 34.35449676116876 41.12757171367791
338.17234185559613 25.40922475928523 41.95203682018382
337.33040729219715 28.517250701063634 41.527519795555136
336.64310187958847 31.192978176156867 42.57173294862851
347.6713678021694 29.25061966742469 42.738427656264335
341.25801162533486 38.046404256227795 42.67188727680375
343.99947342403385 37.14546756494705 41.54257910412018
346.2848414945306 35.20933308520732 42.172505960546424
337.9605296049664 22.7002277422306 45.48859819319485
341.4434110465331 22.027179116567165 44.59610133834677
335.8442926248408 25.24734093956829 44.61872276080123
335.48371810199836 28.69452235687735 44.1437985402314
348.7141527507324 28.48322654334332 46.05833771624025
348.31844162903894 30.955730942551227 45.05006559566947
336.76168856541904 34.21769313150351 43.45797384829978
348.2270136501269 35.365948021889544 44.33939768679824
348.44699771432084 37.98666593286441 45.50654794918348
337.3881240674524 37.41536562104236 44.70843483898253
339.8104379218836 39.57725773442457 44.83005869431438
345.4234022745652 39.33060344277513 43.25021642304972
337.55894401458164 22.24862148360926 49.020468059223944
342.79577795967805 21.1402342691052 47.65723879294341
346.2863860624313 22.15893639205965 50.19115595015793
347.97385918937516 24.808977860686475 46.42407131925299
334.9621388822531 27.53359545792599 47.11798968858657
348.89956883259595 29.463403959985428 48.48802573551577
348.5950530893507 31.151940074693712 47.260430566520824
334.3307755798012 33.39572381977539 47.58771785680303
335.1256322671958 31.895708621508707 45.343882036552074
334.1320791403384 35.80117129254159 48.58056441910842
335.338584393375 35.16590833219678 46.03687071341428
349.3595466679447 35.638798477955504 46.82894395505608
349.54562644486987 38.262962189989814 48.14786382075894
335.6593007010585 37.84767412976344 47.35430890928056
337.7180074805275 39.72631860799093 46.92840547070899
340.08947047057285 41.41625529300693 47.27534653974303
347.17842915005116 40.32036459312511 45.68352576167215
342.56442552068097 40.265705720451976 44.193754119910395
343.30195155200033 21.210751967460556 50.75844847432788
335.34804685879067 25.042832033448985 49.285200388876625
349.19328641621496 27.093426736265485 48.823775660918876
334.5131488463844 30.722603688998856 48.32084083947526
348.816125310799 31.361550694708033 49.62094010599658
333.61493370189453 33.394133897014875 50.01952220077585
349.8145920774869 35.748488025729216 49.54561404641332
350.0801471309801 38.25668971362899 51.05910124854411
334.32018774396886 38.49603657577243 49.8337144341953
348.24132115423447 40.573928147528044 48.426326804866264
337.97406532972354 41.350037384056655 49.313339489212325
336.0693911203617 39.89149934026522 48.74590755697408
340.3247035140159 42.922482543815725 49.93233600130434
342.6167085248396 41.98419981346077 46.627072799905115
336.38859623313596 23.424584041899276 51.72463615457109
335.39444524441427 26.016811114287613 52.585548951916046
348.8803595201109 26.700092597350135 51.77469452163457
348.69539992233604 29.176240029323917 53.26640923826016
334.23618909420907 31.014041272896513 51.59072051830922
348.82224721659935 31.37656989921576 52.04030338356125
334.7811752353539 28.179651726367734 50.391410996861914
333.4935470549776 33.593518969467794 52.95442058725471
333.5905504336851 36.10658244800773 51.42752966412285
350.1601019395562 35.57439931332245 52.23000827847258
350.574650982581 37.61959826334183 53.8753981658906
334.11654564680794 38.90362015364546 52.88698962425417
349.21619032900355 41.017969513786305 51.15425905839581
335.80256465057965 40.82409632615317 51.13894654896742
340.231177484248 43.65231844556882 54.26165373853831
338.2199503646358 42.67362010987784 52.163702685232415
342.24979745766484 43.73053921589772 52.09515294598499
345.09663393112214 43.46300189540366 50.92586882296925
343.850701878657 23.430186604708396 55.68663927352053
337.27367895835624 24.293634904221193 54.405215312958724
339.12593385004084 21.989219187389878 52.507415567732835
347.23866039738675 24.16851324071046 52.924007959151126
334.8229476008027 28.85064759997248 53.41500290786754
348.65879783788785 31.501895693461538 54.51125190891458
333.3993685206625 36.260106820583054 54.43895391028697
350.1298781304537 35.23120472558629 54.84204716641723
350.17758210273655 37.208781547360786 56.537557804829845
334.23779195850716 38.872594993219515 56.11025109481619
350.07643254489005 39.667282285306776 55.49101910772785
335.9412500300986 41.63813593978814 54.50332500608387
340.9563443135658 42.8534441414979 58.423664435615564
338.5913246805397 42.54201846632365 56.56097097272765
342.3617146135352 43.770896602533824 56.12041326011799
347.31955707307833 42.84930812905205 52.54572138797544
338.2424595617722 25.55425878199511 56.57079414685357
340.40155659428285 23.868073987553206 55.53507807354549
342.3140283914086 25.28201101344181 56.96430299699139
346.46428126772776 24.8320533321733 55.79165490875937
334.9462570303453 29.58010565152675 55.71657161722744
336.1470707707156 27.190340493027712 55.65609116062863
348.02595365418586 26.847841847808972 54.5857547932284
347.97127004081517 29.473343553365595 55.81829715339917
333.7345864922048 33.700745253866586 55.7919402698574
334.1774981416253 31.33734148671548 54.41815888622209
334.15750216294754 36.07371209995531 57.190484750030215
335.59899614050147 35.738466408730616 58.85246174264533
349.75262935045595 34.581988276243486 57.505688616842534
349.88040697683954 36.76910911095964 58.89826963842499
335.3947757601618 37.958249191252925 58.637712808822386
349.6017075543248 39.38114804177967 58.44813982011032
336.32994729428555 40.62093468654498 57.84350578513764
339.27993601033774 40.510094646265784 58.961609890473554
345.2844647239853 41.8643990612893 59.70597581931004
340.29921552419097 26.18257994490804 57.708419459025556
344.4944218373531 25.9293533959517 57.31636578936892
337.9758609738328 27.561583029205757 58.17037330349848
346.607812731937 27.470038852008805 56.90964922125784
334.8150525072802 31.562206328476872 56.89195981279147
335.1423815256817 33.833897507381145 57.97102738462093
336.8665295041083 34.20966572324013 59.68029449740327
348.7348455758331 34.94910876052092 60.1595558496351
337.1103774018124 36.68344879862793 60.05089630977731
339.28846153505503 38.00180187337988 60.418834917042815
346.44637068735494 39.917878972169 61.106315007353516
337.42903882298526 38.81651348535179 59.3092842830505
341.252189880055 39.64699800683325 60.615482953071165
342.8449186785885 41.6014472128578 60.34004598273771
342.5299330301338 27.213510984923005 58.25866235036483
336.00819025926126 29.442576526795197 57.78835392871447
346.7519018262698 29.994504208496803 58.170160061115396
344.54119763780665 30.83277769266885 59.87458099491079
336.5041638976653 31.910150847185356 58.689973749079215
347.1656893322095 32.538242115548364 59.741032530431845
345.80292859067464 37.144801783427276 61.54812115521919
348.3122420385643 37.77225126539266 60.57683500752816
343.7715464351448 39.10278657281682 61.39984059010829
344.6319547686672 28.429789372504406 58.306120449800865
338.1324428668203 30.091863996325507 59.25224662464231
340.51478929419505 28.826618038121566 58.9949232669597
338.6488561013282 32.52312824989614 59.686749227711125
346.51746114490925 34.70639179561462 61.3293475341844
339.3212610773243 35.053474024036035 60.83057147100283
343.9542546435808 35.14083299442507 61.7014549620058
342.83387151258523 29.171667818137703 59.20146664253825
341.90162471897986 30.775881166297694 60.14170566078696
339.9591372265757 30.960220908551445 59.82086344452802
345.12723555668475 33.00117549221033 61.15708054716433
341.67720297936904 37.03116933235673 61.94988647931987
341.6746264424529 34.469912099308225 61.52064231947195
340.609421251591 32.59892007870475 60.96245264975223
341.27896684249566 21.494502823271276 51.64550072225459
338.76694679155804 27.26609542299631 40.09453720240035
342.76997711843876 22.65545177413792 42.60713058068426
347.4482660342694 26.850110552277933 42.50114052854778
343.8434203274155 26.478947145428066 39.906056594841665
334.99355906544594 29.710458451822376 46.23029036208945
335.23106329853283 25.312467601868548 46.9776044816536
338.1302029946215 30.58837543348344 41.22240547936551
339.92614965546676 21.300638676605537 47.21454435534993
346.02238991579725 29.286311145696004 40.75337396809028
336.40141047616953 26.877938342562445 42.824308800172126
345.9079200669847 23.261448331711314 54.6069728883582
340.54991354292326 20.939196383322596 49.852705453739894
343.7355921728549 21.45734784810493 45.641396055087114
339.06890513556294 23.186428923518342 43.28595506998128
340.9604141558007 23.560568221660873 41.8314181917065
346.6259539951061 23.189208275618128 44.945435033854636
344.70743122668574 21.08355368095628 48.881931110370694
347.21612192162274 23.227711700321436 48.30715787734651
344.9361560469979 22.328714832783625 53.06607810085015
335.9392581466648 23.71801762668863 47.00440983330736
344.66963381939456 22.393798385282082 43.8534415921596
348.1815216054694 24.478398025456684 49.77014861458917
338.1192000985909 42.89892310888236 54.39502622779504
339.16626128235 38.026424660571315 43.373882490243886
347.26090185024464 38.922312843983065 44.2762951593039
343.8735223399469 24.468666735640856 41.43766377309954
348.8368734152811 33.34078550764732 58.82462689648581
347.4268198943586 36.138931250308225 61.092330643452165
347.56777333408144 41.15692644711851 59.045790476625676
349.5609159369739 39.6591619550553 49.61169413347072
343.82812843829083 37.1264167533309 61.927801408455615
344.62559722191776 40.997246322128746 61.28915308470568
344.2473728506652 43.6973317177621 56.548349810699506
342.971307739706 32.732860894955394 61.07248624446015
340.97181132575975 41.2737328730314 59.782070008948374
348.248803038975 26.707881134989794 44.01711882046928
344.7577214309073 41.27467538828616 45.23198332196127
341.2734395228437 40.80179310387408 45.73999988463015
347.3077428395185 42.78243694911592 54.982753220569485
348.58445102834776 31.987602119424224 57.23299225178493
349.5747132246553 33.23498156434853 55.50824036470155
350.13789303789235 39.74951456585557 53.08838303965627
345.86544236736523 37.38490361915581 42.32862111259287
337.46115011785844 23.830665007097853 43.589712942320574
349.2418005241643 41.69453771964482 53.99436708524153
349.59757301253273 33.350327897368715 53.329849583150114
348.43557389674766 39.87135182057734 60.27239625736577
343.2629844883023 39.050321842261525 42.474833023380036
349.3984156590176 33.46992733910753 50.85179156604285
348.9834541348157 29.200914108361427 50.677722052332875
347.18695201772556 37.45905184914262 43.39178113583139
348.74806628428274 41.72267376390914 56.70509896366834
346.12586945702606 43.06264220902345 57.252633609958664
343.66486391398394 43.311566652814776 58.33685800656504
349.0492873174831 33.43591539691162 48.340598867375846
342.3833215854933 43.923288761714794 54.20525988302736
348.4428453832612 33.20985900538779 45.90019761119979
347.3121895061206 42.38022930312678 50.05353225147456
348.6460235196115 39.462401965934596 46.8082272853
345.8400973539832 21.923858322035084 46.88995550446575
342.1467186100258 22.299083763853282 53.25199942581975
340.2274133872259 43.354024323871464 52.09743590630102
347.6198610537327 32.64632764846922 43.42565852700476
345.56646966280914 42.24051375364494 47.85849175378662
344.7070935250089 43.75142714447253 54.337210875741256
342.8786390611671 43.30430765799948 49.10844015101171
341.39605519063616 42.647472460307625 48.113862009720584
346.75009967407686 24.772291973090244 43.16128447751551
340.4385801701303 43.53030292130481 56.42494899569223
345.91259021676746 27.013707679851628 41.07599813951623
POLYGONS 438 1752
3 1 2 8
3 4 2 6
3 3 2 1
3 6 2 0
3 19 11 10
3 12 1 213
3 7 22 25
3 7 13 4
3 19 18 32
3 20 21 34
3 205 50 34
3 34 21 207
3 34 207 205
3 34 50 33
3 35 37 38
3 35 38 36
3 36 38 22
3 39 23 24
3 39 24 40
3 25 41 42
3 47 66 32
3 60 47 28
3 31 48 172
3 31 20 48
3 48 33 200
3 50 205 199
3 50 200 33
3 52 39 40
3 52 40 53
3 37 68 54
3 37 54 41
3 41 54 57
3 41 57 42
3 79 61 60
3 60 61 47
3 65 63 200
3 200 50 65
3 69 52 53
3 69 53 70
3 54 71 73
3 54 73 57
3 61 82 66
3 79 99 61
3 63 100 62
3 63 65 83
3 85 69 70
3 85 70 86
3 88 86 70
3 71 87 89
3 71 89 73
3 95 78 96
3 79 94 99
3 99 98 82
3 101 63 83
3 101 83 190
3 100 63 101
3 118 105 104
3 106 85 86
3 106 86 107
3 104 105 108
3 87 108 110
3 87 110 89
3 95 96 113
3 96 78 114
3 114 78 97
3 99 128 98
3 128 99 115
3 115 94 113
3 94 115 99
3 116 100 101
3 98 128 117
3 98 117 103
3 120 106 107
3 120 107 134
3 105 119 121
3 105 121 108
3 107 109 134
3 108 121 124
3 108 124 110
3 124 121 122
3 113 138 115
3 129 116 101
3 137 131 128
3 140 132 120
3 119 141 121
3 133 134 123
3 125 135 126
3 135 133 123
3 119 139 141
3 140 133 142
3 141 148 147
3 141 147 122
3 135 125 147
3 138 145 137
3 130 144 143
3 143 144 138
3 145 149 139
3 146 130 132
3 146 140 142
3 132 140 146
3 139 149 141
3 148 142 147
3 144 149 145
3 146 142 184
3 184 142 148
3 2 4 8
3 0 2 3
3 0 3 5
3 6 22 7
3 6 7 4
3 8 4 14
3 36 22 11
3 11 22 6
3 13 14 4
3 8 14 15
3 36 11 19
3 21 20 12
3 26 45 13
3 20 34 33
3 38 37 41
3 25 22 38
3 38 41 25
3 43 26 42
3 42 26 25
3 20 33 48
3 51 35 49
3 68 37 51
3 51 37 35
3 56 42 57
3 58 43 56
3 56 43 42
3 80 79 60
3 60 28 80
3 66 47 61
3 66 49 32
3 196 65 199
3 199 65 50
3 67 51 64
3 64 51 49
3 67 68 51
3 68 71 54
3 75 56 73
3 73 56 57
3 75 58 56
3 172 62 81
3 82 61 99
3 196 191 83
3 83 65 196
3 102 84 67
3 84 68 67
3 84 87 71
3 71 68 84
3 89 75 73
3 81 62 100
3 98 103 82
3 83 191 190
3 118 104 102
3 104 84 102
3 104 108 87
3 87 84 104
3 111 91 110
3 110 91 89
3 111 90 91
3 97 100 116
3 95 113 94
3 190 129 101
3 118 102 117
3 117 102 103
3 118 119 105
3 124 122 111
3 111 110 124
3 122 125 111
3 128 115 137
3 137 115 138
3 113 127 138
3 128 131 117
3 131 118 117
3 119 118 131
3 122 121 141
3 143 138 127
3 139 131 137
3 139 119 131
3 147 125 122
3 130 143 136
3 144 145 138
3 129 130 136
3 139 137 145
3 148 141 149
3 184 149 144
3 144 130 184
3 130 146 184
3 184 148 149
3 8 15 1
3 15 213 1
3 207 21 213
3 213 21 12
3 23 213 15
3 23 207 213
3 39 207 23
3 39 205 207
3 52 205 39
3 52 199 205
3 48 62 172
3 63 62 200
3 200 62 48
3 69 199 52
3 69 196 199
3 85 196 69
3 85 191 196
3 80 95 79
3 79 95 94
3 100 97 81
3 106 191 85
3 106 190 191
3 114 127 96
3 96 127 113
3 97 116 114
3 132 129 190
3 132 130 129
3 114 136 127
3 127 136 143
3 116 136 114
3 129 136 116
3 45 187 27
3 27 187 44
3 45 59 187
3 103 64 82
3 82 64 66
3 102 67 103
3 103 67 64
3 66 64 49
3 49 35 36
3 76 216 58
3 76 77 216
3 58 217 43
3 43 217 59
3 58 216 217
3 217 216 59
3 59 216 214
3 214 216 77
3 44 214 55
3 74 212 75
3 75 212 58
3 74 76 212
3 212 76 58
3 172 81 30
3 76 215 77
3 77 215 93
3 44 209 24
3 24 209 40
3 44 55 209
3 209 55 40
3 55 208 72
3 55 214 208
3 208 214 77
3 92 206 74
3 74 206 76
3 92 215 206
3 206 215 76
3 126 204 90
3 90 204 92
3 126 112 204
3 202 109 88
3 15 201 23
3 23 201 24
3 72 208 93
3 93 208 77
3 93 195 72
3 123 179 112
3 109 202 179
3 72 192 53
3 53 192 70
3 72 195 192
3 202 88 195
3 204 112 203
3 90 219 91
3 91 219 74
3 90 92 219
3 219 92 74
3 27 193 14
3 14 193 15
3 27 201 193
3 193 201 15
3 107 86 109
3 86 88 109
3 109 197 134
3 134 197 123
3 109 179 197
3 197 179 123
3 202 189 203
3 202 195 189
3 189 195 93
3 45 188 59
3 59 188 43
3 45 26 188
3 188 26 43
3 59 214 187
3 187 214 44
3 70 192 88
3 88 192 195
3 125 185 111
3 111 185 90
3 125 126 185
3 185 126 90
3 92 183 215
3 215 183 203
3 92 204 183
3 183 204 203
3 123 182 135
3 135 182 126
3 123 112 182
3 182 112 126
3 135 181 133
3 133 181 142
3 135 147 181
3 181 147 142
3 55 180 40
3 40 180 53
3 55 72 180
3 180 72 53
3 202 203 179
3 179 203 112
3 134 178 120
3 120 178 140
3 134 133 178
3 178 133 140
3 190 177 132
3 132 177 120
3 190 106 177
3 177 106 120
3 203 189 215
3 215 189 93
3 45 198 13
3 13 198 14
3 45 27 198
3 198 27 14
3 24 175 44
3 44 175 27
3 24 201 175
3 175 201 27
3 25 174 7
3 7 174 13
3 25 26 174
3 174 26 13
3 91 173 89
3 89 173 75
3 91 74 173
3 173 74 75
3 20 186 12
3 20 31 186
3 186 31 218
3 218 176 220
3 171 176 218
3 47 170 28
3 18 16 170
3 170 16 28
3 30 169 46
3 30 81 169
3 30 168 172
3 172 168 31
3 30 210 168
3 168 210 31
3 29 167 46
3 46 167 30
3 29 210 167
3 167 210 30
3 210 166 31
3 31 166 218
3 210 171 166
3 166 171 218
3 5 165 9
3 5 176 165
3 16 164 17
3 9 165 164
3 164 165 17
3 17 163 29
3 29 163 210
3 17 171 163
3 163 171 210
3 28 162 80
3 162 29 46
3 78 95 211
3 211 95 80
3 78 161 97
3 97 161 81
3 78 169 161
3 161 169 81
3 19 160 18
3 18 160 9
3 19 10 160
3 160 10 9
3 169 78 211
3 211 46 169
3 12 159 1
3 1 159 3
3 12 220 159
3 159 220 3
3 16 158 28
3 29 162 158
3 158 162 28
3 10 157 0
3 0 157 6
3 10 11 157
3 157 11 6
3 9 194 18
3 18 194 16
3 9 164 194
3 194 164 16
3 18 156 32
3 32 156 47
3 18 170 156
3 156 170 47
3 32 155 19
3 19 155 36
3 32 49 155
3 155 49 36
3 3 154 5
3 5 154 176
3 3 220 154
3 154 220 176
3 29 158 17
3 17 158 16
3 17 152 171
3 171 152 176
3 17 165 152
3 152 165 176
3 218 153 186
3 186 153 12
3 218 220 153
3 153 220 12
3 5 151 0
3 0 151 10
3 5 9 151
3 151 9 10
3 46 150 162
3 162 150 80
3 46 211 150
3 150 211 80
