# vtk DataFile Version 3.0
A great-looking cell
ASCII
DATASET POLYDATA
POINTS 480 double
173.19711132154208 118.11867955236433 79.50671542170883
166.48504929727247 130.89304081389335 68.49921392097374
168.4586336453892 119.67455036896489 82.12395692985616
169.8051711489151 118.76600930428644 80.71360553392402
171.6570995268236 119.93778511562347 86.35214036576501
171.09584805063292 118.39322744961605 79.10961468370273
170.46377813159208 119.02356491269568 82.70817245260788
172.4679391888687 118.41594926540782 83.31325134888537
191.74834922682518 134.73601395009698 80.17669975467082
192.35726205742014 134.2335810188645 75.74449868811377
193.05834656455 126.43227963606383 85.36473747436864
183.32895014926578 137.19125534741696 65.78867125820149
183.5888610006899 121.3058828549429 83.2501439245868
196.05571230473444 132.01564980567775 74.72978356349233
188.97697236127888 124.53156434426855 86.1947302087626
189.82461339078782 128.02402714345286 66.18637161279705
189.4777127115018 138.7709986425321 79.14631800545705
196.19215316992074 126.34088166477297 70.12407933436789
181.9966660561664 135.87299576873923 89.70995209369327
189.73699006791398 120.44283073818936 79.48278423889127
185.58374457425907 128.32600787925495 88.59059905228155
194.31068559068427 128.31355230876494 68.72793150123434
196.48974812753906 126.44500904940934 83.37157341778563
193.89924055762162 132.33952689391995 83.61451944064918
181.26625547168163 142.12216468819605 83.87484866039874
197.87449441331404 127.18949282003948 81.1303138910062
188.7504118903577 138.9733321675212 83.96191902614837
185.85026909961454 140.69792396309444 85.22910268222549
185.75053089784282 138.43877717002357 88.02555497958815
188.65668019656647 136.6660161452494 86.6991143518425
195.43735293716622 131.78736182786955 82.98550516641697
195.9779940190805 128.2073959972255 69.61506989571517
192.22657840080836 124.90567295728664 68.4446396254309
186.62593834537586 126.98075660987229 88.14876606356049
180.61840403853122 141.3364115876066 69.88655689469496
179.2756359241031 136.53839771357516 63.647797532194794
193.8585943822402 122.94099762072172 81.96757295474289
192.44237003031105 134.23978445898027 78.11464636957011
192.15803842090358 130.84137344823853 85.9246285587522
189.58734346674416 130.4418500494274 65.84226563637485
189.97601228624103 135.52671124377108 72.78171289952559
176.71427605960764 140.75108147067903 67.77093997249501
189.47742749124944 138.42911650623117 81.62261030069274
197.760077972878 125.46910009509584 78.35673100097863
194.12002412986143 130.62835623267603 84.9564452277196
194.45210078415704 126.31433345276498 68.99644587227135
190.13211570721276 130.9307760080152 86.52137364906655
197.86422501391982 127.29393543375134 75.54655555356933
188.91655218605945 135.15472887397485 68.95524711332575
178.75881770710853 124.5316371306328 64.3410810775484
172.24514172750395 135.03863243521656 64.29709937249244
183.962376957951 122.89641418097742 67.48570898087178
187.4213759900549 130.2467599747739 64.66712957394805
180.38447358690797 128.655412253086 62.457374485578676
175.1209124570671 142.61319063810956 71.97433341380656
176.1296459924921 141.0416661886225 84.90243431937189
173.83323420753027 142.8111994102771 76.30605373853622
189.15468393751325 120.17956728069944 76.7256219835422
186.32343495624966 122.29855964238104 85.17276744810219
171.70485707571314 136.13303517325667 66.16468282815661
186.51786459726284 137.49975668109755 69.19645562323386
187.71158833854082 140.25028409699777 79.2480179358577
191.5948245889409 121.34660470397675 75.11920459451538
189.04271718365806 126.73582662283654 87.13665608005677
178.62006159235557 135.6874137077956 89.6474963550652
188.970490165936 120.66378170952765 81.95059476858881
184.24508986734105 141.02995588699892 73.52436209576493
194.138983277691 122.76537721466505 73.9194687319738
191.7878212858952 132.72981620584423 84.35278938207566
175.00955026150405 122.53003840135464 65.73966794233206
172.16969207318832 125.8860179930654 62.672816724793954
176.51450833687716 142.06796107148082 69.63732644945112
175.18809166676587 120.76688269296837 69.47235097342228
187.957782849689 121.2556486809446 71.01424755723757
182.77858460011208 142.44546814401718 78.46339966181496
184.61132543392213 137.82512350900242 67.7691136779494
164.85515801342535 127.25695582693533 89.18094239426233
170.078332577254 139.1325171122147 79.32756917834546
194.2368814635071 130.33754508588873 69.57426719888059
194.481750101904 122.3669453921365 79.291845300969
169.60267283541188 137.9348262850913 71.96057474577506
168.8790339286556 127.96260818826848 65.03510039845955
164.85210741360987 129.16206226104106 69.5713659765027
189.18845657794816 133.40972293085863 67.62891184132181
162.30538799403624 126.33237480198282 81.0052542015439
171.80353089017785 124.0659215597336 64.56163683364917
163.16961257044636 129.06770263815156 72.85891390759971
179.59456672761956 124.86210308695546 88.29183739781098
168.25260891564153 132.60696620410323 66.98347731856748
165.397442559501 123.29620046560574 71.81990279099053
176.3738022003376 122.2823401859878 87.77170775931792
178.933858882783 142.14210059821653 83.59563378776322
171.18892523172156 139.81712322042623 81.94507431839435
194.9151248380797 132.9586934189534 78.56359437132704
172.0839664551385 122.32192952958331 88.34103602141491
178.010757574757 125.50781048195367 88.96923841281709
166.59369724024148 134.89794883139228 75.3417704270023
176.2718112291097 132.0221701709623 61.413526947852006
162.58153497876972 130.54726274125767 79.02575489663556
191.0642996934366 135.35618949621687 82.16381940029439
184.36515231779413 140.30263838363507 87.17512494796453
189.62479102653893 122.9825176385625 68.72457365813877
171.8373284165172 119.98658454978397 71.04641585473091
175.92440600732795 142.83830306686596 81.84725531174139
162.95702427126054 125.037594716966 74.78841095131317
164.14258716056597 123.1688157198225 75.13229946239899
182.17427124072657 142.0896151171446 75.64900827923827
165.20291155946276 126.5391195019418 69.54022669725532
179.52581444283456 142.27678000541988 74.96643159332403
168.2501685897899 134.38468987792785 69.64142504633536
162.70927688790687 127.00304783045824 85.29055448372387
177.4867789953397 121.56246927855328 68.58826804263994
166.48917963559833 120.77178868646983 81.12247471242723
170.43951120609745 123.02389006413829 66.01296708387846
191.9418067105373 128.37044651550394 86.3670805860128
192.24428600923022 121.74297815334221 73.11957683057884
173.91536459697727 140.06505305791188 85.05947460920022
180.88187960230186 131.13991167034666 62.53358382098281
196.8959404559868 124.66257267736056 74.03462108806345
187.10924611456707 124.25505602417496 66.53087381033926
162.18824951778586 128.72172865828622 81.20785365023208
181.44996569061857 142.50649481776472 81.34747904708045
164.4906750198726 122.16787992228781 77.01708063738837
170.7954909692789 140.45819386708501 73.86769144714061
166.51151884580466 125.43929252512474 88.52929591726352
162.55748886331006 127.5839814180759 74.15369760345281
163.36250361218657 124.14175238898494 76.91871984811009
167.58504455545514 135.83458360919238 80.70568723895056
164.70233735727996 134.07029741398787 79.02089980646234
164.7328325461941 133.66907393576162 76.49773726265593
164.35545493580494 130.6062131310508 71.88606119462375
183.87338332290702 126.57833682769233 88.3468752126889
192.7999882478776 132.58648338959642 70.72887115924605
172.16758499125427 141.57573779670713 80.02807451571762
179.1870207089042 140.4795025503954 67.98010273472016
174.06393669443077 134.74570527550546 89.38143232225498
166.56832962808542 127.98776578697094 67.38502121902343
163.6516580143495 132.71004394808364 86.33707191122058
177.90792048064995 139.98057424358245 87.74493282161308
163.85283838662482 127.70096272585154 71.69638538658894
169.3452968134146 125.36461827702182 89.31181855967407
162.73598026663254 125.26562183602165 83.1172032904772
164.66092528075535 122.39167806363176 80.98884282618722
165.3286764519413 122.45350242482093 84.71677146186042
166.24867376621663 133.88668694028158 73.0692184708789
177.43391677723616 128.0542551911715 90.14933665588953
196.72743063202537 131.44100731830454 76.88283738119878
170.64836313652893 133.6137530689437 64.82050482059283
171.25599485093875 131.64767137086798 90.93611095153794
176.78207349467917 136.75969775942553 88.66792374335448
188.85796729721568 122.51989050257087 84.62994063967015
163.24767682117266 133.0333878186436 82.38711628806405
171.10101228554856 140.0922904641806 71.1263118789387
173.44888957289416 119.54106080453924 85.30286534626835
173.0913441311283 142.17294107870578 73.38805000123182
163.23560509381304 130.08051450509436 74.2950016579537
179.78097755923585 126.22734411407099 62.81481610288416
174.10052578386725 123.95260596151518 64.04213764644709
170.51692770642407 138.71396725849635 70.09924380535453
183.44503106780988 140.63164230481092 71.498392861022
177.0141934508396 121.09084914020345 70.73828294543242
174.22060401658285 122.6586495980815 88.44416977729284
168.1369849848478 120.80965708253079 71.71465160763181
187.51162631268207 127.6205374441489 64.81425286159319
190.74317893972082 135.81336676461777 75.66544232865589
166.79810675910508 120.723005732542 74.13820596199398
175.09868428187752 127.24946372134774 61.43635260735344
181.54318289642714 120.97783383114712 75.89457039236994
168.31155194711852 120.54845760799557 85.6123413804323
164.03536322248732 123.28272252354955 82.99871775260797
183.35806436130162 120.96769323103372 80.88325754072658
193.69617973778628 122.08237903707023 76.61578205742394
180.84771689842924 141.1488245365567 86.25473534772566
192.20109492954236 128.24539831005177 67.55911654966924
186.5969769582431 132.66417310063753 88.0142944849373
184.08017659813868 130.28360481283434 89.1636955241403
175.84183817150733 121.74571877813992 67.36809192026601
194.1329319952953 124.866103755881 84.00108164832653
167.9445716530699 126.04710392562966 66.25764437160363
170.46862104010157 135.54366683433437 87.41201854977595
163.59416092990574 129.35033468650255 89.19460818117874
176.50162427534644 139.21328985155412 66.10238905342959
174.50314055129604 125.29202301819255 62.60884288723901
173.2299411645699 141.64991795678188 70.45662776991047
181.1664948028095 141.52285760684146 72.25848460909704
174.97845209471987 118.96151430801382 76.31068596146893
175.74071082531475 129.63839542387734 60.99456753595761
175.5634681049107 120.30129762699407 71.9140290818546
191.71124281917503 121.46687932619544 81.09741647345994
173.18947701155304 133.5708158663036 62.63907372839638
180.1267170314291 137.55573684148965 89.29600223740857
171.56562939176592 137.92453890261842 67.2856672901619
189.81694191060365 136.95875356373858 84.66551049444136
175.36244700030778 118.27879692481288 79.96911912484848
185.58711537985002 139.10523734775708 71.05236590772917
182.01015406465987 125.79213754010614 63.75923987008548
177.01843171556655 136.75303899940016 64.13200546489074
171.9760487308328 141.19015973876392 72.1890884404577
194.2962483334023 133.13072338350054 75.71713626290926
179.76442874756313 142.64690352874572 78.02375672387733
192.30258626999162 122.87544533646204 70.98197046428525
178.94788237581233 134.263035504582 62.44496622743036
171.32463975792012 131.46095088088975 63.00889834512796
186.50136299940286 124.30331014795401 86.81580073260326
167.42974639952652 123.19484959531094 68.7378850393724
168.50417144690556 136.58968653003458 74.78889501833086
181.60094444092047 122.45146748126693 85.50480539889969
175.47496081966457 127.3869244723865 90.68319448263034
173.3064698684974 141.3155882677613 83.05733122543815
196.53308322953063 123.52512012037742 78.95709758895276
174.32109994485972 142.90636705135597 79.1695798529671
171.5534085500797 141.08992789381884 77.00269828758391
170.00669158151138 118.74393393325944 77.23247306052474
168.33016229667206 121.80528032624271 69.7590386128311
170.83692191862372 119.15751577142248 74.73430952928335
164.72417578528015 133.4611853785573 87.97056018933324
174.55370308986912 118.21449131206599 78.11696700828706
181.31090903451883 121.43045904492656 83.44399257606442
170.1852744110977 136.99266020183015 68.9218330803142
186.71196870714772 120.07592616033779 79.48368735105328
164.27971703044977 133.87216508775205 84.12515398226995
165.02920619714882 130.83033673840524 90.31347752286064
189.77931906896748 120.44354786946752 74.60540272653229
174.90234264611723 138.45227906180713 86.54598737565212
189.9533016686533 125.80861514202088 66.64295485275365
189.01190559685048 137.67647643541787 73.67717455356025
172.63093464780357 133.1546261023053 90.19810925380622
167.969866489621 135.00808037071099 86.57965245539631
169.77140721892357 134.77217282798176 67.28185578981432
186.59538091227898 136.10479754513642 87.96280123095484
167.50093976817854 133.32016529200993 90.19674493468455
163.76724972337107 131.69580615658296 88.55533622672007
196.14879508348668 123.34676430871292 76.70990234018358
178.18785994068935 129.1021349413936 61.35732266240207
173.89307094223167 117.9678426918172 81.65436717655307
181.67229596638086 122.56390390719187 67.58516670596218
176.09851780746928 119.88932708564698 84.42121845864644
174.03259117180747 136.19831639164553 64.28550132811087
163.47614329106202 132.66223605222513 78.20096277634359
169.46200612298168 133.04591227537958 90.2072169541065
173.54719720618934 138.3368326262659 66.32534812614807
171.7673190793373 118.22536161112227 81.1878603106628
172.71096718741921 127.92752291200429 61.59990330136144
169.29718065764104 122.24549399853167 68.0394861072656
196.64723046782595 129.3489135287948 83.06668628591812
169.29777034106255 129.42355656330523 91.41855775413914
175.8096567280899 118.95823710359633 82.10622641421931
162.64389097112638 128.98045091464502 76.56960048182474
175.86766862043893 134.70172129740007 62.75419739489423
165.81736079949582 135.07468008313802 79.78217252135663
173.83161737651048 121.49863350438216 67.50392261160256
163.1527021144969 132.91684757016148 80.27092790597925
196.51310053615313 124.12903494074104 81.3631397254582
172.70318067739822 120.68062243124916 69.43086427670823
191.7578835913632 121.26264095101575 78.06211945113873
173.42264289853475 119.04427238785746 74.60635549183728
175.0578349912982 121.21255486960266 86.48464034034502
166.90077639267315 122.5049602185812 70.70256643736278
195.23341103081066 124.65301392148237 71.21970482592003
196.33828119937994 129.8783238689376 71.30812162121146
167.12249165318215 134.1100900757792 71.37396450183805
181.34446420261398 133.6679542640303 62.908682670403714
197.31425855264726 130.2030237049537 73.9950439972308
172.0623761140886 135.39526595136078 88.54141074195257
162.26340931596593 127.30518039797452 82.88129059668591
182.4668975948584 140.14998322616538 69.44551588528003
171.87674248005084 128.72021354322314 90.86746781782503
168.86721773659863 134.17056965297394 88.70644523547301
175.60953291322167 119.56582299148535 74.08676847247516
168.06259417108558 135.42354934274886 72.20859440449605
165.76716371781515 124.17422258837792 69.8598640863078
184.28603559696592 125.50837610714592 64.6438996911699
181.00431156572188 123.98479701125034 65.45001628763262
180.2776887437451 130.47848921725222 89.70856901674524
169.3057738680456 130.83684265993935 64.53731768845
162.64632572939433 125.20767860913652 78.90436928178764
166.44790493896002 135.24614335137701 77.96187820330267
171.48861523742232 121.55123619394497 67.64388586886481
178.35409862027285 141.69836425327387 85.92333380119493
183.76490216596503 141.68753027630464 84.01358537815074
182.13452095052804 132.23167710064857 89.66270941103171
164.50675158035008 132.35875419678203 74.14041551406605
167.55427089396176 135.85059177527282 76.50734698292452
166.4364158171749 120.72184282584846 76.89289818701502
172.7561343679299 122.61319372454567 65.7992922304528
179.79765195325996 122.21143629346909 85.71799441979225
183.84814070598023 122.18637521914897 85.52543229746242
175.99797183921916 125.85181300903807 90.16785412377877
168.84747239282316 119.8456646228933 73.67727000837095
170.29113445576021 120.95035061257285 69.96766082309975
176.10591885359935 119.39649996588705 78.18534469729033
188.20820102791788 136.71924692626715 70.7016389849362
173.63097757705324 120.0979707128075 71.24480972656504
177.51140402017222 126.67202105059751 61.8569494105323
186.15668033378512 120.69317317686806 72.32510902585183
191.93627486326875 122.6827205826974 83.71187036089364
184.8151845206918 141.80361907351136 80.5131231530659
162.42521230215468 129.3165404987513 83.65753254063988
167.42359466774693 127.60563673776186 90.20716972607522
171.21209407498034 134.15928916965885 89.58258175616338
167.07631641721156 121.90312774875528 86.11495786803972
171.1905553431812 119.45235923955794 84.65490001030263
166.96849900822585 132.8258052473803 68.7718502915221
175.27663068415137 143.2647301686855 74.0160271837356
179.14529629095264 142.09391271028161 70.35487174239378
166.84045875094355 120.30492818287351 79.00834635856637
179.22723553879518 120.63086269628359 79.51456738016385
189.71730344400268 128.9117615252578 87.10735244199967
172.20422244814338 124.46209696305829 89.14528183679676
183.7385641331154 134.11981558660725 89.3733652935058
176.71977770580153 124.70629815912025 63.09280289201396
180.8292642826936 121.02458515927721 80.84049178928692
170.38193905992497 120.01887590684805 72.31428494543871
168.5002463339392 119.75961605204472 75.77349080717764
184.8484816148801 121.57131586548618 70.7434704773291
169.2244124781331 137.1374004353848 79.95608641800771
187.56190209209743 129.58392558356064 87.84778677162801
196.59646624979584 131.3736881730521 80.4335697736718
170.05736955432602 126.840990207978 63.38740566245923
177.83247196165516 120.74430823717401 73.04858887055491
168.49148966566298 131.70823874541813 91.31465683220085
174.47313056569047 124.62095390620162 89.5723238762921
163.3838252710206 125.84648161105969 72.96822381926016
197.61786366295073 124.99121360028738 76.10820834354085
183.6317405227965 132.9782157056923 63.39039132020267
169.66522244312154 125.18472637104405 64.60871733078221
188.31722541438063 131.80357827245467 87.1020753989269
176.84768048678117 143.10598018890377 78.92709620236663
187.7156388805889 120.14595367393201 73.86946572020263
166.1600186190682 132.55785003878714 70.67488952149385
172.9161600261151 121.0877599621505 87.10748344825731
190.1577068248086 121.753972358727 70.70369515963574
181.0048939777413 121.3142154903599 72.91073922018609
163.69672053576923 123.0696235645962 78.98202431771305
171.9285362049357 139.38132791692732 68.71893111031356
169.5156291581156 138.53567569499552 74.18737072037047
177.5782388262303 123.04959396917721 65.85704214280624
166.5844178166042 134.16039954262766 88.36408244982465
178.7003492516541 131.7073533959755 61.487056467715355
171.85397503778876 138.5877960636561 84.78276286690541
175.24253918789447 137.73450886390205 65.07936099981214
176.26816404821957 124.01211247093948 88.8255787443172
176.96273096377837 143.20225707926005 76.06192841787163
175.55546109880288 133.14030662100657 90.40985082458828
174.00751457727807 132.03073339500048 90.8036849611781
166.76143671217218 125.27025297531151 67.99177487760798
183.89714997059448 120.59893090197485 77.53111582157167
177.21510916731344 120.25151565660904 76.04137843116153
177.67939706788206 142.46633423779733 72.74979104656605
163.94767327299127 123.94586302466436 73.16191385654184
171.3961421859371 126.5317828208111 90.01908752989969
185.93395507667262 121.10493571416264 83.08618886522298
162.6392961642431 129.99211067624083 86.53065603759649
165.29352196553867 121.68928539759811 82.78512996131728
181.48878723353337 123.83704633999469 87.45678683895311
167.94954263858332 123.48116544661787 87.70797114327151
173.37479580054037 130.19841738805752 61.30133522925449
165.29561355306944 130.8952923572746 70.06116971130795
197.86923188697585 129.60031971016866 76.19604181513947
172.17693247038954 141.81732489906466 75.13763871146134
190.7271031616521 136.7538499508873 79.06890343524158
189.1133385475955 134.08691931592855 86.29241181788467
167.45818293974716 135.08116879806235 73.88461871419918
187.20986206781825 139.9562475419882 74.26790175019761
170.05694511397095 120.45363739994856 85.84117501429292
193.6406292600285 133.3078070201059 81.38781454642115
162.45118419066156 131.1093731758789 81.79309530155271
177.10537411522037 119.95728674221445 80.33220265219177
191.64835138205504 131.73522250787863 68.32449029848046
167.65066424451584 130.10733324010653 66.2922611831492
162.3761517185891 127.69406954040223 78.89523204193115
179.38445793601463 120.8199815061934 75.02988284899477
179.02228422148335 120.71066379678129 81.77749340084634
182.1759246161249 128.50575727339861 89.16603466235495
184.30808363945854 120.90262040624746 73.95306875648433
187.0583245027707 140.4625081047253 83.01885591353123
187.51389013380432 138.9721529209191 86.20541704176034
165.6407225274078 134.1367131427764 86.21649119762847
186.71863611129524 122.34856567409227 68.7593506705705
185.04807663139462 127.72660289678115 63.70650348613614
174.74205042719416 140.22892921166067 68.17384548863647
174.1534354836718 119.46812063241103 72.85359984045719
162.62408824196172 126.41637003835125 76.70232691313913
174.4909251066885 136.96380338216275 88.34492435328394
187.68231798690059 138.5529191002815 72.29535748675742
169.0637165679732 121.71932608060321 86.88633649808014
165.46288090456912 121.86546725450992 75.37597489024698
171.00305922188042 136.9474373540783 86.21033568545678
193.63763526240604 124.56353561429532 69.79944744643919
173.7408529798736 142.5536189272406 81.13851791699709
180.36465477807144 134.07324279530022 89.72905695108346
190.4760804619599 121.51548860144123 82.98892369654635
170.73935925523463 128.74427526642242 62.597817566242604
165.33145095806083 122.440848338908 73.65325707803729
188.9373560661195 138.552102698028 76.81802702058603
168.20446537736194 119.64236334680189 77.98499982405633
177.77439461238956 120.26205117741675 78.26565298048739
181.35527644191833 120.91052680116415 78.64679777039282
169.75754625406864 137.51512105201485 82.0254555316348
167.04585188950352 120.79601603116488 83.86365147359474
164.29390757865377 125.1403662639392 71.33566956061144
163.0337810189628 127.67111596530232 87.78011959327327
164.9517316415029 134.49613233750551 81.45640919413746
168.18494680488905 119.65736537725795 79.9985708239641
173.70994087377412 126.6383692137603 90.31438492816916
166.97361288896707 130.02196302371271 90.96580049688934
170.1853290033496 122.93359620306839 88.41558576832294
186.27512720605523 119.87962153698467 76.30359274777112
190.41169669423238 120.88240981926334 72.6412506019271
196.92752450253607 127.27841533296042 72.12337564413349
177.3701999946636 121.65427609233718 86.00366635954205
178.45155005860798 123.37386202368313 87.69403527414522
182.99806321011454 121.26335543058347 71.83956519610047
194.89259387463278 131.94250715992845 72.65832816486498
182.6379357266548 128.17507467445438 63.22092141586316
191.1588149784852 125.12757802190785 85.39290566469913
172.57322655873782 118.4719931398763 77.05264787272829
163.28084347008445 131.48482072087066 76.40218095193056
169.6300438383572 136.2143838132333 84.73403426112317
178.58836877388077 142.7007024213615 80.75459316878836
165.4516367731095 132.81597454069896 89.66954362810918
183.10456663377886 130.57585742722884 63.240291822739344
179.3038787672213 138.23156486976575 65.1335183484062
168.521775436202 136.09349296102334 82.80095930269849
174.4385262098637 118.62489112868396 83.50316386876621
178.53265554862128 120.82427204848594 84.0463177878183
185.23961349923349 130.02055536100906 63.87281898269172
172.94545735827845 130.40106306071826 90.99199546040697
181.91255787255736 121.96387221881322 69.88186708838363
179.78923606569884 122.51334979246408 68.01502699622047
183.56601742038166 137.509821006877 88.82944455669688
194.79381877420693 127.62322643935437 85.1269849464594
165.3710672064912 128.85606331405745 90.44866562886251
172.74750092214563 142.41892539597183 78.13635005954914
166.50195551987153 131.89730362387164 90.99953649056387
163.61982144316713 124.23628533211607 85.26042004718427
169.85159954883574 127.35549283484386 90.71636042257843
184.75741569963608 135.6531951346126 65.35552409800417
168.36742437484713 123.9790202518868 66.73399988230504
181.94087372330452 138.7374919167977 66.38653745877271
186.85597092871234 132.74649736868912 65.27917575020976
169.22899364059907 119.92443828949315 84.15641210833836
175.85953132768333 123.50278625799037 64.64465997723707
180.15144406366025 139.87351565384282 88.2837211396386
166.88944109014489 135.18728219957964 83.82098879588762
163.08856654658936 124.10178748840761 81.02095741648252
168.5486983066051 136.8530363807614 77.91355469215416
172.63760741523916 136.76499870029252 87.41658598289098
176.87319833811543 131.36531663168765 90.49639496781148
164.132217579051 125.67557527963844 87.37420705778351
172.35757037643393 119.39335436463881 72.73707064833788
181.91088416026915 139.70354587252814 88.57067347051695
198.11695393861226 128.9508219851131 78.51215447710388
170.95875503537837 121.30057725138849 87.27580023451662
180.40846274862173 126.82161783131629 88.88910350191347
190.40269275226024 134.13353455950724 70.33837821471764
190.2366002544781 134.68397769485662 84.2103866020138
177.27910992856775 134.1263686388492 90.06258916411083
165.2493931729297 121.35018159192526 79.0183311047764
165.5494385638583 123.58247375443932 86.9131701774974
169.44893569077297 119.02207212652169 79.01016318448528
197.62983425800942 129.3351709091572 80.88332013040598
187.6036323048193 140.4319505839158 76.74644610567945
185.33836791829643 141.44437785965525 76.87442651757226
192.15816175480117 133.8600387193666 73.37335711474233
165.08787721567398 132.51295398878585 72.34542546802308
166.3292561955165 121.75737548866326 72.30390101768585
177.26169209143077 120.15365110769099 82.52470972386429
179.15833708030172 121.58554351954243 70.54728514199202
178.75209626031418 132.52456812630828 90.30927440261657
183.94372733095776 124.1459614872205 87.14352571641138
162.8306652155731 131.77228390104904 84.1755250778509
175.4471221876831 143.4182994149404 77.61974027173339
165.39875794661597 133.8142878527197 74.72085995471633
181.59529417904386 135.9505537164672 64.31510161604459
169.00105434065784 136.19627284253505 70.67533843740026
187.299044064685 135.86716815356414 67.54224989501736
179.39210105196713 120.71830213090759 77.23537872076028
169.67580010711822 138.87864322021773 76.18647133082516
174.6385639985789 129.21215852607924 90.8401646950474
POLYGONS 956 3824
3 5 0 241
3 416 0 5
3 5 241 3
3 241 7 6
3 416 5 212
3 460 395 212
3 5 3 460
3 212 5 460
3 395 313 212
3 395 403 305
3 2 112 403
3 403 112 305
3 6 301 441
3 305 283 395
3 283 313 395
3 288 214 313
3 7 424 153
3 301 6 7
3 3 241 6
3 236 424 246
3 450 214 312
3 7 153 301
3 301 153 4
3 214 212 313
3 347 477 396
3 241 0 234
3 381 255 450
3 216 0 416
3 367 290 396
3 216 290 193
3 193 290 367
3 396 290 347
3 347 290 185
3 246 193 367
3 246 467 236
3 467 246 367
3 416 185 216
3 290 216 185
3 0 193 234
3 381 187 268
3 424 234 246
3 234 193 246
3 255 416 214
3 214 416 212
3 268 255 381
3 268 185 255
3 372 467 367
3 0 216 193
3 477 306 396
3 306 311 372
3 468 332 319
3 236 410 256
3 306 477 397
3 397 311 306
3 319 187 160
3 255 185 416
3 236 467 425
3 425 467 372
3 256 153 236
3 236 153 424
3 285 410 425
3 347 268 319
3 319 268 187
3 450 292 381
3 292 187 381
3 450 255 214
3 268 347 185
3 468 428 332
3 217 285 425
3 411 285 354
3 341 90 411
3 332 412 374
3 374 412 314
3 332 428 412
3 412 428 314
3 4 153 330
3 330 153 256
3 406 385 453
3 385 364 453
3 7 234 424
3 411 95 341
3 95 287 341
3 7 241 234
3 364 4 453
3 4 330 453
3 374 407 346
3 346 407 219
3 374 328 407
3 311 217 372
3 372 217 425
3 170 217 311
3 397 167 346
3 346 167 374
3 396 306 367
3 367 306 372
3 410 90 256
3 161 330 256
3 346 170 397
3 397 170 311
3 332 371 319
3 425 410 236
3 4 364 301
3 301 364 441
3 219 170 346
3 319 160 468
3 319 371 347
3 347 371 477
3 374 167 332
3 332 167 371
3 312 214 288
3 371 167 477
3 477 167 397
3 102 450 312
3 102 292 450
3 349 400 89
3 124 449 459
3 333 126 122
3 354 131 454
3 382 126 275
3 275 126 333
3 441 168 399
3 468 160 111
3 149 190 138
3 287 207 404
3 404 207 479
3 287 145 207
3 207 145 479
3 479 266 404
3 213 162 257
3 143 300 459
3 168 385 300
3 406 308 140
3 155 125 247
3 247 125 382
3 287 321 341
3 308 161 321
3 321 161 341
3 139 107 400
3 382 104 126
3 382 125 104
3 312 289 102
3 102 289 253
3 454 145 95
3 95 145 287
3 336 111 176
3 478 205 446
3 453 94 406
3 406 94 308
3 94 161 308
3 247 417 155
3 247 98 417
3 454 273 145
3 341 161 90
3 90 161 256
3 145 448 479
3 147 274 88
3 454 87 354
3 354 87 411
3 454 95 87
3 87 95 411
3 139 86 130
3 130 86 155
3 139 125 86
3 86 125 155
3 165 162 288
3 430 309 229
3 155 281 130
3 349 322 400
3 125 139 322
3 322 139 400
3 102 253 292
3 292 253 72
3 156 293 233
3 233 293 166
3 156 310 293
3 293 310 166
3 445 84 275
3 130 82 139
3 1 136 82
3 136 81 178
3 81 274 392
3 253 250 72
3 72 250 176
3 277 253 289
3 277 250 253
3 160 187 72
3 187 292 72
3 178 345 136
3 345 107 136
3 140 298 124
3 406 355 385
3 355 124 459
3 449 124 76
3 76 124 298
3 161 94 330
3 330 94 453
3 176 111 72
3 72 111 160
3 289 162 213
3 165 313 283
3 165 288 313
3 411 410 285
3 411 90 410
3 169 353 143
3 286 206 217
3 217 206 285
3 286 354 206
3 206 354 285
3 178 81 325
3 69 336 176
3 468 429 428
3 468 111 429
3 122 126 105
3 297 366 120
3 366 98 120
3 333 122 458
3 393 349 89
3 393 105 349
3 445 333 142
3 445 275 333
3 126 104 105
3 105 104 349
3 399 353 112
3 112 353 142
3 325 70 85
3 85 70 157
3 393 386 105
3 386 122 105
3 308 321 404
3 404 321 287
3 104 125 322
3 322 349 104
3 275 370 382
3 382 370 247
3 142 458 112
3 112 458 305
3 122 386 283
3 400 270 89
3 89 270 257
3 120 264 297
3 120 84 264
3 264 84 141
3 257 466 89
3 165 393 466
3 466 393 89
3 85 113 325
3 297 110 352
3 139 82 107
3 107 82 136
3 257 204 213
3 204 243 213
3 165 466 162
3 162 466 257
3 283 386 165
3 165 386 393
3 112 2 399
3 205 80 269
3 392 202 356
3 392 274 202
3 202 274 147
3 441 399 2
3 122 283 458
3 458 283 305
3 460 3 403
3 403 3 2
3 460 403 395
3 402 444 127
3 143 353 399
3 270 345 204
3 204 257 270
3 3 6 2
3 2 6 441
3 445 142 169
3 169 142 353
3 449 435 459
3 435 141 169
3 459 435 143
3 143 435 169
3 142 333 458
3 213 243 289
3 289 243 277
3 277 284 250
3 284 113 85
3 441 364 168
3 364 385 168
3 273 448 145
3 141 445 169
3 141 84 445
3 178 438 345
3 438 113 243
3 345 270 107
3 107 270 400
3 175 373 131
3 131 373 454
3 175 273 373
3 373 273 454
3 120 370 84
3 84 370 275
3 479 448 344
3 113 277 243
3 113 284 277
3 345 438 204
3 204 438 243
3 289 312 162
3 312 288 162
3 300 385 355
3 355 459 300
3 339 387 447
3 447 387 179
3 339 418 387
3 387 418 179
3 179 263 447
3 447 263 135
3 179 299 263
3 263 299 135
3 479 427 266
3 266 427 148
3 479 344 427
3 427 344 148
3 98 238 417
3 417 238 129
3 238 128 129
3 180 231 352
3 352 231 137
3 151 366 471
3 471 366 297
3 297 264 110
3 110 264 141
3 352 137 471
3 471 297 352
3 418 339 398
3 444 227 418
3 418 227 179
3 148 226 299
3 299 226 135
3 148 344 226
3 226 344 135
3 420 231 221
3 221 231 180
3 137 231 215
3 215 231 420
3 446 276 127
3 137 220 471
3 471 220 151
3 272 429 336
3 336 429 111
3 149 135 457
3 336 442 310
3 310 442 157
3 336 69 442
3 442 69 157
3 227 377 337
3 298 432 76
3 76 432 180
3 221 180 432
3 432 405 221
3 151 220 402
3 402 220 444
3 337 420 230
3 444 377 227
3 444 220 377
3 137 377 220
3 137 215 377
3 377 215 337
3 337 215 420
3 418 423 444
3 444 423 127
3 418 398 423
3 423 398 127
3 144 473 96
3 96 473 129
3 144 281 473
3 473 281 129
3 446 77 478
3 124 355 140
3 140 355 406
3 1 369 136
3 274 81 369
3 369 81 136
3 130 357 82
3 82 357 1
3 130 329 357
3 357 329 1
3 404 350 308
3 308 350 140
3 404 266 350
3 245 320 405
3 140 436 298
3 140 350 436
3 436 350 266
3 129 281 417
3 417 281 155
3 113 438 325
3 325 438 178
3 392 318 81
3 81 318 325
3 392 70 318
3 318 70 325
3 143 399 300
3 300 399 168
3 179 267 299
3 337 230 267
3 245 405 298
3 405 432 298
3 247 370 98
3 98 370 120
3 98 366 251
3 251 366 151
3 298 436 245
3 245 436 266
3 141 435 110
3 110 435 449
3 127 249 402
3 402 249 128
3 127 276 249
3 249 276 128
3 148 245 266
3 148 320 245
3 299 239 148
3 230 320 239
3 239 320 148
3 449 401 110
3 180 352 401
3 401 352 110
3 1 302 88
3 88 302 109
3 1 329 302
3 302 329 109
3 205 335 80
3 80 335 123
3 205 478 335
3 335 478 123
3 420 434 230
3 420 221 434
3 434 221 405
3 230 434 320
3 320 434 405
3 337 267 227
3 227 267 179
3 166 242 356
3 356 242 392
3 166 70 242
3 242 70 392
3 109 228 88
3 88 228 147
3 109 218 228
3 176 250 69
3 250 284 69
3 69 284 157
3 157 284 85
3 180 401 76
3 76 401 449
3 233 338 117
3 117 338 201
3 233 97 338
3 338 97 201
3 138 223 149
3 339 447 223
3 230 239 267
3 267 239 299
3 448 343 344
3 344 343 135
3 448 457 343
3 343 457 135
3 119 271 163
3 189 97 356
3 238 98 251
3 251 128 238
3 390 469 273
3 273 469 448
3 390 457 469
3 469 457 448
3 219 351 170
3 356 186 166
3 166 186 233
3 356 97 186
3 186 97 233
3 157 182 310
3 310 182 166
3 157 70 182
3 182 70 166
3 329 465 144
3 144 465 281
3 329 130 465
3 465 130 281
3 205 362 96
3 96 362 144
3 205 269 362
3 362 269 144
3 80 475 269
3 269 475 109
3 80 218 475
3 475 218 109
3 96 282 205
3 205 282 446
3 96 276 282
3 282 276 446
3 128 276 129
3 276 96 129
3 144 260 329
3 329 260 109
3 144 269 260
3 260 269 109
3 128 251 402
3 402 251 151
3 211 123 478
3 316 174 175
3 229 309 174
3 174 309 175
3 123 152 80
3 152 183 334
3 342 108 348
3 342 199 108
3 108 199 106
3 339 92 398
3 339 208 92
3 92 208 133
3 133 211 77
3 77 211 478
3 121 74 199
3 199 74 106
3 74 463 106
3 229 174 361
3 103 389 208
3 208 389 133
3 103 210 389
3 389 210 133
3 75 265 194
3 106 66 184
3 106 463 66
3 80 158 218
3 218 158 334
3 80 152 158
3 158 152 334
3 199 419 121
3 103 91 419
3 419 91 121
3 342 327 199
3 327 210 103
3 123 197 152
3 152 197 183
3 123 154 197
3 197 154 183
3 219 65 351
3 351 65 150
3 149 64 190
3 190 64 390
3 149 457 64
3 64 457 390
3 398 315 127
3 127 315 446
3 398 77 315
3 315 77 446
3 314 294 374
3 374 294 328
3 314 73 294
3 294 73 328
3 73 408 328
3 75 60 476
3 476 60 291
3 75 194 60
3 60 194 291
3 97 248 201
3 201 248 196
3 248 237 196
3 147 228 59
3 59 228 218
3 286 58 203
3 203 58 150
3 286 351 58
3 58 351 150
3 194 66 363
3 363 66 463
3 138 55 223
3 55 103 208
3 154 54 183
3 348 71 54
3 54 71 183
3 117 53 233
3 233 53 156
3 117 414 53
3 53 414 156
3 103 55 91
3 419 199 327
3 327 103 419
3 271 51 272
3 51 314 428
3 147 50 189
3 189 50 237
3 147 59 50
3 50 59 237
3 272 49 156
3 156 49 310
3 272 336 49
3 49 336 310
3 83 48 455
3 455 48 291
3 83 476 48
3 48 476 291
3 156 195 272
3 272 195 271
3 156 414 195
3 195 414 271
3 59 240 237
3 202 147 189
3 189 356 202
3 286 470 354
3 354 470 131
3 286 203 470
3 470 203 131
3 196 181 422
3 422 181 134
3 183 380 334
3 183 71 380
3 71 304 134
3 71 348 304
3 304 348 184
3 414 379 271
3 271 379 163
3 414 426 379
3 379 426 163
3 83 440 476
3 426 324 440
3 119 51 271
3 348 303 342
3 348 54 303
3 303 54 154
3 61 463 296
3 201 261 117
3 117 261 324
3 201 474 261
3 261 474 324
3 74 121 296
3 296 463 74
3 274 369 88
3 88 369 1
3 474 422 439
3 439 422 134
3 265 75 439
3 439 134 265
3 334 191 218
3 218 191 59
3 334 240 191
3 191 240 59
3 342 472 327
3 327 472 210
3 342 56 472
3 472 56 210
3 175 280 273
3 273 280 390
3 175 309 280
3 280 309 390
3 237 248 189
3 189 248 97
3 211 359 123
3 123 359 154
3 211 56 359
3 359 56 154
3 56 342 303
3 303 154 56
3 348 108 184
3 184 108 106
3 210 433 133
3 133 433 211
3 210 56 433
3 433 56 211
3 334 380 240
3 240 380 181
3 398 92 77
3 77 92 133
3 240 340 237
3 237 340 196
3 240 181 340
3 340 181 196
3 164 225 394
3 225 363 394
3 184 159 265
3 265 159 194
3 184 66 159
3 159 66 194
3 172 451 100
3 100 451 430
3 451 190 430
3 149 383 135
3 135 383 447
3 149 223 383
3 383 223 447
3 223 116 339
3 339 116 208
3 223 55 116
3 116 55 208
3 198 413 464
3 190 443 138
3 138 443 172
3 190 451 443
3 443 451 172
3 361 456 192
3 192 456 99
3 361 68 456
3 456 68 99
3 78 132 413
3 455 464 132
3 132 464 413
3 46 68 361
3 99 42 192
3 181 41 134
3 134 41 71
3 181 380 41
3 41 380 71
3 68 365 99
3 455 368 83
3 78 173 368
3 114 307 63
3 63 307 316
3 114 46 307
3 307 46 316
3 291 40 455
3 164 464 40
3 40 464 455
3 114 38 46
3 46 38 68
3 114 44 38
3 38 44 68
3 117 421 414
3 414 421 426
3 117 324 421
3 421 324 426
3 476 437 75
3 324 474 437
3 188 36 295
3 295 36 177
3 188 79 36
3 196 35 201
3 201 35 474
3 196 422 35
3 35 422 474
3 134 34 265
3 265 34 184
3 134 304 34
3 34 304 184
3 203 33 131
3 203 63 33
3 33 63 316
3 63 415 114
3 150 295 415
3 225 164 40
3 40 291 225
3 394 462 61
3 61 462 463
3 394 363 462
3 462 363 463
3 363 384 194
3 194 384 291
3 363 225 384
3 384 225 291
3 61 296 375
3 121 279 296
3 172 100 279
3 316 326 174
3 174 326 361
3 316 46 326
3 326 46 361
3 188 391 65
3 65 391 150
3 188 295 391
3 391 295 150
3 62 254 57
3 254 79 188
3 272 235 429
3 429 235 428
3 272 51 235
3 235 51 428
3 47 452 43
3 375 296 279
3 328 57 407
3 407 57 219
3 200 331 101
3 101 331 73
3 200 408 331
3 331 408 73
3 200 258 67
3 42 61 375
3 146 317 452
3 163 224 119
3 119 224 101
3 62 222 408
3 408 222 328
3 62 57 222
3 222 57 328
3 409 262 47
3 79 209 252
3 252 209 43
3 79 232 209
3 209 232 43
3 67 171 62
3 79 254 171
3 171 254 62
3 36 79 252
3 252 177 36
3 232 79 171
3 171 67 232
3 47 118 409
3 118 232 67
3 45 32 173
3 101 224 32
3 32 224 173
3 413 259 78
3 413 262 259
3 259 262 409
3 394 360 164
3 360 42 99
3 62 115 67
3 67 115 200
3 62 408 115
3 115 408 200
3 314 378 73
3 314 51 378
3 378 51 119
3 232 323 43
3 43 323 47
3 232 118 323
3 323 118 47
3 317 93 365
3 317 146 93
3 93 146 198
3 78 259 31
3 31 259 409
3 47 358 452
3 452 358 146
3 47 262 358
3 358 262 146
3 258 409 118
3 118 67 258
3 365 30 317
3 44 244 30
3 30 244 317
3 192 29 361
3 361 29 229
3 192 376 29
3 29 376 229
3 229 28 430
3 430 28 100
3 229 376 28
3 28 376 100
3 100 27 279
3 279 27 375
3 100 376 27
3 27 376 375
3 192 26 376
3 376 26 375
3 192 42 26
3 26 42 375
3 452 25 43
3 25 252 43
3 172 24 91
3 91 24 121
3 172 279 24
3 24 279 121
3 44 23 68
3 68 23 365
3 44 30 23
3 23 30 365
3 252 22 177
3 252 25 22
3 22 25 244
3 37 164 360
3 31 21 78
3 78 21 173
3 31 45 21
3 21 45 173
3 188 19 254
3 254 19 57
3 188 65 19
3 33 20 131
3 131 20 175
3 33 316 20
3 20 316 175
3 244 461 317
3 317 461 452
3 244 25 461
3 461 25 452
3 114 431 44
3 431 244 44
3 390 18 190
3 190 18 430
3 390 309 18
3 18 309 430
3 177 415 295
3 22 244 431
3 431 177 22
3 73 378 101
3 101 378 119
3 37 365 93
3 93 198 37
3 45 17 258
3 258 17 409
3 45 31 17
3 17 31 409
3 368 173 39
3 39 83 368
3 440 324 437
3 437 476 440
3 42 16 61
3 61 16 394
3 42 360 16
3 16 360 394
3 173 15 39
3 39 15 163
3 173 224 15
3 15 224 163
3 440 83 39
3 101 32 200
3 91 278 172
3 172 278 138
3 91 55 278
3 278 55 138
3 146 13 198
3 198 13 413
3 146 262 13
3 13 262 413
3 170 12 217
3 217 12 286
3 170 351 12
3 12 351 286
3 75 11 439
3 439 11 474
3 75 437 11
3 11 437 474
3 200 388 258
3 258 388 45
3 200 32 388
3 388 32 45
3 150 14 203
3 203 14 63
3 150 415 14
3 14 415 63
3 78 368 132
3 132 368 455
3 426 52 163
3 163 52 39
3 426 440 52
3 52 440 39
3 114 10 431
3 431 10 177
3 114 415 10
3 10 415 177
3 57 19 219
3 219 19 65
3 164 9 464
3 464 9 198
3 164 37 9
3 9 37 198
3 37 8 365
3 365 8 99
3 37 360 8
3 8 360 99
