# vtk DataFile Version 3.0
A great-looking cell
ASCII
DATASET POLYDATA
POINTS 665 double
97.28359415201227 120.98543183890112 8.616119096410559
100.77380577908397 121.77261743965488 7.316063616391907
103.13888779478587 122.7295721040463 6.5152727862842905
101.20007759132713 122.55092695482448 4.759104631654694
104.9546053641931 123.56593513663962 7.09277464572679
97.07388631527718 122.13636923997831 6.869877933669421
103.1100719567689 123.38638276552675 4.413972729078469
104.70359747964761 123.9814160845907 5.326313044092002
95.63852312676046 123.28438834514881 6.735074005806816
96.57303631677149 123.28649605646179 4.773213784533385
101.96414407346747 123.80645297234342 2.4109166209671082
104.22048692513276 124.50364216603562 3.2706975118673394
94.41192127260376 124.19001886348084 5.603422463377823
94.6765772097777 124.55009800790278 3.3315618493277017
96.5949033815033 124.00885610941205 2.4765896073165754
100.06572571228175 124.40397997024948 0.6049168012146949
101.99703592902682 124.89929693777825 0.37033543097319943
92.6513522885581 125.60931905536071 1.8937010479353773
95.23346086958726 125.18082496797334 0.7839924994625385
96.80941060260184 125.51985781297962 -0.6824711213566423
98.7013073236688 125.54509164262278 -1.0297970395281424
100.93015589263213 125.74100675215763 -1.147263028220121
103.02204890896938 126.16525880332533 -0.749345578304354
105.4678105091183 125.95403565934801 2.262735616744419
106.76972298381473 126.79104019762292 3.3408223679958535
105.81812093970493 125.48117084800928 4.327609150564889
107.28482734143006 126.95218417567285 7.205293127261711
90.37503021718085 126.24690931658017 0.19561707116963428
93.01307679199891 126.59042743066487 -0.7491232980023995
97.15069952861913 127.12329224203043 -2.0329700834388866
99.6081945681676 127.08334218742938 -2.8261705063169926
102.08155089430507 126.85821999516581 -2.924321480547744
104.31498843042844 127.68771795149087 -2.0970930346017336
104.9902805186645 126.78162765603304 0.1887154244646505
107.71264691673166 128.73419583463757 3.619185420436836
107.13691125276114 126.85735152232029 5.216482201033095
88.75474384741337 128.58150569352722 -1.6878189916806965
92.07242625613006 128.9242224299791 -2.143139770005525
96.6838817650326 129.57547511442567 -2.9250043296614363
99.64460228383079 129.86306064101677 -3.166719274552998
102.39382153532945 129.4430803915841 -2.995652783943598
104.91258549196976 130.16225522441042 -2.3404416416442775
107.61741639119636 129.79344493226944 1.0516378575216496
108.8350670394884 131.03421595107233 2.7798622402166795
108.72110329153563 130.53641286314786 5.129305831819108
88.96139693141555 132.067701240776 -2.976758568052901
92.32793365642935 131.85982539211076 -3.066241516162651
92.75553577171705 134.97936443452502 -3.0621283630264027
96.08561169798472 134.60263190271453 -3.161027423472007
100.19749929512163 132.9435833596384 -3.0778280423813285
103.15493368016585 132.27234444249783 -2.981497123725251
105.8582564386362 132.2433005873495 -2.920963316230937
108.51865723494069 132.07979826583383 0.4854828404385376
109.45453277617753 132.53082445164083 4.391670579023174
94.0713090211583 140.9166146357673 -2.9946501864563397
99.11618337108094 136.13104727104994 -3.211060572145755
103.71667565882048 137.6194358977654 -3.036718604985273
109.18575710915127 134.27897738231798 0.31346995732030863
109.6750726702867 133.1736572479047 2.216657313650574
98.63581396024904 142.14169864800164 -2.992935777868543
103.50699567174688 144.27527554034492 -3.227198211689837
106.88260777100426 139.1535998005809 -2.9075064263109636
108.32888229665643 137.61618263039819 -0.7824160913188875
109.80903094293576 134.68885026264286 3.820808855046466
107.84742863811131 144.31996902280238 -2.964069561011997
109.099515161338 140.22602935390785 -0.2527308872209525
98.67608131969867 121.38085461284167 7.408703042318948
104.21797860025329 122.75255541633332 8.517473303222857
95.82134031461206 122.54709180689305 8.452066550490065
94.17110506068127 124.13584286278223 7.9023686000372155
92.84427730692329 124.89901793205013 6.414201924938178
92.57823169574284 125.11246085652466 4.439964051672206
89.94749535801441 125.81427828461857 3.2823743488355706
106.74017944591705 126.01009742412104 8.78830237158414
85.57398559642228 126.6378296506979 3.926686680444436
81.62446333258167 129.7070303336519 -2.1055093497086124
108.00114129603378 128.60884254630653 6.279488726974926
108.84770346728548 130.416072101487 7.415212647985232
84.35425830276957 135.13027066704154 -3.182301610757063
88.84769374502692 140.6810589620644 -3.0064509946894207
93.62185472964268 145.0362923104492 -1.3252147478533414
109.70910698520309 135.6436632377415 8.15725552869095
109.64858614238447 136.406166323325 5.414872692250084
103.14284450918022 150.30928211837218 1.0105159907496197
109.47630177002135 142.0980055293572 2.666448213066616
109.43569523512164 139.42342310016684 2.436461025077452
96.02639323639565 121.43735489466046 10.266613638463397
101.33551336346133 121.46528685093267 9.630156999620569
99.360063287469 120.97484530133767 9.099051904582247
102.6365863456589 121.88915921787994 8.37415938901084
92.01420033954862 125.18755916130242 8.057841138757373
106.2418531751271 125.14340538159308 6.636619473850124
90.77619011949157 125.19444486285906 6.007162445755305
83.49998182003462 126.88340689833637 6.625271497842584
81.99281580907048 127.15736414566258 3.493890586202996
87.93600579357235 125.81742315739969 5.6605487345026955
109.05403854062722 130.571891376531 9.384694457980832
79.17278419489152 127.661001860084 1.9697124711904979
81.22712528294493 148.01690017384573 3.8159569374241222
85.16442758390188 140.89007903039683 -2.9939430744187963
109.1986269299755 132.03196465425447 6.279505579652709
83.82093529963424 147.07893134047126 5.888283671165007
89.9497750398222 146.89521551063706 5.001524786506406
96.87657885626655 146.07692143026475 -0.7414932140007102
109.51460157975377 138.37711692127496 7.0197169020672066
98.4643136592929 147.99073601948348 1.5541041730916128
100.78633458295985 149.12163625831639 2.3598070778260265
109.39314473563167 148.35747645741588 0.9116129326638174
109.24688809887618 141.0724301269568 5.748740611462678
108.23625074519352 149.03937728376349 6.45773618270385
109.84643415768637 144.36697523717035 5.4346209404701735
109.31267941757088 143.07091075281167 8.07171686138937
99.91916856043991 121.05574415511641 11.174864389500836
103.29334565992221 121.89887294562507 10.132220756813956
97.88826194754643 120.51872360328066 10.64903343989213
95.50839313619969 122.16821539521322 11.831696544325379
94.77270659991986 123.42949362575442 10.312755303550677
91.23409424235886 125.26052125132792 10.162599090992964
105.69024048485058 124.14911244812647 8.67129378806711
89.50720379782331 125.52924822037214 8.216905369776383
93.08025839118746 124.57246631283382 9.595760328126588
80.20891636550111 127.16098518334945 8.371611189110507
107.2343593381732 126.49850913018612 10.52959499181684
75.46784574060715 127.14687614030153 3.9270936219494885
108.00917690316115 128.30712724225467 9.08958177356543
108.59654623387321 129.876590816101 11.265163790198194
109.79532097598401 132.59561594946834 8.332043614067828
109.89638090901464 134.14253020015755 10.382347275481576
88.38501342010466 146.48557225747294 10.857050916158366
109.58586163941878 136.08937565362808 10.368973617519625
109.35723720605458 137.91710708568974 9.5035289337337
94.81644604975189 147.42997434184727 7.007890339823655
98.95427863420338 148.23389429670135 7.4529743465383085
105.9002157027151 148.13015177202251 10.806416454297576
109.1205421561879 140.40100696762028 8.715384221497676
108.89814363946019 145.3556423074664 9.889400071031071
96.41635592992894 120.62275627131532 12.120016349232047
104.92985758901723 123.18334846224603 10.444889665422961
85.90517479118891 126.5087180248871 12.222474071511911
86.3460740870489 126.05693316667099 8.533587832096451
82.41621547723531 127.1898739090883 13.028498285799577
77.87356844844078 148.14134390502056 8.69734468064296
83.67144159775393 145.74367971649815 15.456487592209385
109.55698943151438 131.89926523161387 10.80672470310751
109.75457886091074 133.29166213540037 12.471934718368793
86.41257772740386 143.8278428298955 15.997617111405749
84.93049860217867 146.38054873859144 12.199073425161691
90.26462287843366 145.05443818859075 14.406817870664076
109.72335601964639 135.38026307734688 12.134965357618464
109.39451045827977 137.42751787923066 11.668749378540513
98.61894254545193 147.2780394011781 12.716510304178662
94.34062067248747 147.0057054186131 11.525326261605873
100.46316761047444 148.06379875729388 10.213971148719615
109.06073833063371 139.6296909723335 11.118529876760698
101.33206318312286 146.73353356388793 14.505921516056747
107.07807198612073 145.94913546450925 12.437613909145382
108.85529491297413 142.3894373692722 10.900925757517594
101.95970080175465 121.39718793198811 11.669157611565936
106.84847372616716 125.80395182159363 12.386185894049431
93.05607205326227 124.63531037055269 11.503112218113008
87.49473234144818 127.22260415784902 14.940707858009734
84.72813518653585 129.73532611566895 17.079943097377818
88.4635501015307 125.93155284275618 13.150258789334712
81.00366756517704 137.143320500472 18.612320050343516
85.37666005335025 141.06608165183349 17.918556686793643
109.17978247243671 131.282256440608 12.941544796689815
109.41523939416068 132.66397444307998 14.283080394607275
88.47801725573615 140.0544702667448 17.855410346725574
89.34077789162866 142.94015476974167 16.498100274454504
109.48666321964836 134.5717092867339 14.150581983492167
109.22717683196649 136.69978778070762 13.673462410820996
92.78328180841851 143.65561372979892 16.117644899236087
96.16807281309784 144.1102402701088 16.65040218783429
108.95624948242398 138.83306558071365 13.190297654434865
105.60576072524229 143.85272918435751 15.52698452244868
104.65189629805715 146.217655702352 14.318325624160614
107.81691931838179 143.12544577507745 13.758071367442215
108.67938044180046 140.86141644231787 12.75216619164594
100.48825638954162 121.45113874392995 13.216346976743711
98.36057588446147 120.99375182449724 12.729152559146845
102.41427794155425 121.81806600469864 13.519100991257297
103.86519014317139 122.29078810568546 12.22761597999087
105.34387319734815 124.03648251752284 12.509527280458457
93.36030638313062 125.08017650374268 13.650969358181237
89.8326602985942 127.52265128714264 16.088198323264674
107.28982743656431 127.24178955172292 14.135709566752519
107.77933442807732 127.8070265722984 11.831214921983783
87.89421307907816 129.34624278845686 16.731992226583426
89.68819215076698 126.37648965062735 14.488249670159583
108.18909746378498 129.35159831503785 13.532859521556846
87.17848242088183 134.07725993473463 18.154433735155685
84.12787703588042 135.52156926104354 18.409985967563067
88.58813972676563 136.76845103011493 18.363639894957497
108.60272525031085 131.04151414247218 15.16366392923575
90.89014942404823 138.42623570219408 18.78159835814973
108.64131736080017 135.8868143463972 15.605471248365282
91.56500714626097 141.01584287599832 17.764969122630824
94.53640285863058 141.43682757228987 17.683193103639063
97.39276136780302 141.4285969685202 18.21357699037757
108.26470650909877 137.98054332366223 15.032586149230575
102.25887464523012 141.9760084509645 18.18193903761629
104.61937721689131 142.19419208863903 17.314359297473942
102.7672943857504 144.51650181944223 16.521993112494595
106.86990306111277 141.6072875367089 16.23929978498381
108.00739333870627 140.2562140892684 14.587908842794649
95.16834209647327 124.10884732264978 14.732217178003172
106.03057815053238 125.11853482873931 14.623929362660578
91.7117747926304 127.5419407845331 16.86819672383616
90.65915143162914 129.24305465824392 17.36990879999996
89.47716501929588 131.7197713338773 18.04464037075738
107.44026226251412 129.00561255449773 15.811249348235915
90.0260946396854 134.45417379083062 18.411745122210693
92.14949087890027 134.92273367008207 18.919530357605
90.87549940912128 136.28870383266187 18.718068433778303
92.70996717940025 136.88776181582537 19.107752985534024
108.65164998742812 133.43891172786792 16.284115785607586
107.41754497802442 135.22722245650135 16.88889382675768
95.89195892617926 139.25731540901273 18.529840684471278
93.41882569684405 139.08481961801132 18.632806700306045
98.20451706920628 138.9508180215264 18.757888694776955
107.24671440246033 137.05663975949975 16.55370549877307
102.20903281503341 139.49774867053944 18.775514900256688
100.02205315946749 140.71754625834112 18.825304653963332
103.83148889988134 140.38464034436387 18.156623586481594
105.66386400397592 139.97382803263972 17.65765181979935
107.26644158399466 139.17445669569506 16.449991295523574
101.28950748855446 122.28918421790438 15.210394462980107
98.85884300599432 122.03452653090726 14.70805908974036
106.20020362133464 126.95660638078478 16.28794919149683
92.91499888721714 128.6263295542986 17.975945693944904
92.12267838393365 130.75065918430798 18.426741824321375
91.78811192292828 132.9263714745844 18.768801536688898
94.10865200426123 135.27507108347808 19.37183955557204
106.3972349616494 133.67807124064407 17.456785599177802
96.83871921670286 137.50224814671256 19.03208584557227
94.9168135993461 137.25540226546622 19.163295694241853
98.63670754927462 136.70188189681227 19.284816263632734
102.20529517945693 137.45445551318463 18.68678170792142
100.38300831891414 138.15923622163186 18.879724151229897
104.13647424922172 138.16001401240933 18.14557503087071
105.91872858565154 138.05655495854572 17.18412520285209
103.88304265046061 123.20947238232489 14.735977196145278
97.32610145740897 123.67428802559593 15.593759559697602
95.44333115525595 127.95453953406644 18.267082710141587
94.31149023674489 130.0975509803576 18.779978740759503
107.00729333144547 131.22052962631733 17.299146915892955
103.33720187946486 135.80414237976885 18.551043185098038
105.64573796207134 136.00676247457463 17.750417427649626
99.56625849915149 123.53807459559047 16.41496616018854
104.41338788047781 125.26736405268197 16.71177141606386
97.74982750337935 126.41702354186654 18.4404773682136
104.80072567847172 127.06959062147192 17.876726729278417
105.93439017710388 128.82558958537794 17.668124912418975
105.35201558870826 130.4673264754756 19.0902930756497
97.12527086257394 132.9775009360013 19.90612774767194
105.65954558455209 132.32656488274742 18.65866410104814
98.86055901911344 134.51034947993992 20.106925130193524
96.51925577203757 135.3727746807988 19.414978645214585
100.79966830269537 133.68616541375403 20.590121860861167
100.97940607379074 135.71342426773566 19.36098152167201
101.95635566135424 124.28290204329892 16.662165508828174
99.98302317951264 125.13600848141591 18.192491583352574
98.10031175664935 124.85312260820014 17.07547425839731
102.64596845007102 133.8275471651645 19.642615704770538
104.7565586994758 134.03169433339693 18.876741572498588
102.44146786735776 126.66340827038744 18.257939272745695
67.83550903295858 129.77550759748837 -2.0982473358596563
68.17483270341944 132.70432290393768 -2.9796148972703866
66.59593764152766 134.97106412221763 16.755691648922674
79.59384028625146 146.1193719526894 -2.9472526550579436
64.57675728770306 133.2852831093376 -2.2480953673894764
71.95030918646927 132.01429298377158 -3.078109526999642
63.03972114687429 130.75819531650197 2.0366494091831435
60.421959301125 137.41246502326695 3.0403853438057578
73.87356053571723 127.16835811529452 10.487341747388442
60.325496982964324 136.53728735141738 11.435641726747498
66.81015946725587 128.39147092148758 1.797323571276135
62.42252641423114 142.06875670930813 6.954020928804044
62.38922189572562 134.06164406558332 -0.9874799013092583
74.14131380587668 137.39044178938525 18.954538270775405
78.32895599078142 141.61443652302793 -2.9860427077426985
69.29090523805762 127.3021625055109 11.776166392673716
65.0870599878687 133.39944477684875 15.277216103789838
84.39245567796422 146.1268640664483 -1.293981850640885
77.24548959973363 128.73444709475515 -1.243378866184692
70.48537364955268 141.90084409417375 -2.9463453487296523
67.17801184144953 143.2801440412831 14.508777226382511
61.163329880556994 132.71731027740285 4.308482311053666
60.00001772607991 136.1549552460174 7.23308900920131
63.02308468025977 142.70585702358466 8.679659984002628
62.71681666719057 130.74222628879605 7.402019098971014
78.87217881027871 142.15118126139222 18.043632251043814
69.53353889979113 135.1540267286466 17.689375369589204
63.105788640121155 132.22678286421964 13.094833216923444
62.54667420587276 138.757273637651 -1.2198391854997124
61.9900855171537 141.21233014317568 5.095969337941339
64.58348476609864 129.45434887195003 10.800191614555693
66.30457920109029 136.60579755145636 -2.9501000645114104
61.07465370448969 140.42512104770628 8.122090658075635
63.80875938757259 142.3211544229972 2.3538828249180153
64.7200560485579 141.75932363619376 -1.2560232058665548
66.08963890034552 144.13884618463698 3.679035788594234
60.97120526109009 138.46967911992914 12.308663049905517
97.53751499906961 130.78267257797046 19.96766698433565
67.1162732597469 127.57835613085918 6.738721511854405
70.11431144350688 127.30316847635379 3.681619543225143
64.79299405719199 129.2783225582565 2.2543234849906266
71.86216853027075 143.57823105245103 15.814815709649972
103.61109449792126 130.2146967853431 20.11394450963938
63.645588682582385 141.89678619314017 13.390334075577877
63.91971837983781 136.52956003513148 15.638164484590389
63.97477560631214 131.2590409215077 -0.20754522977457804
76.07087849954041 148.15552299746102 7.2746199156065146
71.7340485886088 126.84472455077442 7.207356459365812
74.49351743520644 127.03300702280404 5.835161127962691
77.11796481808965 132.7336823428982 -2.944765099989424
69.90874077823186 134.02549915638346 -2.9892254995032252
65.49721708440512 144.2463075337973 9.162977875673375
72.57821304237254 146.48512549761853 4.037617598810118
71.49674856712554 145.7651893461229 2.497422036639131
99.26215276365053 132.199762116755 20.449244386622382
68.38616977735198 140.17699797288603 -3.2620087044376342
60.16565345934786 137.80154086381927 9.628522611375345
61.50738287764624 139.51751845239352 2.160132448268318
71.74681055994492 146.2893266178458 8.456734889095204
77.94355901498847 127.219684834894 7.325396909504354
62.05581928583506 131.6536757487392 9.878794414584652
65.72658088221505 138.86126829934466 -2.9051920104902322
73.87164808052684 146.79092943499217 12.17530031680542
69.3292101427158 129.03552109876438 -1.1688116868704277
63.034523730588255 139.74909716696246 14.255171822091283
65.11339517532629 143.60890467205277 12.329917556328182
76.1169313046485 147.12994720327063 0.2721657882006036
64.3098937922708 143.16781811610718 6.0256330527276525
60.986704037206664 132.91938454240287 6.795963820990312
79.02591689886664 128.3250579983007 -0.7252864935585599
82.21085917290607 145.9437581549062 -2.6777632519846697
72.99042334652859 145.83343549313437 -0.0015074559966256349
75.95307330784874 148.07538481179913 3.190360426645113
68.75576501841901 144.95766922457483 3.0813866260444587
79.19434907785283 129.59721316113982 16.661655144198576
83.22084434242659 131.33254279979377 17.749125190768112
67.01241369053783 127.89470213839988 4.181452652224698
86.51099013692024 136.08716969804857 18.511490679355035
80.93472443125256 137.8040014705776 -2.9508213917357233
94.51818754069969 144.87823548172477 15.18621380534021
104.12282979748474 132.13325947965663 19.850747562069635
77.35314633798905 134.62198111306037 19.795962099816222
86.7977697813442 131.46749068618365 17.619705998796785
72.49429184083709 136.51889429422155 18.318684377050968
81.6746835027868 134.92259403970314 18.653292725489415
72.95401487382438 131.04835184004958 16.93877442543922
96.42538552366655 147.1748582247315 12.038679199407348
71.35630621571407 136.46707212135522 -2.935789689277225
67.54412400295165 127.63920305111516 9.25116456928441
68.58863416316898 130.65260624776332 15.243862294548391
66.85745602227311 134.43488839401942 -2.9948770570605383
70.35931492778812 144.9264406590009 13.433751229138032
71.3765719452028 129.05899305830886 14.761302790001745
63.381228135111144 130.00327851042462 8.796623436514757
77.69877844216587 145.50215575978777 -1.9722927089678957
81.33910538000913 146.0972642919971 15.267130671857316
80.32128174377797 132.09821939861837 18.16997166715738
76.18464260945063 127.05955554204657 6.532307215894279
79.68499583609132 147.629384119085 12.8499708455301
60.52922576797492 134.68967668990118 10.034412229690648
100.86121533717068 147.70600078651424 12.48438048630013
71.08058560907493 126.71209741419878 9.454697857577928
62.061575029052186 136.27723202952143 -1.3794314910305314
66.41947387127189 130.6172919113507 14.044460411939795
100.60300531371537 145.37213241935572 16.216512620783774
68.51384727406578 137.09283550277655 -2.964272789393062
77.33660180164586 144.22800658245927 16.876658652149214
75.75766813638522 138.3516212596169 19.39935037062139
99.92563435262413 127.3003410732877 19.674053352585847
62.387096004296666 141.46443479585704 11.355658402265233
101.97877862271602 128.88700642704416 19.91539435724048
74.25022859205325 143.61997666399827 -3.1456650095668595
77.4195341932487 127.41599157399585 2.905189444589638
61.851292376966846 132.85677450609194 2.0121448021248534
61.53131921585135 135.3377077586602 13.148827033183045
72.53163576847199 126.96798094546055 5.169219314261975
107.40722719643782 148.26215325428083 -2.9568299534189975
106.12921358484016 150.12924813698325 5.616233507306534
71.57968091431351 141.58295271686313 16.7023985423993
79.60550467571426 143.5511245097115 -2.7953486695078134
62.84986501515173 130.73956724567992 4.523003969040381
72.01369032126242 127.59883155853944 12.91454870815284
82.69036839481085 147.1474551574519 11.372483777111631
102.93583424669865 150.18663721713637 -1.7061164178547716
80.29588764216601 131.52542978685216 -3.1164076468677906
82.80611655387729 140.4628392761076 -3.0676268660391863
74.7101424982745 147.70533609024923 9.287214601355702
68.08013805487928 142.4915794713801 -1.7160319286448333
76.68591463840691 133.16117110090147 18.959878310410982
66.83134040776818 129.45575383499346 -0.16032829390314307
75.50426041891117 146.24660784791715 14.913712455614611
73.10340293645542 134.49738706861885 -3.2273950765899464
69.53495852088245 126.97278831744819 6.50710294209281
76.88959492243777 139.7134986398826 -3.253256451651896
76.2448684540699 134.967648921076 -3.243674854588529
73.61342097851654 141.3461280961908 -3.0494993809454636
70.89102555474535 145.85623807571616 5.361559805499612
107.76518364333407 149.79859054522748 3.578497402417292
72.60300381385213 127.69316941895534 1.4643464026678705
73.54321282264812 129.25890449453368 15.527333621657998
74.87852934250644 145.31803594277648 -2.1494388086180205
73.799819046007 146.94367069873942 2.582251019482751
74.96361316436105 135.28935085279522 19.820156509960782
77.9799896889193 136.55201795956216 19.833803446018365
107.94354039859714 149.15705956097003 -1.4410375671770368
101.60168892412753 145.8316788986645 -3.049175646474674
104.10581561274778 128.58361723008056 18.991950733862964
110.047083441782 146.1553362409152 -0.044248102237946355
97.66418460729358 128.58169361979657 19.545974709409787
77.80031696082511 148.11249394758303 5.460435255457701
75.54944397111674 129.26885256808865 -1.533083187896157
102.46884118304226 150.01787840127224 3.6361045886090393
69.40496311349116 130.93700696465413 -2.9973135400369286
105.88846702590364 144.3855918498339 -3.157955594672651
69.92087328366357 143.52301503631398 14.911115223125124
74.93657053903753 131.78749295380254 -2.941590509151505
83.59381033547089 130.80865774624618 -2.726227187320217
80.55129440805842 147.80053411125337 10.71175582060969
73.34057837696372 139.40121671027742 18.308970397906293
109.5703912758491 146.69299733257574 7.275858964148333
72.60478984285636 133.26100417962562 17.803491817948217
99.21732034815915 148.8193573674218 3.4358239604484107
80.81945349643438 144.17319246298177 16.63298170770651
106.40055997973514 144.8813211690765 14.14879945580846
108.44795696060392 144.28498600723697 11.88013022010607
81.0973763119214 127.1073460591867 5.886270766988428
75.84087443299907 141.51602984940104 18.582672851007903
81.44605711851081 135.75057637982354 -2.948845739147339
109.27187524005805 146.88213830397964 -2.2856907619652054
109.76020597935369 147.52380879265684 4.343331613611848
100.83198118378844 148.73038453365092 -0.5325267449925303
68.04643258906462 132.48260794351677 16.342796737143303
105.95840334570248 149.54669724161278 8.099624459477736
108.82100241190302 141.784363258781 -2.938741963377281
71.13615286772541 145.7550142135117 11.56792435708564
82.55706027495951 142.52756017061589 -2.9515311432986437
80.81761413454784 147.90710232784568 7.302441502678683
71.08689270185292 139.0943326422955 -2.990319247539547
64.7397398066817 128.7552232491345 7.0312277611035015
69.00919669702891 127.9720625592109 1.2717342046167677
78.5569534737619 147.94753229165315 2.2406640151240564
107.71082635249749 147.03728824789118 10.744640579797224
100.58608038821266 148.84673399039517 5.061443110585177
96.97915230079931 148.0718154949455 7.26309167842257
105.34587030503994 147.4066035634596 12.687671971162205
77.28784647122222 147.6239028439837 12.014032149753833
76.47269956325664 143.02734987171695 -3.1465942826049824
78.1195134573812 130.61878021392465 -2.4128434169477337
79.95269635446925 128.2734727091094 15.10736122275434
72.79969729588807 146.78447012517398 10.393678877219097
73.98541608562815 143.44751089761274 16.46359609958458
78.78001925702327 137.0577742673329 -3.2554395487907035
101.34018278690245 148.90355837276616 7.65830544815282
101.74852076254818 131.53047243974137 20.25080022374691
69.91520343802273 144.62240615660087 -0.111705581575735
65.15357446675576 141.7638198818065 14.814625613768312
104.88731758907338 150.34616433554322 3.448368636709462
82.28117645427379 132.63730174976658 -3.056065004703484
77.10668779446715 129.03694979954324 15.915396120969927
74.13217800544167 137.62006142915806 -3.2433787192541406
102.77434973369664 147.6202630896581 -2.914706001853268
76.33934944275079 127.80351419203399 0.7047547347014032
108.12425772069156 148.04395738545756 9.137249168434204
110.07524641157629 145.37917511365126 2.1089260882067062
73.79754922395416 126.99272238633702 7.717513521263363
70.79439826704139 130.88257689411398 16.076832374779933
106.34410119642497 150.25212795745077 0.5798556539157171
79.41164348217548 134.13270309294765 18.593099423081913
78.53082127399793 139.4389259902527 18.78813500856501
86.43538898313291 127.84995770218279 -0.49266274124929393
95.15344975235531 147.46677012253645 4.607735829077578
64.14763745175617 136.02349635557565 -2.5792194548411227
79.66647224871421 147.51268723451102 -0.694238324294171
83.11850279419288 138.25324065749055 -2.9962711884485054
86.26134166216072 128.57139094883627 15.877663043804256
84.70287558990198 132.4900092736382 17.98469699963846
83.6786417138023 138.53785967788608 18.37920797967929
87.0232149155199 134.48427661347833 -2.943970450129538
75.08729942731223 131.14944614183185 17.794329139437693
86.12980953800742 138.01229332058625 18.30736952487291
104.55792787756099 150.76597168181584 -0.7548939791383155
72.3651134645005 129.03738077317556 -2.066432369822253
98.16037682044488 144.8165476315139 -3.0172711658015823
61.173838487158555 133.15184858394295 11.804762714111382
94.62152910274915 147.27794083035127 9.377134448350017
96.78962594706385 136.8539020304136 -3.0811528696442276
85.07687333684694 146.7039535145109 7.688382317498013
91.1020842931101 146.77880653510573 3.157656626385378
96.45744489910348 141.47185781541887 -3.0033577153917204
93.71863293853872 143.34859841309665 -2.9659582486411815
86.33019517712614 145.6103814333184 0.06672619621537078
90.57946022133912 145.12342067880462 -0.5381294044245013
87.55142631124737 126.68940437420015 1.250880690624829
87.80265722479896 146.5403383916544 8.673688092015771
83.61752753977143 143.21025248374633 16.973074516224997
87.97700516319424 146.44983411259804 4.2175642941681355
86.89413263268709 142.55423983184988 -3.068406208635035
86.09346294166052 146.44922742765047 9.179319481774952
91.49173709978436 140.77242152697912 -3.218704277801143
88.41238178719482 144.23465079165254 15.095448738359284
91.95530267845305 147.2369635762272 6.742147059827133
74.15186685042758 147.3107576726931 5.7048587949765945
109.7642415161995 144.86235397437343 7.742646013662155
81.73145568147444 140.91941560892386 18.26871464648205
97.41019799691126 148.13712693899436 4.829436709173628
61.71555823193027 137.5892995774789 14.450302634126365
89.34980198490686 146.19926038248727 12.869778863482026
89.09772653181597 146.177670331733 2.045494941690541
69.72236840402826 145.64784129679919 7.398443574059386
93.17462347993384 145.54863831488797 13.875115802603473
79.18767360219768 133.61036051895817 -2.968977125836074
82.64702294463908 128.32216892075252 15.736740016399324
81.56649510304848 128.0462107580215 0.39474730430692667
81.79092948273498 147.12071143065202 13.359465248282126
85.02644490642064 129.0846303933874 -2.0025896703555426
101.43575147358953 142.17686225306159 -3.1115669244004986
89.70103601716184 146.840532964043 8.155643542473964
91.48015497030418 143.07503242650174 -2.7558738793685045
91.18907552571775 146.39295218597465 11.866466551862844
72.23301316908491 145.23711046945056 14.421900626840754
99.68428102519992 129.85927418445112 20.05215563255849
85.71940753822204 145.50745259341542 14.435143426251482
103.4259247065556 150.0809170045545 6.21668901629686
92.95678303076743 147.24566502131432 4.288815408605188
87.0265556663492 146.4667347171402 6.509894139680994
83.05025001916394 147.1484112940275 0.8704487490851291
75.76402414955506 127.72530544442738 12.95884959150711
74.76294568372168 133.0984146973223 18.83089450844007
109.63556773503105 133.9763210628733 6.07015744374907
82.12647273753328 132.91402328817847 18.36991219773404
72.00532782642094 144.47463080686956 -2.8568006670308703
83.28612723323992 126.8817561747844 9.935462307339131
81.31699666861317 130.25319333249394 17.36551615034546
73.58538741395851 141.6117219044388 17.751635181613498
109.71547218732567 135.09519522161781 1.9397193163456214
79.10844663728838 146.28535405006537 14.659798178197814
78.68589600490553 127.25264215185399 5.052096812623393
67.58589750401708 145.07422311086606 6.2950665211564445
109.47487289788518 136.96803118964615 2.83864322539502
92.44563772153529 146.4765474822958 1.3760880813443352
98.82713952862142 147.6349677782896 -0.6929697261667872
109.77046981013311 143.77464081231193 -0.6787992483703935
84.90820271257131 127.90543391381806 14.827140869895834
67.89188030322873 141.20276813547142 16.670409218539188
83.43340820659076 147.09890180223704 9.193752432160938
84.43774332321762 127.47568994198734 0.7420774419964304
64.67744728868473 128.922876940815 4.467876797672499
91.53496864884283 138.3520167652187 -2.995436208453437
90.91727941049409 133.63565445257512 -3.1226066560017687
95.27842243346346 125.98399360950489 -1.4210942771683666
88.29090254077347 144.06207992226624 -2.033182148195712
80.3694369110255 140.1300230300568 -3.2350803007940234
91.01200991945308 127.32299582900984 -1.4258121079106192
103.73562535630958 140.8219251653304 -3.126067718733304
101.42980037053817 137.04937545919435 -3.019380897714129
90.418494254193 146.79222295742412 10.047911832213792
105.83375848957562 136.9711013808622 -3.1724887128514623
89.59460914720695 135.59872462034082 -2.8591114600958063
86.75797197447413 137.59083544299003 -3.047878806059707
106.18509206494276 124.9072280139873 10.55995680418351
68.44685101016769 144.50359208644088 12.481112916912158
80.64621419562604 147.87660300664152 1.5247920881823924
97.7246328119184 124.57416348253962 0.8154791756166847
92.43111346989201 147.03047543259777 9.249519502749495
108.61250817713952 135.63462439207683 -0.9492098257161456
87.64057209792075 145.40320983865112 13.70813589488617
60.17993044823142 138.26462162232863 7.556304475322746
99.69796421710045 143.52199265147595 17.334108159494892
105.53933075652198 149.50492601889417 -2.4326023380661743
106.67326495022803 127.64411454897048 1.545281853665784
91.84715626371413 126.25577725517955 15.201739969639382
81.25267743131575 126.98970666930944 10.836677779621215
90.90095740615281 125.5425348541 12.729181475097922
88.6897123089299 125.5892925945323 10.852493320728527
67.07221513207706 128.18152648746323 12.321749207679364
94.75139620287159 137.48525857417 -3.0953278800620185
95.17668001583581 131.90535387669848 -3.0751881839784163
66.57800695424602 141.10558266944554 -2.806029743663442
109.23387498733732 136.29618837168962 0.6791199599452176
83.56051566171568 147.49039887977452 3.457633058660902
76.70733752506348 127.15507613013921 9.344674566979887
70.30569106457945 138.60827067358332 17.56844664432911
63.86597152006557 143.19252550913347 10.418174380954035
95.99141555813006 145.96280874575896 13.912752057265985
85.82547406872422 146.5949716087379 3.2967016516400314
97.22899756489426 139.19151896236613 -2.9763572819203614
78.44702168682774 131.2697035195099 17.774270163500837
95.87343790241393 143.63181431734304 -2.996578391444677
94.09180260007574 133.33424860003234 -3.215932139913612
66.86210570566452 144.67432234038216 10.915044924436227
94.66269458568743 127.82469848427408 -2.4555478380317792
79.1798704020869 127.44943104548292 11.965906146299528
66.59209888439806 131.45588948290523 -2.387592347647094
96.86095876128712 147.8335668339792 9.740324534014723
60.58058987599096 138.3780591829114 5.310209507074245
96.52388378365025 122.29943506653699 13.612478895091392
95.8816360548159 125.57528140584992 16.677848972836628
102.13182811784256 135.1503695004361 -3.0100073737900406
94.84271576294626 123.72416582224557 12.575075829382929
106.0634442064607 146.48485892392586 -3.1121458314268327
85.1747398110969 144.09651045894728 -2.4051360291377226
74.22149858641477 128.26317046002862 -0.45054506040071035
105.16786804820941 134.8737571206332 -3.012971449651017
93.352698174325 133.72449027352937 19.19803481807783
107.77858654361195 133.6587972727515 -1.797155593353416
96.07440750097643 129.74349476847513 19.3308080409193
93.7074227959259 132.07116406958548 19.050939603309644
94.14054452045764 129.93690583328925 -3.134113321688999
95.40747498012509 147.13267215017717 2.3088876175540296
66.70401616622374 143.79556068237957 0.8408374617139772
94.00122987230016 125.61403474263922 15.37952668715888
109.36592579245203 140.34528385254194 3.8532849651098853
106.98626143075056 131.00616612037376 -1.1694586868415238
103.34293340222841 149.07436639440414 9.303922554116774
62.819429045813095 140.8468755984859 0.36965716486023464
101.35593339500724 131.12779660405536 -2.9851581304958903
97.68133992485795 132.13461179573136 -2.9744264645917102
87.73367046192882 126.12625661939096 3.5134267274372437
100.76165977735754 139.30440791503784 -2.96744126221959
70.01865034330828 143.50005670380006 -2.0510777043686987
90.49621372152554 130.18022846100578 -2.990669583420195
70.20296214307753 132.8724918496341 17.141043463320365
76.51009144699643 137.34066015810953 -2.93206115802016
100.94540068548065 128.30490554116548 -2.8828225356821426
98.26390245283424 128.3835707884267 -2.819026060151295
77.98397613539291 127.88011082463223 14.07622274368167
100.49632080061026 144.36603239642903 -3.097058398822541
98.27003023951578 133.94839319531215 -2.961792216683227
94.56549713079625 146.35108297886345 0.31770081414179563
60.904521511748996 139.66600695636856 10.405775599412033
98.72777723575898 145.53538825587293 15.251250972314566
83.15927728344874 128.5284319390737 -0.7745782668536026
87.07053681055261 130.270219457176 -2.905642538071621
93.62802486886108 126.89974356897653 16.75368805084163
103.65638001664288 125.28261691724984 1.2592420149923684
106.1253429550671 142.45780834009358 -3.188492598988776
95.08190200366967 133.483914409108 19.37344517450294
67.07277278367461 137.69825419857355 17.278829445404952
61.19133835928644 136.27622686135652 0.9651299248683392
68.72004607559762 145.15856266209326 9.468993640967376
95.62047149034629 131.51267001548868 19.48399020232002
109.24354967992912 138.10375187126007 0.9562074430323954
60.42140167920653 135.1651310318139 4.159185491371525
106.16022527555657 128.6952078266742 -0.6479887741792509
98.98917631153274 123.36868168239384 2.992501655229678
65.1825527737553 139.50630590296723 16.11795961414589
63.27744974992055 134.30586852643205 14.446530074702771
99.63113414698833 146.9469216691845 -2.7160315442530676
109.51478061285488 138.77345725303084 4.55555691219285
98.8671529557957 122.23288760448307 5.615510311239069
87.44746668810531 142.2180036941909 17.523360914270853
107.41407800978692 136.29274631170043 -2.5096055870223726
70.8053864886595 128.17731759650871 -0.22952429165243743
85.84691262466352 126.36419571302207 6.190624197873565
69.2792587607995 128.94500829839458 14.103576723107459
88.57819761212579 145.33258550431032 -0.15795944897082925
85.47217570103109 132.03191424982566 -3.130513743311274
89.18007065469016 138.05985076490828 -3.097340968214807
103.13592570285688 148.135072194083 12.287163431187771
POLYGONS 1326 5304
3 2 7 4
3 655 650 3
3 10 3 650
3 6 3 10
3 3 6 2
3 7 2 6
3 7 91 4
3 8 5 68
3 9 5 8
3 7 25 91
3 12 9 8
3 13 9 12
3 14 9 13
3 14 13 18
3 71 13 12
3 17 18 13
3 17 13 71
3 18 17 28
3 25 23 24
3 25 24 35
3 35 91 25
3 91 35 26
3 27 28 17
3 35 24 34
3 34 43 44
3 44 43 53
3 43 58 53
3 65 62 61
3 66 88 0
3 68 116 69
3 68 69 8
3 12 70 71
3 71 72 17
3 91 26 73
3 35 34 76
3 26 35 76
3 76 34 44
3 76 44 77
3 100 53 534
3 77 44 100
3 44 53 100
3 63 544 82
3 85 65 84
3 89 2 67
3 89 67 113
3 68 86 116
3 70 90 92
3 70 92 71
3 73 26 124
3 124 76 77
3 124 77 96
3 96 77 126
3 77 100 126
3 126 534 81
3 81 82 104
3 111 108 110
3 110 108 84
3 112 87 157
3 86 115 116
3 90 117 119
3 90 119 92
3 565 73 122
3 73 124 122
3 124 96 125
3 126 81 127
3 81 104 130
3 129 81 130
3 127 81 129
3 134 108 111
3 134 130 104
3 112 179 114
3 115 604 116
3 117 579 119
3 186 124 125
3 143 126 127
3 143 127 144
3 129 130 149
3 148 129 149
3 144 127 148
3 127 129 148
3 134 111 156
3 153 134 156
3 153 149 130
3 130 134 153
3 178 179 112
3 186 125 189
3 189 125 165
3 165 143 144
3 165 144 166
3 148 149 170
3 169 148 170
3 166 144 169
3 144 148 169
3 196 168 167
3 153 156 177
3 173 153 177
3 173 170 149
3 149 153 173
3 150 636 154
3 154 202 175
3 137 182 181
3 137 565 182
3 187 160 184
3 189 165 193
3 193 165 166
3 193 166 215
3 169 170 195
3 215 169 195
3 166 169 215
3 167 194 196
3 196 197 171
3 173 177 204
3 199 173 204
3 199 195 170
3 170 173 199
3 172 198 573
3 172 573 636
3 178 227 179
3 206 158 185
3 206 185 228
3 208 184 207
3 184 208 187
3 210 189 193
3 211 212 213
3 211 213 192
3 245 193 215
3 215 195 216
3 194 214 218
3 194 218 196
3 199 204 225
3 220 199 225
3 220 216 195
3 195 199 220
3 198 219 222
3 198 222 573
3 226 227 178
3 208 230 209
3 207 229 208
3 252 210 245
3 209 230 231
3 209 231 211
3 210 193 245
3 212 609 232
3 212 232 214
3 215 216 233
3 255 245 233
3 245 215 233
3 214 232 235
3 214 235 218
3 220 225 240
3 247 220 240
3 247 233 216
3 216 220 247
3 219 236 238
3 219 238 222
3 248 242 227
3 243 602 250
3 229 244 230
3 232 257 235
3 233 247 264
3 236 259 238
3 248 226 260
3 260 241 249
3 248 262 242
3 602 262 250
3 251 228 252
3 243 611 244
3 250 414 243
3 252 245 253
3 264 255 233
3 248 260 261
3 412 265 251
3 251 252 412
3 252 253 412
3 254 256 257
3 264 346 255
3 261 260 265
3 414 526 303
3 308 412 253
3 303 526 320
3 308 253 346
3 254 320 256
3 263 459 346
3 263 346 264
3 374 265 376
3 374 526 414
3 320 526 459
3 308 346 459
3 3 1 655
3 3 2 1
3 52 57 58
3 58 43 52
3 1 66 655
3 1 88 66
3 2 4 67
3 4 118 67
3 118 4 91
3 69 70 12
3 12 8 69
3 27 17 72
3 87 112 88
3 114 0 88
3 112 114 88
3 68 0 86
3 90 69 120
3 90 70 69
3 92 95 72
3 72 71 92
3 124 26 76
3 93 94 74
3 126 100 534
3 137 67 118
3 116 159 120
3 117 120 159
3 117 90 120
3 119 139 95
3 95 92 119
3 135 156 111
3 114 179 136
3 86 136 115
3 115 136 601
3 159 116 604
3 578 117 159
3 139 119 579
3 186 122 124
3 143 96 126
3 143 125 96
3 157 178 112
3 157 113 181
3 181 113 137
3 601 604 115
3 162 579 578
3 160 162 188
3 160 138 162
3 186 158 122
3 143 165 125
3 168 196 171
3 171 147 168
3 174 175 202
3 177 156 176
3 181 180 157
3 206 182 158
3 186 189 185
3 185 158 186
3 184 160 188
3 192 194 167
3 197 198 172
3 172 171 197
3 201 203 174
3 203 176 174
3 177 176 204
3 204 176 203
3 178 180 226
3 181 241 180
3 241 181 182
3 185 189 210
3 210 228 185
3 209 187 208
3 207 184 576
3 209 211 190
3 211 192 190
3 213 212 214
3 194 192 213
3 213 214 194
3 217 197 218
3 218 197 196
3 217 219 198
3 198 197 217
3 221 200 222
3 222 200 573
3 221 223 200
3 223 201 200
3 223 224 201
3 224 203 201
3 204 203 225
3 225 203 224
3 206 241 182
3 228 210 252
3 230 208 229
3 231 212 211
3 234 217 235
3 235 217 218
3 234 236 219
3 219 217 234
3 237 221 238
3 238 221 222
3 237 239 221
3 239 223 221
3 239 224 223
3 225 224 240
3 240 224 239
3 243 244 229
3 642 609 612
3 236 234 257
3 257 234 235
3 246 237 259
3 259 237 238
3 246 239 237
3 246 247 239
3 240 239 247
3 227 226 248
3 241 206 249
3 602 242 262
3 611 243 414
3 257 642 254
3 256 236 257
3 256 258 259
3 259 236 256
3 263 246 259
3 263 264 246
3 264 247 246
3 261 262 248
3 249 206 228
3 228 251 249
3 374 250 261
3 261 250 262
3 374 414 250
3 414 303 611
3 253 255 346
3 258 256 320
3 258 263 259
3 303 320 254
3 320 459 258
3 263 258 459
3 374 261 265
3 376 526 374
3 412 376 265
3 376 412 308
3 5 0 68
3 10 11 6
3 11 7 6
3 25 7 11
3 15 650 568
3 16 10 15
3 15 10 650
3 640 10 16
3 23 11 640
3 640 11 10
3 23 25 11
3 20 568 19
3 21 15 20
3 20 15 568
3 22 16 21
3 21 16 15
3 22 640 16
3 30 20 29
3 29 20 19
3 31 21 30
3 30 21 20
3 32 22 31
3 31 22 21
3 32 33 22
3 33 640 22
3 33 23 640
3 34 24 575
3 575 24 23
3 39 630 38
3 38 630 29
3 39 30 630
3 630 30 29
3 40 629 39
3 39 629 30
3 40 31 629
3 629 31 30
3 41 32 40
3 40 32 31
3 42 575 649
3 43 34 42
3 42 34 575
3 49 39 622
3 622 39 38
3 50 621 49
3 49 621 39
3 50 40 621
3 621 40 39
3 51 41 50
3 50 41 40
3 51 618 41
3 52 43 42
3 608 51 50
3 608 610 51
3 610 618 51
3 86 0 114
3 88 1 87
3 87 1 89
3 114 136 86
3 67 137 113
3 565 118 73
3 73 118 91
3 565 137 118
3 180 178 157
3 180 241 226
3 182 565 158
3 136 179 601
3 260 226 241
3 265 260 249
3 249 251 265
3 376 459 526
3 308 459 376
3 89 113 87
3 87 113 157
3 116 120 69
3 9 655 5
3 9 650 655
3 14 650 9
3 14 568 650
3 646 642 612
3 232 642 257
3 232 609 642
3 642 646 254
3 254 646 303
3 5 66 0
3 5 655 66
3 179 227 601
3 245 255 253
3 242 601 227
3 244 612 230
3 612 231 230
3 303 646 611
3 611 646 244
3 231 609 212
3 231 612 609
3 604 601 205
3 242 205 601
3 205 242 602
3 646 612 244
3 183 205 616
3 183 604 205
3 229 207 639
3 205 602 616
3 150 589 636
3 636 589 172
3 602 243 639
3 639 243 229
3 616 602 639
3 162 138 579
3 579 138 139
3 604 183 159
3 159 183 578
3 188 578 576
3 576 578 183
3 639 207 576
3 200 202 573
3 117 578 579
3 162 578 188
3 200 201 202
3 201 174 202
3 52 42 618
3 42 649 618
3 62 657 61
3 657 610 608
3 41 649 32
3 649 33 32
3 48 633 622
3 622 633 49
3 48 55 633
3 633 55 49
3 56 559 61
3 618 649 41
3 49 603 50
3 56 608 603
3 603 608 50
3 55 603 49
3 57 52 610
3 52 618 610
3 80 103 593
3 48 622 582
3 582 622 38
3 183 616 576
3 576 616 639
3 103 614 105
3 188 576 184
3 36 626 37
3 37 626 46
3 36 45 626
3 626 45 46
3 48 594 47
3 47 594 46
3 48 582 594
3 594 582 46
3 47 581 48
3 54 591 581
3 624 55 591
3 591 59 624
3 610 570 57
3 610 657 570
3 570 657 62
3 37 596 28
3 596 38 29
3 46 613 37
3 46 582 613
3 613 582 38
3 122 158 565
3 61 562 56
3 56 562 608
3 61 657 562
3 562 657 608
3 72 498 27
3 498 36 27
3 56 560 624
3 624 560 55
3 56 603 560
3 560 603 55
3 56 624 559
3 27 558 28
3 28 558 37
3 27 36 558
3 558 36 37
3 28 555 18
3 18 555 19
3 555 29 19
3 596 37 613
3 613 38 596
3 45 554 46
3 46 554 47
3 45 563 554
3 554 563 47
3 47 563 553
3 581 47 553
3 553 54 581
3 33 575 23
3 33 649 575
3 128 146 571
3 79 564 99
3 18 568 14
3 18 19 568
3 74 94 551
3 2 89 1
3 596 29 555
3 555 28 596
3 82 654 104
3 544 647 85
3 62 65 647
3 647 65 85
3 108 617 84
3 84 617 85
3 108 654 617
3 617 654 85
3 62 647 584
3 584 647 544
3 160 548 138
3 548 140 138
3 84 65 547
3 85 654 544
3 544 654 82
3 542 97 94
3 570 62 584
3 584 57 570
3 57 540 58
3 57 584 540
3 540 584 544
3 58 540 63
3 63 540 544
3 140 537 138
3 537 139 138
3 134 104 108
3 104 654 108
3 63 82 534
3 534 82 81
3 139 537 93
3 93 537 121
3 145 527 142
3 142 527 146
3 145 571 527
3 527 571 146
3 151 569 524
3 590 101 530
3 79 556 523
3 102 530 522
3 146 519 142
3 161 517 548
3 548 517 140
3 161 538 517
3 529 614 545
3 151 515 589
3 151 524 515
3 515 524 147
3 147 512 571
3 571 512 128
3 147 524 512
3 512 524 128
3 105 614 510
3 132 599 152
3 152 599 150
3 80 634 103
3 103 634 614
3 80 545 634
3 634 545 614
3 97 518 94
3 518 551 94
3 102 506 529
3 102 522 506
3 506 522 569
3 147 505 168
3 168 505 145
3 147 571 505
3 505 571 145
3 79 504 553
3 553 504 54
3 79 523 504
3 504 523 54
3 128 503 146
3 503 550 146
3 99 502 79
3 79 502 556
3 99 606 502
3 502 606 556
3 102 501 530
3 530 501 590
3 102 513 501
3 501 513 590
3 142 500 145
3 145 500 164
3 500 509 164
3 58 63 53
3 63 534 53
3 530 499 522
3 522 499 128
3 530 503 499
3 499 503 128
3 563 663 553
3 553 663 79
3 563 564 663
3 663 564 79
3 74 551 498
3 80 497 545
3 80 523 497
3 497 523 556
3 513 496 590
3 556 606 496
3 513 545 497
3 569 561 524
3 524 561 128
3 569 522 561
3 561 522 128
3 54 495 593
3 593 495 80
3 54 523 495
3 495 523 80
3 59 494 593
3 593 494 54
3 59 591 494
3 494 591 54
3 545 493 529
3 529 493 102
3 545 513 493
3 493 513 102
3 550 492 101
3 101 492 530
3 550 503 492
3 492 503 530
3 48 491 55
3 55 491 591
3 48 581 491
3 491 581 591
3 131 490 599
3 599 490 151
3 131 569 490
3 490 569 151
3 59 521 624
3 60 559 521
3 521 559 624
3 653 488 103
3 59 593 488
3 488 593 103
3 192 167 485
3 485 167 164
3 78 483 662
3 78 564 483
3 483 564 563
3 191 482 163
3 164 509 482
3 482 509 163
3 191 481 190
3 191 535 481
3 161 480 187
3 187 480 160
3 161 548 480
3 480 548 160
3 171 515 147
3 99 564 479
3 479 564 78
3 131 476 529
3 529 476 614
3 131 510 476
3 476 510 614
3 36 475 520
3 520 475 551
3 36 498 475
3 475 498 551
3 529 506 131
3 131 506 569
3 175 664 154
3 152 664 619
3 619 664 133
3 121 597 586
3 586 597 532
3 140 577 537
3 537 577 121
3 140 597 577
3 577 597 121
3 509 474 163
3 84 469 110
3 84 547 469
3 662 463 78
3 60 521 632
3 632 521 59
3 83 462 472
3 152 458 132
3 152 619 458
3 458 619 528
3 538 454 517
3 517 454 140
3 454 597 140
3 133 450 155
3 155 450 175
3 133 664 450
3 450 664 175
3 132 449 599
3 599 449 131
3 132 510 449
3 449 510 131
3 132 458 448
3 448 458 528
3 488 653 632
3 632 59 488
3 135 447 155
3 155 447 133
3 135 468 447
3 447 468 133
3 98 442 101
3 101 442 550
3 61 439 65
3 64 547 439
3 439 547 65
3 60 466 605
3 605 466 574
3 133 438 619
3 619 438 528
3 133 468 438
3 466 653 436
3 110 469 435
3 435 469 107
3 132 448 510
3 547 64 434
3 516 433 463
3 463 433 78
3 516 457 433
3 60 641 559
3 641 61 559
3 484 464 592
3 83 436 106
3 106 436 105
3 121 431 93
3 93 431 94
3 121 542 431
3 431 542 94
3 155 430 135
3 135 430 156
3 155 176 430
3 430 176 156
3 174 429 175
3 175 429 155
3 174 176 429
3 429 176 155
3 510 427 105
3 105 427 106
3 510 448 427
3 427 448 106
3 438 468 109
3 468 425 109
3 468 135 425
3 439 61 641
3 641 64 439
3 434 64 605
3 435 109 425
3 425 110 435
3 550 442 423
3 423 442 141
3 75 422 520
3 520 422 662
3 75 463 422
3 422 463 662
3 64 419 605
3 605 419 60
3 64 641 419
3 419 641 60
3 105 546 103
3 103 546 653
3 105 436 546
3 546 436 653
3 528 383 462
3 528 438 383
3 383 438 109
3 462 417 528
3 106 448 417
3 417 448 528
3 487 421 416
3 416 421 453
3 442 415 141
3 442 98 415
3 606 99 441
3 547 413 469
3 469 413 107
3 547 434 413
3 413 434 107
3 60 411 466
3 466 411 653
3 60 632 411
3 411 632 653
3 107 410 472
3 472 410 574
3 107 434 410
3 474 409 163
3 163 409 473
3 464 405 532
3 464 484 405
3 123 404 467
3 107 403 435
3 435 403 109
3 107 472 403
3 465 443 401
3 423 141 451
3 78 433 479
3 399 557 457
3 456 396 525
3 541 451 396
3 415 98 446
3 473 394 592
3 592 394 484
3 141 392 451
3 453 390 75
3 75 390 463
3 453 516 390
3 390 516 463
3 557 391 479
3 479 391 99
3 557 441 391
3 391 441 99
3 466 389 574
3 466 436 389
3 389 436 83
3 500 142 428
3 428 509 500
3 462 403 472
3 516 400 457
3 550 388 146
3 146 388 519
3 550 423 388
3 388 423 519
3 385 441 557
3 106 417 83
3 83 417 462
3 587 424 384
3 109 403 383
3 383 403 462
3 401 452 399
3 399 465 401
3 597 631 532
3 532 631 464
3 597 454 631
3 631 454 464
3 574 486 472
3 472 486 83
3 574 389 486
3 486 389 83
3 574 382 605
3 605 382 434
3 574 410 382
3 382 410 434
3 387 532 405
3 467 378 123
3 123 378 542
3 467 97 378
3 378 97 542
3 452 377 406
3 406 377 536
3 452 401 377
3 377 401 536
3 145 656 168
3 168 656 167
3 145 164 656
3 656 164 167
3 110 508 111
3 111 508 135
3 110 425 508
3 508 425 135
3 474 432 373
3 373 432 424
3 615 460 393
3 465 400 397
3 397 400 421
3 484 533 426
3 426 533 408
3 484 394 533
3 533 394 408
3 440 645 566
3 636 370 154
3 154 370 202
3 636 573 370
3 370 573 202
3 532 274 586
3 586 274 470
3 532 387 274
3 154 366 150
3 150 366 152
3 154 664 366
3 366 664 152
3 509 291 474
3 474 291 432
3 509 428 291
3 519 364 541
3 541 364 451
3 519 423 364
3 364 423 451
3 542 363 123
3 586 470 363
3 473 362 535
3 535 362 538
3 473 592 362
3 362 592 538
3 485 164 482
3 482 191 485
3 74 623 95
3 95 623 72
3 74 498 623
3 623 498 72
3 432 372 456
3 372 428 541
3 519 361 142
3 142 361 428
3 519 541 361
3 361 541 428
3 406 360 452
3 360 385 452
3 396 456 372
3 372 541 396
3 487 271 421
3 421 271 397
3 487 418 271
3 387 358 660
3 660 358 471
3 387 405 358
3 358 405 471
3 566 357 440
3 440 357 525
3 566 420 357
3 357 420 525
3 587 384 549
3 549 384 420
3 437 355 471
3 471 355 660
3 437 369 355
3 355 369 660
3 397 353 465
3 465 353 443
3 353 371 443
3 150 352 589
3 589 352 151
3 150 599 352
3 352 599 151
3 471 351 426
3 426 351 484
3 471 405 351
3 351 405 484
3 163 350 191
3 191 350 535
3 163 473 350
3 350 473 535
3 408 349 426
3 424 587 349
3 187 348 161
3 190 481 348
3 348 481 161
3 408 347 409
3 409 347 473
3 408 394 347
3 347 394 473
3 409 474 373
3 373 408 409
3 589 345 172
3 172 345 171
3 589 515 345
3 345 515 171
3 479 344 557
3 557 344 457
3 479 433 344
3 344 433 457
3 192 343 190
3 190 343 191
3 192 485 343
3 343 485 191
3 190 348 209
3 209 348 187
3 101 585 98
3 98 585 531
3 101 590 585
3 585 590 531
3 478 567 531
3 531 567 98
3 478 446 567
3 567 446 98
3 161 341 538
3 538 341 535
3 161 481 341
3 341 481 535
3 538 340 454
3 454 340 464
3 538 592 340
3 340 592 464
3 507 338 407
3 507 415 338
3 338 415 446
3 460 337 536
3 337 406 536
3 402 339 543
3 460 615 339
3 531 336 478
3 336 606 441
3 97 335 518
3 518 335 75
3 335 453 75
3 478 332 446
3 337 407 332
3 332 406 337
3 487 329 418
3 445 395 329
3 360 406 332
3 332 478 360
3 451 328 396
3 396 328 525
3 451 392 328
3 643 587 549
3 586 325 121
3 121 325 542
3 586 363 325
3 325 363 542
3 402 324 507
3 324 392 507
3 371 321 443
3 371 327 321
3 404 123 381
3 407 337 319
3 319 337 460
3 407 318 507
3 507 318 402
3 407 319 318
3 318 319 402
3 543 333 317
3 371 353 316
3 316 353 397
3 338 446 332
3 332 407 338
3 590 496 531
3 385 336 441
3 470 313 381
3 381 313 398
3 470 367 313
3 313 367 398
3 421 315 453
3 453 315 516
3 421 400 315
3 315 400 516
3 507 312 415
3 415 312 141
3 507 392 312
3 312 392 141
3 375 309 331
3 331 309 461
3 375 330 309
3 309 330 461
3 420 307 525
3 525 307 456
3 420 384 307
3 307 384 456
3 398 305 381
3 398 342 305
3 305 342 445
3 444 304 354
3 354 304 398
3 444 342 304
3 304 342 398
3 375 302 330
3 543 317 645
3 339 402 319
3 319 460 339
3 615 301 339
3 339 301 543
3 301 333 543
3 354 398 367
3 393 300 615
3 333 301 299
3 299 301 615
3 477 297 356
3 356 297 371
3 477 327 297
3 297 327 371
3 371 316 356
3 525 328 440
3 648 644 379
3 311 395 306
3 467 335 97
3 123 314 381
3 381 314 470
3 123 363 314
3 314 363 470
3 600 295 323
3 600 298 295
3 477 294 327
3 294 644 323
3 456 539 432
3 432 539 424
3 456 384 539
3 539 384 424
3 587 643 292
3 428 372 291
3 291 372 432
3 300 327 294
3 467 607 416
3 416 607 487
3 467 404 607
3 607 404 487
3 326 365 334
3 334 290 326
3 334 386 290
3 290 386 444
3 333 289 317
3 298 375 289
3 95 659 74
3 74 659 93
3 95 139 659
3 659 139 93
3 299 615 300
3 296 444 354
3 375 635 302
3 302 635 322
3 375 298 635
3 635 298 322
3 445 658 404
3 404 658 487
3 445 329 658
3 658 329 487
3 317 588 331
3 331 588 375
3 317 289 588
3 588 289 375
3 369 580 660
3 369 296 580
3 580 296 354
3 600 648 288
3 288 648 334
3 379 287 648
3 648 287 334
3 379 386 287
3 287 386 334
3 331 286 566
3 566 286 420
3 331 461 286
3 443 285 401
3 401 285 536
3 321 393 285
3 285 443 321
3 299 323 295
3 295 333 299
3 453 284 416
3 416 284 467
3 453 335 284
3 284 335 467
3 531 283 336
3 336 283 606
3 531 496 283
3 283 496 606
3 293 326 296
3 296 369 293
3 365 322 288
3 288 334 365
3 536 625 460
3 460 625 393
3 536 285 625
3 625 285 393
3 330 651 461
3 330 310 651
3 651 310 643
3 395 311 598
3 327 583 321
3 321 583 393
3 327 300 583
3 583 300 393
3 600 572 298
3 298 572 322
3 600 288 572
3 572 288 322
3 330 511 310
3 310 511 380
3 330 302 511
3 511 302 380
3 380 489 293
3 293 489 326
3 380 365 489
3 489 365 326
3 551 637 520
3 520 637 75
3 551 518 637
3 637 518 75
3 437 282 369
3 282 293 369
3 420 286 549
3 549 286 461
3 367 281 354
3 660 580 281
3 281 580 354
3 444 552 342
3 342 552 306
3 444 386 552
3 552 386 306
3 452 280 399
3 399 280 557
3 452 385 280
3 280 385 557
3 461 651 549
3 549 651 643
3 644 278 379
3 278 311 379
3 298 277 295
3 295 277 333
3 298 289 277
3 277 289 333
3 342 276 445
3 445 276 395
3 342 306 276
3 276 306 395
3 520 638 36
3 36 638 45
3 520 662 638
3 638 662 45
3 440 324 645
3 457 628 399
3 399 628 465
3 457 400 628
3 628 400 465
3 387 367 274
3 274 367 470
3 644 273 323
3 323 273 600
3 644 648 273
3 273 648 600
3 660 281 387
3 387 281 367
3 293 652 380
3 380 652 310
3 293 282 652
3 652 282 310
3 323 620 294
3 294 620 300
3 323 299 620
3 620 299 300
3 322 275 302
3 302 275 380
3 322 365 275
3 275 365 380
3 306 272 311
3 311 272 379
3 306 386 272
3 272 386 379
3 381 305 404
3 404 305 445
3 418 316 271
3 271 316 397
3 356 270 477
3 311 278 270
3 270 278 477
3 662 483 45
3 45 483 563
3 310 268 643
3 437 292 268
3 268 292 643
3 418 267 316
3 316 267 356
3 418 598 267
3 267 598 356
3 395 266 329
3 329 266 418
3 395 598 266
3 266 598 418
3 477 368 294
3 294 368 644
3 477 278 368
3 368 278 644
3 444 359 290
3 290 359 326
3 444 296 359
3 359 296 326
3 426 349 292
3 292 349 587
3 478 269 360
3 360 269 385
3 478 336 269
3 269 336 385
3 292 627 426
3 426 627 471
3 292 437 627
3 627 437 471
3 437 268 282
3 282 268 310
3 311 270 598
3 598 270 356
3 566 595 331
3 331 595 317
3 566 645 595
3 595 645 317
3 645 514 543
3 543 514 402
3 645 324 514
3 514 324 402
3 440 455 324
3 324 455 392
3 440 328 455
3 455 328 392
3 424 279 373
3 373 279 408
3 424 349 279
3 279 349 408
3 513 661 496
3 496 661 556
3 513 497 661
3 661 497 556
