# vtk DataFile Version 3.0
A great-looking cell
ASCII
DATASET POLYDATA
POINTS 836 double
184.37160393885165 172.80204837874334 20.76392294672126
177.0318737526804 179.94417066439212 16.465302688146988
177.19290480490125 181.0330138375149 19.433586078387766
180.38253711784387 180.8358094939185 19.20460407036087
182.73333896710596 179.54473562493823 21.147297779794492
184.2413975720023 175.36308548135563 19.12382662013104
184.58778000560991 176.9352398500758 22.000899128197563
184.89645821708538 174.11203757206007 23.602553817534037
178.8997671436052 181.8693493949591 22.004263280059348
181.68924056369366 181.49010553595954 23.73652876615915
184.0572255469296 179.43620083014292 24.053779428017762
170.12432294380585 158.06915512754534 11.875690543255502
178.3676454746206 163.48139849450885 12.049545073072242
181.33926667910657 168.04739429035644 13.430261730993031
181.72657457935463 166.39008867030276 15.88208510647951
182.6278716488362 164.9020738072679 23.834562889670636
183.95822269215873 167.71536209693045 23.719679735383156
168.4912823299758 177.17789039669137 15.780177921275866
176.53692254278067 178.8486801353117 13.823018621148215
183.82714732766146 170.80272817698813 18.51600206645205
174.348740064284 179.88451623942774 18.201730127018635
183.69673980213082 173.22630363081123 16.868489081694893
184.6231671242393 170.69222751814542 23.08887466765677
185.30460657592198 171.9525905763871 25.98914381167872
171.0732664613346 179.61386232250186 22.304274291764624
185.39920879100418 174.62395089409404 26.86706920215295
185.39527722223013 175.03492594428127 29.692504951800718
173.11311831819756 180.4510016611526 23.92204972061549
174.60685629433905 180.8843160782376 21.30211918626634
185.10707664963311 176.94924065032615 25.203822890572383
185.22198479554373 177.0664857146408 28.064669327557713
174.36394061215793 181.10055550319115 26.5032965817319
176.13629955886898 181.69688766156793 23.937348364462537
178.98512784889232 182.55108680900955 25.2350029832417
184.45702414816893 179.1414422850495 26.8679013656635
185.1330694165659 179.13002936045555 29.098029253027438
176.68661542297403 182.2227346456084 27.081191798395054
179.02216505024754 183.01379968816974 28.234732034694428
181.50836422634364 182.51353595813168 26.896415569873835
183.51723863988263 181.10552681967116 28.818139139395374
176.91213100718517 182.7211723018756 29.694685615606982
178.92101360870092 183.12494802918104 30.905226518534825
181.17693769039042 182.64958064776891 29.814208945276313
161.14979597197436 162.62991368226477 21.403151846829186
164.36707762843122 157.46718619102728 17.824144888464875
179.06278750364172 158.63408118603195 26.786779176762302
160.64091311593907 164.88351068663783 23.588865624181274
161.89850924105733 162.89718478220652 16.543513064946392
173.89867421295918 156.95356302470282 16.802734823125768
164.76381412117914 164.10711317991675 11.326552621983259
183.98199883121197 166.6068614497968 26.397192241132434
161.18153472048073 168.65324995725692 17.290376666644306
161.84158319973724 172.77865783119125 17.68848756253356
184.83697451941896 169.2697659643938 25.914131976507004
169.2776049365191 179.51416278168233 23.458526840655566
185.4198352335207 170.48714416174465 27.910270153540466
185.2585873980321 170.42287562032917 30.458843403934008
185.28367382165422 172.59243482627195 28.718154845318544
185.3587835530697 173.0110054574158 31.384916444609058
172.03951184198928 180.23720777845156 26.65961015341589
185.23479260455312 175.441030399312 32.42791059713797
185.48933131804577 177.462027792858 30.683732634975215
173.1137473837887 180.7792098632678 28.419951392482297
174.91170307273816 181.64030364241623 28.950492429335846
184.59017242021343 179.82300543933965 31.325524436061364
175.33506229633292 181.98616113142825 31.29608293609525
182.71481691397582 181.68307874976705 31.811443645488914
177.13675886850328 182.72405878607643 31.80137557012534
180.61947849713562 182.58976030438205 32.17013708966454
172.06334722963396 153.48617760227992 28.927428001711945
162.0065069565055 157.24198943189023 25.03371231556622
181.87942574705738 161.93706009690436 28.892724943192146
160.75509379091042 162.78142130612935 25.78122339719871
160.4499279257806 165.8120778521805 26.502124893936397
160.35806811735188 168.68217021728904 25.515753846299873
160.62945713173502 167.84250729391536 22.865100594822415
182.70024267700984 163.86585674582844 27.203160094400427
183.71591586261792 166.02518536646687 29.325481552343557
184.68355271617688 167.8486013221273 31.10097233130904
160.76766011320407 170.64717095956567 21.985777801787766
184.77616461532986 168.40254750660793 28.515252684696016
168.5574885169732 179.13670733281805 25.174802888159764
169.78698391314634 179.50020051454865 27.057596450167143
185.28970008677555 171.3394847154962 32.73116245490492
185.1071737477862 173.22021513875518 34.25391912361606
185.14549410614015 175.9309807761083 35.206066234393425
171.25551297405912 179.75763266913174 29.275835794931403
184.91331811755964 177.96984637577168 33.33814276794349
173.15014920238536 180.8319219351276 30.71190101517889
183.81936700409193 180.35351510976898 33.971818346468325
181.5135523802618 182.13280049066557 34.64316029028063
178.59666685144143 182.78570577078997 33.609904260865655
162.02436094787672 156.35057745621498 30.381911598577485
173.7555859228329 153.83347874791946 31.545527278551482
161.0500580816934 159.1926317650193 29.61218123011696
160.20970158247084 165.27332253139835 29.720532716621147
180.7258789930357 158.66782005857212 31.35847070191634
182.23067588537023 160.91802363997053 31.344976832103924
182.66883804925308 163.65812499610345 30.386983889400444
183.76825694748047 165.61521989407595 32.3292475428066
184.6180438770287 167.52789205182546 33.16876782885058
159.78820924371564 170.7792643075262 27.52182356905731
162.43181073333292 177.57166476664966 25.031971381014706
185.1571821072189 169.35851108160728 32.83711901899773
169.8191336081403 179.57129856991315 31.670590888620293
171.95809479207867 180.14789303115214 32.75380471369127
184.62403153610532 178.64918462126587 36.35052358593935
174.07919664281619 181.13386257225093 33.16068011377688
175.04906887586878 181.53119945324082 35.31761589843124
176.89988447271642 182.49628322328005 35.32660227240764
176.14210802852193 182.21132748598382 33.42698309993164
178.9123282966699 182.56678816649176 36.84503501025749
163.35282338047952 154.48609087478272 32.28716837671283
177.05555276537447 154.72462420490137 34.484492590062786
180.25826212669352 157.57529613141276 33.627313294486314
181.62514836774116 159.30333269182995 33.16679336839978
182.92429130661438 160.7652494379219 34.07618465269454
160.24868303823254 163.1014692187281 31.85702751776192
160.35642199776666 165.5793762957516 32.940295934138646
183.16926025256043 163.03706125923873 33.00929970662208
160.22611335501475 168.07600105019293 31.520774638076603
184.1181924649344 164.43632627358082 34.38518259922586
184.5422913923068 166.32624854375166 34.71035188552999
159.15229935565196 175.15425182864945 28.516589792148082
184.923577724236 168.47567422519995 34.85876772519099
159.57525454423697 179.19656930905552 34.58509760709555
185.0655992467244 174.13957672469766 36.61968582468417
170.1966064450456 179.51999274136946 34.43359599915259
183.29154896178105 180.8913083256929 36.23797567113941
176.18777316941373 181.96238200283602 37.31505355184805
181.67854135262115 181.8148935880359 37.68196810602289
174.8791086954406 152.9370401956573 38.06263882483857
166.74568388121114 152.6607764367718 35.92338969265556
170.8685052880098 152.32091856267635 35.31323708531715
177.5729127127766 154.72856794785264 36.44312588458369
180.9919554145356 156.68327852800522 37.34591964032213
182.09239661227446 158.49398242526394 35.38336741921408
161.12181472814737 158.40172180517942 35.50704216936938
183.4478845146026 160.64010526130568 36.54637303572298
160.48214044847347 163.6413473492882 34.109225610542
184.3511013588109 164.7310974656911 36.749851905652335
184.80753383310048 167.28748506269505 36.83778533934344
160.25532705210924 168.00183320954616 34.49121389859591
185.28449069293472 169.61653791047198 36.868793793840695
185.280793630383 172.02171481943438 36.714394501539516
184.79475418253645 174.84849020679383 40.331100110384966
184.7760889944136 173.43668605748982 38.715596307305994
184.9492832798559 176.07102693522071 38.19353372028091
184.4249238077506 178.32016908422534 38.944704301521426
172.78052842068192 180.19534906671637 35.45215889499077
183.38338263079766 180.103261232154 38.348785121814004
182.0596980226058 181.07448080724592 40.11782985898457
174.32850702557448 180.95086464762957 37.192521494866675
179.89560778674266 181.9915119860942 39.55846879879185
177.44836087065235 182.13270375631802 39.48534868004226
171.87332004865826 151.89080002454784 42.596441150917606
174.06679461799934 152.54340898321786 39.873288582409636
162.55022418425287 155.41307705306394 38.26747764343341
169.38361579319613 151.80205308410973 39.073870916965646
177.0001438158506 153.8270964426525 38.287794593597745
182.189468403163 156.91161238411266 39.95455004888754
182.90974560273395 158.6618626768989 38.11305093095002
161.71541185648417 157.161340647417 37.54771516161419
160.57524810597815 163.38794243900355 38.25069634792081
160.53671369999736 165.95195499709916 38.548307459352806
160.6270730278606 165.3703933867769 35.932530062736674
184.14634250859365 160.89904874116013 39.03022652849752
159.96250465986017 167.97071509159295 37.37129850384814
184.92902622759772 163.69033129867975 39.65534509995812
185.06286833161985 166.10301163977056 38.70882274048405
157.39278259893305 173.7829643734489 34.38782747989402
185.29347391787292 168.34661086065867 39.04591757454711
185.1199996216402 170.952805658286 39.049044493108234
185.21529834884103 172.69799228871074 41.42302640641671
168.5011008137351 179.52947867269847 38.710281854645025
184.57204833711663 177.0433565100481 41.07141976678098
170.76078510210542 179.30807737360882 39.655281345466186
170.54811796621462 179.3898049821038 37.10045883022267
172.69848346384765 180.0939750554833 38.288974289927275
183.42580663878212 179.24380422447152 40.5661980698752
182.20746381624863 180.10074555190445 42.24460462779493
172.8674436084047 179.70096292607943 40.73805026514464
178.62255506854848 181.98134055273638 41.278151045400705
175.4808971398858 152.48800441098433 41.544392383780355
177.41340887599722 153.0681203246859 40.39142035537459
165.04162747953285 153.403266710238 41.10317707440722
161.82650204154234 157.21337398703022 39.67173758676409
169.3460225357167 151.8847077778409 41.80668876003749
180.45368818793608 155.10888032467534 39.59015684921628
183.22092826685156 157.11402970333566 41.952615278485965
183.62625662251287 158.91461773958298 40.66196126734287
161.11952123886533 161.12511316787254 39.02386559850215
160.99147312296793 162.41961515606621 40.87925334040713
184.56697719756522 161.34737837951377 41.93409851746585
160.49297874696273 164.99132267622542 40.671904582072216
160.24062081328105 167.93468621233228 40.506277048643135
185.37215704438174 166.50703657161637 41.3418152687152
157.25231174580628 172.45400255733696 40.263714297121496
162.75902478509914 180.70679926260792 41.45562841116898
158.96357451524278 179.29558722446558 37.00771065228376
185.33831982168093 169.61490200878123 41.51048838634559
165.01230726613977 180.99030450520513 42.090633055520726
167.00672237401773 179.5927218930275 43.091627993977454
184.7203316113893 175.00481942434467 42.24458070423658
168.81817266336495 179.13757385456177 41.17183025467554
183.29329027768418 178.39758425121664 42.46952074149407
173.00671617804235 179.38970880295713 43.112890140598445
180.3938801118325 181.24148336722413 41.71708851787111
176.639542471659 181.12795330732888 41.95433527469225
174.90161353482105 181.0058054885395 39.57964456992196
167.99227648826482 152.6577490241697 44.4379933750712
177.6028971311267 152.84261507171612 42.57814797939029
181.37601572822157 155.41948783311756 42.24693288108148
163.77784955865792 155.07270176998415 43.506212762406356
182.9918632416016 156.778315983668 44.138707861464916
183.87660154914857 158.8942051861166 43.13845629504113
161.73121577512558 159.1028340311422 43.38412974016105
161.51335283784994 159.64448683897476 40.95255642393881
160.82122013673435 163.996659403245 43.111395505872046
160.56814803366927 166.332915403574 42.69720070400759
184.95517216312322 162.51864179115918 43.96015591094572
158.6499639391169 170.61397528021112 44.44148471535392
185.33377255002117 165.75596211668693 43.72991011403175
156.98927553902695 172.67835688210096 43.490339125603285
185.3098041000883 168.0865689775053 44.204966566436404
163.32709109332927 180.61718196287916 43.65009948030099
185.09499325658837 171.0571016408818 43.984578949513406
184.90755535349865 173.77467960486234 44.13051966804023
183.8088596443142 176.5821036831404 44.22079631682997
169.22267833670833 178.50332927077366 43.357942899017154
171.00786302182527 178.91939580037058 42.02424940687853
180.60596788298668 180.40918751659905 43.784284146122175
178.7263292411745 181.29572389762404 43.10465847897272
174.55119499386936 180.19193434740507 41.888315460785904
165.65167900919326 154.1987165786603 45.957740208165205
181.21521229577425 155.19197081485854 45.15208665131294
164.04371075630212 156.1967094452284 45.865836943708395
162.72205361574035 157.55194379548766 44.64084194649278
182.60196215757875 156.76090137358622 46.66037654130123
183.68608640522913 158.70704280126634 45.579358240192164
161.96767058573027 160.05343679130507 45.704414859467526
184.44526500932218 160.7319537325414 44.5731968780859
160.90877730874965 162.8143939631379 45.57713546511605
184.83027175821047 162.46510708992153 45.90336550217488
160.68980358066239 166.07310990562485 45.57210210421981
159.4232839498129 169.26602233669803 46.74053733901393
185.24163651616465 166.02704513606983 45.70200497801231
157.36770812391757 177.21128234007696 45.88201625234739
161.2258263058194 178.36421111132987 48.55628260748068
164.0841542758182 180.31990038537762 45.710365092481766
185.2074622238582 169.87543900897506 46.31877496668882
166.9229041587331 178.0190054326912 47.05980703134824
169.69417201072062 177.97088308793082 45.055744661349976
182.23135714129566 178.8740746801473 44.15039913464593
171.11940513483754 178.88203952513368 44.29641153653696
177.204251172781 180.74211192064237 44.05200833610054
179.03457738506674 153.99647278361957 48.831589115752685
180.89362627107218 155.24231469286062 47.73399479852316
164.16359171955673 157.02835244530027 50.95024555385806
162.3075780551362 159.79631746063114 48.443741079377524
182.23805857349103 156.82463301672902 49.158095140599926
183.17685512686566 158.7820273279396 47.96467340163518
161.77041288430664 162.04896268728262 50.22903678035733
161.27487113947038 164.7604766661909 50.54803058403141
184.28413197175334 160.5848117701354 46.906908725950174
160.79484671134838 167.17313109681055 49.14309230257667
184.67762645071633 162.51163330758558 48.14515206239856
159.50547495954117 169.59510975145133 49.42963103740477
185.11115443935196 166.05545445801275 47.62898392194612
158.5728598922751 171.043916057955 48.51537797108631
157.70501501495627 173.2569597426936 48.86958017484647
161.7514164116616 176.7931182055416 50.31894651763297
185.2415592443241 169.05232500824232 48.16446168559753
163.48371755261977 178.4162966391261 49.291353954880044
184.35383527262522 174.7101895496379 46.47048621219755
169.04378128066637 177.53119209248712 46.724494369412504
167.7906174989312 178.02776403225667 44.95529457700379
182.47666773888145 178.12757543236035 46.2759349192983
180.87494381801983 178.7466470477887 47.894588764075216
178.74876575185792 180.16372000755732 44.93391344212117
180.55237613995212 179.192123206694 45.68464494072744
173.13301444974056 179.04250338060226 45.673292879477295
175.12872518817096 179.49901011723617 46.25857903951776
175.26644088256936 179.89202591279195 44.084235718922024
176.83871386462968 180.21477263240368 45.83947150182795
176.9462726431553 154.92257222397376 52.21844050457778
180.3586852140039 155.52437519817755 50.13394104118612
162.84542451383695 159.3360355948673 50.88163512632433
183.10041103725777 158.79042082411428 50.415780854795806
162.46813219459466 161.0529443935736 53.094562723461
161.9138049753628 163.83618819391444 52.72611712688041
161.75576237675585 166.75604807613888 52.314392041077134
184.3971292393699 162.37594652820027 50.12123275525322
184.0375645496174 160.60265037902386 49.18269182939437
160.64481354563114 169.2959596974069 51.51406883580085
184.75275158808262 164.82617823171077 49.686146482208684
159.48822400445923 171.8470298008959 50.776173543827205
184.98238834279573 167.34967224472874 48.90406006805761
185.05213196050013 170.97635829317366 48.39447173816741
183.5662708777032 175.44574448866823 48.61832936160761
183.25933866991855 176.39458576192214 46.7864114314758
172.24231335110463 178.58858600528762 47.73799856517191
170.99573497792616 178.20590863812657 46.30486247995243
174.12532870903365 178.9564685186889 47.91931565864617
178.62404856961479 179.42305548167505 47.26137414532018
176.27295132241136 179.38000984391817 47.76311784575884
167.42092167398957 155.52777514902837 55.44468044189201
172.4082927141853 155.53856941834263 55.445348637967896
174.6878446338639 155.4614186074409 53.740187434247986
179.44645775811443 155.81822499642013 52.47900344707636
164.7854340119305 157.27124990855035 56.09434881605897
179.97683998371733 158.260514876003 53.46935733213497
182.376384466074 159.270190875929 52.80050326996435
183.7172826398314 160.8923476587322 51.43083170306298
162.46505573055407 162.939128872821 55.33264301007221
182.641858633267 161.6993513595513 53.38527303834399
162.98133512031794 167.52115020592967 54.20260609736798
162.69991635171638 165.52104359167612 54.60637728048384
184.19888924045185 163.16011518177046 52.061258165329384
162.61573699273353 169.19960447441804 53.16855802336023
161.76365733782137 171.77298021958563 52.769165792765996
184.23494890702983 168.26021254813003 52.48664472248608
162.4771600407773 174.53911598373747 51.96501328407167
164.3213074463547 176.62714434266718 50.93738025257688
184.86674536797952 171.9282717653555 50.63216995086306
182.4127033055183 177.29398326164304 48.405612120845575
168.23311943299 177.22562092915237 48.82815812756714
170.49254988130383 177.8750915806037 48.429376618930405
179.41563864204494 178.81220314651185 49.1649073884124
181.03314176222574 178.09580766640335 50.212531308962824
177.5750404207363 179.04328156700456 49.42049362785509
167.43791123098032 157.37284267914896 58.011064716509026
170.17450523287727 158.4951031689476 58.03891095103462
172.4380675749304 157.1775745551277 57.690275025012276
174.6830489432247 157.12868639650875 56.0744900472651
177.5369668594627 156.73647981651894 54.71387549177637
165.18645484571422 159.67669301206212 58.325496632116085
178.86596163048998 159.35698960364243 55.58841349666122
181.05016993210225 160.31177650848431 54.69007397129644
163.45995053223663 164.92940418202176 57.00428204769288
163.9119233740149 167.07748829184948 55.93997623832001
183.20700813623193 163.8583897918372 54.16673134317659
164.0515968247201 169.00855708695053 54.899300032187156
184.07232599210738 165.76097855551757 52.6556261891807
163.53849268856297 170.83369557249645 54.236940984273126
184.51560242177638 170.51223835190854 52.527604625050245
167.1996431361455 176.32256343555463 51.221943113881544
183.94151957416491 174.39832279128177 50.97802281123186
182.52967285768904 176.34543676824322 50.41912824843792
169.78823931251546 177.45549490912651 50.69125887985305
172.63069401322036 178.260570659515 50.274621654919166
180.41827485868976 178.28241113804845 52.50521290627396
178.93012475562455 178.61223467778598 50.993603950688495
175.37410933607796 178.74293125897015 49.7514595565304
168.14994690167396 160.25554517766923 58.547840182586874
170.73349288183815 160.86755984329187 59.03371817891237
172.26062026122335 159.21809683649724 58.84227553936132
174.4402037291766 158.87371284786957 58.19941816584117
176.6117018649887 158.9369290587736 56.70011890786136
166.42686225404293 162.35241161133717 58.58919251079258
168.9462180832312 162.7669475483654 59.282214044009095
177.85516863140447 160.7728052796374 56.983609476583304
179.78240479826044 161.50680160225997 56.4488352600962
165.23295790279505 164.25600566863247 58.174326946315446
182.13834161422042 164.6716262267554 55.94766280075438
164.95205542170277 168.69377083143928 56.67333395188345
183.24158987921072 167.45565202389062 54.270043481405715
164.17844096474195 173.17236212690037 54.185342797809184
183.74984130368966 169.45109449126926 54.23952130599787
165.20542361333716 175.12624990163255 52.794029839846324
184.03259102295598 171.41527324294958 54.4544174160968
183.5505102268639 174.40831156858303 53.1582939834194
169.2690599345351 176.74822225766795 52.93224434829997
181.78684001550462 177.22857948279935 51.85872524143363
182.86602412889565 175.95082338842295 52.48662330909914
171.0285514810408 177.90394222738328 52.39510964743929
174.7804477302523 178.46774289839726 51.72607333094573
176.80643796786367 178.6606202247826 51.44607301829998
173.48553759566406 161.44259998809594 59.040244448173375
176.28052802141164 160.76418596204874 58.625738295587496
167.36888260566036 164.83354199008448 58.726423202980556
175.67732762183422 163.27082821413666 59.44685045802162
165.26504192026295 166.80555545761032 58.288656681867245
181.28192993560117 165.79404269053035 57.7451862260127
166.2732392106725 169.5772807836632 58.28930629497251
182.59631092306824 166.70452370191086 56.147683414619536
165.29397663703818 170.97931601424924 55.92419517127899
183.00548214194558 168.70372727029005 55.960846548151096
166.33638695938686 173.7827683022481 55.90730106387621
183.6672724833181 170.31315407626587 55.78799156497847
165.92551412675962 174.17374098610372 54.07549068900522
167.26626852578832 175.56045527137636 54.07259394938539
183.76313017835446 173.44352384478526 54.7833471618861
181.33765253814101 176.73780152137905 53.483729088655636
173.14213410815955 178.32911444951478 53.54366697679052
175.91723171958378 178.53470626612446 53.608011134470786
171.46217107781592 163.2751384694971 59.330054403533836
173.52600968773376 163.90455579816444 59.424927568419925
168.31794284366168 167.60535625995843 59.20396969978229
169.8626669243676 165.20247328221953 59.41291900150779
172.21983251294515 165.45495522706352 59.856814305685404
178.24594474403995 162.80323842222117 58.24901415380297
179.56876018193245 164.86442171807823 58.6406628885634
168.74762622261915 170.38209608892706 58.920834988324735
167.18082808060947 171.969207143818 57.72495176665894
181.81875615281416 168.1170812672221 57.78547424372563
182.76331295362343 170.23214242385956 57.43912885021028
183.6580641161158 172.02217964879492 56.45806333505256
181.04271012835233 176.5310577630672 55.14100973879667
177.53959261610805 177.4283713170885 55.57506497469608
179.800382906755 177.54276185283334 54.44590053491429
170.91327796761388 167.29509109420528 59.80481994506796
174.75201904461142 165.89200698275656 60.21192526154407
177.51752428045174 165.25462227517892 59.5495680162533
170.11804604336058 169.12805387808865 59.92718535415926
179.60756889464454 167.3027677817672 59.32522979583919
180.9415196897698 170.18859481806084 59.45800444496668
169.14892934488995 172.84970354459892 58.94123844737512
182.14791010208754 172.3227352629843 58.18443236531613
167.95953521080915 173.9130196786242 57.56964108065511
168.40644771387377 175.247327912427 56.21848486533231
169.21003777326902 176.3301975148078 54.848417079230586
170.11459551565676 176.78127379380257 56.6194585418931
182.57982632047225 173.95084765582862 56.563421697673505
181.2378792851121 175.514106096138 56.46589135820512
172.32108881385582 177.85320554295325 56.298963192266434
170.6438679002829 177.75625161413527 54.50273996980443
178.24818562608647 178.26681468901458 53.12352816166091
176.88120273400065 167.74625786648974 60.13782793047996
172.08966488876558 169.08823786700862 60.204292276091685
170.90886309080116 171.3231176009276 60.41830831536882
178.45170733293807 169.59421827358833 60.358953297780076
179.2832644844801 171.4552375058722 60.66549276805783
180.9987124689001 174.2439488894979 58.01005102584676
179.80753304560855 176.86230365982132 56.37127246369143
173.12511787434573 170.5926996630295 61.00437307250978
174.48302111850427 168.77890011515768 60.49055147744162
176.4782337349682 169.65123987385692 60.907452656518835
177.30412742027318 171.4170617823656 60.97234417494888
171.26383818887948 174.06606395636464 59.71920353305673
178.40926749338857 173.39629061067396 60.832936963916666
180.2829152499474 172.793049655162 59.51626058136273
185.43425264202708 174.79781314645362 21.23898385946138
182.852296337968 174.09560437157793 15.285301947333815
175.50318790627736 164.9064033315417 9.483376812285188
182.51601191653123 178.2502439863613 18.034855444735637
175.06133366569873 174.3269640338407 8.998470889409212
183.27380075593067 166.57708414236325 22.21414807341393
181.45464688353292 175.1215996895371 13.984140363337149
166.14832131038816 179.4885565740544 45.49216373122365
181.95776506270494 170.04505261789922 13.875121581458036
172.78655914713062 178.37444537674256 14.09152063971097
159.95836517502997 169.63115483190984 23.716213918262266
184.42098965110983 170.65033755382058 20.7858011309091
178.2317283694253 167.90850935715352 9.527802128317433
169.4732611123199 175.18556841893482 58.316482565078125
165.50788076623468 178.39876909757731 23.30024965708652
162.59621816909637 177.29541229921276 21.588106453259915
181.77838894670197 163.71430979404107 22.015104273191376
170.6671948018313 179.65178294513547 24.768395335389275
168.1042921266566 179.66391228345418 36.137492066099874
179.36695821545183 172.26776322955084 10.188572674307864
171.93421782621394 177.26436451328027 11.779606194150215
167.02074588479377 175.50651932574115 14.33161550492862
164.87884977147675 180.26476280462253 31.029569175243665
172.8169934290619 166.7165403631084 8.510022994611312
182.65041881186045 172.13907339455588 14.317650556664443
166.73471490901795 180.29288904241076 40.41898469203172
178.34117920290672 176.4354889510515 57.909984638589
167.82305174042847 179.94097335361985 33.57073464943696
166.48825603089725 180.84197167403653 37.86248773957953
180.08162897779764 175.75438047062426 57.74353825041138
167.5341984233119 178.95303138906164 23.377930807302644
171.93663477302053 174.72559887848 8.816797036938864
171.1906288650654 164.92836424639577 8.535804716163446
168.5762107661593 174.21808964958743 10.463565787378483
166.219916982822 179.71208505636667 29.08257414584817
161.07855008004455 170.7388098321578 19.094268854860612
175.38954036065763 176.37782866538612 11.075868664683078
170.17894026453484 177.28935703253828 13.645419723408791
165.9190229934219 177.08934104598674 19.405721371850017
181.1152262468685 163.83787235216613 17.582600667100742
181.25222280171002 173.1946542926577 11.96209126081784
168.0994650078957 159.3619665091249 11.384964360803853
180.06245266210433 161.8927076778096 18.25478545126194
161.25006376639544 170.86122088203365 17.26264514008705
181.3779633702495 177.39035577707858 15.530949482236737
164.75800349463307 159.71107237138267 13.763139513838677
166.43061221978363 178.94121614400163 25.193228235231274
165.93946496338836 166.543265386127 9.653963582673969
163.52819624297825 177.73648706352057 23.27839552986144
163.79301689844087 179.66484617062406 28.895602575460373
169.0972100716203 156.60419850727826 13.983195197899663
165.11809080017156 158.01253261127692 15.286858015985334
183.75340329194563 177.6485206041147 19.996725664543145
169.48162433482295 178.28747542986306 17.8980461948558
176.53726778841627 172.52108369297517 8.552272529436623
172.95004292735922 160.01420004924617 11.245431041052163
162.9881912848248 164.59835518017707 12.538530534573528
176.64617206229158 181.6888779532084 21.60957173538977
162.1116870654844 180.053063902901 31.12069681544545
167.48617743081965 179.09481151612704 27.170039053527145
157.95504252131826 172.34369321495657 32.31213336213813
159.11083434455082 178.24902402925233 47.560569455292516
161.5837630348337 178.6389147977392 28.736492947226274
161.85474740533712 179.99438056125192 45.301990238483356
159.09508686286972 172.04606227075521 28.711898103956106
163.01922180560624 178.65630241865136 26.86161470366333
161.207828275696 177.37544260723104 26.78487209471246
157.551092727775 177.9421753838532 43.588124321591685
170.30904984965855 176.59084326566824 11.960313923381875
171.72977015408796 156.33373649212245 14.181096964835081
174.76039558484834 178.7653996079875 15.579929073812467
162.61065460677466 180.96123916819388 37.74303817732267
164.37232990274822 178.35146962344092 25.136549993103355
161.80113224238687 160.55051128420274 21.087620167508966
176.2811834204906 170.1363427590989 8.614141601402043
172.68316796326246 163.02956855773763 8.909760079114614
162.14893489442346 180.8453910965211 39.60378058906061
165.81082983853727 154.0201528697924 24.654784382442067
161.0418595313775 180.30250389484235 36.1840703967542
158.61777499342796 179.30382005733819 39.59012538804511
159.8572696969145 177.0466211536341 28.504599270749345
165.65032667766334 171.36861308563456 11.595493860474884
165.89574729919568 155.7341939571635 18.405281029740497
173.86363157719936 177.48676612760806 57.826289021130584
158.01715083150353 174.90668609098086 32.275704072693124
161.6472232026055 180.18698049723434 33.84506439650597
168.918032717083 171.0750253657604 8.66403129310342
165.17811896195366 169.19267715148467 10.615210675048562
163.44136316384578 176.412024906596 19.718327914021547
156.3067348882263 174.40629866680274 46.353623216224136
170.7103734813839 178.7370942155955 15.81854714792802
166.45721357171826 170.49852171574167 10.243461206477322
170.3115453937402 172.93990416027262 8.664308029258784
176.16495031017482 167.97317659189375 9.13461144898746
159.3995298162145 179.0665886256286 44.9628886230658
160.17537860048475 179.29964068299873 32.50664557349931
161.1657983545832 179.91302130542297 43.0497358975148
157.90098254845907 177.61755791088353 35.420950402775325
157.33207842896664 175.94636094267233 34.11840798461711
170.69533756311645 175.504136104983 10.40324524545218
173.3843556003227 173.20119060078977 8.62766435141446
183.260555311898 180.94166827823733 26.027551359065377
163.15194667240726 162.26063052222673 13.426356358818905
161.32220735428427 165.76032183962292 17.499004106084342
162.08189844465198 160.98127782505597 19.001112907121186
164.48649067051502 172.71192593622595 13.77503175109675
165.8811938341327 176.4495376795748 16.806764377285795
160.4398359682424 166.80357482647807 24.61647505369094
176.45973236413397 175.09409286950887 10.114675925415199
161.9558731216637 165.33527853160268 14.51408387789
160.39570001103618 173.3602664530726 22.723583099080486
178.22145511989976 179.1394014561508 14.98228058341786
159.91246127018618 168.541289991378 43.6430870366284
159.99161612553976 171.51319118363278 24.795970666152886
159.4905664642108 174.96901876098093 50.85003803414428
158.86656927454547 179.25237570370186 42.204163694003704
172.39238763111817 158.10083940689043 12.600454956802341
175.85559045766573 161.99684904518983 10.590972731697155
166.7127035068027 178.33777229061326 21.45799719959738
178.02975114769745 173.88845704621147 9.787244711753093
174.65748433474369 178.56864343527644 13.848556769611688
178.33383974484173 169.85867708395952 8.980639803537091
167.9818398371092 154.10374626905886 22.26327675364613
157.0238962371501 175.4109602492749 36.290161022100364
160.16298933114214 168.24589234698766 28.515179635001942
175.12047159952726 171.07828957386764 61.3155106333202
160.6508392237685 180.1991304733388 38.48098127277244
181.15758178916863 181.365462705184 21.395901277531728
165.97538470109546 180.61882953452655 32.80511579350939
174.70694506647172 174.97854671322165 61.10397005778993
167.7054946242893 171.90879078116265 10.078603603911306
164.49922233699218 181.30592109365108 37.15488788132739
159.93597541862948 175.61077216921197 26.791606363501263
160.80344762333286 179.2122753313758 46.81218783185674
158.02551460326563 175.99336865024944 48.32699946413707
159.76583948402393 177.08653590108628 49.352023698194856
161.84199579634114 176.7007199264015 23.245391871320354
176.06076704740377 173.34344326234333 61.67689765397147
156.720985514253 174.94762413588 38.989644373602175
172.84586056585528 175.34062922603692 60.66013711419581
158.1047320490048 171.7671222812783 34.55371611455064
159.9790693817645 178.29459784113868 30.568412120645156
156.48243012803925 174.5835072745393 41.47323303044764
159.1480778442588 173.2687402781604 27.223234316424705
170.6606787855905 169.74464503978047 8.066310400454837
163.16517051716573 181.201703837857 35.4978821196603
174.5866058263274 178.01380259545937 11.948366197275355
163.90326192606133 180.83856737082738 33.188396292457846
179.8025324989117 179.41397482773036 16.331871281654802
171.55815610224488 180.04820873521555 31.10671333990263
159.23561217824084 170.2346099508675 33.18456131643897
158.65466936843575 176.19936211782107 30.29176049336607
162.0354128338415 157.89464479896077 22.831425423401264
156.50573768979115 175.75556884951786 43.64852838043432
160.05230066403067 174.24378213873834 24.951826714674127
166.91236734746715 173.6150955940179 12.41118773934715
158.7777453277057 170.26887457449163 38.82160549646634
182.9353927501561 167.64834141350707 18.199501932675872
179.40379377890451 177.8650920131404 13.559834176929838
171.70908951210154 176.80041351097753 58.936584541182
161.54096515337568 157.4757870478398 27.815761017001236
163.19764758323132 156.13734273920736 22.55339613785703
168.79943102286512 179.06214677274713 21.700400584609618
163.68554469350644 174.9937562598847 17.526295642964026
166.285016620385 161.09148667836484 11.647960769344277
160.87466398144622 165.7545995204236 20.451946959135842
161.68451077461833 175.274595652244 21.432838660504675
182.65951985662912 175.5633179443544 16.488704892228327
165.6830720218789 154.77489562851358 50.69143369264791
160.7397956505805 162.58518511582554 23.517565056169616
163.64532269241394 158.37112816412676 53.382222665560725
174.48582443888247 158.52755850983704 13.65515594689289
161.22867029558594 158.71648955516505 32.39337666508655
164.84355944332881 156.03986357471584 20.254062231667668
162.47708804842415 158.35222588202177 20.55703635305538
177.22896382033684 163.90258076580594 10.184286569799028
160.86116550906902 161.02545933861802 36.81051405177581
157.34067150668577 177.48072101959156 38.02336611053688
160.48317687390303 160.82053843179625 31.36699031488643
173.6886690299786 175.80101630265943 9.948067242511591
161.38803011743664 161.35469717830338 43.264653734806686
179.37814270933043 174.93593975085395 59.30908879538849
160.9238482548785 164.06495607522547 48.14403624977133
176.9026403460349 176.76820074474864 12.10093639779016
165.1452151063979 153.21469003109408 31.72939790878904
168.1434649133053 178.16782586186847 19.749982889772294
160.41445887508104 162.91947177380192 35.82696907312179
161.20656445990033 159.06911050328245 38.269310012370376
161.27715362780572 159.85499234757492 26.773763682083345
164.1123997783874 154.99872668117393 24.82588382402041
164.56912046187227 177.71433774734126 21.39928495393093
163.05027484202225 154.58233855076838 34.47337099271779
160.33239956174566 163.9895974809502 27.73227885968209
160.64257551608551 161.22612312952808 33.98556766292179
160.42351296980212 162.11533091140643 28.962562999717534
160.78661375130778 176.313802802805 24.951455498417854
170.56224352088128 154.57741125537564 19.820546528176155
172.3546717861081 180.13131257520752 20.248334010250705
172.83897571124587 179.17491300208982 16.30405864162609
177.51716370309146 156.5554771692097 30.70337819748899
175.831229536776 156.93481378994372 22.34267303716413
172.7968919034077 180.24409175610634 21.946707810044444
160.94675920179975 167.15795672799433 18.823104442223123
160.67763315118202 180.1047462804838 40.74112112848429
167.5403000224442 177.53500097777064 17.90395156322359
161.18871006357574 161.62871334641733 47.66581279900614
163.44307188308017 170.0527412357176 12.722390456615104
163.47657265203634 158.0621134601068 49.10719680679464
165.40577397127254 156.02749621598952 53.26808866994387
163.31161616015498 158.02115876331786 46.98414943447277
165.70416307617043 174.26784291565042 13.805242161473922
164.61571314396676 156.03510119894506 48.292749894045805
162.07720259096456 155.77447576507006 36.00190591423818
164.85979180240656 174.71021022123603 15.229159506827031
181.01224144679176 170.58456714245375 12.033349138642576
165.97474583767848 154.8420994680168 22.707978751382456
180.73912577117045 157.0512051005624 35.391027956796144
174.02016116306095 170.25932163317304 8.26585977422457
165.80028452970822 180.934783589765 35.15216520871029
160.85306699946344 175.22544768866294 23.428716799171365
178.6388227448404 180.6921870771489 17.690132835988596
175.17946078251623 160.24748781774153 12.145171825044184
170.64018477649287 155.38065032788103 17.403802323563006
158.8045965268203 170.53153916912322 41.86133959078266
176.15695465668387 156.55420815005692 25.838160022662834
178.21463868659416 158.28986067529846 23.749798717773512
167.22228118881534 158.37249686176673 13.41315221553611
172.43758985909622 152.95739362212217 33.59611850001022
161.4790667480538 160.225888807159 23.370744884725553
177.66191181881246 158.6685297217706 21.29962170738026
173.42167259251784 155.223143644215 23.788895827768098
175.9582939379639 157.93745167850665 19.34897294232174
165.57132914532946 153.4729600308988 26.887429554668103
182.04601036327819 163.00362168294518 25.21584887692412
180.02370178325756 168.1816902434707 10.607933501218579
182.45045748874992 165.3504149949908 20.374941991807717
184.13553029585108 173.04329671760664 18.800997980743816
169.58957049805346 161.06217679123398 10.120166407255976
167.2613421695899 180.10931435212058 31.214548261635645
176.08666284441432 155.07235072096873 32.16269768358703
172.49872276796157 152.8152748675172 51.82752053974826
171.56197724029582 153.12304903295666 31.570156246207517
161.88903158573734 174.78710927088133 19.110741332419018
159.33814046401773 170.76187563797853 30.250170178279713
179.2226560308011 157.33346374191413 31.661231646785062
177.50705203523293 152.7065380854344 44.946438103639544
157.64785692898784 171.70373422965352 46.441651905431414
169.30576333157504 166.35186192929496 8.639485560045687
178.64220715399904 154.54836103976712 50.84444286594694
173.27642612239563 173.00116566318238 61.34878010006367
174.8735350041952 153.57329038332892 33.96150050369452
171.2483755059242 152.24488225099293 37.62453594768869
177.44616806526727 156.98874003625116 28.425823800643666
176.95158890606734 153.37827112170422 50.09463733884242
179.30964150134557 153.83547499163424 46.3342343281239
166.73669271221908 153.1441105735946 29.926285054362623
173.04242193077692 152.60742807070713 38.374849144933826
172.9054861216207 167.31195819092318 60.017494066514764
165.88392345946593 177.71482228947983 49.189398372627444
172.46554495617497 152.1823679476687 47.43261233579145
173.98477274793868 152.17347673699186 43.322863926935355
165.21784525093423 179.10835228729658 27.04983496812947
178.67060942244012 154.1228274567454 39.44239809976326
183.36518085189118 171.3810434138256 16.31098434671352
163.27797462414804 173.35221158275513 15.83482464776583
179.37050360155138 153.7575783282598 41.28085542033051
160.9980391873168 168.4652872707747 20.097516989667206
178.06215872922127 156.4215412767505 33.09848409863593
170.3556215365653 152.75200251885283 51.787990303207906
172.29117974922806 151.88703797744066 44.89474011300228
177.25397481726338 160.74707383034882 13.342742281089262
179.5024801022878 153.80725107764508 43.756422525913585
167.03166867782525 152.59451948097734 42.21165158211512
158.70528255855967 173.52359573066607 29.928084816535705
180.65283973594597 163.56113393251528 57.30895695688799
173.36762270004238 152.69380120098447 36.14003381299564
167.5136842911984 151.912464799298 38.063508066693586
167.94059238721525 152.9644207686322 47.32618443418803
184.44190560516992 172.7601964359092 52.81994716804617
167.3251073127173 156.1124973603154 16.25609977047963
175.77884967817275 153.77696040594836 36.23509791847845
157.39857125554695 172.54574540332467 37.00309077006754
168.84622794063816 152.5424948895267 34.81060469033528
170.31141536236953 151.94968358621728 43.99365339781121
183.03306074838176 165.6924969260711 54.63019748198252
167.3499221240473 163.59135152448616 9.418820804751164
181.75384147199006 162.50669677737142 55.47111687023739
169.09238259468512 151.79173523708607 36.72257481590898
174.44076420393526 153.49245307015158 51.512230936160215
173.48353972663355 151.9759978694182 41.468663113093584
167.32958324082003 152.4058833495509 40.12341234427432
170.10189684690147 152.564136340355 33.11891302293733
162.14216311568617 157.1812167272968 42.19167594210754
171.8067204464917 151.89378553170198 40.09270641940994
162.9346020722482 155.32961781174566 27.401975425821266
163.25810918568777 159.95383986330495 16.227781872643213
164.3461316095749 181.20603031886355 39.50681895511406
180.7216483143871 159.89013202112724 29.074391881261146
180.0211034010026 159.97820304418116 24.45807452947429
179.9008494946875 165.93823190320475 12.417240167073022
180.0386736833784 164.24219794013612 14.548061366835423
183.81813317527576 168.436599498765 20.954508560227897
169.99324037377102 155.70358565088856 57.212456335304786
175.81720693045287 152.79014052114408 39.58700613684241
180.62029754745976 162.53184008884782 20.419412469269403
169.63614385905282 155.48814089606174 15.263169024483416
181.24425534974472 162.1582678190249 23.459281417975383
184.97598954543025 169.30410488556257 50.31070466196037
162.3622642887219 158.8325181971091 18.15000625624928
179.33629963708287 175.25846327282247 11.173267263486053
174.370702271159 176.56643957593343 59.68497246434687
181.4284552482637 157.25365599667188 51.536829734916765
176.7405512640974 159.11508680854595 16.326802620205765
178.0290165848249 165.97516997118584 10.326313999913637
172.37277394537375 154.1403757715428 53.06785849547631
170.02089137607805 154.24699975123715 54.49002996332152
182.95127443997814 169.3831279338831 15.641887791562246
179.41458882929578 160.29338580736228 22.0742941245934
184.54527677897352 173.32245369421986 48.57867723021994
173.0284603953239 155.74988854242793 20.218780288776042
162.32412140043354 168.14972813999637 14.685932790265236
172.09529430282407 171.60785831744076 7.953799318000108
163.90735041516658 154.00509442964267 39.03063744587991
164.1105290029187 154.07511037842673 29.746017172335122
174.78539033939714 152.44472180147804 48.80395422223477
167.8412480030756 153.1667023393457 50.030784859443926
167.93139215346352 153.67334714563847 24.520805822788088
184.98445726927932 172.30723403980008 46.322182798506184
180.95977476106475 166.05565817746694 13.973280455494876
167.49440719340245 169.38687492308082 8.903198474958948
185.00070484384105 164.34215242518113 46.98469803341346
158.37138468895992 177.61561646856896 32.69005312481174
174.9016131709718 152.18395481941505 45.79967930510244
173.63309478546515 154.83013532159868 26.653730027297115
176.81064269753324 175.3864282042401 59.896450704139
180.06373730996063 170.2496569435763 10.11303756220647
167.85153036745783 154.6818890578172 19.79869111511027
176.1026472570086 177.41104225864837 58.04521723704896
163.66339294899498 166.86312566270402 12.191803688908708
179.25221373690175 157.8577051269052 29.618374477348723
165.29277073366896 180.7023271118974 44.13330659735553
185.1364505596531 164.17992573537325 44.81214924546631
158.9991647055812 170.15819670257582 35.910638728564365
168.82375051104464 153.00017857184824 27.694566761918527
157.05613792988578 177.22343083187008 41.06605096733302
170.2527061240422 179.08098319923954 19.999426351794774
161.55173220951022 166.98162790427574 15.95536074918145
164.6061496729374 176.4628501587623 18.265612430337473
161.61382120577315 163.6348084014751 19.008145359372474
178.81634400584016 162.4580015509925 13.958757803645994
185.17367710714748 163.9848007944348 42.56918087263932
175.89871997673043 152.46595993787753 43.63678523721707
165.0036909669355 179.25789555209118 47.536449549872266
165.6282158103483 153.14861579385484 43.55036072812795
164.04934254312883 154.00017513849946 36.59594648297821
168.6376596568681 179.4394195436824 29.270426576573218
172.46277662495785 152.55890757363875 50.05281984669
171.66626372042668 179.21083598043967 18.081746759023392
170.18005451767 152.26415412656655 46.15762184371481
175.27026845851825 155.28258184159557 29.16888413928858
162.49844906192126 170.9528560155534 15.587501036371933
169.95328861416448 163.64978423886978 8.651326112017475
179.0346891351986 154.97920789608798 37.71885622282492
177.12699083139975 152.96682405934328 47.48588462194436
167.36354319495288 152.5733152107046 32.858282441361574
162.68699176684046 179.69516695803895 47.41723653867228
162.93867240383082 155.17838571371087 40.677296277495195
164.83352252407775 153.3518012881755 33.98147833520539
160.5834344066699 173.35945133122078 51.97985255218262
168.73223429370302 176.25660375688372 14.11949830489901
161.82714579291567 156.23414654681008 33.49174957453989
166.30606538814905 154.18224506007556 48.46337525428126
184.42431296896305 162.46468314853817 37.412146791884375
184.56055099349712 167.10483554365317 50.80042963300929
163.86469423166633 162.3382513015968 57.732001342974065
170.33663456071983 154.2605853699636 22.238990046338678
182.50685706375705 175.36146476224724 54.6596331715046
178.51757681445577 160.28942793852121 19.11890629511552
184.036582908738 162.6062733452009 35.28781346833263
174.83690910385937 178.15721582913804 55.890129194702226
167.61737352847732 154.08599553036376 52.75595954732966
165.71272973447057 152.96989420349308 38.4728366574523
168.79121156350342 175.72066278451555 12.383136699058127
170.17549395490605 152.44262101224786 48.81632075669429
185.3536645733294 170.66908674956014 34.7101583865265
171.08674537579773 153.9006655829166 25.60276927076816
185.28314518342896 167.74135045801393 46.82748177285126
163.28790685611085 160.1121015830608 55.84079782418751
179.2472439143152 155.8209546500001 35.36182978831925
161.08189820160783 172.96750539540568 20.295937006731883
169.45549053268132 152.75029338874663 30.657574974851237
182.47615959695958 165.6262519677768 17.901275578454964
181.24387203581298 161.25795457616297 26.42092337076095
178.92470293840725 161.8069298505791 16.166408781132734
POLYGONS 1668 6672
3 2 1 20
3 8 3 2
3 10 6 4
3 10 4 9
3 22 0 7
3 22 7 23
3 24 54 459
3 20 28 2
3 7 6 29
3 7 25 23
3 23 25 57
3 57 25 26
3 27 24 459
3 28 27 32
3 8 32 33
3 8 33 9
3 29 34 30
3 29 30 25
3 25 30 26
3 31 32 27
3 32 31 36
3 36 37 33
3 38 37 42
3 38 42 39
3 40 37 36
3 41 37 40
3 42 37 41
3 57 58 56
3 57 26 58
3 459 59 27
3 61 60 26
3 26 60 58
3 59 86 62
3 31 27 59
3 31 59 62
3 35 64 61
3 31 63 36
3 39 42 66
3 39 66 64
3 65 67 40
3 40 67 41
3 66 42 68
3 41 91 68
3 42 41 68
3 15 50 76
3 76 50 77
3 50 53 80
3 80 56 78
3 80 53 55
3 80 55 56
3 797 104 86
3 82 86 59
3 60 61 87
3 86 88 62
3 62 88 63
3 64 66 89
3 64 89 87
3 88 107 65
3 90 89 66
3 66 68 90
3 65 110 67
3 67 110 91
3 95 566 73
3 73 566 74
3 101 74 566
3 85 87 106
3 106 89 128
3 87 89 106
3 88 105 107
3 89 90 128
3 107 108 110
3 109 111 91
3 91 111 90
3 136 114 115
3 96 115 114
3 96 97 115
3 136 115 116
3 115 97 116
3 97 119 116
3 97 98 119
3 116 119 820
3 119 98 99
3 100 124 122
3 100 103 124
3 469 460 127
3 469 127 104
3 147 146 126
3 126 84 85
3 126 85 147
3 126 146 144
3 85 106 147
3 107 149 108
3 130 128 90
3 90 111 130
3 109 129 111
3 722 113 134
3 812 137 614
3 136 116 138
3 118 139 165
3 146 147 145
3 147 106 148
3 150 148 106
3 106 128 150
3 150 128 130
3 150 130 151
3 149 178 152
3 149 152 108
3 153 151 130
3 141 171 169
3 141 143 171
3 147 148 175
3 147 175 145
3 203 145 175
3 179 175 148
3 148 150 179
3 179 150 151
3 179 151 180
3 207 180 151
3 151 153 207
3 209 154 129
3 163 194 164
3 217 192 191
3 164 194 195
3 164 195 167
3 179 205 175
3 205 179 180
3 176 181 178
3 181 206 233
3 181 233 209
3 216 622 217
3 227 203 228
3 205 228 175
3 203 175 228
3 202 229 204
3 253 205 180
3 204 229 230
3 204 230 176
3 231 253 180
3 180 207 231
3 206 283 233
3 216 237 240
3 216 240 622
3 215 241 239
3 215 193 241
3 242 622 240
3 622 242 218
3 274 227 228
3 769 227 274
3 276 252 229
3 229 252 254
3 229 254 230
3 253 231 280
3 206 281 283
3 293 261 264
3 239 264 261
3 239 241 264
3 293 264 266
3 264 241 243
3 264 243 266
3 269 245 267
3 274 760 769
3 300 274 228
3 277 253 280
3 277 280 278
3 252 275 302
3 252 302 254
3 231 279 280
3 306 650 822
3 262 290 263
3 612 289 287
3 263 290 291
3 263 291 265
3 265 291 294
3 265 294 267
3 296 267 294
3 267 296 269
3 760 274 299
3 300 299 274
3 325 277 278
3 275 327 302
3 279 304 280
3 304 278 280
3 331 310 306
3 306 310 650
3 315 312 313
3 313 318 315
3 291 316 319
3 291 319 294
3 320 294 319
3 294 320 296
3 321 343 815
3 815 749 321
3 347 760 299
3 347 720 324
3 324 760 347
3 325 299 300
3 329 325 278
3 304 328 278
3 328 329 278
3 354 336 331
3 331 336 310
3 314 339 317
3 314 829 816
3 314 816 339
3 317 339 340
3 317 340 316
3 316 340 342
3 316 342 319
3 344 319 342
3 319 344 320
3 320 367 322
3 322 369 323
3 325 348 299
3 348 347 299
3 349 350 327
3 351 329 352
3 328 352 329
3 350 353 303
3 360 359 354
3 354 359 336
3 354 355 360
3 816 363 339
3 339 382 340
3 382 339 363
3 340 382 365
3 340 365 342
3 386 342 365
3 342 386 344
3 367 390 369
3 371 347 374
3 371 392 720
3 720 347 371
3 373 374 348
3 347 348 374
3 373 329 351
3 350 394 376
3 351 352 427
3 350 376 353
3 353 376 377
3 359 360 380
3 360 355 396
3 381 378 379
3 379 401 381
3 362 716 401
3 382 384 365
3 386 365 384
3 366 387 385
3 366 368 387
3 404 388 386
3 386 388 367
3 367 388 390
3 818 371 374
3 818 392 371
3 374 393 818
3 373 393 374
3 427 377 395
3 377 376 395
3 400 399 396
3 396 399 360
3 396 397 400
3 412 400 397
3 380 398 382
3 402 716 383
3 382 398 384
3 398 403 384
3 415 402 383
3 383 405 415
3 403 404 384
3 386 384 404
3 404 419 388
3 388 420 391
3 818 423 392
3 372 421 426
3 424 818 408
3 372 426 375
3 410 351 427
3 410 427 409
3 410 408 393
3 393 351 410
3 399 400 411
3 411 400 699
3 398 411 414
3 399 411 398
3 415 405 416
3 430 417 403
3 406 407 418
3 404 417 419
3 455 420 419
3 420 422 421
3 433 423 424
3 818 424 423
3 421 422 426
3 424 408 434
3 434 410 409
3 408 410 434
3 394 821 395
3 411 429 414
3 436 435 429
3 429 699 436
3 414 429 430
3 414 430 403
3 429 435 430
3 431 415 416
3 431 416 432
3 430 439 417
3 417 455 419
3 433 418 423
3 420 455 422
3 422 455 601
3 422 601 425
3 433 424 471
3 422 425 426
3 437 436 428
3 567 691 435
3 435 436 567
3 435 691 430
3 431 438 437
3 431 432 438
3 691 439 430
3 441 418 433
3 623 441 433
3 468 623 471
3 434 468 471
3 425 601 525
3 691 581 439
3 691 571 581
3 579 776 571
3 776 440 623
3 439 601 455
3 468 409 779
3 434 409 468
3 752 776 779
3 752 779 525
3 22 16 743
3 7 29 25
3 10 34 29
3 29 6 10
3 35 30 34
3 34 39 35
3 33 37 38
3 38 9 33
3 16 53 50
3 16 22 53
3 23 53 22
3 23 55 53
3 55 57 56
3 55 23 57
3 59 459 82
3 61 26 30
3 30 35 61
3 63 31 62
3 35 39 64
3 63 88 65
3 40 36 63
3 63 65 40
3 91 41 67
3 72 73 46
3 834 76 71
3 50 80 77
3 80 78 77
3 83 56 58
3 58 84 83
3 84 58 60
3 85 84 60
3 60 87 85
3 87 61 64
3 110 65 107
3 91 90 68
3 614 94 92
3 71 98 97
3 71 76 98
3 77 98 76
3 77 99 98
3 78 103 100
3 78 56 103
3 56 83 103
3 83 826 103
3 109 110 108
3 109 91 110
3 119 99 121
3 121 820 119
3 127 177 149
3 105 104 127
3 127 149 105
3 107 105 149
3 109 108 129
3 116 820 138
3 820 814 138
3 118 165 142
3 141 122 124
3 124 143 141
3 209 129 152
3 152 129 108
3 154 111 129
3 161 135 136
3 161 136 138
3 138 166 161
3 163 164 165
3 140 141 169
3 169 168 140
3 172 146 173
3 176 178 177
3 177 178 149
3 178 181 209
3 209 152 178
3 194 163 192
3 168 169 196
3 196 792 168
3 208 209 233
3 208 154 209
3 208 182 154
3 232 182 208
3 183 184 211
3 215 190 193
3 218 219 194
3 194 192 218
3 219 195 194
3 792 196 222
3 222 783 792
3 253 228 205
3 202 276 229
3 206 181 230
3 230 181 176
3 208 233 283
3 232 208 255
3 214 238 235
3 214 215 239
3 239 238 214
3 242 624 244
3 783 222 246
3 246 772 783
3 249 449 782
3 276 449 251
3 254 206 230
3 254 281 206
3 283 255 208
3 232 255 279
3 238 239 261
3 261 260 238
3 262 263 624
3 267 245 265
3 265 245 244
3 772 246 268
3 268 295 772
3 269 296 270
3 270 688 269
3 271 323 273
3 273 248 271
3 226 769 250
3 277 228 253
3 275 276 251
3 275 252 276
3 281 254 302
3 282 283 281
3 282 284 283
3 284 255 283
3 279 284 304
3 279 255 284
3 757 306 822
3 286 257 260
3 260 753 286
3 260 261 288
3 288 753 260
3 290 262 289
3 293 266 292
3 323 271 322
3 828 272 297
3 297 272 749
3 325 300 277
3 277 300 228
3 327 275 326
3 326 275 251
3 301 303 281
3 281 302 301
3 305 282 303
3 303 282 281
3 305 284 282
3 304 305 330
3 304 284 305
3 744 331 306
3 306 757 744
3 310 829 612
3 612 650 310
3 288 293 313
3 313 312 288
3 314 317 290
3 290 289 314
3 313 293 292
3 292 318 313
3 316 291 317
3 317 291 290
3 295 297 815
3 815 343 295
3 749 298 324
3 349 327 326
3 350 301 327
3 327 301 302
3 303 301 350
3 353 305 303
3 353 330 305
3 332 354 331
3 331 744 332
3 336 816 829
3 829 310 336
3 335 309 311
3 311 337 335
3 311 312 338
3 338 337 311
3 338 312 315
3 315 728 338
3 315 318 341
3 341 728 315
3 344 367 320
3 321 749 345
3 367 369 322
3 749 324 345
3 345 324 720
3 369 346 323
3 346 372 349
3 373 348 329
3 329 348 325
3 330 377 352
3 352 328 330
3 377 330 353
3 355 354 332
3 362 338 728
3 728 716 362
3 367 344 386
3 366 343 321
3 321 368 366
3 345 720 370
3 391 346 369
3 372 346 391
3 375 394 350
3 350 349 375
3 427 352 377
3 357 358 379
3 379 378 357
3 356 378 355
3 355 378 396
3 379 358 361
3 361 401 379
3 361 362 401
3 382 363 380
3 380 363 359
3 391 390 388
3 391 369 390
3 393 373 351
3 375 349 372
3 397 396 378
3 380 360 399
3 399 398 380
3 397 378 381
3 381 412 397
3 716 402 401
3 405 385 387
3 387 406 405
3 370 392 407
3 421 391 420
3 372 391 421
3 426 394 375
3 395 376 394
3 412 699 400
3 413 401 402
3 402 415 413
3 403 398 414
3 416 405 406
3 406 418 416
3 407 423 418
3 420 388 419
3 424 434 471
3 425 394 426
3 425 821 394
3 409 395 821
3 409 427 395
3 699 429 411
3 412 413 428
3 428 436 412
3 428 413 415
3 431 428 415
3 525 821 425
3 428 431 437
3 438 432 440
3 416 441 432
3 439 455 417
3 441 416 418
3 433 471 623
3 437 567 436
3 438 579 567
3 567 437 438
3 440 776 579
3 579 438 440
3 581 601 439
3 440 432 441
3 441 623 440
3 752 581 571
3 776 752 571
3 468 779 776
3 776 623 468
3 601 752 525
3 32 36 33
3 15 16 50
3 77 78 99
3 99 78 100
3 84 826 83
3 100 122 99
3 122 121 99
3 143 124 826
3 826 124 103
3 144 826 84
3 144 143 826
3 140 820 121
3 140 814 820
3 121 122 140
3 140 122 141
3 160 135 161
3 190 161 166
3 166 193 190
3 814 166 138
3 168 814 140
3 168 166 814
3 203 173 145
3 145 173 146
3 182 153 154
3 161 190 160
3 190 189 160
3 792 193 168
3 168 193 166
3 200 196 171
3 171 196 169
3 173 200 172
3 227 173 203
3 232 207 182
3 207 153 182
3 214 189 215
3 189 190 215
3 783 220 792
3 792 220 193
3 200 173 226
3 769 226 227
3 227 226 173
3 231 207 232
3 257 235 238
3 238 260 257
3 243 241 220
3 220 241 193
3 772 243 783
3 783 243 220
3 224 246 222
3 279 231 232
3 295 266 772
3 772 266 243
3 760 298 769
3 309 286 753
3 753 311 309
3 293 288 261
3 295 292 266
3 828 297 268
3 297 295 268
3 324 298 760
3 307 757 756
3 307 744 757
3 308 307 756
3 312 753 288
3 312 311 753
3 343 318 295
3 295 318 292
3 328 304 330
3 333 744 307
3 333 332 744
3 308 334 307
3 334 333 307
3 334 308 335
3 358 335 337
3 337 361 358
3 726 341 343
3 343 341 318
3 333 356 332
3 332 356 355
3 334 357 333
3 357 356 333
3 335 358 334
3 358 357 334
3 361 337 362
3 337 338 362
3 364 728 341
3 364 716 728
3 385 364 726
3 726 364 341
3 385 726 366
3 726 343 366
3 368 321 345
3 392 370 720
3 357 378 356
3 383 716 364
3 385 383 364
3 389 387 368
3 345 370 368
3 370 389 368
3 383 385 405
3 407 406 389
3 389 406 387
3 389 370 407
3 423 407 392
3 401 413 381
3 413 412 381
3 412 436 699
3 579 691 567
3 579 571 691
3 409 821 779
3 779 821 525
3 752 601 581
3 154 153 111
3 111 153 130
3 202 449 276
3 818 393 408
3 417 404 403
3 359 816 336
3 359 363 816
3 200 224 196
3 224 222 196
3 224 828 246
3 828 268 246
3 250 828 224
3 250 272 828
3 224 226 250
3 172 200 171
3 250 298 272
3 298 749 272
3 146 172 144
3 144 172 143
3 143 172 171
3 224 200 226
3 749 815 297
3 769 298 250
3 126 144 84
3 614 92 812
3 812 92 112
3 93 692 669
3 113 722 692
3 805 766 774
3 804 159 134
3 641 801 694
3 825 701 798
3 234 795 210
3 213 185 795
3 687 793 211
3 793 774 702
3 796 132 823
3 832 785 69
3 669 683 93
3 832 69 683
3 683 69 93
3 796 809 132
3 809 806 132
3 768 817 827
3 697 765 674
3 765 736 674
3 157 764 808
3 764 823 185
3 14 13 758
3 746 759 819
3 45 740 834
3 667 759 740
3 96 781 739
3 739 781 45
3 94 602 92
3 70 736 602
3 216 734 237
3 734 808 213
3 187 732 158
3 185 823 732
3 183 731 156
3 155 735 731
3 731 735 156
3 730 798 766
3 159 745 131
3 131 745 156
3 159 184 745
3 729 133 693
3 155 725 187
3 187 725 210
3 155 711 725
3 733 724 806
3 806 724 132
3 724 729 132
3 133 729 724
3 724 733 133
3 134 159 722
3 722 159 131
3 234 719 813
3 825 767 719
3 830 135 804
3 804 134 830
3 800 825 719
3 132 718 823
3 132 729 718
3 718 729 158
3 131 717 722
3 717 693 133
3 214 212 189
3 214 235 212
3 210 714 187
3 210 795 714
3 714 795 185
3 235 713 212
3 713 687 211
3 183 156 745
3 745 184 183
3 774 711 702
3 774 701 711
3 757 710 756
3 669 717 133
3 709 114 830
3 800 210 725
3 725 711 800
3 158 735 187
3 735 155 187
3 212 707 188
3 707 211 184
3 159 704 184
3 159 804 704
3 704 804 188
3 188 160 212
3 212 160 189
3 702 731 183
3 825 800 701
3 701 800 711
3 697 832 806
3 832 733 806
3 732 823 718
3 718 158 732
3 713 211 707
3 707 212 713
3 155 702 711
3 155 731 702
3 156 698 131
3 156 735 698
3 698 735 693
3 211 793 183
3 183 793 702
3 257 696 235
3 285 730 695
3 695 730 766
3 45 694 666
3 45 781 694
3 732 187 714
3 714 185 732
3 713 235 696
3 696 687 713
3 674 785 697
3 697 785 832
3 158 693 735
3 158 729 693
3 131 698 717
3 717 698 693
3 286 690 256
3 286 309 690
3 690 309 285
3 756 730 308
3 308 730 285
3 774 766 701
3 766 798 701
3 707 184 704
3 704 188 707
3 774 687 805
3 774 793 687
3 286 256 257
3 256 696 257
3 96 686 781
3 686 709 641
3 687 696 805
3 805 696 256
3 683 733 832
3 71 739 834
3 739 45 834
3 798 710 825
3 825 710 767
3 160 188 135
3 135 188 804
3 722 717 692
3 692 717 669
3 756 682 730
3 730 682 798
3 756 710 682
3 682 710 798
3 785 674 768
3 768 827 785
3 93 801 681
3 681 801 641
3 134 113 830
3 113 709 830
3 692 93 681
3 681 113 692
3 767 710 822
3 822 710 757
3 96 739 97
3 97 739 71
3 5 678 21
3 21 678 19
3 5 0 678
3 678 0 19
3 308 285 335
3 335 285 309
3 834 675 76
3 76 675 15
3 834 748 675
3 675 748 15
3 256 695 805
3 805 695 766
3 695 256 690
3 690 285 695
3 671 673 819
3 48 754 673
3 673 754 819
3 827 672 775
3 775 672 666
3 819 759 671
3 671 759 667
3 759 746 748
3 834 740 748
3 748 740 759
3 733 669 133
3 733 683 669
3 93 69 801
3 69 775 801
3 694 801 666
3 666 801 775
3 671 667 642
3 642 667 666
3 48 673 761
3 761 672 817
3 817 672 827
3 672 761 642
3 642 666 672
3 113 681 709
3 709 681 641
3 709 686 114
3 114 686 96
3 135 658 136
3 136 658 114
3 135 830 658
3 658 830 114
3 631 603 657
3 666 667 45
3 667 740 45
3 213 234 236
3 213 795 234
3 785 827 69
3 827 775 69
3 162 654 157
3 654 796 157
3 610 767 822
3 236 234 653
3 653 234 813
3 823 764 796
3 796 764 157
3 236 651 237
3 651 236 653
3 258 610 650
3 650 610 822
3 259 649 287
3 287 649 258
3 259 651 649
3 213 808 185
3 808 764 185
3 262 647 259
3 259 647 240
3 262 624 647
3 236 237 213
3 237 734 213
3 808 734 186
3 162 157 186
3 157 808 186
3 259 287 262
3 287 289 262
3 237 651 240
3 240 651 259
3 761 673 642
3 642 673 671
3 767 813 719
3 767 610 813
3 781 641 694
3 781 686 641
3 95 117 118
3 117 139 118
3 812 654 137
3 137 654 162
3 95 636 117
3 139 117 635
3 92 765 112
3 112 633 812
3 112 809 633
3 633 809 796
3 654 812 633
3 633 796 654
3 94 636 630
3 630 636 72
3 72 634 73
3 73 634 95
3 72 636 634
3 634 636 95
3 186 629 162
3 191 618 629
3 163 628 618
3 163 165 628
3 628 165 139
3 162 629 137
3 70 631 736
3 70 603 631
3 806 626 697
3 806 809 626
3 626 809 112
3 186 734 217
3 217 734 216
3 800 719 210
3 210 719 234
3 819 754 835
3 240 647 242
3 242 647 624
3 265 624 263
3 265 244 624
3 218 192 622
3 622 192 217
3 614 620 94
3 620 635 117
3 618 191 163
3 191 192 163
3 186 217 629
3 629 217 191
3 137 618 635
3 137 629 618
3 631 674 736
3 618 628 635
3 635 628 139
3 778 657 615
3 615 657 603
3 670 70 630
3 630 72 670
3 94 620 636
3 636 620 117
3 635 614 137
3 635 620 614
3 48 613 754
3 287 258 612
3 612 258 650
3 43 611 46
3 46 611 72
3 43 670 611
3 611 670 72
3 258 653 610
3 610 653 813
3 219 218 244
3 218 242 244
3 258 649 653
3 653 649 651
3 607 43 46
3 94 630 602
3 602 630 70
3 92 736 765
3 92 602 736
3 697 626 765
3 765 626 112
3 314 289 829
3 829 289 612
3 167 784 142
3 665 223 197
3 223 665 221
3 164 167 165
3 167 142 165
3 167 598 784
3 598 665 197
3 142 784 592
3 784 598 723
3 723 598 197
3 685 120 592
3 223 584 197
3 502 715 685
3 593 123 715
3 502 582 170
3 582 592 784
3 580 723 197
3 248 577 271
3 248 503 577
3 575 503 248
3 723 170 582
3 582 784 723
3 526 502 170
3 580 197 584
3 584 595 786
3 565 580 619
3 120 685 566
3 566 685 101
3 118 142 120
3 142 592 120
3 221 688 223
3 688 531 223
3 540 565 539
3 539 565 619
3 715 123 585
3 123 574 585
3 585 574 596
3 773 583 593
3 296 556 270
3 271 577 556
3 101 555 74
3 221 554 245
3 554 195 219
3 596 555 585
3 585 555 101
3 118 120 95
3 95 120 566
3 75 607 46
3 73 549 46
3 46 549 75
3 73 74 549
3 549 74 75
3 737 546 47
3 545 551 47
3 606 544 49
3 47 551 544
3 44 615 616
3 616 615 603
3 271 556 322
3 502 526 715
3 715 526 593
3 170 540 526
3 170 565 540
3 125 539 199
3 125 773 539
3 539 773 540
3 587 660 589
3 531 595 223
3 595 584 223
3 645 538 198
3 198 538 225
3 270 531 688
3 270 576 531
3 573 513 738
3 536 509 247
3 247 509 595
3 509 786 595
3 584 786 580
3 580 786 619
3 782 201 225
3 225 201 198
3 587 527 520
3 540 773 526
3 526 773 593
3 583 522 593
3 593 522 123
3 583 504 522
3 660 587 573
3 786 521 619
3 199 520 125
3 125 537 773
3 773 537 583
3 568 645 518
3 518 645 198
3 521 786 557
3 573 587 513
3 513 587 520
3 199 521 568
3 568 521 645
3 589 527 587
3 645 557 538
3 645 521 557
3 538 557 536
3 568 520 199
3 595 531 247
3 531 576 247
3 536 557 509
3 509 557 786
3 102 508 507
3 685 506 101
3 101 506 585
3 685 715 506
3 506 715 585
3 225 538 505
3 504 500 491
3 576 503 247
3 503 536 247
3 273 807 248
3 807 575 248
3 592 502 685
3 592 582 502
3 81 501 82
3 500 527 589
3 575 505 536
3 536 505 538
3 578 661 637
3 661 552 596
3 575 536 503
3 505 575 807
3 807 249 505
3 491 500 464
3 464 500 589
3 245 688 221
3 245 269 688
3 580 565 723
3 723 565 170
3 469 104 680
3 680 104 797
3 637 508 102
3 195 554 665
3 665 554 221
3 249 807 794
3 504 583 500
3 583 537 500
3 125 527 537
3 125 520 527
3 500 537 527
3 54 472 81
3 560 456 472
3 508 637 574
3 619 199 539
3 619 521 199
3 665 598 195
3 195 598 167
3 123 522 574
3 596 552 555
3 555 552 79
3 507 491 703
3 797 476 680
3 703 491 476
3 660 570 589
3 570 464 589
3 198 201 738
3 568 513 520
3 568 518 513
3 501 703 476
3 476 797 501
3 456 488 472
3 472 488 81
3 573 738 470
3 470 738 467
3 570 469 680
3 570 660 469
3 201 202 467
3 782 225 249
3 225 505 249
3 513 518 738
3 738 518 198
3 680 464 570
3 460 469 660
3 573 470 660
3 202 782 449
3 202 201 782
3 660 470 460
3 177 460 174
3 177 127 460
3 738 201 467
3 54 81 459
3 459 81 82
3 81 488 501
3 501 488 703
3 174 467 204
3 204 467 202
3 460 470 174
3 174 470 467
3 574 637 596
3 596 637 661
3 508 504 507
3 507 504 491
3 507 514 102
3 488 456 514
3 632 480 530
3 102 514 490
3 490 514 456
3 577 503 576
3 574 522 508
3 508 522 504
3 326 251 700
3 251 794 700
3 322 810 320
3 320 810 296
3 322 556 810
3 810 556 296
3 245 554 244
3 244 554 219
3 51 708 477
3 708 607 75
3 608 831 552
3 52 477 831
3 82 797 86
3 82 501 797
3 20 639 28
3 530 684 608
3 530 605 684
3 684 605 52
3 577 576 556
3 556 576 270
3 54 604 472
3 472 604 560
3 605 706 52
3 547 802 706
3 706 802 52
3 548 789 480
3 480 789 530
3 548 605 789
3 789 605 530
3 488 514 703
3 703 514 507
3 608 661 578
3 608 552 661
3 799 787 639
3 639 787 24
3 604 787 627
3 627 560 604
3 17 463 548
3 799 495 787
3 495 627 787
3 530 457 632
3 530 608 457
3 457 608 578
3 632 456 560
3 632 490 456
3 632 560 480
3 560 627 480
3 632 457 490
3 490 457 578
3 552 831 79
3 79 831 477
3 74 452 75
3 75 452 79
3 74 555 452
3 452 555 79
3 52 485 477
3 477 485 51
3 52 802 485
3 485 802 51
3 17 532 479
3 799 640 532
3 787 604 24
3 24 604 54
3 490 578 102
3 102 578 637
3 105 591 104
3 104 591 86
3 105 88 591
3 591 88 86
3 249 794 449
3 449 794 251
3 204 176 174
3 174 176 177
3 323 700 273
3 323 346 700
3 273 794 807
3 273 700 794
3 349 326 346
3 346 326 700
3 480 646 548
3 548 646 17
3 480 627 646
3 477 708 79
3 79 708 75
3 28 643 27
3 27 643 24
3 28 639 643
3 643 639 24
3 824 597 463
3 20 799 639
3 20 640 799
3 607 790 43
3 607 545 790
3 790 545 47
3 802 762 51
3 546 43 790
3 790 47 546
3 551 762 780
3 547 648 802
3 648 762 802
3 607 644 545
3 545 644 51
3 607 708 644
3 644 708 51
3 597 572 523
3 51 788 545
3 545 788 551
3 51 762 788
3 788 762 551
3 548 655 605
3 548 463 655
3 463 811 824
3 824 811 479
3 463 17 811
3 811 17 479
3 495 17 646
3 646 627 495
3 495 799 532
3 532 17 495
3 597 523 547
3 523 648 547
3 18 512 1
3 1 512 20
3 512 640 20
3 608 684 831
3 831 684 52
3 780 762 648
3 47 544 737
3 751 625 600
3 600 625 18
3 751 550 625
3 616 750 44
3 44 750 737
3 616 546 750
3 750 546 737
3 491 464 476
3 476 464 680
3 586 689 771
3 49 727 606
3 727 679 606
3 640 451 532
3 532 451 479
3 48 511 613
3 517 444 559
3 444 535 755
3 517 497 679
3 679 497 11
3 517 559 497
3 534 528 572
3 572 528 771
3 534 586 528
3 528 586 771
3 496 659 542
3 659 763 542
3 542 763 534
3 659 586 763
3 763 586 534
3 659 516 535
3 535 516 563
3 659 496 516
3 516 496 563
3 771 533 572
3 572 533 523
3 771 529 533
3 533 529 523
3 721 664 778
3 48 761 664
3 551 498 544
3 544 498 49
3 551 780 498
3 498 780 49
3 737 493 44
3 44 493 721
3 493 668 721
3 523 529 648
3 648 529 780
3 547 652 597
3 597 652 463
3 547 655 652
3 652 655 463
3 49 489 727
3 529 771 489
3 668 487 606
3 737 544 487
3 487 544 606
3 727 489 689
3 689 489 771
3 824 475 597
3 597 475 572
3 475 534 572
3 529 489 780
3 780 489 49
3 534 473 542
3 542 473 621
3 534 541 473
3 473 541 621
3 706 605 655
3 655 547 706
3 541 534 475
3 475 824 541
3 465 659 535
3 689 803 727
3 517 679 803
3 803 679 727
3 659 465 586
3 586 465 689
3 13 676 656
3 4 445 3
3 445 590 3
3 19 599 758
3 758 599 14
3 14 481 742
3 742 481 835
3 677 599 743
3 743 599 19
3 1 553 18
3 18 553 600
3 1 590 553
3 553 590 600
3 496 461 563
3 748 458 15
3 15 458 677
3 748 746 458
3 458 746 677
3 640 512 451
3 21 609 5
3 746 481 677
3 588 18 625
3 0 453 19
3 19 453 743
3 0 22 453
3 453 22 743
3 13 450 758
3 758 450 466
3 13 656 450
3 450 656 466
3 755 741 12
3 12 741 742
3 755 676 741
3 613 712 754
3 712 559 12
3 600 448 751
3 751 561 550
3 550 561 496
3 751 461 561
3 561 461 496
3 656 482 466
3 656 461 482
3 482 461 751
3 451 462 479
3 621 541 462
3 15 447 16
3 16 447 743
3 15 677 447
3 447 677 743
3 563 454 535
3 535 454 755
3 563 676 454
3 454 676 755
3 451 562 588
3 588 562 18
3 451 512 562
3 562 512 18
3 448 466 482
3 482 751 448
3 563 777 676
3 676 777 656
3 563 461 777
3 777 461 656
3 550 446 621
3 621 446 542
3 550 496 446
3 446 496 542
3 621 462 588
3 588 462 451
3 517 465 444
3 444 465 535
3 13 741 676
3 479 510 824
3 824 510 541
3 479 462 510
3 510 462 541
3 588 478 621
3 621 478 550
3 588 625 478
3 478 625 550
3 5 609 445
3 466 443 21
3 21 443 609
3 466 448 443
3 443 448 609
3 559 617 12
3 12 617 755
3 559 444 617
3 617 444 755
3 754 712 835
3 835 484 819
3 819 484 746
3 835 481 484
3 484 481 746
3 3 662 2
3 2 662 1
3 3 590 662
3 662 590 1
3 590 486 600
3 609 448 486
3 486 448 600
3 38 543 9
3 9 543 10
3 543 34 10
3 3 569 4
3 4 569 9
3 3 8 569
3 569 8 9
3 34 543 39
3 39 543 38
3 5 494 6
3 6 494 4
3 5 445 494
3 494 445 4
3 28 499 2
3 2 499 8
3 28 32 499
3 499 32 8
3 6 442 5
3 5 442 0
3 6 7 442
3 442 7 0
3 609 486 445
3 445 486 590
3 677 833 599
3 599 833 14
3 677 481 833
3 833 481 14
3 835 791 742
3 742 791 12
3 835 712 791
3 791 712 12
3 742 770 14
3 14 770 13
3 742 741 770
3 770 741 13
3 758 705 19
3 19 705 21
3 758 466 705
3 705 466 21
3 559 663 497
3 497 663 613
3 559 712 663
3 663 712 613
3 778 638 817
3 817 638 761
3 778 664 638
3 638 664 761
3 511 48 664
3 670 594 70
3 70 594 603
3 670 616 594
3 594 616 603
3 817 564 778
3 778 564 657
3 817 768 564
3 564 768 657
3 11 558 511
3 511 558 613
3 11 497 558
3 558 497 613
3 778 524 721
3 721 524 44
3 778 615 524
3 524 615 44
3 631 519 674
3 674 519 768
3 631 657 519
3 519 657 768
3 43 515 670
3 670 515 616
3 43 546 515
3 515 546 616
3 11 492 668
3 668 492 721
3 11 511 492
3 606 483 668
3 668 483 11
3 606 679 483
3 483 679 11
3 517 474 465
3 465 474 689
3 517 803 474
3 474 803 689
3 493 737 487
3 487 668 493
3 721 747 664
3 664 747 511
3 721 492 747
3 747 492 511
