# vtk DataFile Version 3.0
A great-looking cell
ASCII
DATASET POLYDATA
POINTS 537 double
54.021423795102535 161.36731766229744 16.23555542117298
64.3412828727757 147.6634548508431 5.022366640849293
72.06245443721905 149.46398885881158 28.889757290778526
51.748050604333415 157.50839377481103 12.575918673776505
66.66723643905911 147.99400100442708 35.747493456034086
70.31949021505834 156.68804024935287 12.821289294591612
50.74520628189484 149.9081826848369 12.1276442478074
60.35997525607735 161.35228476936194 26.997640131502937
60.701570075778974 137.82965406216132 11.750594569228575
65.1508444112197 133.3097332293818 28.356017240556778
63.13335795499286 161.10862008438062 14.031067426253998
56.86778098902097 140.9492986558741 10.683583153108037
72.15853455645569 142.17317048450275 11.407921479535293
56.16185238484053 134.95353243919493 20.181914691005158
71.82362692257794 146.24163853412583 8.304317779425018
59.64130267678411 155.6550684829634 8.075937659925664
59.739881267816315 152.9718918443521 34.2573590178631
53.79783631048425 142.34249012969454 13.876816201761697
57.80316604672679 153.65638468397137 7.556826962517246
56.081945504999794 143.38733652404005 9.439226264635902
56.97413774086504 157.0503371549915 32.38416083883444
50.84367186645158 155.25510077234347 11.79298127106428
49.9391058336432 154.705064172239 31.431713358775383
55.36988471250291 130.85752628955174 31.68368524189493
72.13472673013126 155.3831702779575 14.449595064495414
73.8201765768532 150.45204248571835 16.962815288897726
58.32324015040232 163.54624737631926 21.80079405577596
61.11133370856229 160.7062891735564 12.621215420127147
74.43535817627503 142.51467875960626 24.834341789104954
70.19914997443527 138.49754682670044 15.771190252939808
71.43646513430386 136.03916973974296 27.044057841546014
70.36213872257458 144.0329874859182 34.4927898825146
56.5757041215896 137.88429373917575 15.117519589284743
73.59588431822623 149.1944073058353 12.329210711679012
54.535179679492096 162.2837574683739 18.33914199880433
64.12882196497603 150.61241815098393 5.41489964680939
62.08069428433812 141.93780391379022 37.322912435133084
57.62199352745265 150.82934486257003 7.038079389687639
64.90722989353247 139.03956300078693 10.603892064543532
62.750501043769546 137.400382960518 12.703860199032292
68.08039749385088 151.67278212525477 32.28219709618754
54.4036950144446 161.13503084207954 27.191591532550138
72.87207995498797 149.62517696081318 25.920721784257275
53.220187531686854 144.1871850647156 12.86704955275849
61.84198588848494 136.50149692624365 35.46829344229285
64.22953210625144 161.88284120741966 23.137697959510795
74.05588473869183 147.79118285357674 17.445645467737183
56.51204536320487 155.58430643755162 8.645380415012221
65.82628236320804 156.01379758315016 29.91973858943722
52.43151000678265 142.67359942616878 15.79741377407959
54.50989192306305 143.8021143857803 11.11461617765856
66.14601200717782 158.97915507796432 11.778152851141561
47.910033071564875 145.57160478474492 22.651789375381504
72.95219920353706 149.1644665498905 9.931902470626024
65.47458660472823 141.23670147530856 8.143230256128657
66.36040657203445 145.75291240577485 36.18191959165213
55.04676538501414 159.67895894311738 11.890443779837065
52.39762404616839 159.94721559961184 28.368794063288135
68.72863704147743 149.83817421679862 33.66056912100247
65.02993687398804 133.544189499109 32.110755949086624
73.673951281657 146.79964071290473 25.62943174837242
71.45940475527777 156.89583898894645 16.832392317192983
47.43010036573418 147.41284246878797 20.932495043028826
51.543289143266016 154.33681241618493 32.61677330154581
49.81096261649035 144.62554419828672 18.052357465342613
51.82570095435447 151.79642647677906 10.557726659261814
49.2377807965486 150.7435598082999 13.713971395056546
46.64091289555617 152.63520209217296 19.325747551426392
73.10841438498332 138.25324772577295 21.621966137381712
58.52816169402936 147.71469115950254 6.183627584303122
62.43461456588869 152.35522994254106 33.85188646846938
57.638723229205205 163.494019826213 20.159268262648784
73.27651253060027 140.63544749095226 18.7726781296526
54.02667313400054 141.82908722336214 36.91445671478951
49.755950896981425 159.9808142895228 19.940880840085246
63.91294616790516 150.7899623735325 34.91294403984116
58.66948262427773 155.3203225477054 32.91395242314351
63.7314891297055 153.88399940855055 6.798862258925061
67.21246241117419 152.38687795375384 6.470800724705092
69.57999376651269 157.21279343682087 24.016508504487327
62.92995487120141 156.3756742760563 30.68631168384266
52.10491385774986 147.9444179231868 35.46988108906919
47.533223867504816 157.21173760060782 20.86282538559817
70.61756331934708 149.2445143501382 7.240243092170576
50.20818505242067 160.44463627447556 23.654193202068925
72.55595454804059 153.5513041907125 13.646830628769802
63.54571473609897 139.7625535494466 8.992872973465637
53.669511917648556 158.56810458161365 11.595684003467891
51.033955649068936 158.53857908738857 14.304397319815093
64.28918752434839 135.5849828946215 19.671039318576447
71.02913336800339 143.1525381300119 8.853582359742145
69.12574006760597 159.05609122013377 20.587909693587644
56.31820375385454 163.146826081822 21.423646475867006
50.97193197433643 142.47163558953378 18.54296525337534
47.13556539364715 148.27440573517868 30.42573480531172
69.36007827757255 136.68408008187467 20.206537908444503
64.17650630181187 154.2577122701588 31.50430977370123
72.86659986142352 141.75310421373084 14.050779623600278
73.06169316427786 152.99310370002664 15.829290993771098
55.019559908121316 142.07313044738353 12.162436848693616
60.90755707054655 161.98199820270978 14.926452808835503
73.92528181586239 141.94069101199955 19.977284960322226
73.60331551203366 140.35280136971227 20.89650611987343
61.609558143868256 158.83551910615628 30.203034611646114
51.230751872823 157.92180675437916 30.118897943172765
57.14030453451403 135.61813429922955 17.218902098439848
51.017207311562906 145.90764837743905 35.693768494246555
58.70046429981559 158.5057224785561 30.79900471993159
72.22402399196237 153.2648596933965 24.379911421647204
71.77392542106502 140.39293176696316 12.85741580549574
62.63621663326168 156.42019156006313 8.249978018215161
51.48823965704388 161.21929518701367 20.20675963691631
73.90814685093237 147.9075692946999 22.72748820198744
59.7793382616006 160.2591337120659 28.763365371674215
46.59893767357824 148.944414338596 28.039055418079702
47.158447388120855 156.83344433122747 23.10691173609712
62.07757742788375 135.9644108819439 15.314494956519637
56.44042780692023 153.4992821651841 34.30733534095344
48.72339989339578 158.96963862567534 21.987129072737613
65.0243370823096 160.23153674748053 13.496378171660078
68.70563645354464 141.14891994972456 9.465699515831451
74.06789054261583 143.9025501292484 20.188248154779007
64.10863675538702 136.23447758856955 17.09090204570523
52.61287180782544 132.62111660289307 26.217599333015087
66.53380857566928 160.65134209492118 17.180770184118156
59.29971436976458 145.7577179478589 6.288770876747728
57.3227027559715 160.36422614008222 29.329410395895003
66.8177159005301 136.24081546402834 20.37872732473161
48.398359079089275 152.64726018019036 14.47815935863367
59.79450173963333 144.39258787864685 38.69180161849396
49.385852325469415 159.43270668985443 18.135251578539265
68.48269379115919 145.059075334241 35.56765005630347
56.66092373017962 145.53791001236738 37.50560440633642
59.914116125905174 143.65977738859172 6.76278425867432
72.10071000551231 148.0950308141719 30.74416178811883
47.1852752210142 147.28392011610876 23.941794530783675
48.87551705765109 144.78743842285027 20.551517083052765
53.855153509555976 133.50959755567112 24.48972335252701
61.812976320385104 163.1602720282779 20.265317859781135
66.68721278418484 133.97345904283992 30.128638319186148
68.11429475089588 134.86361270202224 31.617261946637583
73.96688156726357 143.98344439391252 27.134697574706497
67.82029809073398 139.44684721199152 11.803331496203603
59.16648455616921 132.9787813738551 21.709254442304236
74.25533007996016 139.77606641596563 26.409574720374703
53.85913105062071 147.92712358194296 9.699500072696809
48.134907572760795 150.35117950394906 15.831685542184154
66.35545173417906 137.2236804038047 16.14508906097282
66.80083476807788 155.09460154465708 8.198724670264287
46.562436228586016 150.1555957156537 20.07047923392169
64.97388619306909 143.09317938803073 36.775996437979636
65.21445894022794 159.62596566728035 26.72466238815029
72.7487632467153 144.85820104702202 10.571516057223862
54.61190331643538 140.4872547464283 14.734435112623208
69.89532470630445 136.0444676843842 32.40044147041114
54.97753018313715 160.0348101342454 29.07493587998182
66.61357596470887 138.53907905010868 34.4061061790874
63.29804229277452 134.77653374934226 33.98062465375982
58.84928623895517 138.95233689843883 11.041561510583637
73.95318675494076 145.0683585342307 17.82284287011741
69.34153535877228 141.89359639102895 34.72849239191799
65.77917323081056 137.83552396846986 13.35273898602061
57.440180880101586 145.26832183659388 7.425846236577947
54.11833729048167 145.78597597799424 10.265971187134292
73.13514934852864 148.12627258713312 27.46008004295567
49.84204283005883 148.41391562521588 14.44807948679997
57.85284667810971 148.8675149775284 37.33077506164179
61.64437307681151 161.7102997456196 25.59076151572329
52.19741617338672 147.91753204313062 11.079692012760296
74.13988380611652 142.27109433668173 22.023888937501948
67.61733184027872 142.79855930084503 35.634903343918566
61.99809452033916 133.9011410368208 21.410588873709468
66.24663605945979 145.3844239111604 5.3630166195204545
72.57258094467765 140.37741166186015 31.29465818447099
67.78310311007169 137.17500150534542 18.31320210776384
59.6736134938587 142.0976912992442 37.86433175130651
58.388127790690014 133.66639904970603 35.47304674896331
69.65769385675463 138.98481096161467 33.62851178698367
72.92359100456638 139.04799409707113 19.672020576732752
51.139928395169015 146.14919562453053 13.280085432919064
51.999051399257446 161.6370614871213 24.52194146315902
51.897582303114305 131.04646745202479 32.170078245852125
73.07719206881136 141.11123152925933 16.502948647416687
62.57934381295426 161.99880886177343 24.052056612994978
70.25585625734205 140.5727363374993 11.457126600051179
70.09517435853535 155.81078708338893 10.971161613562092
74.03945358444379 144.92450040178815 22.962274436147055
47.261175757366445 154.46983576718583 18.62110304660976
63.503685674546546 143.4916973598031 5.875970411551744
57.32284020760997 131.49517112487055 30.69598163472559
61.53020256208951 146.51898132390414 5.275488420068644
68.62269443078502 156.17158781979853 26.807780722207763
56.85876150713843 155.61531212124365 33.63488429223366
46.76476431793254 139.30727839235485 29.174818362549185
70.09678332287505 157.80411721957432 21.387152485092216
73.26375618906056 146.38176261389717 29.2568763736388
48.611306111362815 143.50365077826288 23.01439745039764
72.098615901426 152.04749712403859 9.901187675838917
73.39384581817569 151.45458854288682 20.83608506013741
73.78948268747477 147.01061849711346 12.168617579092992
72.30157726306537 138.74241941516604 17.454730202257554
64.61899372398787 155.78226621437312 8.045373608135305
58.50003264896737 136.73185497208812 36.57676055752543
47.683133156704336 144.28765371321765 30.68517953783787
73.3145375166661 150.71434635999782 23.1067006028477
63.57235153625217 133.4324766676463 24.908298430094376
45.9741656091254 151.66708917056607 24.61494466299707
51.97153020580526 140.24215413701845 19.27026687901352
48.56223445774267 144.8660631550905 33.64581648948704
61.15805733468988 133.72482874486656 34.124560452580994
53.225936032773355 153.78043154906635 33.83625232007081
57.01914541477632 163.3621256394954 23.36884370234692
73.08319934560375 151.45749912774266 12.810302273005775
51.947846788247745 149.90659403963812 10.650521322951269
56.40329298992938 131.3975971577402 28.934340505308665
58.88846572800051 159.77204115245797 11.011780153131006
61.82794198606794 140.9160159585286 7.946740501226487
51.8961009935453 142.73458659841913 36.60930630859928
70.1374090073058 152.25728465978307 7.958769427047157
73.4245123891898 144.16023991464456 13.134667945466134
46.7940324126333 154.90295100335976 20.916393496819115
50.319093783814246 160.53033882945323 21.619521329240236
73.69390125955708 143.42984568411958 15.787425302278427
52.26749028204796 156.42966715107684 32.32944674205626
52.754806339750374 150.93188602213755 34.770569962123844
53.522377871261746 150.0954272475257 9.330686026660471
46.87755127361112 152.80311435431736 28.42218311861083
68.18391843639765 154.51934780278202 29.217902119673727
52.54139850510634 159.07473317284897 13.336696448655896
72.5727002949201 155.27386041178644 20.55758689405026
50.990643607227 143.6869760229587 17.020215210221508
61.11206715100756 150.64796951341452 36.20188264435088
69.28324619708886 147.67494612682478 35.17930695430486
70.98621253607637 153.41725899005164 9.583057280492667
72.54947803642334 155.08101695120848 16.387776427643868
53.24210963009395 152.2494898155426 9.42442440299614
73.92184224532215 146.07077665606928 15.14106766087655
60.26475554402548 132.71758691605922 24.23814434614643
52.49586143183713 132.70824243767515 35.37339280743342
73.07623216539228 138.15165723967127 29.268695582345075
71.6791754637393 150.754775070888 8.551891896458713
70.37831281141445 149.42549596682505 31.904997883825022
74.16656838856271 146.53554817279922 20.197109531284827
65.84636368642035 136.5709388066476 18.341777848258182
65.00573841872419 140.04674741487148 35.57104037770611
58.01964208485163 136.10608175320792 15.329441605187126
63.527430408481656 138.06193350172205 35.49945917533845
66.75172327566534 134.3310861520304 25.403761149305485
63.06726050908767 133.08627059291138 33.339652607539
70.03893502091621 137.4688346516689 17.91573577318473
47.82156277304895 145.01617726778971 24.895851935059078
53.54930383201578 139.7219063679868 37.03041913893546
52.7430915289473 161.08141420776164 26.27924821346448
50.28112538198075 132.91758434341938 27.85153555678239
56.15441981477071 157.3758494920632 9.259610039983501
59.48712919928486 136.96562761901677 13.672750921563015
70.72286525510461 135.79017246864782 30.308787179557893
46.29220289154527 154.27068191420233 23.79808080279756
49.856039479497085 157.7032840781645 15.395247598130485
46.34101991900789 149.19728753128868 25.561570469554265
71.46978206220099 154.20400219576692 11.63016190757442
68.20336377236418 159.40520175938738 22.461573294949876
47.728997326932806 144.5133319279864 27.171173739749158
47.43473352483613 145.68566002114068 29.250591092079993
60.23924587525279 139.89547000007482 9.343476120336154
51.779890949602375 161.57679901483002 22.31983327545229
49.64573866643945 146.63855571791618 34.18301646537934
55.08673211568723 152.79138335454567 8.377311065147891
50.68546908064589 141.17025701945946 19.988178113489987
52.56965869137115 137.71521388259512 20.79203502427152
50.86434099678004 160.2003161139977 26.07080465178089
55.04472145636913 155.80475582619806 33.40507337666162
50.690547232213596 144.92305631560166 15.658226685326625
58.47092869236435 132.0345908455218 32.558678976601975
70.3248274010152 144.62209278773804 7.369059339545935
56.087820329171514 162.91504989063773 19.340436802577702
49.791391172300955 143.52884147392606 19.481741670227464
47.949085327815034 133.65087773475287 34.4983636280286
62.38268119266205 162.74043416122157 22.415728557127238
50.38429298455754 137.58695690587896 23.29731937676851
52.77095703372041 161.48469292347045 18.42646390904369
71.52276539563948 153.79181332571537 26.131517897215005
48.530158315687125 156.90015013173957 27.379696199044172
60.22086434798839 134.9337439177995 35.886812309686135
59.69980067375139 162.517905128424 25.583298516742772
55.37458165292143 150.40871452610583 8.047319213417586
70.06894796617992 139.38345713344376 13.4991809032968
46.37078691990903 139.82537151979827 32.48341093649466
48.2795512079796 138.82049852586292 25.63852714417938
61.82801399972301 138.9862972627618 10.246037731332486
48.16561343430378 142.32337745619913 25.797667539640468
68.31007337789212 158.08536887103182 12.991019699816643
47.1342365606455 137.27519613802195 27.677669707883062
67.34210518557904 156.12968371809816 28.48395211649104
72.02664015579312 139.66641082347869 14.87961764174751
53.483361639121796 158.82882627418817 30.796737421088206
58.65840839241356 141.3801351974353 8.760006824534972
55.30393957556549 134.98260319321184 36.07014100630758
70.59045100495756 141.6911015685143 10.240158477165405
73.00742654162349 137.39819102184933 24.48124160729842
46.04050536537889 152.22252533070156 21.87734770459094
63.59687225143779 132.22295508746896 29.90165606942328
72.50639123634357 143.40539642669123 31.44408971013748
49.875506564739375 158.6232000244685 27.987266036774102
48.71869329202052 132.65857370109862 31.09246039846959
48.95810628556584 140.97813343458336 23.299592368870325
53.9153097247818 162.23734724309884 20.78750229366986
70.90446490079175 135.74029510079183 24.361066773423925
73.42207469928152 143.8582333517327 29.20522808487953
69.3328398082184 146.24477880571848 6.4124100777229325
57.619494219179906 133.38366847956357 20.93289552623221
69.80078538998448 154.88534882196396 9.144571479694653
49.51921029080214 156.33357248622252 29.45042544562083
48.53356006505033 146.39977666785745 18.77286508725188
54.296854032471124 160.22817911234563 13.534428435514146
47.80524042382086 153.31547253648446 30.46959822520432
71.04651339021146 138.03694302698773 32.30234609774689
47.439335163063916 152.99436989512452 16.867094114191776
71.00945010554297 156.8873881733288 14.762689109319751
63.681466493226516 161.0332834495577 25.22509684147076
60.59274240060742 158.0749096355177 9.372140518612664
46.888848901848014 141.25666381722786 30.774348455823297
60.971075492994714 162.67317367789013 23.919383860508812
53.36019542845191 162.1802221690931 23.173603145805913
46.499654758831944 138.94562788856507 34.72979784408143
48.61624718206686 148.48950943479474 16.12182406236047
59.499555067995985 139.8498992296033 37.39280691142212
54.93234813504831 139.0541394851309 16.403595992109974
53.17363613438775 144.90451561243088 36.43587138944378
73.98553605893463 140.0361335410902 23.351224429462356
60.40774526887302 153.15304622167545 6.387719178825746
51.81280019139142 144.43767779772153 14.362807027014984
60.569505669460966 137.95090022065304 36.703954342403705
65.18473064557918 157.32330444408646 9.505667052993225
50.799817664554126 131.46948212929843 29.85597635653205
56.08851899191949 161.91885683915393 26.185270354173976
50.553861461559514 137.79862810204406 37.14328723160812
52.275659545469956 141.41246290796613 17.771755758102934
49.568263403577035 142.2535255091662 20.81842115202672
54.82107610634213 147.87732248623382 36.348030807185246
59.05398201828054 133.85284130599888 19.153471138093877
49.34848571718258 154.6659830826145 13.812455949955483
73.76424946045026 149.57333296724897 20.028601316522817
67.90623358759856 160.20540212245336 19.5575251049283
50.610359809457165 152.53164907015977 33.090728276676074
53.77770186079493 135.1882226583107 22.301686879862377
60.96414825300302 147.66489132946128 38.263360308963996
64.10430027411995 162.64581260429804 20.89096283374817
59.540280405650286 163.6138808688225 20.01391291466291
52.566210646716115 156.58467667243045 10.925893099901325
47.09394316429479 146.8453201121608 26.782365986674076
73.4423931871829 141.6500101125903 28.80787192652038
68.5977779543846 159.3229786227229 17.03669010319526
73.30602328109508 152.09949080723678 18.908910108462603
59.01751122773971 131.62172899868773 29.641045050690032
56.54356739962233 139.69850256180072 12.745997938131001
63.07329511604159 162.1366926893913 16.239321171350507
64.09666343556276 158.1301683143839 28.84713063989461
49.98809116740669 133.0011360837177 35.63328953615508
53.57312500212971 140.13594154835755 17.379551011466372
46.981693904477886 150.91531131446567 29.478844143422695
74.06487395185036 141.9840957715289 26.808346923635565
65.54913898170513 161.62608951654275 19.1698544382545
48.688922819121764 154.86331177667768 29.966305663869008
67.05948718624633 159.5215227492722 14.707578533438756
61.79575113068341 132.04845146781335 31.417257348502197
71.68281146805222 156.688833847165 19.800230076196232
72.97442172027591 146.8018851229631 10.17308197790715
61.70414645129057 132.21601137387867 27.799599034145906
54.60527571910832 154.9315688321604 8.86955862570565
61.449180764232 159.67982192102403 10.707605962136707
50.8071763252297 148.04964092474293 12.622599063757702
55.685045324266014 145.5431946847045 8.67928066682952
64.51390248308351 158.79584456094415 10.64296190776727
48.46014814237624 154.35733016172432 15.5398822406245
64.21084038737607 136.94935199326613 14.9273979186805
67.40128735998061 148.95491946793058 5.605911804747813
65.29706501282482 134.94522092620392 22.48411808763645
71.25245423537268 136.5732664988361 22.127044017775916
56.72195233783923 133.175782696474 23.286795279280014
62.11376118765439 139.04107758434301 36.395966012077785
58.696701072408004 146.70011182692974 38.396626178986395
47.92681785054257 145.8689766096013 31.951299710221186
61.58917807704741 154.96903601322376 7.066552315432469
56.44599680966592 160.66552773126432 12.248156675906978
50.9780340961362 160.37785017093256 18.315391812177065
48.51943152128288 158.3513751150093 19.496719104835
56.26996371331748 162.25651799735098 17.165646191622113
51.286957563315475 153.51106753877403 11.036150312550276
57.727576817234116 138.18583419820808 13.017746245751338
50.18371309329782 149.6001395934205 33.88052784875403
52.032683287075216 160.66731309230696 16.827527956321983
50.07557278877301 132.25651345453312 33.86714522019131
72.78609486685318 154.72731758687905 18.510473962696853
69.31580477646816 134.94468553153266 25.57595336564648
49.0195322826786 152.9494396149287 31.92349381401272
63.580124399277715 160.075321323883 11.672099662226335
57.854254614907724 143.28548960498554 7.83986801468663
58.11017217802091 151.39385619343912 35.64018081720203
53.79399242239666 149.32976009235884 35.49711062889081
65.97320068505195 143.08157735163647 6.222270651778118
47.34048252141803 135.48780858431397 36.17501002941118
47.98494224578812 138.03840056170458 36.62012419128546
68.12409977900785 156.74781457998992 10.733053697258327
46.1570973040608 151.1811808924272 27.164674719667534
64.26127816805146 148.4348861200057 36.571816836685585
48.230094772275976 133.9181529735721 28.742916432844957
56.00960305417767 139.29233290640775 37.09353587967227
55.12464370412312 162.65827084199364 23.09756103433795
49.383963905035046 139.25322534128523 23.33901661698235
56.097975064569226 158.6319023389089 10.727494067180585
56.17989704933516 161.0866370276981 27.840083658670604
66.78073366211079 135.20831781404038 33.4103079716903
65.843918946882 160.32475768735787 24.10262766287741
48.05614520983941 155.34237632959687 17.086207063767908
71.89879767956002 155.8776091634707 22.541624034825702
68.27434035446818 139.96828208618265 34.68696747140237
68.05297742248663 138.56055201809448 14.593349652328651
71.80251105840829 146.62676497328877 32.48790211102982
67.35648948044813 158.40698815614033 25.32815579336615
68.97005753927907 150.7881666661272 6.5644958464919885
58.50970943970072 162.31978591663824 16.015201816149514
65.03433497564954 136.7547026860035 34.257863662946804
57.93860280598734 157.72430332195754 9.214711346766606
54.44304879937542 152.26264255829096 34.746853409552656
66.64980742272598 149.98092106438332 34.686755619392045
48.939449192150235 156.14289071500156 15.387395164490979
61.62838162427898 154.42155877842302 32.4017232934897
47.76810492815605 140.894547139877 35.13033532710357
48.382670826481345 150.88210029220832 31.885479737434817
69.8408848917219 152.01264116489344 29.580474929833162
66.21850962349178 161.3725253596789 21.6343105162996
69.98164503508475 158.27204731494274 16.951146897820852
63.89286459548801 145.67838951795073 4.935924942742947
54.27738658543646 136.29623625355333 20.333264115757736
55.1727631381559 132.38923778593718 26.421782886283477
61.880011680917995 135.05092024567338 18.126551313626493
62.300035495702275 152.00454387878412 5.757970721461003
72.53817712452116 151.41041202012443 25.07401189474396
68.54971902474364 135.55932093011063 22.907661261878513
46.986647079840345 156.06141081103758 25.845536954401123
46.289228745570036 149.57712369067352 22.80868235070109
49.36344624338081 136.58496049449315 24.90745152297725
50.08340570886956 146.51599222676808 14.90365543657772
49.71632388685456 143.80719037428116 35.57364245854042
46.3524732962023 153.55394560315227 26.43493393769486
66.34282770060649 157.33657242932443 27.617349604146725
60.39072923759308 163.39160610513085 22.052455257989234
60.41027428207464 156.80235427993702 31.609583976711043
57.646226434428705 162.88656924718038 25.265141457181745
47.0763133112842 150.91380862999785 17.928956406724648
52.89581692792842 154.26651007580108 9.953874504653028
71.23441507982132 155.5305536167963 25.541078564398493
58.73630216404446 157.0397789354685 32.10526748101733
48.616175360415376 148.2580736634946 32.49682792924494
47.03418914631122 134.41456394334256 32.274014361736754
73.35032017339414 137.54328045393342 26.84449574224672
50.632347260117626 156.43028258979732 30.930487311187747
64.91054397419246 160.8469865333969 15.510911456630788
52.258248121185524 160.1135539370141 14.977728592047693
55.3069825626423 143.6384698001236 37.01208992073743
73.49314428151027 142.71275844176608 18.195760942714593
68.23822764129062 153.03574711696314 30.61583187955933
68.302475714171 137.15429342418085 33.66697540834263
64.81920501025773 161.8022590684824 17.26310194780515
55.7673372079222 132.15594906702268 34.51983763887034
53.16498191567732 131.25109926068126 28.843916819032103
47.74949749677656 156.34896013208922 19.00802079445314
49.19840755661886 146.78603409939635 16.499113146731517
66.6284188571239 153.70865396171004 31.17234114536761
52.83505211444673 135.02556160618172 36.55583688669573
47.579100283928184 140.78222591669288 27.37881943288509
47.66574244234238 148.54251359052557 17.92807797068075
63.02378140603497 158.53174289359578 9.86761597213401
71.56036655419571 137.69643210397481 19.802155206873106
68.42361922450719 134.4712187964554 28.353258706078854
55.43780823261442 150.63104588490367 35.600331963093005
47.82715963906945 154.83078773476316 28.279304791057424
63.432130681641354 162.617929811084 18.54994907099587
50.48159159066457 139.87227601739582 21.520916826854883
55.937405520080326 162.8955382316583 24.69814169831874
59.602261632284254 135.16592512522567 16.25653421036558
59.06734535400789 163.5271508369531 23.77625521846157
68.5913597332529 153.79796449000636 7.712148948997717
46.34851125543812 136.61842509860594 33.616295617791415
58.16006286828703 161.60131231164692 27.211121992709323
68.29809964245852 143.33668063145856 7.097029008142752
62.33269694458528 160.11872805479385 27.465244182027632
70.39944275366679 154.1621340853775 27.535581729767987
53.18273233535716 137.439839346228 37.05019153612233
55.72487333391681 147.94174500120204 8.273805373207624
53.111428277213484 138.82255987467974 18.82361244400868
48.469094539151925 135.54066071364463 26.82854678182148
54.13696476697068 162.27701070495596 25.140444200137814
49.982482982753275 152.65072780414084 12.29280462294063
58.694542087787966 161.5380498636097 13.409199889393248
65.07416754801721 152.41869320606185 33.136549433987504
60.78938037878625 162.88466927575905 17.71620383923753
69.62083153006559 158.07463033806326 15.1176263578552
48.95935560328805 157.54838866422782 17.254768435381177
47.66980875484868 142.9767721960595 32.45297237300721
48.64281241507838 158.51733785532846 25.219742074280962
69.95641342606211 158.45104937763435 18.880577065884584
46.76951689712783 135.72620558779894 29.922821480957108
54.8742831475445 137.6322879389396 18.337611149000114
51.99370621618938 136.35193311965443 22.769073631218212
56.299273816193576 161.6784906210772 14.671416962872907
70.8008971511519 140.8990679055489 33.50015105865218
63.31604337735686 153.3344180497909 32.68997729105871
50.501172110934355 159.34123475647166 16.379803384432666
56.04151748224561 159.03445539417157 31.045189473319905
57.29659165184766 142.3705244286715 37.47979909706205
58.11730291941386 163.12593036278818 18.335619054334845
54.70225579289619 157.78319495578157 32.46110025113825
51.3102294232545 134.9943991081556 24.7857768944524
58.22008038241544 132.11746771130024 26.67674115946519
51.03603111698058 140.3013580885466 36.53193798770755
52.702769820299665 146.03928072565532 11.905251896171093
63.33181753907785 145.21327166220885 37.98643828384316
50.24005224870116 135.28070250671024 36.50961242089765
73.84574583727264 149.01246859599286 14.540984748743908
68.47205406270153 137.85302982420959 16.573961368454377
47.00976433058884 147.42343505411284 28.63055512733504
54.49322498379079 156.7272289364794 9.722140303897126
71.95997096066989 152.09753988449506 26.945927900327987
47.63684567390917 142.6232580767558 29.09848445900012
73.92684351651958 144.539668871333 25.13500891887759
55.77987335416661 137.15457344284582 36.613551261109244
60.99967097524808 149.95718423424773 5.75607696830793
73.63001831844541 151.02013410669747 15.01403487554591
53.88334813312526 131.03234720228156 33.76798412430739
72.96524544679434 153.3902490555142 21.289392998244374
73.40406659185466 148.75359632916766 24.33799158167486
62.72366336298818 148.71471597912068 5.169335825017456
50.27365325780303 156.65320864171227 13.866272516515664
66.78835635276111 140.0428917361268 9.878471233341932
45.98179219403688 137.85059055908147 31.22665165689454
POLYGONS 1070 4280
3 174 243 147
3 127 243 174
3 116 375 122
3 29 249 521
3 89 436 122
3 345 13 379
3 105 340 13
3 286 294 29
3 205 171 377
3 205 237 171
3 368 237 205
3 249 200 474
3 97 222 182
3 378 439 95
3 329 144 299
3 38 142 161
3 127 377 89
3 169 121 186
3 461 121 101
3 89 171 436
3 171 340 436
3 299 68 329
3 184 109 286
3 102 169 329
3 39 161 375
3 294 97 182
3 294 109 97
3 97 109 12
3 12 109 184
3 286 109 294
3 72 182 461
3 182 222 461
3 200 249 29
3 97 219 222
3 72 200 182
3 200 294 182
3 127 95 439
3 294 200 29
3 461 222 159
3 101 72 461
3 101 102 72
3 378 474 68
3 112 60 186
3 461 159 121
3 417 161 142
3 142 120 184
3 161 417 147
3 30 307 299
3 378 95 474
3 474 95 249
3 122 243 89
3 439 247 377
3 375 116 39
3 377 247 205
3 205 247 9
3 122 375 147
3 89 243 127
3 127 439 377
3 171 89 377
3 394 439 307
3 105 481 340
3 340 481 436
3 147 243 122
3 161 147 375
3 394 475 247
3 247 475 9
3 140 475 256
3 256 475 30
3 159 242 121
3 112 342 204
3 260 212 197
3 197 212 53
3 90 120 486
3 486 120 54
3 216 188 54
3 102 68 178
3 147 417 521
3 147 521 174
3 174 521 249
3 169 101 121
3 169 102 101
3 54 86 216
3 216 86 289
3 54 38 86
3 86 38 289
3 102 178 72
3 72 178 200
3 102 329 68
3 46 242 159
3 158 264 289
3 289 264 216
3 158 296 264
3 264 296 216
3 200 178 474
3 474 178 68
3 289 38 39
3 39 38 161
3 216 296 133
3 520 33 212
3 212 33 53
3 520 199 33
3 33 199 53
3 90 152 12
3 152 199 219
3 121 242 186
3 186 242 112
3 417 29 521
3 417 286 29
3 186 28 169
3 25 342 46
3 219 236 222
3 222 236 159
3 247 439 394
3 49 17 153
3 153 17 99
3 49 43 17
3 17 43 99
3 504 32 105
3 184 286 142
3 286 417 142
3 127 174 95
3 158 11 296
3 99 19 11
3 11 19 296
3 159 236 46
3 95 174 249
3 30 394 307
3 30 475 394
3 378 307 439
3 368 205 9
3 255 8 39
3 39 8 289
3 255 158 8
3 8 158 289
3 481 255 116
3 116 255 39
3 99 11 355
3 355 11 158
3 112 242 342
3 242 46 342
3 105 245 481
3 481 245 255
3 105 32 245
3 245 32 255
3 430 40 241
3 36 518 129
3 55 405 518
3 112 532 60
3 60 532 42
3 112 204 532
3 532 204 42
3 60 195 141
3 423 15 47
3 108 415 452
3 148 333 403
3 244 36 380
3 380 36 326
3 98 353 25
3 25 353 342
3 98 393 353
3 61 234 24
3 24 234 98
3 61 393 234
3 234 393 98
3 204 531 108
3 16 231 70
3 48 469 227
3 79 191 452
3 413 419 261
3 108 531 415
3 260 85 212
3 212 85 98
3 260 24 85
3 85 24 98
3 415 79 452
3 415 194 79
3 403 333 51
3 25 46 520
3 46 236 520
3 487 7 113
3 487 167 7
3 458 124 364
3 261 431 413
3 502 352 343
3 61 366 393
3 366 194 415
3 260 5 24
3 261 79 194
3 261 419 79
3 431 261 343
3 343 362 431
3 496 425 40
3 55 4 405
3 405 4 425
3 55 232 4
3 4 232 425
3 357 80 48
3 413 319 151
3 77 78 35
3 77 148 78
3 210 63 344
3 344 63 22
3 210 223 63
3 63 223 22
3 194 366 502
3 502 366 61
3 148 403 311
3 79 419 191
3 191 419 446
3 393 531 353
3 100 10 27
3 2 430 241
3 172 1 376
3 1 35 376
3 498 291 364
3 498 5 291
3 291 5 403
3 51 364 291
3 291 403 51
3 19 50 163
3 163 50 43
3 19 99 50
3 50 99 43
3 452 191 488
3 488 191 227
3 99 355 153
3 153 355 32
3 212 529 520
3 520 529 25
3 212 98 529
3 529 98 25
3 330 528 37
3 210 271 223
3 210 117 271
3 520 236 199
3 199 236 219
3 90 14 152
3 498 432 61
3 61 432 502
3 498 352 432
3 432 352 502
3 393 229 531
3 531 229 415
3 393 366 229
3 229 366 415
3 70 427 16
3 97 12 219
3 12 152 219
3 153 359 49
3 113 103 487
3 151 487 357
3 478 347 362
3 278 45 347
3 110 201 77
3 77 201 148
3 110 333 201
3 201 333 148
3 425 58 40
3 40 58 241
3 425 232 58
3 58 232 241
3 35 533 528
3 528 533 190
3 35 1 533
3 533 1 190
3 458 10 356
3 396 27 10
3 396 370 27
3 96 496 469
3 469 496 40
3 108 438 204
3 204 438 42
3 108 524 438
3 438 524 42
3 284 322 482
3 227 462 430
3 430 462 40
3 227 469 462
3 462 469 40
3 362 464 478
3 362 124 464
3 464 124 458
3 35 78 376
3 497 478 356
3 497 138 478
3 362 347 431
3 431 347 45
3 478 138 347
3 347 138 278
3 47 254 423
3 423 254 410
3 47 523 254
3 254 523 410
3 278 183 45
3 278 322 183
3 183 322 167
3 77 383 110
3 110 383 15
3 77 330 383
3 383 330 15
3 0 506 314
3 364 119 458
3 364 51 119
3 119 51 396
3 497 356 100
3 100 356 10
3 272 64 468
3 344 224 210
3 502 91 194
3 194 91 261
3 502 343 91
3 91 343 261
3 497 421 512
3 497 100 421
3 80 96 48
3 48 96 469
3 83 53 14
3 76 427 448
3 275 71 512
3 26 348 71
3 71 348 512
3 223 271 513
3 513 271 20
3 528 437 35
3 35 437 77
3 528 330 437
3 437 330 77
3 449 485 284
3 284 485 7
3 37 69 490
3 490 69 162
3 37 528 69
3 307 378 299
3 299 378 68
3 362 343 124
3 124 343 352
3 314 87 228
3 228 87 3
3 306 265 323
3 96 508 496
3 496 508 70
3 96 427 508
3 508 427 70
3 41 335 493
3 138 447 278
3 138 348 447
3 54 400 486
3 486 400 172
3 54 188 400
3 400 188 172
3 481 116 436
3 436 116 122
3 342 198 204
3 204 198 531
3 342 353 198
3 198 353 531
3 425 75 405
3 425 496 75
3 75 496 70
3 478 464 356
3 356 464 458
3 74 221 111
3 84 265 221
3 221 265 111
3 512 348 497
3 348 138 497
3 84 180 265
3 180 323 265
3 190 433 188
3 188 433 172
3 190 1 433
3 433 1 172
3 493 408 323
3 280 306 34
3 431 45 413
3 45 319 413
3 306 408 92
3 306 323 408
3 3 349 21
3 21 349 451
3 349 523 451
3 37 285 267
3 267 285 225
3 37 490 285
3 285 490 225
3 88 459 228
3 459 391 0
3 341 426 534
3 146 317 128
3 26 211 482
3 494 341 21
3 414 187 467
3 467 187 220
3 187 67 220
3 0 387 506
3 512 421 387
3 387 421 506
3 523 87 410
3 278 447 322
3 322 447 482
3 512 387 275
3 67 149 300
3 467 386 499
3 430 2 524
3 2 42 524
3 7 485 113
3 113 485 126
3 280 34 0
3 265 306 111
3 111 306 280
3 295 57 104
3 104 57 303
3 370 215 27
3 423 410 215
3 92 275 306
3 275 34 306
3 322 284 167
3 167 284 7
3 226 315 477
3 482 447 26
3 26 447 348
3 45 183 319
3 319 183 167
3 3 88 228
3 3 534 88
3 448 427 80
3 80 427 96
3 165 66 6
3 128 494 66
3 66 494 6
3 410 56 384
3 384 56 314
3 410 87 56
3 56 87 314
3 396 473 370
3 333 110 473
3 65 6 494
3 384 215 410
3 41 411 335
3 41 155 411
3 449 480 335
3 449 211 480
3 480 211 408
3 499 258 426
3 88 534 258
3 258 534 426
3 195 418 302
3 241 232 418
3 423 320 15
3 15 320 110
3 48 293 446
3 446 293 191
3 48 227 293
3 293 227 191
3 458 119 10
3 10 119 396
3 524 488 430
3 430 488 227
3 487 103 357
3 270 84 501
3 84 118 501
3 37 18 330
3 330 18 15
3 37 267 18
3 13 504 105
3 452 281 108
3 108 281 524
3 452 488 281
3 281 488 524
3 513 295 223
3 295 104 223
3 451 235 65
3 65 235 225
3 451 267 235
3 235 267 225
3 506 495 384
3 100 27 495
3 15 18 47
3 47 18 267
3 104 457 223
3 223 457 22
3 104 312 457
3 457 312 22
3 413 151 419
3 419 151 446
3 493 252 41
3 41 252 57
3 405 75 231
3 231 75 70
3 20 510 513
3 126 155 510
3 216 133 188
3 188 133 190
3 82 115 118
3 118 115 501
3 427 76 16
3 16 76 117
3 166 398 476
3 166 231 398
3 398 231 16
3 103 107 448
3 448 453 76
3 76 453 20
3 448 107 453
3 453 107 20
3 272 443 179
3 179 443 165
3 272 468 443
3 443 468 165
3 296 397 133
3 133 397 162
3 296 19 397
3 397 19 162
3 333 373 51
3 51 373 396
3 333 473 373
3 373 473 396
3 19 372 162
3 162 372 490
3 19 163 372
3 372 163 490
3 110 320 473
3 473 320 370
3 126 510 107
3 107 510 20
3 364 352 498
3 364 124 352
3 24 318 61
3 61 318 498
3 24 5 318
3 318 5 498
3 485 411 126
3 126 411 155
3 74 118 221
3 221 118 84
3 22 395 344
3 344 395 429
3 22 315 395
3 395 315 429
3 260 185 5
3 5 185 403
3 260 311 185
3 185 311 403
3 21 534 3
3 21 341 534
3 81 390 266
3 344 429 390
3 449 335 485
3 335 411 485
3 482 449 284
3 482 211 449
3 82 118 386
3 386 118 74
3 414 426 374
3 374 426 341
3 226 360 315
3 315 360 429
3 506 384 314
3 67 450 149
3 67 317 450
3 450 317 146
3 128 341 494
3 128 374 341
3 477 445 226
3 477 440 445
3 441 300 149
3 441 206 300
3 445 257 206
3 206 257 300
3 228 459 314
3 314 459 0
3 92 211 26
3 92 408 211
3 225 145 168
3 168 145 163
3 225 490 145
3 145 490 163
3 62 136 52
3 74 130 386
3 386 130 499
3 130 509 499
3 220 115 82
3 220 257 115
3 275 387 34
3 34 387 0
3 444 106 266
3 266 106 81
3 444 328 106
3 106 328 81
3 414 374 317
3 317 374 128
3 335 480 493
3 493 480 408
3 224 344 390
3 390 81 224
3 94 454 429
3 266 390 454
3 454 390 429
3 82 467 220
3 82 386 467
3 206 404 445
3 445 404 226
3 206 259 404
3 263 382 94
3 231 346 405
3 231 166 346
3 523 349 87
3 87 349 3
3 190 69 528
3 128 66 146
3 146 66 165
3 115 257 440
3 440 257 445
3 114 404 259
3 450 146 472
3 472 149 450
3 501 440 282
3 501 115 440
3 282 303 501
3 303 270 501
3 441 149 62
3 149 472 62
3 300 220 67
3 300 257 220
3 225 213 65
3 65 213 6
3 225 168 213
3 213 168 6
3 476 339 166
3 81 328 339
3 312 282 477
3 477 282 440
3 210 424 117
3 117 424 476
3 210 224 424
3 424 224 476
3 476 398 117
3 117 398 16
3 295 155 57
3 57 155 41
3 88 258 509
3 509 258 499
3 94 522 263
3 263 522 350
3 94 114 522
3 522 114 350
3 179 517 43
3 43 517 163
3 179 168 517
3 517 168 163
3 65 388 451
3 451 388 21
3 65 494 388
3 388 494 21
3 47 369 523
3 523 369 451
3 47 267 369
3 369 267 451
3 117 192 271
3 271 192 20
3 117 76 192
3 192 76 20
3 303 57 270
3 57 252 270
3 429 360 94
3 94 360 114
3 360 226 404
3 404 114 360
3 280 0 391
3 252 493 180
3 180 493 323
3 391 459 509
3 509 459 88
3 252 180 270
3 270 180 84
3 148 483 78
3 78 483 218
3 148 311 483
3 483 311 218
3 130 385 509
3 130 74 385
3 385 74 111
3 272 331 49
3 49 331 43
3 272 179 331
3 331 179 43
3 179 371 168
3 168 371 6
3 179 165 371
3 371 165 6
3 513 510 295
3 295 510 155
3 467 499 414
3 414 499 426
3 384 495 215
3 215 495 27
3 67 187 317
3 317 187 414
3 487 319 167
3 487 151 319
3 100 495 421
3 421 495 506
3 509 385 391
3 370 320 215
3 215 320 423
3 391 385 280
3 280 385 111
3 26 71 92
3 92 71 275
3 107 113 126
3 107 103 113
3 448 80 103
3 80 357 103
3 48 446 357
3 446 151 357
3 477 363 312
3 312 363 22
3 477 315 363
3 363 315 22
3 207 337 359
3 359 337 49
3 207 93 337
3 337 93 49
3 468 325 165
3 165 325 146
3 468 472 325
3 325 472 146
3 52 136 196
3 196 136 338
3 64 313 468
3 62 472 313
3 313 472 468
3 104 303 312
3 303 282 312
3 338 305 196
3 338 479 305
3 338 276 93
3 93 276 64
3 338 136 276
3 276 136 64
3 207 268 93
3 93 268 338
3 207 479 268
3 268 479 338
3 350 259 135
3 350 114 259
3 52 135 62
3 62 135 441
3 196 250 52
3 279 479 269
3 269 479 207
3 206 441 259
3 441 135 259
3 93 230 49
3 49 230 272
3 93 64 230
3 230 64 272
3 62 313 136
3 136 313 64
3 504 327 32
3 32 327 153
3 504 359 327
3 327 359 153
3 269 491 504
3 504 491 359
3 269 207 491
3 491 207 359
3 504 434 269
3 269 434 345
3 504 13 434
3 434 13 345
3 500 428 444
3 428 516 444
3 287 428 500
3 305 288 290
3 350 262 263
3 350 250 262
3 262 250 290
3 169 28 329
3 329 28 144
3 266 208 444
3 444 208 500
3 266 382 208
3 208 382 500
3 444 217 328
3 328 217 73
3 444 516 217
3 217 516 73
3 263 203 382
3 382 203 500
3 263 525 203
3 203 525 500
3 290 196 305
3 290 250 196
3 525 263 262
3 262 290 525
3 279 409 479
3 479 409 305
3 279 288 409
3 409 288 305
3 350 135 250
3 135 52 250
3 514 505 345
3 345 505 269
3 514 279 505
3 505 279 269
3 94 382 454
3 454 382 266
3 141 526 60
3 60 526 186
3 141 28 526
3 526 28 186
3 32 389 255
3 255 389 158
3 32 355 389
3 389 355 158
3 172 309 486
3 309 83 14
3 365 354 368
3 81 399 224
3 224 399 476
3 81 339 399
3 399 339 476
3 120 298 184
3 184 298 12
3 120 90 298
3 298 90 12
3 368 515 237
3 237 515 379
3 368 354 515
3 273 354 365
3 379 515 435
3 199 367 53
3 53 367 14
3 199 152 367
3 367 152 14
3 59 301 9
3 9 301 368
3 59 365 301
3 301 365 368
3 53 240 197
3 197 240 218
3 53 83 240
3 240 83 218
3 218 233 197
3 197 233 260
3 218 311 233
3 233 311 260
3 407 202 326
3 120 535 54
3 54 535 38
3 120 142 535
3 535 142 38
3 31 507 302
3 463 412 140
3 140 412 59
3 463 422 412
3 412 422 59
3 141 361 28
3 28 361 144
3 141 351 361
3 361 351 144
3 326 332 380
3 380 332 44
3 326 202 332
3 332 202 44
3 83 309 376
3 376 309 172
3 514 253 492
3 44 246 380
3 380 246 244
3 44 422 246
3 246 422 244
3 351 239 144
3 239 316 256
3 141 308 351
3 351 308 302
3 141 195 308
3 308 195 302
3 30 239 256
3 23 466 214
3 214 466 435
3 209 273 365
3 23 189 273
3 273 189 354
3 23 214 189
3 189 214 354
3 507 177 316
3 316 177 463
3 507 416 177
3 177 416 463
3 273 209 176
3 354 214 515
3 515 214 435
3 129 175 36
3 36 175 326
3 129 511 175
3 175 511 326
3 507 173 302
3 302 173 351
3 507 316 173
3 302 418 31
3 31 418 232
3 244 416 170
3 23 181 466
3 42 164 60
3 60 164 195
3 42 2 164
3 164 2 195
3 31 160 507
3 507 160 416
3 31 170 160
3 160 170 416
3 44 157 422
3 422 157 59
3 44 209 157
3 422 156 244
3 244 156 416
3 422 463 156
3 156 463 416
3 256 154 140
3 140 154 463
3 256 316 154
3 154 316 463
3 244 150 36
3 244 170 150
3 150 170 55
3 237 143 171
3 171 143 340
3 237 379 143
3 9 139 59
3 59 139 140
3 9 475 139
3 139 475 140
3 345 137 514
3 345 379 137
3 137 379 435
3 351 173 239
3 239 173 316
3 241 134 2
3 2 134 195
3 241 418 134
3 134 418 195
3 73 407 511
3 511 407 326
3 129 132 511
3 166 339 132
3 55 131 232
3 232 131 31
3 55 170 131
3 131 170 31
3 297 176 202
3 492 442 514
3 514 442 279
3 492 288 442
3 442 288 279
3 486 274 90
3 90 274 14
3 486 309 274
3 274 309 14
3 162 125 133
3 133 125 190
3 162 69 125
3 125 69 190
3 466 123 435
3 466 253 123
3 123 253 514
3 518 405 346
3 346 129 518
3 218 420 78
3 78 420 376
3 218 83 420
3 420 83 376
3 428 402 516
3 518 36 150
3 150 55 518
3 340 310 13
3 13 310 379
3 340 143 310
3 310 143 379
3 193 536 287
3 287 536 484
3 193 503 536
3 536 503 484
3 489 527 407
3 407 527 202
3 489 297 527
3 527 297 202
3 238 470 519
3 519 470 489
3 238 297 470
3 470 297 489
3 273 465 23
3 273 176 465
3 465 176 297
3 328 132 339
3 137 435 123
3 123 514 137
3 144 456 299
3 299 456 30
3 144 239 456
3 456 239 30
3 238 465 297
3 304 406 253
3 253 406 492
3 304 503 406
3 406 503 492
3 484 401 402
3 402 401 519
3 484 277 401
3 401 277 519
3 238 392 181
3 181 392 304
3 392 277 304
3 511 460 73
3 73 460 328
3 511 132 460
3 460 132 328
3 166 381 346
3 346 381 129
3 166 132 381
3 381 132 129
3 277 358 519
3 519 358 238
3 277 392 358
3 358 392 238
3 516 336 489
3 489 336 519
3 516 402 336
3 336 402 519
3 290 471 525
3 525 471 193
3 290 288 471
3 471 288 193
3 23 530 181
3 181 530 238
3 23 465 530
3 530 465 238
3 277 455 304
3 304 455 503
3 277 484 455
3 455 484 503
3 466 334 253
3 253 334 304
3 466 181 334
3 334 181 304
3 484 324 287
3 287 324 428
3 484 402 324
3 324 402 428
3 287 321 193
3 193 321 525
3 287 500 321
3 321 500 525
3 492 292 288
3 288 292 193
3 492 503 292
3 292 503 193
3 176 283 202
3 202 283 44
3 176 209 283
3 283 209 44
3 489 251 516
3 516 251 73
3 489 407 251
3 251 407 73
3 59 248 365
3 365 248 209
3 59 157 248
3 248 157 209
