# vtk DataFile Version 3.0
A great-looking cell
ASCII
DATASET POLYDATA
POINTS 734 double
178.63286912996134 179.53732861186307 19.425494669087154
181.40677299276402 178.70726872796135 21.18482567539605
183.17639703926818 174.81829843554482 19.41377872548329
183.47850632739093 176.36044019616182 22.12679694511124
184.39415270960492 173.5596640476922 23.789420676712815
177.57350599039833 180.76289600063032 22.16313506424136
180.24477147751546 180.48674225708947 23.76941326482912
182.6616461174994 178.66797748610514 23.722674009143077
175.20532066735453 164.16368180823576 15.552800008573696
179.38761192969687 168.49145281888275 14.981782685704923
166.2200305409632 179.7182438524078 14.778331711431756
172.6506251362113 180.99836761533598 17.933126861793692
183.98874844227814 168.11013588907022 25.319144226206284
185.36130041446216 171.1646173819231 25.969824416010084
168.04210733118953 181.53773101581746 21.459973760918853
185.25838766796258 174.15547052700867 26.829719410365897
185.41700473932573 175.20024335886814 29.592118278579004
170.6560679416718 181.7067772996505 22.992672479599413
172.61490516440654 181.0829645040335 20.885395574929294
184.02188463980147 176.67564522964068 25.545817737178773
172.13266585123972 181.97390527656046 25.676969251334153
174.32205558694108 181.46086246279458 23.304892783196905
177.22336843634818 181.3231897409355 25.04134855167405
184.08870782853506 177.85293185892394 28.48699521870052
174.6794893916697 181.5189778874711 26.421305836255247
176.87018195270397 181.56116766408041 27.79745920784164
179.59858098417345 181.33261059764212 26.8861121994069
181.20786756312683 180.55478806425617 28.966395248009064
174.81378712102756 181.54127828853643 28.58976601164334
178.77518079409066 181.52686654700153 29.51136080768985
159.66711298974914 164.58326966621365 22.42822889902818
176.02906655059937 161.15319688234752 27.936719257380506
160.27458402683428 165.39975545730624 17.37452425560829
171.5460282723164 161.3932810323333 20.406410665729723
163.52990598419862 165.1381219825244 12.34906351603966
182.15775269324504 165.6186319060453 26.51703763746194
157.7166839035645 170.2346444526613 15.793625234385212
158.84786008353146 175.16258225822153 15.402948564205436
183.88033767143014 166.76630515511187 27.83173756505615
165.57728956020182 182.1301245375625 22.347671967993005
185.82479675535794 169.58522392589677 31.167233110494937
185.85066525723602 171.96758924842624 28.896395769934763
185.84605183749045 172.7690741811613 31.8661194362437
169.61842536455381 183.0477570111731 25.617526517018117
185.2439596978066 175.62243504911146 32.655602598971214
184.56989925763813 177.39289534016726 30.961849606310494
170.9321299346718 182.87389219208384 27.507365389568605
172.87438745221243 182.09754581124628 28.063488267326278
182.7789805211766 179.32215241989815 30.774749103156214
173.7118230061089 182.15921574200456 30.15265445213469
180.38904998577488 180.9367538287442 31.419500041120237
176.1726029573051 181.78361062029916 30.3489218881178
178.13001649459935 181.45303635945146 31.63396441825151
169.99073342919377 158.24172977635837 29.836567638483796
162.36756193107422 162.2832920676666 27.170686676016135
179.0250633136111 162.73434652303493 29.404342775325183
157.41565444346946 165.72877086656925 26.364529436260565
155.38187525785412 168.58180805661678 25.601328967582315
155.26153918423628 170.819187811049 24.205364621172507
180.5315042202049 163.77966449497634 27.983075789194448
182.63322914486926 165.02537644881997 29.131596518697776
184.52318921105874 166.83718775164553 30.285308273496053
156.68189981007353 173.00612289092837 19.87044133732469
165.8123486580913 182.92558974650584 24.44514369158611
167.05972055360303 183.30512867820198 26.057150684325514
186.02138495025488 170.5438039387978 34.20152743531768
185.74809320593383 173.6062791570338 34.707373360287065
184.7982892135361 176.2694533118351 35.466993401946645
168.68035376406326 183.75403367795124 28.309631547049747
183.90056370343393 178.08017714488602 33.30304424725703
171.28884591634773 183.2132621299129 29.91507645704315
181.8805426567921 180.15340770568451 33.60553923802046
178.98757983265776 181.19907288267544 33.98606149233591
176.38315379907942 181.9026291463987 32.90887088914302
162.58831849251493 161.91563425699343 31.04508687504874
160.49081872348114 162.93001003731047 30.55978844533213
176.20371431965054 161.24292092085295 31.635944425453555
178.49294516257117 162.40882827986152 31.747816724454253
180.8689210929296 163.42684299717703 30.530982010651865
182.99178795833768 164.75021484007036 31.91436194613155
184.84914514175443 167.09560879376235 33.71071948202126
154.19909223055362 172.34946568853928 28.665916408539772
159.14416586541827 181.10990231344158 25.043752981264387
169.00036774558168 184.4292917920275 31.08247972273511
170.7214419332061 183.49700697003723 32.30544340538277
183.16419771293792 178.98525273074554 36.32378637829402
172.52230553081003 182.27203213848767 32.12612494362975
174.05707538367355 181.54222127782907 33.92451280246008
174.53455115861146 181.65448825701566 31.867550463253437
176.30290392010247 181.31880314072276 35.492984355100546
164.0575690742577 160.81400974384815 32.47762444687698
175.17574370967003 160.73014986393108 33.53651835433539
177.0384100683173 161.53342416798236 33.40521639688964
178.64601114130656 162.42297958552987 34.42814815243351
155.50103653807642 166.89215635097105 31.7044622552717
155.46989842604785 166.81016353914725 33.92923211564334
180.87209062716826 163.15600723281045 33.18306488875382
182.7913859417057 164.49300999542027 34.79663757857548
153.5110940810966 177.74931353388052 29.1255989579441
185.5366289241489 174.4030979666347 37.0804459915778
169.2712160223569 184.64007494463894 33.70979204778981
180.88459896304673 180.5848155582893 35.8120647898782
173.66515040225116 181.60405793422723 36.602920695971626
178.7344671480592 180.98545840982862 36.95843482699205
172.2730677972007 156.3994019157793 37.058338049428535
166.01588428095326 158.05063289520191 35.36339698679428
173.62990129211147 158.28011255818507 37.44444584234501
175.12990708223228 160.2193609453131 37.81196025340414
176.51033729555448 161.3040480804442 35.68843902154325
160.56274126274297 162.26282757873508 35.66237643492114
178.62558165365934 162.46774438237213 36.82255316293112
156.442028508337 164.8735624017149 34.88385951796657
182.07427162000187 164.24680429741932 37.34699992363199
184.14200659287297 165.95242637252755 36.87122701578746
154.16041021344327 169.84672661381188 35.532841379267445
185.62673845262788 168.6812237144675 36.802742446948905
185.88625769390296 171.81223598202507 36.9705368603374
185.25469755694542 173.3456287066531 39.38000752760938
184.33459179125921 176.4940634626979 38.68761916305229
182.8276100235908 178.89528301195028 39.07781748624037
171.49389708225604 182.82955716633325 34.69233630340349
181.1015817531119 180.2539370044348 38.10198918797018
178.95227725414804 180.5461937681237 39.62584520248204
176.05600122228236 180.94798230436618 38.62099442251457
169.4930173077773 153.88695685801238 41.324750561116524
171.82805754533447 154.98755750400102 38.66745242425912
163.3404837670374 160.84781165423084 37.680133871190755
167.5611734060295 155.46473953501228 38.315983758620376
175.77117020218864 160.82192119318708 39.92212333210876
177.2065325221368 161.3054149229745 38.24746253591348
161.81769508370257 161.6099567296004 37.24383101382334
178.9794382025999 162.54607329459844 39.07244829101882
154.57908518503032 168.25805350122155 36.907911175252636
181.08044128992788 163.97423500215902 39.8079440009293
183.1801809629749 165.23099691644128 39.071348201291734
151.7546633576984 175.99894530918277 35.87040441104457
184.826843492241 167.2011240954903 39.462374745677174
185.6485894889124 170.24904150553604 39.53783697506755
184.69471298520446 171.86827762161545 41.87668812301742
167.73034930690707 185.79370772546028 38.01537096726519
182.7716038871411 177.65773106594787 41.28403940655382
169.75838300389503 184.44673936071533 39.18970954791138
169.63596536607005 184.55249671056865 36.44696478924046
171.40233493354654 182.8166681565526 37.74188322997729
181.25954662528397 179.74214767412246 40.59000706415659
179.34081771472083 179.90579541615176 41.99262973045828
171.25041735211437 182.6390132991628 40.327436968445866
172.7291647892557 155.07717211318518 40.530328831503105
173.6238627289783 156.37461516404386 38.95714326972491
165.1712096634862 158.64916736835053 39.95147043482354
162.01267635636566 161.420745585792 39.016419575980365
167.53945490938233 155.4038203594428 40.58458285779701
177.4700618306468 161.83640984539 40.18172147661244
157.32449211014116 163.6228494667784 40.05026002395853
178.85351198684188 163.11603020378803 41.55343728299522
154.9109428667143 166.86030829213968 40.392245562581685
182.59684922438058 166.16237331040728 41.446916961566544
152.4543142858994 173.3670012767172 41.774118914095475
160.82737662498178 186.48794979189648 42.277448681491094
152.43044942541414 182.9211126141335 38.95593058762178
184.05066646034356 168.95924966834824 41.741838261226846
165.68850487644005 185.84359442376325 42.26818451530357
183.55465947842202 174.75225491112553 41.52306945492818
167.75999728915914 185.48920214200373 40.681260331911886
181.21285547237602 178.83084649628486 42.72592290378027
171.33251143389836 182.25801511806404 42.77298031270625
177.08119163198288 180.47729282030585 41.339277534412126
174.57204564541306 180.54230310388354 41.143135214711414
173.16214869365987 181.4577942588711 39.25344733858107
166.85761627300008 156.67220386273308 42.9791422760443
173.8840869379248 156.67652602099417 41.18771121203917
175.0732286334541 160.0172216738702 41.462140220548015
164.44534098868144 160.20735588699785 42.09965694388769
176.50820947458885 161.5183333083461 42.10226090578546
160.41515826690167 162.07292972569192 40.2421597157421
156.56585275978094 164.02501121362712 41.62056043478618
154.72733823593686 170.64171994876492 45.63016547608061
181.1447188150574 165.87244378108815 43.36452646701398
153.1422342442751 173.37228100705323 45.03968553862118
182.259878270772 168.0841156890575 44.071047299060524
163.5875941160387 185.88612429886933 44.23345414394993
183.6085026353243 170.49290448186787 43.6815511673482
183.17997658307436 173.08628574643313 44.05154120004209
181.41864288547467 176.2010441446324 44.045202076269106
167.92580871018018 185.1438764680519 43.258084265344245
169.59094127851998 183.89245113497492 41.757731607802384
177.7515409855115 179.66948055468706 43.14308451947598
172.49404156548067 181.16680718131016 41.31054311503318
165.50140239780333 158.81053434850824 44.2358434293864
174.98043581724627 160.13035057391193 43.26841776841723
163.93960945957753 160.31373160458156 44.30237728715035
162.49543863906237 161.19600770734183 43.37167191093892
175.9929534238169 161.53252864429052 44.434507927841
177.70021589456442 162.90430661761008 43.95541049864994
159.02990229514558 162.85716807789274 43.821714016476996
155.4716427839673 168.14384412695875 46.08395835172681
156.03942642942022 169.9135639115188 48.3025072420815
180.31643516035868 166.27960833773022 45.35711199370327
152.72480612247887 178.47553840515766 47.92331337780767
159.34611214920724 181.64596900677796 49.89956861036058
162.89812079029556 185.25743418787346 46.81670772826839
164.95637472295107 181.67914048419394 49.617460254784476
179.40611277614732 178.62849089658368 43.93108408441757
169.77668704390496 183.62516000884543 44.37001945865652
175.73378660079067 179.93896731178427 43.20665643818552
173.5551369172709 158.6057508840353 46.434919246493656
174.60242438731973 160.23981043148422 45.24062033787717
164.04808985590506 160.70014111345563 48.56349261161277
161.2317173863511 161.9463751449314 46.892421849815406
175.2617590764236 161.84869690274726 46.31392491967815
176.74228400169693 162.75906785592102 45.67252372044502
159.95356955555448 163.38453478016203 48.77581330716283
158.29062032709587 165.44564736334232 50.06888464959816
157.16427491831115 168.1858368890457 50.85080993543643
178.16195559433137 164.50901996419324 46.06255824269534
157.11541085357115 170.75029015926418 50.37944842941441
156.37860651204403 172.14620575019333 49.340251582128765
156.35278672251408 174.4469640802233 49.06979978673768
159.3555692468535 179.0468766645386 51.17476205097753
161.5300615504847 180.02466477855344 51.2669763493837
181.18977930173853 173.4819463314348 45.93633107622509
166.84277627531768 183.15362678921306 48.14442998752419
167.81091884941165 184.7489794977144 45.84308135115571
179.02316915603328 177.24583208210151 45.837747551465924
176.83288667399694 177.34215350475773 46.73127901567407
177.1299455330193 179.01645376076954 45.09478587382165
171.34851028062684 181.46478210337963 45.405496039222975
172.99933820569103 179.9667062065363 45.577381198584824
173.11522204256508 180.30439060924883 43.40771826218984
174.76236157406106 179.48693939430018 45.08747814684288
173.37344570819454 159.83687213678022 48.485670098851145
174.18494278749222 160.54529338760264 46.97697607184668
162.04661104008858 161.7201863563258 48.95289763415239
161.2044793026382 162.8220722165445 51.32638035672154
159.51849059279468 165.0300571648319 52.48819465386727
158.92790689814106 167.84076683143113 53.26863761953866
158.16004139391285 170.50774571840643 52.36224580434305
157.86347377636508 172.99086451428462 51.006585950358705
178.79740933875735 166.99627961633158 47.36631867857513
180.0579405621642 171.34976505362332 47.02945619211201
179.03501185191112 173.525116570191 47.044335379851894
179.80339924154507 175.23333692147662 46.07093718979173
170.65388379759187 181.20788692491885 47.6046153724515
169.48997438575415 182.92665683833337 46.91025985196941
172.10255288741743 179.95136727922159 47.206147178406766
175.6205461449367 178.68068090003433 46.39668360045622
174.09731233808614 179.38399670057052 46.96321501646771
167.06510465228934 159.74187712123603 51.45333584149822
170.56387221417015 158.94273137024226 51.63366660727984
172.22781054870723 159.08202995235644 50.25189302852009
165.34417608728165 161.01979513249515 52.15693595433711
176.1555279290663 163.48827409225288 47.32777906054382
161.87881178588424 164.12006614002698 53.74507588103514
175.52674686946378 164.1249047166431 49.413840808783846
160.72901123272484 168.45259456262164 54.658711256982706
161.0171434898668 166.44309163724643 54.280407574209
176.77561122888343 165.66913060389933 48.11330217274638
160.13568816942077 170.19022408110823 53.82475779910492
160.042291552019 172.52377142999467 52.64184586280549
160.62980298744415 175.01079598867787 52.41012500284673
177.9786082065733 175.487009452059 46.9776784348265
166.99067442535548 181.04609688176967 49.463259578966436
168.86564493792508 181.3152078684357 48.638680497623994
175.0369154800838 177.73437747314625 47.80380833209003
167.21452746741582 160.80684650484852 53.34901980373567
169.2342432257592 161.21568269014912 53.832473152937865
170.52467742079494 160.15782601668892 53.05389716992396
172.10334127726614 160.3447757803197 52.07269132970646
173.27472101123863 161.04751055271709 50.35907931816798
165.43616555839208 161.93730972978187 54.32799186543312
174.15582060579155 162.98279223664798 50.639631548091565
163.08644689095996 165.6522616086129 55.29845294706658
162.45292736733919 167.8546135783786 55.45753038239804
176.4564966231458 165.99610078072715 50.494608023072466
162.04416404982663 169.90410457824018 54.865231699353004
161.69814133288313 171.45910926281178 53.828555852594356
165.93192247748357 179.46830020000135 50.89902729842959
178.1926059558599 171.8745746785482 48.34764602988625
168.45713954151992 179.8738183341033 50.373683657780695
170.7079294914328 179.54883052795412 49.212280193221865
176.24772617591816 175.91898179538998 48.34502567017753
167.65006250145842 162.30417518616187 54.9423001580817
169.78017887341431 162.95177461900937 54.916318466233264
171.36801719228924 161.93186579321593 53.606619605119135
172.9559817564483 162.250295778609 52.09898560987592
166.247580470491 164.019366922688 54.67897328539244
168.23052686491283 164.40491675816327 55.423879092300375
173.71043699354428 163.7788554317671 52.13971481267108
174.7406143647009 164.8507624299286 51.28560643094604
165.01009675823488 165.43913563276135 54.92757114685311
163.7841061694545 169.30839566630706 55.320757951441756
162.35333208945005 173.4506422285794 53.687453216218515
177.27894307550747 172.6449783235441 49.89927139108286
168.07125120455024 178.36136837598497 52.00657652144912
177.2818117946098 173.88463376356432 48.36703450630392
169.79067185527296 178.40892746781012 50.939258137645226
173.08551162830574 178.51002325909573 48.69492831404035
171.5985156666223 163.5630456989216 54.95167272567933
172.94689981284188 163.5378588591245 53.665109039367856
166.74443737144156 166.01350218978206 55.217544596362615
172.5550082388326 165.48319668737906 54.89012150803045
164.8368787708171 167.387452804408 55.83099867610108
176.50287170831558 168.23505496171626 51.3796302528746
165.66869944165578 169.6031148740204 55.09245782814052
177.3785111457757 167.79598214663324 49.21847492647431
163.96151486932152 171.15015215106604 53.90911087343302
165.27490966290253 173.93637966007907 53.568782858979695
163.09833563007587 175.9670276886973 52.91467696237139
165.93451852860338 177.0218845802071 52.87093111698029
172.07898306328417 177.66756367947522 51.12165221458952
174.42580134265899 176.65104494458882 49.79174623766471
170.32242189193363 164.97679939229133 55.30679035860743
167.18048570885063 168.05339087693724 55.85685600674467
168.79086292304765 166.48230038832529 55.745046709292886
170.94869687141363 166.99489466315052 55.87542674395176
174.00706713092828 165.15373792914994 53.13992968569794
175.33888093200787 166.56292553846032 52.38653450457485
167.8239995780901 170.09733721869551 55.25303543354238
166.3500214187471 171.77875609369033 54.82793511734729
177.19512129824452 170.36287607933323 50.053158208308666
173.82247795441884 175.27894784037855 52.09163400930316
175.80887863992 174.32181432887475 50.30031558971387
169.35425024468353 168.59946014219824 55.830760783768284
172.47537779551735 167.58754907902392 54.91120035485622
173.8488614992946 167.1109511686977 53.82252750154022
175.07791658822666 168.6216213196979 53.02305961878079
168.48561787513862 172.1177636795846 55.30919540725828
176.03508096168207 170.28156024924724 52.18148473834107
167.22574181323316 173.57149489177706 54.870608392929974
167.5796854912967 175.18298079548256 53.821710919135946
168.22900541163278 176.95088719536346 53.356735877890515
169.62412573158446 175.72298859606215 53.76138406106012
171.75027041037495 176.19248139354607 53.34749377833663
169.99816285978926 177.4778959518606 52.653728162905146
173.40930812569346 169.30292144750297 54.340142105396055
169.8713669117939 170.50923698382954 54.95309398920605
174.98110899186852 170.31860498409884 53.680774651848914
160.6140694446141 162.050336862245 42.46871455168988
155.9455310258079 166.75509063795977 26.99206337087413
161.38387757818927 162.60358698439924 32.03816523968967
156.99974451903867 165.18089244995593 28.226129764590095
158.6556767102089 163.97390345846358 29.30441069062367
157.17967997155276 163.70429350897018 38.27337858666009
154.98274444930018 168.55025102157398 27.980191259981535
158.67052814395896 162.72918205977953 39.209501239680876
154.52452996919672 169.00035374049122 33.039441148014944
155.78723956132671 164.7869343686135 37.19132694586881
154.0188839292753 169.9323348139263 37.58968218105728
154.66634569628502 168.65458662807782 30.316376842225214
171.3876186070637 169.0387369295503 55.29335546560888
154.7528976789821 168.072892233784 35.08102907352882
157.69790575443272 164.14018637815957 32.964212116245974
157.60690721759144 163.82272062102624 43.092475806090675
160.8250424598932 161.9001992400527 44.700668903335185
158.39981794891932 163.46784303934908 35.008897642787566
166.88433403267217 184.3041121929545 30.122349750118488
154.9305090559741 166.56881660210632 38.187646846107675
163.53128854096295 178.49537207742173 51.957714735231384
155.60835191744712 165.54923768685052 41.53860711636409
166.1392920421372 185.7716285233484 44.500798962807075
163.93187154139488 183.8857457018675 48.52392387181059
161.08117806819004 177.46443149451602 51.773615735968484
157.2605898493558 179.32446571036908 49.93481288728375
156.28941322484877 165.45332260644363 32.84340806501073
159.68451717332897 185.04185340064467 28.794079058502497
159.60992486082176 186.0945365502493 31.635213320198126
155.91822931482787 185.85256752547744 42.49620323099831
154.9872691941673 166.98111872172296 42.538617257065866
151.41751739193361 180.14324931148698 38.52948268979413
162.4462377800122 186.70989579606893 34.70213096638192
154.27155552677706 185.02148706941335 38.055334530657476
151.77992889645984 180.38234405119553 43.20075873787923
155.09472563576324 185.16051393497628 35.41619028528036
156.67377846759737 166.7358482587286 24.832915325653488
170.4674343358353 172.50891231842138 54.70936559600089
156.58327338999146 166.07333612292666 45.72832580108419
175.2042785374609 171.9225127771984 52.97579356360775
154.8558738176556 179.7251729166958 49.31875827248888
152.33460543807715 180.95032433142543 45.99405639745562
153.69216810374124 183.45666654876132 46.368020654226044
155.8443154589692 185.16439098365422 45.287226039705565
151.40907324227896 178.74403684680144 40.875102086085064
156.8999084080527 164.9816300005946 30.794168420753216
151.6788089799346 177.56220087145323 43.245785985671866
183.8684686622543 171.80781067152645 21.039004118402087
182.07715250069532 174.64604622867475 15.73631915299578
173.9090961404642 165.32202377326692 13.733853609300388
181.51742238290882 177.57114190127533 18.02229370626333
154.52921426035562 170.62448730945698 26.812593136747775
181.98020115608915 165.94500183219247 23.520791889801327
153.35030481591093 183.00606314615325 34.1809406553051
170.83524984125265 179.11943884996958 13.655643473287581
156.1346391628493 170.66360070089885 21.41654280943942
183.18525685097995 168.68069313275973 22.151671843769495
156.40691175412059 165.42705067315438 43.392008704438354
175.14997035262326 167.70563856378553 12.258356103955254
169.0901901199675 174.08272963558647 54.89348068135349
163.00331010206585 181.70880999267703 22.272527009795173
160.1842712786869 179.44010028756463 20.796584003438024
179.33624668077852 164.5705282070191 22.466203415581962
167.79127737761996 182.48666962896087 23.80310452096612
167.43749019546013 185.7827974535635 35.37104968367055
176.60292622651062 170.37315307523673 11.391245813083493
170.31371267020288 177.57016688232557 11.100661294233259
164.7667807981263 178.92481517803884 12.107396914146502
162.03927231005358 185.80457153734787 30.555244642795618
171.81766993840338 166.6204214008988 11.212382407557623
181.15398469252813 171.14406175846995 15.21440251766091
175.17034954791325 173.5128847928382 52.14328653224688
166.61386204124602 185.44203054695367 32.50664230516354
165.7909126454991 186.2297210724415 36.93161681762161
176.16107830353562 172.18588183143035 51.28667082384751
154.28530681654803 168.58065379997763 39.03172969202749
166.88126381902876 174.52627849246224 8.328786729677146
155.0519841655303 172.62745366328494 47.534248410568054
157.97459551097091 164.45855054173657 44.87057240537962
163.25271829587555 180.30368811729068 17.95588318696033
178.37998128576407 164.55769574418133 19.705637580273926
176.9541172856565 163.34889756193263 21.766361353073076
157.08187776958295 172.8674467516437 16.834859093172728
164.5285961486423 163.27745723901134 17.272681513576384
163.92619960103272 182.65254631903835 24.19484623981273
164.84092672607187 167.4168009947979 10.19256221745286
160.71760873357235 180.8381191010043 22.48034290451872
162.91634973924033 184.66230057083618 27.85091231453363
167.32587633267642 162.5393720341692 16.528328214571335
158.16344050447708 183.01614146700268 27.429201981771183
167.21063698682957 180.39044371118166 16.962121745631514
175.05504429723496 172.920287345318 9.957495321222725
170.21971301542138 162.87361095567792 15.968823424515733
161.6932211918588 165.8584980739802 13.282130204255687
175.28793844632713 180.64205507699663 20.121082740199807
157.45626322323298 184.95833923832856 30.60675776571709
164.73271954926975 183.81971798330295 25.921588857308173
152.46289810132782 174.78482829841778 33.40670083137485
156.02999776517711 182.0903522742888 49.40869283583848
155.88442849911416 182.95562076114948 29.283047267279926
158.1268007867072 185.6490878078195 47.04404759767603
160.68213208794128 183.34775393529372 26.44650037147442
156.51711921510906 180.68468377542874 26.958279281945895
153.98252178304284 184.22260851905045 43.535130967401805
165.27497868587355 185.16467673971718 46.555655867122546
173.42822906258024 179.8166807228415 14.928595370538696
160.86153530172763 186.72793698271505 36.89496724076996
161.65810047932072 182.2836050409796 24.295764156375522
171.11528644812682 164.38178092240472 13.649081824842519
159.3223080251159 186.89271921204178 39.369301780934016
154.221073010737 170.9815422800947 30.96970632373325
157.75107592568781 186.442039176134 36.575874489593076
153.94771361529777 184.83628537349716 40.76288757388873
154.19133227699464 180.19878897601092 28.866795143012002
162.19564424856324 172.7641010231975 9.538795256967811
172.95108280501387 174.7275988826939 54.06596631402769
152.1700761177604 177.57206085329466 33.48588830043927
157.4099099169753 185.8110600140378 33.41010671138794
162.44740667996155 169.80996579832637 9.372704728873165
160.8633384012502 178.8992007874836 18.438672139117564
155.01317198855335 173.43189782041148 25.940785180441676
168.8314648645472 179.64443558656922 15.295989288584341
165.02363838929077 171.89256917567283 8.28364664816097
168.47112831085238 172.08120146474158 8.57716864484961
155.71410617091468 184.4661265484652 47.96394784319706
155.08352697403225 184.41555248731396 32.17779849748189
158.23678137908107 186.12440189119653 44.07592163432212
152.15117568203598 181.58990571441433 36.27080284934983
151.39557270600753 178.86647280087038 35.96869604524335
169.53177583641244 174.88505401781578 9.556653923568728
182.40113571505685 179.643097048058 26.5168552042028
162.34039541446955 164.59628069076433 15.181491529915961
158.44278880743 167.93434907306684 17.354085690454998
161.0198686251961 164.22425804230747 19.96510231882771
160.01627733101336 172.9318361689159 11.557817517010802
163.35661009330255 179.59122435198577 15.152153869763238
155.98850082895052 168.40913695933202 23.049122195728646
159.87290419234103 186.81680780520858 34.27403212189043
159.8538741847989 166.9242153063372 14.3571508913011
156.96831707275646 175.46798558341564 21.340171901546118
176.24959558677278 178.28902100468605 14.071784971678095
155.10281660524365 168.849687512362 43.78023350062769
155.8079818763269 173.26223090974 22.783131270036197
158.3528970839873 176.22506179655815 50.88830112236088
169.42683432287964 161.70898712281013 18.562687694429844
172.88761077907043 163.5621254291037 15.65817029618036
164.2545083818486 181.35283279684455 20.231216831967117
165.83011855592838 161.23440567145053 24.654472805929707
151.34391731316495 177.28129093073537 38.45106280535824
154.34696836543955 170.20172566670576 28.93521608570178
156.35279554863953 186.15230961706678 39.452858752946604
163.66844458374604 180.37079030320027 50.746415502807196
163.72522549137537 186.07886568677534 32.566221508955564
172.47431835432516 172.9554126507972 54.63803484362248
154.9327052630006 177.83750177342705 26.79091081388819
157.88480895360934 184.15246974031746 49.28552897118254
155.50690818140725 177.23457713959638 49.24310160419856
158.70713594776885 179.36175438287114 22.550373798757395
173.70915310528372 171.48242434770415 54.06205493532316
151.42854531410222 175.97792804349146 41.04737025322579
155.16339254327443 166.4906929360141 36.00354246500252
152.38942644198224 173.62834053306918 35.6304212006955
153.57148973280778 181.8758807741657 31.377596783900763
151.72962585692628 175.19750837219 43.413066861604705
154.1945879660352 175.2852302855861 28.43512538299998
170.26703841061004 169.36820988599527 9.219691076609218
173.3111322447187 177.86262231466802 12.458547095688145
161.5559468069237 186.64971460295186 32.66181117989179
178.90825467006542 178.45828153063485 16.097011556553134
153.52751788197884 171.95138278667525 33.77501320955193
152.99532330484305 179.04512472698127 31.21778971348905
163.34987526932252 162.23908649128117 24.77266625239057
151.88596222200306 176.2873208576279 45.66633176405374
155.81460415048446 176.03795255563696 24.261928753953246
164.16595862447465 175.2305872003082 9.380333968211172
153.68127536773167 171.1776249496803 39.68770125401599
153.85338902149817 175.28735416056838 47.678144548264946
179.11395612050217 175.9959549863757 13.75283790020729
171.0934757885811 174.4755847408032 54.53210019678447
161.85248400372436 162.31182064232806 29.157668617662136
166.26680979064892 181.44741459904083 20.312797132891983
160.78602214901275 177.95744419696368 15.499051315361589
165.3811513237299 163.75522786555393 14.422697019659198
156.94874377203269 168.106989974038 20.32900493607299
158.6629361890782 177.63473515804304 20.209785536766454
160.77638319910164 186.06405290043648 45.647201351933234
165.53281996457358 159.2335504812251 48.130698112925515
158.46788406982193 165.22840733325629 24.717069690694117
163.53018475468156 161.34049529563018 50.71075414677987
172.10125081150122 162.38905116368483 17.9543632088176
159.95394243700142 163.0772314989947 33.01666366306116
164.63289417630094 162.05341418027854 22.3077954461522
162.18319223979003 163.365802422166 22.449391379845718
154.59820253807834 168.95255923261772 41.3710696008673
158.67915934409677 162.91495406544232 37.105492075884975
158.6838755080561 163.71665772595802 31.318773501768767
172.75171541943035 175.4573064570151 10.278302610073274
158.54239195479855 162.90350050823386 41.51251707374568
155.3234050703062 166.91776623122126 44.40888859555682
158.12990210626558 164.89211630125683 47.29052418797479
175.81833808766527 175.69013761341483 11.919894795006222
165.62018585294632 159.2070283466776 31.418211052375646
165.64155245605522 181.04634616805907 18.45434567848295
157.19787038475673 163.79846121575383 36.4648135572104
160.36836207978644 162.18284713485613 38.08247432386079
160.44402999294425 163.19574125507754 28.053065906604306
164.43156023417174 161.07280298100392 26.87539889252181
162.1544101012622 180.2185915289824 20.44770338531918
163.7358923233117 160.667905959228 34.341783327816145
157.23273087956093 178.6463827288523 24.803164443838806
170.22856906885434 181.07434340881542 19.996069051501262
171.0565266848125 180.32469288900344 15.745621415478734
174.49171431580803 160.2073502007002 31.70898740421944
173.5218684650607 160.86745073451445 24.526617134274158
158.80251600979196 164.50829757900334 26.98552798811367
165.1323969992073 180.23969427310578 16.65027153330365
159.29144398717622 162.97972538369388 46.12657253207822
160.19650014148237 170.03525931135295 11.428283683386116
162.773992079759 160.86896929782404 47.27197379857142
165.3669417894992 160.04234036660975 50.129696570410985
162.60942343864852 161.01786568397995 45.478576316131736
164.54598654839884 160.22329395982948 46.313561202931936
162.774929172773 161.3062751617635 35.76877095299384
162.91155121628208 176.83681418696435 11.312004049152494
179.11844767519207 170.71270713782118 13.011222354418717
156.57745465439245 166.92583075313854 48.18047459488654
173.56053752968737 169.77660502127938 10.241006835980855
181.29412285165583 168.8142328403817 17.418604969859885
157.45007974426525 177.44626175507452 22.619582590949573
175.92143917669407 179.82131982681562 17.035813462540197
163.47093579016817 185.9927282462809 41.49911775484489
168.97669863365124 160.87330663414122 21.36282330498561
154.0396495345611 171.10676474422831 42.86899492995463
173.70551888668777 160.30569397404938 27.458080574259995
159.89503513444294 168.3625358063488 12.569882000334408
180.3969477059351 173.18697659797718 13.4024389560793
170.89494125689637 157.57147932356818 32.806131326810736
160.7514426035898 163.62233931361644 25.223009087570592
151.71761411892624 181.05236449584817 40.70926234736561
171.30287422765832 159.83901900096942 25.760129872347747
173.53485137505913 161.37045333655445 21.990570939240236
165.30158730894084 160.19526880024813 29.004304870849786
180.120552684879 163.9644641698425 25.257261223131742
154.79695188528666 175.66017334469635 26.28421332402004
152.59147156880573 182.7437282867114 41.91561208732179
162.21853981637705 186.57767070011656 39.4216842223538
168.32062232924025 163.9998547126073 14.13092571704383
164.66881091926274 185.11905632008924 30.269865142195524
173.2693522233802 159.30895136447444 33.210687738994864
164.9430237879252 186.21507871190025 34.8391755283192
159.32696663472973 177.04035489019037 17.581360326454046
153.51527100673192 173.5959260877109 31.034875332094398
173.84763330696524 156.6923525935228 43.28019060169366
158.18616306425668 166.49059354485516 51.831407267112866
168.31204514887395 167.0928003866334 10.462428678952358
154.37662703315988 183.18553638274264 48.43404393535165
171.89294074355112 170.96716256926018 54.685640542594946
168.81159573582232 155.42094756756873 36.62765303330675
174.60081820233276 158.35362255208565 44.36494991699547
183.02436278335452 177.2390699850164 20.00012802537768
170.74344096484418 155.080675718985 37.090282633478814
153.35044813477415 183.6250593785495 36.55393884376023
162.1426495632286 178.29067411709718 13.089600881321582
170.32167939323028 154.84260143384873 46.15489376940146
171.5655366439652 154.3998274214489 42.07575736526734
162.76317074944987 183.42130404842385 25.7012143680783
174.62644126922225 158.63298333610868 39.8471348640364
182.86852611049943 171.68721080628876 17.8832547953688
160.30516338691174 176.113716392114 12.610919829169207
164.68318254508398 169.17325759281076 8.096076905104537
156.97826581585113 170.43240807941635 18.54278344484576
168.4724480589138 157.09074293969806 49.072838253351435
170.00372691959507 154.02191105225992 43.710657825800645
174.55757872464773 163.13002935616117 17.557944868889074
174.6755390635873 158.35193821198015 42.23484505803551
166.39405644407503 157.2226673349637 40.931060282665804
153.19990461620603 176.3471284896662 31.138072170098642
161.78514842710217 174.86873875716557 10.694478997309272
170.59134874322683 156.4620902839282 35.50783647325309
180.8343739749755 177.06062680272717 15.5213244899602
166.7910231360591 157.0645984322498 45.539775768426686
183.94529046110043 174.16656359302547 21.54458809121899
166.37042992726143 161.8166398423665 19.69872960584997
172.49628769321177 157.94153053307832 35.248223328410674
152.08620538861734 174.07891115944912 38.45891726654781
184.91630868274478 176.06133263250615 27.570003898868176
168.25484887599063 154.86705985918928 42.70408452406136
155.840127111614 185.75114788772726 37.36821884541524
166.61771078339 165.07924509503678 11.967952414907606
159.25430737952703 171.2477082029123 12.569852196859609
167.2282955383342 156.92541536175472 36.929526502082936
172.08880399331645 158.00406784507686 48.25671840464792
171.20519953115883 153.92037506677372 40.16559491612314
166.85450376159534 157.18639623024933 39.08519785028831
168.1825889606589 156.8367709113078 34.48911684699147
162.32494917624265 161.29910024348814 41.15002324547528
169.5393243505786 154.63710736041367 38.90266664341631
163.47048897766416 161.43229754379053 28.97488085651471
162.30700660186235 164.06003460846816 17.9334128278677
179.2580364315831 166.25493334708693 17.224558207697104
177.0969377779815 161.84360478839812 29.616313899073326
175.76639450875672 161.54528267987635 25.748697122623188
155.57519920177964 166.67866922979158 29.3129002217058
158.09815745103128 186.5006721317203 41.554802127775574
165.19218355673127 186.20361948791592 39.4179937088622
168.7912515840912 159.4166346390949 52.74608807631414
160.92410534272116 171.37931369791642 10.14860883819676
163.57120036119412 186.45605177539346 37.032928015729254
157.6679049882724 166.41372108906387 22.519846285593424
177.76161839795532 162.7045991904183 24.194788807101006
178.54713449044067 169.53796812682043 47.92021192114289
163.61993522785997 163.36969102747585 19.98521581229296
178.1720783119344 173.2866739397128 11.459462657330468
155.62419341494794 164.70328141000886 39.62427664409128
174.8151905492346 161.8198586238226 48.60497149935537
173.87893904973512 162.14644734699752 19.735301584684635
176.89357294100952 166.25418072501333 14.735551236696166
170.50757636382076 157.70479713659313 49.84368841053519
168.70179806048245 158.51008635664488 50.77230645824172
182.61268885396547 169.46621593157255 19.69105092479377
175.41240403716554 162.10865520279228 23.27071826431911
157.78556369509684 184.00660785908266 29.01867367663844
171.2658123751973 160.51131489525056 23.018691416576214
158.84008503718135 169.61073944520226 13.542862459661288
171.64682264549262 172.423236255342 9.487411038849821
164.74477953484023 159.84292478305187 38.22448909515348
164.2097955145806 160.7135933576685 30.58462698477495
172.10949872978796 156.6166554182662 46.410757488436374
166.86346598763907 157.65352873967188 47.67734024767613
166.78837133982375 160.0694251218441 26.91998725035478
182.04285051407538 170.8510530471215 45.43412399829303
177.51028654383313 168.63039594241033 13.18376686218512
166.96773090866876 169.42702089389695 8.945352988574989
182.676124489408 179.41078598728419 28.685614716286846
152.22751097444922 180.42546389612585 33.63758022125239
172.39238226175073 155.10558259643506 44.32200560738184
171.42500447123916 159.2133631574182 28.116712262439183
173.9575301844419 173.3431291043767 53.400107926309474
184.6347743578032 170.56162737434633 23.503473464358265
166.78830517043988 160.97103748760705 22.436990980779917
152.60558423914725 182.50302845690712 44.238709849197825
161.61207070376304 167.4659274140467 11.702379667879605
174.9956047470093 160.7305460117526 29.79548429022107
185.32614569448972 168.91325364562167 28.16092636795881
179.49506775063256 164.53048357330624 43.72536370547285
153.23334961212663 171.7358029037975 36.77770206370521
167.38924437761816 158.84414925540855 29.2914729257213
159.52194763694388 163.95605658189373 50.73681509455667
167.82641821288766 180.93516393569024 19.13442563690551
158.54955955933394 168.59212805246338 15.202734815828583
161.99586971349606 179.29269749678255 16.729294614845408
158.6827457453616 165.80201592776257 19.87799554072567
176.8687931040769 164.37020264299963 17.28391256340392
180.680460374941 164.66656792758263 42.0054700029033
173.23332335941777 155.25022326773373 42.30670503580669
162.39520380024874 182.16154478143378 49.97128903949617
165.5957424816836 158.25501398322092 42.048667322907356
164.54068638675858 159.84071822497833 36.1191336294446
165.88458800848784 184.48111344791033 28.003113831032508
170.32154436234393 156.65509925177489 47.84103316655436
169.6211038525435 180.70026774529643 17.476618152113897
168.21488090150888 155.31942861275144 44.76502498068082
172.83366084005021 159.07507128352066 30.363286396601737
157.92590104854585 172.40867676154798 13.751086718421973
169.24453635936115 165.40720093730465 12.262233191477014
164.64015201903757 177.14627031236847 10.568023438375699
173.7431383495861 156.76135407589186 45.20870747538463
166.4245395424057 158.05083566685434 33.320697113272274
160.86658404492994 184.95136982736418 49.00737381233984
163.7992539917549 160.5353717740778 39.68995219360191
165.01030748631806 159.38578987101857 33.833120765404146
159.201583974541 174.19514398009696 51.77262646767725
168.02217952380693 179.10079220467225 12.625482639667565
162.21661953771587 161.917545848273 33.49625795824428
165.7871650052573 158.54657735598613 46.38931836390602
180.2845330942326 163.2462972598431 37.7564830941126
159.0145033889158 174.27635862876 13.175342271395067
164.13901608769564 163.82265923010704 54.49941139100864
168.52996577235808 159.9896274607429 24.39059154633418
153.560971344281 181.46023165449722 48.29605137974743
175.19952708706174 162.35295337985977 21.24528514260963
180.6344195216563 163.14458291948398 35.73417076514824
151.71443159740267 178.76136576646505 45.2801326508491
166.914581363862 158.5904793310916 49.61170500661642
165.65092991107107 158.3179972248529 37.60959731216263
166.9253618720168 176.9923988790335 10.247505730168005
168.29932779161834 156.05276749844975 47.042057924206425
179.56979003371598 180.1250510821339 21.543134424655445
169.2045526128572 158.9882228968649 27.267462135932536
180.54903291325667 168.78037734041945 46.420420737177075
163.43963911318727 162.2685181948326 52.96206348833851
174.21399114821403 159.78826216068313 35.52373445305609
157.95706468059717 175.18245369247057 18.545647835379132
168.0230075316038 157.86395376178834 31.77823340872635
180.91364446680222 166.84785332695182 20.293241058999193
178.07066742846857 162.4701511402964 27.158329676114587
176.09233615826878 163.08866743380923 19.4944141791934
POLYGONS 1464 5856
3 431 566 11
3 5 0 431
3 7 3 1
3 7 1 6
3 14 39 400
3 11 18 431
3 4 3 19
3 4 15 13
3 13 15 41
3 41 15 16
3 17 14 400
3 18 17 21
3 5 22 6
3 19 467 23
3 20 21 17
3 21 20 24
3 24 25 22
3 26 25 29
3 26 29 27
3 28 25 24
3 51 25 28
3 29 25 51
3 41 42 40
3 41 16 42
3 400 43 17
3 45 44 16
3 16 44 42
3 43 68 46
3 20 17 43
3 20 43 46
3 23 48 45
3 20 47 24
3 27 29 50
3 27 50 48
3 49 51 28
3 50 29 52
3 51 73 52
3 29 51 52
3 579 35 59
3 59 35 60
3 64 68 43
3 44 45 69
3 68 70 46
3 46 70 47
3 48 50 71
3 48 71 69
3 70 86 49
3 72 71 50
3 50 52 72
3 49 88 51
3 51 88 73
3 67 69 85
3 85 71 101
3 69 71 85
3 70 84 86
3 71 72 101
3 86 87 88
3 87 89 73
3 73 89 72
3 108 91 92
3 76 92 91
3 76 77 92
3 108 92 93
3 92 77 93
3 77 96 93
3 77 78 96
3 93 96 718
3 96 78 79
3 409 401 100
3 409 100 83
3 118 117 99
3 99 66 67
3 99 67 118
3 99 117 116
3 67 85 118
3 86 120 87
3 103 101 72
3 72 89 103
3 87 102 89
3 710 109 527
3 108 93 110
3 117 118 162
3 118 85 119
3 121 119 85
3 85 101 121
3 121 101 103
3 121 103 122
3 120 143 102
3 120 102 87
3 123 122 103
3 113 136 134
3 113 115 136
3 118 119 140
3 118 140 162
3 144 140 119
3 119 121 144
3 144 121 122
3 144 122 145
3 166 145 122
3 122 123 166
3 168 123 102
3 144 164 140
3 164 144 145
3 141 146 143
3 146 165 187
3 146 187 168
3 337 534 174
3 182 162 183
3 164 183 140
3 162 140 183
3 161 184 163
3 202 164 145
3 163 184 185
3 163 185 141
3 186 202 145
3 145 166 186
3 165 228 187
3 337 191 353
3 173 154 193
3 220 182 183
3 667 182 220
3 184 222 203
3 184 203 185
3 202 186 225
3 165 226 228
3 214 210 193
3 193 681 214
3 216 196 215
3 220 239 667
3 241 220 183
3 223 202 225
3 223 225 224
3 222 221 243
3 222 243 203
3 247 556 720
3 525 233 232
3 213 235 236
3 213 236 215
3 237 215 236
3 215 237 216
3 239 220 240
3 241 240 220
3 260 223 224
3 221 262 243
3 245 224 225
3 264 250 247
3 247 250 556
3 251 256 253
3 235 254 257
3 235 257 236
3 258 236 257
3 236 258 237
3 647 304 238
3 277 239 240
3 260 240 241
3 280 260 224
3 245 263 224
3 263 280 224
3 281 269 264
3 264 269 250
3 252 271 255
3 252 727 714
3 252 714 271
3 255 271 272
3 255 272 254
3 254 272 274
3 254 274 257
3 275 257 274
3 257 275 258
3 258 291 259
3 259 307 361
3 260 294 240
3 294 277 240
3 278 279 262
3 279 296 244
3 286 285 281
3 281 285 269
3 281 282 286
3 714 289 271
3 271 301 272
3 301 271 289
3 272 301 290
3 272 290 274
3 305 274 290
3 274 305 275
3 292 277 294
3 279 309 296
3 280 263 310
3 285 286 299
3 286 282 311
3 300 297 298
3 298 315 300
3 288 316 315
3 301 303 290
3 305 290 303
3 318 306 305
3 305 306 291
3 291 306 307
3 321 292 294
3 280 321 294
3 314 313 311
3 311 313 286
3 311 300 314
3 323 314 300
3 299 312 301
3 301 312 303
3 312 317 303
3 325 316 302
3 317 318 303
3 305 303 318
3 318 328 306
3 306 329 308
3 321 411 292
3 293 330 333
3 293 333 295
3 321 280 310
3 321 310 320
3 313 314 322
3 313 322 312
3 325 302 327
3 335 326 317
3 318 326 328
3 396 329 328
3 329 331 330
3 330 331 333
3 309 320 310
3 322 349 335
3 322 335 317
3 336 325 327
3 335 374 326
3 326 396 328
3 329 396 331
3 331 396 515
3 331 515 332
3 331 332 333
3 334 593 349
3 349 593 335
3 593 374 335
3 376 327 411
3 408 376 411
3 321 408 411
3 332 515 452
3 593 490 374
3 495 674 490
3 374 515 396
3 321 320 408
3 452 674 320
3 12 35 389
3 4 19 15
3 7 467 19
3 19 3 7
3 22 25 26
3 26 6 22
3 35 12 38
3 43 400 64
3 45 16 23
3 47 20 46
3 47 70 49
3 28 24 47
3 47 49 28
3 732 59 55
3 35 38 60
3 38 61 60
3 65 40 42
3 42 66 65
3 66 42 44
3 67 66 44
3 44 69 67
3 69 45 48
3 88 49 86
3 73 72 52
3 55 78 77
3 55 59 78
3 60 78 59
3 60 79 78
3 61 40 80
3 87 73 88
3 96 79 97
3 97 718 96
3 100 142 120
3 84 83 100
3 100 120 84
3 86 84 120
3 93 718 110
3 718 712 110
3 113 97 80
3 80 115 113
3 123 89 102
3 129 107 108
3 129 108 110
3 110 131 129
3 112 113 134
3 134 133 112
3 137 117 138
3 141 143 142
3 142 143 120
3 143 146 168
3 168 102 143
3 133 134 156
3 156 690 133
3 167 168 187
3 167 123 168
3 167 166 123
3 204 166 167
3 147 148 170
3 173 152 154
3 690 156 177
3 177 681 690
3 202 183 164
3 165 146 185
3 185 146 141
3 167 187 228
3 173 192 189
3 193 192 173
3 681 177 197
3 203 165 185
3 203 226 165
3 228 204 167
3 192 193 210
3 210 209 192
3 215 196 213
3 216 237 217
3 217 414 216
3 218 361 219
3 219 199 218
3 223 183 202
3 226 203 243
3 227 228 226
3 227 229 228
3 229 204 228
3 225 229 245
3 225 204 229
3 655 247 720
3 231 206 209
3 209 651 231
3 209 210 251
3 251 651 209
3 238 726 647
3 260 241 223
3 223 241 183
3 262 221 261
3 261 221 201
3 242 244 226
3 226 243 242
3 246 227 244
3 244 227 226
3 246 229 227
3 245 246 263
3 245 229 246
3 642 264 247
3 247 655 642
3 250 727 525
3 525 556 250
3 252 255 234
3 234 233 252
3 214 256 251
3 254 235 255
3 255 235 234
3 278 262 261
3 279 242 262
3 262 242 243
3 244 242 279
3 296 246 244
3 296 263 246
3 265 281 264
3 264 642 265
3 269 714 727
3 727 250 269
3 651 270 268
3 651 251 253
3 253 270 651
3 253 256 273
3 275 291 258
3 291 307 259
3 647 239 277
3 276 293 278
3 280 294 260
3 282 281 265
3 288 253 273
3 273 316 288
3 291 275 305
3 647 319 304
3 293 276 308
3 295 309 279
3 279 278 295
3 310 263 296
3 283 284 298
3 298 297 283
3 283 297 282
3 282 297 311
3 298 284 287
3 287 315 298
3 287 288 315
3 301 289 299
3 299 289 285
3 308 307 306
3 295 278 293
3 300 311 297
3 299 286 313
3 313 312 299
3 302 304 319
3 319 327 302
3 330 308 329
3 293 308 330
3 333 309 295
3 310 296 309
3 324 315 316
3 316 325 324
3 317 312 322
3 319 411 327
3 329 306 328
3 332 309 333
3 332 320 309
3 314 349 322
3 323 324 334
3 334 349 323
3 334 324 325
3 336 334 325
3 452 320 332
3 327 376 336
3 374 396 326
3 336 495 334
3 376 674 495
3 495 336 376
3 490 515 374
3 674 452 490
3 408 320 674
3 674 376 408
3 21 24 22
3 60 61 79
3 79 61 80
3 80 97 79
3 116 65 66
3 116 115 65
3 112 718 97
3 112 712 718
3 112 97 113
3 128 107 129
3 152 129 131
3 131 154 152
3 712 131 110
3 133 712 112
3 133 131 712
3 162 138 117
3 129 152 128
3 152 173 128
3 690 154 133
3 133 154 131
3 160 156 136
3 136 156 134
3 138 160 137
3 182 138 162
3 690 681 154
3 160 138 181
3 667 181 182
3 182 181 138
3 186 166 204
3 206 189 192
3 192 209 206
3 681 193 154
3 179 197 177
3 225 186 204
3 238 214 197
3 197 214 681
3 214 251 210
3 248 655 654
3 248 642 655
3 249 248 654
3 304 256 238
3 238 256 214
3 266 642 248
3 266 265 642
3 249 267 248
3 267 266 248
3 267 249 268
3 284 268 270
3 270 287 284
3 304 273 256
3 266 283 265
3 265 283 282
3 267 283 266
3 268 284 267
3 284 283 267
3 287 270 288
3 270 253 288
3 319 647 277
3 292 319 277
3 302 316 273
3 304 302 273
3 411 319 292
3 315 324 300
3 324 323 300
3 323 349 314
3 495 593 334
3 495 490 593
3 452 515 490
3 89 123 103
3 326 318 317
3 285 714 269
3 285 289 714
3 160 179 156
3 179 177 156
3 179 726 197
3 726 238 197
3 667 726 179
3 179 181 667
3 137 160 136
3 667 239 726
3 239 647 726
3 117 137 116
3 116 137 115
3 115 137 136
3 179 160 181
3 99 116 66
3 710 74 90
3 703 664 672
3 549 699 679
3 723 600 696
3 188 693 169
3 172 149 693
3 589 691 170
3 691 672 601
3 694 105 721
3 730 683 53
3 730 53 573
3 694 707 105
3 707 704 105
3 666 715 725
3 538 663 578
3 663 634 578
3 126 662 706
3 662 721 149
3 418 657 717
3 31 638 732
3 76 679 637
3 637 679 31
3 75 516 74
3 54 634 516
3 337 632 191
3 632 706 172
3 151 630 127
3 149 721 630
3 147 629 125
3 124 633 629
3 629 633 125
3 628 696 664
3 106 148 104
3 104 148 125
3 627 631 594
3 124 623 151
3 151 623 169
3 124 609 623
3 704 631 105
3 631 627 105
3 620 106 104
3 188 617 711
3 723 665 617
3 728 107 106
3 698 723 617
3 105 627 721
3 104 615 620
3 615 594 631
3 173 189 171
3 169 612 151
3 169 693 612
3 612 693 149
3 189 611 171
3 611 589 170
3 147 125 148
3 672 609 601
3 672 600 609
3 655 608 654
3 573 615 631
3 585 91 728
3 698 169 623
3 623 609 698
3 127 633 151
3 633 124 151
3 603 170 148
3 106 603 148
3 603 128 171
3 171 128 173
3 601 629 147
3 723 698 600
3 600 698 609
3 538 730 704
3 730 631 704
3 630 721 627
3 627 127 630
3 611 170 603
3 603 171 611
3 124 601 609
3 124 629 601
3 125 597 104
3 125 633 597
3 597 633 594
3 170 691 147
3 147 691 601
3 206 595 189
3 230 628 205
3 205 628 664
3 31 679 570
3 630 151 612
3 612 149 630
3 611 189 595
3 595 589 611
3 578 683 538
3 538 683 730
3 127 594 633
3 127 627 594
3 104 597 615
3 615 597 594
3 231 230 205
3 231 651 230
3 654 628 249
3 249 628 230
3 672 664 600
3 664 696 600
3 672 589 703
3 672 691 589
3 231 205 206
3 205 595 206
3 76 549 679
3 589 595 703
3 703 595 205
3 573 631 730
3 55 637 732
3 637 31 732
3 696 608 723
3 723 608 665
3 128 603 107
3 107 603 106
3 620 615 573
3 628 654 696
3 654 608 696
3 683 578 666
3 666 725 683
3 573 699 585
3 585 699 549
3 106 620 728
3 620 585 728
3 620 573 585
3 665 608 720
3 720 608 655
3 76 637 77
3 77 637 55
3 2 384 604
3 249 230 268
3 268 230 651
3 732 579 59
3 732 646 579
3 703 205 664
3 657 577 717
3 33 652 577
3 577 652 717
3 725 576 673
3 673 576 570
3 657 418 646
3 732 638 646
3 646 638 657
3 573 53 699
3 53 673 699
3 679 699 570
3 570 699 673
3 657 638 550
3 550 638 570
3 33 577 659
3 659 576 715
3 715 576 725
3 576 659 550
3 550 570 576
3 585 549 91
3 91 549 76
3 107 728 108
3 108 728 91
3 543 508 484
3 570 638 31
3 172 188 190
3 172 693 188
3 683 725 53
3 725 673 53
3 130 559 126
3 559 694 126
3 523 665 720
3 190 188 558
3 558 188 711
3 721 662 694
3 694 662 126
3 190 557 191
3 557 190 558
3 207 523 556
3 556 523 720
3 208 555 232
3 232 555 207
3 208 557 555
3 172 706 149
3 706 662 149
3 211 553 208
3 190 191 172
3 191 632 172
3 706 632 150
3 130 126 150
3 126 706 150
3 208 232 211
3 232 233 211
3 191 557 353
3 353 557 208
3 659 577 550
3 550 577 657
3 665 711 617
3 665 523 711
3 710 559 109
3 109 559 130
3 74 663 90
3 90 545 710
3 90 707 545
3 545 707 694
3 559 710 545
3 545 694 559
3 150 541 130
3 344 531 541
3 130 541 109
3 54 543 634
3 54 508 543
3 704 707 538
3 538 707 90
3 150 632 174
3 174 632 337
3 698 617 169
3 169 617 188
3 717 652 733
3 175 153 534
3 527 532 75
3 344 153 342
3 150 174 541
3 541 174 344
3 109 541 531
3 543 578 634
3 531 540 354
3 676 484 528
3 528 484 508
3 33 526 652
3 232 207 525
3 525 207 556
3 30 524 645
3 30 574 524
3 207 558 523
3 523 558 711
3 207 555 558
3 558 555 557
3 75 542 516
3 516 542 54
3 74 634 663
3 74 516 634
3 663 538 90
3 252 233 727
3 727 233 525
3 569 178 157
3 178 569 176
3 512 569 157
3 114 682 506
3 682 512 621
3 621 512 157
3 178 500 157
3 434 613 588
3 507 98 613
3 434 498 135
3 498 506 682
3 496 621 157
3 492 435 199
3 621 135 498
3 498 682 621
3 453 434 135
3 496 157 500
3 176 414 178
3 414 513 178
3 613 98 501
3 98 491 501
3 671 499 507
3 237 480 217
3 218 362 480
3 57 58 473
3 473 58 392
3 635 470 32
3 469 475 32
3 519 468 34
3 32 475 468
3 648 528 529
3 529 528 508
3 434 453 613
3 613 453 507
3 135 465 453
3 135 485 465
3 464 671 465
3 499 450 507
3 507 450 98
3 499 436 450
3 487 449 366
3 366 380 463
3 81 588 501
3 588 613 501
3 705 492 199
3 506 434 588
3 506 498 434
3 63 433 64
3 492 437 461
3 494 565 546
3 565 476 510
3 437 492 705
3 546 439 82
3 569 478 176
3 483 397 39
3 439 546 491
3 98 450 491
3 510 476 479
3 479 476 62
3 438 424 602
3 695 424 584
3 489 405 504
3 433 602 424
3 424 695 433
3 397 421 39
3 39 421 63
3 584 405 489
3 142 401 139
3 142 100 401
3 39 63 400
3 400 63 64
3 63 421 433
3 433 421 602
3 139 641 163
3 163 641 161
3 401 410 139
3 139 410 641
3 491 546 510
3 510 546 565
3 438 444 82
3 421 397 444
3 544 416 456
3 82 444 423
3 423 444 397
3 491 450 439
3 439 450 436
3 259 708 258
3 258 708 237
3 259 480 708
3 708 480 237
3 36 607 419
3 607 520 392
3 521 729 476
3 37 419 729
3 64 695 68
3 64 433 695
3 11 547 18
3 456 587 521
3 456 518 587
3 587 518 37
3 39 517 483
3 518 605 37
3 472 687 416
3 416 687 456
3 472 518 687
3 687 518 456
3 421 444 602
3 602 444 438
3 521 565 494
3 521 476 565
3 697 685 547
3 547 685 14
3 517 685 539
3 539 483 517
3 10 404 472
3 697 427 685
3 427 539 685
3 456 398 544
3 456 521 398
3 398 521 494
3 544 397 483
3 544 423 397
3 544 483 416
3 483 539 416
3 544 398 423
3 423 398 494
3 476 729 62
3 62 729 419
3 58 479 392
3 392 479 62
3 37 700 419
3 419 700 36
3 10 458 709
3 697 548 458
3 685 517 14
3 14 517 39
3 423 494 82
3 82 494 546
3 84 70 83
3 83 70 68
3 163 141 139
3 139 141 142
3 278 261 276
3 416 552 472
3 472 552 10
3 416 539 552
3 419 607 62
3 62 607 392
3 18 547 17
3 17 547 14
3 11 697 547
3 11 548 697
3 520 469 688
3 688 469 32
3 700 660 36
3 470 30 688
3 688 32 470
3 520 607 469
3 469 607 36
3 511 459 451
3 36 686 469
3 469 686 475
3 36 660 686
3 686 660 475
3 404 709 722
3 404 10 709
3 427 10 552
3 552 539 427
3 427 697 458
3 458 10 427
3 477 442 566
3 566 442 11
3 442 548 11
3 521 587 729
3 729 587 37
3 32 468 635
3 649 537 514
3 514 537 477
3 649 428 537
3 529 470 648
3 648 470 635
3 424 405 584
3 502 591 669
3 34 625 519
3 625 583 519
3 548 391 458
3 458 391 709
3 33 481 526
3 445 386 482
3 386 395 653
3 445 429 583
3 583 429 425
3 445 482 429
3 459 460 669
3 460 502 669
3 428 563 661
3 563 502 661
3 661 502 460
3 563 402 395
3 563 428 402
3 459 455 451
3 619 568 676
3 33 659 568
3 475 430 468
3 468 430 34
3 475 678 430
3 430 678 34
3 635 420 648
3 648 420 619
3 420 425 619
3 554 455 678
3 34 422 625
3 425 420 519
3 635 468 420
3 420 468 519
3 625 422 591
3 591 422 669
3 722 413 511
3 511 413 459
3 413 460 459
3 455 422 678
3 678 422 34
3 460 466 661
3 661 466 533
3 466 460 413
3 413 722 466
3 406 563 395
3 591 701 625
3 445 583 701
3 701 583 625
3 563 406 502
3 502 406 591
3 1 387 0
3 387 505 0
3 636 417 689
3 689 417 733
3 399 731 389
3 566 505 477
3 477 505 514
3 646 399 579
3 646 418 399
3 548 442 391
3 604 385 2
3 418 417 399
3 503 477 537
3 393 12 389
3 9 561 407
3 8 653 689
3 526 610 652
3 610 482 8
3 649 402 428
3 561 402 649
3 391 403 709
3 533 466 403
3 579 389 35
3 579 399 389
3 391 442 503
3 503 442 477
3 533 428 661
3 533 403 503
3 503 403 391
3 445 406 386
3 386 406 395
3 709 403 722
3 722 403 466
3 503 537 533
3 533 537 428
3 2 385 387
3 407 385 604
3 482 386 8
3 8 386 653
3 652 610 733
3 733 418 717
3 733 417 418
3 0 566 431
3 0 505 566
3 26 467 6
3 6 467 7
3 27 467 26
3 18 21 431
3 399 417 731
3 731 417 636
3 733 610 689
3 689 610 8
3 429 482 526
3 482 610 526
3 676 568 715
3 715 568 659
3 481 33 568
3 574 508 54
3 574 529 508
3 715 484 676
3 715 666 484
3 425 429 481
3 481 429 526
3 676 528 619
3 619 528 648
3 578 543 666
3 543 484 666
3 574 30 529
3 30 470 529
3 519 583 425
3 445 701 406
3 406 701 591
3 513 509 178
3 509 500 178
3 500 383 496
3 509 383 500
3 496 485 621
3 485 135 621
3 496 381 485
3 496 383 381
3 465 671 453
3 671 507 453
3 513 198 509
3 513 493 198
3 461 437 380
3 380 437 463
3 380 379 461
3 378 716 379
3 362 493 480
3 493 217 480
3 493 377 198
3 493 362 377
3 377 362 435
3 379 380 440
3 499 462 436
3 436 462 432
3 487 370 449
3 449 370 159
3 372 448 454
3 464 390 671
3 383 371 381
3 474 369 504
3 369 644 586
3 485 368 465
3 465 368 464
3 485 381 368
3 198 377 716
3 716 377 435
3 449 440 366
3 366 440 380
3 671 390 499
3 499 390 462
3 464 368 159
3 504 365 474
3 474 365 454
3 504 405 365
3 424 438 364
3 432 462 454
3 462 372 454
3 462 390 372
3 492 461 435
3 424 364 405
3 158 640 463
3 463 640 366
3 158 446 640
3 443 582 644
3 644 582 641
3 443 446 582
3 180 567 158
3 195 562 196
3 196 562 213
3 512 530 569
3 437 522 463
3 522 200 180
3 217 513 414
3 217 493 513
3 569 530 478
3 478 195 176
3 176 195 196
3 463 522 158
3 158 522 180
3 588 447 506
3 447 486 348
3 196 414 176
3 196 216 414
3 200 522 705
3 705 522 437
3 158 582 446
3 641 410 644
3 641 582 567
3 567 582 158
3 448 474 454
3 448 443 474
3 644 369 443
3 443 369 474
3 504 369 489
3 489 369 586
3 366 640 487
3 487 640 446
3 436 426 439
3 426 364 438
3 487 446 448
3 448 446 443
3 454 365 432
3 479 457 510
3 457 81 501
3 57 388 58
3 486 81 388
3 432 365 364
3 364 365 405
3 219 692 199
3 199 692 705
3 199 362 218
3 199 435 362
3 218 480 361
3 361 480 259
3 705 360 200
3 441 180 200
3 586 401 409
3 401 586 410
3 180 161 567
3 180 359 161
3 180 441 359
3 201 360 692
3 410 586 644
3 360 441 200
3 221 222 441
3 567 161 641
3 161 359 184
3 184 359 222
3 488 201 692
3 439 426 82
3 82 426 438
3 361 357 219
3 357 276 488
3 307 357 361
3 219 488 692
3 219 357 488
3 276 357 308
3 308 357 307
3 83 355 409
3 409 355 584
3 355 695 584
3 222 359 441
3 584 489 409
3 489 586 409
3 695 355 68
3 68 355 83
3 201 221 360
3 360 221 441
3 261 201 276
3 276 201 488
3 692 360 705
3 536 415 553
3 553 415 194
3 212 536 211
3 536 553 211
3 478 530 367
3 553 353 208
3 553 194 353
3 194 352 534
3 534 352 175
3 194 415 352
3 535 375 195
3 415 536 375
3 213 562 212
3 212 562 536
3 356 132 497
3 532 382 341
3 94 639 382
3 478 535 195
3 478 367 535
3 512 412 530
3 132 356 412
3 155 367 530
3 56 338 373
3 175 650 153
3 111 354 540
3 111 351 354
3 114 350 132
3 497 132 350
3 382 532 351
3 639 94 348
3 682 347 512
3 132 412 347
3 347 412 512
3 367 358 394
3 345 94 95
3 345 348 94
3 153 650 342
3 342 346 540
3 346 356 497
3 506 345 114
3 506 447 345
3 345 447 348
3 394 175 352
3 352 415 394
3 394 358 175
3 358 650 175
3 350 114 345
3 174 534 344
3 344 534 153
3 132 347 114
3 114 347 682
3 358 155 650
3 358 367 155
3 540 346 111
3 111 346 497
3 412 356 155
3 155 530 412
3 531 354 109
3 354 527 109
3 111 363 351
3 363 95 94
3 486 343 348
3 486 388 343
3 531 342 540
3 531 344 342
3 356 346 650
3 650 346 342
3 356 650 155
3 75 341 542
3 75 532 341
3 497 95 111
3 56 340 338
3 340 639 338
3 195 375 562
3 562 375 536
3 338 639 343
3 639 348 343
3 363 111 95
3 341 551 542
3 354 351 527
3 527 351 532
3 497 350 95
3 95 350 345
3 639 340 382
3 382 340 341
3 535 367 394
3 351 363 382
3 382 363 94
3 58 457 479
3 58 388 457
3 457 388 81
3 524 574 551
3 551 56 524
3 535 394 375
3 375 394 415
3 56 551 340
3 340 551 341
3 57 343 388
3 473 645 373
3 373 57 473
3 645 473 520
3 520 473 392
3 57 338 343
3 57 373 338
3 74 339 75
3 75 339 527
3 74 710 339
3 339 710 527
3 486 447 81
3 81 447 588
3 353 194 337
3 337 194 534
3 520 688 645
3 645 688 30
3 54 542 574
3 542 551 574
3 56 373 524
3 524 373 645
3 235 590 234
3 234 590 212
3 235 213 590
3 590 213 212
3 425 481 619
3 619 481 568
3 40 65 80
3 65 115 80
3 38 680 61
3 61 680 40
3 4 675 384
3 4 13 675
3 675 13 12
3 653 668 9
3 9 668 561
3 668 402 561
3 384 675 393
3 393 675 12
3 13 680 12
3 12 680 38
3 656 393 731
3 393 389 731
3 40 680 41
3 41 680 13
3 653 636 689
3 653 9 636
3 561 572 407
3 514 385 572
3 572 385 407
3 9 564 636
3 9 407 564
3 402 668 395
3 395 668 653
3 514 572 649
3 649 572 561
3 393 656 384
3 384 656 604
3 636 564 731
3 731 564 656
3 656 564 604
3 604 564 407
3 5 724 0
3 0 724 1
3 5 6 724
3 724 6 1
3 22 5 21
3 5 431 21
3 509 719 383
3 509 198 719
3 378 677 371
3 378 379 677
3 677 379 440
3 448 624 487
3 487 624 370
3 448 372 624
3 624 372 370
3 371 575 381
3 159 368 575
3 575 368 381
3 370 598 159
3 159 598 464
3 370 372 598
3 371 677 581
3 581 677 440
3 390 464 598
3 598 372 390
3 159 581 449
3 449 581 440
3 364 658 432
3 432 658 436
3 364 426 658
3 658 426 436
3 510 580 491
3 491 580 501
3 510 457 580
3 580 457 501
3 211 684 212
3 212 684 234
3 211 233 684
3 684 233 234
3 716 378 198
3 378 719 198
3 383 719 371
3 371 719 378
3 371 581 575
3 575 581 159
3 716 592 379
3 379 592 461
3 716 435 592
3 592 435 461
3 554 626 471
3 471 626 700
3 554 660 626
3 626 660 700
3 471 614 451
3 451 614 511
3 614 560 511
3 472 599 518
3 560 605 599
3 599 605 518
3 660 571 475
3 475 571 678
3 660 554 571
3 571 554 678
3 560 599 404
3 404 599 472
3 511 702 722
3 722 702 404
3 511 560 702
3 702 560 404
3 560 614 605
3 605 614 471
3 700 713 471
3 471 713 605
3 700 37 713
3 713 37 605
3 451 643 471
3 471 643 554
3 451 455 643
3 643 455 554
3 669 606 459
3 459 606 455
3 669 422 606
3 606 422 455
3 27 670 467
3 467 670 23
3 27 48 670
3 670 48 23
3 23 622 19
3 19 622 15
3 23 16 622
3 622 16 15
3 3 618 2
3 2 618 384
3 3 4 618
3 618 4 384
3 2 596 3
3 3 596 1
3 2 387 596
3 596 387 1
3 514 616 385
3 385 616 387
3 514 505 616
3 616 505 387
