# vtk DataFile Version 3.0
A great-looking cell
ASCII
DATASET POLYDATA
POINTS 494 double
129.58812881592033 331.5348654906525 55.64177699377661
128.54748622613553 329.6510131920169 55.82993805656052
129.37594870400025 330.2481280595361 53.96276241797926
129.10710668221097 330.64339350888577 57.89429876660093
129.80194941828367 330.8094578419592 52.01988015368573
129.74025279987717 334.4463631838536 52.785199892819385
130.01589285841806 335.3871176111894 56.589500925482824
129.8866289335076 333.69401433126217 55.10398320834341
130.09631634179038 333.0161314999728 57.55793774088999
130.43518432379585 333.13608630569877 59.52106943202193
130.1104266344516 331.77556730734364 59.09350436913998
128.79054593744667 327.15182949741074 52.9642174046567
130.02477729415722 332.63889493029785 51.1598043882709
138.60282640807512 325.2736200838668 53.490704184322134
130.16002556734853 338.28697649522474 51.65473421231639
135.3222752588947 335.392871095728 65.33581745880338
132.29515701604382 334.3712716719148 63.18873361000845
131.3463894082279 341.12504209119516 56.06181216350228
130.2655670574137 335.17440508836347 59.184142166864774
130.7564947270603 333.8162363504367 61.17349264516646
130.49390335680044 331.94603677514743 60.65269333858949
129.4526846814131 330.5991219251962 60.037854909278224
127.80769245237876 328.6928857101987 57.57393680125727
133.9200139651163 322.3252094620379 58.268543589993044
132.69850097218873 323.38918645015315 61.75768484919955
132.20562487319017 327.89277619961473 63.662389158604825
131.42422840395818 330.7482002655515 63.02274449074795
132.61784012304545 331.8900175905947 63.62013580214409
131.1721959266937 332.23590807909613 62.35068266943353
130.0199167749222 330.51235294770487 61.972166965812264
128.40090515072373 329.1372528902071 59.45961225253832
128.8176191058531 329.4692994362185 61.06110550203314
130.3697278532433 327.3017873882572 63.181592117319546
130.76115786646218 329.24223654112956 63.4307501446266
131.25076581835395 323.9147501224638 62.79079203077083
156.54693154402233 331.40892294182436 49.96479452080637
156.07672349664784 341.5396565272738 54.60111194734199
147.59393570336064 344.08771031468626 59.82197237738885
152.70854505119144 343.6768172011028 62.412552924891536
156.92095587971133 336.27878317054126 63.94572078034216
156.75474579139888 339.0918486414204 64.51265997512846
157.75405400520668 335.93228619887026 56.62477149862798
156.99160325773408 331.3895930074588 57.505757251006784
154.99392265527925 333.6302984336959 46.217301648732786
152.69546858090973 328.52289885379514 60.70691774685477
157.2419128723968 335.44222332998805 60.12256241827166
157.33251073417304 339.6906589847381 58.64891210453738
157.41622764840955 337.59851471998024 52.32855482458872
155.6458245583423 330.0182962497257 61.46833748017262
154.2165861373343 339.73310424572225 47.309775705687066
155.6398085282294 341.57491601594035 63.91810738281264
156.94847704746908 339.9333897936024 61.13344421813403
155.42128009113853 342.5511191861327 57.83252687706491
150.28693032659822 329.48813390326814 64.39901325542516
156.0183415834545 330.0113068860282 57.06905314511658
155.0098215031389 337.19846376011554 67.52022583451267
157.0303209073059 337.97050624552855 62.971627781327115
155.42364144245718 340.23032322329334 65.48771796759583
156.675297141661 336.30052556628243 48.69060611143755
157.63176155684957 334.3767260822258 56.14561773450362
157.34470550037292 339.2970880658928 54.97201805979109
152.67146649953926 329.7550306172746 64.27566190565419
157.25620140275444 333.73062289576933 60.05490358869678
155.11344633844578 341.55932076013977 50.88331272046407
157.27300415310398 332.46450721630976 51.26590825018817
156.70135123192426 338.87515931881416 49.9553906578489
154.10384123193782 328.8008717359736 52.303898756166774
148.5815742336277 330.3832278891046 65.581108592724
151.96906445697215 338.7764586100963 68.17594151526862
151.8363554990872 343.72006601248967 52.96233529463553
156.00750588049675 341.77765172146775 59.4361812171919
151.90000523307376 333.1362017271006 67.8334404266955
140.98253016869435 341.9190679880327 51.44976081308655
142.32520889906002 328.3399187214828 61.91891140392463
148.96021623961659 340.7589176331028 66.96849647108931
148.8427940792838 343.77936267421984 62.95681557808042
146.3891505054383 331.31771449771594 66.38031835734195
145.7333444350215 342.8286166712429 50.903200938295356
153.76951864107593 342.6450395172284 64.08516739369811
154.39163550117178 328.7474699189518 59.298572090680814
157.44060149659117 335.34445457305736 58.29347358520261
156.45576178967136 340.467743123473 52.25108309046305
151.14079758379404 328.9389899543507 62.06024566780084
157.60759751304272 335.16181970083124 51.04762251775036
156.622271444293 333.16447939085094 48.66305644463808
140.17257163273172 340.8938017059124 61.22501823694708
154.28177517019535 343.657206735342 58.93498156935513
150.87702961523297 343.6436993570513 63.23274037355056
152.9430498106101 342.5219176435316 50.23413982951462
149.78165438390948 344.49931426614523 58.3608878713688
149.90043514233906 338.4117209267041 68.68575868645924
154.50512988158948 342.66452278057403 52.974585782002094
153.82348528592576 339.3356769142673 67.69851134679428
157.11221299089448 331.8813607405939 55.668297256909824
149.18158521068634 328.8297358794225 60.481553253691736
146.69868070825243 343.5610795177611 53.59068856832948
150.22440748629595 328.63257392774733 51.61339277484602
148.286023782614 342.6793694568496 64.67764282846686
153.27535620396932 335.7691758515305 44.68393721133575
151.11910697811754 330.88496959433945 66.24146333736952
156.6905357926609 331.105857771636 59.42538122376197
149.11103764730015 343.9185893661846 52.63710885034062
151.4015658384479 328.3314183642812 56.650783624241285
151.9424513955466 344.2081504029904 60.593172313366466
153.93304217191474 328.52938337998387 56.18086457347251
144.43410614659473 331.7374599070675 44.695974230925216
134.88637990235895 341.68299695466277 41.389035859949985
133.46068098512447 342.96219010848534 53.276927853667836
131.78681619751788 339.46828277344906 43.52397077128446
137.1372707226758 342.61432313736486 42.79474668315952
133.69487508422287 342.3922140099906 43.788707840771394
136.65919753521862 343.48985934664034 46.823999501658996
131.07376572737215 340.7716793122631 49.2923709515215
132.8949022151456 342.43508388714605 47.08449408878413
134.73921316297012 343.1999433502736 50.04848430628487
129.0474061864604 326.9089632991069 62.1436946831469
138.41062967980878 342.81894521594404 49.43361476651137
136.8404697449673 341.6294474398242 41.199848404534194
130.99681821066858 339.4359961963128 45.65897269567771
133.92875123336574 343.0455468708136 51.80120174192502
139.37244076516637 325.75681316332566 56.60773186953352
149.9263381213627 333.6264605268634 44.54860082574341
139.3216097625136 342.08070596509344 45.47262435298172
144.09490114719574 328.9745538440008 61.43211395274008
140.66784375935825 330.1590913830354 44.325914826370585
146.44419487130367 342.06189323592685 47.95102604067295
142.21484903897866 339.4330535839268 44.14930301964076
138.84159215340853 341.6764528403023 58.13255309652601
139.60274651952324 334.05821784688357 66.1893329086022
133.7776627650066 336.28579854000975 40.77504129591106
130.8016775492753 336.22115649184127 45.64350869367825
134.82298672928107 339.88005401485 40.59471043712838
145.57785077422707 330.8798759175317 45.611872582716124
131.6527584794615 341.5542740378582 54.35566381303583
138.7094264125869 341.6421251552951 43.11190664337667
130.11315078484253 337.4395170297911 50.13719486396117
136.03444018223405 324.1969774030804 61.36817506029444
148.29607471749375 343.0305977331648 50.151441752583175
140.12022587382316 341.11992797546606 44.129582506257854
136.86870917230246 323.8425146191378 58.4011136706083
156.50579823889234 341.22203585793665 56.914456612360794
130.79159174426243 340.58854436020806 51.02151378926388
142.9622136678941 340.6481515824341 63.59854008213989
143.97933444329973 339.79419074241486 45.04771184790584
131.38821635776 340.7657306175919 47.53680135689028
132.49016901655736 342.30118587324876 49.67412080495593
131.03918817576672 335.9828006156777 61.605771984350376
134.54678254008786 343.09169462469146 45.38117875437234
136.77500763534437 343.35149392232626 49.2272828678255
133.11444145118415 340.43482593018035 62.286791193941454
135.37325841899283 323.18573131270455 54.175193512326075
133.3273515355474 342.07972946104934 57.850122727955856
132.30281450940552 341.54920476600915 44.937196369129474
130.32279362550014 336.5114902691689 48.89428264846582
136.48354147497287 341.07881357227296 62.833390536270116
139.4208642983424 342.0831293501885 54.16552191128996
135.7501494583036 322.8939240107245 55.743739572958944
135.13636118006207 343.1004016927186 53.65194200557241
156.9949590685614 335.35920881319316 62.08040566802721
141.2287725430365 330.52297960908766 65.03255112313778
137.8516874723407 342.4262691487365 55.89516921320594
141.6649042348258 334.359977330029 66.32247160794509
130.12187032082178 331.13275854950456 50.61165846982328
138.04422910642842 333.03265997579643 42.040583459478945
146.94525521801896 343.74025040788536 57.471044578573434
130.88857993139146 337.72027248755904 59.77277797188259
136.58235412380282 329.6310361291768 64.09539405391413
137.57808202256558 333.7556388560951 65.89382080241339
136.73645470562457 337.90550524809436 65.4220664546158
147.09375514172942 330.0164999485885 47.45988972883756
150.7997768161725 338.9799003838997 45.388296732402544
144.19584604871628 328.66545546063566 49.281710999972226
141.54327149824726 341.9348256856148 53.291630725623996
131.19588912310493 337.4581820656582 44.461168749362066
154.36850359690118 334.6987150904914 67.6597886425478
138.6145750874254 342.7507173489353 47.76780026253646
144.04986795279692 339.7802017282829 65.12230279313587
136.43163059053185 342.43685655922866 58.66516268390309
143.42035763128283 342.25094463066256 57.78197694320166
143.3487433794511 341.3811176323653 47.61742200324006
154.9647433195477 340.68301744145504 48.87548602436311
136.054153573023 343.24097618720475 51.49782143815951
135.30553021552248 342.62240404745086 42.91994528993334
134.4711019129039 341.7858479983793 60.88009656044546
146.67878122463145 329.0654119034712 60.1343709424915
144.48951233310845 329.3431147078356 47.52983351585196
140.0739248267632 342.118773932973 49.832961097503066
146.3929001032178 328.6540347674519 55.84592174971088
147.28463726453916 335.14099576431107 67.84813061769933
155.65714050724222 338.57823436482516 47.541686460169785
140.72257846988492 328.44747555727344 46.25707286847718
139.147177803262 336.09320585387024 66.33683048043555
130.45559169936425 334.99007207996635 46.9793357594399
146.12907787389344 328.9148137273064 49.98522241827704
142.52785360477284 328.1332041485249 48.55857106560135
132.1309392794968 342.0298218424542 52.6868483395424
144.99018433796516 337.0687879132561 66.85479338269819
152.20933238149317 328.28606791296244 53.93211191688821
145.4706147286567 342.8144841219146 59.7178183736881
133.4842924316149 336.54376679284286 63.97261203047518
145.94541348183012 333.2319004933824 44.30695496823828
144.16546615266324 342.57491311548483 53.23500745452897
138.15253547802055 330.3151331455342 43.5468910819193
139.3458370451355 335.44894390254495 40.840776847075844
141.82110639842477 326.91768578871984 52.99045245179538
134.60135586420685 343.29721701137714 48.03759368219901
142.60640328006713 327.41681044224373 55.9313403568475
151.4674477177331 328.5323193822322 59.28285250151018
144.71785117303614 333.7359778777674 66.58585909805034
140.9845491310058 341.32612147271107 59.43877650629091
146.5924074685824 339.791815608803 66.79096102547967
148.08356811423465 331.79129657205385 45.569658570038854
144.5539742293694 342.17353134790903 49.23259587729521
145.97671026822988 329.4360432763056 62.15956966345632
156.14273947470386 334.43424379503244 64.94357587316892
133.2992969969034 327.4559532697611 47.214947533340805
135.30718872693546 330.69100896082216 43.91948641880034
131.95293469387187 326.97318822245995 48.755265781357004
130.12341137568987 334.1534178697897 49.3680096419631
130.5603812404964 331.428259012854 48.7912852410539
136.34722667281764 327.09719175614504 46.36687779892483
130.24734135098626 324.45295014020246 52.84320423396979
135.22140980163968 326.78434046887446 47.41197509267512
137.57650444143496 342.899696251532 53.30072515739222
130.4639472673296 329.5668088108882 48.95858931733471
143.0448422220352 330.2400341150465 45.18686720131869
146.51361188330912 328.8609479189865 57.98172346052023
134.09722158516246 322.6467153824704 55.11828100891316
138.35385217245698 325.1362432524402 55.698300868245454
145.15695630506278 330.1495889108894 64.10963800793301
135.80697983776665 327.2125060289544 63.140282596506694
130.3820789964182 337.55808394618833 46.786832102097435
150.3353531344458 342.24856244712936 48.93154056085951
134.56854725514683 339.1369111604588 63.84227906469382
144.43595099064268 328.19165462264345 53.73064993406139
146.8675767197923 340.0609018824654 45.50905455280483
139.79711745623774 326.00792012238435 51.436446372848714
133.41895495760133 341.0671880666477 42.47434606340454
134.90080303252276 328.2069201492896 45.47250873742407
131.45607633960054 332.5848239845611 46.36305526646291
130.67908437480784 339.31087666545903 57.55874314495509
137.01432187826 325.28508948574 49.65195427903284
130.5705970582202 328.17122088117645 49.438345866250486
142.00197779551945 327.61063528648344 60.01072616301395
134.55889354261416 323.6428427080976 51.37841848571048
136.01545330647002 323.7575315252918 52.54355908142875
137.2181434170381 324.69608898937537 59.97612233988923
142.84220009467361 331.760068187143 65.18696062378756
134.56983415009935 340.8870884705416 62.712617911671785
133.7041717203307 325.9490166703221 48.57205240716262
141.46660063189486 340.71582938839987 45.27154275588149
140.62320796202297 326.5006182588379 57.714489157874134
140.05734786487375 332.1511744843488 65.607879204981
142.01620340773027 337.40352871257596 65.94895611770116
129.8743838494591 335.98767750509234 50.98903176216009
140.06151433275002 326.7526465025491 48.65633601455614
137.0776416655075 323.8612330655917 54.446053546261716
131.11238565818743 324.6879824562006 51.36657508044381
129.3259395626557 328.59509113073835 62.33074926610206
129.7768410403846 334.29512641250096 51.0569203153974
138.19893657389036 327.63065927972195 62.863329249146446
129.21796452243223 324.20329800623944 56.02282575405591
153.5424384010849 331.0744731014712 46.68748745832072
139.59027625289806 342.2097244951466 52.152063726901986
151.38715973672282 329.69816000728287 47.942494680597434
147.98864799492318 329.47862023035424 62.991423897749236
150.85301433150238 328.9911516455475 49.65426445294591
149.3199904078492 344.3419602427182 61.26402409429571
135.26600756494003 333.0632768936256 42.28410947319932
131.60627209416035 322.75825686733947 58.50838888812444
139.4128821567536 329.0540623828085 44.719416763691385
146.72476781813486 333.1036988934554 67.3434811228529
132.57913856303193 329.8724766525824 63.68245035564881
141.63639476101278 334.84746994894834 42.468042919898416
136.67422586247795 331.6969506858778 42.81844347059271
148.14781910420285 339.2976532348922 67.83815294787996
128.72376750418238 328.4511475268891 54.27368633231111
143.3185389472352 341.65853574305777 60.31649577164012
131.67479656223009 323.46085700837335 52.812821507090746
129.91047141709794 329.68629853374046 50.43356447919699
134.2085749371585 333.26881278580186 64.6497912658849
156.42960745511976 340.20958290259284 63.384046416675346
144.37000123783358 328.38370423498895 55.89303496320385
135.5722064367443 325.3583581954179 48.83504426044179
151.61357499281925 334.6796489471582 44.287176478910794
150.52299059100883 343.28116690047267 50.90582876483732
152.82027470495993 328.20424817453795 57.87207280798906
131.76002740296425 325.94325401450516 63.186574511006015
149.26748845229014 330.2215955258277 47.04093867693125
131.5935123233383 329.08167851644885 47.619458820697595
156.27798024346473 334.84478621440843 47.261729058252115
147.45744484295793 337.7704699883335 68.04356614461054
137.61544422098365 324.9046528009536 51.47194816935778
130.92148653077678 323.0221771367495 56.29235992981206
132.40010586525872 325.3912014278747 50.02829076894741
130.44927824314234 323.73292863752346 54.40493010433194
131.96732348932642 336.326124610463 63.04069144092636
132.93703780435382 324.1126172940019 51.42080075667027
129.42943440371707 327.6359905349804 51.05508767904928
136.1955727985181 339.8533775750957 64.58501458132477
132.2418772936432 322.82648203256997 54.66572764041892
143.732998344908 328.0268593847937 50.98138619157348
152.26426074228655 344.3911751747125 58.195876944407665
140.73150618413717 341.72411698445984 47.488629640821195
153.52162599884682 338.37481876589186 45.99454339753676
135.87439876316148 324.362809724995 50.53479582547613
140.2212423027461 326.1260592176195 55.1009985289512
146.39248512393164 342.57461771228367 63.78055812263372
148.86590910578073 339.6684585574687 45.388897063622544
145.1356536768905 343.1402048383236 55.79700071473549
155.72794800692972 332.19068860412006 64.38558028819799
148.85094162301257 332.59922790362356 67.40468187955706
138.32456036247353 325.2486099285799 57.909029179689036
133.18852294389737 334.51797207541307 42.373496200557526
133.2373842516163 322.7106869299482 60.208487247368936
157.33636171030025 337.0248752801308 50.44065945351802
134.3039604559762 323.81810370579683 61.43575783666187
156.11625596315417 340.62434403142294 50.36792266888272
132.8261581973748 322.3478086033647 56.56615366604924
150.3840161949838 344.2985485474009 54.1474908512949
157.61547691507903 339.5952081034493 56.91953729510423
139.10346861639945 327.1688643859831 46.907298892928495
133.1537589227726 324.758736147593 62.59148087179111
148.46117750735266 337.96769536257904 44.769290923954586
148.65801770326254 336.64870065386054 68.46478051761983
155.91117841486096 335.8655228685879 66.6891530895212
131.2955922286955 323.11677400734 60.79279925339862
147.3168926570197 341.59041931776255 66.28910407255186
135.45857808120343 323.207735565384 59.71401385000412
137.01373620797375 325.77591784145665 61.84326281759035
134.19826666518227 328.6391129728578 63.810658680754386
140.73397797391743 341.7759747154967 56.261739473175794
130.6890467020492 326.31342017459616 50.268725815210956
152.58708654645025 336.97085113754974 68.46032298648157
138.8443469817001 340.3420205298853 41.28646454778895
152.58036569525797 333.0778571278391 44.73745643968
143.16981258118324 332.600606265334 43.69454762441911
153.76793415545785 328.9004289806557 62.08980229319903
157.34906262567637 332.9411895671462 57.85812193133561
151.11085749924354 342.04176676177866 65.60011610123833
133.70679878754837 326.5782362895314 63.25515467905018
128.0909402784055 327.7583256825749 55.87850619791179
137.73020672547275 337.04797427271654 39.65578936275
132.1897742534214 338.1686538385396 62.252146147928045
129.862185168254 323.61507763710944 57.699155228045285
157.74224017667902 335.76187278342496 52.93622786946272
130.199632222618 338.1869407574467 53.47709469174656
152.35344010442114 328.35528090036587 51.924590847447654
147.41017920404542 343.56722842057235 51.76358362016909
156.2929293482415 337.4835199090347 65.45692306421947
130.1295201490475 337.1069629413747 57.72944454567526
156.9721568039968 331.5260841899806 53.24117660692874
130.1738794410482 337.74642055387443 55.32580824089241
128.43762876276492 325.1174214173262 58.05982985653925
155.4233315880322 331.832776122302 47.318178129715854
157.70177133965842 333.8909122801524 53.58442192628175
153.34175006187715 344.17961477945147 57.23114355007458
153.10566154556273 340.8525865356667 66.02035421576811
137.09462716994435 323.87202800647566 56.64053788945819
157.3307160829696 337.34324951291956 60.073907655658275
136.5228872347637 329.13030878173663 44.35753614580494
131.6843833944654 340.84722432207496 57.911834086090025
155.56274748713517 338.72629907610906 66.87557476402328
130.65449123921886 339.98512714082926 53.788368973127
134.51336447917132 322.31626209988485 56.64231657170258
129.66338491580686 325.79702810365075 51.96361617538512
133.84074020025835 323.1674435886192 53.099003616365316
137.7411173982373 340.0618183632411 64.6599214135657
144.3159021537181 328.4991391550286 58.12447814797233
129.80903026806888 332.21833050181414 53.45199534202675
150.83120085422462 331.1267166192634 45.5530560252938
136.01793573464246 332.004893922419 65.1363728067149
131.65954872407048 338.02235559449133 42.86080059573554
156.0257309246503 330.28263584102456 51.45901309090179
154.68207443185275 329.30214864196466 50.591865726988964
146.98614486573678 330.04016838150847 64.90192079014386
134.54043358429598 334.58883112418596 41.27700929617619
140.58371432683666 339.55011643635993 42.95906849813832
139.17397011838017 326.4431810614916 60.39561946629769
128.3890101761299 326.8919840075194 54.56948947773325
140.64751084373978 328.0293801727609 62.28247200044323
133.78385140231657 334.89490014039404 64.35397406335343
127.98593970174973 326.9095653085018 57.29922772387019
135.7319280484789 322.82395973164995 57.602575923273065
135.37683438510388 342.8502702810753 55.985695619203504
144.5633323845862 341.8092667824776 62.78286666816473
155.88467411919754 329.520209996701 54.280026112937335
155.05364212719726 342.79118051129444 60.487649969903465
129.997941810966 324.2210024528861 61.359198183843425
145.34248420585254 328.4669653431676 51.84572739633926
137.47011046580658 326.40353618494856 47.81473604859381
139.42672685623137 340.48630872001627 62.98409829618019
139.46946769090005 338.7125102318744 65.08542510754715
135.05179469458344 325.286165845058 62.44747632177872
143.0591137610095 342.1236101078914 55.269449596613946
155.16815619591029 330.36589361090904 48.90870175919204
148.12199743909576 328.71816970480916 50.83744166786559
132.0568374989866 340.25872098433166 59.91059839462204
142.32571186620825 329.3699507780135 63.67593233448688
133.1172899250923 332.5658346964391 44.01908624322548
149.22439870333878 341.1152992458328 46.782315055154896
147.1428356357043 328.40453762733813 52.650957877183906
145.7900645013262 337.3817366427618 44.085246082112334
147.07048230955203 343.4476280954409 62.21692385687056
136.48190970392955 341.92279003625106 60.819397510427024
153.34887643177646 329.62408780674025 48.167387125276484
151.51210005932532 340.24954465804376 67.44795061116423
129.74648030803388 323.8084437890774 59.566701714570065
148.7263110771087 344.4544185128219 55.337818461634726
137.8644870941976 327.9865648689578 45.46227052357426
154.06167859578207 331.99138951457917 65.85389237911842
155.2545355058531 336.2997240649076 46.53344503852642
128.57261974280823 325.5667828177897 60.687189163803964
152.07361375375646 337.4092721416779 44.99675248798577
133.10781346200739 342.4655323404843 54.87191137894277
154.63544311240324 343.3051357842638 56.046028733963254
138.05171405391806 343.0503765173086 46.12313745129182
145.99918415503257 335.2671133577343 43.81350177178346
152.36247088763903 340.7418675248652 47.452424967173634
127.95001251647867 327.1787313468151 59.04571757088292
144.3062650822272 335.15123325474946 43.345902161242684
152.3998684587318 334.8830412017546 68.86549348382852
156.5257874093199 332.3894215378444 62.368439274141394
136.28717460777722 334.9724344608474 40.36535519972163
139.98865994352886 333.75776829492656 41.835643687856624
134.04771382851706 338.12795882373644 40.372281540277584
137.1508386713151 342.85076774195795 44.612257392520256
130.624830627065 333.28229886107215 47.86473626295917
141.63794092567065 327.0610104578331 50.50383857948172
147.84109666157204 335.32319323847605 44.08084952771831
135.75182808348964 333.59111521311956 65.34887104907986
142.7593106756545 342.1121222807698 50.55217761592615
148.7115452496228 328.7361821958194 57.87068467704033
137.2775580966196 339.3043354925397 40.05709132627644
128.1093715766787 325.8866814499646 55.918201212534576
128.36260537487377 327.8241381953929 60.906111886734564
140.55062709592994 332.2042782337698 42.979406669789995
141.65250752082682 339.55954793810196 64.05225748593907
149.0056274082958 329.1592248696891 49.15859130763017
138.41735245981133 325.79449442657716 49.7812958916065
157.745313144729 336.36856159500485 54.82226081256878
129.27941276368233 329.0052894134367 52.44123088487495
128.9697749107555 325.2651081440783 53.99382533094047
140.1229542950523 326.0453442435029 53.255396014212074
137.3348898322636 324.42654339292557 52.98657405115855
129.99958509121726 325.54493236523876 62.440375921283746
129.8397475141872 335.60124760782236 54.596706015973226
146.85738772906913 343.7646181123635 55.54763088824609
142.38932935047737 327.4935718031259 57.94746791961175
129.8977744197042 336.7189111342356 53.13892380212889
134.96128364431254 337.27961937644 64.77005466194707
132.28276859144611 336.60375422913654 42.7066491516665
139.5728548449748 329.7533115807655 64.17844490090577
154.97268588459556 330.6139672300915 63.59490905056962
145.17720095464796 343.1379570835938 57.708913556065696
130.51719053763253 339.60533228079976 55.696872367638754
134.09589722866943 324.4542660837259 49.881126835888914
132.86292101511168 338.5597299176925 41.662341305295605
131.55200802766947 330.82327585675796 47.06201160531486
137.9571725478035 331.4192913452631 65.06267544800062
132.9664338801199 328.5925469870581 46.26035842387894
130.31834810128709 338.9608124013697 49.04487062350107
152.81285225249047 328.905264170536 50.03853404250762
141.7187441465881 341.7443901206498 48.888788439078596
153.35384212852853 343.9069752266264 54.353838320418355
138.40377750476048 341.39356398160123 60.58128053157746
147.9579323301034 333.4502357945404 44.51634968286193
144.73919071849477 331.6779324781398 65.64627559256124
141.9294713254184 331.1788434758672 43.85509762573936
135.58199802422115 337.5995974601525 39.92174566271231
134.32569624562638 330.8468838433618 64.32648376296572
155.56415755361883 341.90708299320255 62.02569388135682
154.10156788543182 328.5666543527411 54.15924267400445
146.00165385613755 341.6325185305684 65.11708398497139
141.02336803112658 337.21032701255797 41.73511069927554
149.3403186124377 328.4649207724993 54.7596690787573
137.09104209353293 335.80906636184193 66.14702124079434
131.5905949629546 334.9265116826377 44.532484126166125
145.14578359935982 341.02534452964676 46.385816833570836
150.17639437835908 335.31769020108766 68.62297593160277
141.89405962572246 340.8056386191963 62.01900169494352
142.81138479920432 337.6409207465704 43.35396190486186
150.58991564764597 336.30214412793714 44.40907358938122
139.44377113988142 338.26832418682494 40.664225781970906
142.7657840600612 328.8723248607662 46.7880329781222
136.51969473590563 343.058791726505 54.73800212835806
138.11959898089387 342.89904393730365 50.91276713761802
132.80329240669278 330.2574105124084 45.607462518981364
157.60805586577936 337.6567062035786 57.19736124617802
148.58369501095436 342.2505954607248 48.38122837997747
154.14503144351625 343.6178023665154 61.53446555437886
143.34469291398094 335.64062368332117 66.4361315898995
151.8450619786758 344.5034743825135 55.7927470216938
130.5511567298738 339.2576539089686 47.2195348607081
POLYGONS 984 3936
3 0 1 3
3 0 2 1
3 341 22 1
3 369 4 2
3 2 0 369
3 7 5 369
3 369 0 7
3 8 6 7
3 0 8 7
3 8 10 9
3 0 3 8
3 3 10 8
3 6 8 18
3 18 8 9
3 18 9 19
3 9 20 19
3 9 10 20
3 21 31 29
3 21 29 20
3 10 21 20
3 10 3 21
3 30 22 419
3 22 30 3
3 30 31 21
3 3 30 21
3 27 26 272
3 27 272 470
3 28 29 26
3 28 26 27
3 16 19 28
3 28 19 20
3 28 20 29
3 419 435 30
3 272 26 33
3 26 29 33
3 29 31 258
3 30 435 31
3 33 29 258
3 31 435 258
3 32 115 445
3 115 258 435
3 1 22 3
3 341 1 276
3 341 382 22
3 32 258 115
3 33 258 32
3 412 435 419
3 445 412 388
3 435 412 115
3 261 353 434
3 353 419 382
3 353 382 434
3 32 287 25
3 412 419 353
3 4 441 2
3 441 11 276
3 419 22 382
3 11 365 442
3 445 287 32
3 5 12 369
3 369 12 4
3 434 382 341
3 445 115 412
3 341 379 434
3 276 379 341
3 322 34 24
3 261 344 353
3 353 344 407
3 293 318 269
3 366 300 278
3 326 314 24
3 11 298 365
3 326 388 407
3 407 388 412
3 23 269 318
3 23 314 269
3 24 34 326
3 445 34 287
3 11 379 276
3 11 442 379
3 365 257 221
3 298 11 441
3 269 314 326
3 2 276 1
3 2 441 276
3 278 300 295
3 34 322 287
3 322 340 287
3 330 25 340
3 25 330 272
3 272 330 470
3 326 407 269
3 261 434 442
3 407 344 269
3 269 344 293
3 221 278 295
3 366 278 297
3 365 298 332
3 445 388 34
3 388 326 34
3 293 261 295
3 442 434 379
3 272 33 25
3 25 33 32
3 340 230 330
3 329 260 230
3 287 340 25
3 332 257 365
3 332 294 257
3 312 251 378
3 470 166 371
3 246 312 378
3 366 297 244
3 283 241 305
3 260 329 378
3 329 246 378
3 236 13 292
3 4 279 441
3 441 279 298
3 24 314 316
3 306 228 13
3 228 256 13
3 366 227 300
3 353 407 412
3 255 439 390
3 255 236 439
3 439 236 292
3 305 456 283
3 297 294 456
3 6 446 7
3 7 446 5
3 6 352 446
3 221 295 442
3 442 295 261
3 294 217 249
3 217 242 289
3 221 257 278
3 249 217 215
3 215 217 289
3 279 242 298
3 298 242 332
3 358 228 312
3 249 222 283
3 222 215 238
3 442 365 221
3 222 220 390
3 390 220 409
3 222 238 220
3 220 238 409
3 278 257 297
3 257 294 297
3 300 293 295
3 261 293 344
3 279 224 242
3 242 224 289
3 279 219 224
3 224 219 289
3 242 217 332
3 332 217 294
3 293 300 318
3 14 254 449
3 449 254 5
3 306 206 251
3 251 243 378
3 301 234 204
3 218 219 12
3 206 306 204
3 204 234 206
3 194 255 190
3 17 455 240
3 240 455 352
3 17 363 455
3 455 363 352
3 401 187 234
3 452 380 398
3 378 243 380
3 331 209 178
3 480 277 209
3 198 178 277
3 277 178 209
3 194 171 301
3 301 171 193
3 194 185 171
3 171 185 193
3 409 321 390
3 390 321 255
3 409 190 321
3 321 190 255
3 193 169 438
3 193 185 169
3 487 216 238
3 201 394 309
3 201 172 394
3 394 172 331
3 260 452 166
3 398 229 247
3 343 397 165
3 165 397 240
3 202 163 436
3 12 162 4
3 4 162 279
3 12 219 162
3 162 219 279
3 191 161 253
3 398 159 452
3 452 159 252
3 398 247 159
3 159 247 252
3 176 437 253
3 480 391 437
3 188 196 208
3 196 176 253
3 255 428 236
3 255 194 428
3 428 194 301
3 378 380 260
3 380 452 260
3 260 166 230
3 234 282 206
3 206 282 368
3 234 187 282
3 282 187 368
3 254 259 5
3 5 259 12
3 254 218 259
3 259 218 12
3 340 322 393
3 393 322 316
3 300 227 318
3 318 227 364
3 223 181 157
3 227 156 364
3 331 155 160
3 160 155 223
3 331 172 155
3 446 352 449
3 449 5 446
3 465 154 391
3 192 153 231
3 153 461 231
3 17 151 414
3 151 183 177
3 256 150 245
3 245 150 366
3 150 227 366
3 254 153 218
3 218 153 192
3 233 149 343
3 343 149 397
3 149 183 397
3 23 328 314
3 314 328 316
3 16 146 19
3 19 146 18
3 245 305 292
3 305 241 292
3 179 143 250
3 366 244 245
3 245 244 305
3 195 141 363
3 363 141 14
3 141 461 14
3 318 364 23
3 364 383 23
3 246 139 312
3 383 358 139
3 139 358 312
3 329 393 136
3 136 393 316
3 461 135 14
3 14 135 254
3 461 153 135
3 135 153 254
3 383 328 23
3 156 358 383
3 383 364 156
3 414 133 17
3 17 133 363
3 414 195 133
3 133 195 363
3 183 151 397
3 383 139 328
3 328 139 246
3 141 195 145
3 216 399 268
3 216 487 399
3 399 487 239
3 199 233 343
3 183 248 154
3 154 248 233
3 183 149 248
3 248 149 233
3 192 477 239
3 244 297 456
3 456 305 244
3 13 444 292
3 292 444 245
3 13 256 444
3 444 256 245
3 241 283 390
3 283 222 390
3 228 358 256
3 358 156 256
3 24 316 322
3 390 439 241
3 241 439 292
3 280 470 371
3 280 27 470
3 239 458 219
3 219 458 289
3 239 487 458
3 458 487 289
3 227 150 156
3 156 150 256
3 340 393 230
3 230 393 329
3 173 130 231
3 231 130 192
3 173 477 130
3 130 477 192
3 136 316 328
3 289 460 215
3 215 460 238
3 289 487 460
3 460 487 238
3 252 459 452
3 371 166 459
3 459 166 452
3 183 404 177
3 177 404 465
3 183 154 404
3 404 154 465
3 252 128 167
3 167 128 191
3 252 161 128
3 128 161 191
3 203 424 163
3 163 424 436
3 203 273 424
3 424 273 436
3 209 127 465
3 465 127 177
3 127 160 177
3 250 126 377
3 377 126 481
3 250 143 126
3 126 143 481
3 481 143 402
3 402 143 235
3 236 443 13
3 13 443 306
3 236 204 443
3 443 204 306
3 160 384 177
3 384 157 414
3 218 427 219
3 219 427 239
3 218 192 427
3 427 192 239
3 225 484 190
3 190 484 194
3 225 185 484
3 484 185 194
3 211 132 200
3 185 225 132
3 208 161 247
3 247 161 252
3 190 124 225
3 202 436 124
3 273 336 436
3 368 123 243
3 123 229 398
3 294 249 456
3 456 249 283
3 249 215 222
3 470 330 166
3 330 230 166
3 329 136 246
3 246 136 328
3 28 27 16
3 27 280 16
3 228 120 312
3 312 120 251
3 228 306 120
3 120 306 251
3 223 486 181
3 486 148 181
3 181 119 157
3 119 145 195
3 231 118 173
3 118 144 152
3 145 114 205
3 145 119 114
3 114 119 181
3 457 237 131
3 152 113 147
3 147 113 205
3 152 144 113
3 461 112 144
3 144 112 145
3 461 141 112
3 112 141 145
3 175 111 148
3 148 111 205
3 111 147 205
3 182 110 147
3 147 110 152
3 182 237 110
3 110 237 152
3 147 426 182
3 250 303 179
3 303 175 186
3 148 205 114
3 114 181 148
3 205 113 145
3 145 113 144
3 237 108 152
3 173 118 108
3 108 118 152
3 157 107 414
3 414 107 195
3 157 119 107
3 107 119 195
3 182 106 237
3 237 106 131
3 182 117 106
3 106 117 131
3 268 423 163
3 163 423 203
3 173 451 477
3 451 457 129
3 177 384 151
3 151 384 414
3 243 448 368
3 368 448 206
3 243 251 448
3 448 251 206
3 108 237 457
3 426 147 111
3 167 430 371
3 371 430 280
3 167 15 430
3 430 15 280
3 144 493 461
3 461 493 231
3 144 118 493
3 493 118 231
3 131 425 457
3 457 425 129
3 131 469 425
3 425 469 129
3 423 129 469
3 371 459 167
3 167 459 252
3 273 474 481
3 481 474 377
3 474 483 377
3 233 450 168
3 168 450 15
3 233 199 450
3 450 199 15
3 117 433 131
3 433 469 131
3 239 477 399
3 165 18 146
3 146 343 165
3 157 485 223
3 223 485 160
3 157 384 485
3 485 384 160
3 253 392 191
3 392 168 191
3 216 360 238
3 238 360 409
3 216 202 360
3 360 202 409
3 397 361 240
3 240 361 17
3 397 151 361
3 361 151 17
3 18 350 6
3 18 165 350
3 350 165 240
3 6 350 352
3 350 240 352
3 352 346 449
3 449 346 14
3 352 363 346
3 346 363 14
3 172 201 431
3 483 334 377
3 117 134 334
3 334 134 377
3 477 451 313
3 313 451 129
3 343 296 199
3 199 296 16
3 343 146 296
3 296 146 16
3 163 274 268
3 268 274 216
3 163 202 274
3 274 202 216
3 202 270 409
3 409 270 190
3 202 124 270
3 270 124 190
3 477 313 399
3 399 313 268
3 186 486 263
3 263 486 223
3 134 426 122
3 148 116 175
3 175 116 186
3 148 486 116
3 116 486 186
3 187 401 475
3 309 394 178
3 178 394 331
3 182 109 117
3 117 109 134
3 182 426 109
3 109 426 134
3 200 105 336
3 336 105 225
3 200 132 105
3 105 132 225
3 155 172 263
3 263 223 155
3 303 250 122
3 122 175 303
3 117 334 433
3 433 334 483
3 203 342 483
3 469 433 342
3 342 433 483
3 169 185 132
3 132 211 169
3 184 123 368
3 197 475 96
3 96 475 401
3 211 288 169
3 169 288 438
3 288 264 438
3 179 478 143
3 143 478 235
3 179 125 478
3 478 125 235
3 208 491 161
3 161 491 253
3 208 196 491
3 491 196 253
3 475 432 187
3 225 468 336
3 336 468 436
3 225 124 468
3 468 124 436
3 336 420 200
3 336 273 420
3 420 273 481
3 193 389 301
3 301 389 234
3 193 401 389
3 389 401 234
3 186 463 303
3 303 463 179
3 186 431 463
3 463 431 179
3 125 400 235
3 402 420 481
3 483 474 203
3 203 474 273
3 173 372 451
3 451 372 457
3 173 108 372
3 372 108 457
3 196 210 176
3 134 138 377
3 377 138 250
3 134 122 138
3 138 122 250
3 207 432 102
3 102 432 475
3 309 95 201
3 184 94 265
3 184 432 94
3 94 432 207
3 180 418 88
3 403 198 385
3 178 454 309
3 309 454 164
3 178 198 454
3 454 198 164
3 465 85 209
3 209 85 480
3 465 391 85
3 85 391 480
3 469 342 423
3 423 342 203
3 265 94 82
3 82 94 207
3 160 127 331
3 331 127 209
3 418 170 400
3 408 101 95
3 89 492 408
3 408 164 89
3 89 267 103
3 267 87 103
3 104 102 197
3 197 102 475
3 154 367 391
3 168 392 367
3 367 392 391
3 103 302 89
3 89 302 492
3 103 86 302
3 125 77 137
3 201 95 77
3 87 75 97
3 97 75 403
3 87 267 75
3 75 267 403
3 90 406 74
3 175 416 111
3 111 416 426
3 175 122 416
3 416 122 426
3 268 376 423
3 423 376 129
3 268 313 376
3 376 313 129
3 188 311 479
3 429 402 323
3 323 402 235
3 418 304 170
3 90 479 333
3 236 428 204
3 204 428 301
3 176 473 385
3 176 210 473
3 229 467 247
3 247 467 208
3 229 76 467
3 467 76 208
3 280 381 16
3 16 381 199
3 280 15 381
3 381 15 199
3 15 476 168
3 168 476 191
3 15 167 476
3 476 167 191
3 168 299 233
3 233 299 154
3 168 367 299
3 299 367 154
3 188 291 196
3 196 291 210
3 437 391 392
3 392 253 437
3 201 77 431
3 187 226 368
3 368 226 184
3 187 432 226
3 226 432 184
3 418 232 88
3 418 400 232
3 243 73 380
3 380 73 398
3 243 123 73
3 73 123 398
3 186 72 431
3 431 72 172
3 186 263 72
3 72 263 172
3 431 212 179
3 179 212 125
3 431 77 212
3 212 77 125
3 200 417 429
3 429 417 402
3 200 420 417
3 417 420 402
3 158 214 422
3 99 410 71
3 71 410 174
3 91 88 69
3 90 68 406
3 406 68 92
3 90 333 68
3 68 333 92
3 91 36 81
3 91 415 36
3 36 415 140
3 99 311 67
3 67 311 76
3 462 266 264
3 264 266 438
3 462 96 266
3 266 96 438
3 180 65 189
3 355 64 83
3 64 84 83
3 91 63 88
3 88 63 180
3 91 81 63
3 100 62 422
3 422 62 158
3 99 61 410
3 61 82 337
3 60 488 440
3 229 213 265
3 265 213 184
3 229 123 213
3 213 123 184
3 440 59 355
3 355 59 93
3 84 58 83
3 189 65 58
3 158 359 56
3 80 62 338
3 338 62 100
3 92 333 55
3 55 333 174
3 488 46 359
3 359 80 488
3 104 386 54
3 54 386 93
3 66 373 386
3 70 52 86
3 86 52 415
3 70 140 52
3 52 140 415
3 82 53 265
3 99 67 53
3 53 67 265
3 311 99 71
3 71 479 311
3 281 51 471
3 51 359 46
3 78 50 471
3 471 50 281
3 78 57 50
3 50 57 281
3 59 80 338
3 338 93 59
3 189 49 180
3 180 49 418
3 189 304 49
3 49 304 418
3 422 48 100
3 337 79 48
3 48 79 100
3 47 65 81
3 79 104 54
3 54 100 79
3 140 70 46
3 158 45 359
3 359 45 80
3 158 62 45
3 45 62 80
3 60 440 47
3 47 81 60
3 86 356 302
3 302 356 492
3 86 415 356
3 356 415 492
3 70 471 51
3 51 46 70
3 429 323 482
3 482 323 170
3 214 174 410
3 61 99 53
3 53 82 61
3 337 48 453
3 453 48 422
3 265 375 229
3 229 375 76
3 265 67 375
3 375 67 76
3 56 359 51
3 51 281 56
3 100 42 338
3 338 42 93
3 100 54 42
3 42 54 93
3 337 44 79
3 79 44 207
3 337 82 44
3 44 82 207
3 80 41 488
3 488 41 440
3 80 59 41
3 41 59 440
3 349 40 57
3 57 40 281
3 349 56 40
3 40 56 281
3 93 351 355
3 93 386 351
3 351 386 373
3 429 482 121
3 103 490 86
3 490 78 471
3 158 39 214
3 214 39 349
3 158 56 39
3 39 56 349
3 78 38 87
3 87 38 103
3 78 490 38
3 38 490 103
3 92 357 406
3 92 57 357
3 357 57 78
3 176 142 437
3 437 142 480
3 176 385 142
3 142 385 480
3 164 37 89
3 403 267 37
3 37 267 89
3 140 60 36
3 36 60 81
3 373 35 64
3 64 35 84
3 373 395 35
3 35 395 84
3 97 339 87
3 97 74 339
3 339 74 406
3 98 43 335
3 335 43 262
3 101 285 137
3 88 232 285
3 285 232 137
3 61 337 453
3 453 410 61
3 262 354 395
3 395 354 84
3 262 43 354
3 354 43 84
3 197 472 104
3 104 472 386
3 197 66 472
3 472 66 386
3 86 387 70
3 70 387 471
3 86 490 387
3 387 490 471
3 492 319 408
3 408 319 101
3 492 69 319
3 319 69 101
3 438 396 193
3 193 396 401
3 438 96 396
3 396 96 401
3 410 310 214
3 214 310 422
3 410 453 310
3 310 453 422
3 96 347 197
3 197 347 66
3 96 462 347
3 347 462 66
3 92 362 57
3 57 362 349
3 92 55 362
3 362 55 349
3 90 324 479
3 479 324 188
3 90 291 324
3 324 291 188
3 262 405 264
3 264 405 462
3 262 395 405
3 405 395 462
3 408 447 164
3 164 447 309
3 408 95 447
3 447 95 309
3 479 421 333
3 333 421 174
3 479 71 421
3 421 71 174
3 66 374 373
3 373 374 395
3 66 462 374
3 374 462 395
3 121 370 211
3 370 262 264
3 137 348 101
3 101 348 95
3 137 77 348
3 348 77 95
3 87 339 78
3 98 411 43
3 189 58 411
3 429 466 200
3 200 466 211
3 429 121 466
3 466 121 211
3 189 411 304
3 304 411 98
3 88 285 69
3 69 285 101
3 98 413 304
3 304 413 170
3 98 482 413
3 413 482 170
3 349 325 214
3 214 325 174
3 349 55 325
3 325 55 174
3 140 320 60
3 60 320 488
3 140 46 320
3 320 46 488
3 69 464 91
3 91 464 415
3 69 492 464
3 464 492 415
3 83 345 355
3 355 345 440
3 83 47 345
3 345 47 440
3 355 351 64
3 64 351 373
3 97 327 74
3 74 327 210
3 97 473 327
3 327 473 210
3 180 317 65
3 65 317 81
3 180 63 317
3 317 63 81
3 65 315 58
3 58 315 83
3 65 47 315
3 315 47 83
3 78 339 357
3 357 339 406
3 335 262 370
3 370 121 335
3 170 308 400
3 400 308 235
3 170 323 308
3 308 323 235
3 385 307 403
3 403 307 97
3 385 473 307
3 307 473 97
3 43 290 84
3 84 290 58
3 43 411 290
3 290 411 58
3 403 37 198
3 198 37 164
3 104 286 102
3 102 286 207
3 104 79 286
3 286 79 207
3 211 370 288
3 288 370 264
3 137 489 125
3 125 489 400
3 137 232 489
3 489 232 400
3 98 284 482
3 482 284 121
3 98 335 284
3 284 335 121
3 480 385 277
3 277 385 198
3 210 275 74
3 74 275 90
3 210 291 275
3 275 291 90
3 76 271 208
3 208 271 188
3 76 311 271
3 271 311 188
