# vtk DataFile Version 3.0
A great-looking cell
ASCII
DATASET POLYDATA
POINTS 485 double
133.53887850113256 333.04508665158215 55.414593220518704
133.90729457894486 330.7004179582967 55.643487373222314
133.62452672488914 332.24672068739187 56.96907867007012
133.88119246894837 332.021033845906 53.36249353581062
133.80605521716473 334.37222628901196 53.74834466725013
133.55479985961585 335.257555329623 55.882977118793775
133.64368518250387 333.74372251311047 56.95370065863937
134.28414056637044 333.0780779721878 58.25296202021095
134.11543613344185 333.63718323607156 51.81801511933374
139.01971157367873 328.49094816842256 53.889969944419896
133.07033138936495 337.7778903009921 52.03918881502707
134.95929984069332 334.1856499413443 59.554899228573305
133.71109868802904 339.3093013000878 55.974458199900866
134.1757289829099 335.0610468080016 57.99667601651471
135.26734811852623 329.43306084430463 56.889771629102576
135.0794274954354 332.3142667058871 59.78234053895464
160.85558994122806 338.17361785558415 59.439465161091725
149.83944583047864 327.46504558366075 53.00136301549572
156.86345021903483 347.05973251427145 70.47392461318218
162.42711720528837 344.6490910492413 61.44197818563196
156.8003650746995 330.8509604322033 48.81424799381682
160.5453391000472 345.0606250186289 51.64416792726298
147.31417468764403 344.5898706461389 59.72387643217352
159.9934069286724 339.7690030222727 51.02784006451023
151.83090545367594 347.1520839656313 64.30724024135142
158.1314283342692 335.9532001058244 65.70160512907768
150.1748699726311 331.7526555228604 68.85262647141211
159.6544700564857 339.3033923873622 67.24652736367482
159.5796630407466 336.010395096961 56.89678313488114
155.96505149681144 333.613368744254 45.05819000479189
152.86532762854176 327.3491677417373 61.04849420145096
158.95550212331335 335.3118277290392 61.57863232758443
162.40687746060556 340.35733188770337 58.020412589312315
159.49448659126202 337.0770793363971 51.031736144315516
156.54734922182152 329.1187416172234 61.919034350039645
154.68301843806736 340.2154689662624 44.81265714689231
159.59136542875325 341.61183015523517 68.81903270268008
161.50579144172306 339.37467260873854 61.93841119838312
160.90443742264205 347.6773895168751 57.90051981122755
150.206221627095 328.6906215759929 64.4186780349453
157.65450493382093 328.511017936139 56.80178200303691
155.1930720427568 336.60431735163036 69.50777439923071
159.17171598663356 337.5883559977937 64.90416010286344
157.19236851501188 339.94858395178767 68.90533553091535
157.8445480973384 335.9631109691372 47.89754839740323
159.02200527624527 333.8632867608539 55.75070163938055
161.15417811931997 339.36093944300615 53.88254992347422
152.815086413343 329.2526041253217 65.4929647322257
158.59220652712727 333.55402265256106 61.16410816265884
156.73582968101445 344.12598437428085 47.75748622505821
158.23452977729613 331.90869304132417 50.536464311069984
158.80864704000055 338.47041592245296 48.485971019384706
154.15917984370887 327.77209677635295 51.96855166799755
148.03082925421387 330.0012190491173 65.63775560729256
162.51509698841733 342.0871443263015 63.140861467325486
152.13840357733415 338.4619505823284 70.65932396290219
151.45106572704216 346.9905040777964 52.773709146934806
162.81866288008294 343.04242640209674 59.141568610322636
152.4707126965971 331.8369711380206 68.92417550495719
141.45653342668442 329.6082590268176 60.66344166039584
147.75652004994436 342.19962913949155 67.35755042960217
147.91239339661826 344.66076822571637 63.14053815500359
145.93616525614445 331.3280181415193 65.76379993169914
145.70864315554684 343.6554439960678 51.24772109263482
153.98057431606412 347.16449641643527 69.54298288336281
154.66336911028483 327.66793122058994 59.72268062390728
159.34457625154903 335.62814710446594 59.38815689243795
160.0920522181319 342.51583566644064 49.60486330655582
151.27840403459192 327.64069550014045 62.21701028320962
158.65353510059285 334.823092303822 50.20045952639524
157.4779249244512 333.2278464163599 47.846078841687735
140.59826777644852 340.47332116414 60.419116321262514
157.88868153436667 349.5283977203734 60.22826265614775
149.39696945596438 345.4146055494847 64.30393604796433
153.251132560127 345.8947846681157 49.09090301751698
148.95508993597406 345.71470549652093 58.40660489521454
149.1633589861621 338.8679990721528 70.02390712559729
156.17785848427545 346.5035753089528 49.527975421065754
154.68179139094522 339.277135349516 70.05726531805165
158.54699263414042 331.098526540827 56.00283684807484
149.13264680776658 327.80028576711356 60.924067312538746
146.6380513169136 344.53692211527454 53.749603047516345
150.39834322928652 327.7770353286457 51.0719365449748
147.1877611328297 343.45254744815713 64.76275625243119
153.90301695327258 335.09697892660074 43.14891653314429
150.54906378750755 330.2636233148502 67.17999305082897
158.22952933103937 330.923670960793 60.49143645406408
148.93319098180112 345.4633197989626 52.61183382543827
152.2048096040364 327.2227000939458 56.31232202301544
151.63453121280546 347.28889924538953 61.101688359251625
155.01751078114575 327.44280185997013 56.80522804478614
144.31008378871718 331.5791240874602 44.94540429176123
136.60748875583153 340.4565566046679 50.62303246960722
141.2751682340523 336.3282380384648 64.33045893636144
135.86832671845835 340.57269107888106 52.17272062565863
158.90783019109165 349.4259357660421 64.28524039285462
159.26553182992578 349.3236774660446 62.23402091331919
149.91945131212816 332.5479970995054 43.42273044609026
139.86567968284487 339.9273936298494 47.132230449769786
146.28817050210873 338.5833902799692 42.89511057739498
144.0185202002429 329.17888350700196 60.76724371264412
140.6852920401603 330.8159080982555 46.361043972573874
146.0354856913516 342.9359456876527 48.450686516410634
142.3373154396526 338.4967307993793 44.15812256253182
139.92133218516162 340.5444962262069 57.36640477708274
140.32618250672942 335.32214664241394 63.59726740958298
159.69618337003288 346.66833419841475 70.11454530563192
158.12654833189922 329.39984932435993 55.007533424112495
150.07744442971062 346.52779722071153 59.76150878970745
161.8068511729439 346.0808512661492 65.38537257956531
145.4499472568829 330.64331569932415 45.76141146775458
155.23557879395665 344.8161786376037 70.0978081370656
139.59529428809168 338.88512641212725 45.59309641999285
154.7032297939993 331.7346414630642 45.4303907968324
160.9349567935207 348.1548747589243 62.726566989900746
148.0253509560687 344.61009297713093 50.05314299563327
161.3459653813215 343.10333474227383 68.18714253582918
163.11980920297273 342.34785207462795 57.249789558646846
162.41292978282124 341.7664652231219 55.35078915977362
142.8178273577041 340.73766710683094 63.12721096338242
144.28770612486858 338.66103988114827 43.83846671382197
156.60199693568705 348.1173199116256 52.43750160387339
134.67121425714697 339.6492517000848 48.44737997144194
134.95291951259867 340.3978642822271 50.34575188045774
134.96183462266663 335.7077535894695 59.365684335310384
158.76145674442753 345.0236564240129 49.269132950001236
154.31638027051605 349.0383769182345 60.74925229913176
136.39256127838794 339.6199878948907 46.940274432777215
138.03853567436585 340.47114465752196 49.88342189904452
136.24441388897014 338.4313479530329 60.424886063664665
149.49095709723235 328.09296694058713 62.70352620741134
150.71679783221506 338.57798008052254 42.26405724181221
135.4744342515501 339.9190684038819 57.166933511716636
134.8079259911018 338.53912107009046 47.12008525669607
133.7039358048573 336.7702375401986 50.18846279580533
137.91561414195948 338.8542830681987 60.82275755771214
140.74700654147284 341.13202068088765 54.02909377178007
137.33180513900652 328.8145944616931 56.791574169494396
137.33649029756307 340.3476822126956 53.686321548772625
158.36821273373246 334.87043425663353 63.7530943079592
141.62843348674394 331.6864662117156 63.04905589364969
139.14271538704523 340.50921180805165 55.26635281965637
142.32919757140724 334.81509516493486 64.61426222474516
134.30693822867818 332.0386004260284 51.487012267372386
146.8345780331959 344.4028552096502 57.44090145294262
134.27577449384987 336.8907845251383 58.70398688852332
138.21426466231284 331.17139780927664 61.73993959599856
138.93603595573012 334.1281017553394 62.69783489229095
138.8019264322907 336.1316545518769 62.44778120312976
147.15781863166154 329.3965765739516 47.30080384433661
152.48345711272677 339.7690431106016 43.624562794703536
144.5845429265769 328.9019534749256 49.828974688264225
142.471096852098 341.9636581169209 53.73334291511419
134.79385734054705 336.9019831922359 46.994064376645014
154.3406764872859 333.88112744154716 69.36490446186912
152.71691532448546 344.6002831327293 69.1608401254761
139.7582167219191 340.53966038184535 48.97809383109651
143.5405417975572 340.3131217132063 64.76090184900697
137.9717390873728 339.961679366914 57.27763689605386
143.77215790656837 342.5377091603956 57.61908894685075
143.41567567632018 341.88482513775966 48.60470164484177
155.70420781403186 341.99229637868393 46.1399648175456
137.7875184038054 340.4630041001714 51.710707914591524
158.45565893854905 349.3879724186548 66.00277362069353
137.63380369873744 338.0195407381683 45.79033998147901
136.94478540471925 339.43581847596334 59.08609236169027
146.6290320182226 328.45578729489637 60.07784308927453
144.6356295443721 329.5747276690926 48.0844451562927
141.43328333914252 341.3021902437442 49.96625424214639
146.8235966874406 328.1798307220325 56.172719701121736
146.06402267830913 334.9529082311159 67.86906583691191
156.97807839762638 339.1631573741845 45.931441449358665
141.20862087968825 329.78665142371176 48.00197557167092
161.94797523651545 339.6997479593224 59.99927842164793
134.3193466006728 335.871079031722 48.48690571656241
146.53490295590427 328.58083204011643 50.09906202309905
142.94573720576423 329.27235036225875 49.59054628587688
133.7102391975131 340.01294081413084 52.168447958161345
144.61409063390224 337.6538302204632 66.9846613124817
151.74103862359257 327.1901299238073 53.319295455296164
145.44023416025325 343.42173675203173 59.37841685604034
135.9629577320278 335.37905364098566 60.49838754848222
145.80719391283048 332.64975074796854 43.84080050707157
144.48597120978957 343.11601482249864 53.534473654598045
139.19816350504308 331.8259184911123 46.01440862751691
139.41092184116818 335.53460215111676 44.868646553141915
142.53479333446967 328.6791336429264 53.128494732253436
136.43377530775513 340.290168582764 49.01011277807134
143.40189393705884 328.62468780121924 55.330233707133374
151.55640659529288 327.2672619505543 59.211762593509626
144.45334011442145 333.32073835457714 65.84619336485876
141.55644458194004 341.0957899344404 58.93198402131206
145.2790287018784 340.47872177491456 67.13784246207257
151.12877560020615 345.5747771104643 66.95141807106756
148.0455626512946 330.88255651543983 44.91642708662544
144.57411972502865 342.77640477151647 49.88034366843512
145.74453525843472 329.1243528286879 61.86638572081094
157.5661476536906 334.27976319476005 66.48488651054325
156.3558531675917 349.539892403939 66.29027698228397
158.47781184440854 346.688275531143 51.046101052174514
136.0411651910419 330.4273667615415 49.1809804855993
134.3178066679707 334.8151745279706 50.1766703577886
134.6589625422716 332.92514829085604 50.13238874984974
160.002837514735 343.999204861244 69.99932845256184
135.7847121525781 329.0561483200505 54.87365781170242
137.42072444833855 329.9025366166416 48.0421583463132
139.30223922170865 340.67685284312074 52.96223902654403
134.9172392786072 331.17722516572906 50.306770551515825
142.91361339318053 330.73680238281645 46.224947808600724
146.71405825018252 328.2614074596136 58.02812862408964
157.8232371524753 333.1485471134258 64.94521568410916
157.32731632775705 349.21775044582773 68.4921266745998
139.24419053269804 328.5348244297668 55.74562387143081
144.89692975497408 330.2429446659766 63.48736679291682
137.16736900531114 330.0495414320309 60.3539861671906
154.96554386033532 348.71701940072535 67.69824149336891
151.12449905284512 344.6409981792985 47.53405711687996
157.1073663668484 342.92639390608434 70.10941647520605
137.11448711064205 336.96340021115986 61.26435535603628
145.6508413843181 328.40483810221184 53.94270630222526
146.93251423818887 340.3749241034659 43.90184447237213
140.41210512204736 328.76313261987957 52.338599721834626
149.81355134024744 346.3739626384701 56.87942589745032
152.1969093887835 346.7501038396302 50.69494566889439
159.95931647856187 348.219742411713 67.81912190147682
135.16578254067804 333.9775278085212 48.36844004063509
151.40622219295346 341.4400482546393 44.17545203836121
155.74257342437906 341.08826169951317 69.92384504766056
162.13397782138344 343.48861213462203 65.87002494291193
142.4527268182191 329.00591486452987 58.66337953120515
161.90610789520235 346.16475838649694 57.19735864717571
162.49118190707117 344.3497197683593 56.705816039683235
158.19328552949287 345.0825803189988 70.90756054187712
144.85927077589457 342.9301565875359 61.08612722107246
142.9805189530766 332.17639972292994 63.99248364172038
154.53542237918418 332.07241731234717 68.79890348766446
157.70005422431583 337.46923232353123 46.93260582488617
141.94807755087362 339.76633128310283 45.65112990146927
141.22314674155484 328.660517970595 56.8268283179943
140.78333081522743 333.0802718654372 63.29315250801556
142.35481873333228 337.6873639249885 65.36829429333092
133.71544552107017 335.6515928589191 51.98618001823037
140.7883017722266 329.13604251058524 50.179347853520696
137.70969459095923 328.6139948517045 54.9435271662099
162.7500243602333 341.086513610828 60.58679062316765
156.33274423082133 327.6620270326989 58.22474245775287
155.9222935919623 332.830230183492 67.9254683210797
160.5889109547662 348.3759691385579 64.80863659522576
157.386555230052 328.61849394436547 59.39570804714406
153.88142162437006 344.13836602111087 46.910031973258874
139.27152172798208 329.8954131171195 60.52027213739913
162.15086995504163 341.5503508023939 65.25227438968358
153.5748571073604 330.13072367396603 46.26848576708439
141.13622989428137 341.3484867228841 52.154241999838185
151.45341905906264 328.77144648167865 47.51631449607316
147.5353118832492 328.9225022124406 63.012471275876635
143.81091969918901 339.0902373729923 66.19792319976162
150.9559794356244 327.99021989840577 49.199336534760086
149.0062914549983 345.5568342319813 61.401461614886884
137.78164196564867 334.8233527689668 45.515282573105935
159.50492777728127 340.5280223480242 49.070281186574604
156.2427838080805 349.77339017662604 59.7401836315185
156.7659170520591 344.9395324846688 70.7105480105206
145.9749022214874 332.85884119027065 67.02306175094938
159.53776980121478 348.9472596023272 59.495884097736
141.38745194087434 334.5911816334882 44.20897521485162
137.73783071186398 333.0947529876186 46.240042048385575
147.43653499168948 340.2656069309895 68.68335286848766
156.61965727440656 349.67241722469294 61.650094160518144
143.62291384804473 342.1618781042201 60.216536122265545
153.87085062319414 347.34044818372723 51.25310558101642
148.0933848350412 334.2569197901713 68.82791713856918
136.16947939323362 333.5475439320327 60.83359984523718
161.4025302832738 339.6461723372662 64.80926329655846
145.17211216351075 328.56239921218145 55.79399983554702
137.35152596562904 329.4274215542525 49.868416846112765
151.55239212943687 334.2319138556028 42.74791913476138
150.61467754915046 345.67383837282415 50.18869194075104
153.37055021867894 327.2874278048896 58.02200541657535
161.41073462227823 345.66736609477755 67.94938558599041
149.32555071935462 329.3378037469435 46.613985660291675
161.37365887458762 341.28708062884857 66.9016444228373
157.20201842793176 334.76245395595214 46.51882827344865
146.76596551366384 338.04875412300294 68.43400788423308
138.53968573751624 328.663800950732 52.40940538400628
156.99480536610272 349.66678864038965 64.05346358280973
152.38153405698463 346.40451514029166 68.39718860029944
153.3747913214028 348.4317941054762 62.8187275374527
152.95446335564463 348.24593214048275 58.889761992634796
159.47907354773122 348.95455971322883 57.793457684694275
134.43680464321585 330.4874362522836 51.94342341340228
161.3230877659446 346.6219629490247 55.39846540066309
152.03892918681623 342.83075058049303 69.79187071022487
144.3030646693295 328.6327632930256 51.68163002347034
151.05283493156512 347.031332797866 58.11622422171522
141.49284863460073 340.8523450069894 47.843335035718674
154.88804288270816 337.71237451008153 43.99886107240855
137.15715512155356 328.75721259277793 51.587067965727904
148.53427936640603 341.72291926576867 44.42279343309026
145.65619736285865 342.9803669289666 63.64613485013986
149.78775680775144 340.6017111976801 43.44214742702031
145.39199609219673 343.5181535110563 55.83831216687721
156.80317903289952 331.9237546554714 65.92898278822575
148.01262664709085 332.26723140526394 67.81583964957271
139.25420277882316 328.70172915742637 57.43879056482609
159.9855518328118 337.08914458874574 58.08359205387664
159.49715165811116 347.37567985250433 53.28782475049189
158.75349951755703 336.5712432269597 49.3820502903921
136.11140266085405 329.4087818720576 58.64876043332332
158.22871860572644 341.49013558954096 47.710707865716415
156.15633863081337 348.90603150139185 55.480977046917886
149.97351423860053 346.19687428199717 54.10107311903345
161.87526178738327 339.82139022502975 55.92980539832775
139.12661900936072 329.52092273303504 49.0027352274858
135.4155721064731 330.5699655714542 59.95210137014326
148.23842202962027 338.2688468888313 42.39738535154145
148.25958034534992 336.0530052063825 69.58232748789598
156.39675908319063 334.8212703270421 68.50023592629681
161.33232540923254 342.1127519183695 52.45196237776766
146.2814543043648 342.1595881114446 66.12725618974328
155.69607551189853 348.28803163425084 69.25672158950314
138.2154116770515 329.13136902588406 58.83975276114927
136.24263644585196 331.6108240861759 61.27410704669665
141.58314063250435 341.4794856332237 56.04239393064737
135.6634351086926 329.57066841525415 50.76032280436542
152.69908443770635 335.736946506805 70.32843939443387
144.10033954704005 336.79296146831246 42.983725604375174
153.01364649895126 332.4048656868183 44.26188608185435
143.25898376699413 332.8119945134812 44.62682190106809
153.83084609696843 328.02973448822416 62.863581989575955
158.79920180784046 332.843953076139 58.38153796363676
150.4209100115034 343.1099425033381 68.50744107463176
152.06008043415747 343.6307309116573 45.98502701427545
155.43965861813766 335.69241854416225 44.40262241189081
162.74434141987746 342.7233371035579 61.086192884702584
135.31120557785144 337.027055870898 60.18856445586675
152.8235311552185 347.6602457214982 67.08701644178939
159.1991850495371 335.5064160050956 52.01875685443831
133.33521216557514 336.5653128297669 53.94031985205092
152.27923107220113 327.68639303061326 51.49953816140194
147.26157616789118 344.6921696867095 51.89307370717497
157.68216001211127 336.98787377771805 67.75201995007787
133.61001401604133 336.5878437139966 57.25845656796979
158.3976012244284 330.6178628038393 53.33270339919527
133.2266417709194 337.48718247624583 55.8371059034896
153.78279620821922 337.488608070078 70.4680633705558
155.9706493868002 331.15098883230405 46.66567067559152
158.82561194052207 333.65186508153994 52.902062509974954
154.99849596431065 349.1598711323149 58.17189756329224
153.981857827716 342.20340758006046 70.60369915287988
158.58525709456896 348.08129645967495 69.49457586575399
159.62883285768515 337.1602619118302 62.024664927069786
137.63817519043738 331.4378258410948 47.0337868346652
133.7296492684139 338.3650577757617 57.588338508081534
156.21878158976958 338.1959269536398 69.10590716487893
132.80337133696665 338.9044475470364 54.14590814002438
142.82724573465907 341.0226126853023 46.985873365227704
135.61922165916377 329.146616813448 52.670464442069004
152.64961671366856 330.18801340194045 67.48983144085241
138.48525974308882 338.01511748143923 62.41881615224502
144.77608465967407 328.67967191704327 57.74345908308366
159.1504095992355 334.59422677370156 57.604588368685214
150.92725551475584 330.4299060659824 45.24190711319862
152.0396898674217 328.10448645726 63.894898419957485
158.66881379342323 332.3128166074683 54.50000313412168
156.55217717988046 329.26146876294155 50.9328405006378
154.69547584391123 328.4544581804762 50.21208758091626
146.45175719050695 329.8206527434666 64.65805076754334
150.36017405004833 346.50869660304676 62.794376075612576
140.9588604312592 338.0701523846424 44.463215544727014
140.30675292627498 329.1460509166141 58.83314431949986
150.4608809768693 336.581806244288 70.26180172864201
149.52801323476027 344.8888450623591 48.74772842779125
143.97021998296222 328.60545785944805 53.520059346406995
149.90267603887884 334.2178308684435 42.48246017721709
158.45955347231302 330.2924001046964 58.241383513031906
136.97186850371136 340.19859526010157 55.571742646794554
144.0852972139937 342.2051496227825 62.741680531160746
156.50402613979125 328.2237825200628 54.103352540468585
161.0726959950214 347.342774069997 60.826617680892596
150.41878084993965 327.2886493117246 57.19731548831331
146.10545467146318 328.36752908028893 52.061882682512646
148.04177809954078 336.30223651390435 41.889104100512135
140.00687246713284 339.3490985827925 61.6592010426824
140.3306011580389 337.524673154857 63.42720739917372
153.07876771282633 348.18605286934 56.33077320863865
143.5291407297005 342.53576219198766 55.352833877841874
155.03149271180038 329.19509769488633 48.442404679540275
148.50827981226416 328.14682687049265 50.63529521854833
135.05663923840297 338.601948607143 59.09581800982935
142.55110722207908 330.64734426888197 62.36712960421662
136.37607881921912 334.33583301801985 46.70306592710063
150.23616959875108 342.63547290121306 45.41751115100211
147.95680164776266 327.9281508597338 52.53817162465097
145.9959649934175 336.5647929855635 42.404721355580165
146.4253864939784 343.7327059293716 61.986264218789024
153.06188112769846 340.255820931586 70.96616901017391
153.27835252684014 328.83119845243186 47.852998134417774
151.2608395167951 341.1346126307694 70.40060190778023
161.28116219944707 347.28575114876685 66.571281851096
148.57756815952825 345.558253580246 55.53459733017643
139.15922993518237 330.3064381048143 47.208809643270925
154.6269307823213 330.76004588385246 67.308053379566
156.69181845660248 336.3374060163859 45.724556356356715
149.01206436529407 341.30921214051295 69.31999302783429
152.49646404334518 337.20351711104325 42.62265836514678
134.96271123931035 340.43121441475995 54.4862495997768
159.18608930014264 348.60909711674515 55.9001460680273
138.11624916476777 340.16784929371505 48.05561968852301
145.90275029084737 334.5452395014572 42.814607686170305
153.00765646520878 342.1574576164057 45.01909035238656
134.44328362785174 330.9323977689558 58.1683667678828
143.9832863600344 334.8357918569309 43.05254580666377
152.4548733660489 333.7617898509806 69.79776044188236
157.7171445707398 331.7778485766859 63.35948025854797
152.09743921342493 335.623330456333 42.38117098681642
139.3059797854591 333.58865630640287 45.016180037801895
160.39874750641468 338.46833940830777 63.41266024798832
138.30482389005326 339.3838624796701 46.652912482479636
161.04545152364403 346.0203060401424 53.47725894895547
142.18805817323212 328.8101364189137 51.365902725890294
147.89863155568077 334.23574313665745 42.30210865915131
137.49567304115234 332.9408677112708 62.12660509813132
143.28392993764234 342.3499312011035 51.295692834934506
148.62470025779862 327.67707381558387 58.116316445475825
138.06998508106827 336.38264392024587 45.34963082790263
147.42435374829313 342.3003342341753 45.85212944381526
162.17762215743912 345.6390286824083 58.871081217675105
141.60757378150902 339.61603370105036 63.51530317173949
149.1590252680508 328.37813117947724 48.85301300569871
138.8885763043381 328.9787320640694 50.878085285678075
159.68802510981524 336.50933718738014 53.955490667922376
149.20679143654684 343.91647739959564 66.3513182753756
134.3846769415455 330.0382180745165 53.67471484707854
140.96495426575387 328.6987991838718 54.5446020664578
137.2484540199942 328.51156993970307 53.38842416334698
154.43537185454878 348.73888662783475 65.02260250234748
158.69680592960094 343.4031502331399 48.242350891281
146.799065186365 344.5958939198638 55.645912056929134
142.95936749236725 328.75315804282144 57.14069849159958
147.43446077564818 327.96091893296676 54.44731431295622
137.3576394584278 334.85621336960935 61.71613330396298
157.6661079286386 349.39020740237635 58.066232631631195
140.40579433376618 331.14854983591874 62.10377277920534
155.57896496732258 329.89011750062144 64.6259837710356
145.38570636139494 343.42127724677533 57.56652371868075
162.26207273170044 344.6082828774995 63.810471291933304
161.85054568810978 344.3846971950558 54.057029646315385
135.886398251144 337.91608046862206 46.33572679097018
135.09405904567498 331.8913660967923 48.608887374746715
139.13952352954064 332.4653057694238 62.47446926663791
136.29612453557118 331.09408159549287 47.809609621955644
133.5031140737365 338.90507636336076 50.12671583297812
152.809013540411 328.14998238828883 49.67447886116274
160.0072388372378 338.2056739121807 52.49690140640342
153.83826469625737 348.11501729019926 53.74694753761055
139.29611878584714 339.88759177962726 59.34707682692793
147.89120744373815 332.39095486506756 43.37530404268161
144.537489306045 331.7387054217903 64.80725570619612
141.11165431566175 332.3696399621768 45.35670810189834
136.34162381140723 336.2191067460805 45.914300453300335
157.9354364258864 348.56203685382326 54.17277443803154
161.7096298029132 346.6192439682147 63.164450960736396
153.9836076467743 327.2677534293599 54.47846834320849
145.21432047119205 342.0673549527068 64.94630289742695
140.59622375055898 336.4759459388074 44.122335992900126
149.35511806180259 327.48655558583187 55.137445006645
155.03865374599806 345.39971559458564 48.08433466874226
135.36717038946517 335.4474075963327 47.27300047262906
144.64755506199597 341.0967093325634 46.10742581086572
150.24713922599457 333.92244562308974 69.63485982272326
141.94823655257417 340.9355873706269 61.559003316719846
142.45160051177388 336.8742138197917 43.62692366249318
150.15477354610314 336.07332177055787 42.03880710936573
139.2328028721125 337.30961891515324 44.7153481073572
142.9179325319288 329.75769538832196 47.93342710386594
152.1993891412923 347.779096459902 54.548039550477284
139.58700659784432 340.73165284404945 50.94523450413531
136.22651842447175 332.5865920438729 47.27386031660755
160.7875939346316 338.19014021138616 56.601261971597
148.69280694642663 343.7526338524746 47.62454062748389
155.13006674505837 349.1586518841444 62.85941891891649
143.83067002194264 335.6481639112058 66.29841016468738
150.7899495982289 347.0159662504109 55.4600353157741
134.0610171526315 337.77841819001065 48.47188304153277
POLYGONS 966 3864
3 0 1 2
3 0 3 1
3 3 0 4
3 4 0 5
3 0 6 5
3 0 2 6
3 2 7 6
3 5 6 13
3 13 6 7
3 13 7 11
3 7 2 411
3 1 411 2
3 15 11 7
3 15 7 411
3 15 411 314
3 4 8 3
3 1 204 14
3 433 290 357
3 290 433 3
3 3 433 1
3 314 322 15
3 411 1 14
3 357 290 324
3 314 214 322
3 321 250 214
3 304 238 370
3 322 146 422
3 321 304 370
3 275 430 297
3 250 321 370
3 221 9 284
3 3 143 290
3 411 14 308
3 434 212 9
3 212 243 9
3 242 430 313
3 242 221 430
3 430 221 284
3 297 324 275
3 433 204 1
3 200 207 449
3 451 200 449
3 143 207 290
3 290 207 324
3 137 212 304
3 200 205 275
3 205 451 352
3 433 357 204
3 313 205 401
3 205 352 401
3 143 202 207
3 207 202 449
3 207 200 324
3 10 241 338
3 338 241 4
3 434 188 238
3 238 229 370
3 201 202 8
3 188 434 186
3 176 242 172
3 353 12 344
3 12 355 344
3 443 59 390
3 370 229 59
3 323 191 159
3 471 269 191
3 180 159 269
3 269 159 191
3 176 151 293
3 293 151 175
3 176 167 151
3 151 167 175
3 401 172 313
3 313 172 242
3 175 149 429
3 175 167 149
3 478 266 352
3 183 386 301
3 183 152 386
3 386 152 323
3 250 443 146
3 390 213 234
3 335 389 145
3 145 389 353
3 184 416 459
3 8 143 3
3 8 202 143
3 390 140 443
3 443 140 239
3 390 234 140
3 140 234 239
3 157 428 240
3 471 383 428
3 242 420 221
3 242 176 420
3 420 176 293
3 370 59 250
3 59 443 250
3 250 146 214
3 219 274 188
3 188 274 360
3 219 169 274
3 274 169 360
3 4 241 8
3 241 201 8
3 206 162 138
3 323 136 141
3 141 136 206
3 323 152 136
3 5 344 338
3 338 4 5
3 456 135 383
3 174 134 484
3 134 452 484
3 12 132 406
3 132 165 158
3 243 204 435
3 241 134 201
3 201 134 174
3 218 129 335
3 335 129 389
3 129 165 389
3 14 137 308
3 11 124 13
3 435 297 284
3 297 430 284
3 204 357 435
3 435 357 297
3 355 177 10
3 177 452 10
3 204 137 14
3 321 137 304
3 452 134 10
3 10 134 241
3 12 406 355
3 406 177 355
3 165 132 389
3 266 391 259
3 266 478 391
3 391 478 225
3 181 218 335
3 165 129 135
3 135 129 218
3 174 468 225
3 324 297 357
3 9 435 284
3 9 243 435
3 430 275 313
3 275 205 313
3 212 137 243
3 411 308 314
3 272 322 422
3 272 15 322
3 225 449 202
3 225 478 449
3 137 204 243
3 314 308 214
3 214 308 321
3 484 153 174
3 153 468 174
3 449 478 451
3 451 478 352
3 239 450 443
3 422 146 450
3 450 146 443
3 158 165 456
3 165 135 456
3 239 105 147
3 239 142 105
3 185 265 416
3 416 265 459
3 191 104 456
3 456 104 158
3 104 141 158
3 237 103 369
3 369 103 472
3 237 120 103
3 103 120 472
3 221 434 9
3 221 186 434
3 141 376 158
3 376 138 406
3 202 201 225
3 201 174 225
3 208 475 172
3 172 475 176
3 208 167 475
3 475 167 176
3 194 110 182
3 167 208 110
3 190 142 234
3 234 142 239
3 172 101 208
3 184 459 101
3 265 328 459
3 360 100 229
3 100 213 390
3 324 200 275
3 200 451 205
3 322 214 146
3 321 308 137
3 15 272 11
3 304 212 238
3 212 434 238
3 206 477 162
3 477 128 162
3 162 94 138
3 94 123 177
3 484 133 153
3 123 92 187
3 123 94 92
3 92 94 162
3 133 122 127
3 127 122 187
3 122 452 123
3 452 177 123
3 156 408 128
3 128 408 187
3 408 127 187
3 164 448 127
3 127 448 133
3 127 418 164
3 295 156 168
3 128 187 92
3 92 162 128
3 187 122 123
3 153 133 448
3 138 94 406
3 406 94 177
3 416 259 185
3 153 460 468
3 158 376 132
3 132 376 406
3 229 439 360
3 360 439 188
3 229 238 439
3 439 238 188
3 418 127 408
3 147 441 422
3 422 441 272
3 122 484 452
3 122 133 484
3 164 460 448
3 422 450 147
3 147 450 239
3 265 465 472
3 472 465 369
3 465 474 369
3 218 441 148
3 218 181 441
3 425 460 164
3 225 468 391
3 145 13 124
3 124 335 145
3 206 138 141
3 138 376 141
3 384 148 105
3 266 184 352
3 352 184 401
3 389 132 353
3 353 132 12
3 13 342 5
3 13 145 342
3 342 145 353
3 5 342 344
3 342 353 344
3 344 355 338
3 338 355 10
3 152 183 423
3 164 112 474
3 474 112 369
3 335 124 181
3 181 124 11
3 416 266 259
3 416 184 266
3 184 101 401
3 401 101 172
3 468 460 391
3 391 460 259
3 168 477 253
3 253 477 206
3 112 418 98
3 128 477 156
3 156 477 168
3 301 386 159
3 159 386 323
3 164 418 112
3 182 91 328
3 328 91 208
3 182 110 91
3 91 110 208
3 136 152 253
3 253 206 136
3 295 237 98
3 98 156 295
3 164 474 425
3 185 425 474
3 149 167 110
3 110 194 149
3 166 100 360
3 194 280 149
3 149 280 429
3 280 254 429
3 120 469 220
3 160 102 469
3 190 482 142
3 142 482 240
3 482 178 240
3 466 424 169
3 208 459 328
3 208 101 459
3 328 412 182
3 328 265 412
3 412 265 472
3 175 381 293
3 293 381 219
3 175 393 381
3 381 393 219
3 295 168 160
3 168 423 160
3 474 465 185
3 185 465 265
3 153 448 460
3 369 112 237
3 112 98 237
3 301 81 183
3 166 80 255
3 166 424 80
3 80 424 189
3 159 445 301
3 301 445 144
3 159 180 445
3 445 180 144
3 456 71 191
3 191 71 471
3 456 383 71
3 71 383 471
3 460 425 259
3 259 425 185
3 68 80 189
3 141 104 323
3 323 104 191
3 400 87 81
3 400 144 75
3 179 88 466
3 135 359 383
3 148 384 359
3 359 384 383
3 102 63 115
3 183 81 63
3 73 61 83
3 83 61 395
3 73 258 61
3 61 258 395
3 156 98 408
3 408 98 418
3 221 420 186
3 186 420 293
3 157 464 377
3 157 192 464
3 213 458 234
3 234 458 190
3 213 62 458
3 458 62 190
3 11 272 181
3 272 441 181
3 441 147 148
3 148 147 105
3 148 359 218
3 218 359 135
3 170 283 178
3 178 283 192
3 428 383 384
3 384 240 428
3 183 63 423
3 169 209 360
3 360 209 166
3 169 424 209
3 209 424 166
3 229 100 59
3 59 100 390
3 168 253 423
3 423 253 152
3 423 195 160
3 160 195 102
3 423 63 195
3 195 63 102
3 182 409 421
3 421 409 394
3 182 412 409
3 409 412 394
3 76 55 398
3 85 303 53
3 53 303 62
3 453 257 254
3 254 257 429
3 453 82 257
3 257 82 429
3 347 50 69
3 50 70 69
3 86 48 414
3 414 48 139
3 46 479 431
3 213 196 255
3 255 196 166
3 213 100 196
3 196 100 166
3 431 45 347
3 70 44 69
3 139 351 42
3 66 48 330
3 330 48 86
3 41 325 154
3 90 378 40
3 52 365 378
3 85 53 39
3 39 53 255
3 330 79 45
3 171 35 161
3 161 35 410
3 171 296 35
3 414 34 86
3 329 65 34
3 139 31 351
3 351 31 66
3 139 48 31
3 31 48 66
3 47 85 39
3 329 34 444
3 444 34 414
3 255 367 213
3 213 367 62
3 255 53 367
3 367 53 62
3 86 375 330
3 330 375 79
3 375 40 79
3 329 30 65
3 65 30 189
3 329 68 30
3 30 68 189
3 479 28 431
3 28 45 431
3 341 27 43
3 341 42 27
3 27 42 273
3 343 378 365
3 139 25 197
3 197 25 341
3 139 42 25
3 25 42 341
3 157 119 428
3 428 119 471
3 157 377 119
3 119 377 471
3 144 22 75
3 395 258 22
3 22 258 75
3 365 20 50
3 50 20 70
3 365 387 20
3 84 29 327
3 87 277 115
3 74 216 277
3 47 329 444
3 444 402 47
3 252 346 387
3 346 29 70
3 90 463 378
3 179 52 463
3 463 52 378
3 483 311 400
3 400 311 87
3 483 56 311
3 311 56 87
3 429 388 175
3 175 388 393
3 429 82 388
3 388 82 393
3 402 444 302
3 302 444 414
3 82 339 179
3 179 339 52
3 82 453 339
3 339 453 52
3 78 354 43
3 43 354 341
3 78 41 354
3 354 41 341
3 76 283 316
3 316 283 170
3 252 397 254
3 254 397 453
3 252 387 397
3 397 387 453
3 400 438 144
3 144 438 301
3 400 81 438
3 438 81 301
3 470 413 325
3 325 413 154
3 470 58 413
3 413 58 154
3 52 366 365
3 365 366 387
3 52 453 366
3 366 453 387
3 97 362 194
3 362 252 254
3 115 340 87
3 87 340 81
3 115 63 340
3 340 63 81
3 421 457 182
3 182 457 194
3 421 97 457
3 457 97 194
3 171 403 296
3 56 277 87
3 84 405 296
3 296 405 150
3 341 317 197
3 341 41 317
3 317 41 154
3 118 312 46
3 46 312 479
3 118 32 312
3 312 32 479
3 69 337 347
3 347 337 431
3 69 33 337
3 337 33 431
3 347 343 50
3 50 343 365
3 83 319 60
3 60 319 192
3 83 464 319
3 319 464 192
3 161 49 309
3 51 307 44
3 44 307 69
3 51 33 307
3 307 33 69
3 327 252 362
3 362 97 327
3 300 315 220
3 377 299 395
3 395 299 83
3 377 464 299
3 299 464 83
3 29 282 70
3 70 282 44
3 29 403 282
3 282 403 44
3 395 22 180
3 180 22 144
3 90 278 88
3 88 278 189
3 90 65 278
3 278 65 189
3 194 362 280
3 280 362 254
3 115 480 102
3 480 216 392
3 84 327 276
3 276 327 97
3 471 377 269
3 192 267 60
3 192 283 267
3 267 283 76
3 62 263 190
3 190 263 170
3 62 303 263
3 263 303 170
3 178 482 170
3 170 482 190
3 178 256 240
3 240 256 157
3 178 192 256
3 256 192 157
3 410 249 161
3 249 216 74
3 65 248 34
3 34 248 86
3 402 302 246
3 246 302 197
3 180 233 395
3 395 233 377
3 180 269 233
3 233 269 377
3 75 222 400
3 400 222 483
3 75 294 222
3 222 294 483
3 36 217 43
3 197 210 139
3 139 210 414
3 197 302 210
3 210 302 414
3 73 193 24
3 155 193 331
3 68 130 80
3 80 130 255
3 68 39 130
3 130 39 255
3 67 125 21
3 125 49 77
3 89 108 258
3 258 108 75
3 89 294 108
3 108 294 75
3 407 38 291
3 402 235 58
3 58 235 154
3 402 246 235
3 235 246 154
3 378 107 40
3 40 107 79
3 378 343 107
3 107 343 79
3 220 99 120
3 120 99 394
3 220 315 99
3 99 315 394
3 317 154 246
3 246 197 317
3 40 245 90
3 90 245 65
3 40 248 245
3 245 248 65
3 24 287 89
3 481 126 287
3 287 126 89
3 46 318 118
3 318 67 21
3 240 93 142
3 142 93 105
3 240 384 93
3 93 384 105
3 37 54 273
3 58 26 85
3 85 26 303
3 58 470 26
3 26 470 303
3 86 248 375
3 375 248 40
3 20 387 346
3 346 70 20
3 237 469 120
3 470 271 303
3 303 271 170
3 470 316 271
3 271 316 170
3 74 270 77
3 56 455 270
3 67 318 23
3 23 318 46
3 462 19 379
3 43 27 36
3 325 371 470
3 76 316 371
3 371 316 470
3 161 309 171
3 171 309 51
3 43 227 78
3 78 227 349
3 43 217 227
3 227 217 349
3 466 17 179
3 179 17 82
3 466 393 17
3 17 393 82
3 32 16 479
3 16 37 351
3 379 427 38
3 57 231 427
3 51 23 33
3 161 249 49
3 179 463 88
3 88 463 90
3 193 336 24
3 336 436 24
3 393 440 219
3 219 440 169
3 393 466 440
3 440 466 169
3 102 480 426
3 426 480 392
3 294 385 483
3 424 380 189
3 189 380 88
3 424 466 380
3 380 466 88
3 85 358 58
3 58 358 402
3 85 47 358
3 358 47 402
3 118 318 447
3 447 318 21
3 83 432 73
3 83 60 432
3 432 60 331
3 398 404 76
3 60 267 404
3 404 267 76
3 219 373 293
3 293 373 186
3 219 188 373
3 373 188 186
3 73 368 258
3 258 368 89
3 73 24 368
3 368 24 89
3 37 417 351
3 351 417 42
3 37 273 417
3 417 273 42
3 47 363 329
3 329 363 68
3 47 39 363
3 363 39 68
3 66 16 351
3 102 426 469
3 469 426 220
3 160 356 295
3 295 356 237
3 160 469 356
3 356 469 237
3 325 345 55
3 55 345 78
3 325 41 345
3 345 41 78
3 216 332 392
3 392 332 410
3 216 249 332
3 332 249 410
3 310 121 455
3 407 291 306
3 348 288 126
3 348 385 288
3 288 385 294
3 442 407 310
3 310 348 442
3 24 436 287
3 287 436 481
3 481 436 285
3 36 27 281
3 281 27 273
3 385 348 310
3 310 455 385
3 481 268 126
3 268 96 72
3 38 264 379
3 264 442 72
3 126 261 348
3 126 268 261
3 261 268 72
3 442 348 261
3 261 72 442
3 379 264 96
3 96 264 72
3 57 244 32
3 244 54 37
3 19 57 427
3 427 379 19
3 38 230 291
3 291 230 231
3 38 427 230
3 230 427 231
3 163 211 224
3 436 336 215
3 215 336 64
3 54 446 228
3 54 19 446
3 446 19 462
3 36 203 217
3 118 447 231
3 231 447 291
3 163 198 211
3 163 285 198
3 198 285 436
3 285 96 268
3 268 481 285
3 77 199 125
3 125 199 21
3 77 121 199
3 32 117 57
3 57 117 231
3 32 118 117
3 117 118 231
3 279 116 228
3 279 203 116
3 116 203 36
3 96 114 379
3 379 114 462
3 96 247 114
3 114 247 462
3 247 163 224
3 29 113 327
3 327 113 252
3 29 346 113
3 113 346 252
3 247 109 462
3 109 446 462
3 224 106 279
3 106 203 279
3 228 446 109
3 109 279 228
3 21 419 447
3 447 419 291
3 21 306 419
3 419 306 291
3 281 228 116
3 116 36 281
3 150 226 410
3 410 226 392
3 150 300 226
3 226 300 392
3 306 21 199
3 199 121 306
3 483 476 56
3 56 476 455
3 483 385 476
3 476 385 455
3 228 251 54
3 54 251 273
3 228 281 251
3 251 281 273
3 217 111 349
3 111 18 64
3 163 95 285
3 285 95 96
3 163 247 95
3 95 247 96
3 49 467 77
3 77 467 74
3 49 249 467
3 467 249 74
3 279 399 224
3 224 399 247
3 279 109 399
3 399 109 247
3 78 396 55
3 55 396 398
3 78 349 396
3 396 349 398
3 18 350 211
3 211 350 224
3 18 106 350
3 350 106 224
3 315 382 394
3 394 382 421
3 315 473 382
3 382 473 421
3 211 320 18
3 18 320 64
3 211 215 320
3 320 215 64
3 155 292 349
3 349 292 398
3 155 331 292
3 292 331 398
3 44 236 51
3 51 236 171
3 44 403 236
3 236 403 171
3 442 289 407
3 407 289 38
3 442 264 289
3 289 264 38
3 203 232 217
3 203 106 232
3 232 106 18
3 215 211 198
3 198 436 215
3 54 334 19
3 19 334 57
3 54 244 334
3 334 244 57
3 155 349 111
3 111 64 155
3 394 326 120
3 120 326 472
3 394 412 326
3 326 412 472
3 77 270 121
3 121 270 455
3 67 260 309
3 309 260 51
3 67 23 260
3 260 23 51
3 126 288 89
3 288 294 89
3 407 461 310
3 310 461 121
3 407 306 461
3 461 306 121
3 217 262 111
3 111 262 18
3 217 232 262
3 262 232 18
3 220 298 300
3 300 298 392
3 220 426 298
3 298 426 392
3 473 374 421
3 421 374 97
3 473 276 374
3 374 276 97
3 84 333 29
3 29 333 403
3 84 296 333
3 333 296 403
3 410 35 150
3 150 35 296
3 32 173 16
3 16 173 37
3 32 244 173
3 173 244 37
3 56 223 277
3 277 223 74
3 56 270 223
3 223 270 74
3 60 404 331
3 331 404 398
3 315 131 473
3 315 300 131
3 131 300 150
3 73 432 193
3 193 432 331
3 76 371 55
3 55 371 325
3 49 437 309
3 309 437 67
3 49 125 437
3 437 125 67
3 84 415 405
3 405 415 473
3 84 276 415
3 415 276 473
3 405 473 131
3 131 150 405
3 79 364 45
3 45 364 347
3 79 343 364
3 364 343 347
3 45 361 330
3 330 361 66
3 45 28 361
3 361 28 66
3 479 305 28
3 28 305 66
3 479 16 305
3 305 16 66
3 64 286 155
3 155 286 193
3 64 336 286
3 286 336 193
3 33 454 431
3 431 454 46
3 33 23 454
3 454 23 46
3 216 372 277
3 277 372 115
3 216 480 372
3 372 480 115
