# vtk DataFile Version 3.0
A great-looking cell
ASCII
DATASET POLYDATA
POINTS 510 double
306.4844054238123 254.38420777745233 72.0437598254709
305.96714218670945 252.92681815327398 73.36739008673065
307.63090781322904 253.45987312545992 73.41228190917158
309.1650672403734 255.07119554759754 72.45149808723814
304.708588209281 251.30815770092514 77.11902158615918
309.2833772765282 253.36195472133144 74.4693768388964
304.3710119700602 252.56091427665137 74.60849302581101
304.2605239865074 253.70808817790407 72.65718150829902
304.4643424567168 255.81525651017884 71.2961606743408
307.2071659968527 256.69770352825657 70.58021399952288
307.03714474378023 252.2395520348267 75.13110324038914
302.49300500383555 252.9906403439253 73.55872179168489
309.40530214812816 257.7099118494864 71.68207979847631
309.0488510477045 252.66185243491432 76.2052646434401
300.7173899136876 253.8439643301053 74.08370039413548
311.10812426876544 254.9347151009499 74.47102591674523
302.0518769177223 255.03499293512795 72.54263765319216
302.63887316904413 257.72285076223665 71.98547926959114
310.9789801292925 257.12368391291886 73.39041422904486
307.3764933613491 259.77574638854077 71.98279393402922
304.91526656361873 258.44467653460504 70.68356544598318
312.8264781774021 256.6835220455229 75.00134922162363
301.79374575948486 252.19601769737884 75.69416450017336
309.3995415706784 251.39725050122985 79.49930924058623
310.2382800511773 252.3537263954915 77.71399304439515
310.93644517932546 253.30714369922978 76.00423503894203
300.050723679516 255.12251817040965 72.98944442151864
299.5951643044041 255.4844067552823 74.7909677188953
300.6644053167576 256.8849034786274 73.41900908518848
301.9282128430363 258.98626782941227 74.35507212632506
306.219929623339 260.9152343918605 74.67014250299452
304.3949359882172 259.58716690262077 73.13234347926176
308.80804875477156 261.8659524580886 74.13177359348313
315.2222194143826 257.8947503177593 74.71752208171166
312.5041728501999 260.73854073752625 73.72534807309488
311.1366057246191 261.76627543159333 73.87464714422478
310.51648622358294 259.72893208921295 72.97360794124441
303.71878295899813 250.79811177177874 79.48926475569652
299.85288292948997 252.16922165510746 77.30709170303489
299.47335737171136 253.58658330136944 75.91499017319117
311.8675234257709 251.76737335273222 79.25189883204305
312.275049792536 253.3709489443416 77.80457884192053
312.80602100030256 254.65575283612935 76.12976396646239
299.9863599544894 257.70868125900824 75.76021318268577
301.77118649818243 259.2534377701996 77.07191195269337
314.6168425790536 256.1066238178106 76.43913399367116
316.5448215388113 256.69370549654457 76.19039657320214
305.72771577214945 261.2200180355154 77.14659721593516
303.772227342352 260.4827827226308 75.71575783285718
307.53163763289916 261.75097745207586 76.18984712168333
313.1792959551103 263.20785241455434 73.65163226576283
309.0512154504803 263.0781065687779 76.54527530591905
310.6980810805958 263.33755740246295 74.95939090956026
306.4909475550403 251.21372828507202 79.95565871802314
301.6827542963229 251.26965116777149 78.26238051032985
313.8433377344686 253.01872489957861 79.35395211860552
297.8767987525978 254.24128060181462 79.20430267099651
314.362276238988 254.3492989988584 77.76508305056262
298.11425224724564 253.1720616606641 77.53656704512207
299.5213124013519 258.3245943480427 78.40663044196144
301.6196208835454 259.5975847090301 79.67557337150527
318.22497957702984 255.41248825497914 79.77725506715821
303.62799494100227 260.585833908548 78.34677742154501
305.60185923866976 261.4696421883944 79.57329253467765
317.4744532140063 261.35888241844617 73.35376662810381
313.5220408618349 266.33905885457284 73.98817713841278
317.70943364735973 258.14439485259555 75.45797736983813
307.51657649083955 262.314261611404 78.27354834342255
308.7136148676354 264.788687131738 78.82237208698284
309.97516955917024 265.3282060884559 76.25507408082692
306.95083103841125 250.89012001410902 82.95319615981332
308.8176769804203 250.86875478104483 81.41666800775425
311.1659863729948 250.61581008441726 81.16932523097309
298.842732805846 251.73649180457986 79.60812130720501
313.32067546167497 251.99223536599433 81.16083995921299
314.9082218097961 253.2497280065716 80.94969589290359
297.9653478436242 256.5890774932282 80.0810884126326
299.5782150067215 258.67218989947577 81.14102204863178
301.718064097157 259.7087041612645 82.14323344473355
303.5908842542 260.7380128742222 80.85666212831094
305.6234447607105 261.62692779546126 82.02824162193758
320.0219106622957 258.54510458531036 76.48282047231494
324.5645832409803 269.6553711995446 72.26481163821434
306.9897582171879 263.2255938557383 80.56676137029307
309.2238015546483 267.1991052164649 80.30569995679822
301.65161228114243 251.15189730683272 80.77247105309256
310.00266875209036 249.79946672237233 83.42848698322328
312.66335310813133 251.13510832608551 83.280332244226
314.99942336110723 252.763478480948 83.0532411787566
297.74598305735003 254.10248021412832 81.61337015865563
300.0054488424239 258.94359913877327 83.32018484022886
301.7760289416001 259.6001607394286 84.48484137942951
315.8828442052946 254.02645558334456 79.44601059296309
303.6556215457537 260.7094034380999 83.31326503832348
305.6154241401133 261.80271455729365 84.55694074312589
323.8205436657915 258.78492630868 80.06062311319225
320.1582187414292 256.1270999666694 81.19079913877364
307.561793785528 265.62144386483993 83.9119663603243
306.8244455320709 263.5852375517644 83.12466624344037
309.18176986531324 267.48899410620766 83.17177120380116
308.2904173184256 250.2157782035649 84.8314545278135
309.86369972006673 249.56618105615505 85.70676231181434
302.26082117158177 251.23798266389005 82.82632458193852
299.4162035851154 252.23091793823198 85.8754859928083
313.93585272871513 252.15676957396226 85.31855728571533
299.4602407000471 251.58849965594683 82.94411755767509
315.81467787469705 253.312634055519 85.17717373400464
299.7154243917811 258.4429164551785 85.46656582842395
301.7973419588819 259.28532420607394 86.87972155334654
316.59839691251 254.2052553233161 81.61025454211085
303.70583370653156 260.5313268190451 85.75092206909896
305.51709879793566 261.74790802574546 87.06738189881555
320.9986669059751 256.00859989167634 83.50753589275976
307.738676026621 265.75845355939884 88.30241479678362
306.72674140218766 264.1725280358112 85.93027753037525
309.5953336157462 268.65129241333045 86.9196191304005
304.2352983977391 251.5831371367164 86.76659746013176
306.459647629477 250.93455106989072 85.4240513598353
308.2150072334687 249.96907314422253 86.73973056669954
301.8370379582525 251.64192942994757 84.91744930706061
301.58425768161146 252.54351460809056 87.21930687309046
299.9829302540251 257.8707878402644 88.0415926677141
302.0020630236174 258.7989471514291 89.26722582637146
317.8426922164157 254.0167136587685 86.40397969543012
317.14103796444317 254.11192866565568 83.87483314710053
303.7379885502653 260.26191319105885 88.17525000178506
305.49922397311275 261.4097242061118 89.40490339190775
325.668294712217 261.1013283305776 86.29718456440497
321.5382877267681 256.7519198811921 88.83018522004795
307.38011509119366 264.6934593206497 90.73904255165301
306.7321213575686 263.31826813710137 88.63233815224093
312.1355219238855 271.68492417840605 89.10699219815146
301.11464727379183 253.25171266371657 89.19016400250182
313.1630959497667 251.70834303361858 87.58966209673189
301.5064623817699 256.71403616610604 88.94394950211978
303.513874380402 256.96059009165486 90.05060503192662
317.0602575936263 253.77311552072598 89.09681006069899
305.93969075528014 261.17613918633486 91.53939158723087
308.01059998715925 262.63671813992147 92.10156148770217
323.6167762596316 260.7457718566949 92.61485198465486
319.51764563471136 262.4087698704451 95.73913080152957
306.99186125021635 262.4681329901716 90.38045845757017
312.40305559580787 265.9574645461838 93.98717674697527
310.7185612428446 250.0418637779593 87.97935674514393
303.47001267059545 253.1807703433751 88.9818588120425
310.15973070710214 250.40329793081528 90.78127068486282
312.53576710357925 251.44559300826415 89.98879964924139
314.5755898981608 252.95286107940666 89.43372085473838
302.13825732856736 255.00286099885838 89.56550745684847
305.0353197496988 259.5687311234517 92.69125918496597
304.4398047656296 257.8656398592426 91.94187254169213
312.7820197484235 257.1731919872899 94.869758636516
310.7334273080321 259.9996999339949 94.38006761500637
304.1013745854965 254.945648645034 89.99723512442583
312.74407161599703 253.78670951661582 92.6087001282119
304.9984227056761 255.90705337988484 91.69647669490708
324.5849832095554 283.21611413066057 89.51943796355668
334.9400136882618 270.4309381664942 92.4843409236695
330.79767944963527 276.89019959644304 77.28277716052162
333.5599034076579 276.31591366850813 83.39056371287066
322.5424836250321 277.4318737927367 74.39977587054823
330.82884683734966 278.5645237887988 78.95467893781407
330.1581542477609 282.0681386678842 91.58631250772747
329.8251567520993 282.3527491946193 88.52058286398925
335.076105396307 266.8568659015359 84.77340230128927
314.74884506309985 256.7352295611579 93.74998287018083
321.90434400068557 273.28097664630445 71.67899568692013
333.0157669269589 272.60423547926814 77.03670342360054
334.8544367961678 267.6447179242415 92.11879412976
335.62764375523926 269.2796733072675 82.44906561469018
328.7219223452465 277.5264375152564 76.66221976330894
329.97370647804433 273.2395790031921 98.18339188597334
334.90283578039396 271.8315545538942 82.24027727776848
334.1670900028566 266.65215574470704 80.26289016834822
330.3018733762317 275.42696657715703 97.18562012456367
331.82930104844235 269.19205645753465 97.5046859278971
334.0172259791865 272.83779122619654 94.49943260280953
331.6373507342987 279.90665471063824 93.86480963793458
311.51104705330226 270.66953822903906 79.97166987933781
333.0473925930572 278.3215134473979 84.73318277227187
334.1311706577215 274.2790293959645 82.07538512805762
333.6188111281442 268.887905223005 77.48106177361691
316.4833330553501 272.4962217101128 99.13821510093939
333.96592663488906 275.16498234068854 85.41623969837345
331.98282158825634 280.3665740127043 89.05225219351388
334.4866073203517 274.3030921887017 88.62184429731282
332.57399115974005 274.49531380025496 96.21918880591222
324.7640941769626 283.1785921419403 87.56178191166539
328.48077107731564 262.3872452924304 92.87861528452177
322.5750370862468 282.5492298289451 83.4922427816958
331.1594107512897 268.56906595534946 74.95262252338009
324.3044907657974 277.6715565714064 98.91222867816664
326.3771705126733 273.86622142828907 72.91897548760492
334.981400936674 272.1403223421523 89.13908385136526
314.41853086376835 270.5259964904908 73.65738997837303
333.6114216642963 273.9763094813523 79.52607860808571
325.76656724630925 271.77525170621476 72.15927738637987
313.1656490742946 273.16393526472683 88.35825872668836
334.9079664021174 273.4920867165656 86.49817864197401
312.4695977945381 272.72875013997356 83.60547725270303
323.0736852784562 265.27887546890105 72.75844550637328
333.15798127554865 266.61224386238877 78.11199270340867
316.13142158433783 271.90804241099386 74.13626108330276
314.30259113699844 266.3566953060077 94.66013816910079
316.6981173089291 276.2610092047066 78.31445951152726
335.1215562729661 267.12055471247544 87.83205856755852
326.0496922841687 262.72932983077374 78.23274837704508
329.4713633451902 271.16023720739616 98.9812308898542
327.5602151809524 276.9099195370228 98.95451076266139
331.88334021775836 272.54275109518477 97.29866729751792
320.4875027230306 267.05785526029786 72.33974787092555
322.5095213435516 269.11522911216304 71.32994910470143
319.5896521036098 271.02998798168136 71.51537637643524
316.3316748496168 270.40431925783037 72.92124782753658
314.52590341251454 271.79971163194756 75.28425604262146
325.14543455786423 266.41426682752973 73.79112761120216
318.0976153798033 273.0581853660026 74.88255104215638
320.5026165018343 279.05464854572506 77.19964264068793
314.7958994912251 272.71608467722365 98.47441548304762
317.8561726432708 279.1986651082011 82.08797750371832
322.0304985895236 282.3825903087796 85.89781207892577
321.3630592507067 279.0669241942322 97.99774259965254
313.75753735891374 275.6070500358208 89.66059910388701
313.9444363058079 276.10206478533235 91.40914752816472
321.98529860583784 272.11269907537815 98.92232007233349
313.7673545859994 273.6257315202465 93.19486941157373
326.6064572131102 267.5336900728981 98.32870760280242
334.71029307159665 272.46670804665814 90.99445939013049
322.3272100659515 282.2776239476343 89.38540312667574
327.05531415509694 282.6105398086414 92.99867990475579
317.7584709519936 280.0152382147028 90.65700480382368
328.0628055536609 273.6628066321156 99.02042289256829
321.98645454201466 282.06931102288564 92.4189767151364
315.70190444620647 273.46801386929286 75.77625571564111
316.03360377749954 278.1133083258584 95.78531948549413
332.2379252570744 275.75114496659313 78.54199447808217
330.0859356195597 281.23474431172906 80.89168446088236
316.5591488853938 274.81877773154065 98.95106174491231
322.92364070378324 278.98573397465543 76.21790986881462
328.2363508658503 279.7786987805313 97.1292788329063
320.9109861088662 267.8412558553595 98.89144725638774
333.81756409160687 265.4585657428556 90.00163276988107
320.45543559949965 268.75851008568503 71.3749667385707
313.60627506482086 273.5317083209368 78.80028188678494
333.04269862680945 265.25730420905325 93.05341513673892
331.15426930517026 281.3863219361641 85.6052609776547
323.1904154703047 268.99745918832326 98.81945924055262
331.4586671306829 263.0951801671767 84.45217064786691
320.3001614017931 272.79279958769183 73.03496623263676
326.01566309240246 262.6247054415908 95.35934317016067
318.6520684704082 266.97222701386755 98.37453381767645
327.9967374942972 280.2215941580031 78.44339908984881
323.8977974053381 272.8570635979334 72.2983583495034
334.03518883176235 266.9962826556918 94.15782607056646
328.60332314702714 267.1327452230296 73.41096922822551
318.8033057898922 279.6409423662974 95.92719700369013
304.19117833831064 250.67935242782724 81.64129546557092
334.88887083559865 266.77325672279505 82.596426522916
320.11950736239726 255.9053734332815 90.20635040383961
332.6860437392106 276.49372945053955 94.59590372614727
308.8053737172911 264.38606877108003 91.95783354007429
319.2305163446498 280.41414281828145 92.62103860034965
307.06880482191883 260.4509875381209 93.38679050410687
324.6545397096871 280.5922295198124 97.27847249655652
320.00188506254494 269.7966802783893 98.7326746633892
313.9177329147817 268.3948001860138 94.47600830214184
335.71398042226673 269.5416658045147 86.1018388717697
325.04688654418817 264.4570428793262 96.96777693934969
314.829010490996 260.4457038705143 73.31211931876871
321.2789868242461 280.2460806976006 79.27187499732264
299.4859271444325 252.6962125135825 88.15080764301497
327.83964166220517 282.98975564837957 86.51242302949863
330.16229738822324 262.7064224026536 81.72602527813062
333.0261305268955 275.28202136446066 80.43894706875678
320.4459275768831 281.0370896483443 82.83406832480395
324.3460678860104 282.37757299388886 94.38218024786278
328.33986973598144 263.3076387293984 78.80649340863873
315.5336273239386 265.17984287711573 72.30478527318073
331.01168861509336 271.6075342535812 74.21246377209489
332.8751381942258 277.42073916721546 81.35251315611487
310.319995460454 268.32888845899316 90.79909542046013
330.60571172824655 281.5484183113702 83.1410130791656
319.1795074380405 280.1323145751008 80.57955075880862
330.07222725899675 269.3842187573124 73.1290804141692
320.1964275200698 262.1395006304173 73.33613152929709
334.95747703946734 269.021864963859 79.84977228931062
335.0463813013777 272.25095970619367 84.58644566504611
333.391193861723 264.57082284968385 86.58337450985826
328.0511921643698 262.2011153210211 80.99613330384953
326.9773558158764 277.4052410023303 75.2344242877117
319.27129141095793 255.15107034314357 88.69126131468211
315.6406332745325 268.1912430854693 72.98652392466018
328.4942577637312 261.7794966303062 90.37403371860651
319.9232085128717 260.4972709235386 95.83566354567654
331.344549360556 263.2641835575011 86.68042774001772
318.06968077855635 263.73420547907375 72.18669321332382
318.33500755581724 278.155781206629 78.83283314923028
328.177185121216 263.5678591483055 95.21038170244736
321.8831477622723 263.42552981008174 96.2349299613243
331.6904047823484 279.98837876351115 82.75532395834635
332.9787573723321 270.95909276434116 96.08504438401806
317.00836306092725 259.1280231860562 73.58950838688857
316.8355033720021 277.757280329102 80.90422956217022
324.06965604097354 258.99822979350574 85.23556773010144
324.07321650350957 262.0498531156607 95.02138970334173
321.36470931209175 260.8540039018793 75.69191977335018
314.43273572578016 275.03186483060796 96.55587119849822
321.53271122194764 281.2003724990047 95.34974511139039
315.03267048655266 274.8243905029822 78.03623151094904
316.8037267067958 279.40984487993325 88.37587091134527
318.3870500401149 266.7615331455709 72.00216485663323
313.5728547904478 275.0185427719916 87.8229042249577
326.9950537179522 282.98485477391245 89.76989304752244
304.2676080801991 250.90108600522268 84.08091023081475
308.8575940753295 253.805436001626 94.32689229484905
327.65885476904174 269.6767897930328 99.06165033452777
313.8451033278142 264.5084796990733 95.64456326823334
330.79601831801415 263.84118048769443 79.50165136439762
321.85749293234227 257.13824520461947 81.36271439338041
305.7231675182519 251.4356177714893 89.46832655952291
324.07137374120776 261.5114318916447 77.4978440863817
314.4663342426043 276.51133151307727 93.86752082149741
315.29520573779286 269.3174203760779 95.99397436617222
315.86991255389506 276.70664244296245 97.90009270408179
327.18213016177293 261.3170406973826 88.26519638784757
313.6686457422001 272.59036508324795 77.11117996667295
314.9016131480004 258.59707698912234 95.63627972059236
326.22157072027994 279.2222612196388 75.99538907192623
321.783155603772 259.6137715725116 77.98286464765594
312.86840566512365 258.6937451894807 73.65566398646332
321.8745729896136 265.8284849915442 98.33103703697242
317.86608656300865 265.7325896576134 96.70393065996333
313.41119840677237 273.8565583122335 90.12523573204888
307.7812818590171 251.40142268091756 91.02664191131673
326.4742285425104 271.06801200241483 99.04969974797447
330.730385825105 275.0838181252399 75.63468189967122
325.06460104760004 277.112944076343 73.70898829553204
320.75817997032095 281.4340539924309 90.97027688432435
313.9499979859154 274.7630436732824 84.67870478478568
329.1719456133152 262.0497167358735 86.55631442398041
318.5987670735517 280.0675124510864 83.99715510522374
323.2983588037577 258.48185637753556 90.86861801327574
331.82507742356097 266.1683293237786 76.47648514843816
325.27540761199316 260.90620082024884 89.85503715150335
318.5836515464616 257.03266894487126 92.91545965370354
317.99325783579707 271.55844042172885 72.92267328058544
308.1280584174334 250.45554200856864 88.93995200879604
312.5922972411514 259.5772659405149 95.09820813344714
330.44742343231763 278.2754306875529 96.04279793390485
310.0485395336769 268.48607675434755 79.34605619558957
317.4051462915494 279.4297853376309 94.13739922541326
318.2202740387046 257.0367480403925 77.54007859777128
319.1364392712934 259.80368654240004 74.36766885026825
322.29124782249875 258.83285605625474 93.34929431172225
331.84453477810905 280.2177322364409 91.45190437015128
324.50184883534956 282.91061647565056 91.4785516405554
321.9247875047998 271.118638480809 71.65923810296157
320.7725775758725 281.58064944430754 87.7178082792238
333.9520167824043 275.13671172664976 91.6622904022849
319.02044118157346 254.92623760821758 84.49677436000921
311.2545518582306 269.7300639220233 78.25140280281333
332.8099484104897 279.6278937245745 86.83814417145719
323.80007169146285 271.2814346577124 98.91772182655771
304.16362223017524 259.5078635128583 90.53008119726147
317.623706961025 260.2309962388619 96.30755395350803
310.9032708809495 266.07199384391987 92.93535520083667
330.62339573024155 266.24656090124626 74.46015860832063
319.57280403712394 265.0463234233816 96.38719965259021
333.0120922813934 278.09777542202636 91.24302103518806
307.0031262028134 252.36304767860528 92.86636078865305
333.950480068198 269.2298080686187 94.84196275755919
311.32083621311307 268.096853719031 92.88171077644915
312.4464673421646 271.26614119926563 77.52930825354832
332.59357926929636 270.4304985745933 75.57511894211977
326.8021060691906 281.934104210907 95.6474249008962
312.5000483833796 272.55247820034765 86.44840751978384
319.3385656793993 280.58262427809416 86.17081390517521
309.4802838616553 251.6015516676998 93.04518894616588
324.1777068166911 266.6746322327508 98.19914336635483
316.7977420843936 255.41067183071152 93.31189350253715
327.9368749415158 270.6683230485205 72.46840308099064
324.83301401909415 274.1124834584055 99.0652546882639
310.5678115351694 269.51119806366336 89.080244723788
331.3624120370798 263.4004561544117 89.13519790731156
329.69183495967206 266.23124576262484 97.1558025591594
311.54901528880936 265.2525851183749 74.556811517941
322.0577632999566 275.4322656491147 72.87991097447829
319.736651239664 274.78863986642625 74.6209050102629
313.33555471897824 268.6939811443499 74.11575096968654
321.28688483982774 261.2226249011006 94.23568858646082
326.5851720348618 268.316262215549 72.68778380210294
308.29644457611306 266.1473230775758 90.01561480060165
330.2223196895072 280.14372708979045 95.7705096572987
315.7482209405609 262.6901248666498 72.61839617767964
314.48663268509887 277.299829682702 89.26463471549853
310.6919223333311 257.97270022985515 94.65813454880512
318.5914871625971 255.09552057018502 91.25016858100803
312.4571451315438 272.032165043647 79.14817863131573
316.3816910272557 255.49169354964482 77.78408034159992
313.8923842176943 271.32831831835307 95.99615209151243
326.40124306434336 261.6676051551622 93.15844716674185
305.32349259819057 253.39767824179586 91.1503244114677
323.95961317164375 258.7044704498782 87.83478951407807
320.54415438253994 277.0584294623222 75.81063407635736
320.9612032383108 256.70839263451 92.02126866663248
328.7500105661432 282.67069295030575 83.44699668577516
315.30866269021635 253.1766064555868 87.17531540593716
326.22514093685254 278.8829471347964 98.2825302134437
310.51276603492744 269.34801873714036 80.98605901952072
324.40739661052265 274.8729237152808 72.75738424560298
311.40183710298265 270.2044639119668 91.1653643315419
333.77986618387934 276.2820806613886 89.87350751665682
311.4973455150347 267.69077011181867 75.644050529909
308.4727696915038 256.42617357760264 94.88494151574531
330.65922557512636 263.14990793745176 92.5366274795675
323.32723588058417 257.766766887647 83.15724520540105
332.3455130069775 264.25026367332066 80.89348440165156
311.07411995808553 253.69320976321254 93.28232772680175
327.4365969155244 265.2139482977955 97.24394717120141
317.00842398663525 263.7693498053246 96.31209502928763
327.1773004215051 265.81806520900244 75.08329925931088
311.96121207840554 251.83361814033626 92.32538585713306
333.3627243963789 277.47706731624356 87.96867821451622
311.83159246685193 250.56810344280595 85.56150801705432
329.50503329397316 277.7938711361061 97.75217362591475
313.7520374641868 253.04805460122626 91.46077200835765
320.1113367244439 258.20673761317727 95.06622398607594
311.93114020764796 271.51629280642436 81.52107003342853
312.9770076785795 270.5819292176021 93.101769106951
326.2401266517175 263.7845888708777 76.0333508478542
320.8769197665342 257.10742613099 78.93333536176557
308.0980224134935 265.29742429188724 81.66019232203051
324.6919246038654 281.119958176449 78.34259750833938
314.6599527447691 261.49133762709357 95.61651442989078
321.23891340346404 275.59459293107705 99.20423342758991
316.49316409934664 270.13825899156024 98.18867131228934
315.9501207732985 253.98004590089482 91.31614624862819
316.01237962247717 278.69832014452504 92.04850922325849
308.4143151659796 266.7279303501741 85.85088139148725
323.2990175511676 282.2860476836442 81.2933775721939
320.82528737090206 265.082131051546 72.66934493448814
318.81206109721444 272.85695913730433 98.8133279939873
311.17831762136825 270.4693116045511 87.18566828097524
306.5667279308649 254.81486263329293 93.36361452784355
335.473601529163 269.8452111378353 89.53544694750273
322.9729710425024 263.5760147294014 74.54553636164829
329.21135789728896 268.52486937705817 98.81666664449311
318.682778092829 255.16501134679334 82.41888325836831
312.67377865808675 272.03090120702507 91.36230272395792
308.45478097092655 267.31931875653964 87.59214293154321
298.0476234817778 253.8634101876583 87.06977152226074
322.4604003054273 257.19692584254045 85.81897527636411
316.14271085586495 266.97012163258114 95.99071234272049
332.3860349075306 266.8250192467801 95.4187064293135
312.0424747001723 264.2451132611702 94.49137376384384
312.8990512823777 255.03812216954225 94.01702581980001
325.09661466450274 283.33718819577035 84.0837863356758
332.04103191234515 263.500964955303 82.5143759127506
317.4771524082355 275.7080678618311 76.24768905372433
314.8103377479745 277.43184991742174 86.25468586746095
328.0338559461749 276.0070941381656 74.27000269372984
335.10897582189625 267.4068965360677 89.90051147377308
309.0696692416313 267.5146763824984 89.22924546284156
317.1334854010389 257.7592825726595 94.46696889134876
305.98972260434147 251.5258085999426 91.43730715795546
315.5692198163778 276.79344413537024 79.78765270856908
309.6547165728757 261.26540286626374 93.20770768122392
307.8051430804416 251.90917884748146 77.61496227585292
312.6797616817927 270.5351420355897 75.71673634778794
311.9309901367614 262.1979254637424 94.60988631546803
297.91107993940426 257.11615270170296 83.25024835118464
332.2765475709883 265.18173016667185 78.73495453295942
298.48445875562135 255.70526476268645 77.24026994084066
306.17593495248997 257.68854999116553 93.64061895410211
329.58289447339644 262.4354754969732 84.00516467512759
315.2597308689787 277.35942613674376 82.72469782434997
326.6956995705144 282.1444780171599 80.95086831966468
310.85082929931497 270.1265371460387 84.36666414848946
299.47116523100595 255.18736619552254 88.98597697425086
329.05403900416854 273.59480489268634 73.50583084093063
297.7832163482568 254.0527663042202 84.54872183157784
309.628566074708 266.1081052311407 91.44613285136406
325.86302094820104 261.8206929339505 80.40117566826086
297.7572126052482 256.4944345385412 86.55761650026204
320.20336218014336 255.672001583593 86.29486576924916
319.6024572921642 280.7909848415193 89.40241293590357
334.8718641963591 271.55078821610414 79.86834864751981
310.79721244008715 255.68710778203024 94.29363909824329
330.35949165997624 264.8900238505549 77.96601700907897
314.4843378938167 254.66777068354625 92.76246641051446
322.43853744740136 267.32011969081844 72.35399529488312
329.10573091969354 264.9892823883279 75.8310769388975
314.0412788877547 274.0294134757665 81.07413637698887
318.91701208708923 275.42952969593176 99.15757311878518
332.32810535757073 264.17094416627344 91.1951631761851
331.09350334864894 264.5667912050357 95.03363408184562
329.2739930124518 281.58188285852884 94.73835925603026
317.8377018322038 269.5060996547755 71.6847865965183
327.6580989791563 261.67362528529634 83.28247259384597
308.7340561021989 259.035192664134 94.32987615225937
333.4675328966581 264.97528462739575 83.13410866387905
331.19219516479245 279.1890488908938 81.08340361283042
324.82234382292927 260.2606871566055 83.0871699558798
317.03297632979366 279.100014874247 84.92506804119256
309.45224341513153 268.2797633444348 85.0760968534488
318.12093213191457 277.6870768920873 98.73932410208039
309.9723473687062 264.28816775582914 93.72482372820993
310.1576304947972 267.17378113460546 78.12393794703151
306.58866924018577 250.9854601099903 87.42632547967585
335.11750098798564 271.92706050190475 87.4111867431438
POLYGONS 1016 4064
3 1 7 0
3 0 2 1
3 10 2 5
3 2 0 3
3 3 5 2
3 18 15 3
3 19 12 9
3 12 36 18
3 13 467 10
3 10 5 13
3 8 17 20
3 329 18 36
3 21 18 329
3 19 36 12
3 467 13 24
3 23 467 24
3 25 24 13
3 13 5 25
3 27 26 14
3 26 28 16
3 17 29 31
3 17 31 20
3 329 36 34
3 329 33 21
3 19 32 36
3 53 467 23
3 25 15 42
3 41 40 24
3 45 57 42
3 42 15 21
3 42 21 45
3 42 57 41
3 14 39 27
3 27 43 28
3 45 21 33
3 45 33 46
3 29 44 48
3 29 48 31
3 47 49 30
3 30 49 32
3 67 49 47
3 53 23 71
3 40 41 55
3 74 40 55
3 74 72 40
3 57 45 398
3 57 55 41
3 398 45 46
3 44 60 62
3 44 62 48
3 46 33 66
3 47 63 67
3 67 68 51
3 37 85 54
3 256 85 37
3 74 55 75
3 74 87 72
3 92 75 55
3 55 57 92
3 92 398 61
3 60 78 79
3 60 79 62
3 63 80 83
3 63 83 67
3 74 75 88
3 87 74 88
3 109 88 75
3 75 92 109
3 109 92 61
3 78 91 93
3 78 93 79
3 80 94 98
3 80 98 83
3 256 102 85
3 104 423 87
3 87 88 104
3 91 108 110
3 91 110 93
3 94 111 114
3 94 114 98
3 133 143 423
3 423 104 133
3 108 122 125
3 108 125 110
3 111 126 130
3 111 130 114
3 122 363 125
3 126 141 130
3 141 137 138
3 143 133 146
3 147 146 133
3 146 147 425
3 135 155 150
3 153 401 155
3 9 0 8
3 8 0 7
3 18 3 12
3 12 3 9
3 15 5 3
3 11 16 7
3 7 6 11
3 8 7 16
3 19 9 20
3 20 9 8
3 6 22 11
3 14 26 16
3 16 11 14
3 16 17 8
3 4 22 6
3 14 11 22
3 15 25 5
3 26 27 28
3 28 29 17
3 17 16 28
3 30 19 31
3 31 19 20
3 30 32 19
3 35 36 32
3 34 36 35
3 4 54 22
3 23 24 40
3 38 39 22
3 39 14 22
3 41 24 25
3 25 42 41
3 43 44 29
3 29 28 43
3 47 30 48
3 48 30 31
3 49 67 51
3 51 32 49
3 51 52 32
3 52 35 32
3 54 4 37
3 73 38 54
3 54 38 22
3 73 58 38
3 58 39 38
3 59 43 472
3 59 60 44
3 44 43 59
3 62 63 47
3 47 48 62
3 68 69 51
3 69 52 51
3 256 53 70
3 71 23 72
3 85 73 54
3 73 56 58
3 77 59 76
3 76 59 472
3 398 92 57
3 77 78 60
3 60 59 77
3 79 80 63
3 63 62 79
3 431 68 83
3 83 68 67
3 431 84 68
3 105 73 85
3 71 72 86
3 105 89 73
3 470 76 89
3 90 77 470
3 470 77 76
3 90 91 78
3 78 77 90
3 93 94 80
3 80 79 93
3 97 431 98
3 98 431 83
3 117 70 100
3 101 86 423
3 119 105 102
3 102 105 85
3 119 103 105
3 107 90 470
3 107 108 91
3 91 90 107
3 110 111 94
3 94 93 110
3 114 97 98
3 117 100 118
3 313 119 102
3 101 423 143
3 119 120 103
3 124 123 106
3 121 122 108
3 108 107 121
3 125 126 111
3 111 110 125
3 129 113 130
3 130 113 114
3 117 118 508
3 116 119 313
3 116 144 120
3 120 119 116
3 132 120 144
3 148 478 132
3 148 134 478
3 134 135 122
3 122 121 134
3 126 125 363
3 141 138 129
3 129 130 141
3 508 118 346
3 144 148 132
3 436 147 136
3 135 134 148
3 153 148 144
3 436 425 147
3 153 155 135
3 135 148 153
3 473 499 262
3 262 149 473
3 152 499 395
3 421 425 154
3 10 4 6
3 10 6 1
3 10 1 2
3 467 4 10
3 21 15 18
3 467 53 4
3 72 23 40
3 53 71 70
3 87 86 72
3 100 86 101
3 87 423 86
3 101 118 100
3 143 346 118
3 346 143 145
3 145 333 346
3 346 333 319
3 333 464 319
3 319 144 116
3 333 377 369
3 377 314 369
3 145 377 333
3 319 401 144
3 401 153 144
3 443 401 369
3 369 401 464
3 413 443 314
3 314 443 369
3 377 417 314
3 145 421 377
3 421 417 377
3 473 155 443
3 443 155 401
3 6 7 1
3 76 472 56
3 107 483 121
3 470 483 107
3 121 478 134
3 121 483 478
3 103 480 105
3 480 483 470
3 73 89 56
3 56 89 76
3 105 480 89
3 89 480 470
3 56 472 58
3 58 472 39
3 464 333 369
3 27 39 472
3 472 43 27
3 262 466 138
3 152 466 499
3 499 466 262
3 138 466 506
3 469 466 152
3 438 99 97
3 506 466 469
3 99 431 97
3 99 84 431
3 99 408 84
3 477 408 99
3 84 507 68
3 68 507 69
3 507 412 69
3 129 391 113
3 113 391 462
3 129 481 391
3 391 481 462
3 388 412 468
3 50 385 65
3 69 412 385
3 462 382 115
3 382 410 131
3 140 367 419
3 360 468 412
3 389 353 139
3 389 426 353
3 353 426 404
3 66 352 81
3 81 351 66
3 81 430 351
3 69 385 52
3 52 385 50
3 451 112 415
3 433 364 419
3 419 364 140
3 426 344 404
3 127 343 402
3 343 400 139
3 402 341 128
3 128 341 404
3 492 338 475
3 475 338 459
3 33 301 66
3 64 352 301
3 301 352 66
3 46 66 351
3 34 268 329
3 329 268 33
3 81 328 430
3 430 328 95
3 468 194 388
3 95 320 482
3 95 328 320
3 415 318 95
3 95 318 430
3 318 96 430
3 482 498 502
3 419 452 316
3 311 394 459
3 353 404 341
3 341 139 353
3 309 459 394
3 396 404 344
3 304 298 389
3 389 298 140
3 298 367 140
3 352 305 81
3 305 328 81
3 389 139 304
3 304 139 400
3 128 451 402
3 388 65 412
3 65 385 412
3 343 139 341
3 341 402 343
3 127 303 502
3 451 415 303
3 303 415 502
3 268 301 33
3 268 64 301
3 330 367 298
3 402 451 303
3 303 127 402
3 95 502 415
3 95 482 502
3 320 328 305
3 343 292 400
3 65 388 291
3 64 284 352
3 64 295 284
3 284 295 440
3 34 35 50
3 50 35 52
3 419 316 433
3 433 316 469
3 433 469 347
3 347 469 152
3 433 326 364
3 433 347 326
3 326 347 151
3 507 360 412
3 96 318 112
3 112 318 415
3 295 310 440
3 445 284 440
3 437 309 394
3 481 280 462
3 481 371 280
3 65 291 277
3 277 291 310
3 376 309 485
3 112 451 484
3 484 451 128
3 478 270 132
3 132 270 120
3 268 393 64
3 393 295 64
3 50 268 34
3 50 393 268
3 352 284 305
3 305 284 445
3 371 265 428
3 371 142 265
3 115 504 438
3 438 504 99
3 115 477 504
3 504 477 99
3 113 438 114
3 114 438 97
3 3 0 9
3 469 454 506
3 506 454 142
3 469 316 454
3 454 316 142
3 429 320 445
3 445 320 305
3 339 127 498
3 498 127 502
3 393 277 295
3 295 277 310
3 438 449 115
3 115 449 462
3 438 113 449
3 449 113 462
3 375 442 131
3 375 477 442
3 442 477 115
3 477 427 408
3 492 397 427
3 141 126 137
3 126 363 137
3 137 262 138
3 137 149 262
3 150 363 135
3 137 363 149
3 149 363 150
3 397 372 360
3 360 372 468
3 397 325 372
3 372 325 468
3 506 260 138
3 138 260 129
3 506 481 260
3 260 481 129
3 360 349 408
3 408 349 84
3 360 507 349
3 349 507 84
3 65 277 50
3 50 277 393
3 417 487 314
3 314 487 413
3 417 455 487
3 473 443 413
3 379 165 489
3 96 447 61
3 61 447 109
3 447 124 109
3 426 463 344
3 344 463 379
3 426 364 463
3 413 487 395
3 151 347 395
3 395 347 152
3 421 154 417
3 154 455 417
3 489 165 455
3 455 165 151
3 46 351 398
3 398 351 61
3 101 143 118
3 96 61 430
3 61 351 430
3 290 123 484
3 484 128 290
3 104 406 133
3 123 136 406
3 124 359 123
3 112 484 359
3 359 484 123
3 147 133 406
3 406 136 147
3 123 290 136
3 88 106 104
3 112 447 96
3 319 508 346
3 436 489 425
3 425 489 154
3 359 124 447
3 447 112 359
3 436 136 396
3 396 136 290
3 379 396 344
3 436 396 379
3 379 489 436
3 489 455 154
3 379 463 165
3 463 364 326
3 425 421 146
3 146 421 145
3 88 109 124
3 124 106 88
3 396 258 404
3 404 258 128
3 396 290 258
3 258 290 128
3 146 145 143
3 395 487 151
3 151 487 455
3 135 363 122
3 483 450 478
3 103 270 450
3 450 270 478
3 313 70 117
3 120 270 103
3 480 103 450
3 450 483 480
3 256 70 313
3 149 150 473
3 473 150 155
3 508 319 116
3 256 37 53
3 53 37 4
3 508 116 117
3 100 70 86
3 86 70 71
3 428 265 399
3 399 322 435
3 435 322 452
3 399 265 322
3 322 265 452
3 429 491 276
3 356 252 82
3 330 250 367
3 250 264 435
3 297 249 400
3 400 249 304
3 297 267 249
3 249 267 304
3 287 247 500
3 304 267 298
3 298 267 330
3 308 243 492
3 492 243 397
3 308 325 243
3 243 325 397
3 310 497 242
3 238 269 432
3 338 375 311
3 311 459 338
3 452 250 435
3 246 240 330
3 330 240 250
3 246 264 240
3 240 264 250
3 505 255 234
3 308 233 325
3 368 177 259
3 381 334 231
3 321 306 234
3 234 437 321
3 246 226 334
3 437 230 309
3 309 230 485
3 437 261 230
3 230 261 485
3 399 225 428
3 246 224 264
3 321 437 223
3 223 437 394
3 332 222 311
3 311 222 394
3 332 223 222
3 222 223 394
3 221 255 505
3 306 321 225
3 225 399 306
3 224 381 434
3 225 321 223
3 223 332 225
3 435 218 399
3 399 218 306
3 218 237 306
3 269 217 296
3 296 217 403
3 269 238 217
3 217 238 403
3 220 274 376
3 221 505 434
3 82 215 490
3 403 458 296
3 458 233 308
3 459 503 475
3 503 219 475
3 384 418 297
3 297 418 267
3 384 226 418
3 418 226 267
3 395 499 413
3 499 473 413
3 445 215 429
3 325 214 468
3 468 214 194
3 325 233 214
3 194 214 202
3 202 214 233
3 212 248 356
3 490 211 82
3 82 211 356
3 490 242 211
3 211 242 356
3 267 378 330
3 330 378 246
3 267 226 378
3 378 226 246
3 216 345 202
3 202 233 216
3 216 233 458
3 475 465 492
3 492 465 308
3 310 210 440
3 440 210 490
3 310 242 210
3 210 242 490
3 248 387 386
3 386 387 403
3 248 216 387
3 381 231 208
3 334 207 231
3 428 448 410
3 428 225 448
3 448 225 332
3 117 116 313
3 142 365 506
3 506 365 481
3 142 371 365
3 365 371 481
3 367 331 419
3 419 331 452
3 367 250 331
3 331 250 452
3 452 203 316
3 316 203 142
3 452 265 203
3 203 265 142
3 248 345 216
3 248 212 345
3 345 213 202
3 202 213 194
3 492 199 338
3 338 199 375
3 492 427 199
3 319 464 401
3 497 212 242
3 242 212 356
3 213 291 194
3 194 291 388
3 213 345 497
3 345 212 497
3 291 497 310
3 291 213 497
3 339 383 292
3 292 383 414
3 313 102 256
3 403 387 458
3 458 387 216
3 400 188 297
3 297 188 414
3 400 292 188
3 188 292 414
3 382 462 280
3 280 410 382
3 428 410 371
3 410 280 371
3 410 448 131
3 131 448 332
3 255 307 261
3 307 232 261
3 184 368 422
3 422 185 183
3 238 327 336
3 238 432 327
3 327 432 251
3 104 106 406
3 406 106 123
3 180 183 286
3 422 183 179
3 384 453 175
3 175 453 370
3 383 287 241
3 408 178 360
3 360 178 397
3 408 427 178
3 178 427 397
3 236 161 251
3 279 235 161
3 286 266 169
3 486 181 167
3 248 166 356
3 356 166 252
3 248 386 166
3 166 386 252
3 463 326 165
3 165 326 151
3 131 442 382
3 382 442 115
3 131 197 375
3 375 197 311
3 131 332 197
3 197 332 311
3 375 199 477
3 477 199 427
3 336 409 386
3 386 409 252
3 336 192 409
3 409 192 252
3 177 348 259
3 348 174 259
3 235 167 335
3 335 167 278
3 208 231 174
3 287 205 241
3 266 444 205
3 486 195 180
3 486 167 195
3 195 167 235
3 252 196 82
3 82 196 380
3 252 192 196
3 196 192 380
3 263 307 221
3 221 307 255
3 221 191 263
3 381 208 191
3 190 181 342
3 127 324 343
3 343 324 292
3 127 339 324
3 324 339 292
3 432 269 439
3 439 269 274
3 245 405 271
3 271 405 456
3 490 200 440
3 440 200 445
3 490 215 200
3 200 215 445
3 286 509 266
3 266 509 444
3 271 187 312
3 187 220 228
3 220 187 456
3 456 187 271
3 259 186 176
3 176 186 209
3 259 174 186
3 186 174 209
3 296 302 219
3 219 302 475
3 296 465 302
3 302 465 475
3 444 193 227
3 227 193 185
3 444 509 193
3 193 509 185
3 236 251 476
3 476 251 432
3 259 358 368
3 227 185 358
3 381 191 434
3 434 191 221
3 209 171 207
3 207 171 231
3 209 174 171
3 171 174 231
3 207 175 209
3 312 163 271
3 184 245 163
3 163 245 271
3 312 229 162
3 437 350 261
3 261 350 255
3 437 234 350
3 350 234 255
3 251 170 327
3 161 170 251
3 405 236 476
3 476 456 405
3 227 358 176
3 176 358 259
3 185 198 183
3 183 198 286
3 185 509 198
3 198 509 286
3 439 456 476
3 476 432 439
3 215 420 429
3 429 420 491
3 215 254 420
3 420 254 491
3 278 373 190
3 190 373 181
3 278 167 373
3 373 167 181
3 264 224 441
3 441 224 434
3 232 355 228
3 355 229 312
3 505 323 237
3 237 323 306
3 505 234 323
3 323 234 306
3 264 441 435
3 261 337 485
3 485 337 228
3 261 232 337
3 337 232 228
3 245 179 299
3 299 179 279
3 414 495 297
3 453 384 495
3 495 384 297
3 190 366 254
3 254 366 491
3 190 342 366
3 366 342 491
3 376 503 309
3 309 503 459
3 491 488 276
3 491 342 488
3 488 342 471
3 471 173 416
3 416 173 500
3 287 294 247
3 247 294 339
3 287 383 294
3 294 383 339
3 368 411 422
3 422 411 185
3 368 358 411
3 411 358 185
3 263 275 307
3 307 275 232
3 241 168 244
3 471 201 173
3 173 201 181
3 471 342 201
3 201 342 181
3 239 374 263
3 229 275 374
3 374 275 263
3 276 317 272
3 276 488 317
3 317 488 471
3 205 164 266
3 205 287 164
3 164 287 500
3 169 266 164
3 177 162 496
3 496 162 229
3 163 312 162
3 162 184 163
3 416 272 317
3 317 471 416
3 272 474 498
3 498 474 339
3 272 247 474
3 474 247 339
3 272 457 247
3 247 457 500
3 272 416 457
3 457 416 500
3 241 494 383
3 383 494 414
3 241 244 494
3 494 244 414
3 241 461 168
3 168 461 444
3 241 205 461
3 461 205 444
3 239 424 348
3 348 424 174
3 239 208 424
3 424 208 174
3 355 232 275
3 275 229 355
3 495 414 244
3 244 453 495
3 384 446 226
3 384 175 446
3 446 175 207
3 254 390 380
3 380 390 82
3 254 215 390
3 390 215 82
3 245 361 179
3 179 361 422
3 245 184 361
3 361 184 422
3 237 493 505
3 505 493 434
3 237 441 493
3 493 441 434
3 184 354 368
3 368 354 177
3 184 162 354
3 354 162 177
3 226 315 334
3 334 315 207
3 226 446 315
3 315 446 207
3 276 288 482
3 482 288 498
3 276 272 288
3 288 272 498
3 336 460 192
3 170 335 460
3 219 282 296
3 296 282 269
3 219 274 282
3 282 274 269
3 429 206 320
3 320 206 482
3 429 276 206
3 206 276 482
3 308 204 458
3 458 204 296
3 308 465 204
3 204 465 296
3 456 189 220
3 220 189 274
3 456 439 189
3 189 439 274
3 435 182 218
3 218 182 237
3 435 441 182
3 182 441 237
3 286 172 180
3 180 172 486
3 286 169 172
3 172 169 486
3 386 160 336
3 336 160 238
3 386 403 160
3 160 403 238
3 279 159 180
3 180 159 183
3 279 179 159
3 159 179 183
3 170 158 335
3 335 158 235
3 170 161 158
3 158 161 235
3 486 285 181
3 181 285 173
3 486 169 285
3 285 169 173
3 180 273 279
3 279 273 235
3 180 195 273
3 273 195 235
3 169 257 173
3 173 257 500
3 169 164 257
3 257 164 500
3 263 407 239
3 239 407 208
3 263 191 407
3 407 191 208
3 370 157 176
3 176 157 227
3 370 168 157
3 227 157 444
3 444 157 168
3 228 156 187
3 187 156 312
3 228 355 156
3 156 355 312
3 220 357 228
3 228 357 485
3 220 376 357
3 357 376 485
3 245 281 405
3 405 281 236
3 245 299 281
3 281 299 236
3 453 253 370
3 370 253 168
3 453 244 253
3 253 244 168
3 236 501 161
3 161 501 279
3 236 299 501
3 501 299 279
3 192 479 380
3 380 479 278
3 479 335 278
3 460 335 479
3 479 192 460
3 177 392 348
3 348 392 239
3 177 496 392
3 392 496 239
3 334 362 246
3 246 362 224
3 334 381 362
3 362 381 224
3 219 340 274
3 274 340 376
3 219 503 340
3 340 503 376
3 209 300 176
3 176 300 370
3 209 175 300
3 300 175 370
3 364 293 140
3 140 293 389
3 364 426 293
3 293 426 389
3 374 239 496
3 496 229 374
3 170 289 327
3 327 289 336
3 170 460 289
3 289 460 336
3 190 283 278
3 278 283 380
3 190 254 283
3 283 254 380
