# vtk DataFile Version 3.0
A great-looking cell
ASCII
DATASET POLYDATA
POINTS 768 double
79.17555552206362 217.12397825024576 2.9255654504635435
77.8189224172352 223.60161151781134 -3.2797049977569825
75.0199010617163 224.59020590198864 -3.1201040685438124
77.89124986975789 226.2228345276758 -3.2798118764645605
85.39583655821494 226.7806243417851 -2.743114279690684
72.86833893500008 227.05675399540505 -2.7202754267344575
75.59248446714174 228.16392646466602 -3.279623220527308
78.37057767245416 229.04168589375027 -2.720963216450868
82.81163701970134 228.15709110506884 -2.3406340708276945
87.10413056070315 228.94540259699798 -3.020765463206299
87.80356788757389 226.93775895711417 -2.065785437093352
95.94858745976673 222.59854561416088 2.0592318585872578
66.69422347393902 232.10068633532478 -3.2507314201755446
69.68560605308049 231.36569607152714 -2.7200335079853115
73.03022532177391 230.49766717979432 -3.2798863138017613
70.34315695710198 228.4023667717166 -3.2218720671189773
79.02493335976287 231.5011619103217 -2.7207678638030823
76.28721898041145 231.0817258421093 -3.279144651789294
82.82754412100081 230.29106587303795 -2.8014840083196852
87.3050381816252 230.40655646359724 -0.9355610590842617
84.81444179281061 229.6933678364134 -1.8181489774016732
89.49055089954544 228.59583076769542 -1.702692622825391
68.68017366925568 234.13703626732024 -2.765652028808698
71.61750683468948 233.70341090346773 -3.151613185422314
74.59407211532465 233.5044706699846 -3.2791488012165524
79.71539968097888 233.54796983650846 -2.7315036777378774
81.43520913593765 231.87108377846653 -3.2546113377419332
83.47383021041827 232.15596349862176 -2.1949392077176286
85.29292403852573 232.10395464593535 -0.7000822029774774
86.93407489769186 231.6913339607886 1.6812003890425669
89.71893127547202 230.8544656541328 3.056363176616321
63.57834255428646 237.62310109817392 0.9721306936635573
65.15623333450918 237.27994657153266 -1.4519994404553127
67.43499768815981 236.91213619774646 -3.1729390810182925
70.34923035601214 236.3574335302186 -2.7203951268387905
73.14572187773307 236.1947212852529 -3.2784666408826584
76.00125129063903 236.09341743562956 -3.279354137731161
81.8388639934221 234.60955126475238 -2.769205810104929
83.59281056650951 233.86383777440122 -1.0439093358237925
84.52511364488308 233.97874549327588 0.8801401543660322
85.87604940792993 234.30737033773053 3.2686481362173794
65.07092872285979 239.20028195507567 -0.18273841544840094
74.4414795325741 238.9778003427708 -2.7202574422609507
80.92454279880268 237.80798252623248 -2.995791421779749
82.9045115078499 236.40869113784188 -0.5649553759705167
65.71507302581556 241.40334803299766 0.20163874805862844
68.68030830975057 241.88369103681288 -3.0920171104089285
76.64616497517234 241.13426029201904 -2.935623843030576
79.51953785191603 240.4990427749829 -2.314736912591012
82.60118475582614 238.1502607039349 1.1761522266469382
71.65649444252193 243.30792477817644 -2.836085330715993
78.21684720109538 243.0920262424588 -1.5128740340528557
83.15892296133767 238.6735040081093 3.101038668775608
71.7691701916223 246.85001475204683 5.071605562997353
76.2843730958938 215.63458012809434 3.135000176218049
83.56985481438784 220.64951920159163 1.9442831312857816
69.50829559595478 216.03579811668155 2.980739177796794
64.83534933906569 218.80376426245272 5.3486803989925855
66.70139005644145 216.9112911392717 4.702015390525822
93.9884529700506 221.61318164034205 3.6968672430819316
64.89000124614839 221.29630820440917 1.131232732713573
61.627172274047744 224.86815151449056 6.176474424554886
61.33916305672587 227.87935092400866 3.5458057051456353
97.04686770687563 225.06787004548192 2.2070362555174676
94.09391602966802 231.2551091865502 3.411529433320757
59.93038557272884 239.861302768347 5.617636482000144
87.82700940127152 232.2833861128808 4.433450406750483
62.59426684046367 244.88671024983074 4.293108350393081
61.77170798784428 247.86021581044827 4.16292921256146
64.73317655545775 247.2638005842236 3.9001199202544887
66.52934393698442 249.17967842046437 5.4693858444464905
85.42122667101411 237.3387231767075 4.844456908160577
69.74111309656355 248.74363837381358 5.262040696286844
71.92702681112029 248.52322278585302 6.490596937495222
73.79435161209736 245.73548422173096 4.127527866307209
75.98884211522177 245.67989839164898 5.45596112122664
78.49125878742285 244.02254558354875 4.478640865337894
78.555418944333 215.67758609796107 6.009553260599991
70.68536055463115 214.2779688667221 7.989715356022731
68.58687781271229 214.67080831545027 10.200576962704478
90.6369267278445 220.55736402663115 9.70085562204168
96.70368848417105 223.87977256551116 6.681279176775958
96.24138393131804 227.93388824052622 5.592422110799353
59.74614786484626 227.48912980815146 10.029028592354289
59.16596148853904 228.76291318431205 12.14202173192946
92.98337291882427 231.9048849708907 5.555824432455176
56.16668439560443 244.2090538891312 7.582957792022988
59.29848864194455 244.30801012417768 5.48294387897806
60.70493260765557 250.85147048019164 5.155860235615046
75.65329698366187 247.05215068044546 7.818923795988115
83.13903731746187 241.35109018996587 5.2844334136043525
85.02217702735602 218.41020565738353 11.876367021417405
88.32405024987563 219.01839518305576 10.31894039772125
96.07840213186425 223.32162235281214 8.98899483282795
59.65032278101429 225.14451020827738 14.73641848272514
59.11890381262742 227.7054540378266 14.33747998252341
95.4874818474506 225.3666710277648 11.15254660479964
56.639750681950765 232.6932922793752 16.0221135769895
91.39924171431373 231.82764765233983 7.74598331976696
54.029524656845275 240.11365108865058 13.350069934719214
54.05325541326974 246.16156276425238 9.948029249208115
86.87886605986515 235.62370319726244 7.311010096987723
56.133754859329564 253.4381558674343 13.671062839234603
65.17590458916841 252.03035449946105 6.3956664452319805
67.74539692646903 254.22784544238021 7.469162584876305
86.8855335983627 236.65470488739484 9.1992561521755
85.85674757064352 238.19812829393 7.835287933896795
82.92032766986459 242.13434054987405 7.276172339023541
89.03133182760288 219.96637573551334 12.539564685895055
95.10226002851434 223.40248275797995 13.95819015396401
61.62392446896434 224.0366091673521 20.517747707810276
65.54730537561426 221.81073445873014 22.587601218042693
93.57082165285475 228.3611815176716 14.82852023694573
59.95106883490185 224.31279632015443 16.931909634852925
93.88659515119626 230.763075109932 12.686896170219413
89.43358072240022 231.61381442273458 10.207653226627489
51.8800945347393 244.92230962357036 16.13620852189974
87.43296062123399 236.43506981376981 11.199919990283668
87.93692668044804 234.4985074763966 9.522574878671273
60.84663651582269 256.27979272852707 14.971895539442478
65.83258689791458 257.63627740784796 15.403985765562162
75.29821535307143 250.5226113487248 12.444970731774102
76.30686233414598 248.22629843776662 14.247064525710355
85.0510306110615 240.95582986252083 9.139734044792801
85.86976576181726 218.90553615661187 14.227497865175808
88.27693833719117 219.69495966996215 15.109110524743581
71.17397702373685 219.89451060607897 25.22083225206741
89.69160100713 225.29080449683073 17.788542219040327
75.10842594222163 221.8029269471324 27.82494091654742
92.24851747478938 226.43002306669004 17.252687936453704
60.58683366790556 226.15524894829358 21.91760042801292
63.384852444709125 229.99102387777472 25.88970762684129
91.69031286591876 230.90387628324075 14.39534532442655
91.42436670931126 231.38794621663223 12.134409521851266
63.35943617703161 232.8367208819628 26.94762745358652
89.26466499086062 231.3233438513778 13.060623039764238
58.306607747083135 231.6103870630247 20.943277311812846
63.40010885292623 239.24497400377652 25.86522377433127
58.26906999341515 244.67035053730604 26.70248845925406
63.984434431274295 242.23825578256123 26.678201929223388
64.09141614195082 245.5419692119261 27.511654159719825
63.7244891702302 253.9108923044704 24.515626452594006
64.00690901579567 257.0927428847063 19.95765837101557
73.26008059723499 253.12414007502773 21.8592832840729
79.64185596720266 221.75443145271225 25.099627096283385
64.81800903187622 254.61750628302207 7.6619151463305615
52.30333764663647 240.94099994345052 19.605215441527474
53.443824960373966 244.55535511207808 11.780502497906873
74.35927840587725 252.21164927077783 14.957741358403469
79.34867288027996 245.7524614383103 17.777582598808152
86.10137266184802 241.47998297343779 18.527306773736036
64.81887531023527 216.7493447583177 9.56904218567062
55.099712378934896 251.45148245641894 11.771152517368684
60.54362399036926 249.63420229541563 29.21058584106971
81.61281934760378 244.40080558070625 24.207344738872518
75.12156926446228 232.78232621054067 28.50261064886327
90.63109056451242 221.26909651124814 12.291723598646245
81.07366094810774 245.51870806559194 14.816005313894257
94.6788024537798 230.10069098208803 0.9764067000095829
78.29058931907367 236.47112939481605 29.49880998462253
87.49656960715645 221.0659075368558 18.920878263287975
67.61987871330895 230.98739262019126 28.310243654306362
76.46926354838203 236.9892923820859 29.360638613461337
96.11701058849755 223.63243555608676 -0.08201368858091533
94.97751099184794 226.23742997672232 13.650951698264898
69.66711852891544 223.51827728294427 29.03815777035806
78.41832081708858 246.16791272644568 12.631601308267685
87.72161382898484 218.85750927420992 13.523325242365846
79.73184555144873 217.75378284157415 23.28598394786528
74.67397702605197 216.8417878866121 0.09830892505750313
60.55396410997306 246.15199679418674 4.606173858427656
95.1331709662947 222.67714874198822 11.280506187381143
82.68397093190966 243.57469407863982 10.02777886986175
57.60157272422035 245.9897934180598 6.44932638007078
56.85578640967398 251.71391622585412 24.530752888796293
52.86241772396972 248.78391079743932 13.608483732205743
57.73401385519453 250.60111431527713 25.758840420589237
53.89392790802371 249.01943063157603 11.510781559373244
86.97222875113904 237.18800400303448 24.2318401042969
84.99263550068895 240.97055222889713 26.064310071535083
92.45061215090546 221.2359231466508 2.0587559958688897
74.71127020766042 214.29423863691287 20.37978284829284
77.77506946635832 219.97460963997128 -2.879645486197233
90.74355212724679 221.60407825169125 14.842619676873907
81.28268377319128 239.11298585810104 27.793309992690222
91.57410743322293 224.39896460797112 17.76537063852587
93.88179543298345 221.5030854915731 9.299430392548
76.42606447581437 214.86244148987097 5.55622970852196
72.20805042173508 253.04721202726054 8.558091697525603
58.24320234174484 255.14730315586846 14.961908350719604
83.99998135505133 244.56748092826595 23.445735296902626
75.15790565708 212.99255165578586 13.638273420691068
69.55479214494497 255.99365056022674 21.24511007479289
80.89126410209568 217.5723271999105 20.94738932476376
83.87815919911404 218.00823429736207 16.430742836368573
90.16743013302064 220.11281072276213 6.538591215309447
53.30626168546051 247.3217880115155 23.92324495922953
93.93816184155806 221.84939623453124 0.5040787081982264
86.44422951523815 219.59292224362486 17.503870823265892
68.04096355735301 257.2772551474672 15.423603722127021
56.6726300759581 249.1519833926383 26.569543357343683
85.11207572018446 243.47616478089728 21.494060152789277
86.434530632442 240.1157750723041 22.744179165297993
90.1112180203 223.3872591576393 -1.9286931454879126
70.73583586293752 254.25007189067176 7.842982604702383
65.55821723515456 249.72100048661298 27.258881879741654
78.53219567087712 215.51409699257354 19.84829933611073
79.83604288543017 237.859630128282 28.076829400046257
73.62520134198213 253.34152402384032 19.50115175263282
80.83024811901021 219.878824772557 23.669676062172936
90.92007787489271 220.81255613448823 3.750613345672845
72.52370654210395 220.98073030261347 27.397545901023324
74.4246541166411 221.48020478962673 -3.0638427244345587
81.42390194109903 241.95304997610347 26.95373529583165
84.0077439543424 245.51813555469712 20.890402987434655
81.77773343014088 225.33494867791575 26.63488488993223
88.22490750985783 226.43728036923943 20.219072202309093
81.31948077084522 216.21546530975792 15.589180102599729
72.47901963012488 214.02114174416215 6.841723397675527
78.63361472474304 214.42517031737535 12.100063858590024
72.48245867274701 222.97665700136105 -2.855816129785188
68.66682614936373 234.1281475611248 27.7549934315096
72.17925168157043 223.4522855407585 29.176837315936673
64.61286354846074 227.15099258570797 26.114079109395835
55.034603786013406 237.10606532446698 16.904681504022918
70.51752834223647 214.03282397336068 18.00909650643125
85.88084321061847 241.65749301949734 16.26449614780293
66.5370713556497 219.42948810707753 -0.226110079999945
59.46793514152443 227.35373196226075 19.753329190341095
53.77809850421209 241.45897530301136 12.01142273992894
76.51735410128389 226.58236759613956 29.430285963363684
78.1006337828087 246.1931241922519 15.266024579216696
60.87139999975892 227.9889891117268 23.103094904410494
68.31409463489223 224.1546539755692 -3.0331233971839717
91.02531893524781 229.25251494482825 16.312347785570463
90.38923729576878 228.22148149498875 18.8860653107341
52.865821499239885 240.85391106498216 14.910503179285024
83.5543043564295 219.155843391494 4.485771537390416
76.17923844540344 235.005004911248 29.568203903991094
65.95852466293196 229.71163473954007 27.590995820141202
77.06137151350298 212.35404826049856 16.61303250910536
71.24987379940636 229.17421894551788 28.590881630647427
58.867080085106885 229.7013193947735 13.909339475718163
80.97996622601123 215.74126605024844 11.88910793609499
71.36543798882528 239.59913569316902 27.04635987473041
56.475167742981185 235.94267078020502 11.491611768229498
76.39155155828269 213.47702640497397 10.981695573437142
78.77185109868726 214.82677585427928 9.460742135401846
52.5511889351996 249.54170870176551 19.38965810311021
89.49722575304486 230.73682954797033 15.117792404403742
71.24348320400881 255.76427720222176 18.040162653675317
52.93172869640538 242.1856007181732 22.52170850383748
59.3010017635153 232.50381317946247 8.32773987739976
80.47905542188748 215.9695909184298 18.34452661832881
88.86143718312854 230.8847216209671 17.496777885385935
75.93589751147144 215.9298679713291 21.200013756966023
92.04406827578617 230.9546787363833 1.6940620826301265
88.38524248046146 233.24058823978166 15.177365733279656
88.15831038564791 231.94252575000124 19.16180948656277
59.612991151876 226.2592220247637 12.320139890238865
59.174341042464114 254.66531555196985 12.067140549705332
74.55381844180549 213.06511008990432 16.234242273766426
94.71843250120996 229.99940804339386 5.654507709433981
66.13479480286179 238.7603228321797 26.744601867470337
95.63424797512474 229.14170266824271 3.412733941321282
73.21163110285586 229.41339675019003 29.16384441753323
67.82398077161737 255.1544734064328 22.832673747708146
96.40904090287955 227.0850803984249 3.532211189911913
68.99423352928528 250.83141001878732 25.499378319825297
94.6710671606292 228.05291263551365 -0.9526083575735138
92.46770009960035 221.05756336597895 6.598249498108355
53.802620777493324 245.57884602631006 25.326139579567133
79.42477020746657 214.84203804276052 14.068205300820159
59.45650102395206 238.54196473872327 25.449773129120622
75.59590145575994 248.53156646937043 22.879179159770917
72.56784829348975 236.08853743621896 28.054077065835923
92.39217523502754 227.67274064136208 -3.1005648120873643
89.56823073733099 229.95438077911197 0.7171512435374199
56.40023056249414 234.7464558167462 17.76373341411188
75.4132498084505 250.26829681984677 14.4637720600875
59.96862563729641 245.94493277908205 27.85317451492662
53.614127435063935 244.19866844759954 23.319435919226073
75.0901994472465 239.2155460024657 27.976509748394808
88.6146987146991 221.3713716813189 17.269790151414387
68.6740903178542 243.33622541303689 26.568776562736172
55.8886066969472 253.9908783690669 19.46636008371597
62.31919701030944 255.769191995295 23.650560164116527
76.29074414443237 219.74863361114157 26.92705593846355
66.92309140650839 241.30579009211488 26.770722275441056
86.26944237747283 240.9120582865367 13.463457271155452
86.775889770357 238.5518817030453 12.518929493630718
94.67846806963964 228.0512525919113 12.074744298296899
65.84579839926133 215.7919374610148 16.34091311395955
80.04628323258474 241.87387732260976 2.912380804681525
58.77650504775477 235.31121628147275 22.736109941598258
61.1481965418374 256.2567130589343 17.210588189587693
93.17294652938354 222.0092087431127 14.627858842569315
67.37269949227527 248.8921194231833 26.381607480948258
64.30210355970004 225.27908380683832 -1.324325480325444
64.71149908157845 231.3676416523189 27.27794935368933
85.00926124335746 223.77590352341394 -2.157317972701746
79.71815057993443 218.39759594327793 0.6580997052447779
88.3840884368847 232.73828957420528 7.188028304725087
78.21658605964973 243.53084364132386 1.423652182993238
79.85793223780733 241.40431925403976 0.2737011227483702
64.00852954481469 257.44184427120973 10.362995042725768
85.94914104273423 240.30894997721404 11.381843559268919
63.06609055164114 257.2069929969587 17.074519570058758
69.41357271856704 213.9616057163506 12.889513026765194
67.79596695242881 257.2328646800078 17.366470350418734
71.9755634846565 247.20629283774483 25.121026303798555
84.59654612485954 240.10250287321404 6.38980213266353
79.69480036151725 245.06128879117742 9.959765136194298
63.381523529188556 218.01558955810165 11.117135766080795
60.26235800985113 236.22011399936392 24.212001095721686
59.44363837489894 242.72416878319785 26.77869573621067
70.56722502753794 243.7412767535034 27.002623270811757
71.71081592653542 245.4623620577645 3.228665379545288
54.65498756826786 241.24872512465194 23.81774748306113
74.35273830984453 250.48529752508463 22.9952160158252
82.0971826940405 240.68481126911067 3.8389319163522138
55.370909394552626 253.78887764639245 21.181249435993877
80.96043838505572 242.49037515398766 5.401997768478023
75.85256237387173 248.93779117859788 21.148441140703902
62.06991606006543 236.667007946557 2.9839709244978043
57.10447961709217 255.0032273439798 21.672867791632463
60.17934380077483 255.53876043051883 22.169281327407848
74.91158204372908 224.4937229929411 29.062279022421805
67.74350178429816 219.06026229188896 22.26182624067417
59.038421606259284 255.5770950984959 19.940513929894777
85.08397642005858 242.4415729773189 11.694989351573282
64.8274565895047 255.94440039483987 22.67053490916826
56.893270449941795 252.74705373867243 10.626347113124162
65.21204663832286 240.45137316045708 25.971888424590695
51.7551652926579 245.72135502544825 21.998290117306848
88.42010861209681 233.91148007883058 12.145844089405358
77.13842282119678 224.1492268897055 27.66858361352536
55.56082207738693 236.68716853081736 19.745741590824018
70.9492776288295 241.6215112279451 27.12630780053878
77.75994536395923 212.91735909885594 14.06012555544698
85.86667845487116 218.74121996176802 9.440580545213246
74.4765162460494 217.1550775586208 23.652734837774013
72.29786282140584 213.33973487478985 13.929137898280361
73.08935870808345 213.8400949216138 18.93789072858861
70.25844881200535 256.30482188240916 15.86845633558737
57.37735835835041 255.28713860167295 19.06033934749467
78.07403726076777 244.986699930815 7.426224782832477
72.21019232463894 254.4685862329991 10.305090803434727
53.29577772508773 238.9043414784043 19.00511559182712
84.1003504106299 244.24522901126153 15.652170372202596
76.60827623355009 247.46152781461782 16.919320335713785
57.69258992537255 237.14922861663217 8.93706345010448
70.95727042010536 217.53213680551545 22.863198611293704
74.42331178083222 237.2891508641163 28.583935205132686
63.29850634801296 218.19560127886277 16.539766284406053
82.21665162271535 219.61218941168667 21.519868887501573
66.08212320674212 227.68614158079785 -2.9159967017428663
65.95257359847454 224.53898687208843 24.95673150310307
54.770751912272345 243.67675032505824 26.479287677165903
63.141909141138896 220.02480127402904 6.340217377845499
66.879095858441 217.7153714377228 19.826326312520752
79.6593239349687 223.68293669196078 26.52359941057841
70.23085336628361 245.7369459183602 26.28329902449162
64.76390160210116 219.1496108208181 20.64891440708911
52.41862548283989 240.23465229361634 21.73469859326494
62.256169725090714 234.34557251560153 2.9929667440455874
96.18212988273791 224.48632303755303 -1.9602037356230382
80.6676018218185 243.72247518386473 7.705553872103181
57.78236655801517 232.82368174268132 10.541523543529399
71.38194161675244 214.70879824928534 5.247129271708093
92.80090472312324 221.67786681702887 12.32455844887716
71.97808979637236 245.39668797482238 25.316577088121125
61.13995399060122 254.71833168809746 9.818803055565619
82.56278908947458 237.4463168735064 27.58823357680672
85.28521990160704 236.4632422562784 25.846078052180044
78.21223472416277 221.10394777778802 27.06539789851326
62.081167233829106 226.95959611648365 24.633921076783086
68.62428446655514 214.93352214653513 8.056991488333795
81.7835009416488 223.36413823586452 24.36489732459312
73.21498691667925 215.10742420939417 21.658761952476002
72.32997355156782 250.04480887755972 25.300349037227218
70.3684743622182 248.7456528767697 27.228270178186655
56.54725916835458 254.3373095031823 16.90027288962042
77.48524005047183 240.62347545337983 27.705018795749815
62.61978677936035 235.5025042888467 1.3166578954674255
63.587688717981386 221.14297207834377 3.8485455236900914
86.07915370516706 224.25533009693692 22.01271460519696
68.65319431279997 216.7634298782797 20.81272421895815
78.32476394683768 234.60588574967076 29.46471591816556
73.31464867905544 227.02082498651112 29.5304319314665
73.78850582053587 245.0219571879301 24.263989554608152
60.71561380430878 229.59779439022216 24.39360854139148
82.30936345843638 217.07615126663103 18.283364502389226
79.32039129199966 226.46708046976255 28.200948620526862
65.77589397420033 251.70363160928565 25.96823907438275
70.72824776669093 250.72603372414233 26.489064953000348
82.0743506283642 228.22326535813872 27.112200272915146
58.731848055495654 233.29808259823633 22.367589397981284
60.06163877149029 251.4711798439811 27.230537920302297
79.81600635656164 232.29357973302086 28.068674734057023
64.98672352304843 258.02472805642685 12.316981853742584
75.72932732361205 244.6881234639941 -0.18612472917554596
75.42390483065732 248.91158968996203 9.88963286839536
88.06982522232727 229.9704498161012 20.309288677912637
86.96757088669375 237.9185107868414 21.899374766045856
66.50216667951048 232.9627658161027 27.654855102120717
70.99609747622856 255.8665543721875 12.592734772019545
71.84864597907828 255.20404067915976 20.119693487737727
64.25137536683062 217.08783484497636 14.570885524877093
72.78208149250054 231.5712591143225 28.73927488139045
76.88423761528821 243.4482834851257 24.166458716667027
75.70165719191542 229.800457777819 29.133870696808916
61.06820323143521 222.44237770528554 18.339537986923492
56.66278353938619 247.58351129244627 8.156481442566408
94.36562936397736 231.59345806397283 7.907607414016189
71.96835553491712 217.37622719767927 -0.3658194863430236
70.96291075288417 252.50144576187537 25.860561077828578
70.83833915433543 216.41579749381512 1.145105542208721
79.12220506881704 229.93457702657494 27.898013482474063
71.03882236829465 254.85519240956447 23.551957656504282
58.87643132336559 229.76522491649425 18.647324523860657
62.478748572055274 256.4021617621686 21.622893946499328
87.47267839413679 222.05798534790816 -0.8162538824107051
58.95883473189235 248.17643996039206 27.138367095701035
60.41052455744248 226.0623098757981 7.97016105393691
86.56828101227276 231.03758096543888 23.29550005480894
64.22969009034036 218.12611765796763 7.920512404474579
74.44621817419677 251.79040493205662 17.813507690841988
55.46551068706909 238.6073403590751 12.046464391173068
70.71213709384108 235.04298038747748 27.597156463537633
62.68491770748529 219.69164287751116 18.169916006681827
61.646236579337106 247.02945863708047 29.42238810212649
72.8293846009614 254.4002445663645 17.235475846204103
66.257895853905 243.6227152985912 27.714173329100554
73.15595142530641 234.50469140628942 29.24916021060084
85.90900127573688 220.75519689076975 1.09786040945623
77.7958009129712 232.71377212180894 28.801867098966955
68.16526671162697 221.36488258790035 24.9494549471452
59.9511094758489 225.04302856469255 19.196059724892923
61.87669726913192 225.9683457122345 4.453897268689398
87.77055333203982 233.29353273714392 20.812610148327725
87.99657951300739 233.58301930026565 18.120148832013598
73.73966248099735 247.07519279582047 6.218078311179281
92.74855062309103 231.91831719442322 10.252763408869447
88.24039157949822 219.85015347391885 4.939703668642717
73.06884689011584 239.8785471961156 28.230515948632544
75.9152421995224 249.5291554273842 18.657811118398225
72.71829030882803 254.77048313550193 14.228556165724841
53.53228841612977 251.3055130610701 17.239926938745196
61.365410997654045 256.08140619065955 19.334167985435712
87.56174724483662 235.9612144371465 19.552248838884083
77.54627558763374 228.1527327755673 28.40363271598647
63.5965236803992 247.63358726084067 28.08110390310124
87.64836959613085 236.21053438180465 13.801037471186104
52.8649003056734 242.80487450763383 13.537730315978534
69.6878334079033 232.0279777456021 28.149328726022123
96.47601609502826 223.08868357359722 4.393493838645037
75.52406079420543 249.94465475370433 16.179681355782105
68.51431428721091 229.1117808536186 28.481603618662792
55.055672040181086 238.8748043107596 21.715144596459968
75.96956306125811 244.72619125646702 2.855858286089109
83.92066451917957 236.38820382706615 2.1932966729985472
67.19620378489248 217.32609124261995 1.8305333228966558
70.12160407806469 246.49844434645152 4.134639310192777
60.064043876271676 230.70859686518577 7.624651888846693
62.10177924135797 219.45990033660078 15.311514079417398
86.85584014655012 239.0623853700289 18.399392274002885
71.59798750781661 245.30408882424592 1.004444379677475
87.70375875456988 236.18852522139107 16.691787599910807
67.11699949292108 257.0189772417631 20.35146401368643
73.78868513030969 253.2972754652831 12.264743295263509
63.641247835008656 229.80764230464348 -0.7931816061573203
64.54573205622356 223.260906514438 -0.7605494996603531
94.65383649646321 225.82535439649658 -2.2842530276648856
65.56318142715155 257.56533016277535 18.07884100037569
61.87050507449674 230.38844465473528 2.996358430599947
72.3466207767942 243.88733965301728 26.350605340954154
56.923131829477796 254.33432112242477 23.854152893186214
83.37361687127289 244.24220232472615 12.966702227379235
60.75466851510485 237.66901469786353 4.546103498579843
81.45252731644354 218.8177346788323 2.4464306102275954
68.41834451980345 251.67830887010248 5.756030095180618
76.6178230362746 216.949579451199 23.098790895668294
60.30749466802628 223.60449765092963 12.546437998880853
86.97989841195542 238.8154903825701 15.174856791602927
62.88308113290229 231.12630045637968 0.8858658963840973
71.71513278489508 237.71317971746853 27.370065163494424
70.6792164000973 215.35667852955874 20.12246693033735
72.68061651505518 252.4007573884322 24.14101751776214
51.694887102113405 246.27429146425703 19.10594885849346
57.93106669516194 231.18615252676784 14.701236772231416
73.70061056178197 218.4180485305913 -1.1389038595977625
85.06930779526664 243.85056135523294 18.73549382775657
96.66416852294681 225.54133993996172 5.069378609044621
78.65883940445616 214.5750433820991 16.73389271045434
69.70620298048443 222.3108391574113 -3.09923884780411
65.36764858864763 229.79880674001782 -2.2430440194234524
54.90541952729886 240.41753440625197 11.053514230294988
59.20759199433626 255.63385233893823 17.476953165334614
68.42902754111033 253.62119334670592 25.27865658357615
52.50472180701488 241.8200948830099 17.229126486880435
83.63070665721465 217.88135930944716 7.295637741906746
58.92505580374854 229.48918410600388 15.89709878980731
63.72418913448896 225.60090039250423 0.31750246734217025
68.82828207030718 215.25594811754226 6.102272642880115
52.130982352294666 247.95151676348473 21.448597607775543
68.90769050115375 241.40879092701482 27.28060246181034
59.231938047252946 226.94079127404694 17.074285667807093
87.0046699612855 218.79941512480406 11.990506992590651
61.20068374734874 227.2803346718124 5.950276019309798
71.14604997719215 251.20732874927123 7.41502115045307
81.67178392716276 245.5455202703808 22.169548949515292
62.55990427150609 221.57288022233303 21.05846809349414
76.46384534668377 214.07851717260635 7.620086502666677
90.01202382476578 225.95581689584836 -2.136662821348115
92.20568033235257 229.59624222156418 -0.6576132751002481
74.08244884697875 242.08329336717006 -2.7350751656993353
65.06765007236767 247.9773736915546 26.99778651849958
64.02057575477635 225.78417499759152 24.57578573647874
78.88055801385421 218.83732077085403 -1.7321026265509587
56.47956062380886 232.81510653668187 13.192529658531958
59.26231100359075 230.30556038522397 9.846035237975876
95.86853526520217 227.59212390751864 1.421444049334711
82.72838387844368 245.82377558878898 17.50694669278313
60.20557683147626 224.8947772039881 10.22616675611386
77.14381916037202 238.88145311366733 28.670918131481727
79.64142025122491 243.96419793279443 6.197445866314791
74.32292669627495 219.6705816275636 25.585402207181957
60.08793216072827 231.98630496150756 6.447858808400628
69.31566490725521 255.51362236226475 10.133164909032006
55.1165558994807 237.7018839567182 14.115322437043606
71.47153904116492 233.31126525404662 28.653712140792646
69.3806239249565 244.51446015055095 -2.210571689166919
76.45247303998825 248.03657621223016 11.861571252983138
60.66121886516777 229.9297288226588 5.471236636006495
83.40390209860657 217.319799542298 10.359119837562638
68.70497685407439 219.2189591119328 -2.7939393718546577
76.08499306576202 246.0704953996978 22.120558075270754
58.08238862432016 231.17135381682075 16.7405770714805
62.405576448659716 223.8822530859486 4.094230880037612
54.903912585843436 248.34064558651914 9.57156853093885
79.13302598990087 245.66478233938088 20.74369905985185
68.05885924090217 244.3114314979002 2.1352936351775895
85.80783035030595 219.54975743307304 6.346791002799666
84.49934801419155 238.90533072102957 26.516285774655625
82.45032713021811 222.3563294103375 -2.917722348362331
96.04516549887457 229.17207313008922 7.933545375131999
62.175267910369115 256.6891246413816 11.750579789224178
94.39948159272538 223.6119868027921 -1.6437988805868988
58.311452113759636 236.96936509027876 23.89806475396294
62.93459140733145 251.81021825035398 5.568002407726131
69.85429537977053 226.14343639741568 28.94305592476655
84.34305808163127 221.50667118573136 -0.654186744447322
85.15616772117765 242.8784395681477 13.982333916493912
62.10475185411772 232.41533928298054 2.3994635848770764
79.43728425797698 221.3585114442799 -2.996826982368108
60.665903091201486 253.92406804146557 24.78021061132773
62.66353501360263 228.26584534220527 1.0075597758488535
77.49752235078857 217.31476824691003 0.2911340618185549
95.1746031792095 222.03357671788788 6.6255240977117476
60.83603298809974 222.5745985399697 10.415473189968878
56.41864318701186 238.43428419512367 24.498411943669854
61.58017899366296 220.67349647948274 12.394735082785337
83.66828827905897 219.25058021961416 19.529985340393306
76.08008051138707 212.27280234857338 15.064027563409667
63.270685633362035 249.90625253509347 27.960116057552998
59.43780351945144 236.92293009470635 6.775751344853422
67.83200300347464 246.5357033769898 3.955908756934607
83.75091036312553 224.08283523639204 23.03505245733417
88.24237839947641 220.59956414220989 2.050182078322526
87.69915335055921 224.59481497420077 -2.9967747747689293
55.269979264046 252.92201370959933 23.392819742390426
66.3429049859332 243.09370248208003 1.7489889118353286
72.05382825355538 213.5633412536756 16.567805378106364
63.75450949001262 250.1263747190899 4.399460773774976
69.10792868668803 217.1339501786358 -0.2162892377444337
75.73896976339617 218.5791318562292 -2.64855058830016
84.29106635593227 226.29568927891899 24.658781474238044
61.16807791750297 223.53527670527578 8.280431169191981
86.03152341336512 239.11419998014952 24.521242265048702
52.2464923887646 248.43360198114965 16.04265685251185
67.94608022879106 256.77956848005095 13.093486138669542
72.78728758942272 225.1901841579046 -3.1832067424642982
58.404330486575596 231.03874909869276 12.424357912838287
67.93255716115821 236.08949001122912 26.656872961024554
54.66954258244233 252.90741446119617 15.904906562382342
87.49642571357094 235.54709539241455 21.458798752368303
72.70164322730403 218.46296359478438 24.433581149915238
66.81110060554023 241.81084146428336 -1.6450160881458198
60.04051291807064 228.61463974988212 7.746723303385319
96.5400484797653 226.04418656536703 -0.5814851266239639
85.96003798536734 227.87663444692683 22.0104461617065
55.69236488492763 246.99028278112837 26.22082998665717
56.889331970318956 236.73483607930285 22.22051363696705
79.36549000474884 220.09197758087876 25.478960309485657
59.81421066380453 233.74605232461928 24.218256200524095
64.51777361479004 239.7991202763759 1.7047851766968514
82.16284966230974 231.79731391760748 27.471000457254956
70.64886707185167 225.23150837968916 -3.127172348156634
64.24305003207995 227.34650091228883 -1.4594246047794233
92.39537371135664 222.27903906080414 -1.7321076079366848
84.481807341662 229.81124733533645 25.579472888912907
51.84107623520936 243.09448536674324 20.566238766640616
86.51846131138448 238.60412513231194 10.152746049918916
69.57026585422602 244.87336743165451 0.21053770503808875
64.52378784773262 232.3045970115426 -0.9193146703799809
80.08325271452938 224.30519953333254 -2.8024122400019045
54.25660386454188 252.22485450415368 20.13433831318201
60.696732576816856 222.28639874017517 15.288227909922691
79.23733208773277 245.02884752004903 23.387977897265998
73.6315712122874 244.784702944159 1.8441189121249388
73.26383536537935 245.0117765780701 -0.2012125918805168
53.472275655706014 239.20743306133386 15.85791116494044
63.133999696268425 256.02764187247 8.971785009731812
56.49324872651447 238.77152107581102 10.059418675783006
80.04912471889453 234.75676037889028 27.77882474373158
64.25920297358326 236.1092302521059 27.135588919801233
65.86430852958105 225.14231766870992 -2.4929127655838723
77.06045225329167 246.45847446296352 10.023779800651443
54.780589598208486 253.15035576722212 17.921208529425986
60.88221058152885 241.05173555818706 26.268871345195006
62.713544567044536 218.71914242927886 13.339562192831375
61.7613569548432 237.30444694798987 25.75074337121669
69.44169260221614 219.35570299965505 23.922268713002264
57.337496846927216 253.60162998660456 26.1531534034985
87.07725378992298 234.90039798063805 23.547587502272698
62.4456459390205 239.3791448304056 3.4461537243752667
69.23840616730814 239.18811784720785 26.996949725669527
52.613346932893734 246.39417531875344 13.077088206942989
68.82389992614874 247.4165540916278 26.291378469236005
75.55495421963865 241.08163454363938 28.035991456623922
58.38135223340183 255.3441576367967 24.082231544698182
74.22623475339013 214.48616850514435 5.599945828286823
69.78434615433125 245.73046370893883 2.3334243281311706
56.407546765286654 241.24560196597798 9.007911682752233
73.78311219727847 213.28184544654997 11.619192185168108
62.02498002907243 232.2054779431779 24.411376882196432
59.74239576278868 252.3349943845616 6.858026253482488
61.76527053155894 234.71860248322153 25.63014413650424
92.35549094305014 224.61930797211633 -2.977122696777078
63.73339360549569 223.54134453161396 1.892226670640221
70.46043787375619 218.49991136794645 -1.406551265331211
81.6357336207821 240.09614460287173 1.732952225315331
88.31402033931299 219.03933845876134 7.792917279302236
59.15954102405815 252.97760265414044 8.943023672358313
83.48894634532323 217.30505396760228 13.398880587130883
72.70699488637882 215.57436253259218 2.396860603785624
61.31340054458002 238.9216769602487 26.551964105096047
55.85483102459887 235.11527983235123 14.909155711874186
81.77260309769213 246.07655491227695 19.720731640998462
75.0043012008264 243.09776576945038 26.25578613610746
94.6287980865079 229.89850906293807 10.158884126317558
54.42093602166236 242.93860788805202 10.639423820239173
60.748689401980386 232.66052240344462 4.312336897031333
67.54524272125315 214.38878579060074 12.195334037654844
57.496938838544004 234.40681047230933 20.58320368120486
83.09408889947007 234.6993651798481 26.989729746812007
59.95671340189327 231.60893416065255 22.93078379267452
88.45767239436758 223.05904659697913 19.589982087292785
72.14930816157609 219.64409563518043 -2.668386258172808
76.15644628270098 213.99124327842424 18.69382010674015
87.14740977506604 234.57541955699455 5.293986935387869
74.35655424437566 247.95123492876002 24.219026406227336
73.58138553474744 249.07943705027265 7.922379443765244
55.69275569703078 250.45407934641668 9.311536049910123
64.3742528800165 242.03376490649686 3.1451140945992915
86.19671603658219 241.18313051274768 20.76656561423053
69.61852536648225 252.97988249020239 6.841923890232304
57.951653229769256 241.7230038887329 6.520197970284099
62.14666488323878 220.62642274463968 8.893944398290373
57.42433702350858 251.75664631717203 9.00144855000725
78.31465705202099 216.74589151472446 22.359763739250287
85.44399855272336 228.72722741083007 23.93901285656334
62.0957340899303 253.1789431648381 7.4084318485579885
73.40719319002234 241.803592109727 26.98579720227401
83.61328534874461 245.64451883140313 19.152656970112872
70.01737002555335 236.98355570177324 26.60174715532595
83.34053892416108 221.8362868015216 21.84752783726984
57.44567239683592 241.18438880148753 26.47643172517526
66.00088574909275 215.91698687692718 11.444443001418271
53.777127843476805 250.93962637068444 14.160205100588874
76.77010599438464 221.59218572445928 -2.8024853800164204
82.93726903235141 240.58562647334844 28.02661867350636
90.3179749112811 231.30848110358906 5.403351824945957
81.11349312707324 245.0735679854302 12.043591682488625
71.35613821635393 213.56313887123795 10.861871151472146
68.10391370534961 223.8635463616451 27.416206741311953
81.22034239734126 216.2603217001694 8.317156669165769
67.25418888938152 246.1118265146843 26.985127778949643
53.60092683405973 250.09166559655196 22.276115225429624
94.3498941244137 225.61403526484574 15.695276692956812
62.732365587649575 252.36703539711687 26.28264395529419
59.9606039067454 234.09056744615214 6.633340105713744
66.02510346463683 221.70587360411588 -0.29407347152716534
59.295957397901674 247.60213358680042 5.96724244675346
58.1863106557924 250.58882877067356 7.408157403280698
58.12982230662829 234.84426392523628 8.58595855542266
96.12946468232612 226.132348894194 7.918570688474366
68.08709279679222 226.725004134989 -2.736436389595784
65.79579106298269 244.5262109827211 3.623628244697409
63.27020451971084 257.5269213316158 14.319137668641957
72.52121241232194 254.73724896696845 12.334948046855672
73.62170198374251 251.66054338546826 9.6733660385426
61.152804300604394 243.9222204073897 27.942051291863017
61.453443902577824 242.0807690551374 4.6999989554043635
79.89227362933094 243.1912726942416 25.791645451390025
64.75515155795644 217.0920873344197 17.99569707193253
85.1933245813674 241.77293925449928 23.53474753889378
91.86463848062509 231.26445003960762 3.8048744756197306
55.378680166323015 249.94578346380786 24.87029327499872
68.23911109217494 216.07880708541774 17.71648873741154
90.77588316359068 222.64582307634114 17.990904779898187
51.823222400377816 243.99904406547893 18.245956038112737
62.37118141073347 222.35647532355665 6.269047495512978
90.79555460431719 221.69254430948538 0.516567107332292
66.33697622047814 234.65092216647656 -1.5274209144090811
80.51283210648272 227.2595527421251 -3.0498238328502025
65.9891487171547 256.07999442319647 10.013052833563545
65.36481967543659 217.24123555131695 6.403243524550801
66.10630662805958 254.19037290183368 24.375872986067446
85.53646694897039 222.02055190917858 19.29741329577458
85.04281069280334 233.07782230420278 25.719624868829637
57.50579577569791 232.34333920147282 18.47780731373148
66.8252213563864 222.04720162764826 -2.201482235120508
81.22792611020901 239.06143976596655 -0.44186557799040493
67.7188802369154 229.43888126832337 -3.2364101280560513
76.04730402333632 243.8479620799743 -2.9435593621180605
77.4299612690509 241.8666917474364 26.45262872404956
73.75543935632871 244.7681722591369 -2.382576869871546
71.51893207252493 244.92302831163386 -1.2091696550168585
73.64262914255542 213.70511530640232 8.757333585742435
77.7243657134594 218.2248561022979 25.08412124451845
57.75837561320967 239.20275165098974 7.6341223645136616
93.40269524054251 223.0741981271886 16.96772389888577
70.20125496204372 222.0230223645969 27.331959650027894
83.7185369890286 239.65762469697222 4.645589767296949
65.49713412652028 219.04576104762947 2.712567566300899
63.54259512443662 224.7307772507487 22.466509995590908
67.43518230233 243.50408524908784 -0.5589699134338736
85.87953675648912 220.10063031643944 3.4713375870934975
80.87400286985942 229.67816558962653 -3.072639464446125
76.69849530306355 246.81654399988733 19.460829240359697
69.79630725948655 213.938363583462 15.67223832457098
62.950116910859506 233.4879149075211 0.9644658347838029
67.26088830652947 226.7929784612842 27.106349924729017
71.44194210069077 240.46695003338226 -3.18328043952282
67.06355008532427 214.8587908901028 14.481874008327214
61.51819316420301 220.90607846579087 16.792223038282355
66.60007036973094 239.74303588172774 -2.1683421264493172
83.01814526086191 242.72871346497806 25.63156301223768
69.67720063497676 256.4054783377102 18.866140054842372
77.63646867227008 238.50936882759578 -2.7255770912588346
66.49785281588491 215.9622772480917 7.994802506508602
62.57161977471665 225.84169841475895 2.5119866148967707
69.46935457439572 238.89271631015765 -2.7274233390057265
59.80816911622489 242.02030639389966 5.853975995731927
77.34899379125548 233.5803524544198 -3.0100143447213954
60.78619219282728 235.40341869274863 4.651656557254526
78.8989032898087 235.71326043568266 -2.8028971094413757
74.56754148132696 251.22637093963294 20.329663949663473
95.67833183487863 227.76802990581982 9.952964191026581
59.56673109021648 229.07683806152244 21.772014006523722
81.33682171447491 217.34799045978866 5.185513254084791
79.70310977501397 240.56611529097367 27.538994675635237
63.7986692902287 235.17771181699328 -0.5470763348331069
71.80769469847677 238.14363977039548 -3.2796045529585465
81.41387440569628 220.2476544136094 -0.4816460186081576
82.67761439098864 225.43606396571266 -2.415193865878443
POLYGONS 1532 6128
3 767 8 4
3 8 20 4
3 8 18 20
3 4 9 10
3 10 9 21
3 740 26 18
3 18 26 27
3 18 27 20
3 9 19 21
3 22 12 715
3 12 22 13
3 23 13 22
3 13 23 14
3 24 14 23
3 14 24 17
3 756 17 24
3 17 756 16
3 25 16 756
3 16 25 26
3 26 25 37
3 26 37 27
3 27 37 38
3 27 28 20
3 27 38 28
3 277 29 30
3 37 25 758
3 37 758 43
3 39 28 38
3 39 38 44
3 28 39 29
3 40 29 39
3 724 43 48
3 661 40 71
3 69 70 567
3 101 661 71
3 567 70 72
3 53 72 73
3 683 66 302
3 302 101 118
3 118 101 105
3 123 603 106
3 132 114 133
3 135 132 133
3 115 335 135
3 115 118 335
3 117 453 335
3 335 118 117
3 603 117 105
3 658 216 386
3 234 249 254
3 249 257 254
3 453 117 290
3 117 603 290
3 157 684 166
3 172 478 330
3 235 254 403
3 393 396 418
3 411 418 436
3 254 257 441
3 450 440 441
3 441 468 450
3 257 468 441
3 257 453 468
3 466 450 468
3 468 484 466
3 468 453 484
3 226 466 484
3 484 289 226
3 484 290 289
3 484 453 290
3 537 390 410
3 216 403 591
3 396 601 597
3 396 597 418
3 721 656 597
3 597 656 615
3 597 601 721
3 763 705 727
3 2 3 1
3 5 6 2
3 7 3 6
3 6 3 2
3 9 4 20
3 14 15 13
3 14 5 15
3 17 6 14
3 14 6 5
3 16 7 17
3 17 7 6
3 19 9 20
3 28 29 19
3 19 20 28
3 88 68 694
3 510 73 72
3 105 106 603
3 118 105 117
3 114 132 112
3 133 443 115
3 115 135 133
3 127 216 658
3 112 234 129
3 129 234 235
3 234 254 235
3 132 249 234
3 234 112 132
3 135 257 249
3 249 132 135
3 209 677 378
3 235 403 216
3 389 230 411
3 577 601 396
3 577 386 591
3 386 216 591
3 404 450 466
3 8 767 716
3 716 767 606
3 18 8 740
3 740 8 716
3 32 764 31
3 32 715 764
3 33 715 32
3 33 22 715
3 33 34 22
3 34 23 22
3 34 35 23
3 35 24 23
3 35 36 24
3 36 756 24
3 758 25 756
3 41 748 32
3 754 33 748
3 748 33 32
3 754 34 33
3 765 35 34
3 751 36 42
3 43 758 751
3 43 44 37
3 44 38 37
3 461 40 39
3 45 748 41
3 46 754 748
3 46 745 754
3 516 42 745
3 745 42 765
3 516 47 42
3 47 751 42
3 48 751 47
3 48 43 751
3 49 44 724
3 724 44 43
3 532 46 738
3 532 50 46
3 728 516 50
3 726 51 47
3 51 48 47
3 611 728 729
3 729 728 50
3 401 728 611
3 401 726 728
3 51 726 401
3 642 724 304
3 642 49 724
3 708 85 64
3 302 98 683
3 115 443 98
3 31 41 32
3 708 64 256
3 606 555 1
3 605 743 764
3 743 384 764
3 764 384 31
3 31 596 41
3 604 532 738
3 599 471 496
3 15 5 598
3 45 41 596
3 1 555 681
3 605 764 715
3 15 725 13
3 13 725 12
3 698 725 15
3 698 15 598
3 16 740 7
3 16 26 740
3 7 716 3
3 7 740 716
3 39 44 461
3 44 49 461
3 51 304 48
3 48 304 724
3 1 3 606
3 3 716 606
3 36 758 756
3 36 751 758
3 704 626 65
3 216 127 235
3 127 129 235
3 87 67 704
3 732 668 65
3 668 86 87
3 127 658 711
3 46 50 745
3 50 516 745
3 411 155 409
3 409 155 434
3 411 436 155
3 86 652 100
3 86 668 634
3 634 668 732
3 139 620 137
3 137 616 263
3 137 622 616
3 605 496 471
3 634 732 614
3 732 65 566
3 616 134 405
3 652 86 634
3 634 497 652
3 557 485 471
3 534 528 653
3 61 424 509
3 113 507 94
3 1 681 2
3 589 534 509
3 614 497 634
3 614 428 497
3 604 729 532
3 532 729 50
3 54 558 0
3 752 58 504
3 45 572 738
3 0 762 77
3 79 679 752
3 77 762 687
3 12 725 496
3 617 723 472
3 754 765 34
3 754 745 765
3 88 574 68
3 68 574 69
3 574 70 69
3 304 51 303
3 303 51 401
3 36 35 42
3 42 35 765
3 74 317 53
3 729 467 611
3 729 604 467
3 465 608 562
3 460 401 610
3 4 10 570
3 578 669 560
3 74 610 317
3 74 460 610
3 62 509 534
3 424 578 524
3 524 578 560
3 73 663 442
3 74 442 75
3 524 560 483
3 560 562 483
3 560 669 562
3 73 442 53
3 53 442 74
3 402 663 702
3 61 578 424
3 470 121 702
3 702 347 470
3 57 736 58
3 70 481 72
3 72 481 510
3 70 103 481
3 432 148 447
3 447 148 470
3 470 148 121
3 427 148 432
3 608 412 113
3 412 512 110
3 317 463 53
3 76 460 75
3 75 460 74
3 45 596 665
3 157 478 684
3 483 562 608
3 130 438 110
3 656 373 615
3 110 512 737
3 737 512 111
3 362 310 381
3 412 430 512
3 424 524 83
3 666 404 466
3 721 374 656
3 656 374 373
3 330 123 172
3 476 650 390
3 630 727 650
3 664 695 413
3 576 519 558
3 646 54 632
3 77 54 0
3 609 541 537
3 172 684 478
3 172 312 684
3 390 650 410
3 650 727 410
3 330 478 553
3 409 455 241
3 393 451 230
3 230 451 411
3 393 418 451
3 451 418 411
3 615 399 597
3 597 399 418
3 615 436 399
3 399 436 418
3 646 369 56
3 369 646 632
3 111 328 437
3 422 714 569
3 606 767 545
3 300 545 767
3 430 363 512
3 512 363 111
3 705 410 727
3 705 609 410
3 596 31 626
3 485 554 743
3 708 683 85
3 683 98 85
3 553 478 349
3 56 369 504
3 369 78 504
3 626 31 324
3 738 542 604
3 89 75 442
3 79 78 685
3 604 633 467
3 633 463 317
3 328 111 363
3 610 611 467
3 610 401 611
3 703 620 139
3 542 633 604
3 140 703 139
3 463 633 567
3 567 633 542
3 67 699 665
3 402 89 663
3 663 89 442
3 510 663 73
3 70 574 103
3 110 737 130
3 104 481 103
3 226 553 349
3 357 437 686
3 686 437 734
3 194 198 563
3 387 487 352
3 440 625 425
3 194 392 217
3 194 563 392
3 392 563 193
3 480 762 0
3 130 737 376
3 111 357 737
3 111 437 357
3 519 555 766
3 734 437 126
3 217 392 253
3 253 392 193
3 630 674 445
3 630 650 674
3 674 650 476
3 625 374 721
3 222 389 551
3 551 389 241
3 100 413 86
3 591 403 425
3 425 403 440
3 601 672 425
3 425 672 591
3 601 577 672
3 672 577 591
3 88 694 695
3 694 413 695
3 329 449 498
3 547 260 119
3 330 553 289
3 289 553 226
3 425 721 601
3 289 290 306
3 290 603 306
3 603 123 306
3 123 330 306
3 357 686 744
3 744 686 551
3 625 721 425
3 194 124 198
3 124 125 198
3 492 349 523
3 386 568 677
3 677 568 378
3 386 577 568
3 568 577 378
3 330 289 306
3 453 257 335
3 335 257 135
3 387 352 328
3 726 516 728
3 726 47 516
3 89 618 346
3 684 312 166
3 53 463 72
3 72 463 567
3 722 278 97
3 224 648 278
3 278 648 97
3 467 317 610
3 467 633 317
3 533 402 121
3 402 702 121
3 89 346 75
3 75 346 76
3 320 52 642
3 76 303 460
3 460 303 401
3 320 90 735
3 293 76 322
3 90 320 322
3 303 293 304
3 293 642 304
3 627 288 263
3 123 311 107
3 293 303 76
3 735 311 71
3 663 510 702
3 311 123 106
3 311 106 71
3 363 430 706
3 71 106 101
3 533 166 618
3 107 172 123
3 618 402 533
3 618 89 402
3 52 735 71
3 66 40 661
3 105 101 106
3 52 320 735
3 715 12 605
3 12 496 605
3 99 530 612
3 612 530 224
3 19 277 21
3 622 314 638
3 638 314 595
3 739 55 435
3 595 636 638
3 638 636 134
3 273 620 678
3 63 456 11
3 429 531 434
3 434 531 409
3 429 455 531
3 531 455 409
3 134 636 131
3 131 636 391
3 314 622 273
3 273 549 314
3 595 314 294
3 294 314 549
3 114 443 133
3 443 414 98
3 98 414 85
3 655 294 593
3 593 294 549
3 493 81 456
3 64 262 264
3 264 262 82
3 85 414 262
3 262 64 85
3 118 115 302
3 302 115 98
3 655 722 136
3 29 277 19
3 122 533 121
3 122 166 533
3 642 293 320
3 293 322 320
3 277 515 21
3 59 11 456
3 21 514 10
3 515 276 21
3 276 514 21
3 30 256 277
3 256 515 277
3 732 351 614
3 732 566 351
3 757 692 566
3 351 245 614
3 351 696 245
3 614 245 428
3 247 77 687
3 368 252 521
3 243 645 217
3 243 217 272
3 252 368 696
3 696 368 245
3 696 692 252
3 692 528 252
3 687 243 247
3 762 501 687
3 454 116 628
3 55 237 480
3 543 501 237
3 353 434 238
3 680 580 448
3 580 628 116
3 645 535 91
3 535 687 501
3 136 761 657
3 657 761 391
3 386 720 658
3 386 677 720
3 448 580 248
3 284 362 688
3 486 353 445
3 653 528 692
3 692 757 653
3 521 464 589
3 521 252 464
3 464 252 528
3 248 580 489
3 489 580 116
3 584 627 263
3 108 508 92
3 508 124 91
3 139 433 140
3 139 288 433
3 433 288 284
3 140 431 703
3 116 454 500
3 136 397 655
3 595 294 397
3 397 294 655
3 198 720 563
3 563 720 677
3 595 657 636
3 636 657 391
3 762 480 237
3 237 501 762
3 527 341 731
3 688 140 433
3 433 284 688
3 84 583 521
3 583 368 521
3 687 535 243
3 243 535 645
3 91 535 340
3 459 318 364
3 543 237 739
3 739 237 55
3 501 543 340
3 340 535 501
3 620 315 678
3 678 315 138
3 620 703 315
3 315 703 138
3 391 376 131
3 337 655 593
3 245 520 648
3 648 520 97
3 520 490 97
3 263 333 137
3 137 333 139
3 263 288 333
3 333 288 139
3 405 584 616
3 616 584 263
3 97 538 722
3 307 449 142
3 0 301 480
3 519 766 301
3 301 766 480
3 530 99 428
3 428 99 497
3 530 648 224
3 337 593 459
3 63 493 456
3 657 595 397
3 397 136 657
3 530 428 245
3 245 648 530
3 124 645 91
3 124 194 645
3 583 520 368
3 368 520 245
3 248 489 505
3 459 561 318
3 459 593 561
3 561 593 549
3 217 645 194
3 674 476 338
3 338 445 674
3 278 337 224
3 713 669 578
3 297 629 381
3 381 629 362
3 297 688 629
3 629 688 362
3 655 337 278
3 278 722 655
3 627 506 288
3 288 506 284
3 627 338 506
3 506 338 284
3 534 589 464
3 464 528 534
3 228 507 438
3 507 113 438
3 524 259 83
3 95 84 259
3 259 84 83
3 138 423 592
3 61 713 578
3 84 521 83
3 83 521 589
3 228 761 420
3 420 761 136
3 766 55 480
3 583 490 520
3 319 759 143
3 430 747 465
3 465 747 608
3 430 412 747
3 747 412 608
3 95 242 84
3 490 583 242
3 242 583 84
3 99 236 454
3 454 236 500
3 99 612 236
3 236 612 500
3 722 538 420
3 420 136 722
3 678 318 561
3 678 358 318
3 318 358 281
3 138 592 358
3 358 678 138
3 97 490 538
3 538 490 502
3 364 348 459
3 348 500 612
3 412 110 438
3 438 113 412
3 502 420 538
3 502 507 420
3 420 507 228
3 624 398 556
3 326 329 325
3 502 95 507
3 95 94 507
3 340 643 92
3 340 543 643
3 99 229 497
3 497 229 652
3 99 454 229
3 229 454 652
3 95 259 94
3 490 242 502
3 502 242 95
3 556 631 624
3 556 326 631
3 631 326 325
3 431 280 703
3 703 280 138
3 431 423 280
3 280 423 138
3 113 94 608
3 94 483 608
3 362 371 310
3 310 371 390
3 362 476 371
3 371 476 390
3 310 380 381
3 438 130 228
3 228 130 761
3 92 508 340
3 340 508 91
3 459 348 337
3 678 561 273
3 273 561 549
3 94 259 483
3 483 259 524
3 337 348 224
3 224 348 612
3 622 638 616
3 638 134 616
3 565 691 398
3 398 691 556
3 565 394 691
3 620 647 137
3 137 647 622
3 620 273 647
3 647 273 622
3 653 475 534
3 475 62 534
3 688 517 140
3 688 297 517
3 626 479 65
3 65 479 566
3 626 324 479
3 62 439 509
3 509 439 61
3 669 313 562
3 313 669 426
3 300 552 545
3 435 55 552
3 566 479 757
3 757 479 324
3 324 365 757
3 429 676 584
3 584 676 627
3 429 486 676
3 676 486 627
3 739 435 569
3 569 435 422
3 679 746 408
3 313 679 408
3 444 643 543
3 717 400 581
3 581 400 120
3 539 713 61
3 419 499 416
3 753 439 62
3 81 493 697
3 697 493 82
3 505 689 248
3 689 709 571
3 142 474 307
3 307 474 120
3 449 421 142
3 108 92 80
3 92 643 80
3 57 385 736
3 62 475 557
3 557 475 485
3 475 653 554
3 554 485 475
3 605 485 743
3 605 471 485
3 713 359 669
3 57 426 359
3 359 426 669
3 617 356 698
3 698 356 725
3 617 599 356
3 56 504 58
3 435 552 422
3 422 552 300
3 569 444 739
3 739 444 543
3 570 422 300
3 344 406 581
3 474 142 469
3 472 640 503
3 503 640 753
3 472 60 640
3 439 753 539
3 539 61 439
3 503 557 599
3 599 557 471
3 384 324 31
3 384 365 324
3 284 316 362
3 362 316 476
3 284 338 316
3 316 338 476
3 719 499 266
3 266 499 419
3 719 331 141
3 142 421 331
3 331 469 142
3 312 618 166
3 474 309 120
3 750 344 309
3 599 298 503
3 503 298 472
3 599 617 298
3 298 617 472
3 449 295 498
3 498 295 119
3 449 307 295
3 295 307 119
3 329 326 449
3 326 421 449
3 326 286 421
3 141 331 286
3 286 331 421
3 381 268 297
3 499 394 268
3 268 394 297
3 469 331 266
3 266 331 719
3 627 244 338
3 338 244 445
3 627 486 244
3 244 486 445
3 496 725 356
3 356 599 496
3 499 719 394
3 394 719 141
3 539 385 713
3 757 365 653
3 653 365 554
3 141 286 556
3 556 286 326
3 556 691 141
3 141 691 394
3 744 458 239
3 744 551 458
3 458 551 241
3 134 299 405
3 405 299 239
3 134 131 299
3 299 131 239
3 434 275 429
3 429 275 486
3 434 353 275
3 275 353 486
3 698 233 617
3 495 723 233
3 233 723 617
3 130 232 761
3 761 232 391
3 130 376 232
3 232 376 391
3 744 223 357
3 223 131 376
3 429 221 455
3 455 221 405
3 429 584 221
3 221 584 405
3 65 755 704
3 704 755 87
3 65 668 755
3 755 668 87
3 83 589 424
3 424 589 509
3 220 659 495
3 753 640 539
3 285 345 382
3 382 345 498
3 345 329 498
3 248 607 448
3 723 693 472
3 472 693 60
3 723 227 693
3 693 227 60
3 539 640 385
3 385 640 60
3 495 536 723
3 495 659 536
3 382 619 285
3 448 607 619
3 619 607 285
3 752 718 58
3 58 718 57
3 752 426 718
3 718 426 57
3 495 233 598
3 598 233 698
3 753 62 557
3 385 60 736
3 60 227 736
3 503 753 557
3 415 417 575
3 575 417 56
3 415 646 417
3 417 646 56
3 78 377 504
3 504 377 752
3 78 79 377
3 377 79 752
3 766 555 545
3 545 555 606
3 363 360 328
3 328 360 387
3 363 706 360
3 416 499 268
3 723 536 227
3 227 536 575
3 387 710 487
3 710 746 742
3 329 345 325
3 325 345 285
3 57 359 385
3 385 359 713
3 56 462 575
3 56 58 462
3 462 58 736
3 107 367 172
3 172 367 312
3 465 354 430
3 430 354 706
3 465 408 354
3 354 408 706
3 131 223 239
3 239 223 744
3 311 735 90
3 90 107 311
3 360 706 710
3 710 387 360
3 107 90 322
3 322 367 107
3 575 462 227
3 227 462 736
3 618 312 346
3 346 312 367
3 478 157 349
3 349 157 523
3 685 308 79
3 742 746 308
3 322 526 367
3 367 526 346
3 322 76 526
3 526 76 346
3 644 372 673
3 547 613 372
3 372 613 673
3 4 300 767
3 4 570 300
3 746 292 408
3 408 292 706
3 746 710 292
3 292 710 706
3 738 572 542
3 446 759 323
3 323 759 319
3 699 542 572
3 319 380 662
3 662 380 310
3 541 649 149
3 541 741 537
3 541 149 741
3 446 350 457
3 446 741 350
3 350 741 149
3 272 494 339
3 759 446 427
3 457 350 122
3 537 662 390
3 390 662 310
3 609 537 410
3 427 457 148
3 427 446 457
3 457 279 148
3 148 279 121
3 323 319 274
3 274 537 323
3 662 537 274
3 274 319 662
3 121 279 122
3 122 279 457
3 78 730 685
3 122 231 166
3 166 231 157
3 231 149 157
3 2 582 5
3 5 582 598
3 2 220 582
3 598 220 495
3 598 582 220
3 717 529 104
3 406 347 529
3 149 231 350
3 350 231 122
3 285 321 325
3 325 321 571
3 285 607 321
3 321 607 571
3 247 513 77
3 513 730 632
3 547 305 613
3 613 305 717
3 547 400 305
3 305 400 717
3 742 225 710
3 710 225 487
3 225 343 487
3 102 260 332
3 332 260 644
3 247 219 246
3 272 339 219
3 219 339 246
3 685 635 342
3 685 730 635
3 635 730 246
3 230 336 393
3 336 128 375
3 349 492 226
3 373 544 682
3 373 374 544
3 544 374 579
3 632 218 369
3 369 218 78
3 632 730 218
3 218 730 78
3 380 488 416
3 380 319 488
3 488 319 143
3 140 452 431
3 431 452 565
3 140 517 452
3 452 517 565
3 705 154 609
3 609 154 511
3 705 749 154
3 630 282 525
3 525 282 353
3 630 445 282
3 282 445 353
3 708 256 30
3 448 585 680
3 680 585 102
3 585 382 102
3 341 379 255
3 487 343 379
3 253 494 217
3 217 494 272
3 243 272 219
3 219 247 243
3 619 382 585
3 585 448 619
3 342 573 742
3 343 225 573
3 573 225 742
3 261 660 343
3 573 342 261
3 261 343 573
3 128 327 222
3 128 336 327
3 327 336 230
3 393 215 396
3 378 577 215
3 215 577 396
3 214 649 511
3 576 212 681
3 576 659 212
3 212 659 220
3 126 211 734
3 126 527 211
3 211 527 128
3 49 642 52
3 52 461 49
3 714 210 569
3 210 444 569
3 432 208 427
3 432 407 208
3 208 407 143
3 373 207 615
3 207 763 525
3 143 407 419
3 255 206 671
3 206 494 253
3 565 205 394
3 394 205 297
3 565 517 205
3 205 517 297
3 581 406 529
3 529 717 581
3 270 210 59
3 494 240 339
3 339 240 564
3 494 660 240
3 660 494 206
3 206 255 660
3 682 213 763
3 763 213 705
3 682 749 213
3 213 749 705
3 104 529 204
3 204 529 347
3 570 203 422
3 422 203 714
3 579 202 707
3 707 202 666
3 579 404 202
3 202 404 666
3 492 201 666
3 666 201 707
3 492 214 201
3 406 344 447
3 447 344 432
3 547 372 260
3 260 372 644
3 264 158 64
3 64 158 256
3 264 522 158
3 59 197 11
3 709 196 592
3 759 427 208
3 208 143 759
3 643 195 80
3 80 195 270
3 643 444 195
3 266 192 469
3 469 192 750
3 266 419 192
3 308 685 342
3 342 742 308
3 246 730 513
3 513 247 246
3 564 191 339
3 339 191 246
3 191 635 246
3 707 190 749
3 190 214 511
3 664 670 695
3 695 670 644
3 664 332 670
3 670 332 644
3 260 189 119
3 119 189 498
3 189 382 498
3 510 188 702
3 702 188 347
3 510 204 188
3 188 204 347
3 59 559 270
3 81 93 559
3 77 187 54
3 54 187 632
3 77 513 187
3 187 513 632
3 416 395 380
3 380 395 381
3 416 268 395
3 395 268 381
3 689 571 607
3 607 248 689
3 750 309 469
3 469 309 474
3 45 665 572
3 665 699 572
3 537 741 323
3 323 741 446
3 112 291 114
3 254 258 403
3 403 258 440
3 254 441 258
3 258 441 440
3 270 186 80
3 186 370 80
3 711 185 127
3 127 185 129
3 711 733 185
3 185 733 129
3 763 184 682
3 682 184 373
3 763 207 184
3 184 207 373
3 108 183 125
3 183 733 711
3 681 182 576
3 576 182 519
3 681 555 182
3 182 555 519
3 443 651 414
3 443 114 651
3 193 671 206
3 206 253 193
3 692 696 566
3 566 696 351
3 281 334 602
3 505 489 334
3 334 489 602
3 432 250 407
3 407 250 750
3 432 344 250
3 250 344 750
3 743 554 365
3 365 384 743
3 689 505 196
3 196 709 689
3 361 393 336
3 336 375 361
3 347 701 470
3 470 701 447
3 347 406 701
3 701 406 447
3 704 665 626
3 104 667 481
3 481 667 510
3 104 204 667
3 667 204 510
3 82 262 546
3 546 262 414
3 341 482 731
3 731 482 671
3 341 255 482
3 482 255 671
3 456 81 559
3 559 59 456
3 493 267 82
3 82 267 264
3 493 63 267
3 256 158 515
3 649 675 523
3 523 675 492
3 649 214 675
3 675 214 492
3 488 143 419
3 419 416 488
3 379 181 255
3 255 181 660
3 379 343 181
3 181 343 660
3 714 180 210
3 210 180 59
3 714 197 180
3 180 197 59
3 596 626 665
3 665 704 67
3 734 211 222
3 222 211 128
3 658 283 711
3 283 198 125
3 519 301 558
3 558 301 0
3 270 195 210
3 210 195 444
3 196 505 334
3 334 281 196
3 10 514 570
3 609 511 541
3 511 649 541
3 269 522 590
3 361 378 215
3 215 393 361
3 639 600 203
3 203 600 714
3 600 197 714
3 129 690 112
3 129 733 690
3 690 733 109
3 193 355 209
3 209 355 677
3 193 563 355
3 355 563 677
3 707 179 579
3 707 749 179
3 179 749 682
3 374 178 579
3 579 178 404
3 374 625 178
3 178 625 404
3 264 267 522
3 423 398 176
3 176 398 624
3 559 93 186
3 186 270 559
3 546 414 651
3 352 487 379
3 379 341 352
3 93 81 697
3 697 96 93
3 276 269 473
3 473 269 590
3 100 628 177
3 680 175 580
3 580 175 628
3 680 177 175
3 175 177 628
3 69 699 67
3 67 68 69
3 542 699 567
3 699 69 567
3 201 214 190
3 190 707 201
3 635 191 342
3 413 173 86
3 86 173 87
3 413 694 173
3 173 694 87
3 109 171 96
3 96 171 93
3 171 186 93
3 766 545 552
3 552 55 766
3 261 342 191
3 191 564 261
3 261 564 240
3 240 660 261
3 711 283 183
3 183 283 125
3 67 170 68
3 68 170 694
3 67 87 170
3 170 87 694
3 738 588 45
3 45 588 748
3 738 46 588
3 588 46 748
3 646 169 54
3 54 169 558
3 646 415 169
3 681 212 2
3 2 212 220
3 625 586 404
3 404 586 450
3 625 440 586
3 586 440 450
3 209 168 193
3 193 168 671
3 209 731 168
3 168 731 671
3 508 167 124
3 124 167 125
3 508 108 167
3 167 108 125
3 82 546 697
3 544 579 179
3 179 682 544
3 370 186 171
3 171 109 370
3 341 587 352
3 352 587 126
3 341 527 587
3 587 527 126
3 52 71 461
3 461 71 40
3 96 164 109
3 112 690 164
3 164 690 109
3 11 197 163
3 163 197 548
3 514 276 639
3 149 523 157
3 149 649 523
3 291 651 114
3 473 548 639
3 639 276 473
3 570 514 203
3 203 514 639
3 548 197 600
3 600 639 548
3 11 163 63
3 63 163 590
3 763 383 525
3 525 383 630
3 763 727 383
3 383 727 630
3 291 112 164
3 164 96 291
3 40 66 29
3 29 66 30
3 382 189 102
3 102 189 260
3 575 641 415
3 415 641 659
3 575 536 641
3 641 536 659
3 515 269 276
3 590 522 63
3 522 267 63
3 615 207 159
3 159 207 525
3 522 269 158
3 158 269 515
3 370 156 80
3 80 156 108
3 370 183 156
3 156 183 108
3 436 238 155
3 155 238 434
3 79 654 679
3 679 654 746
3 79 308 654
3 654 308 746
3 749 190 154
3 154 190 511
3 558 169 576
3 398 153 565
3 565 153 431
3 398 423 153
3 153 423 431
3 750 192 407
3 407 192 419
3 102 152 680
3 102 332 152
3 152 332 664
3 679 151 752
3 752 151 426
3 679 313 151
3 151 313 426
3 226 150 466
3 466 150 666
3 226 492 150
3 150 492 666
3 590 366 473
3 473 366 548
3 590 163 366
3 366 163 548
3 281 251 318
3 318 251 364
3 281 602 251
3 251 602 364
3 423 200 592
3 592 200 709
3 423 176 200
3 200 176 709
3 198 160 720
3 720 160 658
3 198 283 160
3 160 283 658
3 673 550 88
3 88 550 574
3 673 103 550
3 550 103 574
3 628 147 454
3 454 147 652
3 628 100 147
3 147 100 652
3 500 146 602
3 602 146 364
3 500 348 146
3 146 348 364
3 400 700 120
3 120 700 307
3 700 119 307
3 119 700 547
3 547 700 400
3 177 680 152
3 152 664 177
3 101 302 661
3 661 302 66
3 66 683 30
3 30 683 708
3 100 540 413
3 413 540 664
3 100 177 540
3 540 177 664
3 615 388 436
3 436 388 238
3 615 159 388
3 388 159 238
3 733 296 109
3 109 296 370
3 733 183 296
3 296 183 370
3 592 271 358
3 358 271 281
3 592 196 271
3 271 196 281
3 697 760 96
3 697 546 760
3 760 546 651
3 291 96 760
3 760 651 291
3 357 518 737
3 737 518 376
3 357 223 518
3 518 223 376
3 624 477 571
3 571 477 325
3 624 631 477
3 477 631 325
3 709 174 571
3 571 174 624
3 709 176 174
3 174 176 624
3 551 165 222
3 222 165 734
3 551 686 165
3 165 686 734
3 238 162 353
3 353 162 525
3 238 159 162
3 162 159 525
3 613 145 673
3 673 145 103
3 145 104 103
3 375 144 361
3 209 378 144
3 144 378 361
3 104 145 717
3 717 145 613
3 695 637 88
3 88 637 673
3 695 644 637
3 637 644 673
3 116 712 489
3 489 712 602
3 116 500 712
3 712 500 602
3 313 621 562
3 562 621 465
3 313 408 621
3 621 408 465
3 222 327 389
3 389 327 230
3 126 623 352
3 352 623 328
3 126 437 623
3 623 437 328
3 527 287 128
3 128 287 375
3 527 731 287
3 287 731 375
3 209 594 731
3 731 594 375
3 209 144 594
3 594 144 375
3 389 265 241
3 241 265 409
3 389 411 265
3 265 411 409
3 455 458 241
3 120 199 581
3 581 199 344
3 120 309 199
3 199 309 344
3 576 491 659
3 659 491 415
3 576 169 491
3 491 169 415
3 239 161 405
3 405 161 455
3 239 458 161
3 161 458 455
