# vtk DataFile Version 3.0
A great-looking cell
ASCII
DATASET POLYDATA
POINTS 545 double
306.3324801019854 256.66503800788 74.9889414796138
308.98898893338566 257.7277062299389 75.0369439607026
304.2380772756179 252.48970398410586 76.9601741021595
308.973020600418 254.86473980977593 73.44139977017767
303.90764480368057 255.6638355061089 76.89246523277882
306.86228443832357 252.30226620506323 74.81591011135599
305.4794927656369 258.40287890111887 77.87041177931307
309.14389609566246 260.1223604989817 75.4997103150568
310.10317471106185 251.94817360741624 75.56844970490695
311.0206905706121 256.7952365075963 74.77438258234083
310.83916591270923 259.12073490101136 75.22812384769074
312.58672922870386 258.2894072547048 75.86085019582784
308.7820103259236 250.46338561168588 77.98156356673496
310.81938816902647 254.68739990117078 75.56190622912541
308.27744618638076 260.9989567991428 76.91746414553651
307.6791855266996 258.861848315121 76.49600058166061
309.2637246477719 262.6121481937165 75.6131964925633
314.8005569899387 259.7569320160947 75.8031938131984
311.7329298102357 262.8838733114646 75.0536595104143
310.71542797242296 261.0735464483518 75.72666712198486
303.3581048640841 252.32917603586105 79.38894119371864
311.60733592048524 251.04298802289037 78.70130901228913
312.0539668577912 253.6820277867243 77.26205728961885
312.2176391278069 256.1421026364718 76.62528351892466
314.43938136198256 257.17736741365354 76.52038487866098
315.8165997784691 258.5968479898082 77.30953384365209
307.68643139875724 261.74184701972274 78.54721058030186
307.1013130885834 260.07360694791504 77.80208933358159
308.21474158656815 262.77952628774705 77.31762533956766
313.303511335833 265.30665639601415 75.5657313312659
308.64420353034825 264.70512230142015 77.16379392801389
310.6626669284006 264.956141985941 76.03280568246541
314.058450491665 252.84530027622023 78.79856538887654
313.74502116145135 255.43728508483514 78.21341940710566
303.74670628365965 256.5007466358249 80.07253938553337
305.6403206225553 258.6568003804953 80.69691359769381
317.3375075020101 256.9998113402753 80.61757761627631
306.7363397594701 260.19228983578284 79.51298961532318
306.24122706300403 262.45081279439336 79.90543909814605
316.68115250345875 263.512721490185 75.63667865485635
313.44622789232994 268.222482313674 75.29526201096974
316.8701535896502 260.27485750332636 77.03373496052858
306.6818736422446 263.83179805415347 78.03724291181305
306.8924656228152 266.93730333163444 78.37783726850259
309.2786066507576 267.2376362934955 76.43559923816771
305.4022964652226 249.32355491859585 81.99078563360877
309.5922992170995 249.53269764407037 80.99580574036742
304.61236382170017 257.7865501437624 82.67741281717849
313.74519727134833 250.92919887421542 80.93055344407452
315.09504110216113 253.0139748763306 80.84764294232865
305.6842433438373 259.4877539334086 82.55817854907698
305.75145956461046 260.8438669618285 81.31176628072636
304.8895039716793 263.04077767681974 81.81843697848404
318.3294187976349 261.14969817890295 78.69062061880237
305.12519474546104 264.88997640719424 79.92809901868739
305.94129731760535 270.29756504999494 79.3620340912012
310.13205527075127 248.65655983244844 85.29807397450207
312.11944323951207 249.50927159595986 83.04695440820613
315.8927921488619 251.7839177432554 82.72894274600246
305.52934723919725 259.2373092557761 84.55142661656761
315.46188272039814 254.89766676182595 79.77186110327318
305.2282635279581 261.285510293683 83.41780515630472
304.019707806171 263.5157297236055 84.29838871314286
322.0497224964247 260.8290620343823 81.37866938818817
319.1303064510117 257.98848284894007 82.01052342936849
304.4193972458793 268.01881813270967 83.36820205220592
303.9277930067322 265.61110847422793 82.461016970583
304.6782504996954 270.4457698349798 82.20699576296425
307.7926534155186 248.21814733009143 86.38414855474723
314.607812399565 250.29436957908243 84.9726448253777
303.1887775428297 255.61458938091093 83.02214350312047
316.6043165736577 252.10298858664078 85.20021424434195
304.01727369316075 257.25553183977047 85.22564579318491
304.9798654071946 259.1021654231463 86.99686455577339
317.12863612086085 254.12950476504187 81.4275842522506
304.5291999098796 261.3337560831996 85.77424275400153
303.197662724197 263.59953789071454 87.07434620510503
319.4301729795857 258.2079419026022 84.19729126804216
304.47098312149063 269.57856126130855 88.95132695536277
303.32496303377343 266.5220585833493 85.51595058276223
301.60516307994243 271.64108946258625 86.28065409348594
302.56261543175697 254.88776262128476 85.78983193606607
303.78263328059506 256.64557673716297 88.34854433726156
318.1690304894902 253.9744845038985 86.74138075253114
317.52801728980495 253.92256424751642 83.93299855511273
304.3422953644816 261.3410708129611 88.32747843803254
303.12228871744134 263.20856240747713 89.97443324959877
325.87362463057025 257.7581357748683 85.62886337626624
319.9280953139 258.6915902069448 88.94871844347848
304.0437431479894 268.05680547602446 92.00496426860882
303.1914322991212 266.3999244580032 88.98702020040318
308.8303864447194 276.6295335894187 89.87181673012054
313.2321456145956 249.66989308320564 90.1926305623741
317.6656042767471 253.23878027005497 89.8528846061201
304.04498734047655 262.4309154312509 92.70077503227402
303.29163576520256 264.3600685169452 94.38700226780932
322.4085006289853 260.97536353996907 93.1960473737612
317.69905961646924 262.5974250242089 96.7716159658362
303.1796867445642 265.17077796490094 92.0558172236285
310.1333614430957 268.2497925121734 97.3614178985573
308.30550120734296 248.5007602923042 89.43354177265996
302.9626924739276 254.97642000974378 90.95089641605409
306.3927721968388 249.53519976975704 94.3943844620833
311.18578505584037 250.52955286370363 93.00601849984423
315.7124332417352 250.94872873318027 90.82814369203551
304.97525759809895 259.9178049110092 92.02112969849179
311.36482199969595 257.34333984375075 96.71441251123223
308.6658608490521 260.3972097436748 96.86230444498855
318.1034884775946 285.3624605559922 82.46845697156728
314.2015153851547 285.8858383343207 98.26308921873536
320.6572798503963 286.6012425868451 98.28571258256777
322.8258396728278 283.3986356179574 99.11390258307867
311.6851786519901 282.09408294293746 98.6237852998318
315.7428398320433 284.1295922362201 99.05205849232566
320.25968135038994 286.74878441813877 86.03715397673292
317.4134868520497 287.4083466739444 88.0151990429799
322.14069211204577 286.1702579695561 96.81905783191505
311.48769719698294 284.34248329015776 91.82790375791626
310.32274047141715 282.61908601704147 94.44696397552006
311.7073396382231 284.598804065115 96.38149548361864
323.83100972207296 284.1076926606822 85.99686500378432
301.9444136099929 273.51461130560284 82.2825770772863
322.93780029091494 285.64061252337206 92.83220082629046
323.8120430419749 284.26116630778233 97.73630687454235
319.3825450303719 287.43923332936464 96.46705503844618
311.81583949003584 283.777287174161 85.55556489732915
311.015498991531 282.75124890676017 87.07238242689404
320.96101585368484 286.6893586592031 87.85201690006035
314.7807478936489 284.1396745312507 81.66125545790295
309.7042008008822 280.39027210098027 96.44081371060182
319.0508681482422 287.57842483522353 93.01346341859102
312.5313976652727 285.213548116102 90.03691555096727
318.85758960645353 286.3294522889026 84.4789857826969
313.5322547885108 279.1458659021477 98.7950291705641
309.57449301135244 278.9591982255072 93.40272701502022
308.10803326204393 250.6058254808182 75.92635715106888
304.9938727031013 254.24083321316286 74.94634989848484
330.3218681459552 259.28650377227126 84.34345574525302
309.99698948750824 248.63943273948192 83.08742618099613
329.4971213677203 258.53474414504194 90.21402681932
330.7050188369281 260.36243165067447 81.3930569920737
330.08040268658505 258.8005298640574 87.20956663538207
327.3734087115226 257.5972280431059 86.95418090929387
324.4716503377429 258.33808586761 86.95686150323812
326.90711834610556 260.08299817266237 78.51880174919793
306.36945171476344 250.39892197367467 77.11565236677555
331.5265007424861 261.7329819415865 85.20332659991156
304.42321019201603 257.36883300883886 91.42168939439263
330.9820838550975 261.6540969708498 93.03550676721254
327.21085722176275 257.88838782049044 83.4065753306479
302.97570198876764 253.82494110747552 80.9948116739418
323.8545395824291 284.6986902326147 94.68843732963244
323.0706376635998 259.48985938707096 92.15318426916944
312.48550112354224 284.3081195589659 98.52895069686451
304.6285690210701 250.48387872680124 79.2673348498826
319.7624906864439 282.26827604679823 80.09144299396164
302.5862730749611 251.33267910917797 88.84818818286804
306.80336589783025 248.53212880447796 91.85032251355868
302.300521017158 252.80238716689132 90.51533876051528
302.2085128685295 252.06796164653773 86.23589466480091
312.4266114921002 251.34137675775963 95.10394905573222
312.22214837051916 249.96855146892366 91.72219843581257
308.88260885412853 249.39960453955996 92.62125907404341
303.28947695532594 251.3143924392894 81.46548132606218
313.7376930333571 250.26800173550282 92.83363591104998
314.74894643335466 250.31117625325217 89.11091217753281
310.7952428998616 249.57934294947444 90.82384876292275
303.5913012709071 253.0475706681451 94.55888123163562
303.4363950935516 277.3064221432352 83.71633832275516
313.8030092243324 249.71622809829637 87.6514318161826
303.26275639396124 277.8019503001087 89.32473701226249
301.77927558318015 271.4379790688866 89.35918823142802
311.37109917675 284.3229241257131 94.31805216699306
327.363225143556 257.85650171511645 91.20939210317647
328.0452324000349 258.7339449804751 94.2116754735567
325.1780697042012 278.66476098705976 86.5025429592376
317.7938783905528 283.03306005890647 99.2533641252983
323.3507631545931 275.9576375611805 80.09667612836238
325.11534249514193 282.15549750604043 87.06872146033206
323.8420088863883 281.95649930255115 99.04830288026685
325.45571595282564 279.8099127971083 95.02713137479387
324.8362403543399 277.94100821818995 83.98627762278036
307.7130911484973 261.02174514688767 95.50516834523185
324.87137407171497 283.4878266607355 89.27891593269418
325.26860113069523 277.5239560013724 88.94121630594891
310.22214016581347 282.6099944930998 92.58876490641276
323.83633388905974 260.9143881329498 95.37798454335977
303.84864107344504 251.02852597331636 93.88652058601868
320.50645552272925 284.4982438464649 82.16275266190587
311.781991120664 250.14261459545793 80.87081286215736
321.5818506754194 281.6899983409893 81.74316918746212
315.02940976219304 258.3087642101585 96.48566077554995
314.6201652810925 279.3147720410926 80.334602478364
312.7505987118372 283.92441509374373 83.0500070039363
311.1374049775409 279.95057573181964 98.29326643197795
324.47178072704133 274.5091553270041 78.68181251722692
300.53811784881924 275.63170768768384 90.6153380507047
309.55015879295246 280.8018507186511 94.31093230362025
326.46527990039374 275.56276128825004 88.27533077834043
329.7225049077522 267.6853894940804 86.29059838810387
314.4858355417426 256.4922842385632 95.15484881862778
309.2435768038209 276.0926076974136 94.44875535788134
327.6861388210291 272.2872223644052 80.5342131065404
329.3469838905915 267.9001865700141 90.36001459401946
329.79828541153137 269.1452548430626 84.77914147917595
325.5526972171759 274.60522124931475 80.91555108694443
310.99183778489737 279.1302752321342 84.3505670033264
306.1426920486904 277.2011477190456 90.3346498059347
307.9654451861482 248.9905656549544 83.48874952280461
317.5571120069883 281.1593731360133 99.10646516010301
327.35267709795136 269.359849551429 93.5611498981219
328.48418725602767 272.9970769699383 91.75547153055555
331.3017494104357 261.85706590467544 91.07220289822487
309.23021203603923 274.0840965751284 79.60416709444924
317.5806566964728 278.2726469911075 98.73359820178568
328.67714885246687 273.7668054383904 85.27594227366923
327.96416821514765 269.4238546494759 81.03781689583052
316.9704627960616 273.5854224515528 98.3809066633011
312.15555430835525 281.7133698698382 82.45396898949016
321.8842702527812 285.4924238351816 85.3373619173196
303.488982006114 249.6787116774994 86.91609087689619
310.04359425407273 278.23552683633335 95.55072401397949
327.38031091407106 262.6545541537731 95.9462977395493
329.64005220896996 261.5444005119678 95.14064687911615
323.5112068524605 282.81526171049825 83.79641314882474
303.3683811759179 272.310284881223 94.191185885623
324.56684234096866 275.2693040355253 94.59757024345106
323.4648724518316 272.5266206523626 78.53561927423132
320.98095213136423 276.49968092560357 79.80280572707068
310.5646565193363 282.5689264344487 96.57880451518524
327.8890273023986 274.33425100350087 82.62184746424944
315.73767559654345 251.35779424837008 93.04166541634491
310.10520507352163 280.80027414942833 87.79846905954642
303.01681226852946 250.93192865182587 91.32536760202176
310.3824987890417 276.99557113322487 84.23272933391401
303.86196892504864 268.1023040527661 87.29413714072595
305.10150913529736 259.21656301392375 89.59289587256978
311.54384197882797 276.48140148065914 81.74473802235988
312.37147470178047 268.0949983300363 97.85800243303436
318.41235206202765 277.4093042877699 79.21834647949368
329.60962062701526 267.77498998124736 88.1846674243398
325.1626252997783 261.16554005850264 77.16348504389653
310.1969604101767 278.9317385316805 86.07025144611946
305.44261944824854 248.68272215345564 85.05071649416782
327.6002353641066 272.190698607838 93.7933437108621
306.99266934650564 249.31029191409908 79.62241359146263
322.2401692467262 273.09826623485725 97.10169241187756
319.65080137950514 271.21275623224915 75.7720569210282
317.33498305452974 271.72774989007365 75.93138480494387
315.22308129874955 271.58615190300105 77.26847458110431
324.0371175988416 266.5034491587357 77.02937475651451
318.94936284813264 272.93129702095104 76.83081079479723
321.6015027887034 284.8871330810548 98.77407500369303
313.00902136014577 258.2793821088347 95.72357018236245
317.1962411294116 280.53979418482845 79.11549015406773
318.77184690615667 287.18640945912784 87.00774544454798
324.64897206506794 277.3790666318079 96.19047221933361
314.4060902030789 286.32997538998336 90.35946235223902
302.69413464450554 275.3221736866475 81.94269565653971
321.1559481016596 271.4347497915067 97.03069909742028
312.43195708791575 277.1211463864238 97.84532355012861
323.75443577612367 268.8934032390752 95.04096336150627
320.2060458562675 278.66664556402867 99.15418431031397
312.0364253050085 284.59930816569425 87.66126348044938
309.7183986486961 278.5377203503194 88.37362706415868
316.07105561598354 287.1005673073912 89.08580037277335
318.2651260133594 271.98289883834764 98.04963434288871
321.6358586289366 286.5564687669201 94.1567880665073
316.84586856371135 273.66046874385563 77.29382376084415
316.17307797569026 287.0167013637904 97.8412102781007
304.90586866989383 276.5778670919332 94.61371371351385
325.7946480849506 275.9105657820577 83.23893644811308
324.868101462871 279.6120510708634 97.85507122848799
307.47879536475483 248.98412055770828 81.48047185946314
306.4894471646549 254.49134634684776 73.76112078188919
320.51808533668657 268.6520476265524 98.29406962725908
329.0993947804184 265.9956254005159 89.20364669687764
320.04798837173456 268.9824813332657 74.67199320622358
314.1966304686604 274.7907380493581 79.93864791458908
329.06221141515044 265.68794151943445 91.09694686137207
326.91737115786486 275.5040328293837 86.30854907480418
321.680297003591 269.2648424613056 96.7248764831824
330.9869858628242 263.71530301967874 84.3210078650814
321.1011963054124 272.2554757560199 77.68070000606212
314.5520508174012 275.04058011540997 98.65866409709943
318.36075242064925 268.06338172454673 98.81919640001041
316.36297818544585 275.811911500496 98.77462558669545
323.03033157246637 271.05439350842533 77.29266121349886
307.36342299621396 275.12220620972784 94.93327849384366
325.44896556155976 268.2529988819077 78.25131109288802
324.74535771627757 258.7132391977645 93.7029874037098
314.22814813381603 250.3527669665465 82.8419851197102
329.5291025160567 266.5044904752073 84.52573619565823
319.1562401594351 257.20460238590886 90.34091361602789
309.6394093517007 279.8377181286458 91.07707902684167
303.51621462234544 266.46180799216177 94.13389465797422
316.44597586300125 287.31550210609186 94.82619171333623
306.29758307906826 261.12291375073715 94.13469814566804
325.08887070235795 277.40679071341924 93.6906462640499
319.54967236068063 270.47918520467533 97.98461623808862
312.40799963012313 270.3905578269168 97.31608881817269
329.87256675035644 269.75404596077544 86.97436013830453
322.63091701082146 265.2104167889817 95.39875246767458
314.4599250211394 262.55843449742036 74.61929394371865
322.1295320646305 277.37098943403663 81.40977558783506
307.27355801576476 276.2631735912902 92.57648762849507
325.1778502830865 276.37931907043543 87.08791875837585
331.05449909973316 262.7377706378347 80.93047861140093
325.05957457331124 263.3445367304274 95.60850595612497
313.8877710328687 281.1591498741755 98.85874281878611
325.5662369689284 279.66811970089503 92.48193528754081
327.6948126632005 262.65961882358454 77.41073839206615
315.59346188107935 266.854944450017 75.67623629698163
324.70118122211767 280.2849420499098 84.60954164840058
300.68846699888974 275.70369485189786 86.63327412901278
305.7563263544583 270.9246010933729 94.30540011743815
304.4088315138349 262.69884655816384 95.47251086153653
320.5031661538171 279.31609997649457 80.55730121919495
325.5308733711379 273.3591058482236 94.09787473302575
325.56550273662873 279.2386504072425 90.40678230539734
318.9160484227283 264.211947146906 76.05597938701098
329.3250859033721 268.18407250084476 82.63416243168565
329.82453468933505 271.39148716174043 85.5252632414496
329.6896634913076 265.2544001289348 87.02643715927141
329.39289350722487 260.25839626163696 79.47717851418047
300.4487168893534 274.01289277451076 87.89521082815386
318.75390118986877 255.96482556443829 89.05599959884151
315.8110262245269 269.5897187715434 75.48404419036652
330.1245972923903 259.61248577935953 92.13686183995392
318.0906114534902 260.32434524029355 95.5305005275719
331.6351229702187 262.5451714654039 87.21571787998381
317.36919893947373 265.4779112378823 74.917288065086
324.09484991810194 284.31039285561644 91.42092934028435
327.76471474843794 264.71791108385975 94.75081136320689
319.9842962588324 264.45322468865226 95.47706635336282
327.05584794207783 275.3528488769148 84.51286417554716
329.3088814293532 270.3605853846235 91.92741985353548
316.34500680041646 261.54739899368775 75.64561862407473
304.64973968419116 249.195942210248 92.02071855671144
323.41392163356375 259.0219550802468 85.66582416816266
322.28777961929393 262.7565690663463 94.95612562968867
319.9010373256041 262.99176410195867 77.98434597439797
315.56052952013073 277.9880534518295 98.78990744113497
325.04923651101177 282.19140902640754 96.35396662579262
316.17147235698496 275.51439776833877 79.123860813428
314.0947275829052 286.00133040383105 88.18484229619112
317.77360715027993 267.8501918816771 74.78782811818115
321.73218968634365 286.49960143656205 91.02206240978771
327.07389643508833 258.578601625966 80.84530603935488
302.47967636894526 252.993907112987 83.53465304107652
305.716457875805 252.72058830948188 95.85900714426269
305.53137850304194 271.78634318999787 80.828242853344
312.19601592211325 265.581163687869 97.76728225784987
312.3705359856619 249.3526554513672 85.80423610281431
319.9731875438891 259.7490911332258 82.54210847611695
302.27883059593665 253.87757302028007 88.46777912886313
322.72092896251354 262.21835601134995 78.55015863719059
313.58965004049327 286.1301922718993 95.84631070852758
314.6913139952011 270.3898550259535 97.83880301316569
318.3176735007403 276.06640271616567 99.05772926178705
328.71458069323046 257.9975363852502 88.36133107593164
314.4482290204468 273.8777521175901 78.2342190411879
314.042892226404 259.9040290509636 97.4189259552365
313.47511203698804 285.6115413175552 85.55348039926226
320.2760435720226 261.9120669062395 79.89855964322628
312.52033515413945 260.634083760718 75.50867373036854
320.8464906008879 266.74178444290146 97.23579609480545
316.8249424472426 266.5082199975077 98.70572658394967
313.35697285924164 285.926154550945 92.57721548406538
303.34004745371055 254.1595304563813 78.7782207213842
325.0722082118868 270.94673898430864 94.0948924642303
323.08750275351997 277.57328443618775 98.31766757144712
329.8594265185377 262.64675818915134 78.68010910578145
318.6317502898868 287.4367822114175 89.69035789616073
312.1570551906692 279.26308000350195 82.24359134140592
331.0481803532788 259.9582697036749 85.9763057942556
317.1551390077938 283.81847428132215 80.91012413586846
321.7340605288168 260.6228975602431 90.64947993745724
327.8003252599856 267.7521251540526 78.96410084609641
324.11225192567855 258.5604177050641 90.74815487133209
318.3411426215079 257.4031141299838 93.43648146719798
304.27582268362414 265.5641725915055 96.93122987878796
303.8687076280304 249.31315496291543 89.56350299394398
311.3761166192097 259.80923055358096 97.0664639920683
323.85528854928367 275.06631415450875 97.11574530425122
307.54303438356163 271.5026848735024 78.52812437083497
314.8665704430704 286.6360252054007 93.78906306105307
317.4451243698581 258.77801173506276 78.58214379256589
317.82685087901166 262.287935825858 76.85565041337865
320.22003334911113 260.5893059820935 92.47820106914307
326.06479419023225 275.7823735231597 90.15147901923498
325.352553264184 281.6539456014287 90.41278899624474
321.6798436809271 270.1132808871725 76.21669003180929
305.78415889221435 248.49878293957866 90.17553975841865
329.11746041370174 272.08699830123396 90.10388476632019
318.63404809678417 255.7988460837741 84.8479025220336
309.5536517827128 272.31599007969174 78.16247694584798
328.0367590717997 274.4660934782328 87.48706192256013
322.3668663418799 271.21182761687334 95.14438005888088
304.42487683779643 261.27648473921795 90.51840326166295
316.23344619100004 260.1530575741543 96.63495626639563
307.12042808523586 267.4194610584359 96.45457243208574
311.82386698243596 273.7744945903349 97.47825116555562
318.34693320964556 265.3912706434753 97.84256074387922
327.9269346152197 274.23275425013446 89.75056252459066
302.96788094872227 253.01770521157295 92.62983839304393
300.43917157043694 273.3071786196367 90.10647263611992
308.05953038143423 270.2201692876135 96.36408724057162
312.58028720224263 272.2822216591638 77.29381094791445
326.65524386940933 270.18111014586583 79.20373104480659
302.29043883366444 277.1076129971297 92.78868501001345
309.06808473252 276.7656985134629 86.93609882790629
316.2773835521438 286.75147650251694 86.42924014819087
325.7773108459874 257.81763732017794 88.3179918487397
322.8061904594112 267.29758839832033 95.8459284219993
316.6296575169654 255.7865262620497 93.83698276071924
324.6803291981508 270.62402284608675 78.17461483290035
323.58436969634164 273.33453857320956 94.9699167392899
301.1572963244645 272.8843584428637 92.38724732837123
330.68893220732053 264.08910189813326 89.69230015103527
326.3403421030486 266.82829416334215 92.7689352447452
311.5221893426113 267.11568995743295 75.78744355279234
323.3751287152724 284.84758240526264 88.26128505700274
305.46656478647674 275.74988581581084 81.6332820023106
313.6148449835928 270.3276854238589 76.22486139674
319.73487911367323 261.8324566973396 94.28295493858494
323.5136845511959 269.030742889322 77.09864336507191
303.93436190602216 270.9297254700389 91.92257998383653
326.51126572501863 274.95772878781753 92.50918252497989
315.4806089616591 264.786657107108 74.97945343782692
303.12174232863845 270.71716646020633 87.58366518274488
309.46040081643133 257.922177912512 96.1707423451544
318.4805232002835 255.64607049236358 91.71895916989091
311.7584648529235 274.66309467908974 79.46280044490749
315.7753175899427 256.9052785751921 78.4273750220075
314.63530115236705 272.3885549881169 97.57073244954299
326.48015668303367 260.5708797689484 95.90074362299967
309.97904096661205 277.19829777995096 92.66289093725793
322.98243054242175 259.2715494315721 88.21356649589222
322.17122769942915 274.61877801552635 78.42055249534654
319.5003478946034 258.52853694087753 91.60891924328638
325.3507998477933 276.3326827370776 85.2689008186386
316.15857019511543 251.2240468375152 87.75597575163705
325.45801233550645 279.87797330578377 88.65791566297112
306.89706471264657 273.23093606613565 79.84155702626622
310.746297393342 275.8751748388127 96.0537000357375
305.1430288575438 273.7055253525115 95.30998477064699
304.44286070691624 277.74184664608504 86.32201904525196
310.98131779995697 269.85522219749805 76.01457465946997
307.2259217777861 256.00336588229214 95.51203411408771
330.3559873192386 264.0036466848578 92.81068318122247
321.7075031362908 260.0671847475775 83.98118272829728
329.6852087987793 265.49449554467924 82.09632664708391
322.5578053771415 279.8881686416089 99.02836842582707
324.91217711317137 266.3709604119095 94.8088168516577
315.57041695854525 264.5428718168916 98.73092878551641
326.2806223632327 265.5547220174601 78.35982807148288
309.34936499046637 251.40815789349625 95.54778891244162
331.62555044208966 262.10849195632466 89.24306035038128
311.14295672565487 249.04818347789063 88.08163106397045
330.8925413031436 259.9432121477569 88.96149280367379
314.31547643271824 252.48068704272245 93.8609015969548
318.60630894986616 259.576449051207 93.62290464777968
308.8932150846737 275.41053282427254 81.60141678478459
310.26392414235636 271.7690270333737 95.91731699380377
324.67888878721067 263.79449679047104 76.95132049072197
319.2119805576781 259.6320656409338 80.52660190300404
304.8505982185063 267.74026897424847 80.78217626972202
323.8848828211144 276.6372132063214 82.28127305903817
312.9578734672683 262.2255938982414 98.7627952328743
301.976368316056 277.0839178063899 86.32430338462366
316.77309352953927 270.71688067939016 98.21644829956334
315.8756227892302 253.57346076609352 92.2148646564488
316.06047946574023 287.155355080905 91.9057066186533
304.42647609074464 269.94731136866454 85.73783691402296
300.95282773118316 274.68364106236277 84.46329614014088
320.02698407804206 266.0227633177966 74.00709421280781
319.73796603884 273.12413974913017 98.13520905702934
306.431220781135 277.14389296664564 87.89615991613664
304.21438195706463 255.26629707990605 93.87755879278478
329.6429158732871 270.06591543291137 89.23825533813883
321.77847564190387 264.74972927666903 76.59467706574482
326.035418745338 268.44136513498887 94.89120996995996
318.44363495413677 256.0508889272486 82.74920060926296
309.77321236755535 274.1402382619781 95.22410387321366
315.643550272327 261.5556737727363 98.46396664113975
300.9200904725034 276.41368051789266 88.16609181183793
320.70588502974806 259.64958546509274 86.3805410157041
314.86324372282996 268.0713069858339 98.41881454058482
328.67250597165895 267.55883780424136 92.4201617800968
308.78971068390035 265.39306014328406 97.94724616808342
312.6841163811547 254.17009677363785 94.90820815717974
328.93833093361684 258.1385826964022 85.5189771323861
323.1644238012193 279.4710038597249 82.48855495963784
319.2356674563486 274.48524367247717 78.72587469019902
320.6382877083019 282.45605316162994 98.9322126012499
300.9866040131672 275.2196401191786 92.957277875604
311.3142948020421 252.87563977809026 95.96304381677045
304.8654229193877 277.6610463148377 92.05199521875174
316.9181149312875 258.1742084119476 95.15391811416968
318.910025313389 285.2721887588891 98.78753781831485
315.9321246514902 277.94450561001617 79.21886590807101
306.98569353152175 262.8545978872246 96.82598622010795
307.71376271634904 272.68085463232666 95.50815205379729
304.8224413140889 269.54390516783087 93.18528552509031
310.1910181940751 262.72548444102074 97.42722884957739
310.079218378423 270.4841620259644 97.35648069147979
328.7137071265552 267.1405605827795 80.81440303000898
310.96093235931045 281.3868751611302 84.67771194540495
305.7880978882803 258.1275879043238 93.68655386740018
331.22014556863377 260.80206992299316 83.45027976961134
314.215983137938 281.91922877608874 81.06545611032632
305.676149034762 248.46478116318337 87.9202506410622
304.15276906206793 273.1378036039347 81.53316817334667
308.08282407309946 253.72818567064792 96.44929974847385
325.73039787537573 272.62838188477656 78.90323860532297
310.653592631615 283.04909756817966 89.68916338045446
304.88231521598385 268.3795292845522 94.84114151196627
324.5138576446367 259.5560751316481 79.47126610607083
306.60914107538895 269.1663695006974 95.25633615868809
319.135430841373 257.0985234590704 86.69893270398632
301.9724419522275 274.80557606933354 95.35962309949386
329.48277772428736 271.38622842138994 82.90177115299856
310.2530581847072 254.90270331059222 96.1375140176406
329.0078540615375 264.9978267775562 79.33259906239871
314.7449113960325 254.51998716569443 93.93820167009709
322.04987424188164 267.5789067186884 75.68635880482987
309.3614376835434 248.42606339014978 87.30935609881244
313.8312038968258 276.82320709774285 80.3951066447595
321.41250636482994 275.4291013245952 98.7486511706762
306.7022425288484 265.3502324010487 97.45647629722625
328.3111257007703 265.5996221324457 92.61606782074392
325.1988261929208 277.35780775227863 91.37637154792482
318.0717842407437 270.06753090054406 74.78887089185645
329.53829001618277 258.8274285031984 82.50400600776796
307.74566642522666 259.09565872980306 95.04324561374153
312.6135656980299 256.0462084074664 96.36128019837444
324.3946020055834 258.61972500944967 82.81229625228298
315.8178947601548 285.47143500065005 83.3275172025293
302.68189619107125 271.99522897119215 83.59152297120121
325.17974056910384 282.2062273239794 93.39791776266061
306.87091742626063 276.6458821030998 84.64255852124433
308.20800115654623 269.765421201616 77.55701437226358
303.51707119933474 250.51336625907962 84.15224205743947
329.24033818831674 272.35541612542465 87.77955166296216
POLYGONS 1086 4344
3 0 6 15
3 0 15 1
3 1 3 0
3 10 9 1
3 7 19 10
3 5 3 8
3 365 10 19
3 11 10 365
3 8 3 13
3 365 19 18
3 365 17 11
3 7 16 19
3 13 9 23
3 22 21 8
3 24 33 23
3 23 9 11
3 23 11 24
3 23 33 22
3 24 11 17
3 24 17 25
3 6 27 15
3 26 28 14
3 14 28 16
3 42 28 26
3 21 22 32
3 48 21 32
3 33 24 434
3 33 32 22
3 434 24 25
3 6 35 37
3 6 37 27
3 25 17 41
3 26 38 42
3 42 43 30
3 48 32 49
3 60 49 32
3 32 33 60
3 60 434 36
3 35 50 51
3 35 51 37
3 38 52 54
3 38 54 42
3 48 49 58
3 74 58 49
3 49 60 74
3 74 60 36
3 50 59 61
3 50 61 51
3 52 62 66
3 52 66 54
3 59 73 75
3 59 75 61
3 62 76 79
3 62 79 66
3 73 236 85
3 73 85 75
3 76 86 90
3 76 90 79
3 236 399 85
3 86 98 90
3 98 94 95
3 236 147 105
3 10 1 7
3 9 3 1
3 34 6 4
3 9 13 3
3 14 7 15
3 14 16 7
3 18 19 16
3 12 8 21
3 22 8 13
3 13 23 22
3 26 14 27
3 27 14 15
3 28 42 30
3 30 16 28
3 30 31 16
3 31 18 16
3 34 35 6
3 37 38 26
3 26 27 37
3 43 44 30
3 44 31 30
3 70 47 34
3 434 60 33
3 47 50 35
3 35 34 47
3 51 52 38
3 38 37 51
3 467 43 54
3 54 43 42
3 467 55 43
3 47 59 50
3 61 62 52
3 52 51 61
3 65 467 66
3 66 467 54
3 81 72 70
3 72 73 59
3 59 47 72
3 75 76 62
3 62 61 75
3 79 65 66
3 349 81 70
3 81 82 72
3 84 83 71
3 82 236 73
3 73 72 82
3 85 86 76
3 76 75 85
3 89 78 90
3 86 85 399
3 89 90 98
3 472 104 93
3 509 535 297
3 297 105 509
3 107 535 431
3 11 9 10
3 46 12 21
3 479 101 405
3 449 479 350
3 102 457 350
3 509 147 479
3 479 147 101
3 4 6 0
3 505 502 107
3 474 67 65
3 67 467 65
3 67 55 467
3 55 542 43
3 43 542 44
3 542 448 44
3 89 427 78
3 424 448 408
3 29 421 40
3 44 448 421
3 97 403 455
3 396 408 448
3 425 389 96
3 425 462 389
3 389 462 440
3 41 388 53
3 53 387 41
3 53 466 387
3 44 421 31
3 31 421 29
3 487 77 451
3 462 380 440
3 438 377 88
3 88 377 440
3 17 337 41
3 39 388 337
3 337 388 41
3 25 41 387
3 18 303 365
3 365 303 17
3 53 364 466
3 466 364 63
3 408 249 424
3 63 356 518
3 63 364 356
3 451 354 63
3 63 354 466
3 354 64 466
3 455 488 352
3 389 440 377
3 377 96 389
3 432 440 380
3 340 334 425
3 425 334 97
3 334 403 97
3 388 341 53
3 341 364 53
3 425 96 340
3 88 487 438
3 424 40 448
3 40 421 448
3 377 438 379
3 87 339 537
3 487 451 339
3 339 451 537
3 303 337 17
3 303 39 337
3 366 403 334
3 438 487 339
3 63 537 451
3 63 518 537
3 356 364 341
3 40 424 327
3 39 320 388
3 39 331 320
3 320 331 476
3 29 18 31
3 455 352 469
3 469 352 505
3 469 505 383
3 383 505 107
3 469 383 362
3 542 396 448
3 64 354 77
3 77 354 451
3 331 346 476
3 481 320 476
3 40 327 312
3 312 327 346
3 77 487 520
3 520 487 88
3 303 429 39
3 429 331 39
3 388 320 341
3 341 320 481
3 80 539 474
3 474 539 67
3 539 513 67
3 79 474 65
3 1 15 7
3 401 490 99
3 505 352 490
3 490 352 99
3 465 356 481
3 481 356 341
3 429 312 331
3 331 312 346
3 411 478 91
3 98 86 94
3 86 399 94
3 94 105 297
3 94 399 105
3 433 408 396
3 433 361 408
3 396 385 444
3 444 385 55
3 396 542 385
3 385 542 55
3 40 312 29
3 29 312 429
3 509 479 449
3 415 200 525
3 64 483 36
3 36 483 74
3 483 84 74
3 462 499 380
3 380 499 415
3 449 523 431
3 106 383 431
3 431 383 107
3 525 200 491
3 25 387 434
3 434 387 36
3 64 36 466
3 36 387 466
3 326 83 520
3 520 88 326
3 83 93 442
3 84 395 83
3 77 520 395
3 395 520 83
3 442 93 104
3 83 326 93
3 58 71 69
3 77 483 64
3 472 525 461
3 395 84 483
3 483 77 395
3 472 93 432
3 432 93 326
3 415 432 380
3 472 432 415
3 415 525 472
3 525 491 461
3 415 499 200
3 58 74 84
3 84 71 58
3 432 293 440
3 440 293 88
3 432 326 293
3 293 326 88
3 431 523 106
3 509 105 147
3 435 358 471
3 471 358 488
3 435 300 358
3 358 300 488
3 465 456 311
3 392 287 426
3 366 285 403
3 285 299 471
3 308 302 340
3 323 282 292
3 340 302 334
3 334 302 366
3 344 278 528
3 528 278 433
3 344 361 278
3 278 361 433
3 346 533 277
3 488 285 471
3 281 275 366
3 366 275 285
3 281 299 275
3 275 299 285
3 344 268 361
3 257 265 345
3 257 473 265
3 281 259 299
3 471 217 435
3 426 250 526
3 494 268 344
3 420 454 333
3 431 535 449
3 535 509 449
3 481 250 465
3 361 249 408
3 361 268 249
3 248 249 268
3 247 283 392
3 426 526 392
3 526 277 392
3 302 414 366
3 366 414 281
3 414 261 281
3 251 247 248
3 248 268 251
3 251 268 494
3 528 501 344
3 346 277 476
3 476 277 526
3 227 283 439
3 99 407 401
3 403 367 455
3 455 367 488
3 403 285 367
3 367 285 488
3 488 238 352
3 352 238 99
3 488 300 238
3 238 300 99
3 283 247 251
3 533 247 277
3 277 247 392
3 248 327 249
3 249 327 424
3 248 247 533
3 327 533 346
3 327 248 533
3 439 283 494
3 494 283 251
3 333 223 450
3 198 404 397
3 397 544 215
3 69 71 442
3 442 71 83
3 420 489 210
3 210 489 336
3 419 323 276
3 444 213 396
3 396 213 433
3 444 463 213
3 213 463 433
3 230 205 271
3 322 301 204
3 522 216 202
3 392 283 287
3 283 227 287
3 205 202 515
3 323 240 276
3 301 480 240
3 522 230 215
3 522 202 230
3 230 202 205
3 426 287 416
3 287 227 416
3 256 226 298
3 409 216 378
3 476 526 481
3 526 250 481
3 322 544 301
3 301 544 480
3 211 428 244
3 239 501 254
3 480 544 394
3 211 394 404
3 244 318 370
3 244 428 318
3 370 210 244
3 184 198 306
3 468 205 177
3 271 205 468
3 215 544 322
3 250 456 465
3 250 289 456
3 515 202 409
3 409 202 216
3 299 259 477
3 280 215 335
3 335 215 230
3 450 531 333
3 489 420 531
3 531 420 333
3 409 378 289
3 289 378 456
3 456 524 311
3 456 378 524
3 524 378 507
3 507 321 452
3 452 321 292
3 323 330 282
3 323 419 330
3 404 544 397
3 404 394 544
3 276 203 279
3 321 507 216
3 507 378 216
3 428 532 298
3 532 310 298
3 240 199 301
3 240 323 199
3 199 323 292
3 204 301 199
3 452 307 524
3 524 507 452
3 307 282 510
3 307 452 282
3 282 452 292
3 276 279 419
3 419 279 450
3 276 240 203
3 203 240 480
3 531 450 279
3 279 489 531
3 420 210 482
3 482 210 370
3 289 426 416
3 289 250 426
3 280 397 215
3 280 198 397
3 359 529 262
3 359 477 529
3 198 390 404
3 261 482 370
3 254 317 239
3 465 241 356
3 356 241 518
3 465 311 241
3 344 239 494
3 344 501 239
3 217 477 359
3 215 322 522
3 322 204 522
3 227 439 195
3 195 439 177
3 522 321 216
3 522 204 321
3 204 292 321
3 204 199 292
3 298 226 428
3 211 336 394
3 394 336 480
3 480 336 203
3 280 335 441
3 441 335 271
3 336 489 203
3 489 279 203
3 271 335 230
3 227 515 416
3 195 205 515
3 515 227 195
3 390 532 428
3 281 398 259
3 244 336 211
3 244 210 336
3 400 329 97
3 97 329 425
3 329 462 425
3 205 195 177
3 515 409 416
3 409 289 416
3 370 318 417
3 428 226 318
3 318 226 417
3 226 384 417
3 417 384 246
3 226 256 384
3 438 413 379
3 370 398 261
3 261 398 281
3 454 261 414
3 414 302 454
3 420 482 454
3 454 482 261
3 417 398 370
3 333 454 308
3 308 454 302
3 260 284 342
3 435 217 284
3 469 485 455
3 400 97 485
3 485 97 455
3 529 246 384
3 477 266 299
3 299 266 471
3 477 217 266
3 266 217 471
3 400 485 362
3 362 485 469
3 462 329 499
3 499 329 400
3 399 236 105
3 236 82 147
3 147 82 101
3 362 191 400
3 400 191 499
3 191 200 499
3 259 246 477
3 246 529 477
3 439 494 228
3 228 494 239
3 304 493 468
3 304 317 493
3 228 239 317
3 317 304 228
3 177 228 304
3 468 177 304
3 265 412 345
3 441 306 280
3 306 198 280
3 390 184 532
3 390 198 184
3 271 181 441
3 271 468 181
3 228 177 439
3 70 72 47
3 441 175 306
3 441 181 175
3 493 181 468
3 200 191 253
3 253 191 362
3 18 29 303
3 29 429 303
3 259 398 246
3 246 398 417
3 200 536 491
3 200 253 536
3 536 253 106
3 106 253 383
3 383 253 362
3 491 536 523
3 523 536 106
3 411 541 478
3 411 234 541
3 464 503 407
3 446 315 503
3 503 315 407
3 407 506 464
3 464 506 300
3 407 99 506
3 506 99 300
3 402 484 464
3 401 517 381
3 305 437 91
3 95 295 98
3 98 295 89
3 295 517 89
3 91 437 294
3 463 541 234
3 513 423 444
3 444 423 463
3 423 541 463
3 46 245 12
3 528 237 374
3 374 237 234
3 237 463 234
3 58 291 48
3 48 291 57
3 58 69 291
3 291 69 57
3 517 519 315
3 315 519 407
3 517 401 519
3 519 401 407
3 315 225 427
3 427 225 418
3 315 446 225
3 505 490 502
3 315 504 517
3 517 504 89
3 315 427 504
3 504 427 89
3 446 503 288
3 48 189 21
3 21 189 46
3 48 57 189
3 189 57 46
3 484 402 445
3 445 402 260
3 464 484 503
3 484 288 503
3 201 484 445
3 435 402 300
3 300 402 464
3 418 171 427
3 171 78 427
3 459 169 92
3 69 442 169
3 69 353 57
3 69 169 353
3 353 169 459
3 92 166 459
3 459 166 100
3 92 165 104
3 104 165 442
3 92 169 165
3 165 169 442
3 288 201 305
3 305 201 437
3 104 164 92
3 463 237 433
3 433 237 528
3 288 484 201
3 100 166 162
3 162 166 103
3 92 161 166
3 166 161 103
3 92 164 161
3 161 164 103
3 491 160 461
3 457 103 160
3 102 162 457
3 457 162 103
3 164 461 160
3 160 103 164
3 461 231 472
3 472 231 104
3 461 164 231
3 231 164 104
3 57 353 56
3 56 353 459
3 457 497 523
3 523 497 491
3 457 160 497
3 497 160 491
3 78 235 90
3 90 235 79
3 78 474 235
3 235 474 79
3 68 100 512
3 382 338 233
3 68 512 243
3 459 527 56
3 56 527 68
3 459 100 527
3 527 100 68
3 68 208 56
3 68 243 208
3 208 243 45
3 350 187 102
3 187 338 102
3 100 393 512
3 338 382 393
3 393 382 512
3 405 167 479
3 479 167 350
3 405 187 167
3 167 187 350
3 349 163 543
3 81 159 355
3 543 220 159
3 355 158 101
3 101 158 405
3 158 233 405
3 338 157 102
3 338 393 157
3 157 393 100
3 349 543 159
3 159 81 349
3 220 382 156
3 156 382 233
3 46 273 245
3 245 273 45
3 46 208 273
3 273 208 45
3 159 220 156
3 156 355 159
3 81 355 82
3 82 355 101
3 45 154 245
3 45 163 154
3 154 163 20
3 382 220 512
3 220 243 512
3 220 543 243
3 338 187 233
3 187 405 233
3 158 355 156
3 156 233 158
3 34 150 70
3 150 349 70
3 162 102 157
3 157 100 162
3 523 514 457
3 457 514 350
3 523 449 514
3 514 449 350
3 502 182 107
3 107 182 535
3 502 297 182
3 182 297 535
3 2 154 20
3 349 150 163
3 163 150 20
3 20 369 2
3 20 150 369
3 369 150 34
3 502 316 297
3 502 381 316
3 316 381 95
3 460 375 330
3 297 316 94
3 94 316 95
3 436 222 308
3 308 222 333
3 436 223 222
3 222 223 333
3 450 212 419
3 328 460 212
3 517 295 381
3 381 295 95
3 4 2 369
3 369 34 4
3 96 186 340
3 96 290 186
3 186 290 436
3 436 174 223
3 223 174 328
3 436 290 174
3 173 290 379
3 340 186 308
3 308 186 436
3 413 360 173
3 173 379 413
3 518 348 537
3 348 324 534
3 379 152 377
3 377 152 96
3 379 290 152
3 152 290 96
3 537 149 87
3 534 492 149
3 149 492 87
3 328 148 223
3 223 148 450
3 328 212 148
3 148 212 450
3 174 290 173
3 173 328 174
3 375 146 330
3 330 146 282
3 375 510 146
3 146 510 282
3 245 145 12
3 245 154 145
3 145 154 2
3 241 144 518
3 241 311 144
3 144 311 324
3 87 143 339
3 339 143 438
3 87 413 143
3 143 413 438
3 87 142 413
3 413 142 360
3 87 492 142
3 142 492 360
3 360 141 460
3 460 141 375
3 360 492 141
3 141 492 375
3 324 140 534
3 534 140 510
3 324 307 140
3 140 307 510
3 328 139 460
3 460 139 360
3 328 173 139
3 139 173 360
3 145 2 5
3 56 138 57
3 57 138 46
3 56 208 138
3 138 208 46
3 375 137 510
3 510 137 534
3 375 492 137
3 137 492 534
3 4 136 2
3 2 136 5
3 4 0 136
3 243 543 45
3 45 543 163
3 348 534 149
3 149 537 348
3 12 135 8
3 8 135 5
3 12 145 135
3 135 145 5
3 502 530 381
3 381 530 401
3 502 490 530
3 530 490 401
3 419 458 330
3 330 458 460
3 419 212 458
3 458 212 460
3 307 372 524
3 524 372 311
3 307 324 372
3 372 324 311
3 171 325 80
3 5 274 3
3 3 274 0
3 5 136 274
3 274 136 0
3 305 270 288
3 288 270 446
3 170 207 478
3 478 207 91
3 207 305 91
3 170 196 410
3 446 270 521
3 521 270 410
3 410 498 170
3 410 270 498
3 498 270 305
3 225 446 521
3 521 418 225
3 325 196 486
3 486 196 170
3 207 170 498
3 498 305 207
3 78 430 474
3 474 430 80
3 78 171 430
3 430 171 80
3 418 406 171
3 171 406 325
3 418 196 406
3 406 196 325
3 67 351 55
3 55 351 444
3 67 513 351
3 351 513 444
3 521 496 418
3 418 496 196
3 521 410 496
3 496 410 196
3 184 306 175
3 475 470 168
3 539 80 475
3 391 443 178
3 184 175 443
3 443 175 178
3 423 168 541
3 475 80 325
3 298 180 256
3 298 310 180
3 404 390 428
3 428 211 404
3 532 319 310
3 310 319 391
3 319 443 391
3 181 313 175
3 181 493 313
3 313 493 224
3 184 443 319
3 319 532 184
3 342 286 359
3 359 286 217
3 342 284 286
3 286 284 217
3 91 264 411
3 91 294 264
3 264 294 232
3 470 447 168
3 447 170 478
3 470 314 486
3 486 314 325
3 470 475 314
3 314 475 325
3 284 260 402
3 402 435 284
3 411 242 234
3 242 232 508
3 445 221 201
3 263 345 363
3 264 232 242
3 242 411 264
3 294 516 232
3 168 447 541
3 541 447 478
3 384 371 529
3 453 262 371
3 371 262 529
3 447 470 170
3 170 470 486
3 453 495 262
3 495 252 500
3 188 219 224
3 175 313 178
3 178 313 224
3 234 206 374
3 374 206 508
3 234 242 206
3 206 242 508
3 437 201 221
3 256 371 384
3 260 221 445
3 194 221 260
3 376 254 511
3 453 371 272
3 272 371 256
3 357 269 296
3 209 309 342
3 511 192 374
3 374 192 528
3 192 501 528
3 317 190 493
3 188 224 190
3 190 224 493
3 180 343 272
3 272 256 180
3 391 332 540
3 540 310 391
3 209 262 495
3 422 183 178
3 178 183 391
3 422 332 183
3 183 332 391
3 310 540 180
3 180 540 343
3 453 272 179
3 179 272 343
3 172 357 368
3 193 363 538
3 197 185 294
3 294 185 516
3 376 155 254
3 254 155 317
3 155 190 317
3 332 422 347
3 540 151 343
3 197 134 221
3 221 134 437
3 197 294 134
3 134 294 437
3 168 258 475
3 168 423 258
3 258 423 513
3 309 133 342
3 342 133 260
3 309 194 133
3 133 194 260
3 412 255 132
3 516 131 263
3 368 257 131
3 254 501 192
3 192 511 254
3 473 296 130
3 538 412 132
3 332 151 540
3 495 453 179
3 188 132 219
3 347 373 130
3 130 267 347
3 221 129 197
3 197 129 229
3 221 194 129
3 129 194 229
3 511 128 376
3 376 128 538
3 511 193 128
3 128 193 538
3 373 127 255
3 422 219 127
3 345 263 131
3 131 257 345
3 232 126 508
3 232 516 126
3 126 516 263
3 473 257 368
3 188 190 155
3 155 376 188
3 363 125 263
3 508 126 125
3 125 126 263
3 267 130 124
3 343 123 179
3 343 151 123
3 267 122 347
3 347 122 332
3 267 151 122
3 122 151 332
3 265 473 373
3 473 130 373
3 475 121 539
3 539 121 513
3 475 258 121
3 121 258 513
3 193 508 125
3 125 363 193
3 219 120 224
3 224 120 178
3 219 422 120
3 120 422 178
3 347 422 127
3 127 373 347
3 153 119 229
3 229 119 172
3 153 357 119
3 119 357 172
3 124 130 296
3 172 118 229
3 229 118 197
3 172 185 118
3 118 185 197
3 185 117 516
3 185 172 117
3 117 172 368
3 267 116 151
3 267 124 116
3 255 115 373
3 373 115 265
3 255 412 115
3 115 412 265
3 255 114 132
3 132 114 219
3 255 127 114
3 114 127 219
3 363 345 412
3 412 538 363
3 131 516 117
3 117 368 131
3 153 309 113
3 194 112 229
3 229 112 153
3 194 309 112
3 112 309 153
3 179 111 495
3 495 111 252
3 179 123 111
3 111 123 252
3 123 151 116
3 116 252 123
3 269 500 124
3 124 296 269
3 368 386 473
3 473 386 296
3 368 357 386
3 386 357 296
3 209 113 309
3 500 269 113
3 252 110 500
3 500 110 124
3 252 116 110
3 110 116 124
3 113 109 153
3 153 109 357
3 113 269 109
3 109 269 357
3 374 218 511
3 511 218 193
3 374 508 218
3 218 508 193
3 262 214 359
3 359 214 342
3 262 209 214
3 214 209 342
3 500 176 495
3 495 176 209
3 500 113 176
3 176 113 209
3 376 108 188
3 188 108 132
3 376 538 108
3 108 538 132
3 518 144 348
3 348 144 324
