# vtk DataFile Version 3.0
A great-looking cell
ASCII
DATASET POLYDATA
POINTS 234 double
334.13483483463597 79.02393971480252 30.343463445582454
336.4350580310807 78.91288545598427 31.092149767702654
333.1363601310797 81.16627103780336 28.53017885902872
338.4708594459679 80.02887117273491 31.43606015183207
336.32238027123356 81.1789840674249 29.572695030479775
334.7588489339959 83.25756879201727 28.31526809059671
338.9623798022334 82.88825611385873 30.965062160471522
332.5287520858986 76.68376884039253 31.021625954794104
335.18496546449126 77.0363787487829 31.88512116354379
331.2616499606659 78.9830506015353 29.701681324232037
337.632305884439 77.90377486609317 33.04759401207296
330.0508332121331 81.75945015852079 29.002080219999954
332.01236659992287 84.25812372249804 27.49249036289625
340.57551508844483 83.22466411449996 32.81566823572289
334.6954956758004 85.69707004621021 28.60388335932484
339.3914786804567 84.91989815363735 32.84792024229494
336.7393511632109 84.2010744704147 29.569559501129905
333.5001838887469 75.23030775455358 33.33428440071539
330.9059379735104 74.92994010805376 32.403208586024924
329.7126498600386 77.12397945203925 31.465741931625008
335.9316810297835 76.02777496386204 34.064203404919034
339.43579306293236 79.40170209877688 33.336174302827544
328.58196634233457 79.7221889138065 30.879655057548547
328.940664072331 84.70398634965085 29.045838837228235
340.691568946898 82.29774525037134 34.34429760228579
332.687753875523 86.78951385254983 28.537409442522385
334.05579716836144 87.63859034793582 30.204469406374102
340.67037417818625 84.16721658275976 34.66968276274534
336.2860145168208 86.54174443651249 30.64068081292933
331.6165572491592 74.11638257979722 34.20901858970261
334.8585256251351 74.60019698654428 34.98225147904355
329.6086294757808 73.15107115545165 33.568639039196434
328.6449708744121 75.58805928647256 33.52892362348423
339.2198792350913 78.36100242289976 34.99392000153575
327.04889241278113 77.7370604856177 32.69377305746697
326.6356916307391 80.6056626177703 32.71075083514105
327.61081495149523 82.54155277465723 30.809038967849215
327.63087491444224 85.3424584794116 31.76980748539937
340.37887665572924 84.84442807292663 36.87663065797658
329.4312092827293 87.04280192275317 30.635196680992724
332.86830655675277 88.39422861939418 32.2731281773531
339.1959286437447 85.9412612780422 35.10249395759894
335.3141300222278 88.12156576714766 32.36138051917254
337.52444737575007 86.81158348403173 33.13875017884613
331.47869840943235 72.25186406343703 35.039589571114874
325.298379395197 75.0286259278179 35.40045342504054
326.58300664122964 75.81474035853365 33.83303372130867
326.6953375857714 73.45541529902172 33.41328772324715
329.34028786740987 70.5737890540245 34.844037802483314
336.21287987155125 75.30263773795555 36.14417194602151
337.76006081248073 76.70591264206375 35.380761829881514
325.8725815737132 77.3075346316217 34.98222436775052
339.00458161725606 77.57724704667885 36.96955399416045
325.90793811105436 79.19743374785311 34.2697157930021
339.990875187195 79.03846993582908 36.5218482582912
326.2393242129557 83.31481500033594 33.356172841090995
327.05580580817997 85.81733438285497 34.63238549523572
341.1343721684883 82.5175765334911 36.46896605777062
340.9998441001597 83.66403679631341 38.74406367498363
331.2418135207368 88.75303665462542 34.58547375994539
338.7930761495709 86.4145056387997 37.47433987317992
335.5544374263095 88.70872542790512 36.300705205765205
334.09829004904054 88.8605611802595 34.383627633485744
337.6509331205892 87.74258752392863 35.76202191759252
336.17791930332965 88.3565412318263 34.322317513946984
331.3273049347193 70.7671717567304 36.83459836433163
333.97651049507454 72.40112402905405 38.153619228489916
334.73543279062915 73.68323161001432 36.8504816380965
324.85656875471307 72.33736485018729 35.69562823220277
327.00799258238317 68.6387335237822 37.747395336943626
336.3551483361371 74.67876227976583 38.09827200742965
337.62761215047436 76.10243378642026 37.48659214089358
325.3978411511151 79.16459592145985 36.36169287002763
326.0193423000415 83.66825308635103 36.2309169447232
325.6725714106948 81.24523142356418 35.0529074110392
326.5910400360677 86.22009273263102 37.56121131447455
341.0855164729821 82.10341908474516 40.61103991662487
328.5403348681523 87.96163048384648 36.04604985953854
330.77250250660376 88.9117903316123 37.700417996815084
339.7779951735326 85.2240225750282 38.80132674784849
334.83337113149526 88.92077628115692 38.206832195042224
333.252126565259 89.17796177183068 36.727380347728484
333.9959451957534 71.91326101094752 39.87773346854031
335.2043040912034 73.31923236216191 39.013518373220215
323.63379388864996 73.45422949634617 40.67372267048763
324.18028575143336 71.48447243838372 38.477339723450804
329.5318355953433 68.819797787865 44.981705538813394
336.58914657047 74.3927223869889 40.08011212671325
337.19743920578827 75.79012932034821 39.165699305507154
323.596153843498 74.28906644448377 37.65027888379121
338.6870764072555 77.10700721041856 39.23676139423742
324.93291514801007 78.94067708424508 39.00672008741706
324.6384848080235 76.90209815475646 37.14939894760039
325.4398746272141 81.37895611114 37.72784083648925
326.0328844348915 83.77923533987357 39.13122689250139
326.4317957792073 86.34447713530174 40.603151221430345
328.2600200325635 88.22327671569597 39.07306733597584
330.72586743938456 88.59647348509186 40.53146489395106
338.6272042281227 86.55851084560676 39.87689569495687
337.06001944731753 87.72463726911312 40.84656357225491
335.1754659450292 88.62124378160125 40.27588089132522
332.9819432420735 88.94007560469471 39.234414637971646
336.86367919558955 87.89458727913116 38.39936109165901
333.10716175172195 70.19280121278278 43.05583319509366
334.07576620023366 71.61997474434757 41.98613756609463
335.49965762611447 72.90244454192315 41.040306393604844
325.8853669800177 68.34310701896483 41.84665887358302
336.78826420815733 74.3702210007262 42.46184214098117
337.5695303872238 75.95235938715379 40.86095026558446
323.9017012818839 72.55010005753554 43.83030303815428
323.62573527658196 75.55797000537574 42.85344915287549
324.7930462054727 78.51917835017201 42.261987183056995
323.8760707866668 76.36759618524943 39.91267746175005
339.654766623216 79.20307797769242 42.28588869415363
326.3077626784762 83.73970584600333 42.030021191119495
325.45495977459564 81.3053432596382 40.62648122103626
326.8748336558667 86.13644958621605 43.52042283386676
340.72999662799225 82.97717518828131 42.549653269157886
328.41495287964136 88.01999912349723 42.017947618427776
330.85270715740006 88.42587457395514 43.25818562548627
338.46173181973774 86.7195588506668 42.69248403363109
340.0880682843019 84.62708566047397 41.0254535276879
333.13252903292465 88.52378173720561 41.84119568854759
332.4670699505341 69.57999044593777 45.57274877790258
334.122629775255 71.6562815706456 44.246543960646875
335.42092139970896 72.69624885891423 42.98529745243697
324.5499590180032 71.04510469292778 45.73185316254578
330.1019615917345 69.75812910293128 46.99958362297919
323.7621771133335 74.96222941951974 45.70456743514472
337.78332991918114 76.28119949766429 42.64339217753183
325.3633104944678 79.11453012302144 45.262936882636495
338.76387141518853 77.67227978862358 43.91580530426746
324.55893235922207 77.0179127819129 44.59414760659807
326.81672516048593 83.64233875514822 44.78788270677704
325.619771604548 81.36555903119181 43.58392753844352
327.8050536635108 85.7117291504899 46.01402274968426
328.78735597457523 87.7334915503263 44.74697625334196
330.9517576677284 87.75750974939575 45.366984712932414
337.198459812883 87.41019212585496 44.681025927278625
339.8290002066863 84.4682664348953 43.78189417372229
333.26789200520767 88.18588121522839 44.764368033161745
335.7738111416793 88.14711790929329 42.945126251525295
333.9347916378109 72.01311461207237 46.718619045256595
336.3268269029131 73.22942695723088 45.21564130694947
325.00920703798505 74.37254163587085 48.64538416573447
328.7639324449521 71.2961486563186 48.26600074847429
337.23551267799525 75.79041413039418 44.440434088891294
326.3290905303498 79.17540286805065 47.75494759660746
325.07388262051427 77.00703394764528 46.91804177384867
327.35324119738084 83.66456545006601 47.36351561618394
339.59231353954794 80.00364514580833 44.301888791263416
326.0840577359209 81.5254028274185 46.39911935261078
328.753492888531 85.30336673710173 48.01582545453961
340.2952257707166 82.20866679141933 44.423978750947576
329.8197454641854 86.77736293811665 46.82202782729411
338.6328399009134 85.99108961160049 45.48178122697246
336.9124234718889 87.21003959145649 46.837706105145884
339.5681622111529 83.68416816115953 46.287759287107505
335.5807717315419 87.94403112699118 45.31597708901858
331.3008789870987 71.71122886575378 47.43263787260957
329.809039473514 73.89981512962675 48.62799298508043
335.3938404118897 73.98354692739076 48.03868025601943
338.036251405496 76.97188466936248 45.841224468712774
326.72328420033773 76.86691069397737 48.8902345231348
329.4479015234556 83.27634317354764 48.61460908461554
339.3898387026657 81.12354537837926 46.413055422920486
327.54280064788026 81.41002639671792 48.77386701519795
338.5788288753988 82.46609117622171 48.579490554123495
335.8988238537447 86.62745868140807 49.377029091616414
338.4226801426133 85.38269823049319 48.30519430682274
333.3211102566052 87.02636574391612 49.13081094232058
332.0204340865033 87.66933446235166 47.2404068250613
334.5527458844097 87.92316657507946 47.25002573303856
332.6964129936201 73.75952837048519 48.33104641450421
333.8369782986902 75.6228021308999 48.635752915590835
336.8061781853713 75.61961931211198 46.67622260855111
329.1959419152205 76.61332621422972 47.95586522176083
337.8427849555978 77.4327088330864 47.88199360617705
331.8200160618137 82.82777584090411 49.598080072660885
337.9548485853951 79.91487965246687 48.08873431971721
330.1498438997865 80.87420012265008 48.96030799523603
336.8339417834003 80.98602300493206 50.340227373094514
331.0861477013169 85.56569064786267 48.91206858396236
333.7025613399298 84.83031565115327 50.51358748673435
336.29112947964353 83.72947112481201 49.56032878970362
333.6756055171656 77.92146119991443 49.23840324137103
336.2167197962172 78.70729538794038 49.17173230390495
332.652752294605 80.40940855798503 49.183796604637756
330.99071671840613 78.49516712112161 48.54986187559069
334.74832467467905 80.0448739995192 49.553826083242356
334.30358998733544 82.08212248849075 50.23407955254162
338.9136238172929 78.75264129044686 46.17798017502275
340.44919863998797 81.08200511697778 42.57071263269453
338.8126936751731 77.4334175073167 41.55254183180286
331.31294243872287 70.07462835437283 38.787855797377844
333.156239350836 70.7123372425123 38.27953165327494
327.50714838379287 69.35682876723362 36.002629202914335
327.4544010854381 73.21613863567102 48.15582375578971
340.41748513411187 80.26380349148941 41.04385744087319
340.83201514386116 80.23624306752222 39.38250346143756
325.35122095802546 69.11067854058575 39.23516598401968
333.0560587643345 72.15461814752865 36.647895118168606
325.3141682232675 69.2094130008949 46.28206131586759
324.33471403104363 72.77464987006671 46.433210107662745
335.7392620372771 76.44795491780378 48.52419767765966
328.18269626361297 71.53181571254038 32.890992040871716
326.3382796559353 70.34193673116746 33.9299152992487
333.3597099370856 73.43609522646634 34.964859059440386
328.9671605505198 87.35432568865036 33.24831299184813
327.71303012523566 68.68132513732336 47.41698694391278
325.3736451779455 69.77553081472084 36.626694014868995
324.6262949376112 69.68258951363535 43.9668767426969
341.2684789411583 81.76121789906843 38.51376235529136
330.79637547848176 88.0053178860263 32.166971210244576
339.83376862072305 78.77661969638629 40.3142213327041
326.85695152710315 68.28454914955144 44.529952553694386
340.1678181564045 81.23858591103863 32.77269757341506
324.2599558170912 70.63133418846503 41.326897628035645
331.1463849443526 69.24912138169218 42.83220676862261
331.68643749893045 87.80838211943747 30.241230876624854
326.00438452270254 71.40817741733109 47.57767167318935
332.7348330904128 69.95310031098609 40.67127048236599
339.9214540884074 78.81581701262998 38.29671373221384
330.6738203571624 86.52458497087761 28.647521350918908
328.4196119319776 78.82032261749814 49.358438921916076
340.4557386780776 80.37199590353264 35.06235983778491
329.3014876597258 69.3572391451055 37.70652670349267
331.6588921686736 76.03565158944271 48.88003253518891
327.7582180043562 68.50383188158925 39.841349057829255
328.5987180088044 68.53313770302853 42.39156707139016
340.81688355164073 80.37855868830562 37.353306731582734
330.12809990796507 69.32438131000762 40.37851095524394
327.62645476845927 75.00050497193841 48.33169625968289
337.88678957609267 85.15699190049567 31.343201342346134
POLYGONS 464 1856
3 0 4 1
3 4 3 1
3 0 2 4
3 3 4 6
3 7 0 8
3 7 9 0
3 0 9 2
3 5 12 14
3 15 13 6
3 5 14 16
3 29 18 17
3 17 18 7
3 17 8 20
3 7 19 9
3 24 13 27
3 12 25 14
3 13 15 27
3 14 26 28
3 14 28 16
3 18 32 19
3 32 18 31
3 44 31 29
3 29 31 18
3 20 49 30
3 19 34 22
3 22 34 35
3 23 37 39
3 15 41 27
3 41 38 27
3 26 42 28
3 47 32 31
3 44 48 31
3 45 51 46
3 50 33 52
3 46 51 34
3 57 38 58
3 37 56 208
3 37 208 39
3 41 60 38
3 40 59 62
3 45 89 92
3 45 92 51
3 51 92 72
3 51 72 53
3 56 75 77
3 56 77 208
3 60 79 38
3 58 38 79
3 59 78 81
3 59 81 62
3 71 90 88
3 71 52 90
3 75 95 96
3 75 96 77
3 60 98 79
3 98 121 79
3 58 79 121
3 78 97 101
3 78 101 81
3 84 109 110
3 84 110 112
3 192 76 117
3 117 76 121
3 95 116 118
3 95 118 96
3 98 120 121
3 97 119 122
3 97 122 101
3 108 129 107
3 108 193 129
3 116 135 136
3 116 136 118
3 120 139 121
3 139 153 117
3 117 121 139
3 119 137 140
3 119 140 122
3 123 159 127
3 128 144 148
3 128 148 132
3 135 152 154
3 135 154 136
3 120 155 139
3 155 157 139
3 153 139 157
3 137 171 140
3 159 160 145
3 173 160 159
3 144 163 148
3 146 162 175
3 146 131 162
3 157 165 153
3 152 182 154
3 167 157 169
3 155 169 157
3 168 172 170
3 172 168 156
3 156 158 172
3 174 173 161
3 179 191 165
3 167 179 165
3 165 157 167
3 181 167 184
3 167 169 184
3 182 178 183
3 184 168 183
3 168 170 183
3 185 174 204
3 175 177 204
3 185 189 187
3 187 189 190
3 179 167 181
3 184 190 181
3 184 183 190
3 227 185 188
3 185 204 186
3 190 189 181
3 0 1 8
3 2 5 4
3 17 7 8
3 10 1 3
3 11 2 9
3 12 2 11
3 5 2 12
3 18 19 7
3 19 22 9
3 36 11 22
3 22 11 9
3 36 23 11
3 23 12 11
3 25 26 14
3 207 44 29
3 29 17 207
3 32 46 34
3 34 19 32
3 10 33 50
3 35 36 22
3 36 37 23
3 64 43 42
3 42 43 28
3 63 43 64
3 201 65 44
3 44 207 201
3 47 45 46
3 46 32 47
3 51 53 34
3 53 35 34
3 74 35 53
3 55 35 74
3 55 36 35
3 55 56 37
3 37 36 55
3 61 64 62
3 62 64 42
3 63 64 61
3 65 201 195
3 47 68 45
3 45 68 89
3 71 50 52
3 93 74 72
3 72 74 53
3 73 74 93
3 73 55 74
3 73 75 56
3 56 55 73
3 77 78 59
3 80 61 81
3 81 61 62
3 80 102 61
3 102 63 61
3 83 66 67
3 85 84 89
3 89 68 85
3 83 67 70
3 70 87 83
3 70 71 88
3 88 87 70
3 112 89 84
3 112 92 89
3 91 92 112
3 91 72 92
3 91 93 72
3 94 73 93
3 76 58 121
3 94 95 75
3 75 73 94
3 96 97 78
3 78 77 96
3 100 80 101
3 101 80 81
3 100 102 80
3 108 88 90
3 90 193 108
3 111 112 110
3 111 91 112
3 111 115 91
3 115 93 91
3 114 94 115
3 115 94 93
3 114 116 95
3 95 94 114
3 118 119 97
3 97 96 118
3 141 100 122
3 122 100 101
3 141 99 100
3 99 102 100
3 125 104 105
3 125 105 107
3 132 110 128
3 128 110 109
3 130 111 132
3 132 111 110
3 130 134 111
3 134 115 111
3 133 114 134
3 134 114 115
3 133 135 116
3 116 114 133
3 136 137 119
3 119 118 136
3 140 141 122
3 120 141 138
3 120 99 141
3 142 159 123
3 145 127 159
3 146 107 129
3 129 131 146
3 147 130 148
3 148 130 132
3 147 151 130
3 151 134 130
3 149 133 151
3 151 133 134
3 149 152 135
3 135 133 149
3 154 171 137
3 137 136 154
3 172 158 140
3 158 141 140
3 138 158 156
3 138 141 158
3 142 173 159
3 143 146 175
3 175 161 143
3 224 147 163
3 163 147 148
3 224 166 147
3 166 151 147
3 150 153 165
3 165 191 150
3 164 149 166
3 166 149 151
3 164 182 152
3 152 149 164
3 156 168 169
3 169 155 156
3 171 154 182
3 170 172 171
3 171 172 140
3 142 143 161
3 161 173 142
3 162 177 175
3 224 163 176
3 180 166 224
3 178 164 180
3 180 164 166
3 182 164 178
3 184 169 168
3 182 183 170
3 170 171 182
3 174 185 227
3 187 188 185
3 187 180 188
3 187 190 178
3 178 180 187
3 186 181 189
3 189 185 186
3 8 1 10
3 21 10 3
3 216 3 6
3 13 216 6
3 10 20 8
3 33 10 21
3 225 21 216
3 216 21 3
3 13 24 216
3 30 207 17
3 20 30 17
3 49 20 50
3 20 10 50
3 225 33 21
3 225 54 33
3 63 41 43
3 41 15 43
3 67 207 30
3 67 201 207
3 67 30 49
3 49 70 67
3 54 52 33
3 60 41 63
3 66 201 67
3 66 195 201
3 70 49 71
3 49 50 71
3 222 52 54
3 102 60 63
3 82 195 66
3 82 66 83
3 105 83 87
3 87 107 105
3 99 98 102
3 98 60 102
3 83 105 82
3 105 104 82
3 107 87 108
3 87 88 108
3 113 193 214
3 120 98 99
3 104 124 103
3 124 123 103
3 124 104 125
3 143 125 107
3 131 129 193
3 150 131 113
3 113 131 193
3 192 150 113
3 153 192 117
3 124 142 123
3 125 143 124
3 143 142 124
3 143 107 146
3 153 150 192
3 156 155 138
3 155 120 138
3 191 162 131
3 150 191 131
3 179 177 191
3 191 177 162
3 186 204 177
3 179 186 177
3 181 186 179
3 183 178 190
3 123 127 86
3 24 27 57
3 57 27 38
3 173 227 160
3 176 227 188
3 227 176 160
3 174 227 173
3 144 232 163
3 163 232 176
3 176 232 160
3 195 194 65
3 86 218 123
3 104 221 82
3 104 103 221
3 218 221 103
3 82 221 195
3 195 221 194
3 123 218 103
3 188 224 176
3 188 180 224
3 90 52 222
3 28 233 16
3 28 43 233
3 233 43 15
3 16 233 6
3 6 233 15
3 5 16 4
3 16 6 4
3 231 229 228
3 228 226 231
3 231 226 194
3 194 226 65
3 44 65 48
3 48 65 226
3 229 218 86
3 229 231 218
3 218 231 221
3 221 231 194
3 215 229 86
3 90 214 193
3 90 222 214
3 222 199 214
3 58 212 57
3 58 76 212
3 225 230 54
3 230 222 54
3 199 222 230
3 24 225 216
3 57 230 225
3 127 209 86
3 209 215 86
3 145 209 127
3 24 57 225
3 220 209 145
3 40 213 59
3 213 39 208
3 219 39 213
3 213 40 219
3 26 40 42
3 26 219 40
3 59 208 77
3 59 213 208
3 42 40 62
3 23 223 12
3 12 223 25
3 23 39 223
3 25 223 219
3 219 223 39
3 25 219 26
3 228 229 106
3 229 215 106
3 85 217 84
3 217 109 84
3 109 211 126
3 106 215 211
3 128 203 144
3 128 109 203
3 203 109 126
3 209 202 215
3 126 211 202
3 202 211 215
3 220 126 202
3 202 209 220
3 220 144 203
3 203 126 220
3 106 211 217
3 217 211 109
3 106 200 228
3 200 69 228
3 217 85 200
3 200 106 217
3 174 161 204
3 204 161 175
3 214 198 113
3 198 214 199
3 212 76 199
3 212 230 57
3 212 199 230
3 113 198 192
3 192 198 76
3 198 199 76
3 47 206 68
3 48 205 31
3 31 205 47
3 48 206 205
3 205 206 47
3 144 197 232
3 144 220 197
3 197 220 145
3 232 197 160
3 160 197 145
3 226 196 48
3 196 206 48
3 68 210 85
3 68 206 210
3 228 69 226
3 69 196 226
3 200 85 210
3 210 69 200
3 69 210 196
3 196 210 206
