# vtk DataFile Version 3.0
A great-looking cell
ASCII
DATASET POLYDATA
POINTS 386 double
164.47170017594112 167.46263641188412 84.96234216098608
174.88184591175417 162.20651007885076 78.90160833835068
172.1678403799952 166.07362112976426 82.98340397135513
174.97976777236207 155.05010737688355 99.21084637833494
164.65690174378622 151.91827803021664 98.80668504946732
164.24619308136894 156.6677937451069 98.98527496167584
162.62423897087686 149.40893146553623 97.48679211129259
160.04763594382192 153.4088777161032 96.50074893212725
168.604414022884 146.0500118108813 98.78356222828316
171.67105824826496 144.6698587704791 93.47802185902474
174.71612084619815 156.97638913995132 98.89876013736507
172.9744616779884 161.96150777767215 98.96174569744994
178.0905030180876 156.14024032721804 88.70297290652024
176.38026192395535 145.78308005016433 94.73098737300482
162.54655070152415 152.04757488203745 98.48882396965466
166.88535133255724 145.80286968871863 96.20823163332861
168.38375296822355 153.51605133107577 73.74209672058316
166.30919631899118 147.9788755339824 80.31937199658256
169.3143045184422 149.18557430108606 99.03890582978458
172.68520215005444 152.65471351654742 99.01029008181605
163.75828287124585 146.98733402382734 96.12792110380433
174.84735431781834 152.878371788762 98.88432076078722
168.28750072585495 145.3704335610464 86.09952671992413
167.79045748920777 154.16193101928994 98.91555705394026
170.61634723620725 148.2016994775354 80.55850224174087
168.61047880278392 146.5698255935726 82.69335039187516
162.07883162166087 146.8830230047662 82.66604624426091
164.3679344301278 150.09562565858397 98.86148970612848
159.02169506135476 150.9860595087804 94.77151994770986
172.1207412576596 146.0242172821168 86.56281771515275
165.6616036219298 145.31376420181115 88.83929347086345
161.6243453447894 145.2653101523276 91.70823160841418
169.17995244867566 157.86219437675544 98.84933010397448
164.97854706757292 154.0326403082065 99.24604564256872
160.7323195530565 148.5291384242321 95.79552623442385
162.6752712616917 153.93504983272496 77.4020487815541
166.22209923328526 145.46922712790757 86.43506204818257
157.01553624503103 152.13979152340005 88.52271063811982
172.70922658092292 150.90057712177864 79.22769172000339
172.66546330658704 154.93517634196232 99.15710801966779
172.080849038091 145.33134308123684 90.75045937493596
171.60639557374358 158.5556089617637 99.02394919905848
174.33961766677058 149.13930757474043 83.78204505103218
158.31773900029876 155.28135296135224 94.40220016587021
166.1551180102505 148.1565216448532 98.29607797759988
177.92455313154733 147.40066402169916 92.55740380855603
162.1210235767687 155.14752465678606 98.44715374900584
166.24731926083052 147.20877577414507 82.2125157594926
178.76511245328538 149.79854902204409 97.06493708389944
157.7879201400494 154.4272205623088 90.23275170922153
177.73250346185506 155.23692557114285 93.99779772911255
159.2998803756999 152.55019778432208 82.34108769478016
163.8972371615439 145.52831422032386 93.01486375503478
174.47647810742322 147.38216275150106 86.33116946508403
175.8960726462719 146.73704594150007 90.29816593167371
166.81836041781304 145.1716322583805 93.19896780907008
176.35777699525528 153.39971692396412 83.77899617062096
176.49925336654093 150.67144859605676 85.32827479458336
172.7507924955506 150.19405741951564 98.92317595151614
157.88690843075102 157.12610808900936 88.35152491666904
162.35460360773263 158.00244373905934 98.02966275260304
173.94291876532952 153.28451964257874 78.4991278297414
171.5270294481538 151.93255460567613 76.9443954890819
164.56609971916123 145.9376311271695 84.1849289320464
166.7871016319953 151.42578978340126 99.12448981117312
163.46417818623252 164.07110231476744 79.15441244100602
161.7077274739992 166.0445834483903 89.19798384741941
161.16794116031778 145.39234413310592 86.99269494342718
162.00268083569622 156.83244690786702 77.14486096619709
168.37887032691467 163.68066363008845 75.40244674132418
163.28797375156853 145.3226351638695 89.93099679440226
162.24834502338513 166.05956104312506 86.12924472844874
176.09646377829344 155.9864031683151 78.50451262555326
163.24361400600466 164.71577318371047 81.44168530084988
165.57355362831856 164.99142953672623 78.73797874049048
177.69816327887878 162.39799027684472 83.01098103385503
176.92273880652152 148.52021725148214 87.60591869179568
170.97280815312675 146.9692964759578 82.09571304678833
174.28194525130746 145.44899416287976 92.51217865279179
161.16087114601467 152.29941858888853 79.69886397815947
161.27321228085398 163.98977890420602 84.72686469773821
170.96482591245262 165.0149079048615 78.0065440500874
166.83613654177546 167.0832927403643 81.79297662170387
172.6489743344915 156.29290623812008 73.74464549888937
158.6283281990886 149.59604695820408 84.05131457645444
168.3240395565862 160.25891992772054 98.83368013556588
169.72405590126988 155.81925257744075 98.91201723712437
159.74928568050515 158.8472365811663 82.3600035745631
174.73771663617472 168.1607773060716 97.71301984477984
159.52158227012276 155.6670046170161 82.34864963284284
177.15260341114436 170.02080265862156 88.63887361455659
178.6548581577434 165.29529399937078 84.3139833802594
167.00361941081232 156.86821550273154 99.21641143948351
172.71521936846946 167.79404300324276 91.8122834219185
159.10425602124388 158.76012320551087 85.49994840816844
163.08267444755225 158.80100664668592 75.23698538131407
172.8195759862982 162.98295148850235 74.80964876100812
171.18636100857705 169.75445332761274 93.36069919913642
169.9238951690945 168.42030618028392 86.13558893330938
175.18550286297352 167.06748896601653 85.60387120147911
175.67517577783386 163.30274372692273 81.11186001359842
177.01541092413981 155.15281976303135 97.65819237073009
174.41767947441357 166.278172800803 83.86429412609105
169.39415760053953 166.4075308282672 98.95370691168327
170.78948790814746 168.93371985132313 90.29231152522561
175.71021919917638 169.86319795220408 93.21739528921448
171.5459659005663 167.6352495050039 97.14762876248757
160.67048322511582 160.8200712021333 80.4441579016441
180.3175643229717 170.74357280209367 92.00865859761161
178.89872552598626 150.91446053011438 90.74846806062419
176.07127345479088 160.72614550967236 80.74418801478623
160.89007794344278 164.30686484983426 87.10583606789741
163.9637037364785 165.2384673698116 98.43275628123897
179.12243669960102 163.80919765528154 98.98998560197914
172.60088603998378 148.86307969774583 80.9783577140392
168.54328763581367 147.76058210990357 80.60458494095745
177.35124758732601 154.68406871075726 86.96012741439797
173.42156916390624 167.60682976954612 94.65741955799501
166.82225459913346 149.78804940472162 79.07305866065256
172.8233573319825 167.73980130978057 89.11022876706757
157.96994843718437 152.73137768419343 85.33418921996913
174.3122534101254 168.33810594287877 92.55845705106846
182.50499265885634 165.9325091869378 87.09085141397273
184.48392848983278 163.3717962022414 94.38146115412144
178.34601939962263 152.56044841467235 95.66047686456811
169.2797574780478 171.63046727916677 98.47019557758452
166.04252071670805 171.70011309326264 96.97507313668747
171.65507242881395 168.89167210687376 95.38670449009699
163.68060415877028 167.76295819455163 98.33314817612627
175.02013107166826 168.08571127955372 87.64987827640351
168.03880280649486 172.17382734897623 96.65016185160682
163.30405927639063 168.71023305093667 90.47406899590605
179.12430520516378 158.0359645779084 93.61986916339227
167.28305097898044 171.96490522657209 92.71382453904286
182.80442357006015 168.8863906356377 90.13211120110323
167.12242437157542 164.6288674603288 98.93936080575168
180.68776327268475 169.19189361594485 99.12575540260235
168.38266406510613 168.52026368416637 84.49417686965614
178.64746199096908 171.07127752779832 96.33367563152268
178.73457524883176 171.08222641437922 94.17357292017934
166.30947316355534 167.80525063768852 98.87697422820065
166.01766623611218 171.5940296112278 94.65771305053991
169.44559716063944 169.31754242425737 99.07243949892069
164.1092964112699 148.82215004923532 80.85495113952986
168.1442162268558 169.1727405672217 86.24327585517658
177.20441791062453 147.1072420930376 97.60449390436833
175.22903629318935 145.42522006242908 97.26649762878665
162.39858772323882 167.09903768063205 96.0441716737752
182.69048695457033 169.08398604599404 97.50046340880216
174.4778010031375 147.242140513176 98.95486552105491
162.9237691662476 165.49618842843603 83.65016201801046
173.27086361069357 166.91249245157667 96.6475733902793
181.18922209456287 170.3990844660895 93.83021287238375
177.15847083102258 158.5585395530275 98.15174530673717
160.7832658328087 158.48240492025423 79.21780675921026
174.09780062258525 160.37629818738947 74.7113599449692
171.14915882782597 168.59562766921755 87.89602543205973
178.4148375623941 165.83938321183504 99.12341721047417
168.72013930633068 144.73370642804795 96.98307383140231
173.07731975642764 165.2520417800841 97.81205198669073
163.52226322237084 169.48675774960122 93.71530871211999
167.71575240636693 162.65691670934396 98.74531460548391
160.19192234587558 163.09293363816087 89.55024725829684
167.51271340397773 166.1015942346194 78.65235631283477
161.92705336560076 158.86865236922998 77.28326212383581
175.02724153372006 169.1001854360862 95.48426420914178
176.4424429056012 169.9136034643676 90.91077080226319
168.17588047280196 166.86741628591633 80.59355883041209
166.12039750881155 151.25435644671043 77.3997524223121
170.57029787265108 155.25600132076914 72.74680062472054
169.69801806461396 166.0188406179976 79.28366849111629
181.4232872738834 161.44198206606382 86.62576932069508
173.00200867427694 147.5866854668836 82.54969034699903
179.06957978505483 169.16987022692607 87.28286030804665
168.44963199798724 167.5896260627248 82.5654000777629
165.53288721252542 171.11868272229188 91.379503406178
165.3757752604512 152.77519120320827 75.70370032546651
182.61283968214343 167.41738830331394 98.93896671371536
158.79987092455642 145.7061533913463 87.45401166508657
163.73517506964367 157.60318720846143 73.20153569917048
176.37647491002318 158.25507558472182 80.31713478261743
177.444812209483 168.10038152708603 85.875902357767
166.8671008773469 164.6425984845481 76.93280876732241
162.17182966673627 145.57386541412902 84.99947836587809
173.24461806535274 145.02929596709697 98.23850532716554
159.81718382253752 161.89794771557436 86.04486095091971
175.5107168723648 151.122772606709 83.54392257885952
169.99602098368788 152.60809555330817 75.45685228023747
173.01286294182376 153.34125450355154 76.40835629634083
183.25002914855625 165.1635401213118 98.90117490303145
164.19162226855562 170.11253698309946 97.2244976765857
170.23341925557295 166.76267690047248 81.4966503888369
160.91643795910346 150.85105535795813 96.69297613776676
177.7903917207823 154.3967421184463 90.48001761727602
178.67534593985349 157.71715176395077 87.0240371371066
159.65996803672869 160.39876776233194 84.18621771508091
184.31367097982664 163.0533895961551 96.68802154454842
163.33735375721065 155.50483830106367 74.43698897477297
169.06931902772217 158.0291359358526 70.12885795443967
184.4562446399001 163.83216302722656 92.1946818326687
170.1412869242638 163.00155008045263 73.74590748557638
181.23997456830008 159.6995536146878 88.27239842286342
176.25918330445097 149.7854693604152 99.25587555530981
177.95340411145978 151.6601713281206 87.8756279742475
160.95244939168649 159.00084421112084 96.30293641413037
171.91063155102233 165.07879270014138 80.24195208095881
163.2053238064537 163.04643377973895 98.0135321082341
159.41239401227264 158.27301674762418 94.34918833286895
166.54698233759333 168.83138466034853 85.38518809189226
171.07415955657908 157.7794341422135 71.510380498444
169.7578454147382 145.08906254970032 89.50002456158701
180.76890742523216 167.52654567241046 86.25351255087125
182.3701398218436 169.71769216048003 91.8420318355445
156.907016273859 146.64189115287067 88.34534432357125
161.80716810692488 162.9297746373709 80.64970937693168
183.98754648064426 167.10252861982227 97.180407125446
156.4090534188126 148.51058633709323 91.6714986023268
166.61610318072144 167.63196000226046 83.57859631753263
157.96584136465964 154.90491531748168 92.25771438852136
167.37067144158047 161.93891848331586 73.14072170915423
171.7135488335407 160.89715542264324 72.5986260187727
162.25207075918547 150.08937054613213 79.5993474577277
156.56145937258364 150.99865849285158 90.96986951161
178.48733620137824 170.79881396983168 98.38033065227461
176.39082579791744 166.55655347103357 84.23652532282956
162.7609439267573 160.93036030314036 97.19457643388373
166.89105486423705 160.36328111730572 71.45059944817224
178.10365596318542 170.78793099206996 91.26501999802713
156.20222066335876 149.046035643996 88.82617638336085
178.99507214566611 157.58711539358765 90.28915523252492
160.6427931195401 163.68693146904192 93.04302576429127
164.2121348075163 148.64084769466518 97.7190675923704
157.19393586879582 146.2962750091887 91.96609666461164
157.7697299283783 152.8154261063287 92.68111116909981
156.49387246552467 146.96473032788313 90.15288500946998
182.95448612370006 167.6442219570467 88.48284301822564
159.48808469062274 146.07865601669127 91.75440539846093
160.64941586691563 149.4481251288022 81.26355869969649
161.0717383426973 146.11293732226775 94.06967292807825
167.8910251940365 145.0705084309758 88.07111063478547
182.87031810869266 160.14809686950682 96.89636468815412
158.2927396639901 153.07175777223182 94.8952109848097
173.87356762355986 163.8391297396124 79.97117634818379
161.62561504628343 163.89745382042608 96.37768826554664
183.23834987995085 168.86335643908868 94.73304347315401
175.66390592730295 159.37872064568955 77.54128963368501
170.91564305343618 165.64565813232647 97.8140838761292
174.6356817485256 163.60042056484014 98.6863264995809
174.04792092618953 164.9419640838605 81.86649659980911
184.56222447693622 165.59733153481343 94.81899067685536
160.615105917075 145.175373994509 89.45143667215541
162.49228695592294 161.2084635491326 77.90953006193828
170.71687680873748 161.05375224049374 98.82818722587604
169.32969252103842 144.5218759073564 94.93082475551948
171.32819683803524 144.2273882381157 95.31177744172292
171.54742006661226 145.48851856528904 88.52708567465334
169.93877238384314 145.48642038592604 87.23785048370661
180.50179540568098 166.25035821711782 99.26338483435772
164.88843512924623 159.24182635154995 98.99761832957553
184.6120778058018 165.25092780519861 97.10447012332286
170.2427552205659 149.53000909671107 78.83936851020871
177.34210520347267 159.04416437475808 83.02472899573107
162.1692050401932 145.28675835437025 88.36096461419619
165.05557963826408 159.52154971039494 72.59800062092778
176.36262569995998 145.88988448997705 92.40010202206065
170.23730365192495 152.66000336649765 99.21683002275867
165.6778883117151 154.26828192202524 73.34275683397053
171.53943992793367 146.95951559409602 98.82971144891954
168.34839264263948 151.48675426074692 76.61850614522601
177.73734989241822 157.4308951809096 95.8808684470127
181.68928947915572 159.10528725563924 94.62011064358373
158.96293462409332 157.30094232302255 83.777721864736
173.3518030175711 144.7542879926101 95.55047993912467
182.0290483509825 162.21136866669227 99.19068928879116
166.93394799011165 158.42484722522155 70.64970803595959
178.2605202499015 158.50026087494376 84.98856983411763
164.49833328089633 161.6541129869147 74.91299923767139
174.02919128512866 145.7957955956491 90.54193654704115
179.2181071811015 149.98590562445943 93.7309321694604
175.2159444394013 147.21956853554846 88.25203751781721
157.93380506387442 154.4203348568753 87.53998105001699
176.8127459353269 156.1499997021488 81.75382476543557
160.44046688047663 157.12545857590675 80.97949804391236
166.114059480806 163.63918002430458 75.0538230358436
170.0084683263919 163.45591122631234 98.41384886029121
181.58237586126452 159.63839558707724 99.07989256992573
161.71075752842356 165.2768777561835 94.49861321993158
177.5948276803329 156.54435808041887 84.55273845869601
156.85294309496558 150.29755079798352 93.32071373319457
178.22504611671422 148.41679701100185 90.1469798306497
165.13483063200707 169.0630038745201 86.6239556973948
164.73958062793446 163.47325558838284 77.04490906210033
174.2985694239164 161.86266847842867 76.66383381881944
156.73807719301126 150.31055936030023 86.30645817637185
166.91966894977432 170.92791802383917 98.79121773400941
176.2872542462421 161.9085631549836 99.0118136850157
177.8704921214667 167.94130920772574 98.95288015447375
178.00148179526093 156.48563339433161 92.06807086271185
158.5236625085437 158.660999367412 90.10656299120157
170.01617461317477 145.99246637280152 84.69645872937629
159.91513636296062 146.79963478103352 84.9435523502156
157.32211150956158 152.57967163539467 90.59662445126627
176.4373511230372 169.84275687110295 98.53302981405763
174.08764128039107 155.2104467691286 76.07951790000659
165.4085131106385 156.43594744680297 72.08066954951745
157.90051147318007 145.1963803496007 89.91080536742095
166.4159507461769 165.86567193923443 80.50802148456006
181.23046145576274 164.44534304235836 98.82636944065918
158.9354031531906 160.05193732869506 88.55012215466269
180.87895152265875 170.81404850029432 96.42651863966735
167.50150427390372 145.02512903210157 90.45244938676859
176.61782947883134 170.35014663295357 96.29049696637097
181.5534454978191 163.78934191354796 85.8003508349065
160.1535604031111 161.17903065383632 95.1805953758262
169.58919028267894 161.8235958244636 72.27968704568721
179.4008585996814 160.61242828785507 99.13761252080889
183.66171035423886 161.20248451482558 93.82704998576737
160.41920561922103 153.9997389977571 81.12980102865176
170.70027588180406 170.73029898434584 96.46739142725805
165.04244693387002 166.2006192389052 82.34058086311904
164.67871430356544 165.31648668694197 80.37826170414687
183.62749889572692 164.52794712613283 88.78865256177458
169.05807629086445 169.839769813599 88.18525642239489
166.78485889491296 170.16096146270635 87.0799261695881
168.36679623142652 156.00916188852142 71.39726692334527
161.95623048408757 166.49833201639353 92.57746325900912
180.1376714654773 158.51216829229836 96.95120959859793
164.92594212138076 170.07052191945476 88.57560645209315
175.99161347263328 164.59567352307042 83.34211521426502
184.08981496139643 167.2138283203679 91.46914719198877
169.07836747578287 165.40803681619295 77.05639273329595
181.67649234305773 159.11590038103097 91.78204812942194
174.9882192681102 157.1005415835984 76.87036420337682
161.37535424767623 164.70832177003703 91.08255019702304
178.27994697676357 147.77492953156352 95.17782380897157
158.4205957268969 155.76844306077302 85.18579183661183
165.36789100663776 145.981060957614 94.5987349254318
172.5965128142317 146.9907524371832 84.26882874832603
177.2827328380797 152.59197907479052 85.88506498363566
163.97021326458454 151.10751628345398 78.33303959436971
179.56413808337734 163.01327931707888 84.34206474069985
165.4023817096953 162.28511937098983 98.57472200072216
177.68098239828333 152.2214739101741 98.39023644063322
160.97340119916223 155.47692673584046 79.68689579022733
172.75115963614698 163.52083094391767 77.83344216528958
168.919949629629 171.82437832317459 94.09029704382692
183.6599184162752 161.3291142796355 90.24873739579137
173.76116010467962 145.96161301489133 88.66422332394302
170.87084337063573 144.43498552127636 97.36863672588815
166.88918624793718 154.80127062162796 72.30650092138585
157.44630235839008 147.77942856341662 86.35432941108573
174.83873621421156 151.28475567142792 81.29791419899152
168.8088259650924 171.16914461463483 91.12719426427752
159.09251749031978 160.4035826500117 91.83087044030607
169.52358111352137 144.88392084596555 92.04144463383024
173.01792546824512 158.6188745290717 73.32600826290873
180.7237629465613 170.03756996104144 89.14293205982496
170.38681231520792 167.61230846644196 83.8764683386896
170.68083182205302 163.9063696105751 76.1565708534709
175.49367599741782 148.98422646345594 85.81343078617577
178.59888228979196 152.6750967753144 92.92205461275037
163.61077631329343 145.17721678097655 87.07582187306515
172.52033288345547 166.9752106035853 86.06395542277856
167.32338547990872 146.05380395406758 84.37045229844642
183.04784291432858 161.8684460144247 87.47483701769332
160.3199839999344 161.9997024788543 82.91118974348404
169.01398927557503 160.0807026528219 71.33648036730433
163.35402870054395 168.14414026225833 87.55532636620613
164.2454072605047 146.96401603828915 82.26175742901015
158.09579760618917 157.08645867814522 91.70349536719132
174.93782401163784 168.7346024366642 90.56743353077202
158.4001056265185 147.90101472328493 93.68147886441753
178.1697367000438 149.83688667756905 89.01683223314882
171.66137607887745 153.74330140895893 74.72622328081556
174.56567443684747 159.58100369306212 98.96544335362957
175.91735031262442 153.8749435994312 80.64728786402199
179.00782770440222 149.02588358205705 91.73948828245003
179.57066315582455 160.64651781428702 85.29618854795748
167.0245464630429 170.9443133082408 89.12332685907789
176.179051343188 165.2656764757407 99.11190473822086
160.52539754457803 156.520841384681 96.34592180755556
165.4496076600404 145.4716784505543 91.08140406792286
174.23244593209543 157.80460424978122 75.28161388283826
158.540841482611 154.20691247938717 83.69040187011389
160.09458186132238 147.99252000514065 83.04780405208903
161.84775844572457 163.885986086836 82.64804335902936
POLYGONS 768 3072
3 137 98 357
3 322 98 144
3 98 362 357
3 2 357 362
3 205 191 2
3 2 191 357
3 82 174 167
3 357 191 174
3 170 167 191
3 191 167 174
3 144 98 137
3 137 357 174
3 217 137 174
3 82 217 174
3 322 156 98
3 378 175 352
3 144 323 322
3 156 119 362
3 345 97 352
3 100 110 1
3 181 99 129
3 93 370 119
3 117 93 97
3 93 119 104
3 91 224 181
3 104 322 352
3 352 322 378
3 156 104 119
3 2 362 102
3 181 129 90
3 129 119 370
3 156 362 98
3 370 90 129
3 323 327 378
3 362 99 102
3 110 245 1
3 323 144 208
3 208 144 137
3 175 378 327
3 71 66 367
3 367 290 0
3 291 276 251
3 276 95 251
3 93 104 97
3 97 104 352
3 156 322 104
3 291 182 283
3 344 96 358
3 129 362 119
3 344 292 96
3 292 155 96
3 219 263 276
3 276 263 95
3 358 69 330
3 219 276 283
3 283 276 291
3 170 81 330
3 96 200 358
3 129 99 362
3 323 378 322
3 330 163 170
3 182 330 69
3 163 167 170
3 102 99 224
3 224 99 181
3 344 205 242
3 344 1 292
3 155 292 245
3 245 292 1
3 330 81 358
3 155 220 96
3 220 200 96
3 245 382 155
3 303 83 382
3 243 206 112
3 112 206 341
3 243 225 206
3 206 225 341
3 261 75 377
3 110 180 245
3 110 261 180
3 180 261 281
3 358 200 69
3 106 151 117
3 117 151 88
3 106 159 151
3 151 159 88
3 131 160 175
3 112 147 243
3 327 131 175
3 330 182 163
3 208 290 323
3 323 290 327
3 147 160 325
3 160 131 325
3 191 205 170
3 205 81 170
3 75 328 91
3 91 328 224
3 328 102 224
3 1 242 100
3 1 344 242
3 242 248 100
3 102 248 2
3 102 328 248
3 211 91 181
3 205 248 242
3 358 81 344
3 344 81 205
3 290 367 327
3 367 131 327
3 100 248 328
3 328 75 100
3 110 75 261
3 110 100 75
3 217 82 319
3 319 82 306
3 248 205 2
3 71 111 66
3 306 320 319
3 185 80 365
3 319 73 150
3 214 107 365
3 291 65 74
3 150 80 71
3 150 385 80
3 111 71 80
3 320 73 319
3 214 385 73
3 217 319 0
3 319 150 0
3 320 65 73
3 73 65 214
3 82 167 306
3 306 167 163
3 306 74 320
3 320 74 65
3 290 208 0
3 0 208 217
3 185 162 111
3 111 162 66
3 0 71 367
3 0 150 71
3 182 291 74
3 74 163 182
3 306 163 74
3 73 385 150
3 283 182 69
3 200 219 69
3 69 219 283
3 197 68 95
3 343 154 68
3 154 107 251
3 251 107 214
3 325 131 66
3 66 131 367
3 251 65 291
3 251 214 65
3 185 111 80
3 80 385 365
3 365 385 214
3 365 107 87
3 87 107 154
3 137 217 208
3 61 375 351
3 281 56 375
3 375 56 351
3 60 258 225
3 225 258 341
3 258 85 341
3 116 193 203
3 203 193 109
3 57 203 76
3 118 260 115
3 114 351 42
3 72 61 303
3 39 41 86
3 260 38 114
3 260 62 38
3 38 62 61
3 101 124 50
3 265 39 86
3 176 35 197
3 35 79 343
3 86 32 92
3 92 32 85
3 86 41 32
3 32 41 85
3 28 34 192
3 64 27 44
3 299 25 77
3 77 25 115
3 25 47 115
3 260 24 115
3 115 24 77
3 260 114 24
3 24 114 77
3 92 23 86
3 64 265 23
3 23 265 86
3 58 19 265
3 265 19 39
3 58 21 19
3 19 21 39
3 44 18 64
3 58 265 18
3 18 265 64
3 33 64 23
3 23 92 33
3 115 17 118
3 118 17 143
3 115 47 17
3 17 47 143
3 46 14 33
3 46 5 60
3 46 33 5
3 5 33 92
3 20 15 44
3 60 380 46
3 207 43 380
3 229 12 194
3 194 12 116
3 229 193 12
3 12 193 116
3 261 287 281
3 287 56 281
3 225 204 60
3 207 380 204
3 204 380 60
3 258 92 85
3 51 84 120
3 153 10 101
3 41 39 10
3 132 269 50
3 153 101 269
3 269 101 50
3 78 9 40
3 44 8 18
3 44 15 8
3 49 369 59
3 207 353 369
3 192 14 7
3 7 14 46
3 68 197 35
3 35 343 68
3 48 278 124
3 28 192 7
3 20 6 34
3 34 6 192
3 14 192 6
3 6 27 14
3 92 258 5
3 5 258 60
3 243 313 225
3 353 207 313
3 59 308 94
3 353 162 308
3 204 225 313
3 313 207 204
3 207 369 43
3 94 335 59
3 11 159 284
3 27 231 44
3 44 231 20
3 27 6 231
3 231 6 20
3 33 4 64
3 64 4 27
3 33 14 4
3 4 14 27
3 101 3 21
3 21 3 39
3 101 10 3
3 3 10 39
3 79 317 343
3 343 317 89
3 79 51 317
3 317 51 89
3 162 353 230
3 15 336 55
3 55 336 52
3 15 20 336
3 336 20 52
3 43 7 380
3 380 7 46
3 41 374 11
3 41 10 374
3 374 10 153
3 79 35 339
3 339 35 176
3 50 297 132
3 132 297 229
3 50 193 297
3 297 193 229
3 374 295 11
3 374 153 295
3 89 271 87
3 87 271 94
3 89 335 271
3 271 335 94
3 11 252 41
3 41 252 85
3 11 284 252
3 252 284 85
3 29 53 347
3 347 255 29
3 53 337 42
3 53 29 337
3 373 83 303
3 87 282 89
3 89 282 343
3 87 154 282
3 282 154 343
3 51 237 84
3 143 26 237
3 79 237 51
3 40 277 78
3 78 277 54
3 40 347 277
3 277 347 54
3 239 310 30
3 310 354 55
3 300 350 84
3 299 22 363
3 363 22 36
3 255 256 29
3 29 256 299
3 256 22 299
3 36 239 30
3 36 22 239
3 40 255 347
3 40 210 255
3 210 256 255
3 210 239 256
3 256 239 22
3 47 363 63
3 63 363 36
3 63 368 47
3 47 368 143
3 63 26 368
3 368 26 143
3 70 361 30
3 30 361 36
3 361 63 36
3 25 299 363
3 363 47 25
3 30 381 70
3 70 381 52
3 381 55 52
3 310 55 381
3 381 30 310
3 13 272 78
3 272 9 78
3 260 268 62
3 176 16 268
3 55 253 15
3 55 354 253
3 253 354 9
3 43 241 7
3 7 241 28
3 43 233 241
3 241 233 28
3 49 218 369
3 369 218 43
3 49 233 218
3 218 233 43
3 9 354 40
3 354 210 40
3 143 339 118
3 354 310 210
3 210 310 239
3 197 266 176
3 176 266 16
3 197 304 266
3 83 355 382
3 382 355 155
3 355 220 155
3 53 359 76
3 76 359 57
3 53 42 359
3 359 42 57
3 180 281 72
3 72 245 180
3 245 332 382
3 382 332 303
3 245 72 332
3 332 72 303
3 77 337 299
3 299 337 29
3 63 183 26
3 67 300 183
3 183 300 26
3 42 172 114
3 114 172 77
3 42 337 172
3 172 337 77
3 220 209 366
3 220 355 209
3 209 355 83
3 84 293 120
3 120 293 37
3 84 350 293
3 350 300 178
3 178 300 67
3 61 72 375
3 375 72 281
3 233 288 28
3 37 228 222
3 222 228 216
3 184 348 272
3 76 289 54
3 54 289 45
3 348 267 8
3 8 267 18
3 348 184 267
3 118 268 260
3 31 236 250
3 250 236 305
3 236 232 305
3 305 178 250
3 250 178 67
3 67 183 361
3 361 183 63
3 350 213 228
3 350 178 213
3 213 178 305
3 243 230 313
3 313 230 353
3 52 238 31
3 34 371 238
3 228 234 216
3 216 234 232
3 234 305 232
3 220 314 200
3 200 314 219
3 220 366 314
3 314 366 219
3 288 233 222
3 222 216 288
3 67 262 250
3 250 262 70
3 67 361 262
3 262 361 70
3 52 31 70
3 31 250 70
3 213 305 234
3 234 228 213
3 120 383 51
3 51 383 89
3 120 335 383
3 383 335 89
3 50 360 193
3 193 360 109
3 50 124 360
3 232 236 371
3 37 301 49
3 49 301 233
3 37 222 301
3 301 222 233
3 79 221 237
3 237 221 143
3 79 339 221
3 221 339 143
3 58 202 21
3 58 149 202
3 49 280 37
3 37 280 120
3 280 335 120
3 103 246 106
3 106 246 159
3 103 284 246
3 246 284 159
3 26 384 237
3 237 384 84
3 26 300 384
3 384 300 84
3 335 280 59
3 59 280 49
3 94 308 185
3 185 308 162
3 18 267 58
3 350 228 293
3 293 228 37
3 232 371 216
3 371 288 216
3 28 371 34
3 28 288 371
3 377 201 194
3 194 201 229
3 34 238 20
3 20 238 52
3 353 298 369
3 369 298 59
3 353 308 298
3 298 308 59
3 263 274 304
3 274 324 304
3 366 226 219
3 219 226 263
3 366 274 226
3 226 274 263
3 324 198 209
3 209 198 366
3 324 274 198
3 198 274 366
3 185 195 94
3 94 195 87
3 185 365 195
3 195 365 87
3 62 188 61
3 61 188 303
3 62 373 188
3 188 373 303
3 114 38 351
3 351 38 61
3 57 186 56
3 56 186 351
3 57 42 186
3 186 42 351
3 56 287 116
3 116 287 194
3 263 179 95
3 95 179 197
3 263 304 179
3 179 304 197
3 62 187 373
3 373 187 16
3 62 268 187
3 187 268 16
3 324 169 16
3 16 169 373
3 169 83 373
3 176 168 339
3 339 168 118
3 176 268 168
3 168 268 118
3 95 164 251
3 251 164 154
3 95 68 164
3 164 68 154
3 15 158 8
3 8 158 348
3 15 253 158
3 158 253 348
3 58 267 149
3 149 267 184
3 124 342 48
3 21 202 342
3 342 202 48
3 45 334 13
3 45 278 334
3 334 278 48
3 45 264 54
3 54 264 78
3 45 13 264
3 264 13 78
3 348 254 272
3 272 254 9
3 348 253 254
3 254 253 9
3 13 146 272
3 272 146 184
3 146 149 184
3 13 334 145
3 145 334 48
3 21 342 101
3 101 342 124
3 278 109 360
3 360 124 278
3 45 376 278
3 278 376 109
3 45 289 376
3 376 289 109
3 159 379 88
3 379 295 113
3 54 279 76
3 76 279 53
3 54 347 279
3 279 347 53
3 109 372 203
3 203 372 76
3 109 289 372
3 372 289 76
3 202 149 145
3 145 48 202
3 146 13 145
3 145 149 146
3 371 236 238
3 238 236 31
3 304 349 266
3 266 349 16
3 304 324 349
3 349 324 16
3 83 169 209
3 209 169 324
3 162 333 66
3 66 333 325
3 162 230 333
3 333 230 325
3 201 331 229
3 331 132 229
3 153 315 295
3 295 315 113
3 153 326 315
3 211 312 91
3 88 379 296
3 325 286 147
3 147 286 243
3 325 230 286
3 286 230 243
3 194 275 377
3 377 275 261
3 194 287 275
3 275 287 261
3 201 346 331
3 331 346 316
3 113 315 273
3 270 331 316
3 132 331 270
3 270 326 132
3 132 326 269
3 269 326 153
3 321 364 312
3 321 346 364
3 364 346 201
3 244 249 329
3 273 240 196
3 326 270 240
3 211 356 235
3 108 212 356
3 212 244 329
3 329 199 321
3 329 249 199
3 316 240 270
3 215 249 244
3 240 316 196
3 321 199 346
3 346 199 316
3 321 235 329
3 196 189 273
3 91 340 75
3 75 340 377
3 91 312 340
3 340 312 377
3 295 247 11
3 11 247 159
3 295 379 247
3 247 379 159
3 57 338 203
3 203 338 116
3 57 56 338
3 338 56 116
3 215 259 249
3 249 259 196
3 215 189 259
3 259 189 196
3 108 356 227
3 227 356 90
3 190 160 147
3 257 189 177
3 177 189 215
3 90 173 181
3 181 173 211
3 90 356 173
3 173 356 211
3 105 166 370
3 370 166 90
3 105 227 166
3 166 227 90
3 88 165 117
3 117 165 105
3 88 311 165
3 165 311 105
3 341 135 112
3 135 284 103
3 113 157 379
3 379 157 296
3 113 257 157
3 157 257 296
3 244 152 309
3 244 212 152
3 152 212 108
3 309 148 244
3 244 148 215
3 148 177 215
3 312 171 377
3 377 171 201
3 312 364 171
3 171 364 201
3 345 318 97
3 160 190 141
3 294 190 140
3 311 139 105
3 227 105 139
3 139 108 227
3 103 106 142
3 142 106 318
3 296 302 88
3 88 302 311
3 296 223 302
3 302 223 311
3 309 138 223
3 223 138 311
3 309 139 138
3 138 139 311
3 223 136 309
3 257 177 136
3 152 108 139
3 139 309 152
3 148 309 136
3 136 177 148
3 160 141 175
3 329 134 212
3 212 134 356
3 329 235 134
3 134 235 356
3 140 103 142
3 142 294 140
3 103 140 135
3 135 140 112
3 175 133 352
3 352 133 345
3 175 141 133
3 133 141 345
3 345 130 318
3 345 141 130
3 112 128 147
3 147 128 190
3 112 140 128
3 128 140 190
3 97 127 117
3 117 127 106
3 97 318 127
3 127 318 106
3 294 126 190
3 190 126 141
3 294 130 126
3 126 130 141
3 318 125 142
3 142 125 294
3 318 130 125
3 125 130 294
3 189 307 273
3 273 307 113
3 189 257 307
3 307 257 113
3 257 136 296
3 296 136 223
3 326 285 315
3 315 285 273
3 326 240 285
3 285 240 273
3 284 161 85
3 85 161 341
3 284 135 161
3 161 135 341
3 249 123 199
3 199 123 316
3 249 196 123
3 123 196 316
3 235 122 211
3 211 122 312
3 235 321 122
3 122 321 312
3 370 121 105
3 105 121 117
3 370 93 121
3 121 93 117
