# vtk DataFile Version 3.0
A great-looking cell
ASCII
DATASET POLYDATA
POINTS 330 double
183.48728873308934 151.24133405846325 92.39674791521665
162.9710806582297 154.5667932141035 86.66460631268122
160.7691366991343 158.4627274393104 94.40761625840936
170.79797125699864 148.8553277574182 99.05283127565075
167.4787557759916 147.90377655150755 87.19344828372182
162.82154098848537 160.53843932707818 88.10131101471728
160.24407731759402 154.8693396484662 95.93739462303013
160.89552840850052 152.99915366725872 90.45681562085723
160.15123279220336 151.9071364681902 94.88421177422954
161.495775314282 153.76519606630364 88.3315885958913
160.820742629531 149.8397350796287 92.35994530718973
164.5024896955936 147.5499481000134 90.90909148644621
163.10269539610536 155.720877105124 98.8979083265038
162.69324080633046 150.4652899559568 98.93410846007096
164.537317988066 151.9869361253657 98.95730830710315
164.63471054723135 153.0339631071734 86.31675109035714
169.68622998906898 154.2862622534463 83.92102803438463
162.59869087765534 150.1774079815787 89.67028686849689
164.1139409484418 151.18104093921156 86.53900291513509
166.43880339765605 146.47511996277308 90.95537660351825
163.94525847750066 148.96658275487493 89.29860494888807
159.9850699655137 153.7118215880762 94.3833011356362
177.96266690736599 153.69508528942916 86.47178378271417
160.29426618262826 157.3428128327486 91.67078568913676
160.48185972809648 156.82859388861888 96.45104361595523
163.6203228597406 156.7739892638584 87.04170257184681
171.90141447176293 153.0852770179483 83.65194641839584
160.5642371322159 154.78060058750714 98.2626818878275
165.18773141051514 149.3579698293645 87.10317388731822
168.04428052940642 146.25081916606916 89.08886447937581
165.12332505508354 154.0207497247217 99.04557708845455
167.39910246521737 161.2329167295815 85.19254787037279
175.31988118273404 156.79206323592737 84.3113583057929
162.42462546109235 161.62467619087855 97.2886592705424
168.6426718928324 159.99514256088716 83.43489883654952
161.31640598602863 150.84108581931375 90.79302368101158
171.53479484376632 165.06481453079857 88.97227908399336
165.74801458428658 151.28263447117263 85.62232279227914
162.6687963894189 162.7053221274254 92.31690627147066
163.31088553395088 158.5116231702029 99.01284144973637
169.17256870701596 162.0997499907021 84.14729309444007
179.19362195239995 159.44823450426722 85.08819681654971
160.71048724708777 157.27209180718987 89.23757447514038
170.76853728389142 163.95115885460214 98.08929846947393
170.80132493264 159.2744730400685 99.13651649971366
185.51475989964513 156.76962461326139 92.78061151661296
165.53735713008192 165.24010695415313 95.21738695615926
176.49111243108655 166.07659923695093 86.45933309730952
170.2188581237783 164.93726964159654 96.40520616611856
173.73106010718922 155.03357668022767 83.8599966261686
175.68516590530268 163.1516655242994 98.92828633524503
163.3250515412734 147.04747381095635 92.7214637127475
163.7230913503546 163.26830979998135 95.37521707605715
161.48391477425002 159.11054920782163 89.90219165186444
174.5796817796581 158.6021941974389 84.05055510372122
166.54915785976834 153.33725243094952 85.235946290341
165.2088125121563 155.42227478554167 85.61742827064127
166.3717850886399 157.0421528140702 84.49204328518643
160.59871348345192 151.99341583872294 92.78921654304013
178.20560178916728 142.40779625297546 96.62709211675102
180.38525565420017 154.75834437563486 88.59767297511914
174.9877075976079 164.49042504714498 86.95026575454807
185.1053627452311 153.99575606546964 92.62015043882086
164.89287126363985 157.9374509260345 85.57302565824119
179.03889021573949 149.18552344766124 89.97795638757837
174.87662130575902 156.4335454362685 98.97022201016756
177.15718292868112 147.9470290540691 87.99485478733054
183.10584409038123 164.2719049802365 87.00118814293201
180.17815940939474 148.01897347267024 98.8800038924967
179.3164295792128 166.8839623874381 99.18439198880158
164.29766687134975 162.49411086700712 87.45838954040883
174.85386747329932 160.35792038014708 84.80844937727932
169.82406095242834 152.08471689493788 99.09212448333112
176.44145294422768 146.1500240385304 88.98064045430542
170.61095632791643 158.17313807855356 83.84102134034151
187.86092465217249 164.39672853584293 94.29136686727747
174.3043570111824 152.88067263708595 84.4950104802821
169.1899917269849 165.15933499269633 94.62382055578033
170.9330058096773 165.1994211479924 94.4782534120018
172.7063073834191 163.6862048698436 98.88587921368331
180.90074344224183 159.35088092834428 87.04178751048036
181.43880711524466 164.38419514215033 98.93949347641178
172.93420673375743 166.82655102092747 90.3913828285571
177.8781438958142 168.81615270591783 93.40316068533019
182.91234379303845 158.9497505948689 89.84819546064874
181.9544805266578 168.82402935891773 90.51538268739401
166.54258503940488 162.41108721356224 87.09275711349021
168.40624734560996 160.69173358908202 99.1374114616008
188.7818619110394 161.63202363462696 98.44225029474529
185.30206141688853 165.91482312070298 88.91141117170132
181.67575065286542 152.10185075184972 99.23930261704089
185.71909493310463 168.79853105243697 95.19048236492938
188.67873549171003 161.3787682323515 95.92439777102216
181.02548387418395 169.3338642152588 98.85772127785026
179.66295744842955 169.74842800000184 95.83687007800509
178.81024815969377 168.526059260663 90.45979722709957
187.5170028321195 165.28244173462022 91.9320138655699
173.74171049694456 145.61130260686988 99.02600725722202
175.94783284948767 154.53572239033673 84.83189891011614
187.72363986238489 166.2698518872315 95.23855957546498
171.7233640359966 142.87386443920278 97.45997389445863
184.61249084440945 159.91534001480383 90.40506478325564
174.57489323288897 141.54369651677067 96.00933334660908
169.7417490576028 165.34225598412172 92.9104810390915
171.26467098774 150.8141872583677 84.55190506518352
173.01584592449433 149.49462409837884 85.0547078430217
179.8406358498673 146.16952368221865 94.68716717910702
170.73109883022804 157.4067461302033 99.1484340238412
169.18722267440907 150.07887972082605 84.65422566698973
172.92153108118953 157.40403847306163 98.85433756713768
169.45809434242008 156.19555106658493 83.69992045229095
176.32115947662217 152.37696998032246 85.02079446131111
178.37862791591454 144.01081755657773 98.94970752840024
161.22533806799726 157.25320461880384 98.61026483646322
168.53242464797063 146.69189657934785 99.03803718223702
173.02241789690308 151.15546182059188 99.0813842593772
177.35924426657155 146.84397740803973 90.40284327445173
163.62337637376243 158.7779404501232 86.89229880030403
178.8939048292949 161.77517193019227 84.9407827409192
161.60136522177913 159.18908947038395 97.06128692360915
162.09550665225447 151.7976602609088 89.08751061082236
179.87949247396108 159.86890603768407 99.1517881156875
175.4149593189331 167.03022922608608 88.31266867517758
171.82531672172792 153.1694181115904 99.05370103476723
184.54370874401866 155.52662460973116 91.48295050426755
183.13211603454326 169.95086618595934 96.8091565506817
166.69015026774062 145.3917360980755 95.41887956530836
163.9393685559585 146.2499278183987 98.78458856955498
186.91563792911748 152.51820786059233 97.07563165783668
187.43097980695416 157.74744394530603 94.79257289188486
187.2838461577752 156.6758433203834 97.52081726559715
179.93105783654474 157.17967102772582 86.85525468762478
176.93385326472762 148.5968713074823 99.07426005637406
161.75489349161856 155.9854207742728 88.01033367300852
171.1062917342999 162.9897189279005 85.3551805978731
161.27310546065783 160.06903339098287 92.2183023540954
160.13272792623272 153.02454053329663 96.43415150489497
186.9502309108747 163.98150387807482 98.81275304065421
167.60411208341753 155.29483803931853 84.27284815029248
162.48085377669298 146.42532070062177 94.90474294892029
172.69318489830994 147.3505985866344 86.25513231916602
166.1562216768961 161.85696318721924 98.32994201891435
176.9054275058104 168.375694041469 97.54273765140826
184.11754940438436 161.8585886763975 99.09779199437543
173.40810766740142 165.6245033353642 88.2679894944231
182.74322188160963 169.79918708590935 93.6588225327596
179.2826441113837 151.49093327782327 88.02701975030382
175.00712706796187 148.63931521681562 86.30612105105199
182.79947852523313 160.3270393445527 88.21737328681661
181.43569054247206 147.37296371592797 97.31553918064392
171.77934453596373 165.49309296467317 97.8826081675772
170.7645248637752 155.1925878344244 98.9761996616306
168.36641147165076 163.76337537420545 98.47029251177271
162.39065764186353 148.77915339993444 91.18923532637632
178.31074307329837 144.4744148516509 94.29262352104094
163.40970718120963 150.60971364989237 88.1098002498946
171.037002362074 160.93755042698612 83.55163167572294
185.18633457360127 168.17923459759473 91.65464442495724
171.84502176309817 166.0254682719289 92.8967558856813
164.3131852502621 164.06624281743854 90.94389453198485
170.309016087936 143.93464095733043 92.12062364043807
175.73784078425095 168.31372522746275 91.2722201047269
170.68244855746784 165.45716461269248 90.96590654162092
172.49662187002397 166.9092522905169 95.68961973986303
172.41514369529875 164.27710753150546 87.125878998122
171.41235497072344 155.68441400018864 83.6606068949964
184.14247137410962 165.45653596061857 98.90097247125264
178.92889406619722 155.64438253831864 98.87790080694079
187.89963160628972 165.44601437682866 97.35547892750365
176.48356411732522 158.8177393071686 84.69238874483025
160.72441182186822 148.1838475048083 96.28475715006483
180.84672720501732 162.08708613820872 86.28854619263267
174.78072486047503 146.13052810219511 87.76871932057124
186.60339568387099 159.56229552242587 92.61480298144353
161.79044740092408 147.7509897948188 98.95924333440136
167.26952213976992 149.6633671724355 85.66893728311473
160.09530089934898 149.57618221464637 98.6814281016537
182.40662533096378 155.938300926524 89.40728012810058
167.7423038619212 164.81213017401663 95.88991081004997
164.00460156831923 160.8943760617155 98.79907038951006
181.92174044312006 159.0611132187439 99.1863976793896
171.44585798424137 143.061894085683 94.50487379577206
170.01420719883745 146.67299363342107 86.97437624479961
188.35589465703802 159.92821890421163 94.53751717637007
180.5912990331422 161.75981123256392 98.92720194209059
178.82412556933696 157.8375472274913 98.95043531659329
177.03712156153654 150.63925186480913 86.63720147480936
175.32921109941884 168.64236646172802 94.72492517668394
187.61385615305426 154.51731231392415 97.28145750595382
177.4579434498825 168.83166846136916 95.36872700568051
161.44064646577627 148.22618864037258 93.53930738296407
175.6065040109762 143.41750833691964 93.15200226019964
167.444670204671 164.8598731776954 89.67719113471695
174.8058012474944 150.88954442330592 85.3014885423284
172.90045969383053 143.38475241360376 91.58049113838489
179.22399456422625 147.01479882538962 92.654603276757
184.49056309329126 156.97941520096686 99.09312093077465
182.26352790587688 167.40222543046758 87.6163471834431
178.6468664307866 163.75906998857246 98.96771007792601
178.44272653122636 146.24122559566746 99.00784948649668
167.74926594264267 154.55916863917014 99.03738441437126
186.64139568268433 161.77594356678108 99.11894030224529
173.79407195702038 143.46319149788047 98.97005799118385
173.77698623395358 154.41146890231164 98.96343194907762
180.9654202607002 149.97136389390008 98.81570168848843
160.18640576870035 155.97848992362697 94.17213828159841
174.06086406923325 166.54038694253174 98.94362137700297
173.8236367272364 147.89734808104345 99.05765150933696
175.78331894999036 160.81277755369135 98.97481581634099
173.05063484834162 151.43709320009313 84.62342418007678
159.90444657617985 150.77681243445457 96.53469282391768
160.49031435745053 152.04591103210478 98.5694617379478
162.30806855320975 160.20129671046888 98.58326283216694
169.61981065474887 152.15751781168584 84.12126143341759
182.55038123757612 149.37717415531657 93.55275442164205
180.11376898065382 145.45833278830392 96.9453513634753
169.3174594637161 165.0634049376341 89.28316819221202
184.23614966392654 159.36248429311948 99.02269552023894
186.8292524323864 167.42170448562655 98.3432362877928
180.1600835365802 169.42716311059866 92.70813177751283
173.35988622587678 163.28549794917723 85.77687375657585
171.56075111689063 145.53063454338215 98.94647828003804
186.300499205509 163.9498191617462 89.94009076688096
168.17607091072978 153.31645575103568 84.32513896792574
160.20362448932968 154.53965562914294 92.18786850484969
165.07794527495665 146.39677340209283 92.27376910992217
176.1904049274777 151.94984878485224 99.04560951359944
188.54709617745993 159.22253169798762 96.87161758791986
168.41154468912598 165.6700097409622 91.1854999918472
160.04636936828945 150.01653933515513 94.28703183029299
173.55721111952585 167.51526654145945 92.97273821157124
162.05348424511777 161.16162832670767 90.33886748464197
166.70339890295008 145.69907542595408 93.01756346673693
177.06335279287828 168.17757173765398 89.1989101410291
173.48380201176357 160.7023008844107 99.0530562463028
179.11738222161648 150.70300848001327 98.93921129323168
183.7408962704119 149.70542169599355 94.96196128594315
169.0527830912603 144.2647158341262 96.97656305824903
165.7609580538938 147.4927713584183 88.94178118012866
174.4314775227126 168.16621342759913 96.91084824967626
173.3024839082293 144.4392235417136 89.1065616462092
175.19187446029144 162.5926179269531 85.2350995287311
162.7459301756448 153.16802691841505 98.9595777632123
181.12095473607548 149.41303826329056 92.30521826364176
173.07988244131198 157.296706756711 84.028685458901
177.83790690687567 164.05256832304886 85.4088860625377
181.2018040299722 148.0995581346951 95.10359145753206
183.92279498660082 168.43517219168817 99.16164298480963
164.70617428252888 145.88269490033076 94.07274418344966
168.52954997339216 163.21703266385757 85.89649173574024
186.71446095969728 162.12260042818244 90.93421483134192
165.28679847329997 150.01182621627095 99.031686977388
167.88337271656604 149.61254214420205 98.97261052312174
177.83836749673634 156.50329614265533 85.31475860529898
162.14923110755285 158.12712441535956 88.01091545168461
162.30214289106107 146.36531095864765 97.17991414849455
166.1005937489569 165.2980736079372 91.10395292418336
166.02264876996568 159.38025230299476 99.02481942580157
166.70830908397187 159.0441616994248 84.6483027717723
185.33869415403834 150.3803311559163 96.79633094499464
172.8782295943902 159.51327592102908 84.13156899856298
177.0733626316596 145.49163322949224 92.27945051314298
176.99536119847053 142.2898560121404 94.58162679810893
164.73978048304255 164.6143096209081 93.06124897890685
181.985154003046 166.90250255356779 99.02687098312553
168.49096145294772 145.31527628801686 91.4540301125456
168.5825391885363 157.59347243807602 99.03227637158045
182.8465019476327 149.08597550986684 97.95529483202618
180.38440456383023 168.3008302403851 88.8623922645847
170.73393585906607 162.0716767950896 98.97055552115741
184.8200664657375 151.63358094738953 99.17992091216799
170.08311497215712 164.5222045867663 87.20922416024698
167.34122439444462 165.24292792880317 93.42883237023831
177.07486386608818 161.19222526711658 84.87188628491762
165.69587115540935 163.69679338465116 89.11852588890333
165.03981423893703 160.44447142927606 86.20464338419926
187.05617762241965 154.75806160271358 94.97770684039713
183.08360488464538 154.2816500601939 90.62112062680656
178.95868467431805 153.6185176634105 98.95156556313621
183.82280484528994 157.17935607743988 90.51793703467433
178.99294367288928 169.02220537861538 98.18774517527648
187.97828129244192 162.33005984431787 93.68938312700972
185.21786004908154 169.27264620933101 97.59079151138383
172.27687900557729 145.64845636577473 87.72432433063007
164.3013861265437 162.58794172382804 97.61668319172529
176.90204474655388 165.7607905390623 98.86705632320577
177.84319646522508 160.860107680439 98.98498573295096
164.2778207906716 145.43797690144976 96.4163606828456
166.75685499840762 152.08976398050345 99.0317484454626
163.25494647401882 162.8125162214038 89.52287707350688
183.9021807626916 167.97595236899988 89.43022307493274
181.0912918157196 151.711312762079 90.28924189526681
181.17432776437064 155.58814075201278 98.92551194828503
186.63478053203394 159.47224826410505 99.21172412955896
175.26767419875003 145.25060972310422 90.52985010632504
168.92557393218374 148.53732184540561 85.88003770868062
167.99685396991268 157.578217665406 83.09280466467688
185.01881151771693 162.48980941193466 88.46332248181707
165.6589946215305 156.59101689786092 99.01189170818647
182.98076173641442 162.2664175177046 87.41648301807952
175.9247677094538 145.4392722827106 99.03528741154346
181.6877580228949 157.7350688556953 88.82647113855974
176.75116776664674 155.50972935066048 98.98810773794662
186.19201506099293 154.44839796431359 98.89480379642066
165.89749561663524 163.73173508592743 96.93553954694204
176.33368085079692 142.30017152606794 99.01565192559981
160.85563186132129 155.3135898715408 89.96757213235219
174.95394708604465 149.91295988286416 99.09053659616775
170.8328650051831 148.65059576461368 85.26625103088477
162.7006253952786 152.3110354657169 87.07949895919018
185.77295213721968 151.78335462609215 94.51069787398744
173.6188989246949 142.6369691108633 93.72300519524855
167.72511439297946 151.62362745050862 84.86156559562285
180.7160192639551 165.2808464830767 85.85505806377157
188.34886553513414 163.7172676948699 96.28881334722871
183.62959685596167 154.1679395011177 98.91721371210525
161.83425326128082 161.01488631349034 94.79921973332077
170.71555985151105 144.97186884671004 89.66040754034456
165.97512946448094 147.67877242499654 99.05986301869731
186.72079435642414 167.28113096512763 93.45071663403574
173.11013404205764 161.7012868130006 84.61302939672352
178.58743782750182 167.2214008950275 87.43553592872401
166.3277934371271 145.35718039253095 98.00145730076089
178.2012739210691 149.77054481025715 88.09164892129705
167.83013912962787 164.17618655055824 87.91551089172337
163.94669608279364 148.4285820067224 99.06474439081695
184.93800914192403 158.4332373621761 91.75396761414986
175.83140998399037 158.50598704306307 98.97039211006619
168.81439561223587 144.68023025817024 93.92356420546014
179.00865222469352 155.54261952478404 86.82504445643868
POLYGONS 656 2624
3 271 249 324
3 39 119 113
3 257 39 298
3 113 12 39
3 39 12 298
3 179 39 257
3 28 238 20
3 28 18 37
3 15 18 309
3 242 14 30
3 298 12 30
3 30 12 242
3 113 27 12
3 12 27 242
3 153 35 17
3 238 11 20
3 20 11 153
3 238 29 19
3 133 1 9
3 18 155 309
3 19 11 238
3 205 23 224
3 21 8 136
3 10 58 35
3 35 7 120
3 153 17 20
3 17 155 20
3 58 224 7
3 136 211 27
3 27 211 242
3 14 288 30
3 288 200 30
3 133 9 306
3 306 9 7
3 153 11 51
3 136 6 21
3 24 205 6
3 6 205 21
3 35 58 7
3 17 35 120
3 119 24 113
3 113 24 27
3 205 224 21
3 21 224 58
3 17 120 155
3 155 120 309
3 8 21 58
3 23 2 135
3 2 24 119
3 24 6 27
3 27 6 136
3 14 242 13
3 242 211 13
3 309 9 1
3 7 9 120
3 9 309 120
3 18 15 37
3 15 55 37
3 20 155 28
3 28 155 18
3 251 14 13
3 30 200 298
3 1 133 25
3 24 2 205
3 205 2 23
3 306 7 224
3 135 2 316
3 277 62 0
3 244 54 32
3 49 244 32
3 54 71 169
3 71 54 260
3 253 169 41
3 74 244 165
3 41 169 273
3 273 169 71
3 260 320 71
3 72 288 252
3 203 115 226
3 14 251 288
3 288 251 252
3 226 132 235
3 235 132 68
3 252 3 72
3 3 115 72
3 207 115 3
3 64 243 195
3 132 207 300
3 28 4 238
3 238 4 29
3 221 207 3
3 226 302 203
3 32 169 253
3 32 54 169
3 0 291 277
3 64 146 291
3 114 3 252
3 243 64 291
3 291 0 243
3 243 246 195
3 277 291 60
3 60 291 146
3 3 114 221
3 221 114 237
3 244 260 54
3 223 312 55
3 251 318 252
3 318 114 252
3 237 126 328
3 19 225 11
3 237 328 181
3 265 328 232
3 265 160 328
3 294 194 240
3 240 194 317
3 29 317 265
3 11 225 51
3 4 182 29
3 175 295 4
3 172 240 283
3 181 328 160
3 160 317 194
3 29 265 19
3 283 317 182
3 182 317 29
3 295 182 4
3 140 172 283
3 294 191 194
3 317 283 240
3 153 10 35
3 51 225 248
3 265 232 19
3 232 225 19
3 317 160 265
3 322 126 237
3 232 248 225
3 126 248 232
3 328 126 232
3 322 114 318
3 322 237 114
3 16 213 223
3 213 312 223
3 37 175 28
3 28 175 4
3 295 308 182
3 175 108 295
3 240 172 294
3 213 108 312
3 312 108 175
3 104 105 308
3 193 147 105
3 76 111 193
3 111 22 186
3 104 213 26
3 105 104 209
3 32 98 49
3 49 98 76
3 98 111 76
3 244 49 165
3 209 104 26
3 172 147 66
3 66 147 186
3 76 26 49
3 26 165 49
3 308 105 140
3 140 105 147
3 308 140 182
3 182 140 283
3 140 147 172
3 186 147 193
3 295 108 308
3 308 108 104
3 76 193 209
3 111 98 22
3 76 209 26
3 223 138 16
3 111 186 193
3 181 160 194
3 105 209 193
3 108 213 104
3 110 165 16
3 213 16 26
3 26 16 165
3 110 16 138
3 22 98 253
3 253 98 32
3 34 74 296
3 55 138 223
3 5 70 275
3 133 254 25
3 34 296 258
3 63 25 117
3 25 254 117
3 138 56 57
3 258 57 63
3 25 56 1
3 70 5 289
3 275 117 5
3 254 5 117
3 274 289 159
3 274 70 289
3 42 133 306
3 42 254 133
3 86 70 274
3 275 63 117
3 63 56 25
3 60 146 22
3 146 186 22
3 56 138 55
3 165 110 74
3 56 63 57
3 70 86 275
3 275 86 31
3 135 53 23
3 23 53 42
3 55 312 37
3 312 175 37
3 56 55 15
3 56 15 1
3 15 309 1
3 324 274 192
3 324 86 274
3 31 86 249
3 249 86 324
3 289 5 231
3 53 135 231
3 231 5 53
3 159 289 38
3 289 231 38
3 38 263 159
3 38 135 316
3 38 231 135
3 52 263 38
3 216 192 228
3 74 34 156
3 274 256 192
3 256 228 192
3 159 256 274
3 159 263 256
3 256 263 272
3 269 152 87
3 87 152 141
3 110 138 296
3 249 40 31
3 23 306 224
3 23 42 306
3 42 53 254
3 254 53 5
3 258 275 31
3 258 296 57
3 57 296 138
3 228 256 272
3 234 109 327
3 61 144 122
3 61 164 144
3 144 164 36
3 249 271 134
3 77 272 178
3 152 48 178
3 178 48 77
3 228 162 216
3 216 162 36
3 228 272 103
3 103 272 77
3 162 228 103
3 103 158 162
3 48 78 77
3 158 103 78
3 78 103 77
3 144 36 82
3 82 122 144
3 302 65 203
3 203 65 109
3 302 327 65
3 65 327 109
3 74 110 296
3 158 82 162
3 162 82 36
3 61 47 245
3 245 47 321
3 61 122 47
3 47 122 321
3 216 36 271
3 36 164 271
3 263 46 272
3 304 178 46
3 163 48 150
3 257 266 87
3 78 48 163
3 163 158 78
3 320 241 71
3 71 241 273
3 109 151 203
3 234 44 109
3 44 269 87
3 269 43 152
3 152 43 48
3 43 150 48
3 192 216 324
3 216 271 324
3 249 134 40
3 152 304 141
3 152 178 304
3 44 87 266
3 31 40 34
3 34 40 156
3 266 200 151
3 79 269 234
3 269 44 234
3 245 241 61
3 245 273 241
3 241 220 61
3 61 220 164
3 150 79 206
3 206 79 50
3 31 34 258
3 50 79 234
3 82 161 122
3 150 206 163
3 286 198 50
3 302 185 327
3 185 286 327
3 87 141 257
3 257 141 179
3 275 258 63
3 150 43 79
3 79 43 269
3 141 284 179
3 179 284 33
3 141 304 284
3 134 220 320
3 320 220 241
3 187 230 163
3 82 158 230
3 230 158 163
3 260 156 320
3 320 156 134
3 134 156 40
3 271 164 134
3 164 220 134
3 119 212 33
3 33 212 179
3 119 39 212
3 212 39 179
3 83 161 187
3 161 82 230
3 230 187 161
3 33 52 316
3 316 52 38
3 200 266 298
3 298 266 257
3 46 178 272
3 260 74 156
3 260 244 74
3 304 46 52
3 52 46 263
3 251 325 318
3 251 13 325
3 318 127 322
3 139 190 51
3 190 229 10
3 211 176 13
3 325 174 127
3 325 13 174
3 287 255 139
3 127 318 325
3 170 139 255
3 190 139 170
3 174 13 176
3 8 210 136
3 210 211 136
3 248 139 51
3 248 287 139
3 176 211 210
3 51 190 153
3 153 190 10
3 127 174 255
3 174 170 255
3 255 287 127
3 10 229 58
3 58 229 8
3 322 127 287
3 203 123 115
3 115 123 72
3 203 151 123
3 123 151 72
3 210 170 176
3 170 174 176
3 170 210 229
3 229 210 8
3 190 170 229
3 266 107 44
3 44 107 109
3 266 151 107
3 107 151 109
3 115 307 226
3 226 307 132
3 115 207 307
3 307 207 132
3 90 278 235
3 302 226 278
3 278 226 235
3 322 287 126
3 126 287 248
3 235 204 90
3 90 204 267
3 235 68 204
3 204 68 267
3 72 200 288
3 72 151 200
3 300 199 132
3 132 199 68
3 199 215 68
3 185 292 180
3 180 143 184
3 279 124 277
3 277 124 62
3 279 45 124
3 124 45 62
3 196 180 292
3 196 303 130
3 130 293 196
3 45 276 62
3 293 130 227
3 277 177 279
3 279 177 301
3 277 60 177
3 177 60 301
3 292 278 90
3 302 167 185
3 185 167 292
3 302 278 167
3 167 278 292
3 60 131 301
3 253 41 131
3 316 119 33
3 316 2 119
3 195 116 64
3 116 66 64
3 215 112 59
3 215 199 112
3 112 199 300
3 59 154 215
3 215 106 246
3 246 106 195
3 215 154 106
3 106 154 195
3 294 261 191
3 195 154 261
3 261 154 191
3 116 195 261
3 261 294 116
3 101 148 297
3 185 121 286
3 286 121 184
3 185 180 121
3 121 180 184
3 33 284 52
3 52 284 304
3 286 208 327
3 327 208 234
3 286 50 208
3 208 50 234
3 173 281 183
3 183 227 129
3 129 227 130
3 207 97 300
3 300 97 202
3 207 221 97
3 97 221 202
3 95 161 83
3 276 45 129
3 129 130 276
3 245 118 273
3 273 118 41
3 245 171 118
3 118 171 41
3 183 92 227
3 183 281 92
3 92 281 314
3 184 198 286
3 183 129 173
3 173 129 45
3 227 88 293
3 143 137 166
3 137 88 314
3 92 314 88
3 88 227 92
3 198 184 81
3 81 69 198
3 64 323 146
3 146 323 186
3 64 66 323
3 323 66 186
3 67 89 297
3 148 84 301
3 301 84 279
3 148 101 84
3 84 101 279
3 279 326 45
3 45 326 173
3 279 101 326
3 326 101 173
3 171 80 41
3 171 148 80
3 80 148 301
3 314 75 99
3 99 75 96
3 314 281 75
3 75 281 96
3 66 73 172
3 172 73 294
3 66 116 73
3 73 116 294
3 166 81 143
3 143 81 184
3 321 313 245
3 67 171 313
3 313 171 245
3 62 310 0
3 148 299 297
3 297 299 67
3 148 171 299
3 299 171 67
3 281 250 96
3 281 173 250
3 145 157 85
3 297 250 101
3 101 250 173
3 253 329 22
3 22 329 60
3 253 131 329
3 329 131 60
3 41 80 131
3 131 80 301
3 85 219 145
3 85 95 219
3 219 95 83
3 157 96 89
3 142 189 187
3 187 189 83
3 142 94 189
3 189 94 83
3 90 315 292
3 303 196 315
3 315 196 292
3 276 310 62
3 145 219 94
3 94 219 83
3 93 125 94
3 94 125 145
3 93 247 125
3 91 157 145
3 81 264 69
3 69 264 93
3 264 247 93
3 91 145 125
3 142 285 69
3 69 285 198
3 285 50 198
3 166 264 81
3 206 50 285
3 285 142 206
3 218 99 91
3 267 270 90
3 96 222 89
3 89 222 297
3 96 250 222
3 222 250 297
3 197 89 67
3 161 233 122
3 122 233 321
3 161 95 233
3 233 95 321
3 315 90 270
3 270 303 315
3 246 236 267
3 0 310 236
3 137 218 166
3 88 201 293
3 293 201 143
3 88 137 201
3 201 137 143
3 69 280 142
3 142 280 94
3 69 93 280
3 280 93 94
3 85 268 95
3 95 268 321
3 85 197 268
3 268 197 321
3 218 247 166
3 247 264 166
3 206 239 163
3 163 239 187
3 206 142 239
3 239 142 187
3 247 282 125
3 125 282 91
3 247 218 282
3 282 218 91
3 0 214 243
3 243 214 246
3 0 236 214
3 214 236 246
3 68 149 267
3 267 149 246
3 68 215 149
3 149 215 246
3 267 259 270
3 267 236 259
3 259 236 310
3 180 217 143
3 143 217 293
3 180 196 217
3 217 196 293
3 218 168 99
3 99 168 314
3 218 137 168
3 168 137 314
3 321 197 313
3 313 197 67
3 89 290 157
3 157 290 85
3 89 197 290
3 290 197 85
3 276 128 310
3 303 270 128
3 237 100 221
3 221 100 202
3 237 181 100
3 102 202 100
3 100 181 102
3 157 319 96
3 96 319 99
3 157 91 319
3 319 91 99
3 259 310 128
3 128 270 259
3 202 305 300
3 202 102 305
3 305 102 59
3 303 188 130
3 130 188 276
3 303 128 188
3 188 128 276
3 59 262 154
3 154 262 191
3 59 102 262
3 262 102 191
3 112 300 305
3 305 59 112
3 191 311 194
3 194 311 181
3 191 102 311
3 311 102 181
