# vtk DataFile Version 3.0
A great-looking cell
ASCII
DATASET POLYDATA
POINTS 377 double
346.27273519017666 124.01352079423931 27.350767660504697
357.4269098334475 129.39580184070996 31.113900807829896
351.4597564130351 129.40118953838527 28.211922245932648
339.35243081622895 128.2151821025465 30.76512853183968
338.06267816667327 124.3295926881894 37.38245006480221
340.2102600369114 128.33137162478695 42.400379142141745
339.6038006998115 129.05654776984247 34.46666525592818
338.62420293727075 127.24057683655299 36.44504856727959
345.4211530249481 124.44682628745893 47.08706029349704
340.43122344349 129.93604497692988 38.94177562242511
338.34606056918716 127.04288171145929 33.84085968960356
338.60981952626327 125.8149214189003 29.617012044607453
344.02829961083063 121.18433404860366 43.724312204598974
344.51247249948943 122.3808615644287 45.85849675062066
339.28655948022583 126.09876613082412 41.92590994147811
339.91817480115833 129.40127438420163 36.830230473931785
340.2473527558588 129.5908568329003 32.23843487018627
358.9414492917796 124.32037836017355 33.79127757720624
342.56033596484195 130.96172675965073 45.38146865471225
340.9938511509979 133.7897158063836 37.35023045056915
352.64478475007144 126.78562069435336 28.258720497369733
337.8711290557931 122.4585142924247 32.76112439502378
347.7250387819602 132.09296906587613 29.22023727098656
341.1717669876188 132.40180464536712 35.3384364120916
341.49507260516765 121.64071338373373 43.18089845110271
340.9398710462494 130.37004146849233 41.48500047463446
340.69327618126874 130.5235394688602 35.54610890617501
341.8726555712409 119.65477969881657 33.6715755829999
354.923597974379 118.742415540238 35.256218797049996
343.59990205718157 133.09956813414863 31.139043554567547
349.3282973146517 118.41125603321858 34.42394450131131
348.0594624998823 118.24222096280096 43.8812690574192
354.11992820998097 120.01443913944665 32.2966849826368
351.1438023343092 124.7884840798635 27.522005791797095
362.75811009903407 117.79596328147726 38.514578191207036
363.73216137217696 117.04088597831755 39.99198045472292
355.20464774125804 116.25156081719511 40.53324571539558
351.41059034856886 135.56312231040945 50.56780365685962
343.0585027585613 124.42306996360551 45.88731064515422
356.7960371025288 123.68717896582532 51.290821935740354
358.84648188240334 116.32490273644069 40.0832815578632
355.9697328418743 144.12258950283774 39.55377259104003
360.85381164375906 114.40531016418309 44.04485893874437
348.6984294229117 139.52920030484023 48.9132544480502
352.09876008957906 120.7351417100135 50.52366625329215
354.0107518527563 128.9377875300734 29.36435460973437
352.4017173430893 116.6211015534068 43.88467390618792
339.3695450588073 128.3367360668451 38.35298385706258
358.37406405172953 131.48322580284164 33.50171870785173
353.3425098447464 116.66470149834697 40.87278468818511
346.9590540380602 127.18617330169556 48.012968702508594
364.369911099416 115.641439944988 47.456993660108424
351.2284597473292 140.58810065660114 34.79567651237965
360.65356971636265 126.56428550794608 39.37793921929314
345.7199810692152 136.9785339920804 32.02002499182335
355.16186624266555 116.58979067541256 48.15754958687331
350.04891759264893 120.01169256575206 31.245415786561324
347.4033306681776 118.63347571226767 36.26313458002154
358.9998718752418 132.19972603819522 47.63374132480577
358.8124710679332 136.2328703644881 50.77129466019918
348.56445226176055 122.73116795487051 49.88263578111485
358.43478462104594 118.10384131976325 51.11420025309787
362.1777480566603 123.82495649226529 44.27112690132971
347.84983156452813 118.99090199495392 46.91430273530042
364.829550921283 119.90840408601646 49.72093257027965
340.3097478694113 119.9238012870143 35.09946879875317
360.2481178734979 116.61656658573578 51.28738263268812
358.64197588130355 124.88631424183352 51.16178837148465
351.2652289707341 119.18835335089173 32.68129729582153
341.4276268431574 135.91586804147215 42.7672276684735
355.24481354861877 133.82967661463115 29.861410291615954
360.4686785616014 120.82343392746904 36.33010738847165
360.8108349357751 126.46682860420745 41.592816740799854
365.5666630076473 118.69842741792931 46.60218748544784
359.7627564552461 133.5611285127123 45.635352825101634
357.3432756467144 122.82980909993069 31.708885820223003
345.5831824354154 140.07390385666415 37.25773956130388
355.0359167037974 138.7245327527791 31.352574745985727
347.1919654513277 140.74691182164602 41.85694893621088
338.08867262888833 124.82695971780011 32.621565219986955
346.2800805631332 134.1374914524326 50.23577999938453
362.43210094925274 114.38492080612836 46.16855911738458
353.4377119531944 142.97134154256955 46.95004428018245
364.90393488954567 116.82791919867978 45.37944096757701
355.36442781109736 136.03561581386285 29.800363803133862
349.2944769677627 134.41361573072663 30.24169510334364
358.6378343164508 138.17507704691727 48.34039396199972
343.8810919129967 119.0557866290415 38.99532982513926
347.6228235336703 122.43827363264292 28.33592640856688
354.86297268298244 122.43025068763656 51.26350913417016
355.0808717126271 117.2358711374647 38.315307337945704
358.990967112474 114.36147814470645 45.60123364168217
352.50594126681466 137.24907269616483 30.368307952828907
363.6958762303713 119.95796893832544 39.35436524415624
344.96144590216056 120.45550335201824 30.760324508976442
354.4085689158357 127.68245600755121 50.92524331870507
356.6893932202435 118.11028337127141 36.733892107600155
343.92498381288397 139.54091664689778 41.84414356191792
354.37801318202423 127.06435600176071 29.08297416730318
355.8141165945112 129.38622930317464 29.81093329122538
344.57698473829913 139.3069340324739 48.410579190509644
349.8094295650446 117.94862302754888 36.56194468523408
340.5364194350642 127.85082066622417 28.82869697723037
359.86670250360663 114.26364184219482 48.75423157081627
355.3758375661107 131.5138062860508 29.965379454097864
348.4576328188336 119.44948542334068 32.23405358179893
359.51867996645143 131.83871127342826 36.86145119097117
337.96375830462665 123.1987308006934 34.782268972178606
357.23001102308007 133.72672951566963 31.09856700170753
338.69453729001606 126.52820608618048 39.119037545303954
340.6381887821001 132.28836165103777 39.500834345538244
354.15522382328055 118.01216700576633 49.76971159342156
356.60093838467486 119.53458843304095 51.22757998301663
347.3694056425608 119.13638967469196 34.11133970859231
357.6928898888919 127.31692728818878 30.660262338449606
344.6150709975845 119.07171414569456 36.598635069520114
355.32779298700535 140.79162538251342 33.64750650972167
357.13069977504375 125.42575844391406 30.612783159319722
359.1984136860261 137.16971984857406 34.496752815938905
358.53154095932075 129.05157084133316 33.09140979035542
354.3723838471002 141.20997772035506 48.57374375312827
350.14592586478074 117.2819639812044 46.140338392231705
356.99652277579486 116.18408580047694 40.30283006792485
347.12754069293857 124.32190422216655 48.771929027187156
356.8432344792326 143.0325167996521 37.4928093713329
357.1313545616382 131.53080354120254 31.390254564830176
343.1093648933052 119.86416380607643 41.40501074485447
362.6961609439409 121.34064141884929 49.15941432921947
360.6674417273091 135.21688989436223 40.297951579197225
359.03890138482785 115.20256978341507 42.30262880422691
357.4361151616581 127.68454997540354 50.995170478846894
349.5331184136938 127.18879108739512 27.492341847342416
348.5842617938423 124.54804138748564 27.733841105408313
345.85358910355666 119.8640263511976 32.81254694497944
360.08108538034486 128.63950620729176 41.698220928920954
361.698302618552 124.2741620067233 41.12231271646093
359.8512237962639 131.88648397945698 40.28363512534582
360.6424340678424 126.43277390789322 44.16178802740299
359.8538658354907 129.09632352171218 38.51154213262517
359.0736385677297 134.66028516872896 33.58379287300594
350.7346088030709 136.05874005582066 29.633767497496212
346.8648475623297 120.32271335182072 31.07351156479174
341.80027504150246 136.3973278429949 45.21205811638676
345.7222129881348 119.66706625966295 42.55571087188814
357.15926804578845 116.43860457190334 49.50320769564404
360.206750938535 133.50175697241403 38.51140175605679
339.8472081697926 123.27566993319563 28.36712370832893
365.20492618687376 119.90334477229017 44.961915248715314
340.8910425389845 119.8685938796318 37.132938522877204
345.487755108344 140.33746787843785 43.40398158066528
350.783285474988 143.35854040894688 41.92638508992194
353.15081799047886 118.60696939781353 33.694357923562414
358.0999517343178 122.04206236122825 34.10901142825221
346.7181584856575 140.28248210908305 46.588155717607144
339.22710410274954 121.1257518241402 31.973400352315505
341.7306871081806 134.84903788503271 34.957196874144216
365.1988764804127 120.42240840184239 47.65062698668438
351.0214564614698 141.7338257415853 46.984888497487916
342.5999969705537 138.07509858110058 40.36910459053052
360.2319625290113 135.19800655737555 36.67292760641725
359.83191290448633 140.07376235808715 39.198831187626055
342.81798674003096 138.5426048864815 43.77599689021929
359.8784762021475 140.66463309946303 41.412129245408885
358.24071513377174 143.0213531620085 41.415053080205666
341.18404324522106 120.15437180657428 31.709130123605238
358.2810376052925 119.82640671463807 35.79051297088388
341.1841946844671 129.46409297078 43.83293684595221
352.17610251383235 139.4234820220006 32.979587958099195
352.82722023239376 144.26392639904813 44.75207263275492
358.2460167565029 139.58524717194135 33.84068117731433
350.84835795490295 142.39125403843906 39.605764300285436
351.0555289478508 127.709182697787 50.56404901926202
357.6202803038955 141.75005745349662 35.83182696389119
341.8542246917953 127.80634332522142 27.301959724567528
350.1548896548798 117.25158734441072 43.84122544239215
360.3280760399307 136.95252077649008 38.43968483325044
348.789808739788 130.01711980991976 27.90078279698706
349.2233554101126 125.46195109258606 49.67186405023758
340.74767615258264 131.36327747459447 37.255603802335806
340.08603114826997 120.03318215825547 33.2463725373912
344.1849278713964 123.42782832146057 26.869619818539057
359.1787472010376 126.21717086106825 34.616758576099585
360.14473463619333 138.2963425780702 39.86097280264059
354.1197344656903 139.64223402110167 50.48036012969806
355.90617664167036 134.81545208038355 52.39754305744466
350.9854312338013 125.39627647845758 50.59148490682832
357.92865540939016 124.8624787776416 32.19356562810847
360.1454269633747 135.63457210574234 47.18479093812084
345.2655821091098 119.23931782459907 40.50078147919907
360.43631210430254 136.8396195933094 44.92688944898507
363.0707884537198 115.36830802335913 49.55902394985577
360.5133567078424 134.81535737930605 43.87168403889583
348.9520807377849 140.3140534583511 46.51443745239667
355.8846852718061 132.61792922083598 51.63860896946492
359.704799314585 131.50975821714425 43.92277360020177
344.63102611021225 133.58578268347364 49.70585695021927
343.8775149012438 138.88334842832737 37.31820143734131
353.9808232187262 137.64436506759827 51.98541413728723
348.91416059385904 133.1234431322193 49.95943911324977
349.1868509296368 118.000700802319 48.184576541776025
349.9526142667205 121.59232612743035 50.75931155386355
358.3329251211507 117.33058743130496 38.10194044916732
345.1929483476501 129.26794064400795 26.934300468949026
357.78547262161874 122.26289519197319 50.74997040526584
343.40191188981066 121.80536634157653 27.969932755143446
356.15690338230144 115.59476057747854 46.267471249145714
351.95936839400514 118.11081285497579 35.32143212903087
343.42898085809486 119.65295917287021 32.08187209231076
356.0594901811246 144.07006079294737 43.08609479348076
353.48943263414156 132.87446108444954 51.20133917661258
353.6118306858889 144.14803633780525 41.681526216988026
356.54016130950606 120.63559298041767 33.37636563053393
347.9722103680392 136.4213237798269 50.30942609078703
342.6648803009855 137.91560930218844 46.94306169320344
358.1407218039161 129.54458642845591 48.88824934098404
348.69385053523234 117.77952230448534 38.66957345209021
344.18755128994263 130.19605318622283 28.193447783183732
352.89749539630844 124.93648656498725 28.1065045877664
340.69504607461135 127.13848468267463 44.14274729751049
351.1777265358899 118.00727617169251 48.89911509891731
348.54393026612956 129.72934339970303 49.25819607467044
340.1658298875795 121.19737438437386 29.871393915135908
357.68870712074175 114.51434400156035 47.709602576215524
356.8451654806797 137.52045477633823 52.81438903900576
361.2077738405033 118.92553843106795 37.28421842090094
341.42741378785513 124.52843129464623 43.669886189529194
343.50097324036443 137.17040516843136 34.721659989745476
353.4321405098965 117.87752577229176 36.78515463929297
338.08422447721756 125.34430765193291 35.01525424835081
360.41705262800616 126.68890282228571 46.74870329358352
344.3374083063749 135.19994797869592 30.97853026591177
353.0033267517347 124.94111844271315 50.350885777812884
359.6953407556265 128.86520090452112 46.35284502220964
347.6652405965074 140.33031773532198 37.28041382518629
342.92873428927743 124.84831491167267 26.418339838602286
363.790979796627 122.34300924044857 46.05369240234724
345.072894704406 127.46258958552379 26.79497573949423
343.5226493763713 128.61777679144606 27.062529639488325
338.2582694134061 126.95911566028921 31.824324475934752
346.1150483980862 138.79641566161746 50.65328245852456
342.17897658435317 129.38448149768448 28.384343452939998
352.67661873212023 141.53007630507648 34.64475729609111
344.22919307211714 139.64610002838054 45.86183161015564
359.33486010231906 134.14892595620626 49.211187852838506
347.04221692871806 128.51347647596205 26.92012886257931
360.00078870561987 120.13669939318791 51.50761762194432
344.81618631873545 125.41822148240377 26.43312697946931
340.9766871055472 129.71165426744008 30.176938365596534
357.8839916812945 132.94926912633656 50.602849795869126
361.09145380128166 124.64304783264312 38.76561147981147
348.93774874693594 140.94298435438992 43.92505043874734
360.1122901816528 123.03952266799865 49.98433359454456
344.2690043324799 126.72473297274567 46.267935692859034
349.15861724348025 139.83619068219863 34.379918939037665
338.8830894783333 121.21898195125527 34.09449875013667
346.4373907420651 129.55961792813378 48.508438078031354
346.864921568325 126.19821465867376 27.19377736011515
350.0360821976668 137.47942298153683 49.53899261629168
350.77102317454404 141.91573816451015 36.93701730925594
365.01603091111974 117.74906019493987 48.45477279371723
361.0204388385148 116.46371883158912 39.57454966187097
343.175568662546 135.24239633486994 32.628385793823675
353.3494371842271 135.13162470862565 52.34878394767039
342.4951231710528 126.24123141409449 44.93756616803099
348.74055640948933 121.01142560654708 30.190817643404934
351.77193676513366 120.65762693237835 30.043589536605047
338.9144344337951 121.40148144183323 36.670089642523145
364.73954991448966 118.37306145334823 42.26013806191155
357.31613058766624 114.86985291147634 44.21786881155055
350.85856515653 123.42499292811615 50.74613502458917
359.89074259337764 124.82461157763946 49.343609614438506
339.72607922091163 128.30681150598997 40.38438094088723
355.86269631371744 121.19837350129956 31.703109815146163
354.31580896736216 116.04319468254334 45.00955732234332
344.2158807330205 129.46544151156925 47.72390644703653
350.0940357748389 122.68062162534062 28.586395650629427
341.67840208277596 119.5719972718453 39.14053138708218
349.27787026908766 137.42229937263104 31.562658593386136
345.43696618953675 122.23614631999166 28.083122021381364
338.9091765103778 128.35125102572073 32.60758093617036
339.9321547122551 120.55542357335901 38.648149737750565
347.43376247556586 138.68038002467986 32.9633336914223
346.4923868954896 139.7954011296716 48.746742455575834
356.7508675078465 123.57420088260938 29.465385422084044
357.551588593635 140.69349122423466 47.477302590549286
342.6686249245217 119.33788607503986 37.50969349381951
358.83100416109215 142.10982649160405 44.40490132048682
344.3044605904867 136.09557488837416 49.48316447898954
341.6788164544316 131.28426733787464 31.671283708035258
356.8201950396429 139.42944358144194 32.263436429314396
342.50065081434434 128.32285768042215 45.444316229878346
352.6836719418464 122.89065227233169 50.8751412315356
340.70498875443474 133.1607241594482 42.106371294768365
348.9264671149518 141.19768563039065 40.21875297229264
350.5946032831713 142.8897573747536 44.50479663693458
355.5662648044598 115.82288229180855 42.90726555897274
344.5711341236871 121.23754793583369 29.23581217035298
341.95378577434906 136.50169876169514 37.35874391170411
338.58866704076854 124.45926042073351 39.98830920126812
345.84138885018734 131.5612394486979 49.68995301837588
357.8671008591725 137.23176260216633 31.765508044740045
356.58652611056203 139.16127182111853 50.394743363937714
350.9829184484343 131.0864220322569 50.64872258383566
341.1875797118391 135.01901061140893 39.894563395832066
350.4631873006407 131.90128783008686 28.902884534125107
359.63224962854827 133.22057034826878 35.042954171304345
359.8651476151642 128.80626673529136 44.02768372333703
338.3050782705499 122.92023121298405 30.586715143060992
342.9971603409381 130.84826563863987 29.913737057993607
342.9692410067951 122.88176626168466 44.37947580653174
353.1812698537658 129.9794225642533 50.95626538426877
346.37612068125406 120.64939904253974 45.02279337674447
351.1811047074239 133.16479128918155 50.644567914696495
352.0835479796371 138.76797344438293 49.25621293119183
354.50931458889886 142.95854754561705 36.45806602864176
359.52940702616036 128.41632705588574 35.32901240417421
346.349337621137 130.51068375593758 27.889430752096807
357.74307014868504 131.3251231120927 49.41194699462942
343.0495995614267 126.7763574817406 26.12495753127579
347.3489656676401 118.49894854108744 40.95584932567862
343.9971267068923 119.46244972596749 34.28042106262059
350.20277688052494 117.33933406749023 41.47067525981548
352.6861403932474 123.20034339298591 28.559420264770235
341.42397614424914 121.5937487853877 28.200020824795768
345.8800134080125 119.50781897959871 34.87673380825526
345.2798019579333 131.61593428722827 29.749077190738767
361.39480887983234 122.3193661874008 38.12127746421943
340.38066892657946 120.74974738789761 40.81738877108631
342.70943026867656 120.44084230974467 29.768533881028393
341.0477859772403 130.8879088229451 33.76816337368766
338.729020291756 122.23068497625552 39.339765087558035
347.63809423402813 135.65637114638272 31.263014775672513
346.2297519261302 118.84029561332005 38.66029840868811
361.35505546365556 124.53984730251649 47.423377737363126
352.7355240170142 134.07579439494904 29.329940328083623
360.0051185764982 127.33144961767965 37.471734322573205
341.95601963187545 123.25692843393232 27.033452299823708
355.84766477959 143.35902405754936 46.36405778852318
360.5570707756476 133.26452891741238 42.09765034101605
343.7035254358153 133.00498811033734 47.65121148627163
348.8773267042522 127.52023667070283 49.475787849246366
359.733913584747 122.4064844061304 35.63692866008909
356.1885116553216 127.55852965463328 29.36694692497132
339.50810445236885 123.1405169482335 41.82396419385043
362.9159259926247 115.20596911910422 42.478468099178286
345.8740794364761 139.36662935428336 34.8651950976946
341.05827531002257 125.68869546572536 27.422528769656218
358.3142220316389 126.875295860158 32.6644767031641
346.35799182404526 121.31008636645853 29.632673091745303
362.6894578282672 122.10510105032009 40.244558808746454
354.408175560319 120.15279822964955 50.77236476457264
346.4051510623824 121.65035772642929 48.02745745985911
342.4675608581685 135.41775031829584 47.06998428161223
353.268821329984 116.5614766984029 46.97267304556402
342.3564830333185 119.37214370634099 35.70309413015955
352.6167296444563 143.5392614890814 39.24342014015616
341.12018028340566 131.50522659714434 43.6600930301422
360.03071861646146 139.99151161049758 43.62415072937649
359.79200514833 126.91113259229519 48.9701000810722
345.4750635283378 140.29984770485595 39.89904327961569
346.16390667629616 134.2950034231789 30.323259043717812
348.9970886575168 119.94643652427881 49.52505494154985
355.03950341148294 121.87442690620881 29.80499918054916
359.9446782179351 125.25982460588142 36.68565122497277
359.5567311162647 138.97347582379948 37.044911178389995
358.68658648935747 142.00397719108528 38.71473864963355
360.00693537705655 138.98849420986912 45.77795158432474
341.9940506478036 132.98555609134291 33.21305959606659
354.79084222253135 125.04060428231617 28.958634291186048
363.3878686294012 118.53057495108293 51.40971878976132
355.8507417503613 125.22012883954793 51.028772746032224
352.78322141604826 131.15412804699872 29.230327901215013
351.7734241408376 117.44501336564029 38.260327010632864
363.7689249666493 121.74667486040063 42.521857244035665
356.01758849867804 130.58293898873163 50.57698168199939
360.3427463030322 137.84572582140848 42.82083850585764
341.034341163482 133.70856704021858 45.2555168715523
POLYGONS 750 3000
3 322 362 265
3 32 265 362
3 368 362 322
3 45 20 2
3 108 139 48
3 2 371 45
3 45 371 104
3 2 304 371
3 117 368 342
3 33 131 20
3 20 131 2
3 2 176 304
3 315 48 106
3 315 106 138
3 138 106 136
3 264 88 275
3 88 132 275
3 304 22 85
3 304 176 22
3 265 56 264
3 264 56 105
3 265 68 56
3 56 68 105
3 88 264 348
3 32 68 265
3 90 49 372
3 295 46 49
3 85 334 304
3 30 68 206
3 360 85 22
3 361 60 351
3 60 269 177
3 68 30 105
3 322 265 275
3 275 265 264
3 115 87 285
3 372 321 215
3 105 141 264
3 264 141 348
3 105 133 141
3 351 63 361
3 63 311 31
3 371 304 334
3 334 104 371
3 26 15 178
3 178 15 9
3 0 256 132
3 24 12 309
3 50 252 8
3 351 123 8
3 351 60 123
3 123 60 177
3 252 290 263
3 263 290 218
3 343 14 298
3 132 33 275
3 275 33 322
3 108 300 139
3 329 26 23
3 26 178 23
3 26 6 15
3 6 279 10
3 288 329 367
3 367 329 23
3 309 12 13
3 13 12 311
3 9 15 47
3 15 6 7
3 7 6 10
3 16 6 329
3 329 6 26
3 16 279 6
3 7 228 4
3 4 228 107
3 109 298 14
3 15 7 47
3 188 143 126
3 311 12 143
3 143 12 126
3 288 16 329
3 288 247 16
3 11 3 102
3 11 238 3
3 109 47 7
3 27 207 320
3 327 276 126
3 276 148 285
3 298 4 330
3 50 274 252
3 218 225 263
3 345 54 226
3 107 79 21
3 10 79 228
3 228 79 107
3 261 226 54
3 343 225 14
3 14 225 218
3 330 4 266
3 102 247 240
3 240 247 308
3 307 154 21
3 18 166 290
3 290 166 218
3 109 4 298
3 228 7 10
3 178 110 19
3 19 23 178
3 109 7 4
3 297 226 155
3 12 24 126
3 126 24 327
3 79 307 21
3 292 110 25
3 225 309 38
3 309 13 38
3 25 356 292
3 24 225 343
3 348 278 88
3 146 307 11
3 166 18 356
3 376 292 356
3 225 24 309
3 271 47 109
3 79 10 238
3 238 10 279
3 263 38 252
3 38 8 252
3 4 107 266
3 226 196 345
3 226 297 196
3 263 225 38
3 38 13 8
3 8 13 351
3 218 5 14
3 271 5 25
3 47 271 9
3 25 5 166
3 166 5 218
3 14 271 109
3 14 5 271
3 126 276 87
3 87 276 285
3 367 155 261
3 261 155 226
3 126 87 188
3 148 276 280
3 280 276 327
3 19 297 155
3 19 303 297
3 215 332 57
3 87 115 332
3 332 115 57
3 343 327 24
3 343 330 327
3 299 339 274
3 274 339 18
3 339 376 18
3 87 332 188
3 359 196 158
3 158 196 297
3 292 303 110
3 110 303 19
3 19 155 23
3 23 155 367
3 69 292 376
3 69 303 292
3 69 158 303
3 303 158 297
3 311 143 31
3 376 356 18
3 266 148 280
3 110 178 9
3 330 280 327
3 266 280 330
3 285 354 115
3 27 320 354
3 354 320 115
3 54 331 360
3 360 331 85
3 54 277 331
3 331 277 85
3 308 29 325
3 188 332 319
3 319 332 215
3 166 356 25
3 161 158 69
3 288 367 29
3 367 261 29
3 252 274 290
3 290 274 18
3 271 25 9
3 9 25 110
3 143 188 319
3 319 31 143
3 8 123 50
3 50 123 177
3 115 324 57
3 115 320 324
3 324 320 133
3 21 254 107
3 107 254 266
3 308 288 29
3 308 247 288
3 65 27 354
3 65 266 254
3 173 346 102
3 102 346 11
3 102 3 247
3 247 3 16
3 266 65 148
3 244 316 176
3 176 316 22
3 221 154 307
3 29 230 360
3 360 230 54
3 29 261 230
3 230 261 54
3 133 207 94
3 133 320 207
3 16 3 279
3 279 3 238
3 336 204 323
3 343 298 330
3 204 180 278
3 278 180 0
3 348 296 278
3 278 296 204
3 348 94 296
3 318 346 173
3 207 328 94
3 323 204 328
3 11 346 146
3 180 246 0
3 204 336 180
3 234 346 318
3 180 336 234
3 236 256 246
3 240 216 237
3 246 180 234
3 316 244 202
3 0 246 256
3 131 256 244
3 244 236 202
3 244 256 236
3 318 237 236
3 236 237 202
3 102 240 173
3 240 237 173
3 246 318 236
3 234 318 246
3 216 316 202
3 173 237 318
3 131 176 2
3 131 244 176
3 308 216 240
3 308 325 216
3 22 316 325
3 325 316 216
3 21 154 254
3 202 237 216
3 22 325 360
3 325 29 360
3 221 323 328
3 27 164 207
3 154 221 164
3 254 179 65
3 65 179 27
3 179 254 154
3 164 27 179
3 179 154 164
3 323 221 146
3 207 164 328
3 328 164 221
3 336 146 346
3 307 146 221
3 336 323 146
3 94 328 296
3 296 328 204
3 65 354 148
3 148 354 285
3 79 11 307
3 79 238 11
3 132 88 0
3 88 278 0
3 33 132 131
3 132 256 131
3 133 94 141
3 141 94 348
3 346 234 336
3 138 134 53
3 108 125 104
3 104 125 1
3 108 48 125
3 125 48 1
3 201 122 90
3 122 129 295
3 46 353 121
3 363 335 53
3 53 335 138
3 363 315 335
3 335 315 138
3 75 186 17
3 17 186 347
3 75 117 186
3 186 117 347
3 136 134 138
3 48 119 1
3 1 119 347
3 48 315 119
3 119 315 347
3 1 114 342
3 342 114 117
3 1 347 114
3 114 347 117
3 105 113 133
3 105 30 113
3 113 30 57
3 144 112 111
3 30 101 57
3 57 101 215
3 101 372 215
3 321 31 319
3 319 215 321
3 104 99 45
3 45 99 342
3 104 1 99
3 99 1 342
3 45 98 20
3 20 98 368
3 45 342 98
3 98 342 368
3 165 96 28
3 28 96 90
3 165 201 96
3 96 201 90
3 295 273 46
3 46 273 353
3 295 205 273
3 273 205 353
3 231 95 171
3 324 133 113
3 113 57 324
3 171 302 220
3 251 245 127
3 235 333 127
3 361 219 44
3 219 121 353
3 333 251 127
3 111 44 219
3 219 353 111
3 374 95 130
3 130 370 67
3 130 95 370
3 370 95 231
3 63 31 121
3 58 214 232
3 374 130 214
3 32 211 28
3 211 165 28
3 363 341 17
3 363 326 341
3 95 310 171
3 209 302 310
3 310 302 171
3 130 67 358
3 214 130 358
3 358 232 214
3 44 291 269
3 269 291 231
3 44 89 291
3 291 89 231
3 112 203 89
3 203 251 67
3 232 229 137
3 137 229 333
3 232 358 229
3 229 358 333
3 269 200 44
3 44 200 361
3 269 60 200
3 200 60 361
3 333 270 251
3 251 270 67
3 333 358 270
3 270 358 67
3 220 198 299
3 220 302 198
3 251 203 245
3 245 203 112
3 351 311 63
3 351 13 311
3 269 185 177
3 177 185 171
3 269 231 185
3 185 231 171
3 89 370 231
3 46 174 321
3 321 174 31
3 46 121 174
3 174 121 31
3 372 101 206
3 206 101 30
3 112 350 111
3 111 350 44
3 112 89 350
3 350 89 44
3 17 181 363
3 363 181 315
3 17 347 181
3 181 347 315
3 17 152 75
3 17 341 152
3 152 341 165
3 293 233 359
3 253 345 233
3 209 310 374
3 374 310 95
3 211 75 152
3 152 165 211
3 85 140 334
3 334 140 92
3 85 277 140
3 140 277 92
3 253 233 258
3 258 233 293
3 198 37 212
3 253 167 277
3 277 167 92
3 161 97 158
3 158 97 359
3 161 149 97
3 97 149 359
3 75 272 362
3 362 272 32
3 75 211 272
3 272 211 32
3 197 313 37
3 313 157 43
3 43 239 212
3 212 239 287
3 232 194 58
3 184 248 59
3 28 151 32
3 32 151 68
3 28 206 151
3 151 206 68
3 135 249 53
3 53 249 363
3 135 326 249
3 249 326 363
3 250 150 293
3 157 192 43
3 43 192 153
3 157 250 192
3 192 250 153
3 120 157 313
3 149 153 250
3 117 283 368
3 368 283 362
3 117 75 283
3 283 75 362
3 106 145 136
3 136 145 128
3 106 159 145
3 145 159 128
3 41 314 355
3 355 314 258
3 220 340 171
3 171 340 177
3 220 50 340
3 340 50 177
3 128 375 191
3 136 194 134
3 301 284 120
3 366 286 284
3 37 257 212
3 212 257 43
3 37 313 257
3 257 313 43
3 167 241 116
3 258 314 241
3 241 314 116
3 33 217 322
3 322 217 368
3 33 20 217
3 217 20 368
3 162 357 375
3 375 357 366
3 162 286 357
3 357 286 366
3 120 284 337
3 337 284 286
3 58 317 214
3 214 317 374
3 58 248 317
3 317 248 374
3 139 305 48
3 48 305 106
3 139 159 305
3 305 159 106
3 220 255 50
3 50 255 274
3 220 299 255
3 255 299 274
3 37 312 209
3 209 312 302
3 37 198 312
3 312 198 302
3 58 243 248
3 248 243 59
3 58 187 243
3 243 187 59
3 206 227 372
3 372 227 90
3 206 28 227
3 227 28 90
3 345 281 54
3 54 281 277
3 345 253 281
3 281 253 277
3 361 199 219
3 219 199 121
3 361 63 199
3 199 63 121
3 162 375 182
3 182 375 128
3 364 175 159
3 159 175 128
3 364 182 175
3 175 182 128
3 139 118 159
3 159 118 364
3 118 169 364
3 162 163 286
3 162 365 163
3 163 365 41
3 162 160 365
3 365 160 364
3 162 182 160
3 160 182 364
3 376 142 69
3 69 142 161
3 142 213 161
3 287 352 339
3 339 352 376
3 287 213 352
3 157 294 250
3 250 294 150
3 157 168 294
3 294 168 150
3 168 210 150
3 41 355 210
3 210 355 150
3 286 163 208
3 208 163 41
3 161 242 149
3 149 242 153
3 161 213 242
3 59 223 184
3 184 223 197
3 59 301 223
3 223 301 197
3 373 235 147
3 150 170 293
3 293 170 258
3 150 355 170
3 170 355 258
3 337 286 208
3 208 168 337
3 139 300 118
3 210 168 208
3 208 41 210
3 118 300 169
3 314 172 116
3 116 172 169
3 364 169 172
3 172 365 364
3 59 86 301
3 59 187 86
3 86 187 366
3 92 84 334
3 84 300 108
3 142 376 352
3 352 213 142
3 260 344 129
3 165 224 201
3 326 93 224
3 93 373 267
3 267 373 147
3 245 369 127
3 135 349 326
3 326 349 93
3 135 373 349
3 349 373 93
3 187 189 366
3 366 189 375
3 187 191 189
3 189 191 375
3 127 156 235
3 235 156 147
3 365 124 41
3 41 124 314
3 365 172 124
3 124 172 314
3 239 100 287
3 287 100 213
3 100 242 213
3 344 267 83
3 83 267 147
3 120 82 157
3 157 82 168
3 120 337 82
3 82 337 168
3 153 242 100
3 91 81 103
3 287 80 212
3 299 198 80
3 80 198 212
3 184 262 209
3 209 262 37
3 184 197 262
3 262 197 37
3 149 78 359
3 359 78 293
3 149 250 78
3 78 250 293
3 260 201 224
3 81 344 83
3 92 167 77
3 77 167 116
3 300 289 169
3 169 289 116
3 300 77 289
3 289 77 116
3 153 282 43
3 43 282 239
3 153 100 282
3 282 100 239
3 359 76 196
3 196 76 345
3 359 233 76
3 76 233 345
3 191 74 194
3 194 74 58
3 191 187 74
3 74 187 58
3 259 73 156
3 156 73 147
3 259 83 73
3 73 83 147
3 205 222 144
3 144 222 103
3 205 91 222
3 222 91 103
3 84 92 77
3 77 300 84
3 369 190 259
3 103 81 190
3 248 193 374
3 374 193 209
3 248 184 193
3 193 184 209
3 137 72 134
3 134 72 53
3 137 135 72
3 72 135 53
3 326 71 341
3 341 71 165
3 326 224 71
3 71 224 165
3 334 70 104
3 104 70 108
3 334 84 70
3 70 84 108
3 245 66 369
3 103 190 66
3 66 190 369
3 156 64 259
3 259 64 369
3 156 127 64
3 64 127 369
3 103 66 144
3 137 62 135
3 235 373 62
3 62 373 135
3 129 268 295
3 295 268 205
3 129 91 268
3 268 91 205
3 144 61 112
3 112 61 245
3 144 66 61
3 61 66 245
3 299 195 339
3 339 195 287
3 299 80 195
3 195 80 287
3 197 183 313
3 313 183 120
3 197 301 183
3 183 301 120
3 144 55 205
3 205 55 353
3 144 111 55
3 55 111 353
3 258 52 253
3 253 52 167
3 258 241 52
3 52 241 167
3 301 86 284
3 284 86 366
3 46 321 49
3 49 321 372
3 191 338 128
3 128 338 136
3 191 194 338
3 338 194 136
3 134 306 137
3 137 306 232
3 134 194 306
3 306 194 232
3 235 62 333
3 333 62 137
3 344 42 129
3 129 42 91
3 344 81 42
3 42 81 91
3 259 51 83
3 83 51 81
3 259 190 51
3 51 190 81
3 201 40 122
3 122 40 129
3 201 260 40
3 40 260 129
3 67 39 203
3 203 39 89
3 67 370 39
3 39 370 89
3 90 36 49
3 49 36 295
3 90 122 36
3 36 122 295
3 267 35 93
3 267 344 35
3 35 344 260
3 93 34 224
3 224 34 260
3 93 35 34
3 34 35 260
