# vtk DataFile Version 3.0
A great-looking cell
ASCII
DATASET POLYDATA
POINTS 367 double
98.787931734844 186.9169741209368 30.44316131540822
98.11269468149997 184.98376311922 27.12785551797993
99.50929010383965 188.08221105396106 28.273904034244072
98.76845790654181 187.8408319413714 24.268958317359992
98.66479794438263 186.89933165321995 32.66634256983779
100.0112711806039 188.83913919161677 26.114738169052302
101.9656413414443 190.62762133643645 30.45548543607078
100.46383459525559 188.94257969659168 30.209079592475277
96.91502278870686 187.75435240644714 20.16097232065613
97.94400335748092 185.00723363210835 24.551369859913834
99.33532263748052 187.99810415107933 34.501174017642334
101.0557340862347 189.7588876117966 31.83516269268052
95.94443451739667 178.02933435599851 26.962654679003112
82.14407860471636 189.57669295544792 31.269378871219367
93.54922288984552 178.14547124121725 23.055426479736596
100.85887668120029 189.72489006850026 33.68357450522008
86.12863196844332 194.529169670059 22.537530940005812
104.51973128552726 197.4481591301054 28.851383352581887
101.859913929472 191.30514024037336 32.57787593058602
93.12235882692744 180.4930932759834 35.41071442386987
84.50167695818294 192.73238158349616 35.37430823721464
99.51896329638727 197.58968014605455 38.85302057387233
89.79701423319108 202.89372181272248 33.444257541407644
100.14926724302826 195.85641704679952 37.616168978716985
100.69143882246841 189.5186475802612 35.62875671591792
97.48505320123785 193.46922760322738 39.5397232498231
101.56015788065821 191.87478299756307 35.254547565834095
95.64916093072398 188.31228244705915 38.90049913716769
94.34380609830211 189.3107886569461 40.59854265734234
96.06036280694026 191.5484541274519 40.745622314042855
99.06923674659792 191.93422852723404 38.45752245417663
98.02793442905505 191.2623167028507 40.00545863994076
100.30658944638881 190.62698757260404 37.25805235960753
96.80557956105756 189.6442372483408 39.69071061660785
99.39955305260135 188.51474241341668 36.958885970369685
97.40809545557173 188.32242818492344 38.0604321589585
98.93790830614101 189.76979715088908 38.88751426418765
97.57098274281239 187.38722487362196 36.05270455936588
83.80755309717695 176.32285774259915 22.667800515183174
88.34694399969894 178.57144751608445 16.458965184553094
94.84952940027918 177.43795852895306 31.35588132294152
84.80286168543357 194.17676663939775 33.65846809645974
89.36998974839511 188.7179939780438 42.9606002865133
84.63827638433874 192.0086766008726 37.486411368228744
98.09288537341482 179.75139015671385 25.851561810644366
85.96863984440176 190.60740087597924 41.90680343639716
83.64614556546906 180.9115219733122 17.056910913445247
87.78425930377108 175.78016315396408 21.637218116789935
85.00723137435554 187.2922099609884 38.0095180798458
83.74754667109615 176.49506354124316 26.726372663013812
83.75318593804012 177.077789032634 33.41201713754736
88.51921105939012 191.22405378468866 43.27459740492546
96.40002617449262 177.81508478604135 30.030779729498057
83.2431518637051 191.45207735126903 26.100954535604117
84.81596312347412 193.55769903274194 30.58968121531847
84.03294668561391 186.19467183789 36.50165306865127
95.68141979878273 180.1520704411672 21.638757136162027
90.42564391045475 183.58097046467597 15.779903224728617
89.77404641878961 186.18601240085087 15.700204702061475
84.11623160761265 176.46862123520933 28.698192027052503
82.37219786929401 177.98563215492925 22.323885929570974
90.86771252168087 176.75230530993488 24.088565150838512
87.6270713053712 177.19429560543304 18.55313344119618
81.5431043678732 183.56137781004813 32.04280929225558
82.37024821955492 178.61124678172976 33.613462255235326
85.82192753352788 176.24474592121905 32.657559216688064
88.82474143870921 191.98187964636975 17.507942793275333
90.51294683931599 178.7810921217267 17.74361979079048
85.21997657153949 180.62776832143814 36.74601089278057
90.42198648693328 176.32232110736408 29.949379093838505
85.59810770320036 175.26390343027728 26.44867071775961
84.81951899051373 176.55659805469134 20.57000634940063
98.94543868450383 202.57977612129633 23.75056743120552
94.03502397434701 183.60075805012062 17.830693275436477
95.77764855452045 195.09725380348186 20.27449191235928
81.57425154153826 181.3653103148544 27.29539990680007
93.06587039367302 177.78980465132983 32.90412383072051
82.43309391821893 184.1132079332013 34.23992284454337
86.47286718675988 189.8080857335332 17.737961468436783
82.98666852283303 190.09008772705303 21.679536026520193
81.9138120264255 184.07094608216215 21.958935972480734
81.93899094078425 180.39035053114185 24.44819513687298
81.45121502283887 182.98567076451852 29.819610159263004
83.33995868273455 177.51539543853602 31.233965809909105
91.77694513703351 188.08687801895252 16.24476600220492
81.12245441496307 186.90646506964197 25.064937039720977
83.47104019720267 190.43472185712696 34.04112911151538
81.72489904764899 189.175638981538 27.625409687109563
85.81018269825374 179.4900446993191 16.376460255255846
87.10381365164612 182.2642657635834 37.56544373013997
87.33114409491756 175.9812148416896 29.378989261960946
87.52200518709044 179.46323213013412 36.362316827374755
83.70812428748721 188.50433328768423 19.186453329083896
81.43158051260592 183.70119237609998 25.139760739620087
103.11036054887411 203.3340779149836 28.956079652911928
91.65435504372877 197.51556558855583 41.122937193739745
85.47434582255224 175.2872063688003 23.3429983761807
104.31483351628229 201.38236601524102 30.333260193641063
91.32321379250581 197.4477555385774 21.20630283342487
90.98050745774196 203.69423187576749 35.10557060684141
87.65710220361203 197.866560305366 26.775043171720654
81.92820428243006 179.6782284048733 29.841259156354404
98.12329386636571 205.72026259842062 36.32266626327352
92.7352070184223 204.43693333192266 26.822457396952476
91.99240665484204 202.87739554910934 37.32599250349996
92.88602440445082 205.92487093275355 33.480304345931074
86.18238059782954 196.4471534618735 29.798567773204713
87.85871885035533 175.71790320852568 26.926296344642132
94.53834456173357 202.44017404273 23.77973323193047
96.59291028809494 202.675243826281 23.910757850282423
99.97858333961872 206.19940005495553 28.851001215617067
91.68347237863334 205.05541897688923 31.201192640823034
90.42041032899014 203.68694261248766 30.975639569857016
103.32517579693678 203.60207110910395 31.768213198636314
97.77758037881529 204.44301712681641 25.108666687327734
95.24580362803205 205.81830112793327 36.63183561788347
89.42789652719829 201.79223363158457 27.386900780346714
94.59992792831098 206.47647756243072 33.77099673525918
91.49821029032175 204.85682251839688 33.04458224881346
87.9444132662076 199.7195777827506 32.22498616206033
82.21600201041367 178.14501997289554 24.614129396473547
94.89270721863346 177.66855247914714 24.906501545863502
91.98225637239071 205.0302303922831 29.26203444101319
96.7799763785819 206.83204360706097 32.32159108148088
100.35138941850433 203.94952996033348 25.3878683913624
93.14256800355741 194.1267213609038 41.65587076140492
81.24130774625888 185.9299079254025 31.455647824453468
103.92235999421925 201.13887833468374 27.843711061340493
90.79310885882421 203.09607630772723 27.417502016253632
93.32183221209041 200.87939163790068 22.813932449287122
86.86423884764224 197.84602573384194 31.442992418917097
101.07284790246571 201.56455642424692 24.528967929771373
89.61792398102158 198.3630317478972 39.8361334032509
92.83711261805303 205.07899859253124 35.29675882511987
88.09824075567302 193.59682726844707 20.057135791563258
101.04273758927035 190.65018318628705 25.727290823132375
104.58186376356603 197.91344832648005 33.37186509502816
96.23755565624856 197.05278045974296 21.384787179661817
87.32810268579018 196.50435996963523 39.262951596650225
95.16874608255648 193.8777003108357 40.90527743165669
91.50023369770389 198.75958007535743 39.90003226461174
102.49974061068552 195.70778774524183 24.47848772751651
95.22647413242022 197.49928210631003 39.57226079443792
90.95278132857669 200.28779268746533 23.514152620114896
101.14364732508625 194.29562693496158 23.459558425169526
103.07303829369272 193.75016873602874 29.859772116037785
97.72767248283994 195.25393848247236 21.161696075379425
101.38751396906099 197.26903998418473 38.14857599591705
96.48239702642466 178.6576013036241 23.981067126048572
85.02432799230041 177.45604940966774 18.06967351441773
101.18697353145997 196.43380326914345 22.782501729961638
88.2205944665971 199.84148018807198 35.71186512908288
102.4193997874022 192.37154492479013 26.513046138947548
87.98841640663728 198.41922667389207 38.6514729129939
102.59818992452028 192.18195863606869 29.00368848097338
89.53071142240009 175.95377950405526 22.778376905605725
101.60619544965186 199.7269910645348 23.70590591458575
97.73889698695923 206.84401109997194 28.871371576178294
103.84369878633235 196.71272701467257 35.44328793370141
98.47583733773557 202.51098446604414 38.79343466306255
90.46650616188042 203.62565501650573 29.15298866133101
86.0167693759299 188.15186532917735 39.92349510074183
103.1422437636806 194.0167125971864 28.16372348465851
101.49697738995239 205.66930232805305 32.965217363827655
96.69337032191801 181.98510364719706 21.260246412625552
104.13451809853441 199.10590937966455 27.430135767749128
83.16038115919451 179.17945716910336 18.911949234020863
94.63294998421097 199.00492515327974 21.69671545163208
85.66377527187491 184.89333478048815 15.856753191171059
100.94225614188063 198.41443144006948 22.731542202100915
85.7567713729739 197.17594517898263 33.07131832428745
98.15844056847104 178.91644799213105 31.124033079266486
101.48427521572002 191.9422895955115 23.930655051863674
98.69768727482311 193.62528656467737 21.195483717109035
99.54152828437788 194.99925617841697 22.236975537459198
104.70972026980694 198.9893572096718 31.05533520818982
100.91812272546542 194.1607408517235 36.51825511900006
103.96197416843232 195.65173125164455 27.73931449878598
90.14710983546216 176.43846729986484 27.1932167355801
82.35599905282089 185.76063278561125 19.588444229716398
85.03245978124147 193.96316776696446 26.131483526372886
90.22861387341027 201.52313146384247 37.8140433953149
91.8587269439974 195.42886717206073 41.814407303186954
82.2372638574306 178.13950116529642 26.966169034586677
102.09450160249905 197.9115643614742 24.30101086864055
93.49546368875303 204.59648355438222 37.09915053332889
88.82423021841088 193.57274198269968 42.61215926722914
100.00690998752583 191.00082077051908 22.49587721393344
97.16129064694913 199.43243752967788 21.899991909936983
101.70672875118674 205.3862605858096 30.16116011628838
81.18791264534725 187.67298153113006 29.625450355765494
99.0467657569982 197.45531183035715 21.719737420638204
102.09492034431493 196.04697287661133 36.80125922433148
81.67994808028807 187.3420485550637 22.00970219943335
102.31460355303892 193.77969004187804 24.83969151334152
104.64165707349737 199.65241357224778 29.053816779381826
102.6332970471439 202.78865210168902 26.303168242786988
88.28182653773558 175.4843720640977 24.635131656127065
84.13238519094408 192.55913526205208 32.2592341028934
103.73117456558703 194.37483827869582 31.38325039337553
103.75241987340132 197.20766730664235 26.16129756771492
102.72692596839306 203.5162690420333 34.66601807061763
84.69870409288517 182.77960848544643 15.850457999178275
97.24386472707104 184.30667960713552 21.18480580499473
94.53718843110272 193.41947502035617 18.415588226895956
102.91266423707772 192.49060786398593 31.089931718772526
97.14634725491878 193.3487747123621 19.910129525159434
102.92908093873413 198.20974146476425 37.12807680619771
94.47190283808922 188.44780691089062 17.641923731685754
97.9993212595522 189.6915297232112 20.231535140319913
90.67292246428727 177.00059446536054 20.914200875041693
89.92008749884526 196.08338424621087 20.832297814890275
95.7568924232547 199.5115546881665 39.5479202629367
99.08471756169403 205.69869753303203 26.913601667828775
96.75443661460098 206.36538322647093 34.61945555866723
86.80089753573525 196.51519775657374 25.022784747469014
96.32766156987032 202.08772152661948 39.59650456084953
100.29441978705243 192.51275166376226 37.12717828392805
104.49291642904899 200.98052135109532 33.450009352993106
92.17432666314858 198.90795392342426 21.657082993023394
103.07593614082718 200.00415419177483 25.516941517364327
101.29311969651476 204.73124399149657 27.67524814171913
92.8366850595867 185.2457169175968 16.55771063968824
91.37973565450062 200.1114225296275 38.6214382570539
85.4664275855487 191.51510759506277 20.475155630261813
82.22535704966775 189.617314665216 24.29324348264789
100.82140979268603 205.41883351675864 35.76740715239507
95.63806905535895 201.0918459420184 22.58902211211463
93.30944315857226 198.53101770758607 39.48324950545649
98.78151719335187 191.48716219766249 20.70865579257621
95.24615810600477 182.19324863139806 19.343473972659254
101.15110435489456 190.24205031130913 28.042307403377517
95.4708167248567 185.2081814775274 18.44832807759244
89.16679013763235 189.31189165638582 15.791833504327043
92.15586725429615 191.10869116663616 16.878838701428254
98.47637002065875 186.2691988696155 28.341180956443132
100.51928343099777 201.81189233281603 38.22502236453446
81.43766065569137 185.49785192920424 23.524972493318366
86.74981964737158 181.72526560710867 15.58672665117017
87.57064140067644 183.8713682533492 15.512927653778489
101.18884298530315 199.36429789403405 38.44914388871516
99.84891137835126 192.88821241543903 22.433052819665853
98.98858961595973 206.65701579440108 33.96672289317502
82.65273008541061 177.76417247476272 29.224434525573887
96.14868843159952 195.73911475438578 39.681571332112696
94.96974626195806 204.17969979282464 25.511622686231707
98.04165637633052 184.17512549694155 29.373447259137148
87.66194501171144 176.98944772429937 34.996746284671445
97.05436231643901 203.9701488892281 37.869028041580734
98.5228539996817 179.67664160508107 28.74110848283906
82.86370127737679 180.8722280864371 35.437441276544405
95.67183892528867 187.35157136805142 37.17042783131923
93.90179617068127 196.20715551983247 40.85302299200384
90.13495973072365 198.13029931831238 22.348861297644355
87.9917538231479 199.9699241940228 30.121602131952926
98.1235901215823 181.5904944754176 31.663478982331934
99.5123055943048 203.96683273860972 37.53714363104113
104.08099564150464 195.39967278875122 33.38877446463704
86.68030011803047 186.9432162496571 15.967458388279672
85.27326534034147 194.2438891381266 38.05877008418102
95.9966691553912 206.7354696135016 28.336317429568076
83.25306684770567 176.37316520731184 24.735636565295565
93.20654782895419 196.37670425602013 20.534866899633094
94.81791985358119 179.11330569253153 34.254471555035444
97.88726034702792 184.9219625668726 32.034537126836135
99.26517697790192 193.94173905494083 37.846947506651624
85.06752091332973 176.30039180301767 30.516882725558375
96.2353730631283 185.49550096186454 35.820968163474404
102.67987037071987 200.94874319886978 36.43091728519933
87.50058512320207 188.78889788215562 42.257411747208096
83.9258495084323 192.0562271223426 23.45630749141218
88.70596309294775 201.7176497380934 31.610802671075344
82.57780496982701 182.78556112553596 18.62463551274765
100.18754490059573 189.8059739905509 24.024898198898985
84.1531923509677 185.7291999377594 17.25052046120841
97.00525779515546 183.66450708976762 34.09546409665121
95.97785442548681 181.00377480492588 34.27338005999233
84.23702948317414 189.51724219308707 36.95914464756671
94.99626338791138 206.72097647784346 31.95342168044869
87.42019585579312 197.9881814318282 28.904876336636885
94.08193595390235 185.57807187979836 37.132615891731035
96.63027955142663 205.96525312265356 26.870814773020577
96.20416111742135 178.77979238063298 32.525023555055185
88.25724075372312 200.93905161607663 33.86952446163688
81.78276676558383 181.25624750255986 32.46770496458932
82.45510785852667 187.71372500777795 34.30000415881566
86.9704282332726 191.9793879205171 18.70497127675408
97.75314987687875 186.0801313327553 34.17946645634123
89.55655567163497 176.49639953503464 32.4706180937437
84.61950306485281 183.23204122170415 36.514692584250334
99.57916560429534 200.1710988089698 22.79153265040255
94.58942053545258 203.59140103169966 38.19236083483295
87.07278358140177 198.50537441911217 34.041914499400576
88.46946523541678 200.06211419082658 27.50685801337882
98.12616488567349 186.74596677883966 22.354728922197506
92.2604484708517 183.42336608205505 37.282998114434015
90.05660667955046 181.13543576455368 37.244492115734474
82.09019998755197 181.09662269528715 21.54891830472465
85.03035807144876 191.4087447965654 39.45918701176732
92.35393593985123 181.8564935475008 17.283937726222778
99.94828764671266 188.30527061856347 32.22979448023793
83.67720166089836 192.1890428648341 29.023666285906312
98.67998005484962 186.89748056231875 26.457821643190652
93.10009668703597 179.57931006339425 19.908055592002732
102.76982915355153 194.4664050458057 35.24417315021046
93.25881188090281 177.0024555036265 29.445917224333492
94.39227410145793 205.87694436236671 27.95394256837133
90.06278260841235 201.16690652260414 25.861951529230865
86.0141889171477 196.36664517754713 37.43741497176595
97.63564925123524 201.40144027339477 22.619768008127522
95.45970841402332 206.85621732155357 30.134204036991207
104.17783209197137 199.0094568292877 35.395798879595894
93.16520114725175 177.14332059271115 25.921131510377524
101.46856094505533 203.26166686607442 36.73149645303046
99.30382421258457 206.85023889320664 31.1001640559207
81.67017880074513 182.30012917472888 23.252445645504437
88.95494818017828 199.94274198454272 37.8177662646499
98.14544751504404 182.46404857314872 26.891530086307984
99.01946602028431 189.0383834053952 21.858197891866624
91.12178566479243 193.21091382207382 42.91827027960597
103.99259853441599 195.22562419233924 29.53041458359684
84.990922966502 187.93690520447052 17.199559560406033
80.91278213149567 185.68813433646866 28.043184259281524
89.03536804148453 180.90694626511595 15.612337084895325
89.58874928374676 201.84475398736484 35.95361898840367
87.61404667902036 186.16962633338937 39.69633004701012
102.74055709592193 193.36572938099079 33.13566687794912
86.13746887576012 185.31075697420385 38.33530021313439
81.31331731257134 183.43161439964504 27.57420363787306
91.03627602635358 194.18443241296046 18.4992394256837
97.21248446466834 197.71272966768785 39.21026092385471
85.26964535846132 195.35299043402136 31.87494021809831
93.6773843397377 191.9332004349568 41.837585031344396
87.86013983496143 195.45456354930374 21.262308373185835
85.1334855236947 196.1024712291285 35.12227246584101
85.29225468861664 194.59348561933706 29.176487789452736
82.07887217831254 179.1502852717274 31.791685822357035
97.83575912495616 181.62920102671632 23.40570274690776
104.45622150554743 196.52257236404122 31.264027327308412
89.25196033963167 184.32631392309588 38.9066562289316
98.6057533159006 200.1125512778775 39.6752534731468
96.5222391623233 190.7348948380504 19.00731078058651
90.37992495331085 178.2598981692776 35.376378288781346
89.31625092713938 195.89253363223887 41.95998831933058
92.29895993300029 202.64411389570768 24.84911730100104
91.61714901954434 176.78148188282182 31.21996278107016
93.23271968785905 206.13348188771988 31.559675616594205
88.0730207824506 196.78940451560146 22.63701189573253
89.49797180463925 201.97838817552042 29.170566145883342
91.35139364170021 189.82231072304995 42.0662652048956
84.62376760128915 177.80516671111465 35.674179917876
97.32940120150556 207.09482605104083 30.606998465843468
98.57325088970478 182.01622166124625 29.17613075034117
98.07717002757983 195.7522457427559 38.35821199022761
87.29325652138775 197.9202907148313 36.85085561178247
93.93645739714393 201.07940437286317 38.67012735821109
93.7868428554548 187.76327049882013 38.412562234317306
89.37835049822144 187.42691509059944 40.64457625478671
93.64452182460118 206.2552207885537 29.664110003075063
88.70984114275164 198.8317261791151 24.717118992019657
94.5047345209808 190.95333372248263 17.824211655416054
94.8470580785082 183.23241599754815 35.75981976966251
86.58826253390994 193.68402647296253 41.45092753953913
86.2547719702776 196.32550354646662 27.619135515514778
91.76429051966475 186.1535333710922 38.61255867262054
92.05877525372628 188.2090957014473 39.92733398110431
103.09047324303216 194.7701925895553 26.29307010894037
POLYGONS 730 2920
3 235 0 246
3 287 10 37
3 24 34 10
3 10 34 37
3 33 35 36
3 33 36 31
3 34 32 36
3 246 0 264
3 6 7 231
3 11 7 6
3 0 7 300
3 300 7 11
3 10 4 300
3 300 11 15
3 300 15 10
3 18 11 6
3 15 11 18
3 15 26 24
3 15 18 26
3 31 25 29
3 251 35 27
3 36 30 31
3 36 32 30
3 37 35 251
3 34 35 37
3 34 36 35
3 4 264 0
3 4 287 264
3 300 4 0
3 24 10 15
3 32 34 24
3 10 287 4
3 365 364 356
3 357 339 364
3 332 349 28
3 364 280 356
3 28 27 33
3 365 28 349
3 27 28 356
3 356 28 365
3 280 251 356
3 19 361 295
3 295 280 364
3 267 275 287
3 267 280 361
3 339 295 364
3 276 275 361
3 275 267 361
3 246 264 255
3 361 280 295
3 9 337 203
3 364 365 357
3 365 349 357
3 25 139 29
3 139 332 29
3 287 275 264
3 267 37 251
3 264 275 255
3 251 280 267
3 255 275 276
3 246 317 1
3 37 267 287
3 276 282 255
3 19 276 361
3 27 356 251
3 33 27 35
3 2 302 5
3 3 302 9
3 9 302 1
3 28 29 332
3 7 0 2
3 31 29 33
3 33 29 28
3 7 2 231
3 231 2 5
3 2 0 235
3 1 302 235
3 235 302 2
3 235 246 1
3 9 317 337
3 317 9 1
3 353 23 21
3 302 3 5
3 3 273 5
3 23 353 265
3 265 353 25
3 332 319 349
3 3 318 273
3 273 135 5
3 265 30 217
3 5 135 231
3 8 294 203
3 8 318 294
3 294 318 3
3 8 209 318
3 318 209 229
3 8 341 209
3 209 341 229
3 208 341 8
3 229 341 206
3 6 205 18
3 6 154 205
3 205 326 18
3 326 26 18
3 206 341 204
3 290 191 188
3 229 187 318
3 318 187 273
3 241 187 229
3 9 294 3
3 203 294 9
3 180 215 16
3 26 326 304
3 326 205 199
3 176 192 23
3 17 195 175
3 304 176 26
3 26 176 217
3 206 173 229
3 229 173 241
3 241 172 187
3 290 169 191
3 169 184 150
3 145 199 205
3 273 172 135
3 273 187 172
3 200 165 17
3 165 195 17
3 199 320 338
3 338 320 17
3 226 242 102
3 102 242 214
3 152 162 154
3 184 141 150
3 311 268 207
3 257 338 136
3 207 158 311
3 207 192 158
3 158 192 304
3 184 156 220
3 184 169 156
3 156 169 290
3 220 200 184
3 220 165 200
3 162 145 154
3 154 145 205
3 200 141 184
3 152 154 231
3 30 32 217
3 32 26 217
3 158 304 257
3 366 177 162
3 177 320 162
3 191 150 174
3 191 169 150
3 23 147 21
3 23 192 147
3 147 192 207
3 191 174 146
3 162 320 145
3 145 320 199
3 150 144 174
3 172 194 152
3 194 366 152
3 366 162 152
3 174 144 241
3 241 144 172
3 21 330 353
3 21 340 330
3 330 340 212
3 326 199 257
3 257 199 338
3 204 74 206
3 137 146 74
3 74 146 206
3 353 330 244
3 228 142 212
3 244 330 142
3 142 330 212
3 236 340 240
3 240 340 21
3 141 366 194
3 194 144 141
3 141 144 150
3 147 207 240
3 240 21 147
3 31 30 25
3 30 265 25
3 366 200 177
3 192 176 304
3 173 206 146
3 146 174 173
3 200 366 141
3 173 174 241
3 227 188 167
3 167 188 137
3 217 176 265
3 265 176 23
3 304 326 257
3 244 252 139
3 259 298 362
3 32 24 26
3 343 138 362
3 259 362 138
3 191 137 188
3 191 146 137
3 334 20 259
3 6 231 154
3 311 158 136
3 136 158 257
3 152 135 172
3 152 231 135
3 16 134 224
3 144 194 172
3 283 324 22
3 220 131 196
3 25 244 139
3 25 353 244
3 196 127 220
3 195 165 127
3 127 165 220
3 320 177 17
3 17 177 200
3 332 125 319
3 332 139 125
3 125 139 252
3 196 131 124
3 124 131 72
3 359 293 307
3 245 281 114
3 245 306 281
3 253 143 219
3 143 129 219
3 348 293 254
3 214 123 117
3 348 116 293
3 293 116 307
3 348 128 116
3 116 128 307
3 212 355 228
3 228 355 223
3 291 216 248
3 212 340 216
3 219 129 167
3 167 129 227
3 214 117 115
3 115 117 133
3 213 124 114
3 114 124 72
3 221 196 124
3 118 112 22
3 248 115 291
3 128 344 307
3 244 142 252
3 252 142 228
3 226 313 201
3 236 268 313
3 313 268 201
3 195 97 175
3 175 97 218
3 227 309 188
3 309 290 188
3 189 221 110
3 114 109 245
3 114 72 109
3 129 108 227
3 245 109 108
3 108 109 227
3 311 136 218
3 201 163 226
3 163 242 226
3 113 189 163
3 163 201 113
3 157 110 213
3 226 102 256
3 256 102 248
3 175 218 136
3 279 106 130
3 279 363 106
3 106 363 335
3 117 105 133
3 133 105 118
3 117 346 105
3 105 346 118
3 313 226 256
3 256 236 313
3 223 316 132
3 201 268 218
3 218 268 311
3 335 363 180
3 180 363 215
3 245 103 306
3 245 344 103
3 103 344 128
3 216 159 248
3 216 340 159
3 159 340 236
3 143 307 344
3 344 129 143
3 212 216 355
3 355 216 291
3 355 291 104
3 104 223 355
3 344 245 108
3 108 129 344
3 214 115 102
3 102 115 248
3 283 151 324
3 354 316 151
3 151 316 324
3 310 260 306
3 306 260 281
3 310 157 260
3 260 157 281
3 114 281 213
3 213 281 157
3 283 119 292
3 292 119 130
3 221 94 196
3 94 127 196
3 215 100 359
3 359 100 293
3 215 363 100
3 118 99 133
3 324 104 99
3 99 104 133
3 331 130 106
3 106 335 331
3 236 240 268
3 268 240 207
3 195 127 97
3 97 127 94
3 256 248 159
3 159 236 256
3 262 98 219
3 219 98 253
3 262 211 98
3 98 211 253
3 314 110 157
3 218 97 113
3 97 94 113
3 201 218 113
3 354 292 334
3 189 94 221
3 189 113 94
3 156 290 131
3 131 220 156
3 346 358 122
3 122 358 306
3 346 310 358
3 358 310 306
3 215 347 16
3 253 211 347
3 175 338 17
3 175 136 338
3 279 100 363
3 227 109 309
3 309 109 72
3 132 138 343
3 307 143 359
3 359 143 253
3 293 279 254
3 293 100 279
3 119 271 254
3 22 112 271
3 253 347 359
3 359 347 215
3 213 221 124
3 213 110 221
3 110 314 189
3 324 99 22
3 22 99 118
3 117 278 346
3 346 278 310
3 117 123 278
3 278 123 310
3 279 130 254
3 254 130 119
3 319 182 343
3 319 125 182
3 182 125 252
3 223 181 316
3 316 181 324
3 223 104 181
3 181 104 324
3 112 111 122
3 122 111 346
3 112 118 111
3 111 118 346
3 228 95 252
3 132 343 95
3 214 242 123
3 242 314 123
3 224 270 16
3 270 180 16
3 8 232 208
3 208 232 222
3 8 203 232
3 182 252 95
3 95 343 182
3 232 203 230
3 198 301 13
3 123 351 310
3 310 351 157
3 123 314 351
3 351 314 157
3 234 329 204
3 211 262 329
3 329 262 204
3 234 360 208
3 208 360 341
3 234 204 360
3 360 204 341
3 354 308 138
3 138 308 259
3 354 334 308
3 308 334 259
3 305 312 12
3 305 178 312
3 254 271 348
3 348 271 112
3 133 185 115
3 115 185 291
3 133 104 185
3 185 104 291
3 334 170 331
3 331 170 130
3 334 292 170
3 170 292 130
3 137 262 167
3 167 262 219
3 22 271 283
3 283 271 119
3 189 314 163
3 163 314 242
3 306 103 122
3 122 103 128
3 348 160 128
3 128 160 122
3 348 112 160
3 160 112 122
3 138 153 354
3 354 153 316
3 138 132 153
3 153 132 316
3 283 292 151
3 151 292 354
3 132 140 223
3 223 140 228
3 132 95 140
3 140 95 228
3 126 285 13
3 16 333 134
3 134 333 211
3 16 347 333
3 333 347 211
3 295 296 19
3 295 339 296
3 327 89 339
3 327 289 89
3 296 339 89
3 89 91 296
3 13 301 87
3 13 86 198
3 13 285 86
3 86 285 277
3 335 180 301
3 193 85 225
3 322 87 85
3 85 87 225
3 222 84 208
3 233 234 84
3 84 234 208
3 230 303 299
3 14 210 303
3 126 322 82
3 93 322 85
3 274 179 92
3 92 179 193
3 179 80 193
3 225 79 193
3 224 92 79
3 79 92 193
3 78 92 224
3 285 126 77
3 93 315 81
3 81 315 297
3 93 80 315
3 315 80 297
3 93 81 75
3 75 81 183
3 211 329 134
3 230 73 232
3 232 73 222
3 230 299 73
3 73 299 222
3 290 72 131
3 290 309 72
3 298 277 161
3 204 262 74
3 74 262 137
3 284 82 101
3 289 77 250
3 250 77 284
3 305 69 178
3 178 69 90
3 69 288 90
3 91 68 350
3 289 250 68
3 68 250 350
3 299 303 67
3 67 303 210
3 78 233 258
3 233 66 234
3 134 329 66
3 66 329 234
3 288 65 90
3 350 250 64
3 64 250 284
3 284 63 82
3 82 63 126
3 284 77 63
3 63 77 126
3 75 183 101
3 101 82 75
3 62 67 210
3 14 61 210
3 178 197 61
3 297 60 81
3 70 90 59
3 288 76 342
3 342 76 19
3 297 80 272
3 66 233 78
3 297 272 166
3 202 272 274
3 239 258 58
3 58 258 233
3 299 67 323
3 350 247 91
3 350 65 247
3 247 65 288
3 289 68 89
3 89 68 91
3 193 237 85
3 85 237 93
3 193 80 237
3 237 80 93
3 60 297 166
3 166 71 60
3 239 168 258
3 258 168 274
3 239 202 168
3 168 202 274
3 14 303 56
3 56 303 230
3 239 238 202
3 202 238 88
3 239 323 238
3 238 323 88
3 327 55 289
3 285 77 55
3 55 77 289
3 296 91 342
3 342 19 296
3 342 91 247
3 247 288 342
3 285 55 277
3 93 328 322
3 322 328 82
3 93 75 328
3 328 75 82
3 335 54 331
3 331 54 198
3 335 301 54
3 54 301 198
3 180 53 301
3 225 87 53
3 53 87 301
3 13 190 126
3 126 190 322
3 13 87 190
3 190 87 322
3 71 149 62
3 62 149 88
3 71 166 149
3 149 166 88
3 83 336 101
3 101 336 284
3 83 64 336
3 336 64 284
3 83 266 65
3 65 266 90
3 83 59 266
3 266 59 90
3 269 161 357
3 198 86 20
3 20 86 277
3 312 178 61
3 61 14 312
3 350 50 65
3 65 50 83
3 350 64 50
3 50 64 83
3 249 52 12
3 52 305 12
3 319 51 349
3 81 120 183
3 183 120 261
3 81 60 120
3 120 60 261
3 70 107 90
3 90 107 178
3 70 197 107
3 107 197 178
3 70 49 261
3 261 49 183
3 70 59 49
3 49 59 183
3 277 48 161
3 161 48 327
3 277 55 48
3 48 55 327
3 71 62 47
3 47 62 210
3 272 46 166
3 166 46 88
3 272 202 46
3 46 202 88
3 56 337 148
3 148 14 56
3 183 243 101
3 101 243 83
3 183 59 243
3 243 59 83
3 14 121 312
3 312 121 12
3 14 148 121
3 121 148 12
3 197 70 96
3 96 70 261
3 298 45 362
3 269 51 45
3 45 51 362
3 12 44 249
3 249 44 317
3 12 148 44
3 20 43 259
3 259 43 298
3 20 277 43
3 43 277 298
3 349 42 357
3 357 42 269
3 349 51 42
3 42 51 269
3 331 41 334
3 334 41 20
3 331 198 41
3 41 198 20
3 305 40 76
3 76 40 282
3 305 52 40
3 40 52 282
3 269 45 161
3 161 45 298
3 47 197 96
3 96 71 47
3 88 39 62
3 62 39 67
3 88 323 39
3 39 323 67
3 71 38 60
3 60 38 261
3 71 96 38
3 38 96 261
3 323 57 299
3 299 57 222
3 323 239 57
3 19 263 276
3 276 263 282
3 19 76 263
3 263 76 282
3 246 352 317
3 317 352 249
3 246 255 352
3 352 255 249
3 282 171 255
3 255 171 249
3 282 52 171
3 171 52 249
3 84 222 58
3 58 233 84
3 58 222 57
3 57 239 58
3 288 345 76
3 76 345 305
3 288 69 345
3 345 69 305
3 92 321 274
3 274 321 258
3 92 78 321
3 321 78 258
3 317 44 337
3 337 44 148
3 362 186 343
3 343 186 319
3 362 51 186
3 186 51 319
3 274 272 179
3 179 272 80
3 337 164 203
3 203 164 230
3 337 56 164
3 164 56 230
3 197 155 61
3 61 155 210
3 197 47 155
3 155 47 210
3 134 286 224
3 224 286 78
3 134 66 286
3 286 66 78
3 270 224 79
3 79 225 270
3 270 225 53
3 53 180 270
3 357 325 339
3 339 325 327
3 357 161 325
3 325 161 327
