# vtk DataFile Version 3.0
A great-looking cell
ASCII
DATASET POLYDATA
POINTS 234 double
239.56955355003103 325.83769694428105 17.797252545698484
237.68708966159582 330.8411147017221 9.057372395057735
236.80478775473134 333.06141798760495 5.745565303415914
226.22232785283103 332.6858514873867 11.474429064818423
231.66573027662474 330.2704093657178 9.578506112916427
240.73707954904424 333.97001780657627 25.966992637384074
233.19897756926963 331.19988833218684 6.845809254288491
229.42444740700302 335.3986594013454 26.487120216004133
229.99137383186326 342.80671998481364 16.001885115557233
237.7557643939477 338.9781246030919 22.049163174524196
239.32912934637167 338.19971610726304 16.13718100661465
239.2229655882712 335.5194531248769 8.346650636845798
223.5173160153918 336.408379051534 8.283397333835381
226.0486797091196 333.7820351778837 20.438581129554553
230.5243789275212 330.54554899927166 23.83270481242221
234.11060866799818 330.5845469541484 9.028914624946488
228.6776025031226 330.5380900267325 15.46916690161691
234.22825841290978 328.518160145403 20.05104363101649
229.0999408127655 330.4497984940758 11.80056958456362
231.47484319499634 329.99623370960904 15.887634979851944
232.97583524843924 330.3655021214864 19.798139868687603
229.78838577379855 341.6159140984622 23.319824419574495
232.75063508587186 330.29690054006636 17.5252793715257
232.48746909445993 330.04532249937114 14.284034309967408
226.1820854770431 332.32544312069507 14.828166696838698
228.20326598507077 330.97652439838623 20.191531465598384
226.8563277840368 342.4120408249668 8.141043040126284
229.27988210128868 337.8674084189436 26.660295829831195
235.78964066004943 340.8011661599518 6.799482500241703
224.5724742712731 340.4292954162931 4.132984763652768
224.9442876004419 339.6656079883937 17.1950646736183
226.20806816669298 337.0432240856636 0.6652442772990534
226.74160088118353 333.94798858448604 4.740456106766202
225.2035948004733 338.6332622039271 2.2525050480218454
232.3378129973818 336.7724909014744 -1.7052655525986034
227.29222147467016 342.9458217245124 11.908887065675247
231.42220199294138 331.31156052983727 25.939631531434884
237.30924590096396 337.379426567994 3.9002284182709532
223.57620170820363 339.3673811515677 9.120145967960966
229.5554185827672 330.65662249733396 9.372990411003226
237.54604950400338 327.3353329071853 12.134680266756302
229.3624272413827 342.3217097010209 21.26013504561214
229.3761477811179 334.2474473424707 1.1230838211213163
233.49161588491762 338.52740931774 -0.18778214758269124
233.82477581169314 341.2548775275152 21.962220160801504
223.97099663696625 336.3978747042211 15.439943352045264
230.44015810385466 334.9995114997997 -1.6244370382676987
232.22860751120427 342.4025063776843 10.728387676554666
227.0914272163531 338.8943957411656 -0.40837626875540883
225.44165246243446 342.1466099091689 10.049325345984622
227.2147404162361 341.3355063109444 21.52797397816438
224.99328469970612 335.1145868039336 5.684623803297389
234.19873656190939 332.629651624018 4.223584471793473
239.08197877923263 335.1378477951767 24.72469298972952
224.65114747443732 334.26379987358575 17.102793291690865
226.79465633001934 341.49091494550385 3.337819069756391
236.03352987946764 333.6226357155519 25.483486385590748
226.53723888759697 341.5225725232198 16.691397787910823
235.41183240126335 341.77330635049617 11.478949231027057
234.11305769559067 333.2973585472949 25.216056604100253
231.3010924230018 334.0271274609256 0.3140476609451517
243.28308965668708 331.39257487656477 22.791832335621187
238.17656648682473 339.74116091370075 19.06198334310312
228.4974482141974 342.61508389823905 6.385116178224098
235.54028886012063 338.6720969439624 2.6861306958411393
231.7625337388237 341.9429950160978 20.66485303005812
235.74702822436257 331.680204429933 7.884326637669094
242.82653489724987 329.76624375841095 11.814789384565444
235.50759794174124 327.38680810446573 14.190774044628277
238.39758553411534 329.6533396334402 24.21211851121959
230.64790732305883 330.1799195873173 21.107042517143032
229.20414323356908 341.04032969672096 0.7428539888894958
226.8249757755413 341.59164443530756 19.208280858656586
243.44498207591784 330.1431946776379 13.681339262299135
231.57148880438032 332.08470584930495 4.814668311072051
232.7115172799451 330.74666955981405 22.219217017311966
228.87295671389398 342.3966945634351 19.121442911662857
243.6688170008169 332.7688374235292 18.923321292848048
231.82786641888708 333.28112715606693 2.277957438372576
226.7675699619604 331.8223276792517 17.696892976382912
223.84412464698295 338.3399735567181 5.542155896340579
241.82910595872073 334.65034084911815 11.94282432678288
227.2474649415038 333.19966584484393 6.962199104205705
233.39911224475276 335.12063996486717 0.21286835003836635
242.84509490747047 333.81500606080516 14.403071470156084
230.87890706184757 340.43786588008646 25.021189045456858
242.762580918564 327.1659931180626 19.872819323719423
237.32083159604178 326.3120035947274 16.684119384565694
230.9626925400691 342.2876685975693 18.280227661900806
226.33383338033462 335.17530002034766 2.460205364480413
229.83218453721057 331.1877504620078 7.065074485394819
229.79180736665248 342.0918317260478 3.540474629802669
225.8528890151607 339.4707082381563 21.448550513933643
236.2379142994226 341.6097417588783 17.492115394248295
237.2527375205722 331.7954825354507 24.95221268132321
225.40872737304375 342.00128392629546 13.377619177373967
235.84790512166842 330.4731545286812 10.0535009118633
224.7290981993133 334.611717428377 13.890890663709023
239.3895688389443 331.6367321336248 25.687183965754137
227.16904056862776 335.5357135662979 23.70278905143997
235.2361787390319 331.8751096863744 24.647506162180964
230.73780609362703 330.1104875782422 13.953800342994802
224.2875862497737 335.51836792899945 19.308687697106187
242.31645611803455 329.1624801659355 24.154296509453506
239.04363090585602 326.2565839610043 21.42796559120196
224.57057069043097 337.4628543425074 17.76009469819903
235.68157188569782 328.9040688626153 11.767313802700604
242.47167048525725 334.74661374903167 18.767453377871323
229.85549226184312 342.9273464533771 12.355661001467286
241.8703105004418 335.4760991422886 16.04562151852723
236.7922930349744 326.52725417993975 21.574300140573396
234.13452017969274 338.6242098930768 24.609969833946018
224.09164289011352 335.5937235208067 11.099257139972773
237.30926977149008 339.30818465230533 5.680090276000088
243.45543807450818 331.5309069123086 15.132265272210981
240.43574469733457 333.95102633024936 9.322549340105278
231.5701625854289 338.1833926208442 25.934322145723083
227.94827527939114 331.6444631150514 9.238486158444926
232.68748590725036 342.1281723662296 13.78930593273515
228.13768524148452 336.3236793255648 -0.020417130721211603
237.94370820911504 340.5677903826867 15.783589759846487
228.3898454026166 330.59577253731504 17.92232845966128
241.18628347795934 329.3573202200848 10.722466794829716
233.87264225208864 328.6740710389319 18.179538501379184
230.92473032480854 342.6012052371418 8.424237375304296
239.7791420021189 326.7487706211735 12.914313405060195
241.63709442981292 327.7347635906633 11.87997425641332
225.1905535189527 341.4906438348377 6.573482946294354
232.1209099919227 333.55148742224463 26.244919059558786
237.4149335282207 340.9348135253803 13.364800071779062
225.43152485111298 334.29590921090784 8.763129882727592
240.11676048137448 336.61940821157884 18.306829186995376
237.56292216015962 328.95691495119746 10.280568268898131
240.60356633338088 335.2820197081958 23.898268682817548
235.05262864247854 331.97215912774453 6.104945688812571
239.50738397507504 337.66568374221623 11.607890520980781
236.29424906356059 337.66558788830406 23.773006056514937
242.501401822652 333.953771531912 23.666657158412377
239.55061474035196 331.87517718344355 8.639576763793198
233.00238029692522 331.735837983225 24.434394601382227
240.66940809212247 336.3725083280801 11.900710869661646
232.46934169915917 340.2056569233739 23.40620788900827
226.4135983871314 338.984329474566 23.630260192112623
243.76141865353176 329.1268444528557 19.45680117769731
235.6213307178426 328.16709272886567 23.78223345216116
237.98649668047673 326.38414342699764 14.181113425666203
236.25176102320358 330.4318774414205 24.190422146895934
228.4478840384687 342.8757563066838 9.628366614326309
230.38652343312597 342.8522740739135 10.275460784827848
235.49276587244145 326.88219497146156 19.15718770506823
243.09727556106571 328.22655597526165 13.508985191889927
237.00914726619965 335.13473131478145 24.063293153880934
238.20928202993716 333.6073572242552 25.38324553962201
237.0472901094829 340.6361752980448 21.285552068834377
223.32229484120452 337.331908145959 10.075641527505871
238.96964839152045 339.0963125758526 13.657816587176766
227.68578623956168 340.9536885207598 23.834521956336634
228.53603598427426 333.9299614579449 24.747346082081755
241.71865454816614 326.3922995032245 17.674085903253754
232.02169441855725 330.0989322206716 12.338565830253959
240.28604676658117 327.8480120106871 24.88358357191023
240.4939097558365 336.6141985641532 13.931238473037899
240.51457491655856 326.02409674883006 19.82522229495001
234.9091587573291 327.3676714595421 16.752917766692455
234.0238695235223 341.81881323697877 8.05989645463411
227.9846388575842 332.24100354511216 23.21627431557975
234.13399170442815 333.5714574964767 2.031798443643763
227.50849764041803 337.4891397310773 25.845545698628214
241.08004978917896 335.5503481341028 21.39873625202024
241.64210641658602 331.65058439355045 10.342211877089461
231.76073270033493 341.9326281832653 5.610480978399589
224.2698550146859 339.1407671627901 14.766445533869565
243.2247398416723 328.9794601189156 21.616666831038497
241.35498840054586 326.7818117349044 22.499679124563173
226.71714511786232 332.96186803897683 9.111335236015496
239.5555779699954 328.2993118661459 11.239210880234577
241.60782563750323 326.89041601014213 13.754329970819763
238.06165120890893 325.95126563644834 19.427151640192633
244.05640637337555 329.1645259766855 15.41669776766127
234.15076543716074 335.7280803276532 25.20197996136288
231.88357747908657 335.7388203049876 26.215164826932654
243.20983505819126 333.4658788228129 21.02762802672017
240.3595374069925 336.6355803078409 16.096190649829943
233.84804029467298 329.34883050105856 15.787604085832477
230.4264081521056 330.2242775282451 18.277928071199387
227.7417351112819 342.77379637981 14.127678084114365
231.45937345872824 339.96001842471355 0.18121993375858603
233.94785472716526 330.20385741353056 11.066410242690205
240.18159570906394 336.0774545574332 10.249601994579756
230.23973863649954 338.2619964853942 -0.9783561006731656
243.5903218544234 333.39949071895666 16.771666737098244
237.8569483385832 331.9455983332761 7.482434410721398
238.93290106729063 336.7544991444982 23.23069322437467
235.02464174484226 327.64868860802864 21.331877639763146
235.20146693985856 336.8717708205185 0.880498647419567
229.18981074664788 330.71958180400543 22.151692548995634
238.8431705856211 333.6853361175113 7.43234022513946
240.48616810871033 329.82836337066965 25.550932525883578
225.6064549067635 339.8877240735521 19.32103063024035
240.17402934744567 325.9734266414828 15.421558522959074
234.18145081151025 329.3333026874828 21.720742639999845
238.72001974394863 337.98239857571673 8.715062159404416
225.13256247104127 337.2271950699428 21.04738652795242
242.7900196329218 326.9585973476219 15.48181035826564
234.56641224070486 340.7167704378833 5.132197589676881
238.0967888133473 339.92964828802513 11.177939813456724
233.21058488503638 341.9347937488322 17.330771546965263
236.88824905252494 340.66697955459875 8.566812555051209
244.00814946051028 330.73399206100464 17.656194819308762
238.2703054423053 335.99098945874425 5.836257025951837
234.88280384145583 330.8094364348827 22.96253836873278
243.55790563240467 331.076680346816 20.247321017596658
226.79014358131542 340.33539401509734 1.2373023622900075
224.1012333742792 340.31691643449295 11.851747871483363
243.7296481284631 327.9613886719876 17.623638676613037
242.6762139874419 331.9236139287961 12.887004124721212
227.29703904484703 331.1599090163393 13.363443642591383
236.12153379776353 335.1585510866107 2.7879744977763066
223.32914739207786 338.11328375948784 11.791716481289349
241.59396233677023 331.6480901865618 24.79329036785462
235.3505274961243 341.8573982117427 20.26539921925046
235.72125568146464 340.75557769090335 23.390309996768384
232.5233356580779 340.94869596912304 2.2885207230575637
239.5557308696261 330.1139792952048 9.974749619891304
229.78396603800513 332.64494435876827 25.396961393736763
228.7630057749964 339.8946486642322 25.625042232508775
239.25421264450017 337.5568558172435 20.816875133758113
228.83625321984107 332.935362462565 4.043892125610622
238.46478698776343 326.8985856666066 23.617970155269493
223.81208281388058 336.7222021865278 13.427276064399045
234.20976604715773 329.7899166486848 13.358702860907377
224.59580121808358 336.63618366051134 3.7682473968067765
235.60516674061878 341.94859589937573 14.874521056885186
242.01953155834474 335.3449879053782 14.035486297385647
POLYGONS 464 1856
3 68 145 87
3 199 87 145
3 68 87 163
3 87 0 177
3 125 40 175
3 68 40 145
3 125 175 126
3 132 40 106
3 132 175 40
3 199 145 125
3 145 40 125
3 40 68 106
3 177 149 87
3 163 183 68
3 68 183 230
3 149 177 110
3 110 193 149
3 183 23 230
3 123 183 163
3 230 159 187
3 187 159 4
3 187 106 230
3 4 90 6
3 4 15 187
3 18 4 159
3 0 162 177
3 19 23 183
3 106 68 230
3 184 70 25
3 20 75 70
3 106 187 96
3 19 101 23
3 19 16 101
3 101 16 18
3 230 23 159
3 23 101 159
3 159 101 18
3 22 20 184
3 183 22 19
3 19 22 184
3 20 22 123
3 22 183 123
3 184 16 19
3 123 17 20
3 163 149 123
3 123 149 17
3 75 210 139
3 6 66 15
3 15 4 6
3 228 144 110
3 66 96 15
3 100 146 94
3 177 104 110
3 110 104 228
3 69 144 228
3 104 177 162
3 193 200 17
3 193 144 200
3 96 132 106
3 210 144 146
3 1 132 96
3 96 66 1
3 15 96 187
3 200 144 210
3 110 144 193
3 184 20 70
3 223 1 138
3 131 107 109
3 199 176 203
3 17 149 193
3 203 178 214
3 168 107 131
3 199 0 87
3 144 69 146
3 146 69 94
3 0 158 162
3 203 214 158
3 2 191 66
3 138 1 191
3 191 1 66
3 122 223 169
3 169 223 138
3 138 191 196
3 196 191 2
3 94 69 98
3 98 69 197
3 162 158 86
3 86 158 214
3 203 158 199
3 199 158 0
3 228 160 69
3 81 84 215
3 197 160 103
3 103 160 173
3 10 182 161
3 161 182 109
3 10 131 182
3 182 131 109
3 69 160 197
3 175 122 126
3 175 223 122
3 139 210 100
3 210 146 100
3 138 196 115
3 115 196 11
3 17 200 20
3 1 223 132
3 132 223 175
3 104 162 173
3 162 86 173
3 178 208 214
3 86 172 173
3 172 211 61
3 214 143 86
3 211 172 143
3 143 172 86
3 208 211 143
3 143 214 208
3 215 84 114
3 215 169 81
3 81 169 115
3 173 172 103
3 103 172 61
3 163 87 149
3 107 190 109
3 190 84 109
3 211 181 61
3 84 233 109
3 109 233 161
3 84 81 233
3 233 81 161
3 115 169 138
3 94 98 152
3 152 98 5
3 61 181 137
3 84 190 114
3 114 190 208
3 190 77 208
3 208 77 211
3 190 107 77
3 211 77 181
3 181 77 107
3 20 200 75
3 75 200 210
3 70 75 14
3 75 139 14
3 176 150 203
3 150 178 203
3 67 73 150
3 215 114 73
3 67 126 122
3 67 150 126
3 126 150 176
3 215 67 169
3 215 73 67
3 155 120 10
3 122 169 67
3 178 114 208
3 126 176 125
3 125 176 199
3 61 219 103
3 61 137 219
3 219 137 5
3 150 73 178
3 178 73 114
3 62 131 10
3 131 226 168
3 9 192 226
3 226 192 168
3 161 155 10
3 161 135 155
3 168 133 137
3 137 133 5
3 168 192 133
3 62 10 120
3 62 9 226
3 226 131 62
3 56 152 151
3 56 151 179
3 94 56 100
3 98 219 5
3 192 53 133
3 133 53 5
3 192 151 53
3 152 5 53
3 53 151 152
3 56 94 152
3 173 228 104
3 173 160 228
3 103 219 197
3 197 219 98
3 100 59 139
3 139 59 128
3 59 179 128
3 107 168 181
3 181 168 137
3 16 79 24
3 25 13 79
3 155 135 205
3 201 205 135
3 2 209 196
3 196 209 11
3 11 188 115
3 115 188 81
3 24 216 16
3 16 216 18
3 24 3 216
3 216 3 18
3 201 11 209
3 205 129 155
3 205 58 129
3 129 58 232
3 220 93 206
3 120 232 93
3 93 232 206
3 82 227 90
3 58 118 232
3 118 108 8
3 232 118 206
3 206 118 8
3 9 136 192
3 179 151 136
3 136 151 192
3 62 153 9
3 9 153 221
3 62 220 153
3 153 220 221
3 24 97 3
3 179 59 56
3 56 59 100
3 227 74 90
3 90 74 6
3 74 52 6
3 57 76 8
3 58 47 118
3 118 47 108
3 155 129 120
3 120 129 232
3 13 54 79
3 79 54 24
3 206 65 220
3 112 3 97
3 221 136 9
3 97 24 54
3 95 171 57
3 124 47 164
3 164 47 58
3 52 217 2
3 2 217 209
3 6 134 66
3 66 134 2
3 6 52 134
3 134 52 2
3 3 117 18
3 117 82 90
3 135 188 201
3 201 188 11
3 164 170 124
3 81 140 161
3 161 140 135
3 81 188 140
3 140 188 135
3 209 113 201
3 142 202 99
3 99 202 13
3 25 165 13
3 99 13 165
3 179 111 116
3 179 136 111
3 111 136 221
3 205 207 58
3 58 207 164
3 205 201 207
3 7 224 128
3 224 165 14
3 207 201 113
3 164 204 170
3 204 113 64
3 141 65 21
3 25 121 184
3 184 121 16
3 25 79 121
3 121 79 16
3 105 202 198
3 76 88 8
3 8 88 206
3 76 65 88
3 88 65 206
3 12 80 51
3 12 130 112
3 12 51 130
3 130 51 82
3 227 78 74
3 74 78 52
3 198 72 57
3 57 72 76
3 198 50 72
3 72 50 76
3 127 63 55
3 124 170 63
3 54 45 97
3 54 105 45
3 45 105 171
3 64 43 222
3 89 42 227
3 42 78 227
3 108 185 8
3 95 57 185
3 185 57 8
3 21 41 50
3 50 41 76
3 21 65 41
3 41 65 76
3 49 127 38
3 14 195 70
3 70 195 25
3 14 165 195
3 195 165 25
3 116 180 179
3 179 180 128
3 116 7 180
3 180 7 128
3 142 156 50
3 50 156 21
3 142 225 156
3 156 225 21
3 198 92 50
3 50 92 142
3 198 202 92
3 92 202 142
3 64 37 217
3 217 37 209
3 64 113 37
3 37 113 209
3 111 221 141
3 141 116 111
3 128 36 139
3 139 36 14
3 128 224 36
3 36 224 14
3 95 213 171
3 171 213 218
3 95 49 213
3 124 148 47
3 47 148 108
3 124 147 148
3 148 147 108
3 95 35 49
3 95 185 35
3 35 185 108
3 222 170 204
3 204 64 222
3 147 49 35
3 35 108 147
3 38 218 213
3 213 49 38
3 80 12 38
3 38 127 80
3 218 229 171
3 218 112 229
3 229 112 97
3 218 154 112
3 112 154 12
3 218 38 154
3 154 38 12
3 147 124 63
3 45 171 229
3 229 97 45
3 63 91 55
3 63 170 91
3 91 170 222
3 83 194 217
3 217 194 64
3 83 43 194
3 194 43 64
3 48 189 119
3 119 189 46
3 91 71 55
3 91 222 71
3 7 167 99
3 99 167 142
3 167 225 142
3 165 157 99
3 99 157 7
3 165 224 157
3 157 224 7
3 42 89 119
3 119 46 42
3 46 60 42
3 42 60 78
3 46 83 60
3 60 83 78
3 65 44 220
3 220 44 221
3 65 141 44
3 44 141 221
3 46 34 83
3 83 34 43
3 46 189 34
3 34 189 43
3 51 32 82
3 82 32 227
3 51 89 32
3 32 89 227
3 48 31 33
3 33 31 89
3 48 119 31
3 31 119 89
3 189 48 71
3 171 30 57
3 57 30 198
3 171 105 30
3 30 105 198
3 112 130 3
3 18 39 4
3 4 39 90
3 18 117 39
3 39 117 90
3 120 93 62
3 62 93 220
3 202 102 13
3 13 102 54
3 202 105 102
3 102 105 54
3 55 212 33
3 33 212 48
3 55 71 212
3 212 71 48
3 189 186 43
3 43 186 222
3 189 71 186
3 186 71 222
3 33 231 80
3 80 231 51
3 33 89 231
3 231 89 51
3 52 166 217
3 217 166 83
3 52 78 166
3 166 78 83
3 3 174 117
3 117 174 82
3 3 130 174
3 174 130 82
3 21 85 141
3 141 85 116
3 21 225 85
3 85 225 116
3 55 29 127
3 127 29 80
3 55 33 29
3 29 33 80
3 113 28 207
3 207 28 164
3 113 204 28
3 28 204 164
3 225 27 116
3 116 27 7
3 225 167 27
3 27 167 7
3 147 26 49
3 49 26 127
3 147 63 26
3 26 63 127
