# vtk DataFile Version 3.0
A great-looking cell
ASCII
DATASET POLYDATA
POINTS 171 double
218.71460634449832 266.9209337622613 97.37675002125948
215.76602969183804 269.0862624041024 92.94990336868422
212.74313001907075 275.3850743354569 93.57426327250683
213.59251698693967 271.6952328368411 94.06992037962956
227.98016492143486 273.6413213776748 98.91304950524965
217.92769386632168 270.7989232774138 98.91168760030246
213.02510189095105 277.34024578906093 99.05372600535742
215.47095878513844 275.8458695404455 90.41048682669575
213.08207977119548 271.707424653292 96.22413960752034
214.87656173363533 279.93835241735314 93.81147901762593
214.73823163401914 271.06152227847656 92.31095172334224
216.7630766356722 269.9306936687343 91.28290973442445
218.36404430697903 267.21733549759057 95.08923596745754
218.79275156600644 277.68761663980223 99.04931575149138
218.58293297635697 280.7739689971002 99.15364642784473
215.622663503643 270.81931907481453 99.18645554604944
211.7526770199069 274.3386185450119 96.30291280897706
211.93177134155724 279.10889570990565 96.45454414281791
220.7146106150467 267.34625422198616 98.14329621608849
219.84354360697478 269.2627761415722 99.04603977809782
213.8997443122731 273.19189413945696 92.94674006693748
218.00001386506273 268.51801465678625 92.91718039762476
222.220754143191 268.06453454767075 96.56908588694628
224.51896981344873 268.677232203881 96.83582894383913
225.01934726693386 269.94750761893664 98.84338197693948
221.6657509473244 267.89865299901174 94.7883072258131
223.7023831146456 269.8520250750989 92.78857714664012
218.79267257587804 272.2668557098749 87.68245426254384
214.3435599901504 269.70579757575723 94.74687765102477
220.10622886947291 272.17317492372933 99.14445145531288
220.34744642989003 267.3513171457676 95.93089844224676
222.6548971342834 268.7146464983667 99.08874920371315
223.5337432701313 271.5550376958102 90.9055894894555
218.29099779356557 271.10638505040924 89.75480028774523
216.35972521217784 283.49209124012197 97.04944547832407
214.33785023380196 274.77746703747226 91.55969806119771
223.272725275858 268.741510169573 94.76028221091815
220.16080284751334 269.00035304388 92.07385341002252
226.31278822518067 272.2780268712743 99.1566873493519
221.29072517039094 277.23583932442557 99.01449937960732
218.27659162482243 283.33058475001343 94.5989943408503
226.6890385337284 270.3925577146389 96.93104820491001
226.53539575192454 278.8911100182959 89.5996886990033
224.16957370757035 273.52892726505377 89.51797997057581
216.56544044580963 279.2372589998017 91.66914931747532
228.13930717013486 277.44032161150545 98.90175432045199
223.97504701154773 276.11727873619003 86.81948828949115
228.1638591112866 281.6808416309551 95.55868312090168
221.76129017068158 280.0843586314085 99.1094968571635
222.5206356498253 275.82009514506467 85.53041616103167
224.60068669480472 280.11663118284116 98.96565656653576
222.03344253483937 274.4414995346718 98.95553261159138
223.38685132614418 282.48258363458825 98.8326334972306
220.16046905026218 284.48759573311673 96.33842555951678
225.6324594516652 277.8360641381761 99.00325283675505
221.311059911504 281.77397744397086 89.84072832969669
217.0885596809009 273.31384961422987 98.91164110052593
217.3051885989131 281.09388582662024 93.080691981396
222.02283363696108 269.72651111821614 91.32857261197012
214.6804491448128 277.31020465356227 92.09520207372262
227.8351328134774 280.6701831019129 93.91965031866556
220.4445921187874 271.3741992922082 88.8534218211734
226.1795991165451 282.24191064034534 98.83559610606376
222.3260035914073 282.50416080143316 91.8473071573809
225.39856922612154 282.8622963645123 93.42047203444572
223.11928428658757 271.7026768223176 99.18294254714037
223.87269603035804 276.12454100573837 98.89204272682437
216.30308446823219 277.5799789940576 89.93728362147846
225.00712520924526 275.3790191416239 88.35558400136144
222.65308928170998 280.8296619053253 88.17869439725482
222.38464953806985 272.302357398529 88.89062857519696
225.26284246913468 277.8220657345356 87.55741170422012
217.51081254123656 273.8681395052728 87.18979315416784
227.21447588568316 279.838935935218 99.14530738140549
221.02428915911784 272.62544487466386 87.08537265462662
228.0058228943505 277.7501084082306 90.55340773549287
227.07054147978215 271.8104610726028 94.60054054009007
223.77272153952683 279.60678269538647 86.80104604446989
224.73477764581813 280.09156140164777 88.69710805411398
225.31357535566463 269.9230706649459 94.63991816439426
221.79729689884337 270.91023005579405 89.97805723416208
219.41722584313268 275.21993091838465 99.04216853203245
228.72606900169896 275.3933772304322 93.33881119535707
214.92168048190078 275.46251787373495 99.08640211621308
214.38001898674665 268.8782808591752 98.80391388017318
222.84034902883678 284.4987120370423 95.74961387039089
219.0546565914121 267.53029466675696 99.00561811198611
215.55137962154717 281.4434667273211 98.84469156893947
221.38634970972078 274.14853748427277 85.712377289998
213.61787733504784 269.5807084560731 96.94303697537289
221.1231487796859 283.56882382617454 93.8959500784401
229.10198449861826 275.20894228950846 95.76695323269274
229.21052126705328 279.6791869973352 95.67846355050546
226.53615062794717 275.19893747413687 98.9538017085167
229.17177187307496 279.2890580280132 98.05698312710302
227.27107835163838 273.4329045146282 92.29828784208172
228.5381498661975 278.95988851000305 93.65655666074167
224.79446794049582 284.34983337474796 97.64588226196061
221.39178414390463 277.49280282253324 85.62480626145556
217.06391573741135 268.22396630254804 98.93962113768086
229.5992033653752 277.3473056627609 96.9880867718793
218.671615730896 269.39123746605554 90.97882122466277
227.50776812345848 279.5279908041444 91.8381063962557
229.32557892420854 277.3504425069147 94.55161453599452
211.47892470762102 272.3408049439806 98.37215353028691
215.1488970585466 273.0465116331516 91.66697145228221
223.43411878482607 278.2968497615525 99.08367803298636
216.26765839417556 267.9992272057254 94.71856836777862
225.87393236986216 274.7283887357673 90.45515236238819
225.42814274294045 271.516652740085 92.6608023900616
223.57783613846237 283.33867924657494 93.59947950826133
215.8603603970354 282.23442673201913 94.66437849475186
221.49388511663838 279.15778083672166 86.95978001730825
220.12639952195192 267.7081333828389 93.78722046178379
218.17101056951657 280.4319426219826 91.25006783974851
227.64272247159593 275.84892036597455 91.32125828882815
217.305939537428 276.0399181398042 99.04039529490844
226.31954041234337 281.44433390092127 92.66387929070044
218.2620916650045 284.3241449308843 96.64096626507828
216.04808551499184 274.08122107646267 90.47499327541998
217.77719066560132 279.3321113775347 89.65846434250284
224.35585337901932 274.0045232804205 98.95076383659217
213.84824678311344 281.4549942813518 96.33349200315696
221.95710306138224 285.3237141491913 98.71431662244555
217.9839115341041 275.8530333105167 86.36320692170435
215.90335230532327 278.4071598154172 98.84216162671305
225.08657151167364 283.4647061051397 95.22375729778949
225.31142669126595 280.3953885305852 90.9674378385594
219.41765099153932 279.26781205827206 88.12981756401742
221.43270672675894 270.49179169171606 98.84052330831256
228.57737399593123 277.4943501185112 92.42762298511866
220.2176550866787 270.4281257936241 90.63879214484452
211.4047024271905 278.66508094825366 98.60695323387945
229.27439187633703 275.08222688564774 98.39697074689413
219.35197327545177 278.02300095440324 86.09251207144432
228.53529553793288 281.4417924160588 97.67124863277235
224.54717072724634 282.2756096096749 91.92676155958125
219.28829682736534 273.78837842186226 85.96263211786878
213.11522760018747 279.938979346454 98.85511495873068
213.2159673812751 279.820941358285 95.03183040339206
220.8559737096294 280.36020684929116 88.54542169852432
211.67022003581525 276.7900511500605 95.45270356949538
223.17952984332788 277.7344821255321 86.27726907842062
225.431302834271 272.78308884404925 90.96449789386799
223.674178670438 281.7628213309906 89.99996707848231
228.56941247496383 273.48671480540435 94.45766843676282
212.24932923454702 274.8245949578569 98.92433436879492
216.26281785797977 272.00396078881505 90.6259683625757
210.90999465808807 276.79185988410546 97.69857043823419
216.84060375887614 275.4298231849973 88.7327154274196
228.44383873063634 272.74790493216835 96.96775328715445
216.94777165723684 267.2366900536826 96.62606022261436
220.09319578801717 278.8554537683592 99.00892175114667
217.77578378295863 277.67931429292616 88.02561062807459
219.6923992246044 280.27698458007904 90.0496294543865
212.89986162750137 278.1908118887572 94.14494696343012
221.7972459445294 268.8973769637067 93.28777892121602
217.247666549798 273.1025998099753 89.0419601707435
219.74360159684196 281.8566383843658 92.07078473510657
213.32460655950538 270.7976498868178 98.44214163702864
226.85553847097916 282.4906072479329 94.40301778109745
212.84152335624464 273.19872339502484 94.54068903913142
218.71528143545112 284.37447664307524 99.01878705208077
227.02803036411044 283.21619330257204 96.59873156140135
223.06277016185442 274.14711988869686 87.28759777415307
220.18855906353647 275.8601999739787 85.12993565944075
215.14824398887282 268.13894046255353 96.79825785894174
214.09775984783698 272.9078745417097 99.10658413150888
220.91571195781037 282.60386004479705 98.86418855780414
226.78587845107455 276.58796789959524 89.29704624038294
217.13266618929626 282.71846398915795 98.91163129571223
POLYGONS 338 1352
3 130 96 103
3 130 102 96
3 92 100 103
3 100 92 94
3 60 92 96
3 96 92 103
3 100 91 103
3 100 94 45
3 71 42 169
3 82 91 145
3 82 103 91
3 91 133 150
3 130 75 102
3 82 95 115
3 115 95 108
3 75 130 115
3 115 130 82
3 75 115 169
3 68 169 108
3 108 169 115
3 130 103 82
3 108 95 143
3 76 95 145
3 145 95 82
3 169 42 75
3 102 75 42
3 136 64 117
3 117 64 160
3 64 126 160
3 150 145 91
3 160 126 163
3 76 145 150
3 60 96 102
3 127 102 42
3 117 102 127
3 78 144 127
3 117 127 136
3 127 144 136
3 160 60 117
3 117 60 102
3 160 163 47
3 136 110 64
3 64 110 126
3 62 50 73
3 106 54 50
3 50 54 73
3 85 97 126
3 62 163 97
3 97 163 126
3 163 62 135
3 135 62 73
3 78 127 42
3 63 144 55
3 55 144 69
3 163 135 47
3 47 135 92
3 50 62 52
3 164 46 68
3 164 49 46
3 68 71 169
3 68 46 71
3 62 97 52
3 98 142 49
3 49 142 46
3 77 69 78
3 78 69 144
3 112 142 98
3 133 45 93
3 45 54 93
3 92 135 94
3 94 135 73
3 108 43 68
3 70 164 43
3 43 164 68
3 160 47 60
3 46 142 71
3 162 123 53
3 53 123 85
3 106 66 54
3 54 66 93
3 106 48 39
3 93 66 121
3 66 106 39
3 106 50 48
3 48 50 52
3 142 77 71
3 71 77 78
3 39 51 66
3 66 51 121
3 150 38 41
3 93 121 38
3 42 71 78
3 76 79 109
3 38 121 65
3 65 24 38
3 38 24 41
3 65 31 24
3 41 23 79
3 79 23 36
3 36 23 22
3 22 23 31
3 24 31 23
3 23 41 24
3 56 29 81
3 81 29 51
3 25 36 22
3 31 18 22
3 31 19 18
3 30 113 25
3 14 125 13
3 39 81 51
3 39 13 81
3 112 77 142
3 121 51 65
3 51 29 65
3 29 5 19
3 19 5 99
3 5 15 99
3 93 4 133
3 133 4 150
3 93 38 4
3 4 38 150
3 28 3 10
3 10 3 20
3 28 8 3
3 133 100 45
3 133 91 100
3 73 45 94
3 73 54 45
3 60 47 92
3 55 158 63
3 40 118 53
3 53 118 162
3 40 34 118
3 118 34 162
3 164 88 49
3 88 74 137
3 85 90 53
3 90 110 63
3 21 11 101
3 44 57 114
3 44 9 57
3 1 11 21
3 49 165 98
3 32 80 70
3 70 80 61
3 37 101 131
3 131 101 33
3 32 109 26
3 32 143 109
3 131 58 37
3 32 26 58
3 21 37 113
3 21 101 37
3 25 22 30
3 22 18 30
3 30 12 113
3 113 12 21
3 18 0 30
3 0 12 30
3 7 35 59
3 147 33 11
3 25 113 156
3 156 113 37
3 59 2 155
3 27 72 137
3 88 137 165
3 165 49 88
3 72 27 157
3 157 27 33
3 10 1 28
3 63 136 144
3 63 110 136
3 44 67 59
3 59 67 7
3 44 59 9
3 59 35 2
3 2 35 20
3 138 122 17
3 120 128 153
3 7 119 35
3 7 149 119
3 58 26 156
3 156 37 58
3 14 87 125
3 34 122 87
3 74 88 164
3 12 0 151
3 151 0 99
3 61 80 131
3 40 111 34
3 9 122 111
3 111 122 34
3 1 107 28
3 153 134 124
3 7 67 149
3 149 67 153
3 147 11 10
3 11 1 10
3 119 105 35
3 119 147 105
3 105 147 10
3 28 89 8
3 61 33 27
3 99 86 19
3 19 86 18
3 99 0 86
3 86 0 18
3 15 84 99
3 19 129 29
3 29 129 65
3 19 31 129
3 129 31 65
3 158 90 63
3 15 5 56
3 56 5 29
3 8 104 16
3 104 159 167
3 25 156 36
3 36 156 26
3 124 165 137
3 32 58 80
3 80 58 131
3 128 120 154
3 154 120 114
3 36 26 79
3 79 26 109
3 150 41 76
3 76 41 79
3 166 84 89
3 89 84 159
3 110 85 126
3 110 90 85
3 57 9 111
3 111 40 57
3 27 74 61
3 27 137 74
3 85 123 97
3 97 123 52
3 155 9 59
3 143 43 108
3 61 74 70
3 70 74 164
3 69 140 55
3 140 112 128
3 153 124 149
3 149 124 72
3 124 137 72
3 112 69 77
3 153 128 134
3 128 112 134
3 67 120 153
3 76 109 95
3 109 143 95
3 33 61 131
3 70 43 32
3 32 43 143
3 33 101 11
3 55 154 158
3 154 114 158
3 112 140 69
3 98 134 112
3 119 157 147
3 147 157 33
3 165 134 98
3 56 167 15
3 56 83 167
3 16 161 8
3 16 2 161
3 161 2 20
3 6 148 146
3 146 148 16
3 125 116 13
3 13 116 81
3 125 83 116
3 104 167 146
3 146 16 104
3 138 6 125
3 6 83 125
3 138 125 87
3 87 122 138
3 17 132 138
3 138 132 6
3 17 148 132
3 132 148 6
3 55 140 154
3 154 140 128
3 35 105 20
3 20 105 10
3 53 90 40
3 40 90 158
3 124 134 165
3 48 152 39
3 39 152 13
3 48 14 152
3 152 14 13
3 2 141 155
3 155 141 17
3 141 148 17
3 72 157 149
3 149 157 119
3 99 166 151
3 99 84 166
3 114 120 44
3 120 67 44
3 114 57 158
3 158 57 40
3 107 166 28
3 166 89 28
3 89 159 8
3 159 104 8
3 167 159 15
3 159 84 15
3 166 107 151
3 151 107 12
3 148 141 16
3 16 141 2
3 6 146 83
3 83 146 167
3 9 139 122
3 122 139 17
3 9 155 139
3 139 155 17
3 12 107 21
3 107 1 21
3 3 8 161
3 161 20 3
3 81 116 56
3 56 116 83
3 34 170 162
3 162 170 14
3 34 87 170
3 170 87 14
3 123 168 52
3 52 168 48
3 123 162 168
3 48 168 14
3 14 168 162
