# vtk DataFile Version 3.0
A great-looking cell
ASCII
DATASET POLYDATA
POINTS 338 double
106.69939201648793 173.453156770638 28.940180282929532
105.0038805354872 171.9455888279327 29.554645738159685
104.89150868058753 171.26039594955387 31.892992688873417
106.18755584668097 172.11766333795376 33.551197455648186
106.56870291318599 172.86029146865633 31.262303832333377
104.86474817149787 173.38857028669563 27.1943007632038
104.16230065309271 176.09602643343842 25.196813122442634
107.26306084853128 175.48052501315217 26.94819101016004
103.55835673327834 170.57446919302998 30.42669906905159
102.7680781967223 170.9563543530306 27.914963656830416
102.48635021948908 173.34983730752177 25.59473144297365
108.63829255192053 177.80023261294963 28.689553435641372
102.99460376931822 170.0428486877378 32.47286659675915
104.42375605662049 170.81306901750588 34.1692373003175
99.71565180274672 169.5491675840675 28.261496802182148
100.31125153981743 171.24374403525914 25.676769913250716
101.03044025913312 177.29292286461015 24.392541084157674
105.20800822789592 179.47964489983295 25.236255091540993
108.98159361814211 180.02151058888694 30.539049790117097
102.55126210513383 169.4452577929721 34.84855544473443
100.89176971199694 168.74588478799848 33.01326417369492
98.95255889625653 168.46358395240318 31.018405492087343
101.60872837781352 169.44301535949492 30.45282430466401
96.73613552987939 168.49136214386178 28.892456012273847
94.42739044869816 177.82664568340567 25.40342052814496
97.48325028530084 169.8697082848109 26.079298856295736
99.95284964392833 174.18567136985303 24.509325855833325
99.81633309307009 181.33011855591283 25.606109191630317
109.06072361813943 176.10386449917044 33.40322091985794
103.11317551850087 182.19140328983684 26.460816715478323
107.66064550846274 182.23509584442778 30.100874217619584
107.6197991929774 180.71121947212623 27.599320676654127
104.12294704605053 170.31811556812806 36.52592403268087
100.48270479394992 168.0827057221001 35.58423191252011
98.4609961745362 167.56104288451567 33.76872066037881
93.30780843251756 167.67743631640818 29.731465276163984
96.18674595673166 167.23845707600697 31.75730865481058
87.4895231852897 173.5863471733796 27.350226985232705
92.0861071525618 169.66076581549552 25.775928443830328
97.50867264301364 182.7231939600104 27.76132252867271
97.85302105200084 178.95668084665542 24.634847253928033
109.13185859550622 177.19942746375864 35.92756602362388
102.56045671407595 184.47472679319927 29.123848465433124
106.29404233585082 184.10031402305316 31.74047080020569
105.63499676867026 183.3950620214222 28.498690458436972
108.41546652399677 181.89635136562097 32.59137455215011
102.0098098969635 169.2347705257099 37.33739449867017
105.76608346672624 171.20988586290656 37.83829661845416
100.06306591662023 167.85370728528056 38.07581732959649
98.17683400371756 166.96241403596457 36.54191591423893
95.78084938988975 166.59107456616235 34.81550377238638
92.53979536779732 166.29049762976098 36.210890409122065
93.41079801029304 166.6585348347953 32.87618372786512
91.59032674599565 178.3057896692575 27.155818540050902
107.1375361958103 172.57972650870857 36.927117711399305
109.35688099342826 178.02318397881552 37.805420625444384
109.06334329164395 175.9559513940014 38.38498494767029
93.54504271038519 185.86111616916705 31.795983796264572
92.80359677353756 181.4413455123801 28.283932216690452
108.69363977893613 181.3584428121932 35.16918500866114
107.79188396263747 182.57454424740234 36.41489188510459
109.40704840681722 179.4820945689665 36.430909407622046
96.75594385436433 185.6843053818315 31.493621713219238
99.97464925445477 186.24376403752132 32.73657946278745
104.9960722378407 184.64771255009376 34.56959366369735
103.1890927422317 185.16637515089067 32.04496008001918
107.19250115950325 183.1778711475069 34.531843156214364
103.84771807404823 170.0692917261149 39.28776749617838
101.37270176071945 168.94048947200537 39.692735557604514
99.722403166013 167.834855465941 40.041236412479556
98.08910860820481 166.88046368506662 39.205215955487795
95.64250541485362 166.27501415867613 37.90761439532778
87.96630745151167 168.68037251572187 33.36494756831842
84.77156794431653 171.72883049549694 32.868396104086884
107.9928230960882 173.70240706137443 38.43208828060594
83.65446211278027 173.0265396437006 35.40452892767658
87.55192289401523 178.1387283108445 29.04102185123373
87.71200348708919 180.27880455670504 31.141128194918302
109.114108832347 177.90584900899316 39.64943379465059
93.88339301421459 187.76146942668254 34.32832112953582
108.59351577519733 181.2253349221492 37.39989664693566
107.40398099859863 182.6646476106083 38.23508867458998
109.19058725235706 179.64221574776468 38.592351482103396
99.62728999061082 187.5343455710125 36.25468021879946
96.90968478494328 187.98892963733812 34.1110591465596
102.08082116187758 186.81205477754898 38.29257000511161
104.2780270456422 185.13645204113882 37.26783185222114
102.45427356445518 186.12366154099035 35.156580841356764
106.37321047990116 183.87204547666119 36.67980986210165
98.54572597083295 167.17837538199993 41.507791546416414
95.8641958874674 166.6339871899481 41.07208011634596
93.06271345058165 166.96660093646716 42.14128207651518
93.1162122500555 165.95782620208706 39.61999324640048
107.46777618193926 172.73081377260087 40.30705267166336
87.49316311266472 168.7294034201397 37.9564011681752
86.02326166942365 169.95660633442074 40.437999082176354
108.3132860301031 174.6498508350706 40.379294105075324
109.05707097191402 176.34217705354146 40.56632961287486
83.4082281800152 177.17734816601973 41.00237928612065
93.13629783599353 188.98490499150134 43.07780686158667
108.27505535322415 181.2109972337487 39.45659184044965
106.91340376243689 182.52318083048215 40.31070367726871
108.80277169173517 179.6121057080267 40.58039379534386
96.78214755057341 189.14793153219148 37.49263141266057
101.82012686521571 186.64357858126928 41.35738761991512
99.34190913246604 188.4366707916726 39.8534909368518
103.88301789898685 185.2738129633206 39.950167928043655
105.65915156627705 183.8142368999829 38.94424790801973
100.29206382611187 168.64735004078938 41.66817499536478
97.22841556259891 167.15123073763732 43.09113820117956
95.16270859357323 167.48474619526226 43.71205618722832
92.43763820950332 167.77443668767472 45.0998964882407
106.65035952901722 171.75620584060314 42.02731520863453
90.74899637879955 169.81751738159969 47.537306501364114
90.19600314182327 167.4195060891679 42.4293563857785
107.85002465070957 173.53460982861571 42.28243422026078
87.67013915169439 169.69933707421106 43.0901495274298
89.44195047270559 178.2223234777864 48.304110297033105
108.45762643703384 175.63522326995755 42.29704215916302
91.00007321504937 182.88504409370708 48.43897768834752
108.82717357971877 177.86982877019852 41.91495445515393
93.18545085646088 187.57210512488743 46.13151143274303
104.95605424501035 183.26595352892005 43.47166478982491
106.3312944102023 182.04276850532705 42.31195063819663
107.77470092621911 181.0057202614641 41.38260860883232
108.40303938559119 179.6858282870252 42.22575922050819
97.45587978917013 190.04337333081565 42.34909073544499
101.80179014365584 185.7851380164324 43.91302445020111
99.42988330900384 187.57150655882978 43.41848826846792
103.64085182295406 184.95044404783906 42.48044546895703
105.30195615791799 183.70961364867728 41.266336738508485
102.4830580599435 169.61709890187825 41.76267129657943
98.82289473179466 168.49673505484463 43.336826955105806
95.23705008072388 168.24032015392729 46.073202366005795
97.1023216659059 168.3687101030819 44.706492365256416
93.43756462129956 171.17511268928203 48.777759597036244
93.49078638798572 168.96056248510558 47.46913342006463
93.1354525947093 174.31353839677138 48.68210237623656
93.93830129543429 177.17251687403297 48.828381235598435
107.77102711473934 174.64687750518894 44.493954029386394
90.22181805004901 174.57262468663706 48.876907058236235
92.18721449878261 179.52920136045438 48.72808170888819
94.5001656883984 181.9556335451426 48.397470496828255
95.33443419994482 185.2725751658419 47.545797946562026
104.69650573661272 182.72997181037036 45.582093824771036
106.05030480464941 181.59743865767462 44.37612650307018
107.4806822204494 180.65979778476319 43.26174387095827
97.9006287781559 187.58166416911354 46.43817076707307
101.94018207700256 184.87238300870817 45.68507420445065
100.04887320558828 185.69554210183455 45.546004129302055
103.63298569626993 184.54410660175412 44.78997912249173
100.87957861995287 169.62502966760857 43.71128260333013
97.025044470135 169.34445713274948 46.36980839958286
95.54205103092409 170.16089701354542 47.51035338742207
96.02667381027602 172.75579996345505 48.247573989009844
95.87749958261264 175.50995692498552 48.79870653972521
96.12294645520906 177.72733319220293 48.92293549574015
108.42659008983327 176.9048034783159 44.059791185613264
108.03106370785599 176.25338552023734 45.85742295663396
106.30224969991444 179.05371239273282 46.85823674493191
107.97950040133293 178.164719874849 45.77202807765897
94.87182888729296 179.2663880274007 48.74770567920845
97.06165869789442 182.7911954152354 47.84895450808658
99.39572647525091 182.20366941618863 47.668182937797845
104.01548694209619 181.719997999058 47.281051466134016
106.06793857418435 181.26715700772186 46.57886022897091
107.15618191343002 180.0190199052297 45.16486047875604
108.36902408914271 178.9826651651739 43.82107420733241
98.46348690011644 184.6078644012458 47.08952098279036
103.11123584801824 183.72793270736662 46.82882151571005
100.81476778978953 183.88696156927057 46.82513018712778
98.79703568971692 170.08784395095572 45.26427905114069
105.66964349611095 171.0932052602878 43.6072875096114
105.45624691315182 171.78548276787512 45.515909851917144
98.66721652984606 172.77689628776739 47.94048434587215
97.72091160479211 170.92919123473882 47.30229433805563
97.74057661230684 174.4622506563293 48.54422360670078
106.76144699474149 176.9748733118719 47.170548513480966
97.57836764694562 179.91082433378764 48.47255715672032
100.58872632379845 180.19041351507866 48.54676324935431
104.90168876156464 180.02596149086386 47.702963421744215
101.86921920251352 182.11206703232844 47.936297463712734
99.46283888981314 171.59081461020568 46.68036950727843
106.98119858018573 173.11648061457606 45.95945388944902
107.12205345586857 174.87840713025784 46.84757194124022
99.69377365213485 174.70337596719105 48.02891547480249
98.21451897243226 176.74249516257262 48.504808890570146
104.47050244319627 177.73175063212452 48.222275948893966
99.78391179993591 178.3211745593876 48.50241119166425
101.84640933099779 178.21850599232792 48.431097271203704
103.00220336740414 180.0391491019614 48.25900304038231
103.53580397364469 170.30508140290934 44.30783368920628
100.65831053972981 176.57339801089134 48.22250091158264
106.0265112728875 175.57188717184127 48.79455271440849
102.5389307970599 176.473232011459 48.61789984774883
101.18634039536505 171.02909776302772 45.70635631960745
101.07104298318701 172.7018290380927 47.60621465788499
101.84914847692932 174.91586816353015 47.79399695566185
103.89874227044372 175.21881263979074 48.231517001069385
103.11265316876278 173.47325299471177 47.876926529059034
107.20469963770836 172.30871273197752 44.094264920801635
87.63628701823438 168.77002115920672 35.72919127578872
102.0223343727636 175.1395511134671 24.502996815741355
104.5104551999985 184.5703467954381 30.269631581266463
97.18110431501049 184.23716332904897 29.643302507741197
103.16515648363759 178.222054948665 24.73971461104314
106.25948184297032 177.21929282740413 25.463697913602577
105.60543827555482 181.76028574259917 26.541114202576985
101.29389446359119 185.33122611480366 30.84046729983093
95.4697596026329 187.92286741207812 47.00447808104422
88.37747252851752 183.76987746077899 46.766124692281416
86.36830694431735 178.65250200197156 30.719849139146735
89.47296879757268 173.77788299850206 25.59532024442873
85.79848984193387 173.35160908507018 47.285607003624904
91.4844653173324 172.35786365159035 24.588918041429878
85.65654098295714 169.94940675607907 38.15091019801303
98.00412334921585 172.06004010222523 24.54700309724602
98.5060140316471 176.2556193207728 23.783930900492976
84.17851052655797 177.30410192124967 32.537532534234685
94.60450063025307 174.88583768761177 24.39440583672854
87.29876018624762 171.43732959827477 28.74479876808924
83.88653468757444 174.56671595522215 43.574151119997175
92.60801819135844 168.0989733699447 27.336519707205763
88.82128560914374 176.43251493924706 26.698695075295245
106.12274816496635 171.14209316009192 40.001271285265986
89.37980071113421 171.0994716882127 26.82168153373331
85.04480538814741 176.9355934693733 30.459272716251
88.26830110335051 169.01898729606881 31.149712190810316
87.94653191822101 170.41032057511794 46.0625872096681
97.30264813493875 190.01590928249917 39.86608472845433
107.4076390476253 178.1781100670162 26.442537130275554
95.20236395285932 189.99897511632614 42.769638332541824
84.55148994970608 181.7268827986984 44.333143877080346
95.60271342257649 190.04711683425188 45.30397297822078
90.87836425273119 168.75525639943683 28.1972394966019
84.22375008395107 173.7049713632343 45.86249050392416
86.97947812036865 178.1321026798068 47.310913394474
85.7980465366182 170.67671483903626 42.56466443589985
85.37903712374194 171.61205654727203 44.7963474044694
93.7216639816486 179.39687506849657 27.120376447485853
104.77551190081387 170.54930243204544 41.8408634471741
100.20629013393614 179.44652426337777 24.548600878460057
98.102442683513 189.362359362891 44.658567650781585
100.45267202476226 183.4054907507753 27.473130984125195
105.4135892034097 173.2203301575516 47.777203594930256
86.71316355409772 170.3525943515334 31.121040384415018
91.86686678318816 167.1732353542489 31.690432441287985
86.4439787914002 175.80846780034238 28.289034993340845
89.96131334380864 187.06324581742317 39.596806714386865
107.24279279208703 171.9781624497361 38.67056797668919
97.5089980373112 181.30117914509174 25.646413984123768
83.36533664987783 179.53234901352582 40.31155237600679
95.26260900940333 182.00537711398917 28.167720679685015
89.47757179833457 178.12768490028364 28.026898732523307
83.68681958677065 177.61498466768145 44.03579100623041
90.73135376707427 185.240538356675 31.267655918760695
88.09942503974287 168.23854533905748 40.66798770788021
83.53267257067075 174.1238883977975 40.54751137152776
94.814947781982 171.65442819353265 24.39741570001347
108.3778432903982 174.49657863169176 35.912340657685924
99.35607835999112 184.9699499281297 29.626485842579527
89.26944288571231 167.43110726216455 35.94529460879042
83.30183811442758 175.30089718240288 35.15694477352247
86.46396122883404 171.43042830639644 47.05815711133481
91.82475749521056 175.44114415250496 25.09934249442666
97.06075160721416 174.2075769909559 23.932394289956786
91.56308178988579 166.4838709056102 40.914312024270046
86.80062698010668 184.26469997786685 34.50338888443314
88.0057353398049 182.33617480888276 31.94473282920285
89.71082469909531 176.2648068310657 48.620010175065104
92.16999388707092 187.7458010296419 35.66435084367766
88.36210416281769 172.27825153535665 48.32721212167707
109.52879326047508 179.1458160904409 33.61148628602349
90.1540813935916 168.0727533791331 30.930426307308487
102.21140196872499 180.04021592855366 24.2408407839506
89.73287647200385 168.89550616842098 44.90664875463931
93.38002487695859 183.96536922500354 48.4463068034887
94.60405242100806 168.69660709947885 26.66868067246567
84.15054639985522 171.8278892849887 38.541328043622165
92.34695123394854 183.93728952063216 30.04424361961387
84.64355807949826 180.69982945952657 36.15659744708521
85.43578469117591 179.00302331225996 32.47652981814898
86.12640361385498 170.03415045757862 33.20130632323949
85.54924004015965 173.4339453862503 30.006419878609858
83.6874699284281 180.25493317176947 42.59121686717511
88.62520610990339 169.57992418403563 29.36892394683228
109.29749535193262 177.57417954815276 31.28052310126892
90.8113902289539 167.21962301248146 33.47794086744064
96.47969215577095 176.4352762363327 24.371085933153942
89.56831952770382 186.46583924943658 44.15562982607099
93.08867514000157 173.63661700919477 23.895079754531057
91.11835743254605 172.27823397098655 49.17950385697422
107.28925131121613 172.7137190956573 35.05622623253983
95.05240534397227 183.7328478727659 29.55970367163639
89.87895233085666 179.76558612846273 29.08876887377874
90.12167712630891 166.77536394924985 39.11715542068433
91.4121921041803 176.69771563187325 49.229017648777486
91.31686969845029 187.9529550393321 42.33509022511839
90.90362617201254 186.67985314024384 33.93226090209625
92.51439024335502 185.4631939861518 47.909667175729915
107.87285038486382 173.7260287966994 33.24740969826017
85.68060649693581 170.09221406977227 35.62854790169182
85.79093201311902 184.2900833917767 39.84820250792832
94.86727621312059 189.81591239893177 40.35084935023519
91.02475453193615 187.51488755568354 44.06433099358883
83.25968949533083 175.40123743534585 37.6709371397305
95.25588463708323 187.08233562985689 32.72316445915332
87.65327836541516 175.62047127566626 48.505050642125816
95.46693558928021 180.67368813688398 26.49907057376147
108.37647587632334 175.04629458140133 30.434122798434927
87.98495265696346 186.0428203470009 35.52217773855652
84.6843847083887 176.19409810009304 46.60282811062652
86.21596514566912 182.65155363168338 45.448858049489345
105.74172397899144 171.73753900142242 35.6958515428287
86.86097200266244 185.61677900195104 41.57036571285458
103.36140891636822 171.69781428819502 46.79315743435346
83.66515395228134 175.0014118548761 32.7993386205683
83.46725298538638 178.76749358734142 38.19874531507651
84.24552212914152 181.6846650276543 39.463698992821804
86.39965699108785 181.8811342329817 33.70270507740464
91.83775755463292 188.0854619605374 40.2644691896197
89.94126809670833 182.52048622305819 30.59150880323017
85.04576531222193 179.7502173544379 45.73422508845292
87.8897018412662 186.12528623440926 38.91857176130384
84.59683503098388 172.0129850862306 41.7813756119478
95.25925152347989 188.57031877844992 35.73472948341619
87.58614312864344 185.42896138247707 44.36604453721876
85.16310406839601 183.36266828680914 42.59912608693449
90.51553779997839 187.42229344302106 37.285109944365445
83.91509278479745 177.72673561144285 34.86273317640093
88.33188484854237 184.47057116568863 32.72087519404649
90.20646634330012 180.37787445221653 48.02913458980527
84.93916006161881 179.90289980839586 34.23003839520825
93.58458495274996 188.47208408248503 37.28126802432094
90.34121059205118 185.775084291951 46.157643232802926
85.8285029826846 183.84108686360364 36.77165870449176
89.47781500187402 186.84157814048865 41.915512564538204
87.94203617164769 180.92631318322125 47.60883519435301
POLYGONS 672 2688
3 7 309 0
3 2 4 3
3 1 5 0
3 6 7 5
3 11 309 7
3 1 8 9
3 22 9 8
3 9 15 10
3 9 10 5
3 28 309 286
3 2 13 12
3 2 12 8
3 22 8 12
3 22 14 9
3 292 300 259
3 19 20 12
3 14 23 25
3 22 21 14
3 20 34 21
3 46 33 19
3 19 33 20
3 36 21 34
3 36 52 35
3 36 35 23
3 47 67 32
3 33 49 34
3 68 48 46
3 46 48 33
3 50 34 49
3 34 50 36
3 56 41 55
3 259 41 56
3 55 41 61
3 48 70 49
3 68 69 48
3 47 249 224
3 71 49 70
3 49 71 50
3 56 55 78
3 59 80 61
3 80 82 61
3 78 55 82
3 55 61 82
3 240 131 67
3 69 89 70
3 68 108 69
3 90 70 89
3 70 90 71
3 78 97 56
3 80 100 82
3 100 102 82
3 120 78 102
3 78 82 102
3 108 132 89
3 90 110 91
3 109 89 132
3 89 109 90
3 91 110 111
3 91 111 114
3 118 97 120
3 97 78 120
3 100 124 102
3 124 125 102
3 120 102 125
3 122 123 130
3 122 130 129
3 106 129 130
3 106 130 107
3 130 123 101
3 101 107 130
3 131 151 108
3 132 134 109
3 134 133 110
3 138 161 141
3 157 139 118
3 118 120 157
3 141 161 142
3 145 123 122
3 145 122 144
3 124 146 125
3 146 167 125
3 120 125 167
3 144 122 150
3 122 129 150
3 191 151 131
3 134 152 133
3 171 132 151
3 132 171 134
3 133 152 153
3 133 153 136
3 154 176 155
3 155 176 186
3 155 186 156
3 156 186 178
3 158 157 160
3 157 167 160
3 142 178 162
3 142 162 143
3 165 145 144
3 165 144 164
3 159 160 166
3 167 166 160
3 146 166 167
3 143 162 168
3 143 168 147
3 168 162 163
3 168 163 170
3 164 144 169
3 144 150 169
3 172 191 240
3 191 195 151
3 171 151 195
3 171 175 152
3 183 200 139
3 184 139 158
3 184 158 177
3 177 160 159
3 158 160 177
3 180 165 164
3 163 179 181
3 163 181 170
3 171 182 175
3 171 195 182
3 173 191 172
3 183 139 184
3 184 177 193
3 187 177 159
3 178 186 188
3 180 187 159
3 179 189 190
3 179 190 181
3 190 187 180
3 180 164 190
3 244 173 183
3 184 193 244
3 193 187 198
3 198 244 193
3 186 192 188
3 189 194 187
3 189 187 190
3 315 173 244
3 196 199 197
3 194 198 187
3 195 196 182
3 199 244 198
3 199 315 244
3 1 0 4
3 5 7 0
3 1 4 2
3 13 2 3
3 5 1 9
3 2 8 1
3 292 3 300
3 3 4 300
3 6 5 10
3 19 12 13
3 13 32 19
3 14 25 15
3 15 9 14
3 10 15 26
3 18 11 31
3 286 11 18
3 20 21 22
3 22 12 20
3 21 36 23
3 23 14 21
3 30 31 44
3 45 18 30
3 30 18 31
3 286 18 272
3 272 18 45
3 32 46 19
3 34 20 33
3 41 28 272
3 42 44 29
3 43 30 44
3 43 45 30
3 272 45 59
3 67 68 46
3 46 32 67
3 49 33 48
3 54 249 47
3 50 51 52
3 52 36 50
3 272 59 61
3 61 41 272
3 87 65 63
3 64 65 87
3 64 43 65
3 64 66 43
3 66 45 43
3 59 66 60
3 59 45 66
3 70 48 69
3 83 63 84
3 84 63 62
3 85 87 83
3 83 87 63
3 86 87 85
3 86 64 87
3 86 88 64
3 88 66 64
3 60 88 81
3 60 66 88
3 131 108 68
3 68 67 131
3 89 69 108
3 90 91 92
3 92 71 90
3 105 83 103
3 103 83 84
3 104 85 105
3 105 85 83
3 104 106 85
3 106 86 85
3 106 107 86
3 107 88 86
3 81 107 101
3 81 88 107
3 109 134 110
3 110 90 109
3 128 105 126
3 127 104 128
3 128 104 105
3 127 129 104
3 129 106 104
3 132 108 151
3 136 111 133
3 133 111 110
3 135 113 136
3 136 113 111
3 115 118 139
3 120 167 157
3 141 142 119
3 149 128 147
3 148 127 149
3 149 127 128
3 148 150 127
3 150 129 127
3 240 191 131
3 152 134 171
3 154 135 153
3 153 135 136
3 155 137 154
3 154 137 135
3 155 156 138
3 138 137 155
3 157 158 139
3 156 178 161
3 161 138 156
3 178 142 161
3 145 165 166
3 166 146 145
3 168 170 149
3 149 147 168
3 169 148 170
3 170 148 149
3 169 150 148
3 175 153 152
3 174 154 175
3 175 154 153
3 176 154 174
3 185 176 174
3 185 186 176
3 178 179 163
3 163 162 178
3 165 180 159
3 159 166 165
3 164 169 181
3 181 169 170
3 182 174 175
3 196 174 182
3 196 185 174
3 188 189 179
3 179 178 188
3 190 164 181
3 183 184 244
3 197 185 196
3 197 192 185
3 192 186 185
3 192 194 189
3 189 188 192
3 198 194 197
3 197 194 192
3 195 191 315
3 315 196 195
3 191 173 315
3 199 198 197
3 199 196 315
3 309 4 0
3 3 292 313
3 309 300 4
3 11 286 309
3 3 313 13
3 313 32 13
3 28 300 309
3 28 259 300
3 47 32 313
3 47 313 54
3 292 54 313
3 54 292 259
3 272 28 286
3 74 249 54
3 224 67 47
3 56 74 259
3 259 74 54
3 81 80 60
3 80 59 60
3 224 240 67
3 93 249 74
3 93 224 249
3 96 93 74
3 97 96 56
3 56 96 74
3 101 100 81
3 100 80 81
3 112 224 93
3 96 115 93
3 115 112 93
3 97 118 96
3 118 115 96
3 123 124 101
3 124 100 101
3 172 240 112
3 112 240 224
3 115 200 112
3 200 172 112
3 139 200 115
3 145 146 123
3 146 124 123
3 183 173 200
3 200 173 172
3 193 177 187
3 51 50 71
3 71 92 51
3 41 259 28
3 103 333 303
3 119 331 141
3 141 331 117
3 119 337 331
3 331 337 117
3 79 325 84
3 84 325 103
3 79 333 325
3 325 333 103
3 333 328 320
3 336 314 326
3 326 314 327
3 336 323 314
3 327 312 326
3 312 322 337
3 328 310 323
3 323 310 335
3 84 306 79
3 79 306 57
3 84 62 306
3 306 62 57
3 99 304 121
3 121 304 334
3 333 320 303
3 303 320 99
3 335 302 323
3 335 318 302
3 302 318 327
3 301 75 73
3 121 299 143
3 121 334 299
3 299 334 119
3 57 298 79
3 336 297 320
3 320 297 99
3 336 304 297
3 297 304 99
3 310 328 298
3 298 330 310
3 141 296 138
3 141 117 296
3 75 316 73
3 53 294 58
3 76 77 294
3 62 293 57
3 334 289 326
3 326 289 336
3 334 304 289
3 289 304 336
3 92 295 51
3 318 284 327
3 308 40 24
3 137 291 135
3 135 291 113
3 137 140 291
3 77 281 319
3 319 280 335
3 280 318 335
3 75 278 305
3 278 95 324
3 278 75 301
3 51 287 52
3 73 316 283
3 305 317 329
3 305 98 317
3 35 277 23
3 277 25 23
3 113 275 111
3 111 275 114
3 275 116 114
3 138 296 137
3 137 296 140
3 140 307 271
3 79 270 333
3 333 270 328
3 79 298 270
3 270 298 328
3 140 269 307
3 307 269 117
3 140 296 269
3 269 296 117
3 319 268 77
3 77 268 321
3 319 330 268
3 268 330 321
3 310 267 335
3 335 267 319
3 310 330 267
3 267 330 319
3 92 266 295
3 295 266 114
3 92 91 266
3 266 91 114
3 273 287 72
3 264 53 24
3 75 262 316
3 316 262 329
3 75 305 262
3 262 305 329
3 94 261 295
3 72 287 261
3 305 257 98
3 305 278 257
3 257 278 324
3 63 260 62
3 94 256 95
3 94 295 256
3 256 295 114
3 277 38 258
3 258 25 277
3 280 329 317
3 317 318 280
3 330 255 321
3 330 298 255
3 255 298 57
3 322 254 311
3 322 284 254
3 254 284 98
3 58 252 308
3 308 252 39
3 58 293 252
3 252 293 39
3 318 251 284
3 284 251 98
3 318 317 251
3 251 317 98
3 329 332 281
3 281 332 319
3 329 280 332
3 332 280 319
3 40 250 27
3 27 250 39
3 40 308 250
3 250 308 39
3 336 248 323
3 323 248 328
3 336 320 248
3 248 320 328
3 287 246 52
3 52 246 35
3 287 273 246
3 246 273 35
3 245 73 283
3 95 256 116
3 116 256 114
3 308 239 58
3 58 239 53
3 308 24 239
3 239 24 53
3 116 237 95
3 95 237 324
3 116 238 237
3 237 238 324
3 311 236 322
3 311 307 236
3 236 307 117
3 35 273 234
3 234 273 285
3 121 233 99
3 327 232 312
3 312 232 322
3 327 284 232
3 232 284 322
3 103 229 105
3 105 229 126
3 103 303 229
3 229 303 126
3 113 228 275
3 275 228 116
3 113 271 228
3 72 227 273
3 273 227 285
3 72 245 227
3 227 245 285
3 316 226 283
3 53 264 223
3 35 222 277
3 277 222 38
3 35 234 222
3 222 234 38
3 324 238 221
3 254 98 221
3 221 311 254
3 234 285 225
3 225 38 234
3 140 271 291
3 291 271 113
3 283 247 37
3 283 226 247
3 247 226 76
3 257 324 221
3 221 98 257
3 73 282 301
3 301 282 72
3 73 245 282
3 282 245 72
3 322 236 337
3 337 236 117
3 37 220 283
3 285 245 220
3 220 245 283
3 258 219 265
3 219 264 24
3 285 220 225
3 225 220 37
3 26 217 16
3 16 217 40
3 26 265 217
3 25 216 15
3 15 216 26
3 216 265 26
3 95 215 94
3 94 215 301
3 95 278 215
3 215 278 301
3 38 214 258
3 38 225 214
3 311 213 307
3 213 271 307
3 281 218 329
3 329 218 316
3 281 226 218
3 218 226 316
3 37 212 225
3 37 223 212
3 212 223 264
3 76 211 77
3 77 211 281
3 76 226 211
3 211 226 281
3 326 210 334
3 326 312 210
3 210 312 337
3 58 294 321
3 321 294 77
3 238 235 221
3 221 235 311
3 238 213 235
3 235 213 311
3 334 210 119
3 119 210 337
3 265 216 258
3 258 216 25
3 214 225 212
3 212 264 214
3 258 290 219
3 219 290 264
3 258 214 290
3 290 214 264
3 40 288 24
3 265 219 288
3 288 219 24
3 143 276 142
3 142 276 119
3 143 299 276
3 276 299 119
3 217 265 288
3 288 40 217
3 116 228 238
3 295 261 51
3 51 261 287
3 37 247 223
3 223 247 76
3 293 279 57
3 321 255 279
3 279 255 57
3 53 253 294
3 294 253 76
3 53 223 253
3 253 223 76
3 314 323 302
3 302 327 314
3 17 274 29
3 29 274 27
3 238 263 213
3 213 263 271
3 238 228 263
3 263 228 271
3 39 243 27
3 39 260 243
3 243 260 42
3 126 242 128
3 128 242 147
3 126 233 242
3 242 233 147
3 27 241 40
3 40 241 16
3 27 274 241
3 241 274 16
3 99 231 303
3 303 231 126
3 99 233 231
3 231 233 126
3 31 230 17
3 31 11 230
3 230 11 7
3 147 209 143
3 143 209 121
3 147 233 209
3 209 233 121
3 42 208 65
3 65 208 63
3 42 260 208
3 208 260 63
3 31 207 44
3 44 207 29
3 31 17 207
3 207 17 29
3 17 206 6
3 6 206 7
3 17 230 206
3 206 230 7
3 16 205 6
3 6 205 17
3 16 274 205
3 205 274 17
3 62 204 293
3 293 204 39
3 62 260 204
3 204 260 39
3 65 203 42
3 42 203 44
3 65 43 203
3 203 43 44
3 27 243 29
3 29 243 42
3 321 279 58
3 58 279 293
3 72 201 301
3 301 201 94
3 72 261 201
3 201 261 94
3 6 202 16
3 16 202 26
3 6 10 202
3 202 10 26
