# vtk DataFile Version 3.0
A great-looking cell
ASCII
DATASET POLYDATA
POINTS 405 double
301.17779704499986 209.66690591915892 21.846910719995286
301.1642869673755 209.78242445290851 19.377335993440546
301.82401770962474 211.73343656892348 18.893260366513896
301.5605216413163 211.63815604866014 20.760227827767526
303.31717451376363 211.4561932728193 15.518294847073022
303.03698321585426 212.55402667940666 17.633818724658806
301.263262087223 209.75430425424128 23.798761654996614
306.31063758157626 216.239151972113 23.995296666638268
311.423853976243 195.08436501588866 28.22498616358073
316.9254981323527 222.98872689673485 28.538390042382872
316.48980456431417 196.7162393427616 23.90653183593652
308.797613079288 218.21315016746962 16.306326268642394
311.6098169298486 195.18341408479083 23.055314269768758
317.8900859147237 199.48543088201623 21.937062674608484
308.82098973496744 223.9320117595854 23.837884652148503
322.2410115338526 202.16538680108488 30.535026808268682
323.0332470861328 202.28415945365978 27.508268066314496
325.0693992651518 206.94438751621348 20.047644576486807
311.3175404376364 225.1070768510898 23.63583616265536
307.09000807074153 208.71726793832963 35.115383118945594
310.2914225528089 224.31034108919442 27.90523398799792
307.3243437628723 197.23672646102025 33.36664932372546
325.2417691804909 207.38900897726137 29.012535834874612
326.05023093660446 211.46138109002288 20.374213333522867
323.0964281130704 204.16518820634207 32.86160097527343
312.88237165106756 225.01162958328487 21.018773043763257
324.65390197611146 204.98368820318444 26.53620459382987
320.4944616177875 208.0255330716141 35.782185354169044
313.4596427947572 195.34871924861628 28.57875788172642
312.34690590598063 225.1088493751044 26.322250845085986
318.3010865935319 221.50853737147906 17.002040765040377
323.0893000270813 214.3034232463032 15.990099163166036
321.42364293452033 217.7953193582229 16.003119042079163
312.04028291462777 203.02621337930785 13.331056122748688
300.1733811939446 199.3606946929259 22.239633289912902
309.3714105176824 220.20865655490317 32.365075693341105
299.4843158952816 202.79628912051422 20.674650959908302
309.14178839278276 195.35609510089495 27.924149460214696
299.05056909848435 198.39414753468995 24.345373076660447
304.0146371470975 204.159318914366 36.801742314521434
305.25066402504217 197.24837276491425 31.96675093408663
297.920164737037 197.50682126242418 27.564636290566924
305.2007660494448 201.39224058419222 36.87434364126697
308.8685317423924 203.53061356909942 36.73972736660676
314.0176833443229 196.17601368315016 31.222216926399003
321.3342354090567 202.26795875980284 22.048343789068415
323.74979997969564 217.90012329670427 28.47514059212091
317.84086150447064 222.27171500229548 26.938555418192564
298.67009510984474 197.39185200839796 34.45470460798924
306.5781865205234 203.92180069190854 37.327084524271676
297.90368487475644 200.16805544960164 36.38648328324225
308.5165889834907 199.76184781078808 35.586052327250556
326.62780600757014 215.5530279299213 25.041338351560878
323.7727944682655 218.06656553968799 21.69730322794238
313.62177674376176 223.5050415919094 31.688666636064166
309.86248333890364 213.7714814248037 11.685675878040069
301.6150495157265 204.17993982532792 35.52442484901969
324.920342918235 205.7933115764441 23.174159227270057
316.45033588196145 212.07228189709878 35.90916427592123
321.74307782725003 218.68904471748013 29.613740742472615
323.021975736821 216.33958868207262 17.29085430734863
325.6582794903617 217.17520166596395 27.191339260430272
296.50182958427143 200.24024633757384 25.58398342509001
324.67835281028624 216.0780037532416 20.332918626894394
322.50175076813167 212.22710112412273 15.107279485680833
318.6104117904909 204.9992307410771 36.050481564158616
314.0514591422297 211.16066201706593 10.421277842069298
314.16497558755987 216.695700229742 11.778829435654792
324.05770805259624 204.43857452846743 29.716815433436913
320.24827351472806 220.7869214310504 20.9035919416107
311.6176359156786 214.67405930031575 35.47338373017618
326.5409063602976 214.0021772911946 30.469451543444098
326.31229416814966 214.0133889319597 22.669429871610834
322.1580502973878 219.28924285117293 23.171635090631817
325.74706764362804 208.27824367091236 25.76488265506103
314.11997941105466 216.32330639359017 36.39034823212618
316.11308055243745 223.1237109176 18.68859055252464
306.67568059535586 195.5228928037513 23.510390207999052
327.0081933441941 214.1747793749691 27.15025353200716
320.3035621681264 220.07913406659003 17.342612181920092
324.3898287668417 213.10124418630087 17.842937044422936
309.9692979293213 224.14919982428725 21.21097687438683
305.4896699415076 214.03381595964854 28.42497646395139
296.46066030232316 199.0574123487622 34.94567191873098
326.13804300779384 210.945073697545 28.577291830953833
319.37101116654406 216.01865296529724 12.935746165959202
296.33809910448537 203.91381405672004 29.878653456946935
300.78640096344844 200.9005455279118 36.74502107983009
318.0971112549176 222.28756029302573 18.99134597834575
316.8532713261688 199.99220947708312 19.380511432281143
308.6986452654689 204.94145231506266 11.414256745626814
318.6213373688031 211.00555575224095 35.855206797195486
321.34435489282697 215.27600339246865 14.443256892837312
304.0255205591289 203.84163251520116 13.160292866399683
322.92140173552764 213.34475929430613 34.50535173148933
317.8197736458196 204.5555127691293 16.635083641045355
308.3279753706539 214.83213799284027 13.091066716584345
319.1680251041182 202.2102027776097 20.6325811143634
308.55220350586063 223.01168948644474 28.702983940649638
325.0222948563269 217.34638304624502 30.73299062015062
315.30495735181626 209.90256460359984 36.30114379621506
314.5010950506726 214.21276155922433 10.961915855756095
309.3596199834102 208.05538690399038 10.04291374619254
314.3275413720122 225.0140895150292 23.93642501069388
310.65350096030255 217.5493983357273 34.226182152130505
312.1933972640366 216.88635798056856 35.65434028083021
309.386457564276 198.21662471335898 34.03813694473577
319.0103050875172 213.60786565203546 12.269244327227907
322.56302127132165 218.67482727035488 19.69582336291256
317.6544868461194 208.00504354106465 35.98329058398422
313.18256437819525 220.6882380654688 15.424365572918427
307.06003598786197 216.40226515780904 27.306243377270558
316.0315888483255 222.05879911934346 16.587204420625586
313.471143963686 203.26580999610235 14.277582133462486
296.02032614576143 198.99485722637363 27.494730731444246
315.28698001357014 224.0866321419255 27.363677288474754
301.22695459923534 208.42072238864566 25.648526025102424
323.29848525895073 215.57748701333153 33.700931544111604
321.78970711608 208.77267582508586 15.711659322789943
315.4109942945131 206.08721478771156 36.381537317894214
311.7001746444502 199.6530320696611 16.88892861590046
317.4570874480586 201.86101280050727 34.57578067648709
310.21389964280354 203.03229408507178 12.682508913300712
317.05373171328057 197.22722239519626 26.18916136112891
305.6923492839166 214.8537339152346 16.826473577487317
319.94555791858875 200.61124119924781 31.980772786202866
316.0719204041211 219.82712431248197 13.546094260035067
319.405420012966 221.04339509395413 24.277954695244905
303.1518680045583 209.70777543987683 14.237456165655173
312.8260985476989 195.94372429672978 20.9661643339043
309.33991162214954 221.84128516892832 19.076607113785098
314.2679726820706 201.46907927079576 16.346979507277354
315.73254027864476 209.42407586153556 11.613472364381693
318.2393394001634 198.59969201438471 24.437161360506398
310.05709868433644 224.81349268487207 25.675892892582986
311.5505010122576 215.53928435407013 12.071664057592736
307.61332526312844 220.8392413491619 27.572482823633912
314.134118089429 203.0663617194504 35.29113327346605
315.9078173995104 219.57411706498135 35.00676623404825
310.2019716898591 219.96711541956455 16.390153658203406
306.04963445315167 195.7361161172437 25.99115768449394
309.0933182845755 214.570470722297 33.47104936641351
312.6123050060008 204.86503180356118 12.550782244721095
314.4580897858365 198.03074080178533 33.098325152516935
325.46657830216276 209.24099234496686 20.21231825108203
305.8951675828331 210.3860812312663 11.944257476111623
311.24521307823517 197.3773057538121 18.879731857008
311.14242641269004 204.7704559414265 35.83685213027966
315.12224914807405 195.6860167013371 26.18949090754396
299.94423409947836 196.86487615646382 32.17357267511178
311.18259774610823 195.42503675367652 30.56267172344962
316.86833370163015 199.03847079380338 32.16934829465235
317.9362838026672 208.8521060919044 13.501113955047137
307.5944020130023 221.4824235757096 24.58635668364354
319.70977849696044 204.8295845475988 18.043312095966716
305.4786658891784 198.9503791948482 17.72186949694952
311.8452448986023 209.31313404510047 10.303423364141223
324.58299210820013 209.41915772385664 18.03358671974964
307.8883093996468 201.88883617076274 13.608830611289672
307.31378404381195 206.64119805530225 10.26861754265634
322.84349909031016 202.80547595554856 24.074337247115654
314.04671738704945 223.52307686472219 18.477167505861523
302.0629666481602 198.1590467192053 23.46034312205232
311.5868833723931 201.42434919720827 14.501823925049825
303.6691988227122 201.8355300016039 15.030574669117383
303.9949953515906 208.86713045416798 12.797705610757703
308.9806675352409 195.32309236060496 24.116924430510775
314.07613605048414 195.60678769780986 23.418137263107635
308.0642261130846 197.94073034772256 18.36060743425949
319.90167723924463 220.04914022980907 27.411799671912647
300.0599786892121 206.87358138503012 26.836082255458628
301.4938519404306 207.72952752806546 16.501904283204265
311.87321916638354 222.26551146351335 17.322223811923266
300.7386813772075 207.9361135434403 23.34652208139865
310.11553219979845 196.32330880339862 32.535893651165075
298.03674749050407 197.21922804215353 31.033085263689987
325.76354718402945 215.22957414555097 32.648708350697454
310.2890379383338 212.9273553504626 34.63337699432798
297.78950678856177 204.90891306571424 25.434487929168814
318.0540844336387 210.8524340692853 12.124809366724618
316.4631404892545 221.60024079043285 32.54850384259962
295.95011718210594 198.82729746761893 29.53060347962006
315.8477499679428 204.28407254193408 15.400968250019107
301.4707026759307 204.60609298153838 16.296986830136508
303.6357854804994 198.39474797824528 21.463397236954968
295.2023055731316 201.81698124069783 30.60766036096812
326.8983075531208 213.86048089808216 24.887874394461928
322.029897393944 217.85477067697613 32.29666426885156
308.0633488652447 222.08310042624265 21.791274356647083
315.16093800378843 200.20382811363865 34.279489673142685
302.12694699731526 200.93960326858766 19.214989537663616
308.4237994468251 211.94344903322633 11.62210815462895
301.44859052952626 206.2798604621787 15.60865618593825
300.8480652252016 196.55366139978057 29.95390057701658
313.4008871835653 207.6646747200473 11.538465945136501
306.25289479746374 212.6269628152268 13.106896485051818
304.7796155371449 196.67290218062925 22.968142674024474
307.7478872241415 201.26919265036517 36.740998726913304
315.69227682795145 197.21156716698403 31.624412048976275
300.5646544169324 207.50663773539986 20.94734054326531
309.664807485245 210.27303312764755 10.372329595751035
301.6864393219938 202.30519323640922 17.034472602940603
316.3758772140468 203.81615740663636 36.005417329385956
313.7490871320129 222.46239262613003 16.66433069167748
313.0138622863774 218.89897869196662 35.75686979528125
299.783213899685 206.3688369450118 22.83444450014345
319.67682109384833 200.02105979363705 25.839681179989313
301.49994696272444 209.10753269926937 17.50012115023492
318.6681316398749 206.59507987130226 15.418210619771887
320.68461947414613 213.99925321159284 35.49097558059542
308.1602840482797 221.41089689239075 30.117015554215435
301.04490793454016 206.12620910212533 17.489694933319008
310.2380398662763 223.36359326007175 30.817083717471554
300.90616027953143 202.27441048245538 19.30792188128782
313.78049188828885 209.380247937835 10.90629809408421
312.47663308462944 199.821084501974 34.859734440097796
301.94246210876247 199.47670338052677 21.056977517402544
320.68821451995643 202.74960312099148 34.425452183795244
318.2769494868481 220.76581029808676 15.401588771187908
321.0582864437745 219.78920547896396 25.344333652324636
302.82010981862567 210.8393132919622 29.7291310232936
314.2200102620361 198.94802051363567 18.389482440351067
304.3654998695365 197.87622879060982 34.156770279656776
298.67634125283627 204.9135549304529 23.54480603292312
317.15452488770603 197.98175796570953 22.778843867245516
324.90617428717525 212.58475075631299 33.15968787771769
304.34398588116244 213.5609889129524 16.15296268831167
301.48266170342066 210.00118816613585 27.640372983705465
299.9577053995158 206.0113382293828 28.491247363581746
316.876602804624 214.21920371070507 11.189660875541122
311.5082473107154 221.99185809010197 32.91998010417794
302.47950355092377 205.3203105698249 14.400796760619981
311.3851897621386 212.3995449516271 10.776862893500772
299.7171691593018 205.03943235292382 21.248499037354506
301.44369837078443 206.8852658221497 29.73585629164201
303.66811319600026 200.55963091930866 17.279772426387805
318.42179501220085 219.31725514573324 35.100845140092304
297.15612237820494 204.43378742046204 32.11279237799215
297.35460776423275 203.0655905842122 24.381346984664006
318.1018486256712 221.50975971422068 29.67553637627301
320.1261103642396 210.759686759977 13.647998043284513
300.66183411012156 204.20046411407813 18.77378509050638
310.0068233192157 198.52726742845604 17.278403983063157
310.86371257507886 206.45409133477642 10.809660923404879
309.9936117469631 217.68744636424336 14.346164857291207
308.7978366252421 211.3081895410768 34.150696794583546
311.9806077184241 195.08932176598364 25.903643702740155
304.01348561655 210.24491873520103 31.850314115056708
301.31680846565644 207.7072087413237 27.830290708951793
298.40262774005885 205.6721201788957 27.105141548935922
324.76542390369235 206.45147049002392 31.666919582473696
299.6668530643885 206.30164129986434 25.005038051197644
324.9953496564264 217.41250302631582 23.71049004404204
305.6201398371076 215.06951776817246 22.3280399978901
313.6678756101667 221.19447355938118 33.915736284258486
307.83746844649437 218.55762480458407 18.73968190325456
295.237715558852 200.655668064813 27.969334634128217
321.6435167176004 205.34980198978312 35.265224726672876
312.68755557149495 224.63743084968786 29.0917655308899
319.11096372155436 215.6345279463807 36.34218437160897
306.42442012493973 196.03391185121788 29.224357807560704
300.4094988348674 206.14041912204976 19.36892933009682
311.59446411664277 220.01010485251518 33.869131133175046
321.74469674360824 202.14206312266083 32.588314893813184
325.9948657836977 209.21184138680718 22.41169102202548
302.3518528548368 208.39055533986382 31.419207152244297
316.4915158749375 212.21927477846077 11.128085644681581
300.1567208168824 204.94301160588736 33.00783832094528
305.1206598409597 212.5009092648942 30.795327467250335
304.3451645182001 208.1914507762584 33.762472587101165
308.29826730871144 196.15139715017514 31.49339349705305
301.4086091375772 206.22111740826904 31.504747378697278
301.11750375443773 198.14160853445225 35.83226949088088
318.17161001505605 222.3103496727214 21.887843976984787
326.6215623047178 215.92848991175384 28.947476507238967
312.0327118658331 196.6826899988601 33.35917584588242
307.501974077924 215.0383996601687 30.45554726517373
302.68513511715736 213.2815513422765 19.67802910887616
320.422160645383 200.58938266153658 28.365010012689602
303.7820635139035 196.73126363974723 28.581392817062582
295.7306175501978 201.6592052705194 34.295650625857874
298.558909730757 203.3789738953463 35.38876627430919
317.04255676506824 202.5675681616068 17.74626190061868
303.82384428262316 213.61234979944476 27.37204567623682
306.42869510564213 216.4046112901157 21.128517459591865
315.85169610012986 223.08890614102683 29.94995984300426
309.96575232505177 201.4513438691031 35.45802479796381
307.26666940399696 219.1753534519264 22.28834235615998
296.2190844615371 203.4764835561621 27.398878299264354
306.1356820766266 214.2002987992231 14.907768503765656
297.78633403922396 205.12480463860862 29.303729590039115
323.49579824339736 207.72954208811777 34.09963477460452
305.1837479404875 214.4176240681937 26.010264521550344
302.4803093951032 212.17309676878205 27.514902076718908
322.36800153624165 211.00628017978636 35.04549944073839
304.4030071491924 214.00618285937824 23.491543322457712
303.40536798994265 199.0760834229392 36.01508152937471
325.9366407168248 211.73574317418468 31.03989983986424
315.6581259176272 200.6730059711313 17.868239021458567
314.4749748504689 224.17617144459703 29.618079260692937
321.0004208952954 212.94395246955148 13.565849710104052
316.3816367380442 197.02147266307472 29.189361619318895
311.45000354661937 223.78213358797535 19.13300725113536
319.8268394000541 208.52284342079497 14.237636118434423
307.2257152672024 212.8695383090439 32.427549017922836
306.22916878872877 215.59760540798737 18.762452571738827
319.5261817332654 218.41341992361134 13.999212413708234
303.92934397422766 212.64584937768075 28.7749932705082
315.0568021618353 218.21298489135205 12.034082196075646
311.92717948967777 211.13919658488945 35.313226111613396
302.5335122324525 207.62714326403682 14.456170881677366
318.1679692026702 199.48408133787603 29.72139876264938
304.81802216755705 212.6715358304677 14.536267347558782
298.3638060129193 203.44488899414887 22.33406788710613
320.23428438491214 200.73639331308794 23.438429618150582
304.5317254821568 214.59034240291277 20.82380199793127
302.55233445782784 213.2828086856863 21.945696109863608
306.064112416347 200.7712154551452 15.782904117893917
313.34664002864633 205.4096929749223 35.81354695251676
308.99370135965813 200.00725034586773 15.799167284196537
306.46814523258183 198.56869277813647 35.28395960958449
303.0319021846104 196.8604086714072 30.9271815012639
314.40519589647164 204.70448530268092 13.813335604177214
308.3240523752671 206.30891913356555 37.04875831860752
322.0083613402458 218.3496284519004 17.514910891618698
304.4581199822224 211.05127673017105 13.520940879393464
302.620940289556 203.56228042466634 15.144891092147626
309.99584874136406 208.2794418517256 35.40114285021744
307.5337365291572 196.3212995999961 21.360522139496247
318.22523089143385 198.9201726067957 27.2545547975824
306.93660841456375 204.96159780543059 10.894722914180123
308.9523040404343 217.19710668863064 32.00444041411953
302.3954339351839 212.9046768785533 23.88663116893823
303.58640461695575 199.2185096978247 19.396885436939616
302.98496443094746 201.96231134691334 36.630721788133
308.3437026170059 203.14822134052713 12.12580733458803
322.4535262167097 206.70213283561534 18.12375142163314
315.5206382673595 206.61736690115322 13.377087200447159
301.7173269168419 211.23209167434467 25.299485755936118
309.05535453480417 206.40058700046487 10.29401135017162
310.6289414327997 204.70258818248553 11.633699731132472
319.470109501328 219.7924502933652 32.31408003908136
316.94920102968797 223.27188165711908 24.24344507322724
302.0496918844481 208.74868226737078 29.203431361063625
316.90351210172247 216.48248596129918 12.12355338014423
302.1400068084833 209.4434180150623 15.806912323853258
319.7621266857059 219.9765741646788 29.759155289651027
316.0316972985806 223.9690738283962 20.9604195158145
300.82797588115034 207.76343278496182 18.493922605314392
307.78404631785367 220.55215064266832 20.349227410390593
308.04719632150676 218.5561567507945 29.63473946629943
315.8363167189539 215.19155503539204 36.534806408489665
307.2396930835361 218.80816912788117 25.556242439916332
304.2153139123365 214.3838595233431 18.278602405041237
317.51382532719947 214.00316298422337 36.44739233766118
302.1602666803468 197.12157490385212 33.26811637284133
313.62661505431385 197.10164858256698 19.53002880306188
307.5113704397787 209.31836562250402 10.509720414591206
307.6191137816753 216.25049068677518 16.141145385872463
298.2054553864576 200.9696186711148 22.509896813796967
320.27760581071686 217.2586271493418 34.883826762930845
305.42400413626785 206.5641144040871 36.34792385404836
308.4705343690077 223.34312392986288 26.434198616076262
325.4483193445018 209.48369526253674 31.781126889600834
299.6799220549649 205.5395370397545 30.652046630364705
306.62043698508575 203.62837578116563 12.113810623376374
322.4777263836623 204.17860877243717 20.63903541569597
315.5288737721825 197.54274577673579 21.1607339997487
312.9219252259496 218.5793522581649 13.043676911127402
300.35440303417977 200.89790475711317 20.72390215687134
325.6964811478682 213.77470009104647 20.16623482148171
303.1694085284225 213.2344697610417 25.612868497860084
299.6012334512869 198.74351186742467 36.572823462905816
314.5898976315648 213.29370394800324 36.397615593206226
301.20925863562206 197.27449219118077 26.518189329526457
307.61584041888267 218.6516280478754 27.515251527613554
307.094496304586 199.2434389781553 16.75000767483392
326.608225163001 211.5681987586518 22.54105282043757
301.6387234739904 211.4566918618184 22.91390796676492
305.645757451417 202.42213887686273 13.947950483940199
317.2030806526527 217.21099415761535 36.94135854809334
320.7312124423023 206.60224863055873 16.71768524274796
317.6289529864199 220.25922653492466 33.86926346149796
312.7929605647364 207.6208785997374 36.019958952882504
302.2358904095106 206.33953886538197 33.358327089731475
303.7041114771882 206.41478652542992 12.64253906706197
309.2274116053973 196.76820022746344 19.89357420929673
306.11053821678394 210.62418272361904 32.954596098401744
303.33261218123477 206.12056349206196 35.33953079082237
324.3130963554821 210.1855585940611 33.77407984071764
323.3963174881386 210.8554323861629 16.622142662860025
309.6704556453853 201.46263548139873 14.017702251555782
303.6866615236308 197.25252407478303 25.546996387986972
311.5034905794327 219.3560977950756 14.683404703153283
295.90473880705594 198.7938446641535 32.59358343390028
301.8574403249953 210.81443493545956 17.327185292766085
305.2334024580814 197.3838631123279 19.939105056585504
310.2014043452333 195.9690547853622 21.2966799269044
326.626602646273 211.67359319561112 24.859155202425292
305.32188295602435 205.37810693648646 11.193722832066493
315.00653257354526 218.16392861500557 36.40262764332647
305.4099298851838 207.87720076778217 11.319543473949619
311.9249932460175 202.2759325578506 35.477662465641316
322.6744654673115 218.509014835822 26.412805929178514
321.4372988286307 201.02501314828095 25.798927099632902
POLYGONS 806 3224
3 6 0 173
3 6 378 0
3 248 227 116
3 1 0 3
3 1 3 2
3 338 6 116
3 338 116 227
3 5 395 2
3 0 378 3
3 6 338 378
3 332 378 338
3 378 332 316
3 371 295 332
3 353 226 5
3 293 283 371
3 82 292 283
3 283 292 371
3 338 371 332
3 338 293 371
3 295 371 292
3 292 7 295
3 287 284 7
3 316 277 3
3 293 338 227
3 307 82 283
3 283 293 307
3 276 82 268
3 268 304 276
3 220 268 307
3 307 268 82
3 353 277 315
3 315 277 316
3 332 295 316
3 316 295 315
3 343 227 248
3 292 111 7
3 111 276 350
3 7 253 295
3 295 253 315
3 7 284 253
3 253 284 315
3 269 247 265
3 247 268 220
3 265 220 343
3 287 255 284
3 284 255 305
3 304 268 387
3 271 234 364
3 248 116 170
3 247 269 387
3 387 268 247
3 293 220 307
3 293 227 220
3 267 384 271
3 269 265 384
3 384 265 271
3 265 247 220
3 234 265 343
3 265 234 271
3 6 173 116
3 3 378 316
3 249 228 170
3 234 228 364
3 238 223 313
3 3 277 2
3 2 277 5
3 343 248 234
3 5 277 353
3 199 261 233
3 223 205 233
3 205 199 233
3 173 251 116
3 223 233 313
3 205 223 251
3 1 199 0
3 199 1 348
3 313 359 238
3 211 171 192
3 199 205 173
3 233 261 241
3 261 211 241
3 171 348 207
3 207 348 1
3 213 36 241
3 313 233 36
3 36 233 241
3 173 0 199
3 211 183 241
3 284 305 315
3 315 305 353
3 251 249 170
3 116 251 170
3 288 178 238
3 251 223 178
3 178 223 238
3 395 207 1
3 234 248 228
3 248 170 228
3 205 251 173
3 227 343 220
3 228 290 364
3 228 249 290
3 290 249 288
3 271 364 267
3 364 237 267
3 237 364 290
3 348 261 199
3 261 348 211
3 211 348 171
3 192 183 211
3 207 345 171
3 345 310 171
3 289 312 226
3 226 312 4
3 312 325 4
3 326 183 231
3 345 207 395
3 358 305 255
3 38 162 374
3 251 178 249
3 249 178 288
3 333 235 155
3 201 164 235
3 385 231 310
3 304 141 276
3 304 245 141
3 345 128 310
3 128 165 310
3 139 255 130
3 146 120 221
3 163 131 120
3 120 131 221
3 158 319 317
3 395 4 345
3 182 131 113
3 113 131 163
3 368 135 244
3 110 126 368
3 286 106 215
3 156 194 243
3 243 194 142
3 102 156 243
3 358 96 289
3 325 145 165
3 165 145 401
3 401 357 159
3 401 145 357
3 357 145 191
3 326 164 201
3 2 395 1
3 241 201 213
3 226 124 289
3 305 358 124
3 124 358 289
3 38 374 41
3 41 374 193
3 128 345 4
3 4 325 128
3 215 189 137
3 163 120 319
3 128 325 165
3 171 310 192
3 135 101 232
3 395 5 4
3 5 226 4
3 102 159 357
3 305 124 353
3 353 124 226
3 183 192 231
3 231 192 310
3 325 195 145
3 195 191 145
3 312 289 195
3 195 325 312
3 96 191 195
3 195 289 96
3 97 154 366
3 276 111 82
3 82 111 292
3 401 385 165
3 165 385 310
3 387 245 304
3 159 399 401
3 399 385 401
3 166 77 328
3 328 77 196
3 166 140 77
3 77 140 196
3 73 403 252
3 78 71 84
3 141 70 104
3 309 373 70
3 127 73 69
3 69 73 108
3 368 67 135
3 135 67 101
3 67 344 101
3 101 266 66
3 66 266 132
3 118 240 64
3 252 72 63
3 344 126 306
3 359 62 238
3 252 403 61
3 309 100 373
3 319 391 163
3 163 391 122
3 319 158 391
3 391 158 122
3 108 63 60
3 60 63 80
3 373 58 354
3 354 58 91
3 373 100 58
3 58 100 91
3 366 57 160
3 264 74 57
3 70 373 75
3 209 354 91
3 135 55 96
3 96 55 191
3 135 232 55
3 55 232 191
3 101 229 266
3 266 229 107
3 101 344 229
3 229 344 107
3 365 93 399
3 102 200 156
3 191 232 200
3 200 232 156
3 215 402 286
3 286 402 147
3 215 137 402
3 402 137 147
3 221 89 367
3 101 66 232
3 232 66 156
3 119 100 383
3 383 100 309
3 264 398 74
3 384 388 269
3 93 326 231
3 93 164 326
3 294 209 91
3 388 384 56
3 56 384 267
3 155 396 333
3 328 196 396
3 87 56 281
3 281 56 267
3 88 69 79
3 79 69 108
3 169 59 403
3 252 53 73
3 73 53 108
3 252 63 53
3 53 63 108
3 252 52 72
3 252 61 52
3 52 61 78
3 286 51 106
3 106 51 320
3 286 197 51
3 51 197 320
3 323 361 49
3 135 96 244
3 244 96 358
3 127 219 73
3 73 219 403
3 127 169 219
3 219 169 403
3 279 193 374
3 239 169 47
3 47 169 127
3 403 46 61
3 61 46 99
3 403 59 46
3 46 59 99
3 87 334 56
3 87 296 334
3 334 296 42
3 238 62 288
3 323 43 147
3 147 43 286
3 43 197 286
3 197 42 320
3 42 296 320
3 319 376 317
3 317 376 155
3 319 168 376
3 376 168 155
3 41 62 38
3 168 328 396
3 396 155 168
3 56 39 388
3 39 361 388
3 196 392 162
3 162 392 374
3 196 140 392
3 399 93 385
3 385 93 231
3 374 392 279
3 279 392 140
3 166 37 140
3 150 270 37
3 313 36 359
3 213 369 36
3 36 369 359
3 359 369 34
3 142 33 122
3 122 33 163
3 142 113 33
3 33 113 163
3 79 32 306
3 306 32 92
3 32 60 92
3 112 126 110
3 49 197 43
3 43 323 49
3 111 352 7
3 7 352 287
3 352 153 287
3 245 327 309
3 147 383 327
3 327 383 309
3 141 331 276
3 276 331 350
3 141 104 331
3 360 259 209
3 209 259 354
3 360 380 259
3 259 380 354
3 327 245 19
3 388 361 269
3 182 282 131
3 237 281 267
3 152 337 132
3 361 39 49
3 49 39 42
3 159 339 90
3 90 339 243
3 159 102 339
3 339 102 243
3 333 184 216
3 333 396 184
3 184 396 196
3 107 179 266
3 107 240 179
3 179 240 152
3 49 42 197
3 130 172 139
3 172 110 139
3 93 379 164
3 164 379 317
3 379 158 317
3 59 346 341
3 341 346 239
3 59 169 346
3 346 169 239
3 158 335 122
3 122 335 90
3 158 365 335
3 335 365 90
3 365 158 379
3 379 93 365
3 42 39 334
3 334 39 56
3 38 34 162
3 162 34 216
3 216 184 162
3 162 184 196
3 115 342 103
3 115 47 342
3 342 47 127
3 347 103 342
3 201 190 213
3 153 188 287
3 188 81 130
3 180 341 239
3 136 153 352
3 190 216 369
3 216 34 369
3 266 179 132
3 132 179 152
3 359 38 62
3 359 34 38
3 208 182 337
3 337 152 208
3 98 362 136
3 136 362 153
3 333 190 235
3 235 190 201
3 326 201 183
3 183 201 241
3 154 336 366
3 118 157 336
3 152 303 208
3 208 303 118
3 152 240 303
3 303 240 118
3 216 190 333
3 369 213 190
3 354 351 373
3 373 351 75
3 354 380 351
3 351 380 75
3 139 393 244
3 244 393 368
3 139 110 393
3 393 110 368
3 122 340 142
3 142 340 243
3 122 90 340
3 340 90 243
3 142 322 113
3 113 322 182
3 142 337 322
3 322 337 182
3 89 282 97
3 97 282 154
3 138 254 204
3 138 180 254
3 254 180 54
3 126 218 306
3 306 218 79
3 126 112 218
3 132 337 194
3 194 337 142
3 309 177 245
3 245 177 141
3 309 70 177
3 177 70 141
3 380 236 138
3 380 360 236
3 236 360 341
3 90 330 159
3 159 330 399
3 90 365 330
3 330 365 399
3 107 85 92
3 92 85 306
3 107 344 85
3 85 344 306
3 92 31 64
3 64 31 80
3 92 60 31
3 31 60 80
3 191 200 357
3 357 200 102
3 209 117 360
3 164 317 235
3 235 317 155
3 110 203 112
3 112 203 161
3 110 172 203
3 203 172 161
3 75 105 70
3 70 105 104
3 75 204 105
3 105 204 104
3 54 180 285
3 285 180 239
3 54 258 212
3 81 302 130
3 161 172 302
3 302 172 130
3 92 300 107
3 107 300 240
3 92 64 300
3 300 64 240
3 65 109 119
3 91 100 109
3 109 100 119
3 88 76 347
3 347 76 161
3 88 112 76
3 76 112 161
3 79 30 88
3 88 30 112
3 79 218 30
3 30 218 112
3 350 210 136
3 136 210 98
3 350 35 210
3 125 121 151
3 160 45 366
3 366 45 97
3 160 314 45
3 45 314 97
3 103 29 115
3 29 258 115
3 74 398 84
3 84 398 78
3 291 294 27
3 27 294 91
3 160 57 26
3 26 57 74
3 103 347 25
3 25 347 161
3 302 81 25
3 25 161 302
3 80 23 157
3 22 74 84
3 153 362 14
3 14 362 134
3 98 20 362
3 362 20 134
3 285 299 54
3 54 299 258
3 285 115 299
3 299 115 258
3 269 361 19
3 19 361 323
3 103 25 18
3 18 25 81
3 264 57 17
3 17 57 366
3 188 153 14
3 14 81 188
3 212 258 20
3 20 98 212
3 160 26 16
3 16 26 68
3 278 15 125
3 68 24 15
3 26 74 22
3 22 68 26
3 138 400 380
3 380 400 75
3 138 204 400
3 400 204 75
3 29 103 18
3 18 134 29
3 22 84 363
3 22 250 68
3 291 24 250
3 250 24 68
3 134 18 14
3 14 18 81
3 134 20 29
3 29 20 258
3 35 230 212
3 212 230 54
3 230 254 54
3 151 311 125
3 329 278 311
3 311 278 125
3 125 217 121
3 121 217 65
3 97 13 89
3 97 314 13
3 13 314 133
3 88 273 69
3 69 273 127
3 88 347 273
3 360 187 341
3 341 187 59
3 360 117 187
3 204 262 104
3 104 262 35
3 204 254 262
3 98 210 212
3 212 210 35
3 230 35 262
3 262 254 230
3 269 19 387
3 387 19 245
3 342 127 273
3 273 347 342
3 64 390 118
3 118 390 157
3 64 80 390
3 390 80 157
3 138 382 180
3 180 382 341
3 138 236 382
3 382 236 341
3 72 370 63
3 63 370 80
3 72 23 370
3 370 23 80
3 109 65 27
3 27 91 109
3 287 349 255
3 255 349 130
3 287 188 349
3 349 188 130
3 147 327 323
3 323 327 19
3 383 318 119
3 119 318 137
3 383 147 318
3 318 147 137
3 344 308 126
3 126 308 368
3 344 67 308
3 308 67 368
3 131 298 221
3 221 298 89
3 131 282 298
3 298 282 89
3 106 275 215
3 275 143 215
3 65 257 27
3 27 257 291
3 257 24 291
3 189 215 143
3 336 157 17
3 17 366 336
3 160 404 314
3 160 16 404
3 404 16 278
3 291 250 363
3 363 250 22
3 329 206 278
3 314 404 206
3 206 404 278
3 16 68 15
3 15 278 16
3 151 121 189
3 189 121 137
3 129 397 146
3 397 166 328
3 150 174 270
3 270 174 106
3 150 275 174
3 174 275 106
3 37 166 246
3 367 167 129
3 148 246 167
3 301 329 311
3 311 151 301
3 148 123 301
3 133 329 123
3 123 329 301
3 154 95 208
3 208 95 182
3 154 282 95
3 95 282 182
3 225 94 294
3 294 94 209
3 225 117 94
3 94 117 209
3 221 356 146
3 146 356 129
3 221 367 356
3 356 367 129
3 28 246 148
3 166 12 246
3 166 397 12
3 12 397 129
3 139 11 255
3 255 11 358
3 139 244 11
3 11 244 358
3 148 167 10
3 10 167 367
3 133 314 206
3 206 329 133
3 319 242 168
3 168 242 146
3 319 120 242
3 242 120 146
3 28 148 301
3 151 189 143
3 367 89 13
3 24 263 15
3 15 263 125
3 24 217 263
3 263 217 125
3 118 381 208
3 208 381 154
3 118 336 381
3 381 336 154
3 167 246 12
3 12 129 167
3 115 9 47
3 47 9 239
3 115 285 9
3 9 285 239
3 123 148 10
3 10 133 123
3 246 8 37
3 37 8 150
3 246 28 8
3 8 28 150
3 150 44 275
3 275 44 143
3 150 28 44
3 146 386 168
3 168 386 328
3 146 397 386
3 386 397 328
3 301 44 28
3 156 214 194
3 194 214 132
3 156 66 214
3 214 66 132
3 119 202 65
3 65 202 121
3 119 137 202
3 202 137 121
3 217 24 257
3 257 65 217
3 136 375 350
3 350 375 111
3 136 352 375
3 375 352 111
3 140 260 279
3 270 40 260
3 260 40 279
3 367 224 10
3 10 224 133
3 367 13 224
3 224 13 133
3 350 331 35
3 35 331 104
3 143 198 151
3 151 198 301
3 143 44 198
3 198 44 301
3 264 377 398
3 398 377 72
3 264 23 377
3 377 23 72
3 270 260 37
3 37 260 140
3 294 389 225
3 225 389 363
3 294 291 389
3 389 291 363
3 60 324 108
3 108 324 79
3 60 32 324
3 324 32 79
3 225 297 71
3 71 297 84
3 225 363 297
3 297 363 84
3 280 281 237
3 78 274 71
3 71 274 99
3 78 61 274
3 274 61 99
3 72 186 398
3 398 186 78
3 72 52 186
3 186 52 78
3 185 280 237
3 99 176 71
3 71 176 225
3 99 117 176
3 176 117 225
3 62 256 288
3 181 185 256
3 256 185 288
3 181 41 175
3 175 41 193
3 48 149 355
3 355 149 193
3 48 175 149
3 149 175 193
3 181 175 394
3 394 175 48
3 181 114 41
3 41 114 62
3 181 256 114
3 114 256 62
3 288 86 290
3 290 86 237
3 288 185 86
3 86 185 237
3 281 50 87
3 281 280 50
3 185 181 394
3 394 280 185
3 279 321 193
3 193 321 355
3 279 40 321
3 321 40 355
3 87 272 296
3 296 272 355
3 272 48 355
3 59 187 99
3 99 187 117
3 264 144 23
3 23 144 157
3 264 17 144
3 144 17 157
3 48 83 394
3 394 83 280
3 48 50 83
3 83 50 280
3 40 21 320
3 320 21 106
3 40 270 21
3 21 270 106
3 48 372 50
3 50 372 87
3 48 272 372
3 372 272 87
3 40 222 355
3 355 222 296
3 40 320 222
3 222 320 296
