# vtk DataFile Version 3.0
A great-looking cell
ASCII
DATASET POLYDATA
POINTS 183 double
25.410799989430117 248.83442209978318 36.43095107740774
26.873340600874243 247.5249862141428 36.62895109915502
26.303590470022083 245.58607725013007 36.484234635264684
28.126497411689986 246.04205733489593 36.5612470735366
24.328178931040433 245.1854424216491 37.153549563474215
25.85690080023797 243.552500402902 36.99747835228351
27.92183699593765 244.10294000075268 36.57753105678131
22.936801377907866 246.91770535489792 37.511920565692805
29.29920093393935 247.59350397353796 37.64755663383927
23.189040783331308 249.03684281289586 36.39261771560824
22.8278609269487 251.41752280427315 35.7144733266282
28.904244881630575 249.70128127577883 38.24934108271344
27.135585777935486 249.6674123528473 37.11385906562238
24.974626573298103 250.69909539880564 36.279870777590276
24.068471161567512 243.26769571877088 38.19593113092783
25.42852203727551 241.72621993500726 37.792716483605425
27.47901656574629 241.93421138219477 37.37243952845825
29.77021762704875 245.1153479076643 36.96618998772407
21.585264364184212 245.21064655338682 40.433053270428225
31.1654167012575 246.03154624838263 37.95372077976555
21.41404582174164 246.88419079273376 39.086622465507055
21.450261458754262 248.39131817627154 37.7540550906916
20.483295145340982 250.58555981810747 36.89346928455851
21.128710628811906 253.76255285899208 35.86271977332959
24.536194462587066 253.33133351946702 36.27080660178069
29.18445513942704 250.68410351149282 40.32377258725673
26.51451597594094 251.85155967999125 36.861657996158286
23.927168063500524 241.1228179365333 39.282543434176695
26.480484495768504 239.5091229287096 38.693768864719075
29.394603401832164 240.48080213637695 38.239810592914125
31.42821975628385 244.06955046160152 37.88277990023522
31.664748660744102 247.36213089777135 39.90493704691582
20.45789347993229 247.0677222339131 41.10992032174396
17.428201722033226 251.43663709360655 38.70250341563266
30.02900738483402 248.96568437794326 39.27475546426355
19.48828801794246 248.7994386342044 39.30117024528784
18.31546598927733 257.6040924080321 37.38703186466154
25.20010387927745 256.20238459754523 37.288558171507646
28.21097895492004 252.49654250081798 39.939451679081536
26.9874631097181 253.7796917326981 38.1090269269383
27.913433467937033 251.3594752771771 38.295684806268234
24.526295174090215 236.3719212877482 43.84176086345493
30.208611033344702 237.44856939444927 42.001055689049856
33.028432537047266 245.13282511679319 40.72557965172145
21.353109161178914 243.66773300163507 46.20232758754897
18.735613530083324 248.30046229336202 45.35253205287662
31.71423245783597 248.46860081900564 42.55617613557495
30.485252888222977 249.31526801579966 40.97736870263161
15.316760219239383 255.5760004967653 43.67988436720763
16.425323219307124 250.75711662437482 44.22534169634396
26.473470455820017 257.6509500872199 40.3463765366801
29.713982842936957 250.1370425586994 43.12109415969758
27.717303532362415 254.77705332320838 40.72356056383261
28.40174507047844 252.41309035281498 42.120009109508636
29.5052457552584 244.04444095285453 50.67149157267075
23.684905744983304 244.08387544006357 50.25836453262752
25.136043056043224 257.7552553267116 48.2798651615123
25.01550485334414 260.37276373931746 40.33364063968898
24.137324458432502 261.3351038155225 44.95087291524546
25.925040855416707 259.02853008772695 45.847034721287926
17.289986570953133 261.0052356043686 45.32364213332359
17.789330816685244 260.14114559967777 47.96081460103545
21.53810932326929 262.58869992096726 44.06187068472354
22.27177625535782 262.19326456168324 46.70390042024868
23.053471040009452 261.53642933482865 39.36233829250616
19.65850328775899 256.248984076372 50.10469763620043
29.261478061147272 249.96911185581322 46.205689692631985
20.42061287976985 262.32550858869365 40.847078457483626
24.141211053676493 259.2537907515155 37.96701046727273
15.332009684286302 253.09842694011138 44.139278667009975
23.254980930692838 255.16311902837958 36.10600530421268
20.72109230247897 251.4444707047885 49.683157411246356
17.75886808735597 260.41111460553793 39.61651155383133
15.87010116104412 256.1044854037734 46.198763619718356
24.63747767555977 254.89701546205882 49.12502637305789
19.575875301280504 262.1509550830087 46.311234304527005
19.154970602662665 258.7676477623798 50.380603857759795
16.579439748951884 250.33298523828148 41.271024522608215
18.975779349353953 252.37653902242596 36.602029703756365
22.426480922289194 257.7971899574789 50.02806496717373
17.892940110809526 254.4425043389236 36.90295626639473
21.578945355573236 254.4223090189668 50.16454141288748
21.83135318916383 257.08480005974076 36.34185129890375
16.069975752636942 253.666737535522 46.591686190762275
27.45061720248023 256.18121487046244 42.093318480308916
15.388483339243463 252.77051281863055 41.66741792611022
20.77777308486804 260.3941169698198 37.68566103444785
16.203918501154323 258.3248377720895 45.478403178877436
26.889336316675713 257.2960444892441 43.60092773449275
26.81164285908977 255.90187976597397 46.695906258741104
16.94705546639643 256.7489887250836 48.574227009720545
16.697928683707246 260.04675815454607 42.69981203953543
16.098371695349005 257.79011295135973 43.134036575707775
30.876951408935625 246.32890560445045 49.72524465003327
25.44839136016682 249.46137441866628 50.13092774751025
31.186835275649344 247.82843713293624 47.403909713614
15.340991995004197 255.05420432402906 41.2382365639045
27.796049334949362 254.5371245412966 43.77780885467975
23.97506122960498 238.62901698437702 40.97980390731137
32.39814388090193 247.25804955129715 44.07497113287219
32.850415609361065 240.95951410692055 41.97160264677189
17.636453460915533 249.47799254605928 40.14036777401595
29.914091978164567 236.70561605421443 46.97354764275578
25.607037728685352 239.30876159704874 48.779931041349535
26.610437483716794 253.93106115734744 48.27869683069643
23.612583970660477 261.88983910494755 42.01180024064601
27.03366963343855 237.00648149009822 41.21055929414865
33.340099956652914 242.4913102067926 43.478338820076225
28.29032822319908 246.64832896705428 50.50517520796563
18.70234388555635 262.16725496142675 43.48091392316945
25.851223473179655 251.64456023015453 49.216717486225285
16.56288958763454 256.09616317230996 38.15921593137901
32.611857651015015 241.7134562362672 40.176384399098154
32.21411763478789 245.2815190906227 39.041650444580256
32.17449066488761 240.11761730097857 46.32707560603839
28.91396081375775 239.31496130736917 49.56911914660151
32.53667004965772 246.73909034657873 45.919588690095665
33.352520632307254 244.50264899688415 42.8151636889881
31.731148121820087 239.29829533451615 42.67849448304791
18.030849297046146 261.7309589922627 41.536821262025825
33.0273668473477 244.62896996570962 46.113005395648806
26.869631921377295 255.743382789472 38.96097137311576
18.172877431284448 248.44438148276214 42.07052307825449
29.4535817655321 248.7812933900421 49.00803875967995
25.869940255797253 236.19961930592882 46.403442152457764
31.133497598468903 238.13275978009915 45.00184315144116
32.86869312190249 246.55371955325086 42.38055029792409
33.23037504338589 243.92401724978134 44.550590667709805
32.796842615439644 243.49876755268716 47.658570985603525
31.238050430288663 239.87893817790786 40.33591857740355
32.581498193768454 240.46122764409304 44.227854370544044
19.664267569496776 255.8127449280878 36.13885444581732
23.89578844490863 260.2590473523381 47.869588521493135
31.194739853446727 248.46186772678493 44.922900094858264
28.4021438856373 242.31789674625165 51.03514056055936
32.360875628481004 245.55322137862186 47.91013853010173
30.627740108495566 238.9529342932946 48.03606834335236
33.26755636864721 243.03280178313062 41.37760984778703
27.750790307410853 250.34086627591003 48.07268659872316
31.42193889361366 241.91504205854037 38.60943504187269
28.28866480566459 235.91845928111584 44.73174292955996
22.452464061946124 241.160587659418 46.50141107731637
15.9385565117982 254.42797693303731 39.260961741085936
32.62896025063933 243.50062652102486 39.46017177397275
21.695435548123047 242.25418997328737 44.01017279231609
23.27572221757569 252.43020290946953 49.90836968083323
22.782201146982732 246.84499885164723 49.687884717672524
24.06789879128661 238.2856763538163 47.067047962215135
29.066057261840403 238.41331508683555 39.64957228660941
26.80442595212068 243.89238740868103 50.765581022055954
22.37210087365651 242.91718371548535 48.23072606390213
21.433598775524825 245.18889494248828 48.40067495317033
27.535204772122977 252.65047163348842 46.66704400998942
20.210164807929814 246.84649673575942 43.41960399369401
22.713665979980277 245.05671239226905 38.609952217305334
25.828391276260465 259.9311669333489 42.831570867730896
16.31046561364847 257.1890921960523 40.59609745457761
22.56364322430079 241.32336350025363 41.61103320225445
21.140776913020183 245.5632574321288 42.17893328080272
25.330220091573878 247.14138794010142 50.59702273299833
28.338674706315476 251.88046838807153 44.35353737514492
27.062390609992896 240.81155750396135 49.91345958216323
33.1117235061346 242.29451144623067 45.86404439906102
31.599714856810543 243.66710454901997 49.36309273675615
23.374085753746165 249.60678084986347 49.90574028475957
27.534351225450873 237.94827992661152 47.91284383591057
24.144217562262188 241.08961351181662 49.014885066475834
18.261191842563097 250.88497683919212 47.43901194329964
18.698560473515627 253.82413162315993 49.03990007564455
20.779653406325526 246.26134832025653 45.910535862212406
32.04557711469645 241.49984791501868 48.096282292748704
20.529190095770126 248.1979374311995 48.38519373406041
22.629961428168585 239.40126748110626 43.97509455736639
20.93093834974359 261.0078565606548 49.028352866474826
21.23077612732435 244.74728480092406 43.94273068725687
22.550289174456466 243.19506964560725 39.88976870278307
21.67072018534027 243.68521270868706 41.97308624887211
24.811434465769466 247.1663812325781 36.59811905054294
29.9334902765233 241.37841377249867 49.844298297461386
27.128478978041237 249.11679802575927 49.80756884398636
29.712108406924493 242.80984556484492 37.2443743950972
33.115868770244504 245.66503664677927 44.36002018619805
25.29370571929981 242.25854500824917 50.55049434672212
POLYGONS 362 1448
3 4 7 177
3 1 0 12
3 8 1 12
3 14 154 4
3 4 154 7
3 3 1 8
3 154 20 7
3 7 20 21
3 7 21 9
3 122 35 32
3 32 153 122
3 8 11 34
3 34 11 25
3 24 37 39
3 38 40 39
3 26 39 40
3 26 40 12
3 40 38 25
3 122 45 49
3 153 45 122
3 31 34 47
3 47 25 51
3 25 53 51
3 25 38 53
3 52 53 38
3 38 39 52
3 160 66 51
3 51 53 160
3 97 152 160
3 1 2 177
3 1 177 0
3 2 4 177
3 5 14 4
3 4 2 5
3 9 177 7
3 11 8 12
3 10 13 9
3 13 0 9
3 13 12 0
3 15 27 14
3 14 5 15
3 18 32 20
3 20 154 18
3 22 9 21
3 22 23 10
3 10 9 22
3 23 24 10
3 24 13 10
3 26 13 24
3 26 12 13
3 30 180 17
3 30 17 19
3 8 31 19
3 8 34 31
3 33 22 35
3 35 22 21
3 24 39 26
3 40 25 11
3 11 12 40
3 47 51 46
3 47 34 25
3 160 53 97
3 97 53 52
3 160 152 66
3 2 1 3
3 6 5 2
3 6 2 3
3 17 3 8
3 8 19 17
3 6 16 5
3 16 15 5
3 180 16 6
3 3 17 6
3 17 180 6
3 16 28 15
3 28 27 15
3 180 29 16
3 9 0 177
3 27 175 14
3 175 176 18
3 169 171 45
3 176 144 174
3 45 167 49
3 45 171 167
3 167 171 71
3 71 171 164
3 28 98 27
3 41 172 98
3 176 158 18
3 176 174 158
3 158 174 153
3 157 144 176
3 169 174 44
3 174 144 44
3 144 141 44
3 175 27 157
3 157 176 175
3 14 175 154
3 154 175 18
3 174 169 153
3 153 169 45
3 171 169 151
3 151 169 44
3 55 150 166
3 55 151 150
3 150 151 44
3 149 159 55
3 41 147 172
3 171 146 164
3 171 151 146
3 146 151 55
3 74 145 110
3 71 164 145
3 145 164 110
3 172 144 157
3 172 141 144
3 172 157 98
3 98 157 27
3 161 182 166
3 166 182 55
3 161 149 182
3 182 149 55
3 18 158 32
3 32 158 153
3 172 147 141
3 141 147 166
3 110 138 152
3 152 138 66
3 110 179 138
3 161 134 149
3 149 134 54
3 161 178 134
3 134 178 54
3 46 51 133
3 133 51 66
3 21 20 35
3 35 20 32
3 148 129 42
3 166 150 141
3 141 150 44
3 42 125 140
3 30 139 180
3 180 139 29
3 47 46 31
3 46 126 31
3 41 124 147
3 147 124 165
3 41 140 124
3 124 140 165
3 30 143 139
3 43 137 143
3 16 29 28
3 29 148 28
3 42 118 125
3 125 118 130
3 118 100 130
3 116 120 181
3 165 115 161
3 161 115 178
3 165 136 115
3 115 136 178
3 130 114 125
3 125 114 136
3 130 162 114
3 164 146 159
3 159 146 55
3 181 127 117
3 181 120 127
3 43 126 117
3 117 126 181
3 31 113 19
3 19 113 30
3 100 129 112
3 112 129 139
3 143 30 113
3 113 43 143
3 178 163 54
3 163 128 135
3 100 112 137
3 159 108 179
3 159 149 108
3 108 149 54
3 130 107 162
3 162 107 127
3 148 106 28
3 106 140 41
3 117 137 43
3 126 43 31
3 43 113 31
3 147 103 166
3 166 103 161
3 147 165 103
3 103 165 161
3 165 102 136
3 136 102 125
3 165 140 102
3 102 140 125
3 136 170 178
3 170 162 128
3 127 120 162
3 162 120 128
3 127 107 117
3 117 107 137
3 137 107 100
3 100 107 130
3 133 99 46
3 181 126 99
3 99 126 46
3 140 106 42
3 42 106 148
3 116 181 99
3 99 133 116
3 137 112 143
3 143 112 139
3 28 106 98
3 98 106 41
3 135 116 95
3 95 116 133
3 159 94 164
3 164 94 110
3 159 179 94
3 94 179 110
3 179 108 123
3 114 162 170
3 170 136 114
3 66 138 123
3 123 138 179
3 100 118 129
3 129 118 42
3 148 29 129
3 29 139 129
3 123 108 93
3 93 108 54
3 128 120 135
3 120 116 135
3 97 89 152
3 178 170 163
3 163 170 128
3 88 89 97
3 50 84 52
3 52 84 97
3 50 88 84
3 84 88 97
3 36 86 82
3 74 81 145
3 81 71 145
3 33 78 22
3 22 78 23
3 33 80 78
3 78 80 23
3 49 77 122
3 49 85 77
3 77 85 33
3 81 74 79
3 83 49 167
3 48 73 87
3 87 73 90
3 48 83 73
3 73 83 90
3 36 72 86
3 36 156 72
3 72 156 91
3 156 92 91
3 91 92 87
3 156 48 92
3 92 48 87
3 23 70 24
3 24 70 37
3 23 82 70
3 70 82 37
3 49 69 85
3 85 69 48
3 49 83 69
3 69 83 48
3 83 168 90
3 71 81 168
3 37 68 50
3 37 82 68
3 68 82 86
3 95 123 93
3 93 135 95
3 71 168 167
3 167 168 83
3 76 65 79
3 79 65 81
3 76 90 65
3 79 173 76
3 64 68 86
3 75 173 63
3 67 86 72
3 64 86 67
3 58 63 132
3 75 63 62
3 76 61 90
3 90 61 87
3 50 155 88
3 105 58 155
3 87 60 91
3 87 61 60
3 60 61 75
3 88 59 89
3 59 58 132
3 75 61 173
3 173 61 76
3 155 58 59
3 59 88 155
3 62 58 105
3 62 63 58
3 91 60 109
3 109 60 75
3 67 105 64
3 67 62 105
3 62 67 109
3 109 75 62
3 155 57 105
3 105 57 64
3 155 50 57
3 89 59 56
3 56 59 132
3 89 56 74
3 74 56 79
3 79 132 173
3 79 56 132
3 173 132 63
3 64 57 68
3 68 57 50
3 123 95 66
3 66 95 133
3 135 93 163
3 163 93 54
3 23 131 82
3 82 131 36
3 23 80 131
3 131 80 36
3 85 142 33
3 33 142 80
3 37 121 39
3 39 121 52
3 37 50 121
3 121 50 52
3 91 119 72
3 72 119 67
3 91 109 119
3 119 109 67
3 80 111 36
3 36 111 156
3 80 142 111
3 111 142 156
3 152 104 110
3 110 104 74
3 152 89 104
3 104 89 74
3 81 65 168
3 168 65 90
3 122 101 35
3 35 101 33
3 122 77 101
3 101 77 33
3 156 96 48
3 48 96 85
3 156 142 96
3 96 142 85
