# vtk DataFile Version 3.0
A great-looking cell
ASCII
DATASET POLYDATA
POINTS 423 double
304.476078706387 207.71470782373027 21.103555059027972
306.10079916750135 206.98658254117132 20.005971046450558
302.1071463061676 208.7022489243693 23.353935457012984
310.4244990388477 210.3611983878777 24.40609392878879
288.52844433592037 202.39571471792513 25.727517115377918
291.6028399804341 201.50619160982862 22.124172739129538
320.07497856127094 194.75968842358506 33.40745571827325
288.8923648154617 206.68246599000904 37.253571926761786
290.4201760588737 208.6942256707066 24.8002558280465
289.7117858053454 210.0823610142152 28.675244556013237
289.0935678050751 208.77609623614114 26.70255420246107
287.86458200194954 202.3928677573511 32.321151537864246
293.46768005621345 201.89162225904175 21.402730555984196
287.87121300364123 202.4836780793946 28.319399292811347
287.85626425950966 206.63939668183878 34.317843788198566
291.43671292548 197.26529280481228 32.58582484824372
300.264111880141 201.06411193056528 43.68522550239586
321.37009045381853 199.35380946496429 20.584581027473565
316.9118298753007 192.51732334524308 31.730687076206006
290.26559830528134 204.76284692682822 38.88405365704409
288.464960648661 201.24292460977713 33.49954326515218
291.4187709086668 200.61606171544824 39.97215309974109
308.2336477913497 191.82342581311363 31.75464264057777
288.2587627299448 201.98655315666684 35.67977326067976
322.32915572469454 196.88184919401402 29.8122540297216
293.12437938681205 196.68369012568706 38.335010534461745
294.239647445405 210.95554151785691 30.816769346765177
297.0240789262781 202.88957768087684 43.21217512575776
304.97556252596695 207.33368528438535 36.018823292085095
289.67707618770805 202.0080856957937 37.926170803658074
291.4567719670119 197.6398634053068 34.63474797869979
322.5733907385587 198.0458168874662 31.306291756891635
320.2156554286766 209.6050516303633 33.96554843287878
289.1808372517794 200.17096962820682 26.86963569560475
292.62220918905945 203.86032223971597 40.896876879026145
300.2020129007193 204.63066601579607 42.72251989957085
294.17245222064514 194.7584304314896 38.679767580605926
289.9309934721805 200.00377738774702 35.71704006209767
319.7005972334595 199.4759406917208 35.656475748659055
310.9787925731698 191.5281467085247 30.30677924109197
295.66476066998024 207.51001297148264 40.93687061033273
294.2340996698516 200.78746868535254 42.2902662043552
288.0058100319738 206.79456930768288 27.08082983970618
311.71929859229294 191.80470266823056 21.490167625145137
319.7773063313555 197.50948955340178 20.421142005708077
287.9745516171961 204.60264300778718 26.325741090619964
323.43344191012096 201.0824748193174 31.119086826393712
323.72170152980385 201.82366242800566 27.50725669500344
321.7684348618565 207.30284046439243 21.093972149811584
307.49076855542575 207.20580378757674 35.050070041815275
291.77245731642415 198.33605606913355 37.683308970173826
307.91235547628787 196.11008443756376 35.98610057642762
322.55970130359606 206.811730414837 28.467392211814072
322.9401415745558 204.215968781984 33.04805870255002
289.11305812045094 204.03023166692435 24.04689686383903
323.35145554255627 204.83597348417305 26.4551373921988
319.82444838624605 207.86339360847762 35.357209861056845
313.9322038760519 192.52082387486038 29.85952453658796
294.88957333029185 198.28203821231284 42.78405164160879
291.0844148508319 198.06982777783628 27.59279163394163
289.8182972264871 198.88850818321424 32.48615753637625
298.6743048330479 198.55745885005103 21.509316421640545
287.22393508925455 203.6777088126612 31.157641822030264
298.920051176696 203.17894321402156 19.172116535055213
306.7825692823081 190.66120333485233 28.780469918514633
295.72108464434984 198.47195420929876 22.979568545840582
303.99512796357914 204.47994320516852 39.80089034183769
306.58446184865926 194.97447489282436 35.497261508210016
296.63110934248294 195.03788302660024 26.585544425266512
305.07781071101147 201.19903224423925 39.6958251451576
308.99250996317625 202.80254153042193 37.74113163282769
313.86787867065453 192.98289000002094 33.22228999538093
322.22848410326606 201.4711525168904 21.365286602542604
301.49414703450395 191.11453461697624 38.03832113659622
298.42940347983694 190.86210628641842 36.136798835681994
306.56171831864805 203.42855412250768 38.11287000907725
297.21142168931317 199.22364487727174 43.621598372357504
308.6366394031823 199.03446560864174 37.5675868426925
292.802409650018 206.93999757389457 21.96213090358425
291.06681948219386 207.77107433616996 38.805581059086336
301.8327589852315 206.51687811806957 40.3919665072827
323.04223378238424 205.6595337705423 23.246131946131086
318.20308297257213 212.35448876326132 26.364315525019027
318.15187171821583 211.42875784892794 20.14193647111301
292.8108115433066 199.7641720773597 23.176875422585187
319.3877595318765 211.31993414128127 21.999331284268965
318.7148361199806 205.0474565495292 37.45939912643673
301.75183953609366 192.5570760536168 41.12300801342091
323.2755482287815 204.22737622878114 29.61419990903332
313.1937470239831 210.68650505697036 33.215390408165796
302.79824881056567 191.69464638608673 33.35401886146354
294.5071292481779 193.51004441646614 33.1712545102794
303.988434641893 197.7731713532675 41.900366958172974
322.5816530997934 207.5975472243159 25.74757062143502
317.546138211135 195.98133430099298 19.971888841995593
289.2776425679933 210.0936451190064 30.781608132781038
307.6888244468357 189.90276478004392 25.818766169182386
320.3956998356742 211.13541364780139 27.03146710862251
306.09514283958157 195.35199955880617 17.103714747058646
319.4649676608382 210.08276167809748 19.891657895722457
314.90669619420026 212.30096945495228 21.534892447226436
309.09776567062306 209.13227819923813 27.565648812191142
293.17264791653037 196.19222995248563 36.260910815968614
321.8468952288964 209.24046029710624 27.721906922534984
291.92956578315875 210.50061867466582 30.275642736730735
302.15892571393994 198.07125962497767 43.59337970213399
317.2069039933133 212.3515878680562 21.60572381023572
317.4156698074917 197.96206433348405 17.831327044281082
298.67391708863755 191.4926137429733 31.321852460478375
318.1409358018405 210.1210729058122 35.38148721918203
309.64169124149646 190.34038402552875 27.860831872048823
307.1622298782344 204.33586361806218 17.784902760151624
287.70773035295923 203.58255765467578 33.770736531129565
323.1067831695774 200.42006936793007 23.26087061527889
318.5941466307699 203.064492397921 17.170564532513584
289.3199332214684 198.98025349825824 29.466322240246576
307.8133379057473 189.9238928335968 22.46657600525365
320.12341983406435 200.77988120659114 18.69162820122487
323.0664912191736 203.5307067759278 22.160513003015573
315.49858706476607 208.72541643617402 36.720717203476255
314.7783039222371 209.83307873069614 18.689976571157075
293.6018805555983 210.7917190187569 25.797768178375968
316.4725813109619 195.34447804193985 36.1244433931072
290.4583852653954 200.10591441775583 37.94016684857474
288.4652078740194 208.42156114118748 32.163374373848136
309.6461918443232 196.91170965523838 36.87492013067106
294.5756810300461 200.26236336264574 21.899789343437
318.04097297725144 207.51654177335544 36.84545331899257
287.3490484796537 205.0530136706996 32.67905263589324
310.7569963321296 210.37763819069085 26.47474191353468
316.5341899897054 193.71594746628983 24.11294006784529
313.2978150145034 203.47291202662214 15.858157796639327
293.6576375922203 197.26244817151132 25.863328085961033
316.59004950888163 212.9392601618054 25.10881505504332
300.7382754164338 209.27559670088314 24.8542264657099
319.52248066739895 211.29002787391357 30.82641276541466
318.945520518438 208.29261625034053 18.583843411496776
315.83758829222137 205.81735471970597 37.977408595888534
311.44894873183506 199.11477942177282 15.77894056592915
318.26871425488343 201.98756676076917 37.1363530345
311.4627696008497 204.2847078984288 16.859875563519505
318.3181394092928 193.3469107489318 25.766297017733653
310.6617326689985 209.28087707561377 20.276475519802197
322.31278374708984 199.30911005942352 33.89332058819753
316.1752080790889 211.31295455660816 20.069838313744718
317.9224558248502 212.35859992891068 23.76291650665121
304.56169016509995 192.41069565942075 19.817249670106904
312.30494482136163 193.76719254358431 18.674841719456737
297.7223763191478 205.19148967623624 42.46916289063976
314.2883845495874 200.92512121028898 15.464076676275043
316.6134794310738 208.12917494995256 17.847585480426446
320.60163455060496 195.58376637663972 24.785269079830734
295.9937972451264 195.9822434851721 42.78970670170607
310.9489037268634 198.3435519010346 38.55972683944445
293.16102097597343 208.60778199041485 38.94142236803524
314.7730326510058 202.69155856203852 38.15334893681705
315.243677355485 212.59517349830685 30.335464068410044
304.47047000438846 191.86631875228247 26.53766633893387
311.9136557360941 210.444641809754 31.307630873934716
313.75996944783833 205.39777998413243 16.87872112391571
314.749454924146 196.53736572631672 37.28569746049133
320.7634663007694 209.4339102048034 21.519854084887932
310.14889617985006 207.20823047508512 18.892740540135936
310.9266230945991 195.9495840955821 16.53102827992042
311.6298984634321 203.82844988396778 37.577152258518154
315.1054877831385 192.62431063839514 25.794721215000408
301.0626517849371 191.42951855639333 32.191056753563615
310.82946226596687 193.01223736624564 33.36155785448289
317.72777403521786 197.25206793094682 36.20227553824932
313.47510121364286 212.56723990840524 23.34243172999208
320.4777497134436 203.88880280967328 18.297933776228376
296.9291754851079 210.0800941752695 37.095080218611294
311.0423338970963 205.74669861375529 36.70134906297713
320.5815468636365 208.5017884433491 19.79268214303477
309.0334428347049 203.11302132497534 16.83316592635851
307.828439533639 206.08611440897886 18.990889397426933
323.4823876005079 202.50516583453867 24.122767875930652
292.75010603434305 209.89293882462647 37.0334433470108
301.21508637385114 196.59246024875802 22.553404404630808
311.2594793117133 201.96224053119252 15.86008611365074
295.9212140632025 193.1866721098739 40.90761797746271
305.03855992342807 191.46469566375936 21.696874227568813
296.36184103494554 191.85210702656138 33.13771063902442
314.8353913074323 193.73215118332632 22.36089767738949
307.5334041663022 197.11100256889466 16.515840001542514
306.19062832804104 191.61147875336118 30.949968478951035
298.5884318098647 210.32139904314334 25.521483864413486
306.1449314923666 199.46938355522653 38.684032321279936
300.48797032236973 208.63164789314953 22.697990966764333
310.17843559967 194.74774711503807 35.18046704285251
296.6539527013569 192.66592576677965 29.396709951369267
288.40714506869654 200.57419534767286 28.842990998475866
318.79303932059196 199.34810005225123 18.237714225603398
295.184486557518 208.36075139064062 22.128061011960323
305.5111464804815 190.55004191455194 24.413212474322528
316.8754412520895 212.6741828310694 28.60391501209805
293.99020769312784 195.3046840433279 29.134981255540204
315.946677823455 203.8324408746993 16.40847900381798
301.7168511707878 190.93498713920505 34.971835370236995
303.1973919998067 204.91147873591322 18.682481806291488
302.73093801486954 197.08135836046918 20.234137235541592
287.3750540058385 205.36283219816795 28.861558646193888
293.4630824944403 207.080659638288 40.41504517975067
318.9463599203582 211.82248087523902 28.873536342845703
296.0371241177893 192.2047536442325 37.83159173480453
316.10542612153023 199.58486333897508 37.42937336522002
301.95941521250904 200.90941990947184 19.08896012554677
288.7795327774056 206.68336870885534 24.668003010871868
304.8662023301247 192.3102970874438 29.65824588167613
312.7520666626114 192.21522947848928 24.363885251027565
300.09385150216923 192.336724754642 29.23252270075265
314.19651746913667 207.55784061715912 17.666233531077918
314.512631224209 192.32497976052449 27.818405006329296
303.65570062315726 194.33870730247804 21.19037738901014
307.58520474218307 200.6730353767126 38.25538543003831
318.2602777687905 193.89034511714823 34.938359485069356
301.9239748088043 207.26818622755326 21.472619025516334
312.4043287251629 208.40997447499305 18.791797900089424
302.57970848606476 202.90050121056456 18.37246687781786
316.94580895527827 203.89821254289862 37.917903936576614
291.59420355399516 197.25309697761796 30.319309065095666
313.71947719380273 211.77406428989931 31.506700052462257
299.4090375932576 207.54380156586262 21.6336886119952
322.29135461258545 197.47939102040846 25.820939229394668
303.794670393402 206.61253154205724 19.654434409793353
318.2112315914896 205.8050883851403 17.565167059630546
319.1165696110182 211.1699331953486 32.90330808412586
314.73642604810436 212.75395811449155 28.06379850948308
316.07343246315133 192.60210114320213 34.147390573823394
319.4106643163489 193.7140211043789 32.20596387604434
300.7419017308334 202.35517486737413 18.79335135674625
320.68784322606126 196.5006825885763 34.65972488458103
298.28882093692346 193.3298824574581 27.602163490061304
313.17078997185996 199.40105079803726 38.92061399959447
301.3118672516543 198.9062474307521 20.47150919436032
321.34435099609357 202.20150928677987 35.48849285354062
298.64377294740524 191.38290732628633 39.78607562611468
309.27577933817753 190.74148217777054 20.600234122668148
304.26696828263556 208.63066742749135 28.825714060114674
314.25591612381356 197.47654599564618 16.340161292318413
305.46734657180974 195.30703838029956 37.6693946791976
297.2791341614853 206.9300377198967 20.937510181296144
318.09751101238857 195.0366562602769 22.510503520478792
299.686868897862 198.79563742831073 44.099678546135095
298.2746475768183 207.14387323810206 40.76894351575409
302.36906363851926 208.98200954216082 26.9301391381146
297.64186655667464 210.88660150534884 27.838922953570734
303.96204871764576 192.34508447901302 23.69105877433219
305.8814158336282 190.41415569378742 26.472032229657398
305.4080695718442 205.69340846739462 18.35688326763803
300.50226831134944 195.41124062193998 24.422544149085144
299.5752583690929 205.68557333393235 20.24428524317373
299.56908145277725 209.87624016310068 29.838463151469366
304.162926154184 201.35301051376655 18.19922709340901
306.8601300705455 191.35145544099151 19.272250517499895
293.80027951340935 210.60618473633744 33.59015037420272
294.75007734012246 204.90649837969633 21.102272827312476
316.5979074357577 192.4938556548781 28.374549278029598
308.91847022017544 190.59213053726953 29.904018542395573
301.0887679394014 204.22854812056687 19.07767559588483
309.61128557417715 198.1449536827127 16.226876737311567
288.2008182205265 201.08048930443644 30.876463638944628
314.15455583798587 211.34898896262516 20.10931397174551
310.63727094586227 208.57721304403364 33.243569032909775
310.4566115082626 190.53742248087522 24.587795585856608
305.15191044250656 208.3090922632972 31.187857260973438
300.17042904074407 210.01493939595562 27.336538508168243
295.800569664114 210.47003693003023 24.993018505536043
322.4145437331085 206.27964440374072 30.924974848210187
298.206816291401 208.98277595782685 23.12673227209144
319.9016059835131 211.49278796546503 24.58291345967282
299.1634087852571 196.6379985402714 43.919442195618885
289.7238225004313 209.0669408518668 35.926022442486385
312.4817498758314 211.30001305313357 21.50323453073253
290.21519176222904 201.35686606639555 23.910673360161304
320.91946005132934 205.4144434116162 35.695607306036734
314.49345050514654 212.8053033850238 25.56832166495823
318.01231180744196 199.54587837716016 36.75769730993981
305.93601622874405 193.25294867474307 32.53457299899095
322.0151143262951 197.20113579745106 32.9432004138727
288.068950803781 208.18101524401894 29.325158944718464
322.97705776829036 201.67842794834047 33.62162623580627
321.9236290150221 208.49053038640736 23.324834772045392
302.055890340893 208.66250797041928 31.37144058445688
288.72051081662653 208.8311657206587 33.95492514740396
297.5174155072397 210.36638083277953 34.75457733998173
307.6437582645513 208.84513599718582 29.57277586392041
304.32732102680717 207.89075355613542 33.95561000693351
308.4320571405428 194.43759656420178 34.44770910280064
299.3844943100481 209.88693282856252 32.36401356790781
304.12020822873706 193.03623374923131 38.725804444937616
296.13964845324597 191.8183559422617 35.61452437359071
290.7523909093628 207.08013721250546 23.024556228269482
312.1824214158525 194.5165206357665 36.09723373610213
310.82351904530236 210.18896571712793 28.97903595102366
309.9839408285147 190.3563664342072 22.148538127561583
322.98930187999696 198.6106721349588 28.40879285778167
302.49186923887584 192.90260313582257 27.920414231367737
288.2371908406345 204.2575724483963 36.568654054364124
295.572986421581 209.20946298135937 39.017610208768964
317.2946101908831 200.9699482934328 16.679972869138187
306.72425103438434 208.52618414641321 27.156029047934485
310.2991786782201 210.31670226762535 22.439325200065042
316.2077430071899 212.87709833152894 26.740997083193076
310.3390010793152 200.42355009786826 38.01242731148997
311.80031424894275 211.3435455863241 23.365262619397054
292.72555541490686 209.39926272072609 23.830771894522268
321.5329902689494 202.5921715519497 19.45014323622946
294.49066545529604 211.12340342226625 28.214179241128367
321.55026582174816 207.5528329275958 33.14430055097543
308.74091801117373 209.01585029073644 25.607867960485372
304.48683126769805 208.612725718874 26.53741745861715
313.54139608110904 193.60686145095156 20.444554597585373
308.5143490497007 209.09011708118715 23.48651736603069
305.1711817138767 197.81836949962482 39.84109778060484
320.85700262488336 210.63706436649878 29.447365565170607
316.0601545995514 199.25408636420312 16.070212948097936
294.49993102450577 193.50165969071097 35.38164683809542
317.4550503165654 210.06487279598647 18.84995412984803
319.4448639869951 193.56725068041192 29.197819753115407
312.3105611441071 191.7188455284318 27.20386991726854
320.16037249575317 194.35634505812249 26.883208680058825
309.87259596556055 208.95515708753368 30.97790790526354
304.21416798676313 199.80893232312596 42.164839109745664
291.59869489023083 210.1290717015739 34.96839749035897
291.30168495593824 204.12739654124323 22.08082706614219
298.40263521764416 196.5594735985084 24.217295868028128
312.96593140531223 208.96365842420738 35.179234537971176
315.2216609368396 193.77436954903814 35.84599593568964
321.2468295186446 195.6109833976575 31.482335791239734
289.6714614717332 205.51058693074756 23.051552203995477
297.1727416884208 204.5281498958466 19.87376215663857
321.99688818691277 198.27547321073516 22.832974332857848
308.8327742479866 208.91015206088346 21.691592665356985
306.57311740446875 208.32489651473045 21.91204726196414
306.567088137454 202.0368631760448 17.434025197398572
313.7506447663632 204.84515176705327 37.91054503349717
308.6807878510935 200.2014568303622 16.489828504843707
307.0472915454652 197.71510589167576 37.36361896428453
303.1144014777281 192.48653541046568 31.409435914428137
295.3053460945051 210.51043329933316 36.41729648023931
308.84124181467047 205.24234804075328 36.88597082930141
293.45960773380045 197.44449193611723 40.63928559176358
292.3864781112849 196.72053126588676 28.13052521139751
304.7557709547684 203.59716502398572 17.763858338822324
310.72831943551915 206.93533603940773 35.442338055610975
305.2042842193715 193.83891364354773 18.362662196016434
321.4961510257405 195.8509016975441 28.029390227317414
294.6160974244727 203.32521978831707 42.56559215556335
313.10430864157894 211.89112121191636 29.646112395446426
306.01750650551566 208.51355605823204 24.692339040688232
303.30690146520544 199.05095534747323 18.807409257698865
302.6036687358895 202.35265021724578 41.74795957104213
302.5512747651941 204.76829606151873 41.697778900052256
320.55428504036746 206.4704494623066 19.04437641355039
315.7794747225278 206.31115866061367 17.101033145393668
303.2497614168829 208.67587549138614 24.932770637015885
295.5135095624948 205.44557468045326 41.98021366966421
311.98504971726356 206.2846658899735 17.982526558013532
300.4899004313735 207.8788810345763 39.21670948916573
299.2506905498399 190.9515317991983 33.477022438892654
301.6279711156937 209.13881002285643 28.879185430395864
303.07524578349023 191.83782223017866 36.71021151412281
298.9546477567635 208.9790983488507 37.64652874223841
301.3141442567076 195.04820694356786 42.91082554702077
315.80696321730056 212.99784050961117 23.373580442150576
301.75531067054425 206.10697184634887 19.438858174723595
291.4980177983628 210.52885115423422 26.732135516472002
312.6556887235116 211.82935944148133 27.312434352823107
315.4288557925233 211.61906699519304 32.38811273772321
312.2291031123763 211.73717742167756 25.077137584704456
308.43774008038463 207.86687739647428 20.189732821035996
317.18241183897993 211.5944931264841 33.47476954467602
304.28382205399333 192.84667549608312 35.104073843417815
313.3678843279638 195.31187710160606 17.30635556447855
319.9399177998136 203.65740410019208 36.635959260315126
312.7310925150096 210.12981904374237 19.79544420884184
296.52660434866584 201.48455536180836 20.74744186292684
317.55917951049446 212.15838421672592 31.117238879782732
305.45683179036837 206.06728330527736 37.51145720630046
319.6589529920057 206.64656888237627 36.7195199788853
321.8411295826874 208.524408444448 30.293434331550706
296.74130054552313 210.95337086302436 31.1096188284025
309.61479257159283 205.1529302829643 17.99263981186423
322.2048812060843 204.47856764362763 20.406756736988697
315.06401289700653 195.35233798537791 19.162367227472593
312.3204782032337 192.8458225946187 31.531201665753006
299.7012979675193 200.9141652905508 20.012615185634292
303.5069379963503 195.5762170007227 41.24733819890033
316.4363950638541 194.97043496081693 20.91499733472201
298.77180601419764 193.4844777438555 42.75722640912713
315.351221798326 210.69385523879782 34.6438043888743
299.8128752078019 194.06153349890988 26.156024690752417
290.7624081195836 202.80270623741566 39.66056198297462
305.59324259789685 199.44946771444057 17.163291987912668
320.8577994191642 210.29219505523278 23.30129819162338
304.03102394731724 208.41515513401012 22.925598334315037
296.0996401508561 196.85891433140443 24.89417607504425
309.98314993144663 191.85442447962774 18.63866345804558
294.47936245575465 195.09516406195527 41.019092506463345
294.6609830497691 193.54969285826695 31.426691979131807
313.02683582751723 206.55307998485307 36.88657177062797
300.7913506536873 208.911802219571 34.58888467853447
320.31130300099187 196.37398321278087 22.484257971135115
287.52172436108407 206.27392367818186 31.40508388558726
307.5591727856252 207.859598062561 32.20920136760591
302.58439592545466 207.6422742092466 37.3454360135597
320.9581886153322 210.14372397701857 31.890999685535878
302.4241333501195 200.45940496002657 43.039439182095236
303.65045969585566 206.4907792815988 39.01056245127768
302.4547812653126 194.13907776173497 24.720525703753797
310.535361412333 193.54836717544737 17.270060714654786
293.3372559140506 195.68806489591677 32.8608032112265
304.87720214744604 195.3697234741303 39.51445485922431
304.6626238382283 196.6114938762636 18.320733491967136
308.0155046480713 193.75928854239385 16.797442380837346
321.47323647197925 209.88623565824236 25.272366262859613
290.4172117697673 209.89213965034585 33.12495971178334
291.18604136275445 199.0533674843326 25.300505234639466
312.02271023099246 196.79108272431517 38.145037093274524
312.3670881110744 201.77099837552365 38.63910809260893
291.75933844344695 205.8927425758171 39.89036520621842
323.3160443332537 199.73953456916732 25.2786485016468
POLYGONS 842 3368
3 2 216 188
3 2 396 216
3 266 245 134
3 356 2 134
3 356 134 245
3 216 396 0
3 2 356 396
3 350 396 356
3 396 350 334
3 311 301 350
3 101 310 301
3 301 310 350
3 356 311 350
3 313 350 310
3 310 3 313
3 305 302 3
3 311 356 245
3 294 101 286
3 286 322 294
3 238 286 301
3 301 286 101
3 371 334 333
3 350 313 334
3 334 313 333
3 361 245 266
3 310 129 3
3 129 294 368
3 3 302 313
3 313 302 333
3 287 265 283
3 265 286 238
3 283 238 361
3 305 273 302
3 302 273 142
3 322 286 405
3 289 252 382
3 266 134 186
3 265 287 405
3 405 286 265
3 311 238 301
3 311 245 238
3 285 402 289
3 287 283 402
3 402 283 289
3 283 265 238
3 252 283 361
3 283 252 289
3 2 188 134
3 0 396 334
3 267 246 186
3 252 246 382
3 256 241 331
3 361 266 252
3 216 366 251
3 241 222 251
3 222 216 251
3 188 269 134
3 241 251 331
3 222 241 269
3 216 222 188
3 251 366 259
3 224 366 216
3 230 63 259
3 331 251 63
3 63 251 259
3 366 199 259
3 302 142 333
3 333 142 371
3 269 267 186
3 134 269 186
3 269 241 193
3 193 241 256
3 0 224 216
3 252 266 246
3 266 186 246
3 222 269 188
3 245 361 238
3 246 308 382
3 246 267 308
3 289 382 285
3 382 255 285
3 224 199 366
3 344 199 249
3 376 142 273
3 269 193 267
3 267 193 306
3 351 253 394
3 218 344 253
3 175 249 1
3 322 158 294
3 322 263 158
3 262 273 100
3 163 138 239
3 179 149 138
3 138 149 239
3 174 337 335
3 0 1 224
3 197 149 131
3 131 149 179
3 144 120 262
3 217 211 358
3 358 211 159
3 162 217 358
3 371 162 175
3 259 218 230
3 233 205 155
3 179 138 337
3 0 334 1
3 334 371 1
3 199 224 249
3 249 224 1
3 371 142 162
3 142 217 162
3 376 217 142
3 294 129 101
3 101 129 310
3 371 175 1
3 405 263 322
3 145 82 270
3 97 315 103
3 158 89 221
3 327 391 89
3 136 318 99
3 270 395 85
3 327 119 391
3 337 174 179
3 179 174 140
3 106 85 83
3 83 85 99
3 372 391 109
3 391 119 109
3 282 93 81
3 89 391 369
3 226 372 109
3 376 120 217
3 120 144 318
3 383 111 175
3 233 420 304
3 304 420 164
3 233 155 420
3 420 155 164
3 239 107 385
3 137 119 401
3 401 119 327
3 282 416 93
3 402 406 287
3 111 344 249
3 394 414 351
3 346 213 414
3 270 85 145
3 145 85 106
3 270 82 97
3 304 77 125
3 125 77 338
3 304 214 77
3 77 214 338
3 341 379 75
3 120 376 262
3 297 210 392
3 133 82 145
3 341 70 164
3 164 70 304
3 70 214 304
3 337 394 335
3 337 184 394
3 414 394 184
3 213 410 178
3 175 111 249
3 392 410 297
3 297 410 157
3 331 63 377
3 230 387 63
3 63 387 377
3 377 387 61
3 159 131 140
3 140 131 179
3 144 106 83
3 75 214 70
3 70 341 75
3 129 370 3
3 3 370 305
3 370 169 305
3 263 345 327
3 345 401 327
3 158 349 294
3 294 349 368
3 158 221 349
3 226 378 372
3 345 263 49
3 197 300 149
3 379 66 75
3 75 66 69
3 175 162 383
3 383 162 358
3 351 200 234
3 351 414 200
3 200 414 213
3 75 69 214
3 100 144 262
3 344 111 335
3 111 174 335
3 174 383 140
3 383 174 111
3 69 66 352
3 178 61 234
3 234 200 178
3 178 200 213
3 218 206 230
3 195 203 82
3 276 169 370
3 206 234 387
3 234 61 387
3 120 318 150
3 377 61 65
3 225 197 355
3 355 150 225
3 351 206 253
3 253 206 218
3 344 218 199
3 199 218 259
3 170 354 384
3 136 173 354
3 225 150 136
3 150 318 136
3 234 206 351
3 387 230 206
3 372 369 391
3 372 378 369
3 140 358 159
3 140 383 358
3 131 159 197
3 159 355 197
3 156 195 227
3 150 355 211
3 211 355 159
3 327 89 263
3 263 89 158
3 318 144 83
3 226 135 378
3 344 335 253
3 253 335 394
3 369 221 89
3 227 195 303
3 303 195 82
3 83 99 318
3 86 127 137
3 109 119 127
3 127 119 137
3 106 100 365
3 106 144 100
3 368 227 276
3 368 349 227
3 365 276 133
3 93 416 103
3 103 416 97
3 309 32 56
3 176 81 55
3 55 81 93
3 99 161 173
3 52 93 103
3 169 276 365
3 227 303 276
3 303 133 276
3 49 379 341
3 282 81 48
3 48 81 384
3 365 100 169
3 176 55 47
3 47 55 88
3 88 53 46
3 55 93 52
3 52 88 55
3 378 156 369
3 156 221 369
3 52 103 381
3 52 268 88
3 309 53 268
3 268 53 88
3 349 156 227
3 106 365 145
3 378 135 203
3 221 156 349
3 287 49 405
3 405 49 263
3 133 145 365
3 136 99 173
3 156 378 195
3 195 378 203
3 395 161 85
3 85 161 99
3 56 109 127
3 305 169 273
3 273 169 100
3 341 345 49
3 401 336 137
3 137 336 155
3 401 164 336
3 336 164 155
3 149 316 239
3 239 316 107
3 149 300 316
3 316 300 107
3 56 275 309
3 275 53 309
3 205 233 160
3 354 173 48
3 48 384 354
3 176 47 422
3 422 47 296
3 309 268 381
3 381 268 52
3 347 223 296
3 332 422 223
3 223 422 296
3 47 88 46
3 46 296 47
3 205 139 155
3 167 189 288
3 288 189 125
3 167 293 189
3 189 293 125
3 319 347 329
3 170 114 225
3 225 114 197
3 114 300 197
3 32 407 226
3 407 135 226
3 239 374 163
3 163 374 147
3 239 385 374
3 374 385 147
3 273 262 376
3 151 332 223
3 223 347 151
3 337 260 184
3 184 260 163
3 337 138 260
3 260 138 163
3 168 205 160
3 53 281 46
3 46 281 143
3 53 235 281
3 281 235 143
3 136 354 225
3 225 354 170
3 133 303 82
3 242 151 141
3 167 71 293
3 163 415 184
3 217 120 211
3 211 120 150
3 137 219 86
3 86 219 139
3 137 155 219
3 219 155 139
3 235 53 275
3 276 370 368
3 368 370 129
3 288 67 278
3 282 395 416
3 282 161 395
3 32 309 407
3 407 309 381
3 407 381 315
3 315 381 103
3 315 97 203
3 97 82 203
3 395 270 416
3 416 270 97
3 203 135 315
3 315 135 407
3 196 68 190
3 196 132 68
3 297 339 210
3 282 48 161
3 161 48 173
3 67 51 338
3 338 51 125
3 67 288 51
3 51 288 125
3 67 240 373
3 67 338 240
3 240 338 314
3 210 232 392
3 392 232 68
3 210 190 232
3 232 190 68
3 65 132 84
3 166 210 339
3 417 255 104
3 143 235 38
3 38 235 139
3 290 373 240
3 190 400 196
3 196 400 412
3 190 182 400
3 285 363 402
3 80 353 66
3 66 353 352
3 80 35 353
3 353 35 352
3 406 402 363
3 36 102 317
3 69 187 214
3 214 187 338
3 69 314 187
3 187 314 338
3 392 68 326
3 34 357 202
3 80 244 35
3 363 299 244
3 178 326 61
3 61 326 65
3 384 307 170
3 170 307 117
3 384 72 307
3 307 72 117
3 143 38 231
3 231 38 168
3 412 220 196
3 115 59 220
3 33 59 115
3 109 32 226
3 109 56 32
3 143 31 46
3 46 31 296
3 102 30 412
3 102 50 30
3 30 50 37
3 379 28 406
3 406 28 287
3 379 49 28
3 28 49 287
3 132 418 84
3 84 418 274
3 132 59 418
3 357 40 202
3 202 40 299
3 357 244 40
3 40 244 299
3 27 41 76
3 30 37 60
3 60 115 220
3 412 317 102
3 66 409 80
3 80 409 406
3 66 379 409
3 409 379 406
3 342 25 36
3 36 25 102
3 342 50 25
3 25 50 102
3 296 24 347
3 347 24 329
3 296 31 24
3 24 31 329
3 112 23 298
3 37 29 23
3 23 29 298
3 261 115 60
3 342 21 50
3 342 41 21
3 21 41 34
3 37 20 60
3 20 261 60
3 288 22 167
3 22 39 167
3 308 367 104
3 231 168 215
3 298 29 19
3 23 112 20
3 20 37 23
3 57 386 39
3 39 386 167
3 57 71 386
3 386 71 167
3 57 18 71
3 332 17 72
3 72 17 117
3 332 44 17
3 17 44 117
3 35 16 352
3 60 15 30
3 30 15 412
3 60 220 15
3 15 220 412
3 298 14 112
3 57 39 320
3 71 328 293
3 293 328 160
3 76 58 152
3 152 58 342
3 76 41 58
3 58 41 342
3 329 229 319
3 215 18 229
3 229 18 319
3 293 419 125
3 293 160 419
3 419 160 233
3 255 340 285
3 255 177 340
3 340 177 299
3 345 172 401
3 401 172 164
3 345 341 172
3 172 341 164
3 29 393 19
3 19 393 34
3 29 21 393
3 393 21 34
3 329 279 231
3 231 279 143
3 329 31 279
3 279 31 143
3 215 228 18
3 18 228 71
3 215 328 228
3 228 328 71
3 160 122 168
3 168 122 215
3 160 328 122
3 122 328 215
3 196 343 132
3 132 343 59
3 196 220 343
3 343 220 59
3 306 121 267
3 267 121 308
3 306 367 121
3 121 367 308
3 176 118 81
3 81 118 384
3 176 72 118
3 118 72 384
3 44 94 107
3 107 94 385
3 44 242 94
3 124 280 404
3 272 79 177
3 319 257 141
3 141 257 165
3 274 54 325
3 54 45 207
3 201 42 45
3 45 42 207
3 308 26 382
3 382 26 255
3 308 104 26
3 26 104 255
3 62 404 201
3 201 45 13
3 14 124 404
3 12 325 256
3 242 130 183
3 183 130 165
3 242 141 130
3 130 141 165
3 27 76 16
3 16 35 27
3 62 201 13
3 13 261 62
3 124 284 417
3 417 284 272
3 124 14 284
3 284 14 272
3 104 95 417
3 417 95 124
3 95 280 124
3 112 11 20
3 20 11 261
3 112 62 11
3 11 62 261
3 235 375 139
3 139 375 86
3 235 275 375
3 375 275 86
3 207 42 10
3 10 42 280
3 367 9 104
3 280 95 9
3 9 95 104
3 274 418 33
3 33 418 59
3 306 8 367
3 207 10 8
3 8 10 367
3 298 7 14
3 14 7 272
3 298 19 7
3 278 22 288
3 207 8 292
3 292 8 306
3 112 128 62
3 62 128 404
3 112 14 128
3 128 14 404
3 325 78 256
3 325 292 78
3 78 292 306
3 215 6 231
3 231 6 329
3 215 229 6
3 6 229 329
3 57 257 18
3 18 257 319
3 86 380 127
3 127 380 56
3 86 275 380
3 380 275 56
3 79 272 7
3 7 19 79
3 41 348 34
3 34 348 357
3 41 27 348
3 348 27 357
3 168 277 205
3 205 277 139
3 168 38 277
3 277 38 139
3 357 148 244
3 244 148 35
3 357 27 148
3 148 27 35
3 50 123 37
3 37 123 29
3 50 21 123
3 123 21 29
3 280 9 10
3 10 9 367
3 42 201 280
3 201 404 280
3 12 256 377
3 377 256 331
3 12 5 325
3 325 5 274
3 12 84 5
3 5 84 274
3 193 256 78
3 78 306 193
3 177 154 299
3 299 154 202
3 177 79 154
3 154 79 202
3 33 4 274
3 45 54 4
3 4 54 274
3 202 421 34
3 34 421 19
3 202 79 421
3 421 79 19
3 45 4 13
3 13 4 33
3 300 114 117
3 117 114 170
3 347 321 151
3 151 321 141
3 347 319 321
3 321 319 141
3 261 191 115
3 115 191 33
3 261 13 191
3 191 13 33
3 285 171 363
3 363 171 299
3 285 340 171
3 171 340 299
3 151 403 332
3 332 403 44
3 151 242 403
3 403 242 44
3 84 126 65
3 65 126 377
3 84 12 126
3 126 12 377
3 176 113 72
3 72 113 332
3 176 422 113
3 113 422 332
3 65 397 132
3 132 397 68
3 65 326 397
3 397 326 68
3 207 330 54
3 54 330 325
3 207 292 330
3 330 292 325
3 417 324 255
3 255 324 177
3 417 272 324
3 324 272 177
3 314 69 323
3 323 69 352
3 76 152 271
3 271 152 390
3 165 209 183
3 264 43 209
3 209 43 183
3 157 208 297
3 157 64 208
3 317 204 36
3 74 236 204
3 152 180 390
3 180 236 390
3 314 413 240
3 240 413 290
3 314 388 413
3 413 388 290
3 125 153 304
3 304 153 233
3 125 419 153
3 153 419 233
3 105 364 388
3 105 271 364
3 364 271 390
3 388 87 290
3 390 236 87
3 116 194 181
3 264 320 110
3 110 320 39
3 166 108 210
3 210 108 190
3 108 182 190
3 264 110 96
3 96 110 64
3 76 243 16
3 16 243 105
3 76 271 243
3 243 271 105
3 320 264 209
3 209 165 320
3 314 92 388
3 388 92 105
3 314 323 92
3 92 323 105
3 204 236 180
3 180 36 204
3 182 91 400
3 400 91 412
3 182 317 91
3 91 317 412
3 363 359 406
3 406 359 80
3 363 244 359
3 359 244 80
3 116 264 96
3 96 194 116
3 182 360 74
3 182 108 360
3 360 108 166
3 74 291 182
3 182 291 317
3 74 204 291
3 291 204 317
3 181 247 213
3 157 410 247
3 247 410 213
3 74 360 198
3 198 360 166
3 415 254 346
3 254 116 181
3 166 90 198
3 198 90 373
3 166 339 90
3 90 339 373
3 105 408 16
3 16 408 352
3 105 323 408
3 408 323 352
3 64 258 22
3 22 258 39
3 64 110 258
3 258 110 39
3 339 278 373
3 373 278 67
3 198 73 74
3 74 73 236
3 73 87 236
3 43 398 147
3 398 254 415
3 290 87 73
3 346 146 213
3 213 146 181
3 346 254 146
3 146 254 181
3 184 98 414
3 414 98 346
3 184 415 98
3 98 415 346
3 194 157 247
3 247 181 194
3 339 297 208
3 208 278 339
3 194 248 157
3 157 248 64
3 194 96 248
3 248 96 64
3 278 185 22
3 22 185 64
3 278 208 185
3 185 208 64
3 147 411 163
3 163 411 415
3 147 398 411
3 411 398 415
3 390 87 364
3 364 87 388
3 385 389 183
3 183 389 242
3 385 94 389
3 389 94 242
3 36 399 342
3 342 399 152
3 36 180 399
3 399 180 152
3 290 362 373
3 373 362 198
3 290 73 362
3 362 73 198
3 392 250 410
3 410 250 178
3 392 326 250
3 250 326 178
3 398 237 254
3 254 237 116
3 398 43 237
3 183 312 385
3 385 312 147
3 183 43 312
3 312 43 147
3 116 295 264
3 264 295 43
3 116 237 295
3 295 237 43
3 165 212 320
3 320 212 57
3 165 257 212
3 212 257 57
3 117 192 300
3 300 192 107
3 117 44 192
3 192 44 107
