# vtk DataFile Version 3.0
A great-looking cell
ASCII
DATASET POLYDATA
POINTS 308 double
320.2675224631547 206.44427837860144 48.680007840121384
320.89533442665646 204.2952874711666 50.879304939418624
321.4518114478294 202.13634945176096 50.0994181258954
320.7554155672097 203.36391914501394 48.189286738291244
319.8058976955552 209.30076313390222 46.817595792295634
321.2890405725568 200.55588352469576 48.2506446189564
321.01687044776276 201.86108940393265 45.34124966352968
322.11559670826324 202.40062206558497 52.115263114339555
322.1691446927829 211.57627966774746 51.93238029562426
323.88088097002804 209.0516114776037 53.95070165865255
322.27584729607685 200.03380413799346 51.037628036735455
321.05495494713864 207.34484413534378 43.94285757528692
321.59338747206647 199.25558874628794 42.0330789865054
322.8419618663076 200.5779418291249 53.3662964758099
325.40631490709086 215.62447048623778 49.75357443068653
323.567816089884 198.8405591937724 54.524858377731995
322.9911156953582 202.63727727893405 54.185751947150294
323.86940681497225 200.80881300462647 55.18920792268332
327.0770400204368 211.0891156666954 54.203950295919476
325.0345426319724 195.59218122648008 41.92562829910591
323.39526015395654 205.386890463623 39.65125209846348
325.03292479152833 206.4722391408315 55.02223964842035
325.2815605921722 194.66813021387017 48.758398895991654
335.5607468941326 198.0011832282339 38.281872239717856
325.3438174885345 195.31402733560705 53.65770099387912
330.18378875112455 216.06411177166436 43.090767356772254
329.2719353103095 213.92039145453347 50.96497060394932
337.5226448821567 204.6831353097312 36.25940127491734
324.92481837198204 197.03056685984603 55.19710335155333
342.89255710417854 209.4995514109631 41.456219499150805
332.3799017454824 214.55484746650285 50.121926518747955
328.384596942984 215.74546326724536 47.9895095221447
329.46723658773743 209.30864904118053 54.74494945190683
334.23135025498414 193.27799007425975 49.94524299453342
333.0657685814776 193.31187297777024 45.69157615455443
327.03886357142164 193.96176584558293 54.39434112821403
325.40264811293736 203.7844165194102 36.880537597449134
334.27653490675453 194.03319477721658 43.98429516609503
335.1288476323979 193.98438794206695 48.50645464581519
329.52671377086415 196.05540529411934 34.656455525804546
333.70463445639894 192.97068256124203 51.690547033224455
335.31091182610834 194.16970847023413 51.89998864592599
329.7479007519389 192.52392329918536 49.706571557554184
340.8731708012074 203.16436065841708 45.70890420124335
330.1058911908604 192.33911766971028 52.16208422099015
337.54708282073307 199.41236433174214 53.61860498534058
333.4087701985524 216.8936286827427 43.44500160330806
340.45172993896443 202.0649906763153 44.10513242064294
330.2180568359052 203.17814440023582 58.02831553453834
322.13785093716064 206.43493926403838 41.7942081902316
336.3638196928332 195.49121673631308 45.63006294835995
336.04827698035837 195.45757211965818 43.81944515087155
338.1058580275949 199.93871020861232 39.955226305955776
324.12372783160555 200.41276889698506 37.83935560721326
332.4000395973933 206.4366559827966 56.843972699215385
334.82305248027876 210.14474307158483 35.790013931731956
335.2726615349977 206.9211442514011 54.75942836427272
331.780646395153 192.80450330438057 48.000670221014175
332.22245096060317 209.69290788575566 54.24351830320088
339.3623939841449 204.5127637538406 51.90057215122108
337.33814402158976 209.56160563688601 51.56526227302658
337.87027046657147 201.34238625653137 53.799681447118914
335.56695432855844 198.99647363007153 56.38130927562131
328.99658220877404 207.21247615137048 56.07366101635628
336.87078868476584 207.15150458445072 53.373868625547
337.98393675942356 203.42391388159487 53.58068338696919
330.51835667282575 200.6851280714331 33.78771743233562
334.6214893536744 203.26854137794075 56.75285526281288
323.5178755157428 197.61128905177415 39.97715364086672
335.2898764624672 200.8109339326181 56.714327167855934
340.86126569230703 203.9127446285548 48.09273792819463
336.6024038540955 212.53620430390592 50.259048903504215
330.9171103699097 197.94348516230227 58.77491462176162
328.30543380393 195.99907196074653 57.453718430581446
330.26284421954705 211.82810780450757 53.22268224169944
332.0863893831386 213.2304454015482 37.61335695995596
336.06761824127096 194.90377571627604 49.94492579702207
325.8418966428051 197.1241950465298 37.26360227192137
333.316238350068 201.13792723932534 57.735094064159576
331.43017580984946 210.33913665871336 36.07260536655815
334.9766841567125 209.1273436926351 53.49300482694672
330.42337977592246 196.34386885140572 58.06220467558519
338.753903079703 206.9447725987837 51.628730300070956
329.1416432182892 201.419494519658 58.449495236189826
327.4612593685172 193.20226863691056 48.847077655979554
338.3434516056543 199.02913022084496 51.8218996727545
334.751374015742 205.60870230521522 34.84186847324361
332.3084566544091 203.07831623400097 57.65388135926883
329.1770531322419 197.79343830085418 58.67124012754408
338.1700677065141 198.62936537569414 43.25023781299394
328.5235047518312 203.5582472909269 34.6203601199472
330.5627575154591 206.25273595453535 56.54396745161456
331.22649375058654 201.30927727111532 58.40633987539928
325.65372480377545 202.8256361749047 56.913612351395756
323.9371050916875 196.0576454407143 52.10854330799381
327.0111105783217 193.99669742118996 42.92269146688179
330.36221977103764 192.87086720900604 43.70882112200322
322.25360699491966 201.9221610232674 40.37070614138684
334.0469353955622 195.15367456702236 38.19825051227917
334.51842988861 195.11036276139697 55.354724922855176
336.48152915101986 197.04071088897751 41.375708255038845
332.19174385779735 193.12368050597797 43.05127865647744
326.89639760707 201.67087663520132 58.08300715434165
325.9787869641952 207.15787432118972 37.31542915649683
342.1323544846593 206.16435613965433 46.57196992329263
330.1147363952309 199.5648560367696 58.80575615564121
328.3865575806102 203.07658367729678 57.935782729584474
325.23387627900564 213.18573297190642 39.195480215742535
333.29608358902607 195.51799206752972 56.67903921849989
331.7351219716312 193.6276126364322 55.63472261878061
332.98841493293355 204.6513629497063 56.92981630777431
341.11498928049997 203.74015535291807 43.07629699721554
323.2810465902885 206.36683823401506 53.77111634893348
336.9845142311993 197.33394979063547 53.11865717865953
336.34432506273436 204.870295181043 54.83442925606086
324.7817040581916 198.9939185700208 56.222269561529345
340.79006369174823 205.92676715659007 49.77106464460814
331.45055617291507 213.4345564175598 52.00999074226641
326.86412827818566 208.32034330371542 55.32216390249476
339.99160803255626 213.16718371380165 40.21826659950763
336.7313688559202 215.94046894311072 41.0220456034562
338.44168475962306 206.52940677573724 36.73185514293225
327.40139951545086 214.8683286192256 50.46450488206667
341.5459581494538 206.6120069426834 39.891855808021546
332.0584382256539 192.62068870537956 52.98584311597817
332.03350516660834 199.32940181737519 58.31313447961595
333.3339583752777 211.80080261127762 36.40541068560495
342.4174950215099 206.22379570793095 43.05795212774508
326.3650794123376 199.3880516086837 57.53978115181921
340.477042948201 214.0863131147168 46.87039009196589
328.10763963835427 192.83207566369964 51.30577861163399
326.2383733757877 215.98093573597433 47.23042550561653
329.99617120039323 193.7972781719766 37.23110766657757
333.93572375475713 214.24983290172875 38.467481769807605
333.4497710097561 207.69230346831583 55.32041561658365
335.76516511418845 210.9343216313968 52.09381974830977
336.0082379471744 214.52940172240875 39.44894382375843
337.15575151773874 196.88613301883436 43.36843215467978
321.6104389579432 209.35484114027233 52.479992804988456
334.7489039481452 197.06547194429066 56.45418815464074
330.93360919168197 214.54792430236148 39.006243211755404
340.21321982945807 209.25366960127104 50.05006432518465
341.3079275140577 209.01336932420958 39.24063381420438
338.4775331226599 213.2760101134061 39.24186574712258
334.73211833519366 207.87730515972072 35.13410838362944
334.91162525958674 216.5953716592748 41.18188928234535
331.24314114776166 204.75381051259643 57.157996560727696
324.60878397456605 211.65152620227235 53.336777674202146
324.16561675149296 215.87534787014746 44.23397606351433
338.4173229525671 198.36687862847228 45.22405504320259
328.1541435873681 199.60357015441076 58.4433907182757
326.641716196154 211.9418457634913 37.726154364694885
337.41165310061655 214.0031782145642 48.38734000149335
326.34579039794176 197.34174092217222 56.78515264667738
325.1893796955564 204.5850366126944 56.35019066114953
330.1173339512595 211.97317240938898 36.877466795852435
324.3193790754826 207.81446271893267 39.06550768647248
327.6235859536205 198.7133515877887 34.54073294811527
330.419157124352 215.1553584911689 48.9687953017345
326.63271871232934 195.34174590949698 55.74325874050042
324.34061772512484 215.26557847099963 41.928081910582264
336.6147806294433 200.1639363320506 55.218670397450126
338.2124881085558 198.03046595203733 47.11643267120789
341.94517271197884 212.70285655218203 46.75042875534906
337.14715190574844 209.5833827339228 36.37412754664412
319.93467242526896 209.28716336551403 50.5296501749941
339.41078958702394 200.791705587744 50.798314076719954
332.3288151985825 193.80988128049017 37.46979195484231
323.972821523089 215.84491951833664 46.62582754752722
333.7034985225356 212.1777338797335 52.31110071822714
321.27245539064495 204.2385710623061 42.70434001549804
328.2156164026797 212.63672378757147 52.80868094494503
322.7308501101886 212.34083491887512 41.25207375448802
338.5214267744891 211.08006186234144 50.17918806972481
320.65235155129295 205.0214539073069 45.83757914993305
321.1503580942424 207.0857852899175 52.32249102225559
341.7890519051854 204.76900817513615 44.59322267203589
334.07494292029753 196.97102577182176 36.162593231559356
340.1163568326365 203.0896382383753 50.2122852400533
342.9287633761807 211.47352458710702 44.519528035121716
324.3294207376694 202.77447153012284 55.78900989426021
325.7599565798248 199.31668233442218 36.07514276297345
334.7757262664412 212.7776619173736 37.35800608034833
341.8228974545339 212.72928091994706 41.85960369985747
332.7138929955677 207.75563345847235 35.05811358648996
329.5451330938898 193.11698973976291 41.81097183208379
337.9157369043357 205.35353513877916 53.09546228508661
329.9427926863953 198.25807970140343 33.59610880960013
327.32121628150946 194.46723114771768 39.5026914031512
342.2397141670519 209.84893748129812 47.393518531474136
325.6438162588288 194.88519681588642 43.92512845846962
336.60264596154747 202.3074537555805 55.29211273203119
339.45255436067293 200.27110053593034 45.420405611581366
328.11325978003157 201.10173403790733 34.215635252670495
330.4022814807403 192.80798243110618 54.27377067745322
341.5673468664204 205.01301826985284 41.543664704974546
334.48577066782786 194.69669486819527 41.353879872896805
337.7888431739124 197.50776881530993 51.137638155488744
335.85387880791717 196.45064984971756 54.83958804896026
326.15207334067037 201.24397943193713 35.20430922644359
327.4403004409165 215.81540762613912 40.757445444024874
330.02011175494914 215.45415824891603 40.1558942692459
323.7005432882242 196.12291098357989 50.08499234014256
322.16117805012897 214.12806381574265 49.114064340590126
339.3350557168846 208.45168251156286 37.41272202710017
321.20196311098465 210.75540330932202 43.745148570283206
331.9078368222926 192.35417900845655 50.72866035538856
339.1270158512625 215.91181895927508 43.83958977374312
334.27336113367176 199.4418424072127 35.66388420043069
339.2472315695758 202.2513879623333 52.30323771888992
328.8114622189998 213.56854544559357 38.20357555859616
323.64954830737213 202.89446067729037 38.59431529291497
325.0891150129546 194.76392309059653 51.38913278573357
333.52337087431886 202.35725307704732 34.71360248490215
326.5977674136197 193.62317528728784 52.60264854498484
333.86310533872046 193.67365398871044 53.80062661376953
339.0787809959389 199.63454333571266 47.55293385983284
322.1929930879845 214.20238441316857 44.203970868535535
339.5530177733915 201.77428644368146 40.167371618302845
339.8491470418158 201.37540370971212 48.176700230508814
331.69185429378376 195.06819925184152 57.16436061379232
331.6369124016015 205.01619976109598 34.3528836151222
341.19059945812774 214.5059542454147 44.58588520658476
341.69631560463995 207.78484604962162 48.62576267989722
328.4486450550692 192.95508661399083 53.51840752660182
322.76268000675276 208.84557583669698 40.81208307878407
336.8546386457198 216.891218535844 43.156459524682816
336.68702301609426 207.65359564994273 35.78087751944777
332.4737001436501 197.11218061433598 57.730502300917
326.4218966186638 194.10425845453148 45.9485723252095
321.99516674186356 214.4414571427524 46.61959950404126
328.0858834805302 210.35929290457582 36.83086061946867
326.22830129782574 213.58197732209615 52.4557222712122
325.16754632153544 201.07307529982327 56.76946263369133
331.1947463525532 207.9202670102497 55.80375157200142
328.7797271214697 193.0093048573563 44.5290204822533
337.5053846239654 196.7155149639591 49.49042296695066
338.9584175840109 202.6284645561381 38.36416775527207
331.0909181307262 202.97642613378764 33.96166668514586
336.76248523157994 195.83596120744357 51.59374733122113
332.61576123462237 215.5038281182548 40.23457588060001
338.20626408037543 215.42171413261173 46.43719543738234
337.3299424617129 211.5465863839653 37.71576467903918
324.73817726998016 195.11466606804464 46.773452721860856
320.6932432656929 212.59433931881762 46.50134192403715
336.58258793650214 195.6905577418123 47.44961592892632
335.1456331546536 214.94012368064548 48.32739743823464
339.63007393530063 212.52004472365718 48.45402050190623
334.27718162324464 205.68118359068202 56.06025148041866
334.5926795757247 213.8097861666999 50.37852319008793
331.73735094845813 215.86555331347236 46.682591296712
339.85557194224344 201.30934857863394 42.28590511553323
332.3257867507776 195.16643672866002 35.785534190064254
336.2715108776344 198.20214572225697 54.99155741553827
322.1137446088076 204.59166192584502 53.19273087447106
333.9362233742883 199.04728600274976 57.32239916310418
324.0903297779101 195.72328078308476 44.89321593815964
322.9411451565212 197.1016290990151 42.82385480818498
325.13500087061703 210.0224879939776 38.48974620452782
329.00757513559273 204.96438157868505 57.137731831750834
326.7902313157138 216.23719724027168 44.58609483948255
322.40212619165794 198.07554154000164 49.01234672129967
335.3490222688494 196.07981393233445 39.722264140816236
339.12768014677766 214.72024113166654 41.368074543746886
323.65682467439837 204.63713729921412 54.87394960122575
329.04469130086034 192.84491917023266 47.034213829580175
323.4559238436109 196.18557855427485 47.51496937680771
335.6879361204614 195.28075951636524 53.52303105012364
320.263185435298 211.65234175650033 49.18451232324183
343.2154871449647 208.5652966147604 44.67804857180776
337.4133264745863 196.82735412088746 45.119882003036906
335.07106104958746 216.56795076287705 45.83051899756336
327.56239609702715 197.9303229598795 58.00475868553605
321.61264382195304 198.29950888031493 45.50531882533445
326.9397949933369 206.01811399360776 56.35550314195476
336.383848831405 201.45357782418762 36.85329961685267
330.8906074045969 192.91119715522487 45.36502046487883
335.1864203375679 194.24530484801852 46.09549720667895
338.59740162294554 200.5452322080676 52.50015265109914
326.4294542273579 193.63179914349985 50.63626683030504
323.83113523287295 197.25498019141403 53.37297424586217
327.4052126702404 196.58927600164606 35.43114884950789
323.50965251759186 214.2339315832253 51.91548393112757
340.6036948625887 203.64390141243226 40.37120546149759
320.79155471016975 200.121722946519 43.93675239840157
329.3061738437661 207.11403237167244 35.61649745847916
331.93021409155335 193.30193215458803 39.69995450903731
332.22005691774183 197.9449286812716 34.300305612433824
326.8697241366003 203.9997734025917 57.47030450197298
322.73716477564165 198.78790141406427 52.88419334665886
321.0700584180928 201.48202071276617 42.81752666234086
327.6825265265926 195.13874642329174 36.5246447665242
338.8122279173602 198.9074862794752 49.471654560038566
332.8126837754294 200.11522193952143 34.36186773740043
327.20748426847234 205.45176478970873 35.976167755023205
329.9957303771456 194.69690278299413 57.22854305982373
323.70627309941796 211.07236067013523 39.65476511378842
329.29257757118273 216.16868806693054 45.54464770993616
339.6623701607231 205.29400229683077 38.08627647493027
322.9814047089878 197.65779664267876 51.477368134958745
329.60853853018676 193.25442663164893 39.47145464118481
333.8637149761914 193.2401846893267 47.596797198144834
340.56829626965225 211.5101208400653 39.11254168102515
320.09966425551875 206.96392030945034 46.23141338722757
328.764999291431 193.90820864498275 55.705909085970305
335.6740280410809 203.51685511076687 35.50789835520799
322.4431937490536 199.69058486823621 39.794105339576156
325.22964345903705 195.96776017480448 39.560130406418786
POLYGONS 612 2448
3 0 1 175
3 7 254 1
3 254 7 16
3 3 0 174
3 266 22 202
3 0 3 1
3 2 1 3
3 5 2 3
3 7 1 2
3 174 6 3
3 6 174 170
3 15 17 13
3 202 22 212
3 274 259 63
3 5 3 6
3 16 7 13
3 13 289 15
3 7 2 10
3 261 266 202
3 273 261 5
3 273 266 261
3 256 266 273
3 2 5 10
3 10 5 261
3 6 273 5
3 280 15 289
3 299 261 202
3 289 299 280
3 261 299 10
3 10 299 289
3 7 10 13
3 13 10 289
3 174 11 170
3 118 32 18
3 175 112 9
3 274 118 21
3 274 63 118
3 118 63 32
3 254 112 175
3 288 274 154
3 264 154 21
3 154 274 21
3 175 1 254
3 118 18 9
3 9 21 118
3 112 21 9
3 16 264 254
3 259 288 106
3 154 93 288
3 288 93 102
3 274 288 259
3 112 264 21
3 16 180 264
3 106 288 102
3 17 16 13
3 228 81 220
3 93 233 102
3 154 180 93
3 254 264 112
3 159 73 153
3 115 233 17
3 17 233 180
3 180 16 17
3 272 153 73
3 264 180 154
3 153 128 115
3 128 233 115
3 150 128 272
3 228 72 81
3 28 115 15
3 214 24 212
3 220 108 228
3 153 28 159
3 159 28 24
3 128 102 233
3 24 28 280
3 83 102 150
3 280 94 24
3 94 202 212
3 233 93 180
3 83 92 48
3 48 92 87
3 63 91 234
3 63 259 91
3 81 88 73
3 73 88 272
3 88 150 272
3 87 67 110
3 105 83 150
3 105 92 83
3 110 67 248
3 35 24 214
3 229 84 22
3 84 279 22
3 73 295 81
3 81 295 220
3 72 88 81
3 280 28 15
3 255 78 125
3 150 88 105
3 105 88 72
3 146 48 87
3 128 150 102
3 159 24 35
3 115 28 153
3 304 109 295
3 22 279 212
3 212 279 214
3 228 125 72
3 72 125 105
3 15 115 17
3 228 255 125
3 272 128 153
3 125 92 105
3 279 84 130
3 94 212 24
3 83 106 102
3 159 304 73
3 202 94 299
3 299 94 280
3 228 108 139
3 304 295 73
3 304 159 35
3 58 74 32
3 295 109 220
3 255 69 78
3 106 83 48
3 106 48 259
3 191 69 161
3 161 69 62
3 87 92 78
3 78 92 125
3 82 186 59
3 82 64 186
3 114 56 248
3 219 166 292
3 113 253 198
3 191 114 67
3 67 114 248
3 209 166 178
3 178 166 219
3 197 85 113
3 113 239 197
3 209 178 59
3 134 58 234
3 219 216 192
3 192 216 162
3 219 292 216
3 216 292 162
3 82 116 141
3 134 56 80
3 80 56 64
3 69 255 62
3 62 255 139
3 82 60 64
3 60 80 64
3 292 166 85
3 85 166 278
3 78 67 87
3 78 69 67
3 62 139 253
3 253 139 198
3 253 45 161
3 253 113 45
3 45 113 85
3 104 116 70
3 70 116 178
3 178 116 59
3 59 116 82
3 58 134 80
3 69 191 67
3 56 134 248
3 74 117 26
3 26 117 30
3 74 169 117
3 117 169 30
3 248 134 54
3 54 134 234
3 59 65 209
3 74 58 169
3 169 58 80
3 61 209 65
3 146 87 110
3 248 54 110
3 110 54 146
3 141 60 82
3 162 236 245
3 236 197 239
3 65 59 186
3 178 219 70
3 253 161 62
3 278 45 85
3 146 54 91
3 91 54 234
3 192 43 219
3 104 70 43
3 43 70 219
3 292 85 197
3 161 45 61
3 61 45 278
3 255 228 139
3 91 259 146
3 259 48 146
3 209 278 166
3 209 61 278
3 186 64 114
3 64 56 114
3 58 32 234
3 234 32 63
3 186 114 65
3 245 270 162
3 32 74 18
3 61 191 161
3 61 65 191
3 108 220 109
3 76 236 239
3 34 277 301
3 130 42 44
3 198 99 267
3 304 224 194
3 304 194 109
3 65 114 191
3 239 113 267
3 267 113 198
3 33 206 57
3 35 224 304
3 235 276 265
3 34 57 276
3 276 57 265
3 130 44 224
3 265 57 42
3 42 57 206
3 33 40 206
3 40 124 206
3 108 99 139
3 108 109 99
3 99 215 267
3 139 99 198
3 245 50 270
3 270 50 51
3 245 277 50
3 50 277 51
3 124 44 206
3 44 42 206
3 215 41 267
3 41 33 76
3 38 277 245
3 51 37 196
3 51 277 37
3 37 277 34
3 194 44 124
3 194 224 44
3 265 42 84
3 84 42 130
3 33 57 301
3 301 57 34
3 162 149 192
3 192 149 89
3 162 270 149
3 149 270 89
3 109 124 215
3 215 124 40
3 99 109 215
3 33 38 76
3 267 41 239
3 239 41 76
3 229 265 84
3 229 235 265
3 41 215 40
3 40 33 41
3 224 35 214
3 194 124 109
3 277 38 301
3 301 38 33
3 34 276 101
3 197 236 292
3 292 236 162
3 51 196 100
3 37 34 101
3 101 196 37
3 89 100 52
3 52 100 23
3 185 286 101
3 101 286 196
3 286 98 196
3 89 251 192
3 251 283 111
3 20 97 170
3 127 123 29
3 236 76 245
3 76 38 245
3 130 214 279
3 130 224 214
3 235 96 276
3 276 96 101
3 235 185 96
3 96 185 101
3 196 262 100
3 100 262 23
3 196 98 262
3 262 98 23
3 51 137 270
3 270 137 89
3 51 100 137
3 137 100 89
3 251 89 52
3 23 208 275
3 275 208 213
3 52 23 275
3 103 231 285
3 235 95 185
3 19 188 95
3 95 188 185
3 170 49 20
3 20 49 225
3 170 11 49
3 49 11 225
3 192 47 43
3 43 47 111
3 192 251 47
3 47 251 111
3 231 79 285
3 20 103 36
3 213 305 275
3 275 305 27
3 213 86 305
3 305 86 27
3 256 257 19
3 12 68 257
3 257 68 19
3 77 68 53
3 170 290 6
3 170 97 290
3 290 97 12
3 231 103 258
3 68 307 19
3 19 307 188
3 68 77 307
3 307 77 188
3 287 252 39
3 252 132 39
3 213 221 86
3 221 90 285
3 95 235 229
3 77 291 188
3 39 132 291
3 291 132 188
3 250 46 25
3 20 211 97
3 97 211 53
3 20 36 211
3 211 36 53
3 97 306 12
3 12 306 68
3 97 53 306
3 306 53 68
3 285 294 103
3 103 294 36
3 285 90 294
3 294 90 36
3 6 284 273
3 273 284 12
3 6 290 284
3 284 290 12
3 266 243 22
3 22 243 229
3 266 256 243
3 243 256 229
3 104 223 116
3 116 223 141
3 104 189 223
3 223 189 141
3 27 86 227
3 104 269 189
3 104 127 269
3 269 127 29
3 141 189 247
3 213 293 66
3 66 293 287
3 213 208 293
3 293 208 287
3 90 238 66
3 66 238 213
3 90 221 238
3 238 221 213
3 241 207 226
3 226 207 263
3 241 222 207
3 207 222 263
3 11 205 225
3 11 4 205
3 283 298 123
3 298 204 123
3 39 281 157
3 157 281 77
3 39 291 281
3 281 291 77
3 90 199 36
3 199 53 36
3 302 204 242
3 123 195 283
3 283 195 111
3 123 127 195
3 195 127 111
3 27 237 275
3 237 52 275
3 157 193 66
3 66 193 90
3 157 199 193
3 193 199 90
3 185 300 286
3 286 300 132
3 185 188 300
3 300 188 132
3 19 190 256
3 256 190 229
3 19 95 190
3 190 95 229
3 52 218 251
3 251 218 283
3 52 237 218
3 218 237 283
3 66 187 157
3 157 187 39
3 66 287 187
3 187 287 39
3 222 183 263
3 29 302 183
3 136 242 182
3 182 242 55
3 53 181 77
3 77 181 157
3 53 199 181
3 181 199 157
3 189 269 179
3 179 269 29
3 111 176 43
3 43 176 104
3 111 127 176
3 176 127 104
3 25 46 240
3 12 257 273
3 257 256 273
3 98 177 23
3 287 208 177
3 177 208 23
3 141 173 60
3 60 173 71
3 141 247 173
3 173 247 71
3 225 205 172
3 172 205 217
3 25 200 260
3 200 210 107
3 132 167 286
3 286 167 98
3 132 252 167
3 167 252 98
3 189 163 247
3 189 179 163
3 163 179 222
3 252 287 177
3 177 98 252
3 79 184 285
3 86 221 184
3 184 221 285
3 107 172 160
3 160 172 217
3 183 222 179
3 179 29 183
3 250 30 246
3 283 237 298
3 298 237 27
3 225 296 258
3 258 296 107
3 225 172 296
3 296 172 107
3 14 168 203
3 30 158 26
3 26 158 31
3 30 250 158
3 158 250 31
3 225 156 20
3 20 156 103
3 225 258 156
3 156 258 103
3 75 155 210
3 210 155 231
3 75 79 155
3 155 79 231
3 175 165 0
3 165 4 0
3 107 151 258
3 258 151 231
3 107 210 151
3 151 210 231
3 31 297 260
3 260 297 25
3 31 250 297
3 297 250 25
3 4 244 205
3 205 244 217
3 25 201 200
3 200 201 210
3 25 240 201
3 200 107 160
3 160 260 200
3 260 148 168
3 168 148 217
3 260 160 148
3 148 160 217
3 18 147 9
3 9 147 8
3 18 232 147
3 241 271 246
3 241 226 271
3 271 226 46
3 14 282 232
3 14 203 282
3 282 203 8
3 226 145 46
3 136 240 145
3 145 240 46
3 55 184 79
3 11 303 4
3 4 303 0
3 11 174 303
3 303 174 0
3 203 268 8
3 4 165 268
3 268 165 8
3 217 230 168
3 168 230 203
3 217 244 230
3 230 244 203
3 55 164 227
3 227 164 204
3 55 242 164
3 164 242 204
3 26 171 74
3 74 171 18
3 26 232 171
3 171 232 18
3 244 4 268
3 268 203 244
3 71 152 246
3 246 152 241
3 71 247 152
3 152 247 241
3 86 144 227
3 227 144 55
3 86 184 144
3 144 184 55
3 263 143 136
3 136 143 242
3 143 302 242
3 302 142 204
3 204 142 123
3 302 29 142
3 142 29 123
3 71 249 169
3 169 249 30
3 71 246 249
3 249 246 30
3 210 140 75
3 75 140 240
3 210 201 140
3 140 201 240
3 246 271 250
3 250 271 46
3 8 138 9
3 9 138 175
3 8 165 138
3 138 165 175
3 60 135 80
3 80 135 169
3 60 71 135
3 135 71 169
3 75 133 182
3 182 133 136
3 75 240 133
3 133 240 136
3 31 131 14
3 14 131 168
3 31 260 131
3 131 260 168
3 247 129 241
3 241 129 222
3 247 163 129
3 129 163 222
3 55 126 182
3 182 126 75
3 55 79 126
3 126 79 75
3 14 122 31
3 31 122 26
3 14 232 122
3 122 232 26
3 204 121 227
3 227 121 27
3 204 298 121
3 121 298 27
3 136 120 263
3 263 120 226
3 136 145 120
3 120 145 226
3 147 232 282
3 282 8 147
3 302 119 183
3 183 119 263
3 302 143 119
3 119 143 263
