# vtk DataFile Version 3.0
A great-looking cell
ASCII
DATASET POLYDATA
POINTS 345 double
74.90071466247315 90.02763875479796 91.33655590328452
75.35208746784375 90.03415312025272 89.16737218777
73.84763025495805 86.52444440307504 97.89290911824575
69.63147307243949 90.00286838090389 99.14551640268824
62.1199394837812 85.51089611906777 75.74956023958588
72.42529394700273 78.81591598561721 98.82603928455381
65.45316127241074 73.43072457374977 98.60258012374382
54.790166355592056 85.39338047500385 83.6975997217968
76.01963037039492 82.40907027250447 89.89007867817388
69.5429895941793 71.4619624063155 89.49400204654468
62.37324038526375 73.88089611394128 86.21050120630571
60.113173280396026 73.84097527387641 96.95594539910579
72.26964791738489 78.6180255343481 85.07588514088316
49.49889551152149 82.97902383083284 87.33515888144291
54.14819572883411 81.72890219621556 95.51492004991475
74.52619211276465 78.20877354844521 89.34565064560351
54.99592260752549 76.09549482587629 91.73876289088209
74.06148997605257 75.22325561809929 88.82438190392158
75.77138235685459 88.07430945280409 88.68713862655908
75.96221677970091 81.33717813453394 91.80018932889081
72.71322061967793 72.53344157949428 90.52174152102342
73.9785928307984 74.54418608759737 96.01689004509865
76.96663732582425 85.5660814584804 94.824356478028
77.19479606884117 85.17724779357492 92.54307312400378
76.53875798528091 86.96393498366065 92.63680500155702
75.34510286552234 88.3788873411605 92.56436106492934
71.84287418147039 74.0005269500027 98.98825519345671
66.36799011146532 72.13435622123404 95.16464661124364
69.97937016580632 76.12425450939809 84.05237357825047
64.5880981818109 75.969386327815 82.92321519280672
57.89224117798715 73.21616381435902 92.33446497406025
75.13952136626818 93.58305567140721 81.81241992130978
56.11118315954919 76.15052067934371 86.8658960962503
75.3864018457814 90.78714515803449 83.03831020659341
74.88253283778442 79.22274383349249 91.10343628837536
73.2272882605538 86.4397111994557 80.21001896248515
63.05720464158419 72.47066759469352 89.47014802217305
75.1814553474913 78.97644271495413 95.3281410544296
65.50130811674187 99.14803416339892 84.96203437454982
68.18234962466249 98.73036969690777 86.93014344543347
70.48872990747277 78.0846315461673 83.4538150425646
71.62295930438532 82.45319619855225 81.99411090011364
58.863476948292046 75.06148329083791 85.452282935769
71.84189214453602 71.67639762023727 93.61273231626829
67.05374168385428 97.31189200475889 89.53630432208737
73.5136488081913 92.53281617066364 77.19778461741878
65.87072267298866 78.31615262951061 81.23429699373516
64.10641359572055 98.32741054400677 82.02761954737096
61.76376086521012 96.24657165612824 80.55258946237991
65.16617207759691 94.95795209130527 73.74211518747983
67.59482769505713 72.22643230345041 97.0477978440496
65.98699840593599 98.4299850135628 80.31067911536834
70.38754824111618 80.35125547783049 81.81918115295717
59.325274201880084 87.6807358733322 98.8994635162894
64.25474085536239 89.70538589372043 73.59909999998888
71.81924460496313 91.23951519981556 95.87524507907614
63.25772501487203 94.1225179668747 75.15114362438983
62.841505632983534 72.0860980756431 92.77194422457889
63.7254283558944 83.56480820575695 76.1578896609404
64.32251018123871 97.71138762652194 78.72688533061527
63.41451132067224 91.11875805181037 97.80689637530661
52.576725192399785 77.47601760920097 90.21438766059461
72.88188483043899 97.57993479999159 80.40432242326054
66.72537475314569 94.1421458703374 97.75458826513078
74.22290011865653 94.10322066331591 88.05076250364435
75.2537958246528 91.87753552363009 87.19555121869737
70.7018547421365 94.44327154612766 74.1175123587726
53.56611755038413 80.05598890990171 94.47856920374292
74.7815147749943 94.6927219810935 84.15917310321548
73.20842807677646 72.91834488390533 94.8954320459001
54.69383632698236 83.35285033022488 82.36470389663683
74.55975121523639 91.99586238579501 89.69843503894444
65.67113258723643 72.36370335520186 91.93691360998795
56.80807260593781 77.78461254845857 83.81654635552245
70.30776437699463 92.87153073711977 72.97274137932257
51.67134792958883 84.43503617497838 91.70564540879676
57.942651053101436 80.99336090130359 80.63831514381665
70.00574495942993 81.98617473759987 79.78033790975438
52.07671885373186 85.2157628239882 85.78610741799783
67.51824545676699 71.7363258161564 90.69315373186866
69.90714612151837 97.487231529643 76.9506207686091
72.0862689632918 93.38553829530629 92.77098420569273
55.80704756474804 84.90094532534123 97.20012416595861
65.44505512857614 92.96057460088605 72.52088879965146
69.52622090512814 98.71318740623867 80.17460744493755
57.54696517514258 89.49914888861007 92.01615032468652
58.229118972571605 91.33718172012766 83.13277666033437
60.43512369129421 84.4621336592813 77.10370534658891
53.22207038030878 82.51969873625755 83.9493151981124
57.607200645887076 74.34463465427496 87.45882192109299
57.618401786816456 87.47871953057437 97.24479328411569
68.77313151433309 88.24881100205221 73.33459177742213
75.70017488244666 84.37864610965495 87.0819583546664
56.39379014792897 74.95724849837815 93.99563033113954
54.84953803213553 87.00641805790283 86.76397697443127
70.48636036255557 92.15009838946534 97.33594489894575
68.55340856783083 81.42164654037039 99.02437752760541
73.01932422229969 89.76587862403274 95.62084129704203
75.53717853630941 90.27406840481666 85.46473747506592
72.4774188946282 96.05037166699228 88.75630319804844
75.6048987450241 92.61174653676363 84.6003114420347
73.02632193404999 93.72458676284897 90.35951399032078
60.41559242751814 72.89277262316179 94.00821386632249
61.61297281991208 96.683185420575 83.74884959520682
69.12224057669422 80.44655300421668 80.66418987296316
58.707142070253134 88.78783935567367 78.7370676430317
73.08888964233927 90.318146673321 75.8887676894936
74.64143202578403 93.17370417529366 79.49628421592638
59.924706151515636 90.3851303910182 94.6685260094333
63.665134982561455 93.78498755719275 94.04260529054618
54.947395297629434 80.83651764702769 97.36509838586834
71.45212494088716 98.3184632340668 86.89087791550351
58.24876463882615 72.41749752420164 90.30082402847673
72.07972100434533 72.4383543449493 96.73613011921722
61.583501663048146 95.58279526905778 88.92386213780738
59.8055955825104 91.97163584607995 78.59776036503382
54.97262903291732 76.88683844331052 94.21191691453194
51.98184292646005 81.33682147266587 93.34944871471089
58.9860297889849 80.91174055485429 99.01093632914076
57.501547825528824 90.80203742542713 86.43337867712557
58.44666043964787 91.313080478834 89.61766605633132
53.00416671211774 78.2748810588397 93.32911664431711
55.382817931454504 80.85535397446715 82.00722195529929
63.263373246178205 94.79199594772852 91.68103006144715
54.76100075262689 78.8343513360319 96.09163169030221
68.25670622454227 96.38833923557414 75.24143470075049
74.30583497763432 86.78490603522643 82.6930213631739
59.047165236274004 88.79876876341332 96.75626001823623
63.72859367943207 75.31367953980391 98.92092143145088
56.70305980345605 79.97375008187569 99.01173378204383
59.88287725912371 79.01336414228345 99.06086840511941
69.39272734998508 71.57324672973579 95.64842008063196
70.50832551298076 78.90656185216817 98.9759863289832
69.15874595901603 73.24410322770859 98.39228429072223
57.49510129078294 89.56587896245149 81.80217765798956
70.86927213335979 71.04043701061022 91.49997419837857
73.74775398579575 96.24887775315759 85.89077127974339
67.80322899460157 99.19264247526759 84.62333129069823
62.67430657043114 78.1297248366001 81.35715580747399
60.82215188045055 95.63447925960112 86.25448153799344
63.34179892940322 79.68124854482066 99.00473546650541
64.525074408748 72.63004215288241 93.92600250684684
59.92004077325608 93.54510236690828 80.54390386185185
75.45897198330547 88.12792129936851 86.50926607684411
70.3365256170847 84.07539425577558 78.03635140716224
60.83831254297779 74.83706243836565 98.80609023831447
65.20214504003998 82.1344517872491 77.23119726593256
53.35271443346178 83.52420299162796 93.84444815591745
72.35110725555518 98.29813343744063 84.30318924234565
72.97589367643515 84.59208211529399 82.19789452182467
59.37188077388163 78.2748486093187 81.85338307740658
70.13507706802518 95.09883444195908 93.74356046202405
63.10934668205506 72.70977706007118 95.80392544537077
73.75730157492644 96.63536568837316 82.47348625351677
50.82523629262526 79.72183715351777 88.65005665456381
62.041982964420455 76.5747556576599 99.07147908589289
59.5749941952167 91.52540920972379 92.06675403553123
51.349160263796676 85.46665874944385 88.78067349322313
67.88682519784923 97.89226948656801 78.60123297028488
53.832687744007174 79.21184336864374 84.22187882440842
62.63536508953345 88.76577139816689 75.02858562354831
75.6077672686841 89.70989511951649 87.38344979342322
55.77813771437694 87.42881502250407 92.6293041408707
54.04260593203712 86.81019909834403 90.12223140606298
65.97228213954993 97.33743816520025 76.60262331786393
63.7299194195522 96.05466583302952 76.09649047972272
63.51576520240439 81.9571831199499 99.01915214739776
60.15578222272631 89.9544591209119 77.19705040875637
58.92724621921338 83.38165290726624 78.55374361677936
56.16099390047782 88.90534731789775 86.53166836739227
75.96506163787495 86.16474599045998 87.83857103089902
67.71368147743823 98.86813728110903 82.08009413207125
75.58909895201447 87.52413324820161 94.33005311596915
71.74008355279847 84.24127087443875 80.00085895766101
67.28766982280283 80.73921154402262 79.64389537864552
76.79355824722569 86.17369066045211 90.34942376452065
61.9661209982996 92.27656540190038 92.95797505691837
73.38868973946346 95.36523388277536 79.44685141174763
75.00526981342995 88.99023265546599 82.12423567931391
69.52267297433869 91.05920494425563 72.43593633756402
49.563633728590204 81.87586891955922 90.86554282829111
59.342042444641606 93.48595113401458 87.43342166232834
57.127899377443626 87.71597608620274 80.351692260352
74.41751645725097 89.61328047750011 93.75496661706946
75.19411594249729 86.00950803379584 85.39086257874868
56.742356005844606 77.244126959517 97.80560031303419
65.70900298242749 96.64315424981667 75.04294712327923
76.82439736998856 83.32177283731323 93.47353060999934
52.95588626270301 86.40932885138022 87.83346516843203
71.27704257388658 97.94870387617136 78.77083247550202
54.72465879156565 76.34787968349359 89.09126628502517
65.88139756046016 96.16350311159307 91.76855380724359
60.2613453890598 72.13882915626247 91.19930732058576
51.10524283357752 79.43954119104228 91.46154757443914
67.30929838228174 95.69418861150181 94.03545146870752
72.73598164913723 75.56700810821883 87.0710527397525
57.29982742962716 79.34004440901325 81.90768751993419
73.65576234106165 88.84215504260865 77.97548325345642
62.344706738165385 95.84207795944668 78.17250086275239
62.91226052603363 97.66934112042455 86.66903751551794
65.69818206873963 84.76290736245595 75.21696251414647
59.127869615074054 86.66349356566374 77.5206836757896
71.6191804928505 76.15130482280784 85.36879302829782
64.94236700244223 95.28305891537343 93.62854666361213
58.341452560348685 73.73739760108971 94.8685088667617
76.33904802813808 84.17327502353352 88.9924643879258
74.2392242631626 87.99736387878619 95.729620564742
56.498150416396925 84.24363897039747 81.05331968172355
56.41250818299107 88.4644931389908 83.89022132854058
65.90006558821361 74.13536653703558 85.57190354773557
68.16673078298857 92.83879270183263 98.90419877709019
61.40975007365279 75.63670165391996 83.26808277744657
58.60446432191932 90.52035546305979 79.96631065688432
70.47480386967622 76.53551247842336 98.95515982032079
73.0209255176634 82.80139954842481 84.0116632360365
55.95809609479419 74.08798439915665 92.02451330264931
71.73501394664908 90.03031614652308 97.30393102540936
55.96373482803998 88.1479474941874 90.92687762761857
66.20154158774149 90.59522684216304 72.05112245551399
64.34059262270195 89.61705890883563 98.88787694932797
70.7997171395156 89.67113197398135 73.32520426468714
72.06927356062968 88.32242377118521 98.8834957985048
63.31736365290109 98.24552608188809 84.35750500926459
65.45799467170805 98.5614750442903 87.80228001968085
61.48542747989044 93.385947485796 77.06647532786062
55.984861163663176 86.45593517303394 96.56320538374233
72.84435047409241 82.72673544233548 98.99564060326266
49.43844210175088 84.4191002560864 89.93878482006221
75.04496234975232 88.51182404554875 84.22170680307474
73.92184295631533 74.0128308767975 93.09823144912801
74.88256876018015 76.62363581079242 94.21551930191751
71.12560997129836 93.00887119215572 95.09849686949157
75.01651953353372 82.31937278516737 87.96985766798296
59.00665922370925 75.9919218250213 98.9931210066933
54.95427348750124 77.63979914294163 85.42030210078022
63.57069490818328 74.61247724274052 84.31695983018221
74.467125188534 88.27420327845122 80.58170924062728
63.51963248282073 84.31671671290316 99.00174025005835
66.70105760920507 85.28088774510353 98.93271433737392
54.10571195144104 85.62395585176533 93.1451350509955
73.8627672046182 91.7989339554017 92.08820672036147
74.43884624137027 78.8581890124923 97.48592077320994
57.40764426782998 85.37392376118358 98.25057962263475
72.01076446871036 80.46167159859418 83.6602928507591
68.1236144385786 79.04137053627502 99.19736136725935
71.26113374064802 95.51945627843281 91.24802102605763
71.84685841325458 86.13775761734763 77.75481840599812
75.9205382608688 81.17790486185667 94.34132288660334
73.68128685985126 76.09018675362914 98.61291020302772
66.06407566724985 81.8413630761037 99.12367385775896
65.42949029135615 87.65248608604338 73.57304971861058
53.18676367932972 77.76171853556014 86.9791345443269
72.01998718349388 86.51836796171288 98.97242417881785
61.38240357110762 89.94560589762808 97.80367696749082
72.17171666819338 93.74576573675559 75.33215364080787
68.70510834095779 71.35404331250619 92.59654902751042
62.46282724698313 74.20760218705962 98.29462817091478
71.23108529857093 98.71910524351686 81.71665682790051
61.74318703625611 91.05102081098228 75.76431967947458
73.89872316337632 84.79762959393732 84.09005030837722
74.70522980808778 76.63209463912675 91.48974734452375
63.11439369833601 91.89245833798185 95.80612970305906
75.43530710267372 81.04672187753823 96.5960622756942
74.00782986413645 74.50223976029542 90.9766617249246
67.63652103592307 75.817921515453 99.15662284794581
51.048835900770186 82.91777232156954 85.069251873017
56.29891066820442 89.00272915841003 88.9438860655969
67.43387672506043 86.21305839137754 73.91977596859034
56.2530816587467 73.76831021018128 89.54708844640051
61.11677658823818 81.94620466419967 99.0494533663963
65.26397167898686 92.3082727824586 98.0150828114698
61.28206578183506 94.82049247760514 79.02818842148726
71.61055177064931 88.46854779881416 75.22038893289844
76.3760275370432 83.17307549134493 95.83348434707547
55.623833397990914 86.4209075353923 94.5773542711725
63.47808455388755 91.94571933350167 74.20677257990434
67.01144123738861 88.2345926607596 99.16452719521776
69.7854688101256 86.63635332596682 98.96678254673893
64.04451678260239 97.35735020800466 89.84939266252199
65.6816086664265 79.42306440046033 99.11069566526507
74.43066510254783 83.52262629950881 85.76383141976109
63.97073516618444 86.65241131416067 74.88473593443513
71.9154349253876 91.71065555737326 74.13167306244021
73.36260944351925 73.87251843355595 97.85887514239747
72.72175303721545 91.3958088612978 94.16251466185794
62.25221384711054 87.26835226384102 98.89492020050466
74.96246749222814 90.83759708262085 80.18810449845407
56.103794754136665 86.51897679899085 82.24436268207803
68.15532837232244 93.81040583218088 72.41278063548839
69.01641443916374 83.50396742071577 98.91087194105455
74.37994199021723 83.89943649164991 98.96063129148654
60.7494636052254 80.36905963540377 79.55157641772676
60.74471612650732 87.7558039513986 76.02135604021446
60.305694186549125 84.89268732375668 98.96420271085933
68.66512102287446 96.42132930731071 91.7407977590783
62.11279838943493 82.67275253007294 77.50673905421294
71.75753086513151 73.26660102430859 87.0389572876036
73.39768297436514 77.75275493414892 87.05608002570348
76.48384769184823 85.05948384706626 97.66905320665731
76.68990105876843 83.76160834778224 91.18796624799417
64.76321916185604 86.97429526615886 98.91535537848966
57.154367535000006 88.29159330057485 95.01546052360963
57.72867018007937 85.52564590235932 79.24217276505588
68.72429620501146 94.45214727826941 96.41010489650027
73.37757534201599 80.8244057625144 86.03831960727936
70.94748458288056 81.27401309983719 98.98462593314511
69.39018367177415 85.52669164754377 75.52184623488202
58.962906983327215 76.41142236998036 83.33732844087655
67.88600092089267 76.41415649454426 83.23155898166152
66.3600634846194 72.46386938891432 88.77974347854546
74.87660858952417 76.9256255421767 96.4302985734877
58.035729789901474 78.0218341352425 98.89506442940899
59.39391631452101 94.28146924510729 84.10419959983797
59.4092246683075 72.77009650312581 88.20256236110411
73.01620971375733 88.5176000603948 97.04985055723353
75.7718801661644 88.27135666203706 90.8050979798309
51.44254326221992 80.53283273779948 85.632452415798
57.545349838795374 75.11960653028414 96.57560597264535
71.8895856126097 84.46672318751618 98.9505414831224
74.35829815261148 79.93751345251223 88.01024562649994
65.47516052854701 94.30017800125562 95.87137099791497
75.22820029125015 94.1251553043043 86.07408787929158
75.00436409138636 80.64275874866196 89.73143562729635
71.74260873826982 95.77702106745828 76.40160047212352
69.85489363776219 99.19077698947417 84.44606910581628
75.12958588099808 79.0460994398744 93.03291930571552
70.0224166027078 97.56186876609337 89.48511956166992
60.74913018898741 93.12188459858879 90.45969652457268
58.454272522477346 92.52334460615113 85.30063232364705
55.48001332426955 83.01448990591753 98.0099266101317
69.38243656556318 74.4627035265417 85.02201007390569
68.57837566004473 72.87167834467702 87.02185296635243
55.83065869422265 76.41959760438554 95.87158457634335
75.87329401240494 86.95514638876412 96.36460005313327
58.29701286904798 82.70240108712747 98.89238515375905
63.99815783065935 80.4056509932211 79.46053318208227
68.14495948402937 82.91082245209049 77.31765123076897
73.94373750416582 81.29116038341779 98.52138186759716
75.79175380112927 82.75053821009912 97.84274218600844
68.5557636755536 79.00239618668053 81.62863742656702
54.808836785954355 84.56393170049571 95.60933249311793
66.85366766365487 90.69379346654098 99.18365345903827
60.49370614612843 95.24293036741696 82.22755987109277
64.42830201636934 73.2874883376808 87.54159553803284
65.10673376531611 77.05533183628599 99.01202871523823
POLYGONS 686 2744
3 194 303 151
3 24 25 172
3 95 55 231
3 97 216 314
3 206 172 183
3 183 172 25
3 183 97 206
3 206 97 314
3 0 25 315
3 231 151 303
3 25 0 183
3 333 172 206
3 2 314 221
3 221 314 216
3 216 3 221
3 2 318 290
3 3 277 221
3 298 338 273
3 318 289 305
3 290 337 338
3 338 337 262
3 318 277 289
3 289 277 238
3 3 276 277
3 277 276 238
3 319 304 232
3 232 304 280
3 238 249 289
3 300 237 238
3 237 249 238
3 270 341 210
3 341 276 3
3 330 202 296
3 238 276 300
3 276 219 300
3 276 341 219
3 219 341 270
3 285 300 219
3 22 187 23
3 253 285 219
3 300 285 237
3 299 205 175
3 175 23 299
3 24 23 175
3 210 341 3
3 262 273 338
3 298 290 338
3 298 22 333
3 330 209 308
3 194 320 303
3 261 270 320
3 280 184 92
3 178 228 126
3 173 144 246
3 246 144 306
3 144 336 306
3 41 149 214
3 335 138 291
3 126 228 184
3 143 184 228
3 126 236 178
3 291 295 335
3 295 146 335
3 191 294 44
3 44 294 326
3 194 191 203
3 194 294 191
3 243 214 304
3 304 214 280
3 223 199 278
3 245 294 151
3 151 294 194
3 320 194 203
3 181 139 312
3 199 103 139
3 139 103 312
3 312 142 86
3 199 114 278
3 181 327 114
3 126 259 149
3 149 259 214
3 126 184 259
3 181 120 327
3 327 120 156
3 139 181 114
3 114 199 139
3 278 123 191
3 191 123 203
3 327 123 114
3 114 123 278
3 120 181 119
3 119 266 120
3 149 35 126
3 86 208 119
3 261 109 176
3 203 123 109
3 109 123 176
3 261 108 253
3 261 176 108
3 156 176 327
3 176 123 327
3 321 65 100
3 286 197 45
3 335 146 174
3 174 146 336
3 306 272 246
3 156 108 176
3 178 33 228
3 151 81 245
3 245 99 326
3 286 31 33
3 33 178 286
3 266 85 120
3 120 85 156
3 168 295 291
3 211 150 138
3 138 150 291
3 326 99 111
3 326 39 44
3 326 111 39
3 1 65 71
3 321 64 65
3 99 101 64
3 203 109 320
3 320 109 261
3 253 60 261
3 261 60 270
3 253 219 60
3 60 219 270
3 47 48 103
3 326 294 245
3 81 240 101
3 35 197 236
3 146 200 336
3 200 306 336
3 38 223 39
3 253 53 285
3 336 77 174
3 77 173 41
3 246 35 173
3 301 108 85
3 85 108 156
3 81 101 245
3 101 99 245
3 68 136 321
3 231 81 151
3 48 47 59
3 55 284 231
3 284 81 231
3 161 65 1
3 339 46 174
3 174 46 335
3 46 138 335
3 223 278 44
3 44 278 191
3 111 99 136
3 228 98 143
3 98 100 65
3 101 240 71
3 41 173 149
3 173 35 149
3 321 136 64
3 64 136 99
3 64 101 71
3 71 65 64
3 243 41 214
3 243 52 41
3 246 197 35
3 246 272 197
3 77 41 52
3 0 71 240
3 0 1 71
3 284 97 183
3 68 153 136
3 143 98 161
3 161 98 65
3 40 308 339
3 161 1 18
3 153 68 31
3 100 31 68
3 111 324 39
3 38 171 47
3 173 77 144
3 144 77 336
3 44 39 223
3 126 35 236
3 178 236 286
3 236 197 286
3 100 98 33
3 33 98 228
3 223 38 199
3 100 33 31
3 68 321 100
3 308 46 339
3 243 40 52
3 52 40 339
3 138 29 211
3 138 46 29
3 29 46 308
3 209 29 308
3 315 175 18
3 174 104 339
3 339 104 52
3 174 77 104
3 104 77 52
3 308 28 330
3 330 28 202
3 308 40 28
3 28 40 202
3 133 26 213
3 213 26 248
3 133 113 26
3 255 131 27
3 131 113 133
3 319 297 304
3 57 36 72
3 72 36 309
3 0 315 1
3 1 315 18
3 273 262 247
3 337 241 262
3 248 310 241
3 260 230 229
3 260 325 230
3 269 237 293
3 293 237 285
3 293 285 53
3 231 303 95
3 95 303 210
3 303 63 210
3 210 63 270
3 303 320 63
3 63 320 270
3 95 216 55
3 55 216 97
3 22 24 172
3 170 184 143
3 170 18 175
3 170 175 205
3 23 187 299
3 18 143 161
3 247 262 37
3 298 273 22
3 22 273 187
3 273 247 187
3 325 260 34
3 248 21 310
3 19 299 187
3 34 322 19
3 19 325 34
3 43 20 229
3 170 143 18
3 17 20 296
3 61 16 121
3 319 15 297
3 15 34 260
3 325 247 37
3 325 19 247
3 247 19 187
3 262 241 37
3 37 241 310
3 299 8 205
3 299 19 8
3 8 19 322
3 304 12 243
3 304 297 12
3 12 297 202
3 313 10 36
3 313 42 10
3 10 42 211
3 310 230 37
3 37 230 325
3 17 297 15
3 15 260 17
3 305 5 337
3 213 248 5
3 216 95 3
3 95 210 3
3 297 195 202
3 202 195 296
3 297 17 195
3 195 17 296
3 296 20 9
3 232 8 322
3 232 205 8
3 243 12 40
3 40 12 202
3 205 92 170
3 34 15 322
3 322 15 319
3 184 170 92
3 20 263 229
3 229 263 260
3 20 17 263
3 263 17 260
3 172 333 22
3 232 322 319
3 314 2 206
3 206 2 333
3 214 259 280
3 280 259 184
3 92 232 280
3 2 298 333
3 2 290 298
3 290 226 337
3 337 226 305
3 290 318 226
3 226 318 305
3 337 5 241
3 241 5 248
3 205 232 92
3 221 252 2
3 2 252 318
3 221 277 252
3 252 277 318
3 310 21 230
3 230 21 229
3 81 284 240
3 55 97 284
3 0 240 183
3 240 284 183
3 237 166 249
3 249 166 140
3 237 269 166
3 166 269 140
3 293 334 269
3 329 129 334
3 239 162 163
3 301 85 162
3 27 72 255
3 249 279 244
3 244 279 344
3 249 140 279
3 279 140 344
3 53 242 293
3 155 344 140
3 27 6 152
3 152 6 256
3 152 256 11
3 256 145 11
3 11 145 233
3 256 155 145
3 145 155 233
3 27 141 72
3 72 141 57
3 27 152 141
3 141 152 57
3 213 132 244
3 244 132 305
3 213 5 132
3 132 5 305
3 269 130 140
3 233 155 130
3 130 155 140
3 155 128 344
3 344 128 6
3 155 256 128
3 128 256 6
3 301 127 108
3 108 127 253
3 127 53 253
3 329 340 14
3 301 274 225
3 301 162 274
3 274 162 239
3 334 293 242
3 242 329 334
3 163 217 266
3 266 217 85
3 163 162 217
3 217 162 85
3 113 283 26
3 26 283 248
3 113 21 283
3 283 21 248
3 213 264 133
3 213 244 264
3 264 244 344
3 175 315 24
3 24 315 25
3 129 118 334
3 334 118 269
3 129 130 118
3 118 130 269
3 133 264 6
3 6 264 344
3 14 110 329
3 329 110 129
3 14 124 110
3 110 124 129
3 57 152 102
3 102 152 11
3 57 102 192
3 192 102 30
3 129 124 185
3 185 124 332
3 57 192 36
3 36 192 313
3 266 94 163
3 94 208 7
3 225 90 301
3 225 242 90
3 90 242 53
3 127 301 90
3 90 53 127
3 225 82 242
3 242 82 329
3 225 340 82
3 82 340 329
3 255 79 9
3 9 79 309
3 255 72 79
3 79 72 309
3 78 94 7
3 150 76 291
3 76 122 207
3 163 75 239
3 208 287 7
3 7 287 207
3 208 182 287
3 287 182 207
3 32 73 42
3 289 96 305
3 305 96 244
3 289 249 96
3 96 249 244
3 340 225 274
3 274 239 340
3 36 343 309
3 309 343 209
3 36 10 343
3 343 10 209
3 61 154 251
3 78 7 88
3 11 233 317
3 14 147 117
3 14 340 147
3 147 340 239
3 121 116 124
3 124 116 332
3 116 93 332
3 30 112 192
3 192 112 313
3 30 268 112
3 112 268 313
3 185 332 317
3 317 233 185
3 317 332 93
3 255 43 131
3 131 43 113
3 11 204 102
3 102 204 30
3 11 317 204
3 122 70 207
3 207 70 7
3 122 88 70
3 70 88 7
3 255 135 43
3 43 135 20
3 255 9 135
3 135 9 20
3 313 89 42
3 42 89 32
3 313 268 89
3 89 268 32
3 113 69 21
3 21 69 229
3 113 43 69
3 69 43 229
3 121 67 117
3 117 67 14
3 121 124 67
3 67 124 14
3 251 154 316
3 316 154 13
3 42 307 211
3 211 307 150
3 42 73 307
3 307 73 150
3 117 193 121
3 121 193 61
3 193 154 61
3 61 190 16
3 61 251 190
3 190 251 32
3 16 215 93
3 93 215 30
3 16 268 215
3 215 268 30
3 75 180 117
3 13 154 180
3 122 159 88
3 122 73 159
3 30 204 93
3 93 204 317
3 330 331 209
3 209 331 309
3 331 9 309
3 9 331 296
3 296 331 330
3 13 157 78
3 157 75 163
3 129 311 130
3 130 311 233
3 129 185 311
3 311 185 233
3 209 235 29
3 29 235 211
3 209 10 235
3 235 10 211
3 93 116 16
3 16 116 121
3 251 234 32
3 32 234 73
3 251 159 234
3 234 159 73
3 316 88 159
3 159 251 316
3 88 265 78
3 78 265 13
3 88 316 265
3 265 316 13
3 193 117 180
3 180 154 193
3 291 76 168
3 168 76 207
3 16 190 268
3 268 190 32
3 117 147 75
3 75 147 239
3 75 227 180
3 180 227 13
3 75 157 227
3 227 157 13
3 78 188 94
3 94 188 163
3 78 157 188
3 188 157 163
3 208 169 119
3 119 169 266
3 208 94 169
3 169 94 266
3 23 24 22
3 182 302 207
3 207 302 168
3 182 201 302
3 302 201 168
3 4 292 160
3 160 292 167
3 4 201 292
3 292 201 167
3 200 281 250
3 250 281 160
3 200 4 281
3 281 4 160
3 224 258 167
3 167 258 160
3 224 275 258
3 258 275 160
3 171 324 257
3 142 212 86
3 177 153 31
3 323 189 177
3 177 45 323
3 199 222 103
3 103 222 47
3 199 38 222
3 222 38 47
3 136 148 111
3 111 148 324
3 136 153 148
3 125 288 49
3 45 107 286
3 286 107 31
3 45 177 107
3 107 177 31
3 59 198 48
3 59 165 198
3 198 165 224
3 272 106 197
3 197 106 45
3 272 282 106
3 106 282 45
3 182 105 201
3 201 105 167
3 182 212 105
3 105 212 167
3 306 91 272
3 250 218 91
3 324 148 257
3 257 148 153
3 125 80 323
3 323 80 189
3 125 158 80
3 80 158 189
3 323 66 125
3 66 288 125
3 153 62 257
3 257 62 189
3 153 177 62
3 62 177 189
3 4 58 295
3 295 58 146
3 4 200 58
3 58 200 146
3 224 56 275
3 275 56 49
3 224 165 56
3 56 165 49
3 59 164 165
3 59 158 164
3 164 158 125
3 167 115 224
3 224 115 142
3 167 212 115
3 115 212 142
3 168 87 295
3 295 87 4
3 168 201 87
3 87 201 4
3 150 196 76
3 76 196 122
3 150 73 196
3 196 73 122
3 142 342 48
3 48 342 103
3 142 312 342
3 342 312 103
3 288 179 218
3 179 91 218
3 324 137 39
3 39 137 38
3 324 171 137
3 137 171 38
3 275 54 160
3 160 54 250
3 275 218 54
3 54 218 250
3 171 51 47
3 47 51 59
3 171 158 51
3 51 158 59
3 250 267 200
3 200 267 306
3 250 91 267
3 267 91 306
3 282 254 45
3 45 254 323
3 282 66 254
3 254 66 323
3 165 186 49
3 49 186 125
3 165 164 186
3 186 164 125
3 91 220 272
3 272 220 282
3 91 179 220
3 220 179 282
3 158 84 189
3 189 84 257
3 158 171 84
3 84 171 257
3 312 328 181
3 181 328 119
3 312 86 328
3 328 86 119
3 48 271 142
3 142 271 224
3 48 198 271
3 271 198 224
3 86 134 208
3 208 134 182
3 86 212 134
3 134 212 182
3 49 83 275
3 275 83 218
3 49 288 83
3 83 288 218
3 282 74 66
3 66 74 288
3 282 179 74
3 74 179 288
3 133 50 131
3 131 50 27
3 133 6 50
3 50 6 27
