# vtk DataFile Version 3.0
A great-looking cell
ASCII
DATASET POLYDATA
POINTS 288 double
80.26102842279093 96.23731882862846 81.16160122007368
81.70102676276129 97.23243996418493 81.97670815062736
83.03084747542331 96.25847618989842 83.0365890508953
80.84792570902313 105.35708915908576 87.79256989206083
75.20916119722433 102.17975949110625 99.16170754736474
75.92359010498829 99.28826770057331 99.21459945888213
79.2999029293828 99.91264465851877 83.92957861714986
81.81000387911435 103.06367570520555 86.46042208291472
83.2555158516847 99.46372058338265 84.27655621050026
81.4635322934239 98.99387378029944 83.16521844164407
86.51544513399097 102.63947912997955 91.20327796280534
83.60348090140856 101.34534842841505 85.77219676987717
86.98268829483735 99.40913217612062 89.50685049272536
88.43591613134339 96.28075439793966 94.56060445031363
88.21614067857583 98.22693924029429 96.43985898866686
82.06270672577311 106.907941646967 89.21668946875202
84.98714529819448 99.28181642062697 86.03473119964526
81.57953642167121 100.8563330703897 84.67812946708078
85.10675218073182 103.40758731518054 89.21162470575699
85.06065871228273 101.41876677868773 87.51112669649063
84.16284524143961 97.57958547518547 84.28778542325932
77.3541757043519 82.9919105976785 95.0402963180083
87.33694084413182 100.71014400029523 97.78047799339353
73.94981759112936 96.67203328261033 84.43323523088168
78.78728169453399 107.56536356813508 90.26665655266514
86.65970639297906 103.76510414374226 93.44099810938297
73.72608065542991 103.0827697287287 88.34989173924171
72.42696851603037 95.08359223402647 85.134341071972
73.87174655103547 88.00637117740737 99.13809734038576
68.12894181068091 91.07572024070343 98.99117045303616
68.96751335105752 94.20416466926696 90.41077359642085
75.50670877789369 100.40615209965893 85.41489080310113
69.72861781510123 104.88805235624969 97.26202715238034
72.08175597069607 86.32126051606288 89.85365771355771
70.46638317815577 88.88712492977757 89.28867202629348
69.488508370168 91.54971953400246 89.87003719636887
67.76440862765013 97.0750199831239 92.6722134216602
78.304026909747 88.47359806302758 85.44665050631707
69.96907074420999 93.60667121917068 88.11011342935561
78.0294771305703 97.22101845645271 99.27365081165307
84.77382166541804 91.71233530783088 88.18442399118194
83.86999880500292 106.52560903637176 90.51612413571111
84.28937670405402 88.59736619585009 91.93154469604173
79.60900981416482 87.15251473083296 87.39076252448788
85.41254461978308 95.2655614142899 99.07519435142203
80.88243631013462 108.21927063381986 99.01322386354141
79.67638294644156 94.46747987420031 81.93861485076961
86.52959822801614 90.8962094279589 96.59872066050404
68.24657015738006 100.466109202331 93.35563628001424
76.18409713546973 106.62165835701455 90.35132866050735
84.38412088311765 93.34664168775143 86.58789142352593
85.45393009677657 104.97767248416116 91.43626884942003
67.75222383941014 100.96296291831534 95.23174492447015
73.18040099796326 106.31252221356381 92.35531312407691
75.56624794132352 102.42431526177127 86.88028517162647
76.5028570267283 89.34640315200951 84.49786245984303
80.15920326150697 106.93142154027115 89.00238855226593
87.78494039300477 99.11198318307615 91.55087128668083
72.64717607036623 101.35685653525354 99.05852989597948
79.27783723279293 103.69770820929163 86.53837700395081
68.26854767156767 103.52192814014067 98.07212274376792
78.47939351482519 96.15237816938757 82.00017985587046
81.11668756230235 93.34967368046044 82.96880694181728
87.18313579885177 100.78174277880561 90.89398448922944
70.67786012734831 99.77819017985522 88.91797223483914
86.25590871346724 101.3056279032907 89.31458137368051
72.08896172676471 106.7455300333064 94.73787363590563
84.08291520645294 95.21825479398345 84.84585805484595
88.07406768219161 96.94943790308106 92.17682657554046
72.14082952967968 103.25063098502562 90.13504093058198
78.03295065921425 85.40131352578139 89.25465142576518
77.27406550897616 103.64086728947491 87.0666895429097
82.05985018738613 109.196802188307 97.3857777401168
88.03744300468256 94.1721598366671 94.97373192941598
75.69801130289665 98.24688501824274 84.28716179075337
69.69825008635306 99.948141303206 90.51867340719986
79.87776579686572 90.15166595033287 84.39359998451545
67.61862700710988 95.32125320801588 96.00364920501926
77.36089355009247 87.99076494957775 98.9905643130655
72.07766159562149 99.42144405717174 87.1640835374574
82.46169530727371 86.50001427429127 93.13851871526721
81.62946265077102 95.18429204260961 81.97487892992257
76.37474798116571 108.96876274117474 96.36780688718447
85.64741959869356 93.74480403364214 88.53445930753642
72.61840689644828 91.26042331463529 85.46484337385104
80.9432533423231 91.71428917066523 83.9556704815094
68.82701327963953 102.43434789140554 93.79411987207357
80.09347824825963 89.01838054295405 98.99760662145697
83.46036195700816 107.76656403573527 99.09434001422008
73.42577230443835 106.74871854978703 98.98962883425624
72.14531332216649 97.29819186378691 85.97533579922548
72.90089886568664 107.76663523493744 96.23417047879973
78.96469056224201 108.92595695819014 98.83764226907127
85.52321080563722 95.41834163981464 86.99807111586063
78.29298726301676 105.56756008294452 88.39638031399566
78.69586917439564 106.73632547674426 99.19127990293438
80.62614528282421 86.44159035596581 89.21942502928555
81.06763281364539 109.51064939294965 93.65231777410497
76.83566415414379 108.64586017334202 98.63846893175959
84.36731644973072 107.88408037538692 94.21129814880119
84.09688502894025 108.16518812056071 96.65129579727207
83.61969403975739 108.15586953328565 92.09431639929386
82.42482101392697 87.0982076183246 90.49072832717067
76.0732428624467 93.4236909172298 99.01034747681915
82.67610421219698 86.04047928284945 96.39697548903341
81.89541345976781 109.01244877481355 91.89603451859979
84.3001030155012 92.98276638165218 99.08199371912966
77.3788768061458 86.5914148044202 86.8587016035985
85.8959801352799 90.87127125123129 91.94251741479273
72.04174978001244 95.2900654089197 98.98570106055459
81.73004635361488 91.5860737930257 98.9955952967029
82.62333511874075 94.47853374983433 83.35595567544112
83.02963712792221 103.50274337607753 99.17402963485502
68.48495310317227 98.91883500002689 91.82157689242854
86.24469152846365 97.74133843059367 87.8170417378197
78.89451120487652 109.2232803841597 93.85070574497085
84.8229280247624 90.23584477320217 89.90844507793516
73.0466763220991 98.51723751410921 99.07345332007408
79.18857580612688 94.31112307991903 98.98788086921265
76.68767474370537 108.74617959622586 94.22299482268384
73.61444781504561 107.31135030038126 93.64072476868922
80.17024823553743 109.60988841039318 97.82154439062128
69.66283614663796 96.00432016168843 88.9026754448563
82.79907788184812 92.72797950328221 84.60981402407089
67.49442173874648 98.62700286590892 94.23446877249496
82.74256143680545 88.33941072052653 98.92186834534053
72.82214298301427 88.57595927666684 86.99055501441217
69.1807888079265 101.23394578825568 91.8457300940799
77.65861875076527 98.06618098421639 83.01777094546104
85.94385945729964 92.16782618466397 90.0406602390246
74.12047714990733 92.01231256163058 83.7248403646514
82.75854991685505 108.85453295076684 93.42896422286384
85.67246185926192 89.69643559832662 94.25337704452787
78.09609724303732 109.38698872623098 95.47344225902017
78.08071415377864 83.54795255536298 98.14427841780137
71.76146214549146 106.71915324366388 97.5983142622716
85.68650244551795 105.88791814084134 93.78488044010683
75.1810729472335 96.17755817131211 98.98566532518275
78.30470913842159 91.1444760481071 98.99680580280993
77.80576123215164 84.1409966613272 92.26088740376392
72.87103566636026 93.19014250670388 84.74349470808293
68.14166539191743 95.05040092948256 92.53039861875207
84.9219185342365 90.54176156580118 98.98308621495974
82.55369808834705 109.15881916850803 95.20648385941945
73.72937132381637 98.92225958652119 85.5048445918096
87.56507335957248 94.57520687258356 92.650525269223
69.55427553153969 96.79534326688575 99.16231031905305
81.53256285598387 105.63762150880216 99.07702585615021
85.07886963275311 97.04886696133747 85.91940956373462
86.2551622638407 104.61003956028503 97.39983115375188
74.46184518028973 89.79612915439897 84.67759761208666
79.8098080616346 108.9561192110087 91.90468205667152
74.17090782925408 94.34042590092756 83.8177420508995
88.00402150169324 100.3460788267355 95.42742987718088
69.10427416566353 89.18101970714386 92.02914344517208
77.79025990852638 94.31866490071347 82.38054294677256
88.06383824437214 95.29193045430627 97.40643467371991
83.46105092956748 89.97682272185482 88.20835269955745
70.78244507978711 105.89726562790018 96.03563255443838
83.99805298459233 103.04767249097789 87.19677262703209
83.42914579986726 97.89778170604457 99.18719393358083
84.67087382283044 106.76361782767415 92.41386787484133
73.3286295445382 92.31859783269826 99.02715554198377
86.53015815543083 95.68671005593637 89.06785827920395
77.10463953081485 95.27543438916763 98.98251825856929
70.67540518194866 97.76592334897266 87.79780245093102
80.42837787069566 102.86789479744047 99.13744063422169
75.74599597872955 104.51900976403306 88.41716729605339
73.0791440457128 104.51425184276582 99.14389855499762
68.37894814525026 92.4181480070666 92.37336481407966
80.20577832011651 109.66760442481912 95.79448458301415
80.66374616008461 96.75276042584498 99.17722424846788
84.26162785070277 87.66948432398746 94.44716169876308
69.4781179056838 98.21529689557808 89.71427944964915
76.21954286284615 91.01368720743507 83.50677992219356
83.3290619922426 104.95559525266427 88.39594557027408
74.14987900918292 94.2796927281007 99.01623339718972
87.59086746784021 92.9483272619289 96.38459774422019
67.70572495722303 93.49644752959011 97.01126124430573
70.14066791513311 85.75124724572946 92.63139182168078
77.88382054861255 101.22401448653906 99.10003142299318
73.69564954756751 101.0125854725354 86.8576625547808
70.79090444535451 92.57218333047409 99.01967082792872
74.23739912660976 108.12209015646685 97.64388164710054
70.51661227658415 103.42450958634798 92.08110893099969
71.38370670749217 89.99150123345147 99.01370701758954
67.74790776613541 98.38955897071503 98.33067825132854
86.74557013206528 92.74599116281188 91.7761504812362
70.90344057255517 91.11912101403159 87.45846921981884
87.08431781320859 92.17581896814106 94.03381243655741
67.2045664518673 97.25303776583722 96.22025480637633
79.92151570999913 101.90034376163148 85.32237215859833
70.63967852778734 101.5613501225829 90.27710663115275
82.02339102784758 88.06750827529876 88.11710578026346
88.22322838693078 98.70495822147981 93.86779159662778
68.00791269877504 87.83327267219717 97.47629673066446
70.27305143569517 99.56144501013647 99.08120259787215
70.20566082889815 102.97591829223325 99.08479014177345
84.9196542950298 88.52197300199121 96.77598007551819
67.36608087050834 99.32891517471454 96.3874254946521
87.6606982125006 101.22421948777047 93.13640831070968
70.81352234387211 105.22961058326331 98.9933767108537
77.53472216488004 108.27754218745008 92.14302935863277
77.6825795005438 101.69577142033533 85.56336174491437
85.96896147556292 99.85487441740501 87.98159715311884
83.03635171508935 98.08184632564861 82.8944542728747
75.07290327357886 82.86131909592798 94.7541936048067
75.59891103649883 83.033960052004 93.12473184985049
86.95106448931321 92.70788739534702 98.84141501924842
70.05835778422609 104.71710776990744 94.63405390875995
70.38987291989511 84.12358216028022 94.67769172657553
71.5656900899513 93.30175703951878 86.23510321565982
69.11436359875617 94.18611936558527 98.98643916400263
72.13349285226562 104.79424730538682 91.46365307022543
67.75390885690089 90.76080839197998 95.21383550101773
72.02900007964581 101.44941745095635 88.48404713263888
70.18469995974048 87.39365406525222 90.79176206824773
77.8601708775574 85.71053549330493 99.10698248120407
68.10595429662588 101.22023311610572 97.75571317917216
75.65518326881688 87.88661868572761 85.80181991946561
79.19661269739309 83.42206072485874 96.10625748439739
69.43464393741797 88.8813372996163 99.00640691787407
80.267033459936 85.98359068500997 99.23204234215982
80.89109887995329 88.68199273058164 85.9315821790041
74.98652140733324 86.08302037222957 87.96204915976314
80.21783104980328 99.48808890429498 99.01398056379347
77.13581794468348 99.68687335157678 84.34572645406797
87.4455251791165 95.70514764763936 90.79103851435676
80.49646719023697 84.19547422888375 97.00822715632222
73.85173926782149 105.13882764333307 90.2186386725956
82.59608796305291 108.00160332815362 90.66783016012941
83.31103959523018 91.31851132990147 86.57031628257815
81.80984640108352 90.61839943518633 85.27608008375572
68.97173364822278 85.49514667474959 97.88943496543213
73.06975211812464 85.0143509863003 99.2152309401791
67.6876177661875 95.83968097914551 97.90548441537068
71.39543404321722 105.40293273465294 92.92785219477278
82.39046842814669 89.67247152772333 86.76479557064012
74.51436821585717 106.52878530390605 91.30614019098826
85.09159016625216 106.66135334220051 97.78847720996512
72.3765932976189 84.8143983954348 91.72343714211785
76.1984182297735 95.85353893427826 83.09223903409466
87.3238872692922 97.43508720675719 90.0767450833015
80.43468726081792 85.41365757773131 91.35474740590007
87.33745638602531 102.68159070714228 95.78350205529566
77.9383824060689 90.2501163067226 84.11070273127802
83.02301262894743 101.06917148099251 99.17755677276122
70.95311521357306 95.53344926411613 86.91269415395631
68.24804050273353 103.23603237139129 96.03867545477043
78.42384209319643 109.38795509427442 97.17143652373686
75.07127755091437 107.6179421052269 92.62573836169629
85.57743295600423 106.50476325240196 95.89728260210295
74.20135582577505 100.34837443408843 99.05290670002796
78.00128079921622 99.31752268867203 99.09381534042697
72.88176692317627 83.62809013304933 93.91220748229777
85.28258427905442 100.0312732677038 98.98257360121848
79.56589935924517 104.877099312745 99.17333467709632
68.97653713608169 85.48161792376793 95.65386588136077
73.4920286457904 90.20116648968727 99.04351330833514
82.46015092500845 94.80103260183097 99.1036616798102
80.25113359935084 84.41563036536638 94.37262132882974
75.32241604552547 104.28667689698281 99.09712743050883
70.68876120753372 86.90190134848609 98.92916741870756
74.76606096244286 84.30992969535346 90.89125828398737
86.75734136261212 94.07652914973018 90.41554182524267
78.68727055490461 92.28320400021354 83.15963116127055
79.77606071895863 97.92194514876985 82.21800732092032
76.02006534193215 93.2077894357804 82.70942304342292
70.93409709520579 83.75518764396416 97.22119581034454
71.21199844740711 97.53450878091218 99.17389883464163
67.84539069179169 93.8664470038237 94.57045173791326
84.62874141617735 105.11785162069764 89.76596539146765
86.78789034375359 97.91032589195709 98.94030444034496
68.21845364930462 87.64963377336848 94.42720838873608
77.52722015304236 104.08942616526075 99.04597916881679
74.65309229556242 83.10461587166806 97.0732096691093
86.36192224313452 104.72328895392853 95.29356901476312
75.38995077906873 90.52245426431992 99.02197947921007
67.52133192865905 96.17615744922254 94.34453460122079
75.55525525908412 106.24242092350707 99.04470679849722
74.3252421091033 108.1467542424525 95.02088820486155
75.7911182515839 85.45102509709402 98.99968277827395
85.45510950166654 102.6089954021294 98.98792602409084
68.58842217623207 96.58700880161972 90.92405401068498
84.39577519160048 105.21568231549625 99.0750301494368
83.49456511701659 88.74271957064876 89.68506867227939
80.8968461819425 108.36049191839295 90.18795683420083
87.07243768855854 102.78180732717443 97.76394402982469
POLYGONS 572 2288
3 6 9 266
3 6 203 191
3 17 9 6
3 266 1 0
3 191 17 6
3 2 111 81
3 102 243 96
3 123 111 67
3 265 46 62
3 265 155 46
3 96 193 102
3 96 43 193
3 107 37 43
3 118 110 259
3 259 110 106
3 264 129 83
3 108 116 129
3 83 40 50
3 43 37 223
3 50 93 83
3 232 223 76
3 223 37 76
3 76 265 85
3 76 245 265
3 85 123 232
3 62 85 265
3 81 62 46
3 107 43 70
3 70 43 96
3 265 245 174
3 70 224 107
3 224 219 107
3 85 232 76
3 76 37 245
3 245 37 55
3 96 243 70
3 174 267 265
3 193 285 102
3 285 42 102
3 224 263 33
3 224 70 263
3 232 231 237
3 80 260 243
3 243 260 139
3 43 223 193
3 232 237 223
3 223 237 193
3 0 81 46
3 231 40 157
3 157 40 116
3 245 55 174
3 126 150 219
3 150 130 174
3 34 126 33
3 219 55 37
3 130 140 152
3 219 150 55
3 55 150 174
3 123 231 232
3 42 285 116
3 116 285 157
3 107 219 37
3 61 266 0
3 157 285 193
3 116 40 129
3 129 40 83
3 219 224 126
3 126 224 33
3 21 139 260
3 5 117 137
3 169 270 141
3 144 23 90
3 130 150 84
3 84 150 126
3 5 137 39
3 154 35 34
3 154 169 35
3 211 84 188
3 188 84 126
3 54 31 181
3 181 31 144
3 141 30 169
3 30 35 169
3 6 266 128
3 23 74 241
3 231 157 237
3 237 157 193
3 243 102 80
3 102 42 80
3 241 267 152
3 140 27 152
3 181 26 54
3 226 31 203
3 203 31 54
3 203 59 191
3 6 226 203
3 6 128 226
3 54 71 203
3 94 59 71
3 71 59 203
3 130 152 267
3 130 84 140
3 140 84 211
3 46 61 0
3 211 247 27
3 35 30 38
3 38 30 122
3 27 247 90
3 247 211 38
3 38 122 247
3 243 139 70
3 139 263 70
3 24 94 49
3 188 35 38
3 38 211 188
3 211 27 140
3 241 61 155
3 27 90 23
3 265 267 155
3 215 26 181
3 174 130 267
3 61 128 266
3 26 167 54
3 167 49 94
3 27 23 152
3 152 23 241
3 46 155 61
3 49 167 229
3 229 167 26
3 241 155 267
3 34 188 126
3 110 142 106
3 80 104 260
3 67 93 50
3 54 167 71
3 71 167 94
3 35 188 34
3 63 10 200
3 144 74 23
3 136 25 51
3 31 226 74
3 74 144 31
3 128 241 74
3 61 241 128
3 128 74 226
3 85 62 123
3 132 47 198
3 62 81 111
3 26 215 69
3 69 215 192
3 229 26 69
3 40 231 50
3 231 123 50
3 62 111 123
3 215 181 79
3 50 123 67
3 93 114 163
3 242 57 68
3 68 57 194
3 67 148 93
3 148 114 93
3 67 111 2
3 16 114 148
3 17 191 7
3 191 59 7
3 67 20 148
3 67 2 20
3 63 65 10
3 159 7 175
3 175 18 159
3 10 65 18
3 159 11 7
3 159 19 11
3 9 17 8
3 8 16 20
3 8 11 16
3 16 11 19
3 8 205 9
3 8 20 205
3 3 15 175
3 20 16 148
3 194 200 153
3 194 57 200
3 10 18 51
3 204 16 19
3 175 7 3
3 3 59 94
3 3 7 59
3 156 14 272
3 194 153 14
3 204 19 65
3 19 18 65
3 13 14 156
3 204 12 114
3 12 63 57
3 68 227 242
3 145 227 68
3 208 177 156
3 227 145 264
3 208 44 106
3 208 156 44
3 44 156 272
3 204 114 16
3 8 17 11
3 11 17 7
3 73 145 13
3 13 145 68
3 51 25 10
3 10 25 200
3 18 19 159
3 22 153 244
3 225 171 160
3 225 39 171
3 171 39 118
3 5 180 4
3 9 205 1
3 114 12 242
3 242 12 57
3 2 1 205
3 20 2 205
3 242 163 114
3 242 227 163
3 163 227 264
3 81 0 1
3 4 180 274
3 25 244 200
3 244 153 200
3 63 200 57
3 63 12 65
3 65 12 204
3 117 109 137
3 110 125 142
3 142 125 198
3 125 104 198
3 198 47 142
3 47 208 142
3 47 132 189
3 189 132 108
3 42 172 80
3 42 132 172
3 172 132 198
3 168 58 4
3 1 2 81
3 266 9 1
3 142 208 106
3 259 160 171
3 171 118 259
3 160 44 272
3 272 14 22
3 22 14 153
3 160 246 225
3 106 44 259
3 259 44 160
3 264 187 129
3 129 187 108
3 187 189 108
3 32 209 248
3 264 145 187
3 58 168 197
3 58 196 117
3 80 172 104
3 104 172 198
3 4 252 5
3 5 252 117
3 4 58 252
3 252 58 117
3 146 212 109
3 197 218 196
3 196 58 197
3 154 214 169
3 195 29 214
3 212 146 235
3 199 186 218
3 146 196 186
3 186 196 218
3 186 199 190
3 212 178 29
3 178 214 29
3 68 194 13
3 194 14 13
3 177 73 156
3 156 73 13
3 212 182 109
3 109 182 162
3 212 29 182
3 178 212 235
3 73 189 145
3 145 189 187
3 163 83 93
3 163 264 83
3 116 108 42
3 108 132 42
3 162 277 103
3 28 78 277
3 189 177 47
3 177 208 47
3 103 138 118
3 189 73 177
3 270 278 141
3 125 222 104
3 279 274 95
3 199 124 190
3 280 120 66
3 66 120 53
3 280 250 120
3 120 250 53
3 280 119 250
3 141 283 30
3 30 283 122
3 53 236 66
3 184 209 236
3 236 209 66
3 196 269 117
3 117 269 109
3 196 146 269
3 269 146 109
3 146 186 235
3 235 186 190
3 184 213 69
3 184 236 213
3 213 236 53
3 225 253 39
3 39 253 5
3 225 180 253
3 253 180 5
3 147 166 112
3 166 274 180
3 250 119 202
3 32 201 135
3 135 201 168
3 32 197 201
3 201 197 168
3 103 164 137
3 137 164 39
3 103 118 164
3 164 118 39
3 118 138 110
3 66 158 135
3 135 158 32
3 66 209 158
3 158 209 32
3 137 176 103
3 103 176 162
3 137 109 176
3 176 109 162
3 147 45 95
3 183 82 280
3 82 119 280
3 95 98 279
3 279 98 183
3 249 92 121
3 249 98 92
3 92 98 95
3 121 92 45
3 45 92 95
3 168 89 135
3 135 89 183
3 168 279 89
3 89 279 183
3 51 161 136
3 151 105 286
3 135 91 66
3 66 91 280
3 135 183 91
3 91 183 280
3 110 87 125
3 125 87 222
3 110 138 87
3 184 86 209
3 86 248 209
3 183 98 82
3 82 98 249
3 249 133 82
3 121 170 249
3 170 133 249
3 113 127 75
3 45 72 121
3 72 88 100
3 115 133 170
3 286 230 15
3 286 105 230
3 136 161 99
3 72 170 121
3 105 151 97
3 173 75 64
3 64 75 192
3 122 165 247
3 247 165 90
3 15 56 286
3 286 56 24
3 15 3 56
3 86 52 248
3 86 48 52
3 127 86 184
3 161 101 99
3 79 64 215
3 215 64 192
3 86 127 48
3 48 127 113
3 88 45 147
3 88 72 45
3 165 173 64
3 64 79 165
3 90 165 79
3 197 60 218
3 218 60 248
3 197 32 60
3 60 32 248
3 278 36 141
3 36 283 141
3 113 283 36
3 88 239 100
3 239 251 100
3 251 99 100
3 170 143 97
3 48 113 124
3 124 113 36
3 190 77 235
3 190 278 77
3 77 278 270
3 69 192 184
3 192 127 184
3 283 173 122
3 122 173 165
3 101 131 99
3 248 52 218
3 218 52 199
3 190 124 278
3 278 124 36
3 173 283 113
3 115 97 151
3 82 133 119
3 119 133 115
3 100 143 72
3 90 79 144
3 144 79 181
3 99 143 100
3 15 41 175
3 41 161 51
3 199 52 124
3 124 52 48
3 170 72 143
3 97 131 105
3 105 131 101
3 202 119 115
3 115 151 202
3 250 202 49
3 49 202 24
3 131 143 99
3 115 170 97
3 127 192 75
3 75 173 113
3 143 131 97
3 136 99 251
3 69 213 229
3 229 213 53
3 101 161 41
3 101 230 105
3 112 284 147
3 284 88 147
3 225 166 180
3 112 166 246
3 246 166 225
3 136 276 25
3 136 251 276
3 179 273 154
3 195 214 273
3 273 214 154
3 279 261 274
3 274 261 4
3 279 168 261
3 261 168 4
3 202 151 24
3 24 151 286
3 274 256 95
3 95 256 147
3 274 166 256
3 256 166 147
3 53 238 229
3 229 238 49
3 53 250 238
3 238 250 49
3 101 41 230
3 230 41 15
3 24 56 94
3 94 56 3
3 175 271 18
3 18 271 51
3 175 41 271
3 271 41 51
3 244 25 276
3 276 149 244
3 284 149 239
3 239 88 284
3 78 138 277
3 277 138 103
3 214 270 169
3 214 178 270
3 235 77 178
3 178 77 270
3 246 282 112
3 22 255 272
3 272 255 160
3 255 246 160
3 149 251 239
3 149 276 251
3 282 246 255
3 255 22 282
3 112 282 284
3 284 282 149
3 149 287 244
3 244 287 22
3 149 282 287
3 287 282 22
3 28 258 185
3 185 258 162
3 28 277 258
3 258 277 162
3 185 262 28
3 275 21 134
3 222 87 78
3 78 87 138
3 254 275 268
3 28 281 78
3 275 134 281
3 179 257 273
3 273 257 195
3 185 162 182
3 182 29 185
3 263 240 33
3 33 240 179
3 263 254 240
3 240 254 179
3 275 234 268
3 28 262 234
3 234 262 268
3 281 28 234
3 234 275 281
3 195 233 262
3 262 233 268
3 195 257 233
3 233 257 268
3 222 228 104
3 104 228 260
3 222 134 228
3 195 221 29
3 29 221 185
3 195 262 221
3 221 262 185
3 260 220 21
3 21 220 134
3 260 228 220
3 220 228 134
3 78 217 222
3 222 217 134
3 78 281 217
3 217 281 134
3 154 216 179
3 179 216 33
3 154 34 216
3 216 34 33
3 268 210 254
3 254 210 179
3 268 257 210
3 210 257 179
3 21 207 139
3 139 207 263
3 207 254 263
3 254 206 275
3 275 206 21
3 254 207 206
3 206 207 21
