# vtk DataFile Version 3.0
A great-looking cell
ASCII
DATASET POLYDATA
POINTS 491 double
82.31427545207306 76.76630755420415 2.8772117388197627
94.94263192828075 70.08242832150877 2.5995005857641247
88.88127367618277 77.3301754922213 5.143055988094672
90.18460569137311 76.17985129227078 8.926858163173932
80.9665089963633 74.28524151583642 13.125493200408846
92.66170469192257 73.98431222918666 10.053880824189843
92.93125303060772 74.92478701343313 1.1577626010139872
93.8698934131658 70.7826043002393 9.66016327457361
86.87997608645408 76.14448721522604 0.26658831353167817
91.75857918230375 75.28745142766391 8.210158172811486
84.56660253764072 80.43095749199975 11.214029996756933
91.93414396295474 75.44073400596022 -0.22074674751976678
94.01398686205074 72.89324332243879 7.088764872558601
77.70391863332132 76.21933890778443 11.183068297414367
93.76598627418556 72.54331293605819 8.930815897336657
94.91206883255963 71.51996352435368 5.787249690588982
93.99406595137951 73.42712124647028 5.071038543854734
89.88122404277108 73.44693604571115 -2.9618102347809288
83.83781104479235 74.03898945847023 13.532669658512104
93.70574791259267 73.27833294492513 -2.937168469175956
87.06927510960728 74.6842055747793 -2.943471997998019
95.03769317137512 70.21863098814002 4.487870183114779
80.79170439415022 75.987240062846 12.658971333984304
93.13983759328171 73.92198025472771 8.198953489381676
92.6108158561161 75.05363155920499 4.617325932950485
74.13036266883061 66.76165201648162 11.005354929054596
76.6416628455554 70.3464607513055 9.493710485154212
76.60907648933032 69.63174830037738 -2.385480714173216
73.06335028707967 67.4953057692238 3.647558902993736
87.08167245423783 66.42093518447005 14.246519688821069
90.22722549575916 64.12230642072238 11.407696998904552
77.949062618874 71.78930612268192 4.927186290849602
89.18868457287623 70.16293983932782 -3.110798210090332
70.80292428387075 62.928706979697274 5.1214128837490085
81.00476125124192 57.92057510162277 16.42473628725008
79.4419656711624 81.19031765783716 11.320067170376936
88.5247695037762 76.49516296124732 -0.06468972691340928
79.91685300663102 77.46266554581707 12.146771517772573
74.9427016367567 50.10729856293005 1.4420922783617818
75.0461626217616 69.68971824874279 5.425983908957592
70.95658772692472 60.598509445826764 -2.998314717134376
77.48011228367584 50.94456651394065 10.835421762333349
72.86019793611632 64.57833283443694 11.240621533798853
71.84165023528837 62.89206895744555 -1.8704853183523347
91.64938899664203 65.90208915263192 -1.531364339102859
89.65355636764096 52.32834646926255 5.029566894727837
84.49046504308241 62.82132220756999 16.28470101910429
74.58195590937618 68.73143104357275 0.5577777391257858
85.86199899915569 65.02506230215577 15.02110127723903
90.42526026517858 60.56738514343432 10.781719346078757
76.23102105426231 61.75577971409314 -2.9908544635337555
92.00123350033326 60.30236096854953 -2.3891400633790774
78.28424739220797 65.48457003640748 -2.951988160603182
90.17775963158704 56.3168421160175 7.970167276769885
85.12461238034211 48.997597599384605 2.8512644707802703
85.54605844099257 61.931237768326696 -3.2026732722812277
81.54342620490374 72.69162110833365 -0.7410341938919616
90.31563472615892 66.8389037560432 11.990827576874317
70.77798633692946 62.286920238520246 8.203816070143139
72.50258605809753 66.77260555569558 7.1112059889446915
91.90935659590203 67.6234056095873 10.534294301915443
85.0188690565008 80.67094037002134 7.261446510500627
80.54200335296169 55.317544346666715 14.877236766849071
83.74676634724725 72.28715932663307 13.744472016878934
69.04535937609005 59.20152639095679 1.338824002473143
79.4896960705644 72.2923234857822 2.0833741244194384
86.34170619115145 79.11461425635778 7.309929551572401
71.86701975284288 65.54637907889823 2.577095481018531
73.37525010051372 61.29984019898339 -3.151999804359327
80.02442956756413 82.04754038308495 7.731455604637773
80.64069649726808 59.66180991523907 -2.9963540337405656
91.60467059721366 74.56000370407351 11.933196361111916
91.98466955159701 62.1146240120442 4.164131598501155
91.27274250784897 53.550672705892985 2.9607173573779053
88.09911154046017 63.19422723366465 -3.181008414960459
74.61965229832809 67.91789174987238 -1.4421526895085957
92.60086894420458 57.62119903798522 2.6467666905619223
91.58743571226809 57.40567534022174 -2.914338776829958
84.99995878971424 69.20477486164536 14.638581051275292
77.33270324993451 77.26557005466624 9.826139181511964
89.94419648780026 75.5571561530883 11.839601222526282
81.62294669472125 62.37860844162517 -3.005967071319067
79.54045770669399 81.84177156224597 9.51924522718461
81.45004198303981 64.81415366728787 -3.1365675417295953
92.51299075344589 60.20687125923734 -0.45519170220767335
84.52417203245928 54.53924539202245 -2.942228985873422
77.83291225482523 59.24120273652624 -2.9972150026881574
91.64460629745193 71.17447573922043 13.036233210962838
79.8685331666335 66.48418922628521 -3.1263841987360177
92.07009053900352 62.16414939917944 2.399966518444105
89.56541544830358 57.91195062251698 11.73129194913031
78.2335971283416 80.9063261978346 10.010630555296185
84.92010107789449 57.31060384775746 -3.237257138806602
82.01279806574607 53.3890289891871 13.137380852019326
87.48134780831128 77.27261982445783 3.566996866245758
72.0953123776051 52.70342626988407 8.655999283834245
82.73764048270691 81.76679402755188 8.772221577352935
74.10190655613305 61.113265837004896 13.040194093934053
86.63330038558189 71.74260615821507 14.991569183588977
80.18911134738923 62.36301712084306 16.574852932587472
76.1844074734592 60.072216499381206 14.374369446253947
79.52958511405933 49.82708419712639 -1.9667813734082595
89.85499694130395 61.30629357349994 -3.179128402289951
86.55053465469817 65.9176044297272 -3.188126421615016
87.99845047025084 59.53105170053097 13.596157990018462
87.03431295810522 53.13403669199397 10.87293422245257
91.35160043927654 63.29366220659827 -2.918923949869235
76.83245609674002 64.44978938473443 -3.0065471921063693
71.9473501200754 65.55173817616476 5.425020164883272
92.38160471126135 60.13816247103532 4.042969129444853
85.7328400503907 51.547754647633965 8.869364433951928
88.08391839663379 72.51444891294327 -3.060170889202558
88.99647460663877 52.577765625268704 6.756536051579209
94.81516572536549 72.03878877325545 1.3152089254067572
82.57871333619848 71.5648213638425 -2.955470383906702
91.42494677504453 58.767830735084004 6.512672444298497
91.32393811247509 74.56550175926829 -2.6271519572128295
89.69858413060307 61.96221915905661 12.991555063361814
84.88941035417412 77.8587403786626 12.742560008737234
91.29083570588328 68.62680010567448 -2.9771254077338396
72.46804677058442 51.75892972446819 -1.3145828707930904
77.48146732288565 49.36791472065611 1.8915410193621593
89.69782700738894 73.80107901234192 14.31571038128311
76.27150599920667 70.60349613742648 2.025235323121025
80.98833455415938 68.02441203519258 -3.0472167520581954
79.767783629684 51.97731383398853 12.298052742444765
90.16546296209532 69.77635349813578 13.690252259154184
92.58467098042698 58.21063612925726 -0.37041205229681395
82.21993006683249 69.56541133414589 -3.085872241102007
81.69658466428709 50.425174926281244 10.336664067446831
78.15235379102909 71.3437814320166 -1.214514429516922
80.09761103541281 72.37711865142113 0.3717018087418001
81.05073653009646 71.4733421835883 13.547848010592096
91.66663318475177 61.93369730207261 6.183400712148938
79.34080928353276 69.26439229619781 -3.0047349380136765
81.6997852020845 82.29180710288561 7.362730433153992
75.91363064357716 68.77247450877358 10.515085408833782
92.60105278656553 60.101488173984045 1.3372097649496637
88.29381596281625 53.141537599802454 8.385121867898924
81.25573258880026 68.40246434561709 15.092754163888902
77.7200923425156 67.13489295190269 13.698862518025852
84.6394274756666 70.82852266383219 14.686367878808312
79.4713655532951 69.21554396182046 13.54346230542977
85.36882380990866 73.40506186455333 -2.990121000913127
79.25871850683751 64.0145298660005 -2.9729088582128043
88.5314787018316 64.9806859332089 13.64353204194922
83.98418777517035 64.26612638855568 -2.9955278993569436
83.19157573669533 49.047693535596764 4.806578230040851
91.15928907888238 60.51478487991142 8.421616112359004
81.88761224336032 74.01748919655503 0.4232000499313887
76.02766368496985 69.9886205275909 0.2116377744500882
89.82118357422841 51.77237908038047 3.1706319939199314
75.47242622938666 50.67643967846668 -1.4269095941645455
82.90225720343622 48.472506516399385 1.0452055850465292
86.46620900755754 52.880349075079295 -3.1826330797225895
87.77093548354911 57.99129578057474 -3.1536715308300343
92.55914077514305 65.48222869100834 2.5010317731309852
73.57926279249372 67.76242333175809 5.918739816886636
85.71305581237357 67.63229099890893 14.769130079153745
75.04845058929335 63.83184931180269 13.28502871470311
86.32005655247244 57.044650862316566 14.403071621078098
88.6495981493618 67.8642521247315 -3.186069082249269
81.21852964513435 80.76507560548872 11.424986523400575
81.663008625299 66.95447619682236 15.808230339420042
71.20308311466886 64.06053570716398 6.804829607614143
80.24177462740627 72.82224112699316 13.051986193445881
74.76976767696566 69.31087036497429 2.613208960113474
80.88571227232892 69.67609827190911 14.188829883787697
82.98875890429778 80.74512236233039 11.560476662339358
79.0174073589776 76.13366146037585 12.075796765373838
78.15308081734005 79.29033980626659 9.41165954737468
90.25936655040906 62.38410071568005 11.068938123287493
77.92091039050482 71.49813987163509 1.5577709796177306
73.50249862166253 50.75578222482407 4.058021058510805
89.03604325034706 74.89060883242482 -3.056819983101677
91.9589713148334 64.22557895296256 4.039853113193259
86.45986053096554 69.66713564170023 14.629372315811196
91.34682943672559 55.977272804778266 4.932270651958173
89.54131342287192 51.75527550525825 1.147220395242316
85.72376794950364 49.37001822864553 0.03591845153291047
77.39160453349285 65.45213700578871 14.897881613451103
78.0824122284229 68.65825838951187 12.552195323287371
92.5398086797366 66.19002439556041 7.965288374864835
71.91740152588355 65.21836978205972 8.444214222586169
83.43612797400203 50.171298616012066 7.604661077542345
85.71946554149288 80.19143765873926 9.48108046778516
91.16708191909618 54.843299887536055 -1.7595476279223217
90.93812879151304 75.3664566674885 10.226982974689507
93.73613383943271 73.88574857170532 -0.11315319109036026
82.55699732881902 66.8193069735707 -3.0903485041687637
93.09548440819717 66.62080734528085 1.0296512400126343
94.36893733493017 67.60273123561409 5.208170664015016
88.10707688327439 77.90801124822977 7.105999890773196
85.52883668639957 79.14007796475978 11.532918546667467
78.6725541705358 79.76636642431895 10.98856717842275
78.30225454312993 78.05311877595429 11.506868277051316
90.96391012446657 62.87762970072264 9.178278441313985
93.63209559893444 66.7194381776093 6.560911770573028
87.43099023783087 76.44424955037687 13.090989864285696
91.8565838370205 64.38562207486089 1.074898694026093
79.4929016772848 67.64424604403476 14.562446052657423
91.64567858764923 65.67419195787006 9.587722729781111
76.82438391530002 70.97373465237165 3.7832113413450994
78.1034522406678 72.30398006939546 7.196862744049731
78.54127403336199 59.54459929134421 16.072337097760908
86.16934521767719 76.90271955280349 2.0702787224532493
88.3149259237778 68.04954683708583 13.740079765585758
84.55162682907716 74.00335261620312 -1.5307884764383677
79.75691334263075 74.43631031389482 12.256968927823706
83.92895424276708 76.16641962054302 13.459707532376006
83.81221519448745 81.24494544324766 10.060754892838952
73.29419692297319 56.684938453292574 11.454704544169951
85.87592514278441 59.57766723165203 -3.20950498903346
91.96515423437373 62.04835197528351 -0.2651455394214726
87.81122801912969 60.528614292125006 -3.124778221498488
83.63883790378777 62.17621976667109 -2.9675267142038795
89.97705801503439 76.2519641897241 0.9112851529089102
76.1504254884231 66.54637316653005 12.532247835223796
76.59741402613663 49.888563660793864 6.810363985752297
85.3664174557147 74.90279840418337 14.272781005640821
86.11970215524548 54.07452545661874 13.283336841242766
73.95488385310102 55.82446999644719 -3.0204244618498843
75.57924017156363 53.28939479860699 11.461918089859505
82.13316070409616 72.96162100936449 13.273182146222444
81.04825764203727 48.296242485655526 3.34519951593868
91.62438793703218 69.00117262034658 12.147414117323232
88.44941170835169 72.72617417421911 15.28287770228881
87.11008526411887 75.5529803147305 14.375462856129777
86.82492665456608 73.77438895466302 14.852467106785232
74.09583511066955 68.582591859257 4.401048889530653
81.28830259806408 77.8826597092825 12.80424412203442
92.42968655452741 72.70239900628505 11.837281559258113
82.5797523683374 71.02600458195174 14.137788002785737
88.32010559983524 76.43594985866537 11.810090248624535
87.00202979000844 55.392310762021594 -3.232674430658073
75.21553131960019 55.59566548356518 13.031041001279773
76.77133005640259 56.4217278396639 -3.1552558452317676
94.5166737474494 68.08222959538955 1.9812554782495309
82.30866183071409 75.02386298308983 13.225626589751723
78.21573774979484 75.38583256122254 6.217505415447181
83.82295068250349 50.88383540889416 9.6800470791368
91.16482219941804 73.16951466220314 13.293428075647151
88.39512119332328 74.65237272550033 15.175007979829124
85.89059641152556 76.38473997171671 13.27766612457426
90.31104682814919 74.58582700157484 13.049723710642798
83.18916884805824 68.68183907945546 14.618336902844925
91.03108685157032 71.84568929989976 -3.000000596397158
93.2922274904294 72.19721277391977 10.458044164714842
94.21987996183908 67.96297600391436 7.6745215763133405
94.77332426836462 68.5165493409284 4.06902626436804
89.49023895759979 65.52374358082044 -2.9488786312543755
88.71538433542406 75.25547260838204 13.355881965818122
77.80703547098867 70.88950990745846 10.81385062865534
85.207869864471 72.9223255499875 14.267160807791136
84.20775546373764 51.93853352515739 11.725721333468336
85.57907962893613 79.76438319400043 5.495537702187324
72.60866945429815 51.15721647233972 1.3707959575506
82.38857407198424 64.45048002871631 16.30879368236868
79.6901371611635 56.971418040974974 -3.1395480276279835
80.50059480693032 60.031272406787586 17.074121818174287
77.53342004558192 76.25862506777962 8.074324218243545
88.44534218942242 70.55003113060835 14.762707005103547
89.6107236254172 76.92071575798214 3.0143003246797213
84.30691515648259 81.44144816176434 8.580387397146538
86.88931393322959 78.16130336167606 5.460058195539332
82.36297293866023 57.51617824092352 -3.1934771055583573
86.6003651119827 78.55762831377129 10.44729963804604
78.72801570964371 54.24860516576697 -3.125409079200425
78.49139572718468 49.03031996416184 4.532130189387087
78.64156669771259 81.0008268964427 8.309200621364267
70.66167750194842 52.16554667656542 3.4409444627728827
68.96201071152227 58.39000785883188 5.331622919187
88.24099587075409 57.53492258591959 13.400041087462855
89.91739418902128 54.07649900066494 6.694575488477779
71.8482189585341 51.77221762655527 5.899659803463131
81.70607894056322 75.18230261962277 2.1696129588046933
77.42449979272567 78.20888170880129 8.245882699859425
78.06513836577956 73.85397564455519 7.966624733983586
81.01056332116954 78.3949204503364 4.093836413461982
80.34957253688907 82.87122532922486 5.698916036347313
80.68161053474958 81.79965377913139 10.471398648923682
73.91427963619725 67.4846513596657 8.474464822738078
71.26816961706685 52.900383401441466 -3.004513452757947
93.45274258535294 66.61052322511583 3.8417478500218394
74.1862507682915 52.20217080601134 -2.3489817536148068
89.29262188596817 54.707292540934596 8.318816037409405
82.21310850680003 56.47795128282492 15.550017835517686
89.9888712453926 56.90752852196947 9.870870273899593
88.1527265172763 55.84590142912105 12.797986834769153
83.04300552831856 73.06532325644473 -1.8208427219392138
74.3569032011087 54.97047135962192 11.629858652409775
78.32364272252278 74.5992971636198 11.33894346442312
71.83543556613768 61.64963422184363 11.114660480933612
71.18908404739832 55.68783085608597 9.703238276546884
84.44433991837536 71.08642540234217 -2.935553696835889
94.73192578489089 71.94380043025564 3.646625873826245
87.85611588419208 50.49189683530554 3.425391547054639
81.76573239721296 54.87760387632921 -3.132608572681441
83.98507141296537 53.60991228107137 13.231314236999683
93.85785759052226 74.11451722093807 2.596641111846789
75.51291384144082 61.88508973552859 14.16755387462179
80.46780010024673 76.04801329997862 3.276656748119613
88.92849485840816 55.20892975615201 10.293154340251034
70.45681396232666 57.50798062645191 8.932274309985702
74.43097890870608 65.51796259822333 12.173004865832143
80.76595591644156 71.87828756960134 -2.2889555621147073
71.41502748192629 63.58166407546165 9.932438377002825
77.56456074633046 50.201266114634244 -1.8774536250882077
85.0911688709395 50.53630549363978 -2.911624000998841
86.88256028178155 69.94115477935345 -2.9876424462384885
88.10878246264123 76.71959409687665 1.6194233795660804
75.65195915697369 69.8464606331041 7.9887859721520025
89.64605379479045 57.70206918890859 -2.990861903059874
83.57880820606995 55.28621224042757 14.478226068122813
78.87131605204867 72.35322239281638 3.6808639629995223
80.75516391951757 49.083980198570295 6.325376497137034
69.69179297246123 60.61120859749257 3.550222562552523
79.22402250406833 74.60097215024773 4.380542885399588
79.28401920430915 79.10558783959242 5.633584045609995
78.30928036374154 73.14267814546444 9.968732047713935
83.5130091333719 60.09213488560862 -2.947243941402427
80.08679510041812 53.780973724272314 13.409887540900968
90.59650630235366 58.46682137554523 9.257690906607918
68.98352933974493 55.86314472396742 5.272428663732297
73.21554534020039 67.39632231721563 0.9491661883000647
89.99045292823243 76.47830966451647 7.015468819327996
87.79726554168579 75.80708882543409 -1.5143428582301999
94.43612065414253 69.75745686821669 0.22041592592019232
77.52249883213793 71.58316280100236 8.510974833402967
90.96671825665197 53.79653244953192 5.081807090363684
73.19337961108054 53.423808040162996 -2.9338139035615427
82.13282004052546 81.66700049858437 10.335900352362993
86.68772615840618 49.61306185882606 1.8163261711642666
81.97200689938651 79.74392832870058 12.91209978320313
94.83210597065083 69.02359115638382 6.332395805117408
84.14033295653661 64.63342397970428 15.757586824261052
91.89539502952678 55.672468258456334 2.843658664837332
69.33234423118226 54.425228550991264 3.924667874754032
81.13525833325387 82.20367141353996 9.079934568337421
77.66402334030516 49.60177533522404 -0.4363666017336855
93.14924614984295 67.40831967773417 8.816872285611646
79.17217036582701 48.69532026773871 2.6154799741069135
79.17224648215628 81.09233444230739 6.409809706218965
78.67656892146037 49.086779474265164 6.6467948219900475
69.38369402792365 54.15063856328087 1.6062542485748597
71.26173228607234 63.024704162951515 -0.09320933655418408
92.83294441348173 69.17179072301492 10.130864679302608
79.84412808847972 65.25958987219661 16.087674234258884
87.71721490608992 50.238687995716454 0.94825513072218
83.16026386082719 52.49432166849202 -3.003300715120349
94.23749715248606 67.90749153218515 0.34832056726932165
68.86648077760108 56.73473576593753 2.969345097466191
83.58376626140827 49.097738870683514 -1.3157268264162751
77.14059390273478 71.26040351905945 6.247396675965705
69.97969432079313 61.01899118017788 1.6604300471200173
75.88624814338306 49.560895752374144 4.033679368808741
84.2040777393634 79.64987083843066 4.436088322424964
87.30742929645413 78.48259704724516 8.934325177148628
68.88830224667441 58.78621729249603 3.300876591883943
85.47463784515558 50.048222473385955 5.416564774041453
77.943865249631 77.65909783956427 6.525900453195146
85.50011407745194 50.845227372280014 7.072479572079272
69.52567400947574 59.279351610906126 8.249636346171945
74.84071242834275 49.96513195246949 5.459486643844981
90.39545517558888 66.91289591697502 -2.966542353247236
88.06310919350241 50.977884740607045 -1.5721972651721652
92.13968209879788 58.09482417717344 4.605759332063466
89.47163928267113 76.5757929795615 10.39167116522522
84.97543701689142 75.96986548474703 0.7143107121478269
91.60224639015358 63.90745761222549 -0.9042152175628422
77.84472320913774 51.517367335475285 -3.0822372493937524
91.81565232818335 64.87904615800929 6.919071051841858
87.06196855703138 62.372615016741996 14.591242615908769
84.86265649050948 68.23140650396154 -3.1280578675226387
78.9506383559032 72.78040301919722 11.728665338892085
71.55943072206522 54.99626339962161 -2.9966618848041673
90.24382051886258 68.30048245074407 13.113456111410274
74.04655943194788 63.858496581782724 -2.9964397824147673
77.01737438184422 57.16863144145589 14.621736016924299
75.0327456227371 66.01354613708054 -3.108315860314369
94.90630226051934 71.92846637621281 -1.0080346754403189
84.78659501629194 52.61803807224891 -2.999023834359848
75.1125145295678 51.33434883189179 9.202629512397694
77.8248671150639 62.965059275031095 -2.9603444845774836
83.89028107972048 80.7093942042627 5.718320308548071
79.85852888949755 48.74816763263235 0.7228514257162965
70.67606496328958 52.219953240254384 0.6810548495278638
83.07910236986935 78.02473311841645 13.020954543853824
86.7294000094604 67.98879206411584 -3.1419890325120976
83.10558105232322 48.502825872904296 3.0371321672367104
68.88991485925865 56.44242790657413 0.023431914722285906
76.36023087313521 49.84498524976913 0.3472335271869034
72.7145126027737 59.64564507382597 -2.9548940618831
90.85818097065156 76.35966525656312 4.7468935968967685
93.0917822905555 68.17133625368865 -0.9262606604266886
83.17301476689221 75.59388313310393 1.3955513080307265
77.34696803983482 62.43420007054523 15.03494334254062
80.40956052196496 73.74221297288642 2.459741041053798
79.49129216423015 50.45287841064963 10.743065648981394
81.28388482885772 49.587992370154346 8.31665159811761
94.44839822270997 71.01981140167162 7.772848110481157
87.4214038280859 51.46281743110932 6.467886295862202
73.04706891173339 66.70273758044469 -0.7997821267681048
79.59884353005681 70.7468978425575 12.661834260289455
74.71003039512192 58.30075196315091 13.164770008579637
69.62352781883422 56.36925355465094 7.5529427263808815
90.4186637060545 71.79933115951182 14.82867641507944
77.59452586732358 52.46406786399257 12.277206484214132
78.24487695596385 79.54072377727216 7.322132427578162
93.84344187213944 69.24179898380972 8.374724551219519
78.53367593323287 63.901431452014336 15.954930539239472
69.73751917809955 56.29933328233463 -2.3842063394404023
83.26425174988236 78.41804353715015 3.6396935762716702
71.04093632121725 58.59885175689858 10.520408599547228
72.734305882914 66.36631429025397 9.981940747602422
69.45632207193866 58.776679328727 -1.5904519432514432
87.79255488400139 54.366158080851164 11.955834493054928
73.34468342160777 54.30561356645997 10.588095495143353
91.9040799079894 56.50898578433745 -1.0906769905151468
70.0517669466314 53.82521646546565 -1.2737399194199075
90.08448079282567 52.66185266691807 -1.1396444912487114
80.52851029474667 52.15956262240913 -3.0515230713961428
82.21008495917623 50.15971586489825 -2.8248766961968155
75.69784770625799 53.39400794614066 -3.130176929322446
70.88637085828154 62.96288028354179 2.009394218507736
72.36904410437327 64.547610045675 -2.176468953747539
79.35140687214805 76.88460889485802 5.026853130198768
78.53748788798852 55.80387658685116 14.883923933590676
77.14193269918259 67.11287348811344 -3.2257112670965675
92.98127676772857 74.47676495027157 6.5918932248974045
83.4337754462245 81.70698797808556 7.18054671772779
81.5724087468065 48.74549302844242 -1.0817970245360105
92.63523202217245 65.67306840658861 5.334464069493649
84.15477455554992 79.78433102501816 12.930745608069982
83.43586821112888 56.08856236500947 -3.209738705440885
91.78327493550096 75.74086918027375 6.265176935360816
79.06536435297241 49.44456519811065 8.79508529957606
80.12107896321244 79.26464565511108 11.862335776262658
73.80870614200478 50.76345590463267 -0.021803987872984106
89.86757310648422 75.9874659439691 -1.2633368856857539
85.66910313398446 59.909074951613285 15.80239977238229
73.51320530739473 62.77895117155615 12.102491395510096
86.05201973434248 63.82298186918093 -3.1191519456647745
82.43267840597606 62.544525950499064 16.729472158670458
69.86536050114512 60.73436604100149 6.095698336826166
82.25385045131547 76.63692161827949 13.137784052640727
83.64722785889533 57.74319173679897 15.829562873979176
85.39157989838658 78.18961654074403 3.8657046751350532
73.12667385624809 59.29552042994082 11.68435080257176
70.52803810526272 54.521437192694805 8.164171513628036
85.64240140665085 75.2573152830532 -1.3816350757105982
80.69706954761203 80.63383420770751 5.1508057241140115
71.8142216025833 57.85471326686184 -2.9769605617184673
84.1920069184427 77.08208920940507 2.3445937332153877
71.90659489202504 65.00838115241162 -0.26361500384374537
77.5911890299178 75.16541358722037 9.770208451165864
83.84368230869747 66.25227022700585 15.459615885473227
89.82853842992185 59.23202642889949 -3.202153994357886
74.55190454663982 68.6944270572062 6.950227789794075
82.27498184624831 81.76877248195092 5.625182972428597
93.67410844749274 70.30336034889257 -2.539714169004328
88.69286988852232 77.02663358108623 8.774472733674273
89.02774165701223 53.528321858704174 -3.136448510212513
70.20895399011245 53.82913904443538 6.203537386627225
70.38271688329158 60.571356115098546 9.752930651572305
91.7282992327976 75.66018433854701 2.401343861046272
78.96061262016553 56.953467559361656 15.88319394223398
86.64669327782748 77.48503666141329 11.904575288590403
73.18106571315434 65.9134061818336 -2.159896371568696
89.54017943820658 59.961790678415035 12.367208349342842
86.19584742213063 71.74004992211776 -2.9647335276525073
84.49427712624448 66.30096473196953 -3.0281577934589903
83.80940540012286 74.7693149525531 -0.4427645937963672
89.43490975133395 56.106578677993475 -3.1586405220166744
73.84997189787804 52.67461955456912 10.247779135741565
87.88021857961945 77.49484071040123 10.401429960626132
82.55152391184973 80.03814094452461 4.6324786711403645
76.94179641410834 50.13186656854017 9.00623554224935
78.52265892985805 73.01368265376203 5.886865622017641
71.19834819875015 64.31905810428023 3.780783825973744
92.90899316148207 74.6486810284781 -1.5999194012375035
93.06135253186973 70.75173455462186 11.502657030783539
78.03034134715477 54.4085586766067 13.379353938381938
74.67316086204184 58.86552690956094 -3.1292851252176552
70.43112315594153 61.23916832188136 -0.23406332781620526
82.6090407634197 60.450768033990656 16.64561171778635
78.91680066098652 61.64952991312708 -3.007179091118994
91.08043871306415 53.52915745554263 0.35502085655391236
92.04185614175384 55.62391824972491 0.7751806933364565
81.95065753859258 51.68154109870146 12.134257183123003
73.87273564961866 50.82441092617763 6.76170558537248
POLYGONS 978 3912
3 357 66 185
3 263 185 61
3 61 185 66
3 263 210 185
3 447 356 255
3 96 210 263
3 447 264 94
3 447 255 264
3 2 94 264
3 210 96 331
3 331 96 338
3 135 338 96
3 69 279 342
3 342 279 451
3 476 451 459
3 135 459 279
3 279 459 451
3 61 255 384
3 338 135 69
3 69 135 279
3 356 384 255
3 61 384 430
3 430 384 459
3 459 135 430
3 384 356 476
3 476 459 384
3 96 430 135
3 61 430 263
3 263 430 96
3 476 356 412
3 278 451 476
3 447 412 356
3 168 331 162
3 210 331 168
3 168 333 433
3 280 331 338
3 331 280 162
3 426 318 278
3 276 79 170
3 318 451 278
3 318 342 451
3 476 412 278
3 342 408 269
3 342 318 408
3 269 69 342
3 408 170 269
3 360 408 318
3 360 276 408
3 426 278 301
3 360 318 426
3 278 0 301
3 328 353 311
3 367 3 461
3 79 276 260
3 260 276 360
3 301 317 426
3 317 314 478
3 252 403 374
3 465 262 393
3 2 262 94
3 94 262 310
3 368 450 472
3 412 0 278
3 426 239 360
3 478 277 239
3 475 461 357
3 475 367 461
3 227 242 251
3 8 368 205
3 205 368 453
3 408 276 170
3 219 228 227
3 227 228 242
3 242 122 251
3 242 228 226
3 453 368 395
3 395 368 472
3 243 219 227
3 243 209 219
3 98 226 228
3 262 216 310
3 230 387 333
3 66 357 192
3 357 461 192
3 143 207 450
3 450 207 472
3 143 289 207
3 207 289 472
3 10 185 210
3 478 203 277
3 277 203 328
3 478 353 203
3 203 353 328
3 243 227 198
3 198 227 251
3 0 275 301
3 275 397 301
3 461 325 192
3 461 3 325
3 143 294 289
3 371 201 196
3 243 118 209
3 328 319 277
3 319 374 291
3 35 280 82
3 118 467 193
3 193 467 266
3 334 191 249
3 249 191 283
3 334 197 191
3 191 197 283
3 277 319 455
3 455 319 291
3 367 187 3
3 2 192 325
3 371 182 201
3 201 182 340
3 371 197 182
3 182 197 340
3 162 333 168
3 403 252 181
3 374 319 252
3 252 319 328
3 314 317 397
3 397 317 301
3 192 2 264
3 209 387 445
3 445 387 230
3 170 195 194
3 245 232 167
3 0 395 275
3 403 165 374
3 159 180 217
3 291 169 13
3 291 208 169
3 244 122 241
3 241 122 406
3 368 8 450
3 8 326 450
3 283 156 190
3 190 156 199
3 283 175 156
3 156 175 199
3 314 172 202
3 180 347 200
3 257 163 347
3 347 163 200
3 275 149 397
3 472 289 149
3 202 39 353
3 353 39 311
3 200 142 181
3 181 142 403
3 200 167 142
3 142 167 403
3 467 198 233
3 245 141 232
3 217 140 181
3 181 140 200
3 217 180 140
3 140 180 200
3 200 139 167
3 167 139 245
3 200 163 139
3 139 163 245
3 261 176 206
3 176 158 206
3 181 136 217
3 181 252 136
3 196 133 371
3 133 175 371
3 232 132 167
3 167 132 403
3 132 165 403
3 131 397 149
3 172 130 150
3 305 134 130
3 374 208 291
3 374 165 208
3 128 134 305
3 261 206 126
3 238 4 223
3 208 165 4
3 4 165 223
3 150 123 172
3 172 123 202
3 150 166 123
3 123 166 202
3 242 226 122
3 122 226 406
3 373 294 309
3 131 305 130
3 130 172 131
3 118 243 467
3 243 198 467
3 371 432 197
3 197 432 283
3 371 175 432
3 432 175 283
3 116 174 439
3 294 114 289
3 289 114 305
3 294 128 114
3 114 128 305
3 165 132 223
3 223 132 232
3 128 294 373
3 373 189 128
3 219 253 228
3 253 98 228
3 299 113 188
3 387 209 118
3 433 118 193
3 133 115 109
3 253 141 98
3 98 141 176
3 82 91 35
3 269 170 91
3 175 89 199
3 226 98 261
3 98 176 261
3 88 428 134
3 137 89 109
3 134 27 130
3 130 27 150
3 134 428 27
3 146 83 189
3 144 88 83
3 83 88 189
3 144 83 81
3 81 83 146
3 13 195 79
3 79 195 170
3 176 78 158
3 158 78 245
3 176 141 78
3 78 141 245
3 209 18 219
3 195 37 437
3 136 311 281
3 109 72 133
3 133 72 175
3 109 89 72
3 72 89 175
3 260 277 455
3 455 79 260
3 397 65 314
3 314 65 172
3 397 131 65
3 65 131 172
3 232 63 223
3 232 141 63
3 63 141 253
3 280 338 82
3 333 387 433
3 157 59 281
3 281 59 183
3 157 108 59
3 59 108 183
3 206 145 57
3 131 56 305
3 305 56 289
3 131 149 56
3 56 149 289
3 428 52 107
3 107 52 144
3 428 88 52
3 52 88 144
3 150 47 166
3 166 47 324
3 150 75 47
3 47 75 324
3 115 53 177
3 162 35 437
3 162 280 35
3 314 31 478
3 478 31 353
3 314 202 31
3 31 202 353
3 201 30 196
3 30 145 117
3 158 29 206
3 206 29 145
3 158 48 29
3 29 48 145
3 202 166 39
3 157 28 108
3 166 324 28
3 119 32 246
3 309 111 32
3 32 111 246
3 82 338 69
3 233 475 467
3 475 266 467
3 94 205 447
3 94 310 205
3 428 75 27
3 27 75 150
3 311 26 328
3 328 26 252
3 311 136 26
3 26 136 252
3 9 435 325
3 472 149 395
3 395 149 275
3 433 387 118
3 185 266 357
3 357 266 475
3 435 24 393
3 445 238 209
3 238 18 209
3 281 25 136
3 136 25 217
3 37 195 169
3 169 195 13
3 80 251 244
3 208 22 169
3 238 445 22
3 360 239 260
3 260 239 277
3 10 210 168
3 174 326 439
3 326 36 439
3 113 299 295
3 231 481 247
3 249 21 334
3 478 239 317
3 317 239 426
3 450 20 143
3 174 111 20
3 20 111 143
3 246 116 19
3 57 60 225
3 340 346 60
3 60 346 225
3 223 18 238
3 223 63 18
3 246 17 116
3 116 17 174
3 246 111 17
3 17 111 174
3 283 237 249
3 283 190 237
3 340 409 346
3 334 400 409
3 219 18 253
3 18 63 253
3 334 15 400
3 334 21 15
3 79 455 13
3 13 455 291
3 23 12 429
3 295 15 21
3 295 16 15
3 230 437 37
3 433 10 168
3 433 193 10
3 23 9 5
3 23 429 9
3 9 429 435
3 195 437 194
3 429 12 16
3 16 12 15
3 187 5 9
3 247 5 231
3 24 16 299
3 299 16 295
3 35 91 194
3 23 5 14
3 14 5 247
3 15 12 400
3 400 12 14
3 400 14 7
3 7 14 247
3 230 22 445
3 393 24 465
3 465 24 299
3 435 429 24
3 429 16 24
3 23 14 12
3 346 481 225
3 409 400 7
3 7 346 409
3 188 6 299
3 299 6 465
3 188 11 6
3 6 11 465
3 346 7 481
3 481 7 247
3 334 248 197
3 197 248 340
3 334 409 248
3 248 409 340
3 238 22 4
3 4 22 208
3 189 124 128
3 128 124 134
3 189 88 124
3 124 88 134
3 9 3 187
3 9 325 3
3 325 435 393
3 295 1 113
3 295 21 1
3 1 21 249
3 198 251 233
3 174 20 326
3 326 20 450
3 233 80 367
3 367 80 187
3 233 251 80
3 460 119 246
3 61 66 255
3 255 66 264
3 437 333 162
3 333 437 230
3 406 87 241
3 406 126 87
3 87 126 225
3 460 246 19
3 66 192 264
3 122 244 251
3 269 82 69
3 269 91 82
3 231 71 241
3 241 71 244
3 44 190 199
3 80 244 71
3 71 187 80
3 309 32 161
3 161 32 119
3 5 187 71
3 71 231 5
3 439 36 216
3 216 36 310
3 169 22 37
3 37 22 230
3 194 91 170
3 310 36 8
3 8 36 326
3 205 310 8
3 412 447 453
3 453 447 205
3 453 0 412
3 453 395 0
3 161 388 309
3 309 388 373
3 161 103 388
3 388 103 373
3 327 380 113
3 113 380 188
3 380 19 188
3 86 486 70
3 86 50 486
3 340 60 201
3 201 60 57
3 116 480 19
3 19 480 188
3 116 11 480
3 480 11 188
3 257 456 163
3 48 158 456
3 327 394 460
3 394 119 460
3 481 87 225
3 347 99 257
3 115 322 53
3 322 49 90
3 19 380 460
3 460 380 327
3 163 456 245
3 245 456 158
3 113 1 327
3 44 119 394
3 394 190 44
3 327 1 237
3 237 1 249
3 194 437 35
3 86 483 50
3 81 320 70
3 216 465 11
3 216 262 465
3 378 466 204
3 62 34 466
3 466 34 204
3 144 383 107
3 107 383 50
3 144 486 383
3 383 486 50
3 70 320 265
3 265 320 92
3 42 441 159
3 159 441 97
3 42 292 441
3 441 292 97
3 159 396 180
3 396 204 99
3 41 222 382
3 145 30 57
3 57 30 201
3 367 475 233
3 324 454 67
3 95 417 293
3 293 417 211
3 50 377 107
3 11 439 216
3 11 116 439
3 107 379 428
3 428 379 75
3 379 468 75
3 10 193 185
3 185 193 266
3 70 258 86
3 297 267 258
3 38 173 256
3 256 173 270
3 236 483 86
3 108 28 67
3 67 28 324
3 262 2 393
3 393 2 325
3 70 486 81
3 81 486 144
3 241 87 231
3 231 87 481
3 196 171 49
3 49 171 117
3 196 30 171
3 171 30 117
3 33 164 108
3 108 164 183
3 33 58 164
3 164 58 183
3 211 413 293
3 166 229 39
3 39 229 157
3 166 28 229
3 229 28 157
3 261 406 226
3 261 126 406
3 126 376 225
3 225 376 57
3 126 206 376
3 376 206 57
3 190 350 237
3 237 350 327
3 190 394 350
3 350 394 327
3 161 250 103
3 106 74 250
3 250 74 103
3 55 215 146
3 146 215 81
3 55 320 215
3 215 320 81
3 55 74 214
3 34 259 204
3 204 259 99
3 34 485 259
3 259 485 99
3 89 213 199
3 213 51 106
3 92 320 212
3 212 320 55
3 220 160 313
3 212 55 214
3 45 401 296
3 92 212 155
3 273 177 53
3 45 151 73
3 73 151 178
3 45 296 151
3 151 296 178
3 49 148 196
3 49 322 148
3 148 322 115
3 258 267 236
3 236 86 258
3 45 112 401
3 401 112 138
3 45 273 112
3 112 273 138
3 138 110 401
3 254 105 220
3 138 302 105
3 137 213 89
3 77 51 127
3 51 102 106
3 106 102 74
3 102 214 74
3 100 378 204
3 93 313 62
3 214 155 212
3 67 479 108
3 108 479 33
3 67 424 479
3 479 424 33
3 85 349 297
3 265 297 258
3 258 70 265
3 137 84 213
3 213 84 51
3 137 127 84
3 84 127 51
3 315 268 224
3 179 54 153
3 109 76 137
3 43 68 40
3 50 483 68
3 106 250 44
3 224 147 315
3 315 147 184
3 173 274 270
3 95 463 274
3 274 463 270
3 378 100 404
3 404 100 97
3 100 204 396
3 110 138 105
3 105 254 110
3 67 454 424
3 127 137 76
3 220 288 160
3 288 302 90
3 222 482 235
3 235 482 378
3 90 287 322
3 322 287 53
3 90 302 287
3 287 302 53
3 104 440 160
3 440 46 485
3 236 221 483
3 33 424 316
3 160 272 104
3 104 272 90
3 160 288 272
3 272 288 90
3 184 240 129
3 129 240 254
3 184 110 240
3 240 110 254
3 177 366 115
3 115 366 109
3 177 76 366
3 366 76 109
3 48 335 46
3 46 335 257
3 48 456 335
3 335 456 257
3 155 234 92
3 154 85 234
3 234 85 92
3 179 308 365
3 365 308 154
3 377 50 68
3 68 43 377
3 484 43 40
3 127 76 488
3 196 148 133
3 133 148 115
3 365 154 462
3 157 458 39
3 39 458 311
3 157 281 458
3 458 281 311
3 462 154 234
3 143 470 294
3 294 470 309
3 143 111 470
3 470 111 309
3 34 446 485
3 446 313 160
3 485 443 99
3 99 443 257
3 485 46 443
3 443 46 257
3 423 221 236
3 302 416 105
3 105 416 220
3 302 288 416
3 416 288 220
3 42 414 183
3 183 414 281
3 42 25 414
3 414 25 281
3 180 410 347
3 347 410 99
3 180 396 410
3 410 396 99
3 405 362 271
3 117 372 104
3 372 48 46
3 104 469 117
3 117 469 49
3 104 90 469
3 469 90 49
3 189 471 146
3 146 471 103
3 189 373 471
3 471 373 103
3 48 372 145
3 145 372 117
3 74 442 103
3 103 442 146
3 74 55 442
3 442 55 146
3 186 473 77
3 186 462 473
3 104 372 440
3 440 372 46
3 485 446 440
3 440 446 160
3 267 423 236
3 221 452 483
3 33 444 58
3 271 362 444
3 444 362 58
3 378 427 466
3 466 427 62
3 378 482 427
3 427 482 62
3 404 211 235
3 235 378 404
3 468 425 454
3 454 425 43
3 468 377 425
3 425 377 43
3 267 297 421
3 421 297 349
3 468 379 377
3 377 379 107
3 349 308 422
3 186 420 462
3 178 365 420
3 420 365 462
3 155 473 234
3 234 473 462
3 77 457 51
3 214 102 457
3 457 102 51
3 40 452 415
3 41 407 222
3 222 407 482
3 41 125 407
3 407 125 482
3 468 402 75
3 75 402 324
3 468 454 402
3 402 454 324
3 483 392 68
3 68 392 40
3 483 452 392
3 392 452 40
3 484 40 415
3 415 64 484
3 64 390 351
3 64 415 390
3 421 349 422
3 422 101 421
3 54 389 153
3 153 389 224
3 54 147 389
3 389 147 224
3 224 385 153
3 267 421 370
3 370 421 101
3 214 457 155
3 401 359 296
3 296 359 54
3 359 147 54
3 271 358 351
3 351 358 64
3 271 316 358
3 358 316 64
3 316 271 444
3 444 33 316
3 178 487 73
3 178 420 487
3 487 420 186
3 147 359 184
3 121 355 38
3 121 268 355
3 355 268 218
3 424 354 316
3 316 354 64
3 424 484 354
3 354 484 64
3 488 73 487
3 487 186 488
3 423 267 370
3 370 152 423
3 218 477 382
3 382 477 41
3 218 436 477
3 477 436 41
3 153 352 179
3 179 352 308
3 352 422 308
3 38 355 173
3 296 348 178
3 179 365 348
3 348 365 178
3 43 345 454
3 454 345 424
3 43 484 345
3 345 484 424
3 127 418 77
3 77 418 186
3 127 488 418
3 418 488 186
3 351 390 344
3 344 390 419
3 184 361 110
3 110 361 401
3 184 359 361
3 361 359 401
3 121 341 268
3 268 341 224
3 121 385 341
3 341 385 224
3 254 489 129
3 129 489 125
3 254 93 489
3 489 93 125
3 120 386 419
3 270 344 386
3 386 344 419
3 101 385 339
3 339 385 121
3 463 337 270
3 351 344 337
3 337 344 270
3 73 336 177
3 177 336 76
3 73 488 336
3 336 488 76
3 179 332 54
3 54 332 296
3 179 348 332
3 332 348 296
3 330 221 423
3 385 431 153
3 385 101 431
3 431 101 422
3 177 329 73
3 73 329 45
3 177 273 329
3 329 273 45
3 293 449 95
3 95 449 463
3 293 405 449
3 449 405 463
3 41 398 125
3 125 398 129
3 41 436 398
3 398 436 129
3 405 323 463
3 351 337 323
3 323 337 463
3 173 490 274
3 274 490 95
3 490 382 95
3 92 434 265
3 265 434 297
3 92 85 434
3 434 85 297
3 256 270 386
3 386 120 256
3 129 399 184
3 184 399 315
3 129 436 399
3 399 436 315
3 152 391 38
3 38 391 121
3 152 339 391
3 391 339 121
3 452 411 415
3 419 390 411
3 411 390 415
3 436 343 315
3 315 343 268
3 436 218 343
3 343 218 268
3 155 312 473
3 473 312 77
3 155 457 312
3 312 457 77
3 101 307 370
3 370 307 152
3 101 339 307
3 307 339 152
3 222 474 382
3 382 474 95
3 222 417 474
3 474 417 95
3 382 490 218
3 221 375 452
3 221 330 375
3 211 448 413
3 211 404 448
3 448 404 97
3 58 464 292
3 292 464 413
3 58 362 464
3 464 362 413
3 411 452 375
3 375 419 411
3 85 381 349
3 349 381 308
3 85 154 381
3 381 154 308
3 199 369 44
3 44 369 106
3 199 213 369
3 369 213 106
3 218 363 355
3 355 363 173
3 218 490 363
3 363 490 173
3 183 306 42
3 42 306 292
3 183 58 306
3 306 58 292
3 217 304 159
3 159 304 42
3 217 25 304
3 304 25 42
3 362 303 413
3 413 303 293
3 362 405 303
3 303 405 293
3 44 364 119
3 119 364 161
3 44 250 364
3 364 250 161
3 100 300 97
3 97 300 159
3 100 396 300
3 300 396 159
3 351 323 271
3 271 323 405
3 413 448 292
3 292 448 97
3 125 321 482
3 482 321 62
3 125 93 321
3 321 93 62
3 220 298 254
3 254 298 93
3 220 313 298
3 298 313 93
3 222 290 417
3 417 290 211
3 222 235 290
3 290 235 211
3 313 286 62
3 62 286 34
3 313 446 286
3 286 446 34
3 273 285 138
3 138 285 302
3 273 53 285
3 285 53 302
3 330 284 120
3 120 284 152
3 330 423 284
3 284 423 152
3 419 282 120
3 120 282 330
3 419 375 282
3 282 375 330
3 352 153 431
3 431 422 352
3 120 438 256
3 256 438 38
3 120 152 438
3 438 152 38
