# vtk DataFile Version 3.0
A great-looking cell
ASCII
DATASET POLYDATA
POINTS 1059 double
257.89871258042456 267.5605689278913 6.328907584171791
259.69845781498026 266.3400863911149 6.834051642451783
261.3403239758975 267.1754646280813 5.600521568938241
256.2577170872059 268.6983245466001 5.90277298151671
256.1805049830873 270.02383745620244 4.356922178656145
263.13474926096205 266.9915481843499 6.232652551092582
265.03277881498116 266.7816563356074 7.132370405059434
255.99160375306136 271.93790111101646 3.29839165044842
259.73924223546686 268.28861050524466 5.607794654518504
261.1588557670026 268.55812539294675 4.658738740031945
262.66419353143715 268.4608519283188 5.144219489814535
264.33751751762185 268.44842899043493 5.936724274533755
257.9677401929837 270.73732530542816 3.362084291525408
260.0138043612102 269.8324042218167 4.001788483643593
262.156826544227 269.618911710554 3.7155651007921677
263.9484757371462 269.76578627059615 4.578388309095142
258.07432542674286 272.87520530495857 3.5524179398819693
259.80615493669336 271.82628435259466 3.227318821048599
261.35752944333865 271.0652137180269 3.234644427201951
258.32548503042034 274.88305055146515 3.8603180628580143
259.94206199431653 273.77167846581654 3.6520453433900886
261.5050702804059 272.6607716835978 3.636644623876525
263.3082485617908 271.5733483073135 3.500219046464872
265.03098820868576 271.3119780549371 4.795462824851663
258.5482372774474 276.852499933082 4.551425975880764
259.98704384201494 275.3195878909956 4.952996505476178
262.80686483770626 273.1057658157325 4.509889112180289
264.3233214973898 272.88971080438483 4.877270013889044
259.03884060380017 265.2354820047838 8.224076193823034
260.58885161944636 265.0822977244705 8.262494831813942
254.0939071975578 266.5862897615666 7.920779670304913
254.42419385036797 268.12121695763227 6.506685033987499
256.06663176880085 267.2098767714644 7.389540163204753
257.69167904291504 265.98248235248553 7.66852470664092
261.772108785264 265.8412868339005 6.995211137827133
263.42252877801866 265.72441955527563 7.3588691513750595
252.87808856060886 269.2785403059164 5.4805759093888256
254.77788048085284 269.2481658999331 5.122088930318454
266.37274240185843 265.89782942798337 8.525020811292256
254.20704475787812 270.90023824887675 4.189059184990266
252.28098854662807 270.4716130320191 3.945670954902975
252.8201404258133 271.9070839783361 2.473479394348688
266.9203956651854 267.4795238642834 7.71954927301642
252.59978815907704 274.8505942117232 3.3567796620353887
267.5436725137449 269.0172774107921 7.595239640107832
267.09297393347873 271.94981818476265 6.757017423133307
254.8926589986007 275.549647617296 3.175806985432579
253.48678323485257 277.32401071730084 3.6757484611842224
265.7535586242002 272.53500074594643 5.801399748526065
254.92825035682395 278.70481657153624 3.897147354513691
255.41057335049186 277.25780354277424 3.5820058464769224
261.6631655084625 275.4986123061877 6.077035315581736
264.7091094213529 276.5034383556351 7.96773921904567
264.9419145258144 275.0546968460197 6.857934838485253
263.391367607747 274.3588222785741 5.682535072741606
256.86812176165347 278.3626154391699 4.179614869815772
260.35781197961194 277.3025208677441 5.9912827389368255
262.0564365541922 276.93721337715345 6.701589052922714
263.28742881490365 275.92660591320055 6.947189108023351
258.35608424728287 278.6245315389151 5.751314525082447
253.8667965867296 265.4236167272519 9.396425196972238
255.73554387983387 265.1904365882562 8.474743430814744
254.9627837169327 264.55539989842475 9.997660972305127
256.3090293703921 263.75634500737874 9.937473355177813
257.71968798459363 264.4740582566145 8.86862469098127
258.1287602144093 263.13423438082833 10.208819708123118
259.44896555904216 264.0367639052254 9.17986554205561
260.22872961695754 262.636173341473 10.470463763215749
262.1587192812034 263.27753368840865 10.00472562774243
260.9738600533541 263.74754485186054 9.107526461515683
252.01784496902002 266.0378923268155 8.699149696028078
262.4502661180178 264.5297095372709 8.443993956834486
263.5600132715664 263.8261735207055 9.520651678864377
264.86140481081907 263.9074204031114 10.14250232112887
266.30972726478115 263.9993383032516 10.736877686188496
265.81034731457737 264.87342482182805 9.62998241425141
252.4312495115391 267.56271400870884 7.043266929406821
250.05081510165536 267.02483746525695 7.58151103218373
251.09409096440723 268.57228634150056 6.303559351406655
264.62695520573925 264.7894689874831 8.407968393654397
267.14207254690746 265.33335845677044 10.067195442612785
268.4648368267639 266.0322744108233 11.043198005413759
249.34953598477884 268.38854894598006 5.635025121457177
248.76509082871976 270.0729990897131 4.2510585891461
250.82133934120577 269.8024770761561 4.967189856456701
268.12051872121583 266.85935432764717 9.065165738376724
269.5157301345645 267.58103048550214 10.4507795857054
250.51066709874118 271.4012105500935 3.631393637093324
248.75646300920587 272.8639587085409 3.3721531170112398
249.9887847408665 275.00942490720763 3.115250492860921
268.8945466960028 268.8835270960696 8.903687219459206
269.82473557606966 269.265713112042 10.506953717057069
249.43735520239557 277.04796001905146 3.8454043245226175
268.45619760453627 270.8026503175945 7.81448276949312
269.9533217987474 270.8225492946379 9.499515991238237
250.74324673026894 278.7862678395966 4.6791244654719355
251.38992613514515 276.9182575924324 3.5342106946285585
270.026349980246 273.0191710755736 9.688600699409053
267.56366203694756 274.351788616128 8.90469064677257
253.05006580746328 279.74985085803166 4.413137964437403
269.0445936205409 274.9587833483754 10.044351415252597
266.2015636230733 275.4535871462648 8.252937120388012
255.70353996905786 280.135360307221 5.153722292268269
263.43778021553135 278.30412918839363 9.575087183182399
261.4920621833331 278.0687060338519 7.253874704900057
263.1962537455176 277.71170195613536 7.749989199911443
265.90605330877963 276.97242316717893 9.231365590573684
257.76347098933655 280.68899673329497 6.31617944161516
260.1654063099641 279.6884036387854 7.047891305980417
261.7853034220494 278.889882005921 8.661865061416739
257.39009979695544 261.56005131960524 12.722075536169251
258.70976398135343 261.1892062078196 13.266623413697012
260.2183706898009 260.8083895997924 13.890478903683942
255.07070963598488 263.69275393441626 11.24469070757094
253.74968320347904 263.9721684329851 12.361057174616025
253.7277140236647 264.55382176298406 10.791608542853464
255.03191561592644 262.77828422882146 12.757059787114004
256.6225265867674 262.5601994326036 11.596823502183183
256.22740699932564 261.92041467245974 13.156263892259268
258.5257078045875 261.9067868333359 11.64462343891503
260.19634462454616 261.70476402443666 12.394220404013609
261.4486228001434 261.3788014427773 13.246724859779281
262.95558276337675 261.4810172357683 13.357621953984635
261.99526207447985 262.53472442877637 11.954028694594172
263.72254320418557 262.3323909190746 12.247861128291023
264.77094472100185 262.0434061463347 13.589266768935424
252.54771634920772 265.31648990206025 10.244287876079662
252.26007248961886 264.6540280929177 11.618823455295466
250.74893349359698 265.33331107651054 10.390805325352408
263.5696655520838 263.19472698943565 10.96378303974818
265.13586798293755 263.15975945851466 11.855108678968369
266.1804099399563 262.78666631180465 13.05868194504496
267.71300924651155 263.40686165441707 13.335883636177016
266.6534755812337 263.45097524817436 12.049334598240742
246.7847733883557 266.18797180307917 8.827681638684624
248.96361854275844 266.1517065861728 9.43747094498686
267.73624923515547 264.3447022749459 11.506715254622547
268.8090479682443 265.0935501749803 12.803712197279657
269.95880693370947 265.8785247263241 14.017226238821653
247.69045441891578 267.2913262242195 6.770442861902462
245.53972683113832 266.8284897811938 6.678498586767592
247.33910993894483 268.3906380840703 4.76442186884224
270.76944878974126 267.49600541141854 13.651122467611565
269.71453738265825 266.74490672034545 12.283098617197338
245.4441019213112 267.51360716461585 4.7599431005461925
241.62825094549856 271.1843241342678 -0.9354650045045103
247.4310859045063 270.92874714264104 2.870119205216695
271.018047070151 269.3823492894616 13.517201792456277
270.7499496199343 268.36901050738567 11.79374507356397
248.08105905414325 275.9995166030504 2.64231458020809
244.32994955201818 277.73258445107814 2.6304836756795504
271.26181315946917 271.34128341746845 13.610140426812121
270.59711854161833 270.49995000501883 11.61883743265808
248.29785244398093 278.5647741133817 4.910737294334904
245.883152088213 281.2551246650675 7.42109804823095
270.63423714925415 272.5499222484689 11.931103020296746
270.85568091566194 273.26241533908825 14.002335558153057
248.56144205774103 280.4444370649585 6.279694593829486
269.3546793948562 275.71092268711 11.972621621981716
269.9434969330364 274.1021757769135 11.583489598324414
270.25326374727024 274.7390591373492 15.43391591904252
250.02437465016536 282.34557467553446 7.136738854819119
252.0222799078025 281.3782816445241 6.067603353254101
251.52113628972796 283.98792536874544 8.085932776559051
253.41224742336198 282.76796823078934 7.343985690694083
262.37942951807725 279.6779881188274 10.492707343085126
264.2677523212821 279.009237784356 13.184661842876972
265.4580272163621 278.3900053486895 13.594286033166046
263.75582245949494 278.5825938600918 11.430204262606804
265.45987881481335 278.3524994769494 12.083212521834435
266.9171187655363 277.8694821881912 13.2483495275773
266.98645469822134 277.57253315614827 10.956914802714088
269.12743451242255 276.2876375093545 14.033126000784705
270.1650819200047 274.7211046209292 13.246455136836111
255.33540363386638 283.67542899165954 8.725974219751624
257.0867604464473 283.85852471258914 10.242621216629878
255.84409521201485 281.9421552542273 6.977344142837725
259.1001167327454 282.3102868362371 10.664597714299056
258.8240163039062 281.80507415428417 8.189984134498326
261.0518541058767 280.9153858005741 11.698990102902954
260.69553272034744 280.6987525558707 9.383767797646987
262.697434882025 279.7654590239824 12.604032986153666
268.9892816073203 276.2492808361636 16.341797483827648
256.0475407345687 261.18976081141005 16.009223466283895
257.1217842459479 261.1679625761809 14.345394525996122
257.66286692924126 260.48566152013893 16.11832365800836
258.8242999821687 260.36412818736073 14.766175865921872
259.30875718609695 260.02404037832315 16.35877597746385
261.019579147228 259.8927359274539 16.464957307831295
260.24691849509685 260.1916302446314 15.200796476829211
262.9656013080589 260.3096415760384 16.651375812243522
255.1205482163271 261.89862944989113 14.502788170917741
254.75411203625742 261.8647243854702 16.143901870349453
253.6119535117919 262.5265082626938 15.570859460410544
253.6594734492364 263.0956715887097 13.91354209795311
261.84688525025115 260.51214515591295 14.730906558635672
263.6559041200249 261.2307909876688 14.988661503871187
264.5280658900113 260.87807324046406 16.191727310926996
265.9457591029045 261.56552060385025 16.5648039767869
265.0826630166633 261.5743206903624 15.190034015469314
252.2445656066713 264.09494650493366 13.353282270150842
252.4475446433222 263.7372619165483 15.098641916383288
250.83140904736527 264.5298921060102 14.584442418998847
250.52822206185184 264.68330143481086 12.549773893717076
266.471535292776 262.27816763566636 14.664296572536742
267.3140480228632 262.3826534791327 16.116902995435314
268.71624580309026 263.16134895509913 16.569534199958472
267.7885722354935 263.1827561810204 15.116470252284003
248.63939747812887 265.4446605636402 11.562294058066083
248.5956847096092 264.8429431597198 13.936895683733487
246.05461229041714 265.43114173267594 13.895205148801034
269.026187044747 264.3123926292076 14.786037018533504
269.6330068009318 264.5351605376061 16.377350087212307
270.66473359600457 265.6372984992791 17.01615433126117
270.11900504325024 265.32862041914365 15.475322363698128
246.43118527234685 265.19831838402314 11.342773197658081
243.88895273713908 264.56053493966357 13.412911691548699
244.9204081599882 265.01998929907325 9.612556950165223
271.2401847752665 267.4770817026486 16.890885041638036
270.7102015223108 266.6812337841943 15.366530074449646
243.7987065479947 265.470373011047 6.252082958103423
242.2105655209876 263.9764978100547 11.579238252785785
232.7986939970824 269.0170986715269 10.958561185365609
271.73089725642046 269.178740949275 16.790565987828632
271.12686826509247 268.40662417074486 15.246093796172659
237.78681528106557 266.9453260372213 4.567860114726419
231.1297261070194 274.5768630788626 7.982168937432011
271.5675439304209 270.67430073862914 16.755409016915635
271.49327854189926 270.16820500835223 15.245709725717413
271.5344178050763 271.8015996264206 17.772058515805874
271.2991553512605 272.0426079245077 15.726491267560009
234.3656461026098 273.8097100228717 2.275260997205702
241.2403048006664 281.8551461986408 9.599804703150333
270.9761833117849 272.767579601542 19.114554773040222
270.7898866421844 273.45990038950566 17.19054793156937
270.3366154452326 274.171212592812 19.063821011769154
240.99561153582692 280.62047914639624 3.942598146412107
244.1967071246271 282.02027437271084 11.500629211617605
244.96705365935398 281.5489537207017 9.436358059408505
246.72601845289785 284.42385454237353 10.222203376912898
249.26738337200308 287.74240676312434 12.917702120618905
249.82460338270286 285.16378705260695 9.407025341736013
269.72141708791514 274.99928592106323 17.62514777048783
254.71387649102934 286.7070877695875 12.928322522336702
254.53247168129806 285.2600945537057 9.660386707077445
257.7127499647674 285.1861356244072 14.693023222353833
255.77468559307212 285.4405642578285 11.103833161559876
259.08553886603755 283.457587755752 14.970570705201212
257.83228051940614 283.65601801148557 12.70486192879417
260.47479692773544 281.83478295174393 15.327516843870395
259.9098569224367 282.2382479389302 13.191181138994423
261.699901194507 280.63837601363053 15.654970991906453
261.5060702138228 280.82571281462504 13.901759505847089
263.18887168887085 279.61833295971434 14.971028008873766
264.76124401246364 278.86133174357747 14.577301965042713
264.71837259957726 278.802659456649 16.270011831840012
266.01620063749397 278.2611617475774 14.918025614209256
266.3965319053487 278.01605082971537 16.683445084106193
267.7043658570236 277.44043703125146 15.18760197756222
267.6927768496063 277.1513670075412 17.369630699492166
268.7369478057689 276.2283598576645 18.347396058674324
269.39902158404084 275.26864514226423 19.39357828399105
263.3628184512654 279.0330668477529 16.54870490474533
268.57390565070153 276.1303231996676 19.87255367145661
258.2171255320281 259.9971725487045 17.754075488680474
257.2826121840102 260.5471125393646 19.198616347708167
256.6362492824899 260.70838362244837 17.583662570833372
258.9093665036338 260.01078772819153 19.385365621469568
259.9401703180033 259.65288029383026 17.932038071998683
260.60131817016116 259.72032337775084 19.565976603885833
261.6368250917941 260.03077637592236 18.129109291759587
262.2285475377315 260.17295926048735 19.726228907861685
263.996268041651 260.5142585773464 19.822497473483654
263.12302361296474 260.1769455734984 18.436861098308363
255.18910012908373 261.5061360717884 17.448682911576405
255.7065306029558 261.1881560396952 19.011080915518555
254.3229042419642 262.1257927913344 18.766896234110128
253.78823861590175 262.2331547492967 17.19386446426779
264.6291175460191 260.6701865175238 17.861849502344366
265.4436539535501 260.8684452148937 19.252529297500026
266.689212908636 261.7592639460393 19.635402369140714
266.0383322648321 261.3660436534867 18.215435101050474
252.68416529993723 263.40926520613164 16.78134287317099
252.9610513616039 263.10816725992055 18.44899714495544
252.0013646210077 264.50272195334105 18.0101853760026
251.445535222821 264.53603043093955 16.362242044511696
267.4236523211 262.10248412179806 17.78369884877297
268.0780344895206 262.3937080356303 19.22840944906239
269.2288055302151 263.3336156225663 19.771107940830415
268.73814130385875 262.91595964073286 18.260003981462294
249.56269689937673 264.79172053688023 16.195022431637824
250.4920640562612 264.8696858437574 17.65503650109913
269.795195495686 264.1213921011946 18.010545492963505
270.2513655348843 264.510882169076 19.542716728393888
270.6929914447059 265.9052202651048 20.226657024191244
270.61274942368834 265.3250048987568 18.66622590135505
247.39383422956305 265.22047511627636 16.156436532951293
246.38672233822524 265.7391478943388 18.132179469783015
245.09198599682648 265.3912950500724 16.316647667365945
271.04292496956634 266.7245581467966 18.554783095911116
239.67241048969447 264.21280777676026 15.166599147981378
242.2255214335758 264.8448458985075 17.88485725025653
238.55346397933604 267.561557338345 19.50641641208084
271.0622243103976 267.69782710175065 20.05631965588335
271.28649846331973 268.47013365766946 18.44741624967771
271.3389903278177 269.53280532044886 20.164161318855868
236.4385645927673 265.64008291285296 14.17050586025304
233.73565273925772 272.79856407366657 20.230143856165604
271.61700213451456 270.15520901888584 18.259463765150038
271.3862818069526 271.2896863054939 19.54095181659938
271.0535536542477 272.2863804903534 20.52131154833729
231.77557598210237 271.44607540789207 13.742796770317502
237.26262222072287 281.28753980752197 17.651319406523726
270.5119090520612 273.4775771624987 20.55220062102817
238.1095365311516 281.9392493950248 13.994651618212393
242.42399052680267 281.5323230614292 18.430406246046584
242.13672641114883 281.81454937774157 14.00319006312137
269.87074642364007 274.561067573593 20.431949759199675
244.66380696968673 284.7496721781723 16.375012748448757
245.2687853621582 284.9237192509084 13.968260465197702
247.79295409077415 287.6500816865159 18.599888764698168
249.4766610656817 288.60690932234365 15.173406728790464
269.85534887735054 274.29668203939724 22.10450122396937
269.07678927032543 275.44190761751787 20.984064552181668
254.21484272666595 287.6286246688288 17.247116989055005
257.2169001088259 285.66176018186394 18.66880244686441
255.52129794457417 286.9706516961107 16.269641219069072
258.56761317562416 283.90923684610175 18.833746737653758
258.2387914907451 284.5392584382133 16.814123688699855
259.5020661183839 282.5938402169627 17.22879510123846
260.41300296712933 281.5428212917175 18.40891748718614
261.49138244929827 280.54035779517835 18.562103913615548
260.9959940850576 281.15941164928984 17.038800789995328
262.24162766773225 279.3252357997031 18.704392246893903
262.23633581239545 279.7150014755973 17.044173854529355
263.6564668113245 278.9336289578245 18.053954054621066
268.57327970148214 275.6901457211078 22.833090821424598
264.5967238590336 278.4592046027881 19.732729196716768
265.37904720698265 278.3666617096812 18.106897599053866
266.0653643386548 277.8997219721892 19.610461186778092
266.6252573847106 277.7082242494335 18.237718161816904
267.52008448564123 277.05755051275037 19.403819956246675
268.02806955366736 276.54452346588084 21.189352435908937
265.47713802679607 278.23911463899265 21.00141132649339
266.67071357304127 277.432281756029 21.133377329368354
267.12544385770406 276.7391768925702 22.71483950847018
259.5520147977812 259.89984565055136 21.022620498852163
258.58768123964813 260.41887330219066 22.459996080014857
257.8759647004618 260.31497522386326 20.84236872245763
260.2425712572495 259.96793455499323 22.638784452737767
261.25308646455505 259.92402789249377 21.164414532552623
261.90328379148673 260.27873644874 22.702564030243803
262.8162854494553 260.48587124479974 21.25934986720818
263.4725201740778 260.7386733162891 22.746365837426442
265.17418320711704 261.3184799499779 22.62578519902676
264.2059971342674 260.69433573053806 21.454718176159417
256.349798189761 261.09545678109725 20.621429362514
256.9852894532997 261.0145017331569 22.258255367287397
255.45889965269575 261.7713091519715 22.01879510366038
254.92812503341216 262.0146784142825 20.372741338180653
265.4415554790233 260.97852835977693 20.744174203417984
266.6553768187231 261.8054050821891 21.54742292737746
267.84773746698113 262.5266440421421 22.33648963232305
253.5033828978678 262.9548888049794 20.100492887434907
254.02475101400137 262.6915527264195 21.75976049399142
252.82449456186177 263.98425885887895 21.46249559315066
252.35648844808344 264.27407597834286 19.71901503374539
267.98454152771717 262.40959568413916 20.69814795579665
268.98718910838176 263.3276149325615 21.628382752975494
269.6703125520699 264.3955570965918 22.67518763918242
250.75239181137667 265.09743764185487 19.305201024802315
251.64651640879728 265.6011828715705 21.090127725124738
249.21824424356225 265.40420047640265 21.106784351585294
269.9721740102493 264.4636449389686 21.002366598780466
270.3634780410038 265.7060490527046 22.084976986555354
270.6166186485282 266.9028421021386 23.208356907786047
248.6125311108582 264.95630060078804 18.451654516294624
246.95459033045742 266.04355817587685 20.254678508495825
270.9188445549453 268.2286508965374 22.68286784615443
270.8029407612952 267.1417085121207 21.599654480770923
244.82493740577897 266.84335154359167 20.446021848165575
246.34425636961447 267.28221512318294 22.42439189313129
244.49750410170978 269.09635310039755 23.020970363642878
271.0336830551865 268.44843804854605 21.32583981197393
271.1676529377606 269.62792165129144 22.127699523575643
242.89574795561464 268.2369806796241 21.273174643100404
243.32439290661938 271.29099565254785 23.153647732460946
271.1162578899571 271.0908980163833 21.296378810271502
270.73252582433713 271.13908558853797 23.339751017944366
270.01983574133396 273.0953839817959 23.897564332141012
238.56978150672114 269.65301192210086 21.236595881961293
241.5654050273868 274.8950161458454 22.790071465543473
270.71962782133755 272.6261004505091 21.998071025009942
237.83462879494297 275.77193223384415 20.945384416196955
241.99429087510632 279.2277895258773 23.138220059527463
241.5969034216573 280.6541192819847 20.269140610453043
244.06435592663806 282.92787297498853 22.207628979050476
243.7272577622897 282.8447850999575 20.092546427830708
246.5281241612319 285.14436702736987 22.960315536994088
246.60281653866744 286.1252443040523 20.05948166067617
269.2488566030563 274.52966781555085 23.75579368695565
269.06952535306135 273.99029521916157 24.915859788982257
251.7903410973321 288.1094074241061 22.118394249917927
251.3340656871784 288.4925260104872 19.71456112042942
256.2997932012415 285.8566193940173 21.891751257181273
255.49639119315276 286.62808348082245 19.75573333905273
257.73830505396387 284.7145573351603 20.59956787297985
259.5781270188316 282.05906620513906 21.054551841762695
258.7342893280365 283.25818005960974 20.363118294912603
259.51484144340947 282.3712099202693 19.29631890488874
260.61374732326993 281.14569666146974 19.92686578843945
261.6283391419269 279.7466130864553 20.110182665961542
268.3740143887932 275.3183881799507 24.83067952142092
261.98929923103844 278.57840828149347 21.520934088384703
262.98286290930827 278.80763285315993 19.944870429834637
267.66561108918887 276.3103188324583 24.00756127883801
263.98356135108213 278.5681569108023 21.63914291366857
265.65076252950786 277.93243773541684 22.79108846300304
259.29339920738414 260.5109748457593 24.066271633612423
262.57501481888437 260.6755580214395 24.186729678282067
261.6728778291156 260.8757448079636 25.579068722980026
260.966913072821 260.319404052048 24.173044657066068
263.13510754461754 261.3287400476162 25.53151287098856
264.08738020943383 261.2705005532265 24.2115192130503
264.475829828315 261.9633853787302 25.683044940733577
265.5632885439162 261.94665247962314 24.4050070331441
257.6092352627742 260.89193957234306 23.92138353586841
256.75416793939144 261.7053453985422 25.358815751448926
256.0851200314536 261.71559416486025 23.671034433458107
258.3504588777302 260.93930248736416 25.558513919524067
260.0484450663469 260.69371392969407 25.61684407363096
266.73551104813777 261.98176301430294 23.24282634810879
266.9370926136958 262.6717966198559 24.663186376862203
268.27363323492364 263.3278780964841 24.67409465616098
267.7387711349929 262.71174648442707 23.64036335237136
254.6273436849556 262.53126584136663 23.376865093341543
255.1007477273442 262.42696575368524 25.085602827379244
253.91784961657413 263.27418297686586 24.54789632806078
253.38186240583548 263.61072197682574 23.133295873200485
268.67342157262897 263.39579627606696 23.206947800060043
269.1676093069838 264.43519129641794 24.212890164927426
269.7112367027755 265.37913509471423 25.23692372331502
252.28356419901263 265.0035031884999 22.931136650127836
253.03421484460725 264.57243853322325 24.636003843949542
251.8826224888956 266.07565627989845 24.44289539192764
270.09032450832 265.5636408055281 23.76440588502108
270.1960583652722 266.9372509267877 25.019535268843764
250.64557343717755 265.9311349126739 22.8713535524474
250.4931866966083 267.53799054850543 24.126058177302617
270.3883516892278 268.0391080073217 23.927001156205158
246.90168606397887 269.34975669660264 23.901780612924043
248.56905323383714 266.63980229729685 23.172983934227993
248.6450275899327 268.29144944605827 24.52088013775275
270.69179275746654 269.3341002609126 23.7270787100036
270.49951810566284 268.6944580756452 25.18859842709835
270.320526913555 270.29039781642484 25.0396692774726
248.34817011105469 269.89913454671733 25.39169008269273
246.96080234753248 271.3166202153389 25.404620536720028
270.28900075992277 271.78538602236114 25.043250862688406
269.5093301690775 272.94843406657833 25.82666768430387
245.37408752558366 271.2376379574629 23.86318909987219
247.2872305406854 273.218820588799 26.463423347894647
245.16876759067856 273.11441939014503 25.421634247697554
247.30767259140472 275.28971712559195 26.986128766918036
243.10471477428595 275.85111590745544 25.0898691979004
268.49405961741616 274.21898336056574 26.279772806282306
248.45667228142463 277.94976278507596 27.851118789244207
246.08218544833215 281.59825574578844 25.475069190011723
249.77396833749776 279.83657156116936 28.307352030723333
248.26672699351641 282.4938082451107 26.603005179961738
251.11469289208918 284.2730140948977 26.969846926354123
249.93454383282702 287.2686508084253 24.960875285435637
253.54931934172993 283.8726573414185 26.506516062729123
253.85998970844415 286.78123070904167 23.93338717849829
255.88817643332536 283.94329357630784 25.4583819391766
257.1449720325711 284.21341952186515 23.513874472976703
258.4175121073783 282.33191917842436 24.036401974443816
258.4765520614165 283.38361657039343 22.061734189342197
259.875354311005 281.1081984154002 23.729543825816574
259.4996012692357 281.9238761102465 22.611717139791825
261.6621415921593 278.78346863027457 23.243144370894505
260.88052088231206 280.51125588097847 22.092045252434563
267.26820869975904 276.21406685186514 25.14513677247531
262.8911191607665 278.2719287248225 22.83078182501121
264.0699559107622 278.23698470644143 23.384164624894137
266.58602550571135 277.107541695644 24.33461346507534
262.2680976826276 261.79796799265756 26.64650052565496
262.8585762162368 262.7988394613526 27.432849364825998
263.4303804659148 262.20414186072543 26.473146846888042
264.41224934073716 263.1372826398564 27.064303133340882
259.2708815616194 261.64666987688645 26.78853166815372
258.66150211351004 262.33665393141155 27.97077189237095
257.66084636884665 261.9582816220973 26.91276625144962
260.1030413988169 262.2971148589941 27.96637717684392
260.8085702486621 261.67904877468925 26.681282087451738
261.52757153977336 262.5487949359733 27.645913074356503
265.8578492728457 262.7447546784738 25.916673886473976
267.3918232120711 263.4372181667611 26.067220813934426
266.1666912419214 263.7792925656729 27.352860211111665
255.91384033035195 262.6645450336794 26.884986604062544
257.56249468574765 263.69898884598757 27.93097171986574
255.40218368833908 264.29415327615055 28.16738208362635
268.63975498460275 264.5131109750519 25.759549976911394
267.62585899721455 264.8296105580158 27.208479043348696
268.83657867095627 266.2793821213337 26.59528189182806
253.07263156477947 265.92537742738847 26.265591660559156
254.07136589085533 263.83416724822786 26.342380392750268
254.4546536660875 265.41808522207134 27.247375570553537
269.7578428633749 268.08670585847545 26.67013096329761
254.1657189519165 266.647880486569 27.392013221522827
253.53546873815975 267.8292487083398 26.834292580473548
269.1142603727064 269.6255733794915 27.785302617507377
252.0916155156677 267.75284130608026 25.55788521796943
252.4633382157933 269.36500103980364 26.7754175940299
270.1419922158927 269.62823857570993 26.396980752814013
269.3074408640505 271.1369816012583 26.415018367141755
250.4229466225361 269.39923197144617 25.63023885837446
251.5184503952606 271.0854551272264 26.953522489497967
267.9907638026052 272.6218307721982 26.864671320231057
249.29610921243656 271.7731197439545 26.236027874225872
251.02020576182923 272.98542851629884 27.516913034561902
249.12055513795164 274.017654820486 27.390478557439792
251.0315649875057 275.0584356863151 28.509592381415203
249.04372516641953 276.078996689722 27.869570530764538
251.91049036465142 276.36422241396855 30.16519572683838
250.6399784047214 277.5630350906787 28.726812168475018
252.8394388777349 278.49083334176976 29.65092877676813
251.94556541409906 280.6295780045124 28.94175920493085
254.64516352830324 279.3524608535045 28.72014306236237
254.0130803406864 281.23458305402903 28.324889353389942
256.315315548168 280.4060663339127 27.867101533029857
255.30041784720837 282.55979551790267 27.25695465865003
257.9274220363896 279.7472720144306 26.466965942747557
257.53933940488554 282.082027069282 26.243504230449922
259.1903538771764 279.4006461265959 26.29156852679639
259.1758493094887 280.48255582935525 25.300002946625387
260.4378706259084 279.5867019628478 24.082228650754573
261.24606270450624 278.2941084047343 24.5860385404293
267.3406484930232 275.4680555255626 26.35651221650263
262.83288761006054 277.9009743882793 24.423858625753212
266.2794637164538 276.7608293186951 26.057496341398615
263.2893168092733 263.8998259530714 28.29576285443219
259.24439487931903 263.32437778536365 29.0884873983541
262.2271243129786 263.19008088781754 28.471285570702424
260.96479740636073 263.2909333716618 28.845022515065075
262.0342568301169 264.36616538761297 29.084657373893684
264.7913594036866 264.55605135298936 28.293813431214062
256.92892416436274 265.47595655433014 28.751827256891566
260.3929528355774 264.9262722807465 29.416559072422558
258.55323339207786 265.0046479442395 29.169205302033156
265.1441646722904 265.70943102397314 29.464515877223157
266.39232181499347 265.13458041075523 28.49464901829765
266.3745483732201 266.35725266055266 29.312533621155172
267.8414712467568 266.23603520198355 28.576011888036174
257.9738804132578 266.4910600014961 29.520534563978142
256.84242961949764 267.18734870210164 28.97392621929381
268.16493524447867 267.93928669341506 27.783738247821013
266.6320270579123 267.8698360744426 29.140417798177246
267.2958559370629 269.46002021782334 28.49638517444326
254.62829659523698 267.7890448887963 28.0352508264304
255.43690050804702 266.36424501315605 28.210522712606963
255.6867598157856 267.76650967996005 28.815784598634284
267.69376240479994 271.0102485242678 27.762764122153385
255.02389803752095 268.89709232719287 29.03525337161802
266.78857699157726 272.5463514842566 28.362908814922005
253.9942669596252 269.26654528829795 27.810813986366007
254.23792756299343 270.2297417505176 29.09890356133205
252.77537636907792 270.50634755189515 28.385185546808227
254.25117222383616 271.6760748323178 28.410526235679782
252.72682045183058 272.240357157338 27.77509699715136
253.7782446151351 273.3068483855681 28.488619345263146
252.28412475137424 273.57719123278855 28.53396421545632
253.20448075821508 274.81661072293235 29.32211632465323
254.96222154683107 275.5234037142044 29.081875233811648
253.74683411054565 276.5030870443581 29.88009899155752
255.16022606657478 277.37521159867157 29.113469939635603
256.86543714051186 277.0503191793258 28.128072588042258
255.9263922300587 278.48698077491275 27.958152155356785
258.28453438386106 277.44680370536895 28.085897481658048
257.4042381395985 278.5674086858409 27.59168226471158
259.038543136028 278.2527774717149 27.060439870641343
260.678547754856 277.4201021922665 27.14423994290078
260.17574541932834 278.6617183441445 25.73353288051127
261.72748158683487 277.5713081026148 25.8789279972742
267.18516270397527 274.1359181623079 27.56265668203083
263.39495767413115 277.08227398754224 26.184882579363226
264.8866858542903 277.7293447188897 24.981711388884648
264.7975543660003 276.4488932967003 26.40852577237614
265.73103421719264 275.42622191943474 27.446549166751907
261.82414418846884 265.786667598528 29.488028191268874
263.40788703564647 265.31609598153716 29.427148253266136
259.34212016878865 266.2721429032556 29.921765510939903
260.78863939133805 266.39050882335675 30.40527397982643
262.54867744459864 266.60064708501733 30.800749995482324
264.1914501715022 266.28091808147894 30.47455890769083
257.22675462412815 267.22542575670315 30.35777427277374
259.7074402902076 267.062788678897 30.99431420800149
258.41006473213434 267.0491049307104 30.842714449426637
265.4653402061944 267.04666223477545 30.25517711375571
265.08177106912535 268.5844028613635 29.98841826304247
265.89692552561485 269.3753058846105 29.148699919371097
257.1225760549804 267.644983453776 32.015875201993154
266.24173891504194 270.9213868146205 29.24001692928709
256.153660716908 268.290378693789 30.225104151454637
255.9381038101488 269.3318742847752 31.9529276519403
255.02183540140024 269.7689123317993 30.451237780838788
255.53968112464005 271.04507082837756 31.56369109006989
254.94824084154865 271.3798536839524 29.971510060177618
255.714563609975 272.6163616634971 30.873099664053218
255.03056729562894 272.8747426957178 29.336748847263838
254.7426717334277 274.1857173944942 28.867920060503153
257.0516820584541 275.1740475081084 31.245310349605923
256.09380576383035 274.1860994705336 29.913731975398182
258.20579662353373 276.0120532180204 30.687137278787663
256.70495182646124 275.88083794211775 29.524773172959556
259.5500978476361 276.307293640685 30.131486414460998
258.2884190137424 276.3485671459715 29.044202844567632
259.7369338089584 276.96999711967385 28.53423169698813
261.23569289267414 276.7097759000154 28.397499316882705
265.6513808206814 273.83297227296504 28.470074542591025
262.22458360975844 276.7932466906625 27.417872651123442
264.48047171382626 273.83038574579183 29.64293266998535
263.78939320417413 275.83698062338425 27.74109474727102
259.0636976537275 267.3948435224913 32.24882691845378
260.92289453408523 267.53551661188004 31.851334773171878
262.5341008776153 268.4133097467936 31.409180312707594
263.9548766359824 267.7056582191612 30.703681943388812
263.6764398349968 269.28046767928265 30.639799922050212
263.7906468597494 270.82672978112276 30.895483342141787
258.23732248971976 268.06745713722455 33.528272940399866
259.9922929459822 268.26745909875535 33.63401951470879
264.6668870195307 270.1187186516055 29.652558971493967
265.437866548402 272.5552750873228 29.590517406232753
264.99691325194726 271.3599509260891 30.318891954788945
256.7335879495463 268.9485931967787 33.75513260121194
256.8860687179056 270.42669890851056 34.90307563630933
256.03124222594823 270.6969479400946 33.29956161935069
256.7214844092319 272.08292828966563 34.26754919380565
255.96299301097093 272.4041243039006 32.65233622094936
256.8628805647208 273.64980658362475 33.50735445247642
256.4888367338324 273.8152367108645 31.825033608333815
257.140015909502 274.8339754709139 32.708019092572876
258.41759706629466 275.4780571975992 32.35713604865612
259.3803462486474 275.86994061612154 31.39730350568821
260.5652522709126 275.56254899688656 31.06050173723503
260.872342543504 275.9307712933381 29.54035097324778
262.2228225567155 275.66961356987315 28.747184517790497
263.5326217631072 275.00832963570406 29.447402778617878
264.690973971154 274.8467056110791 28.63453246627903
261.7033205080221 268.98866567307863 33.005213793993136
262.92298138133464 269.9547142776691 32.05054366500295
260.45157109600603 270.07877234852316 33.850649444887274
263.89464762006236 272.52646853630966 30.711228061601616
258.59703497694875 269.7214830514186 34.282277017154136
259.3524024498116 273.90131525228145 34.136489925643225
258.0099829868364 273.2020154964953 34.67423386571817
257.94505496103176 274.9865360378442 34.14836127635381
259.2988918978818 274.97213847662834 33.40291220566417
260.3828181104721 274.3042644416227 33.23730772935524
260.01588232051455 275.3995433003513 32.42515769582132
261.1231870142425 274.49245746191707 31.99973476379066
262.03758177320174 274.8663022667382 30.486426135495215
262.13435730645256 270.75123600525166 33.53063491586413
262.8166177738065 271.6652579868355 32.06374371806303
259.5561556851055 271.05410606175315 34.4978899146091
258.21707309990404 271.4948979630455 34.784716556639076
260.70620023590936 271.6817821898064 33.92629682517077
259.48912687404226 272.44454403423134 34.569984123245796
260.7100051811414 273.17518597032847 33.99722670102451
261.1944756790312 273.407859148499 32.786136457656916
252.74632976935422 273.31347543318236 3.1617392272803815
243.0351247683186 282.1485224836035 17.074834262926966
240.94582448326693 280.95983815291794 19.003553338482604
262.0944766838796 272.5499702523817 33.4734453349612
243.07973307430206 271.7608054316568 -1.0288869146642332
246.22935464186702 270.39044939121015 1.856958010629039
241.17269096712454 272.6219563093785 -1.5493044952300978
248.8688108798848 271.3373670294706 3.5085917990699564
247.41460203967094 272.3988599868115 2.3280515390884213
239.9328542122937 275.71477559431224 -0.7517864897695029
238.33567247738443 276.6277337313118 0.894045706396537
234.6394088029433 266.8506034087976 14.074708499027718
241.70598762736813 266.32322905574296 4.044131403663346
248.45182463546683 274.3860524325294 2.994648601757279
235.51057078143447 275.04569558611024 1.5639134940039492
235.6731327732004 276.68917931661133 20.946449489662587
239.92142608864546 269.9420203189888 21.56365484753735
238.59086544514096 268.62350104409245 20.397755865841024
233.6853358468679 280.7594219030084 12.439590915719215
231.46112201253192 277.5685651236289 8.915729392529425
232.14327204083898 279.0851688492831 11.785415480524916
233.70557421764627 278.3044969802458 19.368638517938404
233.34035585737044 273.2837100653468 4.238905303640214
232.36293014489502 271.1730215665734 17.341120648081287
234.9169884677397 268.4241339135213 6.339239783150082
235.47826249354836 272.35787492668885 21.398828298009732
232.32501624494705 277.67487120558326 6.876672989410666
231.85854437981303 272.77554223237877 7.214712581185465
247.28002853623784 269.6368650294807 3.780392238746585
240.10812331806042 272.2866036015828 -0.982904659615575
232.48500165498965 279.63514649321746 9.504736897075322
231.84243929218968 275.5310592465149 6.81248521509553
231.78252272068488 273.38453866537964 17.854354814027293
233.2618294541548 279.68839995043095 7.240906190219511
233.47930560111126 279.509107202816 17.224323006625102
235.89759702194107 281.24135575119294 16.916721209363757
233.76126596218583 268.26910424138157 15.040131722833593
233.64392152671334 274.5754974478889 20.284271157718262
237.69355116150373 264.8566323053474 13.510672474370212
235.07803302013204 267.60993562068916 17.665335323454986
236.5736210179086 268.05500822876536 4.720672003972612
231.26546937724416 276.9560964207786 11.196290671352816
233.14380238804193 271.19772002635494 19.752285764523545
241.00449145605594 270.0657617380203 0.11958265182153886
238.49857431183239 272.953354729402 -0.3122154454474598
234.82463979042163 278.59856851347826 20.554550704592348
238.24930392670672 265.12393070817524 7.890719493019559
230.87753430155385 274.2489691389113 10.164834590810996
241.60264997370317 281.38009761720525 5.50178417544033
231.82422378734825 278.0917256604372 14.367992239593205
234.65889171912275 281.2397859876349 11.588787540233106
236.628315241692 273.8802108369209 1.073052998878597
244.66451640866595 267.7830397829137 3.488853696199009
240.7170706000044 264.64184489483154 7.890844819651452
238.75355314868986 281.05089427567736 4.520625873594463
233.6343944675593 280.2554030083216 14.821480428330267
238.06966492018432 277.89569845039847 1.7333926737278
238.49082428689454 264.3627729616529 11.465895418000267
236.16694623054516 265.56263445403647 10.344789329440315
235.49252115386983 280.970707745738 18.038720898903875
232.27944569160596 270.03936427124677 9.103709612198228
231.45804705610152 272.3075738519905 9.249897974311237
241.6056864267474 267.36405603299414 20.223187111194036
233.74936131297568 267.51661803419665 10.911374708673012
242.52806763906463 280.0505926833986 3.7182929447354116
250.436669636998 288.38880601634037 21.270804503893185
237.25931651961127 281.8306172778377 10.400729164303161
235.7897014124133 272.2282962467863 2.1361587448308144
240.55263409459968 269.08022589448103 1.3538752794721158
232.31169164642108 272.13897312202903 18.583548252985654
242.12091524942943 274.8477391699003 -1.6472749734538328
233.2907937640077 275.25718512170374 3.9849632640096058
231.45705896858257 274.66254614233867 17.165965767441232
236.32153251346801 265.81293371731374 8.13380153464116
242.50852306143867 269.4700807091167 0.4416624941482979
232.0334342555498 276.6458484413611 7.827309408173722
244.16608838884017 273.8768796464845 -1.0635664955492856
239.63157097515122 281.80052815693546 8.161227007962694
241.2678151409816 264.0932767062858 16.06314684967278
247.44380308963574 265.387097723604 12.700852093201963
231.15117399761039 276.5914549230014 14.035289747472211
238.84118934557745 266.1211120161982 5.475120981356181
248.37111548114282 266.6859887733866 8.168046618918739
234.45511853246774 280.6784910713839 16.374971317021355
241.8504770571051 264.9328328261595 7.239092572389972
240.63368323444294 263.78320271932324 12.350661969027614
237.63303941978194 279.9902247399048 2.8690288796771712
235.84877968762908 281.5808476578361 7.484761088629266
237.12151685867263 268.62961546624507 3.481599849959782
234.26934218726748 271.4196355450158 3.6004322127139647
238.67768077798436 264.667169937359 15.940820288998443
242.50258592909015 273.2149201511528 -0.8811377362781737
233.7509948121107 276.43406209792613 19.74494633016963
241.25915414736426 275.502538033433 -0.31865165670951257
236.53788630670834 281.6814314503717 13.856011588623225
240.14045153748438 281.3806146509042 5.99042609002701
243.41406136636496 264.89677195826636 8.354874767840078
246.14832659246645 268.7303340534792 2.75817947967455
233.83829580942228 270.3773459761518 5.129566843546487
239.41266524350252 270.7704275528421 0.023275451088289115
232.44017254756133 269.7131014763069 12.56536603469966
238.48025531167923 275.3038785441629 -0.05110264355961888
232.81331301847766 279.6569595873787 13.319082871550323
231.74279763730763 278.3569652413414 10.334651138788074
241.14373059506116 278.32854577083054 1.2839178515874012
241.76321017949022 265.8306753352 5.449950330040907
238.38471588165143 269.8154640218137 2.0406579613552993
231.2870983000738 272.9550869353479 14.605681377044814
238.0642314352361 281.580345557662 6.645135179540245
236.10082934570832 279.6847353010053 3.6779819190160805
244.6644995144243 267.8966567333976 21.767697860280954
241.5236655632286 267.5715567627344 2.9554625878008145
231.03796571944497 273.4032395443028 13.429981355264909
233.69256026171772 280.64742473142024 8.682531416922043
234.90737975580032 268.5497758049966 18.868121440691233
234.80724085519068 270.53906827463294 20.268062307732748
239.64250772424035 264.38552097567805 8.651121477607585
232.30572654724102 274.2326466001218 5.905058151370397
236.49427535389813 279.94675961598824 19.45530766261949
241.11821721300572 277.899599990756 22.53451610992824
232.40497085449547 274.3409508304587 19.090257612954474
232.77400859933238 278.1547594789152 18.021594397755972
243.01057119157957 269.6954184015717 22.372306184688437
236.13646429428928 267.3707261869827 6.036083837554322
233.20933397819704 278.61780808944377 6.058705362510695
233.45674057383775 268.23787038961865 9.128290118488653
234.65943522390546 279.4802519437809 4.37602598023938
233.8574445872863 277.44403323157303 4.085199285822542
230.9529845648169 275.3514242135525 12.206391952931972
232.65823306208242 269.42471988374615 14.064118846411894
236.77643478106117 281.9284501687741 12.0864513970637
244.4040640512339 276.14298043724165 0.9520423718160472
232.74645179898803 270.17915352782774 15.995965576959284
254.69169742308557 287.0568907956928 18.534824327460345
246.34687097612655 267.94377499502065 5.965777689429132
234.8868681931138 276.01820210974915 2.6128006082116997
231.63709061161467 276.85514341651026 16.122446446340817
240.01957308756462 266.26276257576205 4.356651228104403
233.45035863025507 269.42990380153196 6.7903430893009835
244.30193397070417 283.9103198548302 14.935186505180054
246.08080577634 274.1475854888655 26.6251619584456
248.68649601281544 281.27848266984273 27.90078634071038
231.9086041055223 270.862678601234 11.2180125941651
249.48794354387186 279.58778415845006 5.36276505319834
252.0977231285689 278.38204107639984 3.5920792933598418
254.48821709785685 271.8895865083152 2.9128671822386654
239.91259022821754 280.3510212196498 19.721684916248673
240.3156820807583 274.1246090920411 -1.4984346170822493
246.06877747991973 272.0082081057555 1.4595443048880308
244.74277751636052 272.06569479300816 -0.8133525486963666
238.3656267722986 280.618385376997 19.14838169749994
244.57490533393624 264.9666277471546 14.831725851694097
235.2183147699644 269.17201466703887 4.758867713888247
234.2371230769807 281.0080971394894 10.29628071013641
237.14511936297865 264.871123495958 12.072836637966901
256.91400687962806 284.6787559969423 11.712922700680245
237.33237669236718 273.26488364581377 21.76872379136712
257.2997361989251 279.59598003539094 5.1372151504848125
241.83482627696296 281.68046127028055 16.32183632956012
233.0690687764753 280.1662411198496 10.99599353220014
236.84389732548308 276.1253231830988 1.5406238585391752
240.46816789214856 266.36320871838353 19.22157280668504
247.67195576305906 266.0377529770747 10.39887805230234
239.93040385025319 264.1750887242427 10.86910843380432
234.69898329399055 266.59122225517683 9.642504976875856
237.0143196602189 278.06783301239665 20.61605478591281
236.48569108318773 280.57979090095654 5.114214026013236
244.95757412870537 265.54776224192364 7.894143428777795
246.6793010611536 278.80309801256914 4.733051561142935
254.42276193219388 273.39251382839626 3.064890004209193
246.12875529022628 286.0622572392597 15.498947275625701
243.6949841026323 268.1011707377828 2.105118716645116
232.61032554016245 276.50511391291946 5.887045976928568
243.79660823341698 264.9188526755489 17.140963600421045
242.44751277436265 277.19108688359995 0.7497558299930175
231.27146612059343 276.2501924124409 9.792124694587649
234.7861839066606 281.1817803975765 13.775213314645915
232.3313714899171 271.24000770019546 7.5888654769522885
232.20540456931445 278.77071550171775 8.070148355297984
237.76193893481795 265.9297452943329 6.353419790497189
247.6663322249445 266.09579552520773 21.85319917603177
251.73826116194277 282.7819993105204 6.941826203469868
239.88064868211714 279.09219143928925 2.225006684062379
250.88875691224763 287.6448298806265 12.39844914425308
242.47292910552585 281.5851983230946 8.580950812329238
245.83967305585253 275.7699579153991 2.351857550578928
235.03433632830996 266.2545831987495 12.017621188598186
237.594518366541 281.57356371959384 8.90285581483429
239.17282922999786 264.4722157835517 13.007528835408047
241.58269647550594 264.40357856745743 9.212240104395612
236.49112939035155 270.6166482702243 3.053714276358009
238.86517143983517 277.7561250586778 20.900811884857546
239.38712186616658 271.635088482029 21.597106904931486
257.4522327838849 281.93877523563236 7.340698282874405
233.42368041547095 268.02505530216945 12.821148136025805
251.1286687522773 273.2182757069459 3.100581180592467
245.6582668295152 266.1482507099557 19.301383385631016
241.4573666233674 263.96690866097873 13.918393094230865
238.35574397246438 281.7821631906439 16.065276494918564
244.41063910606084 265.6084831090881 18.50461059576683
244.3969863777139 266.834832107893 5.59603064832342
253.3918960135859 284.22203802973047 8.846755622871841
243.31524621649433 264.4720395371047 10.016112632672513
237.63591355435773 271.8036466904481 1.4617285896714318
234.6081874035601 267.4314509472293 7.548444672252271
231.1029613513578 274.61214507605234 14.870161867274785
237.18036585080458 271.18812856872466 20.71474448774747
245.24236776727759 282.8709109846733 24.804447761307586
248.9433801007842 288.4028986576112 17.088531862420297
235.39887111314738 274.53492659225446 20.643468595635216
240.0656195303151 276.64383248273646 22.239385985810625
252.72252697761007 287.9756792257651 20.744331016130623
240.06565480774773 281.94970863281344 12.733859610717797
243.10302276353895 281.6008984715191 9.759805147558929
243.19833987526525 264.64289161610645 15.663022580384162
254.09523958387163 286.4785931900943 10.914718118744073
247.55035065997768 267.8160564827727 23.620031036485127
242.97685161167996 280.3059876968022 5.397349339537983
244.8311379211257 280.0792863984414 6.372557066833738
247.24490838596807 280.7242428155632 6.967429705832359
252.95165326281267 287.5001748972915 22.975649989314693
255.71118222453165 286.7473750250787 17.83343954317599
242.8371745025204 277.8864450724492 24.617860247644924
232.4697467143118 276.0723746300065 17.993373394311007
244.35900295904636 264.57694436215246 11.410904732337505
250.49857157734948 286.64060474191734 11.257627468568012
246.35710046948782 285.34503120157086 12.10162784281193
235.90404252280456 278.17773340386117 2.802051102964782
252.55269329411985 288.26845649928117 15.761753284319408
238.9588979425493 282.12659676932947 10.6698134438389
243.44177763776884 266.7091769746727 4.201567893432665
250.4331313546173 266.0487728444411 8.983411022172355
240.230814495926 268.37446330397444 20.846503941363284
253.12314957617176 287.65213011569904 13.924132893763405
248.04000177440685 285.94031805088997 24.141837895606727
243.16028878588003 274.9676205828453 -0.21704386656905766
244.91968340720558 280.61843997039534 25.005441942425318
248.3536280653115 287.64667060154835 14.41492999757588
253.38776708654763 279.969352407023 29.003320620639244
257.54891688326984 284.66582211911407 22.06403585288733
242.71059137716028 266.2356802767149 19.888498257663596
239.16304367319702 267.9166160353141 2.9542181384710715
244.81902325875168 270.0883286494845 0.9098533594635727
254.9604077019096 286.4116067153652 22.887749191793898
251.0583387344795 288.6818729477993 15.442580965887652
252.34574236794884 286.04337169774357 9.61498646008995
253.77939654697656 282.53797755843436 27.473593946240545
247.06981618348678 273.88887854527275 2.322182298526901
249.62901281532967 288.13275650903046 22.67432451303486
255.94736057582264 286.2799899363004 14.740448617463448
251.33674248647284 288.4733891402428 13.778650448146138
255.895561127787 284.8401554293659 9.682429899914188
242.0525867876978 278.717376175274 2.777746937699071
249.49625800879934 288.6296523765315 18.620957469280828
241.72687058769614 281.49064612184173 7.25631333599996
244.4070042394646 277.6792582639826 25.688904239142023
248.21905785159913 284.9363485214706 9.729867984119112
256.601580830426 285.46233465731694 12.930066457857766
253.61620889419694 287.7058264679924 19.373214007766915
254.5587571195492 287.67527074572234 15.06705423272265
250.37484219940936 280.4971595027254 5.700653369961131
254.02620179142664 281.3800683377747 5.796744118398967
251.22985719944248 279.14970483881217 29.081536073236578
252.48139332560572 282.8414270068006 28.30821408666986
249.68944860826574 283.41524167376036 26.773847734578403
246.64933976579184 279.78202868894533 5.957270392922595
248.1453032797842 277.36374840927385 3.6980696264864577
245.55966397447457 279.5313760030065 25.748282534853765
237.43775071065028 265.4143247624264 16.52312882683197
270.83728013353914 273.39289629557186 15.583199617307553
251.53184816159336 280.13631935154297 5.160019234108998
237.92563606533386 264.74035117380964 9.895390208183063
252.0657708827112 287.70861523378346 24.095569127715446
246.71705567429075 283.9728459294568 25.015330471144953
239.82452564805055 265.26277600882827 6.597343751439125
245.15441840606667 265.02844665768725 12.508645212220848
231.17582695800732 272.88570234244435 11.671577717634737
256.69526477869937 285.7272093332881 20.228350840073713
246.43661383540598 282.76242364406465 8.817396144448509
247.7032424229398 282.04415396754354 7.346556682899531
270.5595887183361 271.73126656723406 10.599208241099813
248.75624954546325 287.1242999474482 23.49294449977012
250.5514203666506 285.8312141401353 26.245410834707943
257.31056040865906 283.20979522065113 24.851967407908305
239.87232620198955 277.2773527970143 0.26050292648030726
245.03106183608412 278.89707091005994 4.761914941524818
255.5952975370727 285.64696640982874 23.963242448491798
249.01400295198914 288.2464352486341 20.509203892063546
256.8331733323431 286.0304025358645 16.493167699392846
252.51715509228285 288.2104208606075 17.838409022508507
246.52775315791115 285.66283573112815 21.603713106569057
249.89594220383844 283.85208799046245 8.230236645743206
235.17839775784122 266.7567780673215 16.21218702754634
265.29359709673787 269.96704574852316 5.827852995336628
236.45437118243706 281.57975969211935 15.543919733986538
248.03986167750165 276.7086512200691 27.052797133224903
239.67818683373983 264.8122041658695 17.184268680211872
232.85678814055356 271.757218889031 5.675603195850522
254.41599278552346 285.52332716232576 25.412030536065725
238.3579903719832 265.8316152564662 18.518890146782045
268.0434929266852 277.19299657410824 13.711317716904002
249.03956204253416 284.87820371012145 26.056864635421157
253.95642517327806 287.1150475928071 21.708465957625666
236.5678479470053 267.1147455923832 18.287664333302793
258.0724973398656 282.73839785833854 9.342323192114128
242.84088124103576 281.4179849636633 20.086833487896087
238.36150106326136 279.6373012960293 20.793703969309544
231.43859685626714 277.8277518429139 12.474456686956561
243.9591369565858 274.4106681789623 25.40483125649073
246.41976113402933 285.9986780217869 17.56351754163332
262.4442370667526 273.41845709982334 31.827552990701587
244.95856896570183 284.715585259418 18.90571756467149
250.29511735153613 282.0862420355546 27.63569556820626
248.30048291310254 285.8133043936081 11.352234670533246
239.45119857824474 274.1452901149816 22.426070854770874
241.54421942481434 270.36501793038934 21.67431785414515
243.68877481632907 283.262670009047 17.823856697686242
235.6466672517441 281.74429303901775 9.907909155145255
242.0678572300641 268.40650791317057 1.5776609248944387
237.0022414922289 268.9779341693864 19.96914021947374
234.42446942639353 280.25777938657666 6.415861938467678
242.19050170013924 275.2278085314223 24.028551676142428
231.69939366541198 272.5146840661931 16.2980153615755
244.35234938230158 272.39974915786314 23.999737447704344
250.78162464937824 288.6568502117027 17.093313223218274
247.63471742059818 287.43115461575786 15.984202752887363
239.8802843152621 281.54442802967293 17.79023892237891
233.99516710706126 268.4639553427768 17.070986845432703
265.984242936374 268.664139688229 6.784404470617259
252.35076994719296 286.25863843491175 25.897306091846403
245.11062742745403 275.4176873012824 26.26788528312062
233.2892725398594 270.1821699154333 18.3568038192983
241.34228602647065 272.62308013646253 22.826612795908414
250.85186542369712 287.99089276634993 23.518960896087652
243.2024435466187 280.4726604634679 23.470021458909986
243.8560783634316 283.14601349845304 13.524910490729603
240.06108158547033 281.82933907265203 15.164439789308913
244.50414840109755 281.57777278652924 23.826038890886075
247.68094077043992 287.32265788606435 20.320304990729678
241.87917003993522 276.7963923151786 23.458231091319593
245.28617193527614 284.5218119525791 21.353294874022502
245.16275662484833 283.91447292873727 11.870679865543414
243.05834816261796 282.13285008387936 12.681020590481273
239.33293569342138 280.32219917835033 3.278219638464079
245.07412467951386 283.75818025866204 23.520942631814172
243.52966900394608 279.80683168515867 24.991915590761224
247.6541645346769 286.91233770109017 22.047835987036084
256.83450238907545 276.2295548893094 3.489167449705761
234.47444799981145 279.4475286080526 18.42458576085852
268.314096063102 276.3420395155574 10.925599186982389
243.42172211316424 270.76292541458326 -0.429216013203035
248.52793654475886 283.38407622353697 8.995476448132766
232.72103307975922 279.1939447455711 15.798242667961752
264.96848047724956 273.69545395721974 6.100235902803406
245.29681368250826 274.18677534438814 0.4783030608604292
238.48813504139403 282.00676235136166 12.383759792246044
241.82520359951963 279.92738151783004 21.58361629374882
256.4422368986467 274.14548069316726 3.406160931259826
261.58989458437816 274.18049858290703 4.672691484435471
245.42463976801037 282.98358720692625 10.322388040423126
263.43215324915224 274.0632357751995 30.625917581928636
246.6831091653811 277.7134716502559 3.527507232106361
265.86660713622973 271.2365058611635 6.0913841289356405
269.30487107077465 271.9005512800956 8.669163198342623
243.51797269402883 279.33663504498725 3.6971373593397385
267.48029322838386 276.07099970771026 9.542018925480427
246.7503344951272 277.4862210135235 26.425735926276985
243.32245588343648 273.8319141369544 23.838842403783122
243.6862328731376 280.91987334062543 7.817519910159079
240.49707567697592 278.96326569575416 21.33380531173497
242.0538216119479 281.59468363503385 11.656709816132627
264.8390959795001 278.1357490377377 8.533857462572625
238.17465413245512 264.86085059490324 14.724768755272162
265.11319784900013 278.0902441423828 10.264346690709393
247.75708923633132 280.0000134307063 26.757431795506843
257.9809180201433 269.02473076502974 4.758403024725701
247.036706700741 286.8042895184002 13.596664315368452
268.2608486506727 276.98571597963905 12.43050015504624
240.60575183115884 282.0182962335577 11.174762579106666
242.92987661732482 281.1656552484491 21.840553365875017
243.45094762464527 282.84138253779753 15.779648488366096
268.7580136659935 273.812274553965 9.17098805349626
252.431932286212 287.09436020181954 12.113132357867077
266.5587834044074 273.8143090538162 7.086623647525476
266.68941913946594 270.2885567179593 6.811692713439992
270.7051374114054 273.7741342375615 12.603782129885767
268.33392067112555 272.8582155433696 8.191103352802227
267.90330246730895 268.06068429453006 8.26196502962669
257.17976625555247 282.84867902685284 8.3402611632175
POLYGONS 2114 8456
3 1045 3 4
3 11 6 5
3 1017 46 50
3 32 30 31
3 32 0 33
3 33 0 1
3 28 33 1
3 29 28 1
3 34 29 1
3 1 2 34
3 3 37 4
3 3 0 32
3 35 34 5
3 2 5 34
3 35 5 6
3 39 37 36
3 39 36 40
3 39 4 37
3 4 39 7
3 6 42 38
3 40 87 41
3 998 44 42
3 1054 44 998
3 963 1054 998
3 47 46 43
3 46 47 50
3 23 27 48
3 48 1053 45
3 49 50 47
3 26 54 27
3 1017 55 24
3 56 24 59
3 56 51 25
3 57 51 56
3 25 24 56
3 58 51 57
3 51 58 54
3 59 24 55
3 61 62 60
3 61 63 62
3 64 65 63
3 64 63 61
3 61 33 64
3 66 67 65
3 66 65 64
3 33 28 64
3 64 28 66
3 69 68 67
3 69 67 66
3 28 29 66
3 66 29 69
3 71 72 68
3 71 68 69
3 29 71 69
3 29 34 71
3 73 72 79
3 71 79 72
3 71 34 35
3 71 35 79
3 74 73 75
3 79 75 73
3 76 30 70
3 76 70 77
3 76 31 30
3 31 76 36
3 35 6 79
3 80 74 75
3 79 6 38
3 84 82 83
3 77 82 78
3 36 84 40
3 38 85 80
3 38 42 85
3 85 86 81
3 85 81 80
3 87 84 83
3 87 40 84
3 90 91 86
3 90 86 85
3 89 149 92
3 44 93 90
3 94 91 90
3 90 93 94
3 96 89 92
3 96 92 95
3 96 43 89
3 43 96 47
3 47 99 49
3 53 52 101
3 49 99 102
3 49 102 55
3 56 59 108
3 105 109 103
3 56 108 104
3 56 104 57
3 105 57 104
3 105 104 109
3 57 105 58
3 105 52 58
3 1035 101 106
3 107 178 108
3 59 107 108
3 108 109 104
3 119 111 110
3 120 112 111
3 120 111 119
3 113 116 114
3 62 115 60
3 117 118 116
3 117 116 113
3 62 63 113
3 113 63 117
3 63 65 117
3 117 65 119
3 65 67 119
3 119 67 120
3 120 121 112
3 123 121 120
3 122 121 123
3 124 122 123
3 125 122 124
3 126 127 128
3 114 127 115
3 60 126 70
3 124 123 129
3 68 129 123
3 68 72 129
3 130 131 125
3 130 125 124
3 124 129 130
3 129 72 73
3 129 73 130
3 132 131 133
3 130 133 131
3 130 73 74
3 130 74 133
3 136 137 132
3 136 132 133
3 74 136 133
3 74 80 136
3 136 80 81
3 136 81 137
3 139 134 140
3 82 141 83
3 77 139 82
3 143 142 138
3 143 138 137
3 81 143 137
3 81 86 143
3 148 147 142
3 148 142 143
3 86 148 143
3 86 91 148
3 152 151 147
3 152 147 148
3 91 152 148
3 91 94 152
3 92 153 95
3 155 156 151
3 155 151 152
3 159 158 173
3 173 160 156
3 103 109 165
3 169 166 167
3 103 165 168
3 103 168 1043
3 169 1043 168
3 169 168 166
3 170 171 169
3 170 169 167
3 158 172 173
3 173 172 160
3 174 176 164
3 179 180 177
3 178 177 180
3 108 178 180
3 108 180 109
3 181 165 179
3 180 179 165
3 180 165 109
3 166 168 181
3 165 181 168
3 182 160 172
3 184 185 183
3 186 187 185
3 186 185 184
3 111 184 110
3 184 111 186
3 189 188 187
3 189 187 186
3 111 112 186
3 186 112 189
3 195 190 188
3 195 188 189
3 191 192 193
3 116 194 114
3 118 184 191
3 116 118 191
3 118 110 184
3 112 195 189
3 112 121 195
3 196 197 190
3 196 190 195
3 195 121 122
3 195 122 196
3 198 197 199
3 196 199 197
3 196 122 125
3 196 125 199
3 200 201 202
3 127 203 128
3 193 201 194
3 114 200 127
3 204 205 198
3 204 198 199
3 125 204 199
3 125 131 204
3 206 205 207
3 204 207 205
3 204 131 132
3 204 132 207
3 202 209 203
3 211 212 206
3 211 206 207
3 132 211 207
3 132 137 211
3 213 212 214
3 211 214 212
3 211 137 138
3 211 138 214
3 134 215 217
3 219 218 213
3 219 213 214
3 138 219 214
3 138 142 219
3 224 223 218
3 224 218 219
3 142 224 219
3 142 147 224
3 228 227 223
3 228 223 224
3 147 228 224
3 147 151 228
3 229 227 230
3 228 230 227
3 151 230 228
3 151 156 230
3 234 233 229
3 234 229 230
3 234 235 233
3 167 166 254
3 167 254 256
3 167 256 170
3 170 256 258
3 160 182 242
3 247 248 245
3 175 248 177
3 249 250 247
3 248 247 250
3 177 248 250
3 177 250 179
3 251 252 249
3 250 249 252
3 179 250 252
3 179 252 181
3 252 251 253
3 252 253 181
3 166 181 253
3 166 253 254
3 254 253 255
3 254 255 256
3 256 255 257
3 256 257 258
3 258 257 259
3 182 172 258
3 182 258 259
3 182 259 260
3 182 260 242
3 242 260 261
3 334 253 251
3 262 255 253
3 262 253 334
3 341 260 259
3 263 260 341
3 260 263 261
3 264 267 265
3 185 266 183
3 268 269 267
3 268 267 264
3 185 187 264
3 264 187 268
3 270 271 269
3 270 269 268
3 187 188 268
3 268 188 270
3 273 272 271
3 273 271 270
3 188 190 270
3 270 190 273
3 274 275 276
3 192 277 193
3 265 275 266
3 183 274 192
3 278 279 272
3 278 272 273
3 190 278 273
3 190 197 278
3 280 279 281
3 278 281 279
3 278 197 198
3 278 198 281
3 282 283 284
3 201 285 202
3 276 283 277
3 193 282 201
3 286 287 280
3 286 280 281
3 198 286 281
3 198 205 286
3 288 287 289
3 286 289 287
3 286 205 206
3 286 206 289
3 290 291 376
3 209 296 210
3 284 291 285
3 202 290 209
3 292 293 288
3 292 288 289
3 206 292 289
3 206 212 292
3 294 293 295
3 292 295 293
3 292 212 213
3 292 213 295
3 297 296 376
3 210 296 298
3 296 297 298
3 299 303 294
3 299 294 295
3 213 299 295
3 213 218 299
3 304 303 299
3 218 304 299
3 218 223 304
3 304 305 303
3 223 308 304
3 223 227 308
3 308 227 229
3 308 229 309
3 229 233 309
3 233 235 313
3 235 317 313
3 235 261 317
3 317 322 313
3 323 322 317
3 261 323 317
3 327 328 325
3 245 328 247
3 328 327 329
3 328 329 247
3 247 329 249
3 249 329 332
3 249 332 251
3 323 336 322
3 409 329 327
3 330 332 329
3 330 329 409
3 331 332 330
3 251 332 334
3 333 334 331
3 332 331 334
3 334 333 335
3 334 335 262
3 262 335 255
3 255 335 338
3 255 338 257
3 257 338 340
3 257 340 259
3 259 340 341
3 341 342 263
3 342 336 323
3 414 335 333
3 337 338 335
3 337 335 414
3 338 337 339
3 340 338 339
3 341 340 339
3 341 339 344
3 342 341 344
3 342 344 345
3 343 339 337
3 344 339 343
3 346 349 347
3 267 348 265
3 350 351 349
3 350 349 346
3 267 269 346
3 346 269 350
3 352 353 351
3 352 351 350
3 269 271 350
3 350 271 352
3 355 354 353
3 355 353 352
3 271 272 352
3 352 272 355
3 356 357 358
3 275 359 276
3 347 357 348
3 265 356 275
3 360 361 354
3 360 354 355
3 272 360 355
3 272 279 360
3 360 279 280
3 360 280 361
3 363 364 365
3 283 366 284
3 358 364 359
3 276 363 283
3 367 368 362
3 367 362 361
3 280 367 361
3 280 287 367
3 367 287 288
3 367 288 368
3 370 371 372
3 365 371 366
3 284 370 291
3 373 374 369
3 373 369 368
3 288 373 368
3 288 293 373
3 373 293 294
3 373 294 374
3 377 376 372
3 376 377 297
3 379 378 375
3 379 375 374
3 294 379 374
3 294 303 379
3 383 384 378
3 383 378 379
3 303 383 379
3 383 303 305
3 383 305 384
3 387 388 384
3 305 387 384
3 305 309 387
3 387 309 310
3 387 310 392
3 392 389 388
3 310 313 392
3 392 313 322
3 392 322 389
3 400 401 389
3 322 400 389
3 325 406 327
3 322 336 400
3 412 401 400
3 400 336 412
3 407 408 477
3 327 408 409
3 408 407 409
3 481 410 407
3 409 407 410
3 330 409 410
3 330 410 331
3 410 481 411
3 410 411 331
3 331 411 333
3 336 342 345
3 413 411 481
3 345 415 336
3 416 414 413
3 337 416 343
3 416 484 417
3 416 417 343
3 343 417 344
3 344 417 345
3 345 485 415
3 485 345 417
3 349 418 347
3 419 422 420
3 423 424 422
3 423 422 419
3 351 353 419
3 419 353 423
3 353 354 423
3 426 429 427
3 357 428 358
3 430 429 418
3 347 426 357
3 420 430 421
3 418 421 430
3 432 425 431
3 425 354 431
3 354 361 431
3 433 432 434
3 431 434 432
3 431 361 362
3 431 362 434
3 435 436 437
3 364 438 365
3 427 436 428
3 358 435 364
3 439 440 433
3 439 433 434
3 362 439 434
3 362 368 439
3 439 368 369
3 439 369 440
3 442 443 444
3 371 447 372
3 437 443 438
3 365 442 371
3 445 446 441
3 445 441 440
3 369 445 440
3 369 374 445
3 445 374 375
3 445 375 446
3 448 447 444
3 372 447 451
3 447 448 451
3 449 454 446
3 375 449 446
3 375 378 449
3 381 450 382
3 452 451 448
3 453 454 449
3 378 453 449
3 378 384 453
3 453 384 388
3 458 455 388
3 456 457 450
3 382 450 460
3 382 460 386
3 450 457 460
3 450 452 456
3 458 388 389
3 458 389 459
3 461 462 457
3 460 457 462
3 401 465 459
3 465 518 459
3 401 412 465
3 478 479 476
3 477 476 479
3 407 477 479
3 479 478 481
3 479 481 407
3 412 415 482
3 412 538 465
3 536 481 478
3 480 481 536
3 481 480 413
3 413 483 416
3 483 539 484
3 483 484 416
3 482 485 540
3 415 485 482
3 586 484 539
3 484 586 417
3 540 485 586
3 417 586 485
3 422 486 420
3 490 493 491
3 429 492 427
3 494 495 493
3 494 493 490
3 429 430 490
3 490 430 494
3 487 495 486
3 420 494 430
3 486 488 487
3 496 498 489
3 424 496 489
3 424 425 496
3 496 497 498
3 496 425 432
3 496 432 497
3 503 498 497
3 497 432 433
3 499 500 501
3 436 506 437
3 491 500 492
3 427 499 436
3 502 503 497
3 433 502 497
3 433 440 502
3 502 504 503
3 502 440 441
3 502 441 504
3 443 505 444
3 507 506 501
3 443 437 506
3 443 506 505
3 506 507 505
3 441 446 504
3 504 446 508
3 509 510 505
3 444 505 512
3 444 512 448
3 505 510 512
3 505 507 509
3 511 508 514
3 513 512 510
3 448 512 516
3 448 516 452
3 512 513 516
3 515 511 514
3 514 454 455
3 514 455 515
3 515 455 458
3 456 519 457
3 517 516 513
3 456 452 516
3 456 516 519
3 516 517 519
3 459 518 515
3 458 459 515
3 520 519 517
3 457 519 461
3 461 519 521
3 519 520 521
3 522 521 520
3 461 521 463
3 463 521 523
3 521 522 523
3 465 584 518
3 524 525 522
3 523 522 525
3 466 523 525
3 466 525 468
3 526 525 524
3 538 584 465
3 530 531 529
3 530 529 528
3 472 531 474
3 532 533 530
3 531 530 533
3 474 531 533
3 534 535 532
3 533 532 535
3 476 533 535
3 476 535 478
3 582 536 535
3 582 535 534
3 478 535 536
3 583 537 582
3 536 582 537
3 536 537 480
3 539 537 583
3 480 537 539
3 540 538 482
3 586 587 540
3 489 541 487
3 493 542 491
3 495 487 543
3 590 545 541
3 541 489 546
3 541 546 590
3 489 498 546
3 546 498 551
3 498 503 551
3 500 547 501
3 548 549 542
3 500 491 542
3 545 548 544
3 542 544 548
3 550 546 551
3 552 550 551
3 503 504 553
3 554 555 547
3 501 547 560
3 501 560 507
3 547 555 560
3 547 549 554
3 557 552 553
3 553 504 556
3 553 556 557
3 504 508 556
3 558 557 556
3 509 559 510
3 561 560 555
3 509 507 560
3 509 560 559
3 560 561 559
3 511 562 558
3 511 558 556
3 508 511 556
3 510 559 565
3 510 565 513
3 559 563 565
3 559 561 563
3 511 515 562
3 562 515 518
3 562 518 564
3 566 565 563
3 513 565 567
3 513 567 517
3 565 566 567
3 619 564 584
3 568 567 566
3 517 567 569
3 517 569 520
3 567 568 569
3 570 569 568
3 520 569 571
3 520 571 522
3 569 570 571
3 610 572 570
3 571 570 572
3 522 571 572
3 522 572 524
3 573 574 572
3 573 572 610
3 524 572 574
3 524 574 526
3 614 575 573
3 574 573 575
3 526 574 575
3 526 575 528
3 576 577 575
3 576 575 614
3 528 575 577
3 528 577 530
3 578 579 576
3 577 576 579
3 530 577 579
3 530 579 532
3 617 580 578
3 579 578 580
3 532 579 580
3 532 580 534
3 581 582 580
3 581 580 617
3 534 580 582
3 620 583 581
3 582 581 583
3 584 538 588
3 584 588 619
3 622 585 620
3 583 620 585
3 539 583 585
3 539 585 586
3 587 586 585
3 587 585 622
3 587 588 540
3 548 591 549
3 593 592 589
3 548 545 589
3 589 590 593
3 594 593 590
3 550 598 594
3 550 552 598
3 554 595 555
3 596 597 591
3 554 549 591
3 591 592 596
3 599 626 598
3 552 557 598
3 598 557 599
3 557 558 600
3 555 595 603
3 555 603 561
3 595 601 603
3 595 597 601
3 600 558 602
3 558 562 602
3 604 603 601
3 563 561 603
3 563 603 605
3 603 604 605
3 562 564 602
3 606 605 604
3 605 606 607
3 632 564 619
3 608 607 606
3 607 608 609
3 612 609 608
3 609 612 610
3 610 612 573
3 612 611 614
3 573 612 614
3 613 614 611
3 615 616 613
3 614 613 616
3 576 614 616
3 576 616 578
3 645 617 615
3 616 615 617
3 578 616 617
3 646 618 645
3 617 645 618
3 581 617 618
3 581 618 620
3 619 621 632
3 646 620 618
3 647 622 646
3 620 646 622
3 619 588 648
3 619 648 621
3 587 622 588
3 648 588 622
3 593 624 592
3 596 623 597
3 596 592 624
3 625 624 593
3 593 626 625
3 627 625 626
3 626 599 627
3 630 629 623
3 601 597 623
3 623 624 630
3 631 633 628
3 631 628 627
3 599 631 627
3 599 600 631
3 631 600 602
3 631 602 633
3 601 629 634
3 601 634 604
3 629 653 634
3 602 564 632
3 635 634 653
3 604 634 636
3 604 636 606
3 634 635 636
3 637 636 635
3 606 636 638
3 606 638 608
3 636 637 638
3 639 638 637
3 608 638 640
3 608 640 612
3 638 639 640
3 656 641 639
3 640 639 641
3 642 641 656
3 611 642 613
3 659 643 642
3 613 642 643
3 613 643 615
3 660 644 659
3 643 659 644
3 615 643 644
3 615 644 645
3 661 645 644
3 661 644 660
3 645 661 646
3 646 661 647
3 622 647 648
3 650 663 662
3 628 663 650
3 650 627 628
3 630 653 629
3 662 651 649
3 630 624 649
3 649 650 662
3 652 628 633
3 665 653 664
3 635 653 665
3 635 665 637
3 637 665 655
3 637 655 639
3 639 655 656
3 655 654 656
3 654 657 656
3 642 656 657
3 658 659 657
3 658 657 654
3 642 657 659
3 659 658 660
3 647 621 648
3 651 664 653
3 651 666 664
3 651 662 666
3 652 633 632
3 673 666 662
3 664 666 667
3 666 668 667
3 666 673 668
3 655 667 654
3 654 667 668
3 621 652 632
3 654 668 658
3 658 668 669
3 658 669 660
3 660 669 980
3 660 980 661
3 661 980 1030
3 662 663 673
3 673 980 669
3 0 3 1045
3 4 7 12
3 26 22 21
3 61 30 32
3 32 33 61
3 31 36 37
3 3 32 31
3 31 37 3
3 39 40 41
3 50 49 55
3 55 1017 50
3 60 70 30
3 30 61 60
3 76 77 78
3 78 36 76
3 84 36 78
3 78 82 84
3 102 176 107
3 113 114 115
3 115 62 113
3 110 118 117
3 117 119 110
3 128 70 126
3 126 60 115
3 115 127 126
3 128 208 135
3 141 82 139
3 97 159 155
3 100 158 159
3 159 97 100
3 191 193 194
3 194 116 191
3 183 192 191
3 191 184 183
3 200 202 203
3 203 127 200
3 200 114 194
3 194 201 200
3 208 128 203
3 203 209 208
3 242 261 235
3 235 234 242
3 264 265 266
3 266 185 264
3 274 276 277
3 277 192 274
3 274 183 266
3 266 275 274
3 282 284 285
3 285 201 282
3 282 193 277
3 277 283 282
3 290 376 296
3 296 209 290
3 290 202 285
3 285 291 290
3 308 309 305
3 305 304 308
3 233 313 310
3 310 309 233
3 263 342 323
3 323 261 263
3 346 347 348
3 348 267 346
3 356 358 359
3 359 275 356
3 356 265 348
3 348 357 356
3 363 365 366
3 366 283 363
3 363 276 359
3 359 364 363
3 370 372 376
3 376 291 370
3 370 284 366
3 366 371 370
3 377 381 380
3 406 477 408
3 408 327 406
3 411 413 414
3 414 333 411
3 336 415 412
3 416 337 414
3 349 351 421
3 421 418 349
3 419 420 421
3 421 351 419
3 423 354 425
3 425 424 423
3 426 427 428
3 428 357 426
3 426 347 418
3 418 429 426
3 435 437 438
3 438 364 435
3 435 358 428
3 428 436 435
3 442 444 447
3 447 371 442
3 442 365 438
3 438 443 442
3 412 482 538
3 480 539 483
3 483 413 480
3 422 424 488
3 488 486 422
3 489 487 488
3 488 424 489
3 490 491 492
3 492 429 490
3 494 420 486
3 486 495 494
3 499 501 506
3 506 436 499
3 499 427 492
3 492 500 499
3 493 495 544
3 544 542 493
3 543 545 544
3 544 495 543
3 543 487 541
3 541 545 543
3 551 503 553
3 553 552 551
3 500 542 549
3 549 547 500
3 518 584 564
3 588 538 540
3 590 589 545
3 550 594 590
3 590 546 550
3 548 589 592
3 592 591 548
3 594 598 626
3 599 557 600
3 554 591 597
3 597 595 554
3 593 594 626
3 624 623 596
3 633 602 632
3 601 623 629
3 624 625 649
3 625 627 650
3 650 649 625
3 652 663 628
3 630 649 651
3 651 653 630
3 621 1030 652
3 8 1 0
3 2 1 8
3 1045 4 12
3 8 0 1045
3 10 2 9
3 9 2 8
3 11 5 10
3 10 5 2
3 16 12 7
3 13 1045 12
3 13 8 1045
3 14 9 13
3 13 9 8
3 15 10 14
3 14 10 9
3 15 11 10
3 16 7 1027
3 16 17 12
3 17 13 12
3 17 18 13
3 18 14 13
3 18 22 14
3 22 15 14
3 19 16 1027
3 19 20 16
3 20 17 16
3 20 21 17
3 21 18 17
3 21 22 18
3 1017 1027 46
3 24 19 1017
3 1017 19 1027
3 24 25 19
3 25 20 19
3 667 665 664
3 667 655 665
3 669 668 673
3 980 673 663
3 652 980 663
3 652 1030 980
3 455 454 453
3 453 388 455
3 609 610 570
3 570 568 609
3 1030 621 647
3 647 661 1030
3 67 68 123
3 123 120 67
3 387 392 388
3 459 389 401
3 508 446 454
3 454 514 508
3 605 607 566
3 566 563 605
3 607 609 568
3 568 566 607
3 641 642 611
3 38 80 75
3 75 79 38
3 160 242 234
3 641 611 640
3 640 611 612
3 42 1057 85
3 85 1057 90
3 42 44 1057
3 1057 44 90
3 45 1056 93
3 173 1055 159
3 159 1055 155
3 173 156 1055
3 1055 156 155
3 45 93 1054
3 1054 93 44
3 98 1056 1053
3 1053 1056 45
3 97 1051 100
3 100 1051 98
3 97 1056 1051
3 1051 1056 98
3 397 1049 396
3 26 27 22
3 27 23 22
3 170 1047 171
3 1047 172 158
3 468 1044 466
3 469 467 1044
3 169 171 1043
3 1043 171 106
3 105 1041 52
3 1043 106 1041
3 54 58 53
3 53 58 52
3 93 1033 94
3 94 1033 97
3 93 1056 1033
3 1033 1056 97
3 23 1032 963
3 963 1032 1054
3 23 48 1032
3 1054 1032 45
3 45 1032 48
3 948 1029 239
3 238 237 1029
3 20 1028 21
3 1028 26 21
3 22 23 15
3 23 963 15
3 27 1023 48
3 53 1053 1023
3 1023 1053 48
3 25 51 1028
3 1028 20 25
3 239 1021 948
3 26 1028 54
3 54 1028 51
3 1035 1019 100
3 100 1019 158
3 1047 158 1019
3 1019 171 1047
3 171 1035 106
3 171 1019 1035
3 238 883 237
3 232 1040 883
3 883 1040 237
3 239 1029 1011
3 1011 1029 237
3 1010 397 396
3 396 1049 1007
3 386 1037 1002
3 1002 1037 391
3 463 1036 1000
3 472 999 470
3 1050 1005 316
3 6 998 42
3 6 11 998
3 462 993 460
3 460 993 386
3 462 1037 993
3 993 1037 386
3 464 991 1037
3 1037 991 391
3 464 1009 991
3 991 1009 391
3 1014 396 1007
3 386 1002 985
3 984 1002 391
3 397 986 315
3 318 1050 986
3 397 1010 981
3 981 1010 399
3 320 979 399
3 318 981 979
3 979 981 399
3 462 978 1037
3 1037 978 464
3 462 1000 978
3 978 1000 464
3 983 1046 240
3 395 975 315
3 315 975 397
3 395 1049 975
3 975 1049 397
3 324 891 326
3 891 405 325
3 405 972 404
3 1036 466 1044
3 101 52 106
3 52 1041 106
3 466 965 523
3 523 965 463
3 466 1036 965
3 965 1036 463
3 11 963 998
3 11 15 963
3 161 961 163
3 163 961 241
3 161 1021 961
3 961 1021 241
3 395 1026 1049
3 1049 1026 394
3 395 1039 1026
3 1026 1039 394
3 328 958 325
3 328 245 958
3 477 475 476
3 1011 237 1005
3 1005 319 1011
3 397 981 986
3 986 981 318
3 475 956 474
3 475 404 956
3 979 320 995
3 529 933 527
3 933 472 470
3 1014 398 1010
3 1010 396 1014
3 471 952 999
3 999 952 470
3 471 971 952
3 952 971 470
3 1043 1041 103
3 103 1041 105
3 94 950 152
3 152 950 155
3 94 97 950
3 950 97 155
3 157 949 161
3 948 1021 949
3 949 1021 161
3 238 948 154
3 238 1029 948
3 406 947 404
3 404 947 405
3 406 325 947
3 947 325 405
3 948 949 154
3 53 101 1053
3 101 98 1053
3 971 943 469
3 943 398 1014
3 471 999 942
3 942 999 473
3 156 939 230
3 230 939 234
3 156 160 939
3 939 160 234
3 1036 1044 937
3 937 1044 467
3 172 970 258
3 258 970 170
3 172 1047 970
3 970 1047 170
3 474 968 472
3 473 999 968
3 968 999 472
3 468 527 982
3 154 1038 238
3 53 1023 54
3 54 1023 27
3 153 935 157
3 469 934 971
3 971 934 470
3 469 982 934
3 934 982 470
3 469 943 467
3 399 960 1016
3 1016 960 398
3 399 1010 960
3 960 1010 398
3 527 932 526
3 526 932 525
3 527 468 932
3 932 468 525
3 470 982 933
3 933 982 527
3 476 953 533
3 533 953 474
3 476 475 953
3 953 475 474
3 164 931 162
3 164 176 931
3 931 176 102
3 157 161 930
3 930 161 162
3 326 929 324
3 928 972 405
3 175 1058 174
3 174 1058 176
3 150 955 1031
3 149 936 92
3 92 936 153
3 149 1031 936
3 936 1031 153
3 243 927 246
3 245 248 927
3 239 926 1021
3 1021 926 241
3 239 983 926
3 926 983 241
3 464 1000 925
3 925 1000 1036
3 403 923 957
3 957 923 320
3 403 994 923
3 246 921 244
3 244 921 174
3 246 175 921
3 921 175 174
3 321 920 240
3 245 927 919
3 919 927 243
3 918 957 1016
3 241 915 163
3 898 914 994
3 994 914 321
3 898 920 914
3 914 920 321
3 473 913 972
3 972 913 404
3 473 956 913
3 913 956 404
3 937 1015 925
3 925 1036 937
3 910 380 385
3 404 909 406
3 406 909 477
3 404 475 909
3 909 475 477
3 529 908 528
3 528 908 526
3 529 527 908
3 908 527 526
3 1046 907 240
3 240 907 321
3 1046 995 907
3 907 995 321
3 1015 906 1007
3 1007 906 467
3 1015 937 906
3 906 937 467
3 471 904 971
3 904 1016 398
3 1052 903 243
3 898 929 903
3 903 929 243
3 144 767 141
3 324 929 898
3 1011 896 239
3 1046 983 896
3 896 983 239
3 958 245 919
3 919 326 958
3 956 473 968
3 968 474 956
3 971 904 943
3 943 904 398
3 241 983 895
3 895 983 240
3 464 892 1009
3 464 925 892
3 892 925 1015
3 325 958 891
3 891 958 326
3 402 890 972
3 972 890 473
3 402 942 890
3 890 942 473
3 157 889 949
3 949 889 154
3 157 935 889
3 889 935 154
3 154 888 1038
3 154 935 888
3 888 935 955
3 326 919 929
3 929 919 243
3 244 885 246
3 246 885 243
3 885 1052 243
3 238 1038 883
3 1046 896 319
3 319 896 1011
3 972 881 402
3 402 881 403
3 972 928 881
3 881 928 403
3 915 241 895
3 895 1052 915
3 316 1012 1040
3 1040 1012 237
3 316 1005 1012
3 1012 1005 237
3 391 1009 880
3 321 878 994
3 321 995 878
3 878 995 320
3 467 877 1007
3 1007 877 1014
3 467 943 877
3 877 943 1014
3 390 876 989
3 163 871 164
3 164 871 174
3 871 244 174
3 220 870 140
3 140 870 144
3 220 900 870
3 870 900 144
3 297 869 298
3 216 867 221
3 216 884 867
3 380 866 377
3 377 866 297
3 380 869 866
3 866 869 297
3 87 865 41
3 865 89 43
3 920 898 903
3 903 1052 920
3 910 301 869
3 869 380 910
3 1002 862 985
3 1002 984 862
3 923 994 878
3 878 320 923
3 888 955 887
3 887 1038 888
3 176 863 107
3 107 863 178
3 176 1058 863
3 863 1058 178
3 391 880 984
3 984 880 393
3 150 1031 855
3 855 1031 149
3 232 854 924
3 924 854 1038
3 232 883 854
3 854 883 1038
3 1052 853 920
3 920 853 240
3 1052 895 853
3 853 895 240
3 924 1038 887
3 922 852 236
3 164 851 163
3 163 851 161
3 164 162 851
3 851 162 161
3 451 850 372
3 372 850 377
3 451 381 850
3 850 381 377
3 1009 892 394
3 394 892 1015
3 902 385 985
3 150 844 922
3 298 843 884
3 884 843 301
3 298 869 843
3 843 869 301
3 876 390 862
3 867 300 858
3 989 973 302
3 306 1042 938
3 1042 858 300
3 318 840 319
3 995 1046 840
3 840 1046 319
3 839 43 46
3 162 931 99
3 99 931 102
3 217 837 134
3 134 837 140
3 837 220 140
3 1052 885 915
3 915 885 244
3 221 833 859
3 910 831 301
3 831 902 302
3 966 301 831
3 89 865 88
3 88 865 87
3 55 827 59
3 59 827 107
3 55 102 827
3 827 102 107
3 928 959 403
3 403 959 994
3 928 324 959
3 984 826 862
3 862 826 876
3 856 824 306
3 246 825 175
3 175 825 248
3 246 927 825
3 825 927 248
3 307 695 879
3 876 826 695
3 695 826 879
3 244 871 915
3 915 871 163
3 879 826 393
3 393 826 984
3 95 940 99
3 99 940 162
3 95 930 940
3 940 930 162
3 208 832 135
3 135 832 134
3 208 215 832
3 832 215 134
3 178 974 177
3 177 974 175
3 178 1058 974
3 974 1058 175
3 395 816 1039
3 1039 816 976
3 1027 7 839
3 839 46 1027
3 315 828 996
3 316 1006 828
3 828 1006 996
3 41 815 39
3 39 815 7
3 41 839 815
3 815 839 7
3 99 814 95
3 95 814 96
3 99 47 814
3 814 47 96
3 157 813 153
3 153 813 95
3 157 930 813
3 813 930 95
3 1040 882 316
3 316 882 1006
3 882 314 1006
3 153 838 935
3 935 838 955
3 153 1031 838
3 838 1031 955
3 316 828 1050
3 468 811 1044
3 1044 811 469
3 468 982 811
3 811 982 469
3 463 810 461
3 461 810 462
3 463 1000 810
3 810 1000 462
3 319 809 318
3 318 809 1050
3 319 1005 809
3 809 1005 1050
3 976 861 1039
3 393 880 861
3 861 880 1039
3 995 840 979
3 979 840 318
3 472 916 531
3 531 916 529
3 472 933 916
3 916 933 529
3 215 894 217
3 216 221 894
3 298 821 210
3 210 821 216
3 298 884 821
3 821 884 216
3 312 820 996
3 976 816 820
3 820 816 996
3 917 1024 855
3 855 149 917
3 471 951 904
3 904 951 1016
3 471 918 951
3 951 918 1016
3 967 808 847
3 394 1004 1049
3 1049 1004 1007
3 394 1015 1004
3 1004 1015 1007
3 402 1003 942
3 942 1003 471
3 402 918 1003
3 1003 918 471
3 938 962 306
3 917 818 1024
3 911 807 225
3 393 861 835
3 835 861 976
3 141 804 144
3 144 804 140
3 141 139 804
3 804 139 140
3 324 803 891
3 891 803 405
3 324 928 803
3 803 928 405
3 311 802 992
3 997 1001 802
3 905 801 1024
3 150 855 801
3 801 855 1024
3 994 959 898
3 898 959 324
3 962 938 973
3 836 796 990
3 897 797 796
3 834 795 874
3 225 849 793
3 386 792 382
3 382 792 385
3 386 985 792
3 792 985 385
3 1022 806 791
3 791 806 893
3 859 833 786
3 786 833 941
3 1039 789 394
3 394 789 1009
3 1039 880 789
3 789 880 1009
3 788 835 976
3 876 785 989
3 997 784 1001
3 784 973 989
3 875 798 782
3 782 798 946
3 900 781 841
3 781 807 911
3 382 780 381
3 381 780 380
3 382 385 780
3 780 385 380
3 875 777 992
3 992 777 311
3 875 782 777
3 777 782 311
3 776 860 873
3 220 775 900
3 944 807 775
3 922 774 852
3 852 774 954
3 922 844 774
3 774 844 954
3 864 770 222
3 311 812 770
3 770 812 222
3 819 1024 818
3 818 912 819
3 769 776 873
3 98 1035 100
3 98 101 1035
3 767 841 912
3 220 837 766
3 766 837 217
3 314 764 964
3 964 764 846
3 314 800 764
3 764 800 846
3 905 763 844
3 844 763 954
3 762 791 893
3 808 874 795
3 70 901 77
3 77 901 135
3 70 128 901
3 901 128 135
3 922 1034 150
3 150 1034 955
3 1034 887 955
3 966 969 938
3 302 973 969
3 969 973 938
3 938 760 966
3 966 760 300
3 938 1042 760
3 760 1042 300
3 860 822 759
3 225 758 911
3 758 822 860
3 857 757 987
3 990 783 757
3 757 783 987
3 858 755 867
3 867 755 221
3 858 833 755
3 755 833 221
3 944 775 754
3 754 775 220
3 964 846 753
3 225 751 849
3 849 751 944
3 225 807 751
3 751 807 944
3 820 312 788
3 788 976 820
3 806 750 875
3 977 798 750
3 750 798 875
3 859 872 221
3 859 766 872
3 872 766 217
3 794 797 842
3 990 757 836
3 894 221 872
3 872 217 894
3 797 897 805
3 805 897 830
3 210 749 209
3 209 749 208
3 210 215 749
3 749 215 208
3 301 748 884
3 301 966 748
3 748 966 300
3 924 747 232
3 924 765 747
3 847 697 967
3 226 787 697
3 697 787 967
3 845 745 226
3 841 744 912
3 874 743 834
3 875 742 806
3 806 742 893
3 742 790 893
3 797 741 842
3 741 787 842
3 742 875 992
3 766 859 754
3 754 220 766
3 884 748 867
3 867 748 300
3 307 790 739
3 911 776 738
3 860 737 873
3 860 759 737
3 737 759 231
3 987 736 857
3 857 736 899
3 987 800 736
3 736 800 899
3 776 911 758
3 758 860 776
3 403 735 402
3 402 735 918
3 403 957 735
3 735 957 918
3 887 734 236
3 236 734 922
3 887 1034 734
3 734 1034 922
3 222 733 864
3 864 733 856
3 733 834 856
3 731 812 946
3 812 730 222
3 730 795 222
3 311 799 802
3 311 770 799
3 799 770 864
3 781 911 738
3 232 747 899
3 899 747 857
3 1018 729 753
3 1018 788 729
3 729 788 312
3 834 728 856
3 941 824 728
3 728 824 856
3 824 727 858
3 858 727 833
3 824 941 727
3 727 941 833
3 954 726 852
3 830 897 726
3 747 778 857
3 747 765 778
3 306 681 856
3 856 681 864
3 306 962 681
3 762 893 790
3 1022 725 772
3 772 725 846
3 1022 753 725
3 725 753 846
3 236 724 765
3 724 756 836
3 139 752 134
3 134 752 135
3 139 77 752
3 752 77 135
3 150 801 844
3 844 801 905
3 841 722 900
3 900 722 144
3 841 767 722
3 722 767 144
3 873 737 721
3 721 737 231
3 846 800 720
3 720 800 987
3 785 1001 784
3 784 989 785
3 772 719 1022
3 1022 719 806
3 772 977 719
3 765 718 236
3 236 718 887
3 765 924 718
3 718 924 887
3 805 231 741
3 741 797 805
3 731 717 226
3 226 717 845
3 731 946 717
3 944 723 786
3 786 723 859
3 944 754 723
3 723 754 859
3 786 716 944
3 944 716 849
3 786 941 716
3 1018 715 788
3 788 715 835
3 868 964 312
3 964 868 314
3 314 868 1006
3 796 797 794
3 794 990 796
3 795 834 733
3 733 222 795
3 793 849 743
3 743 874 793
3 307 712 785
3 785 712 1001
3 307 739 712
3 712 739 1001
3 1006 868 996
3 868 312 996
3 967 768 808
3 808 768 822
3 967 759 768
3 768 759 822
3 977 711 798
3 798 711 845
3 977 773 711
3 711 773 845
3 822 710 793
3 793 710 225
3 822 758 710
3 710 758 225
3 782 946 311
3 311 946 812
3 824 708 306
3 306 708 1042
3 824 858 708
3 708 858 1042
3 857 778 757
3 757 778 836
3 799 706 802
3 802 706 997
3 799 864 706
3 798 845 717
3 717 946 798
3 973 709 962
3 962 709 997
3 973 784 709
3 709 784 997
3 879 707 307
3 307 707 790
3 879 762 707
3 707 762 790
3 753 705 964
3 964 705 312
3 753 729 705
3 705 729 312
3 962 997 706
3 738 776 769
3 743 941 728
3 728 834 743
3 1022 704 753
3 753 704 1018
3 1022 791 704
3 704 791 1018
3 990 703 783
3 783 703 848
3 990 794 703
3 703 794 848
3 992 702 742
3 742 702 790
3 992 739 702
3 702 739 790
3 226 701 787
3 787 701 842
3 226 745 701
3 701 745 842
3 848 700 783
3 783 700 829
3 848 773 700
3 700 773 829
3 817 714 771
3 714 769 873
3 795 730 808
3 808 730 847
3 847 731 697
3 697 731 226
3 745 696 842
3 842 696 794
3 745 848 696
3 696 848 794
3 141 698 83
3 83 698 146
3 141 767 698
3 698 767 146
3 307 785 695
3 695 785 876
3 822 694 808
3 808 694 874
3 822 793 694
3 694 793 874
3 1001 693 802
3 802 693 992
3 1001 739 693
3 693 739 992
3 759 692 231
3 759 967 692
3 692 967 787
3 731 847 730
3 730 812 731
3 715 691 762
3 762 691 791
3 715 1018 691
3 691 1018 791
3 772 690 977
3 977 690 773
3 772 829 690
3 690 829 773
3 745 689 848
3 848 689 773
3 745 845 689
3 689 845 773
3 829 823 783
3 783 823 987
3 829 720 823
3 823 720 987
3 846 688 772
3 772 688 829
3 846 720 688
3 688 720 829
3 743 849 716
3 716 941 743
3 778 765 724
3 724 836 778
3 302 687 989
3 989 687 390
3 302 902 687
3 687 902 390
3 390 686 862
3 862 686 985
3 390 902 686
3 686 902 985
3 852 726 756
3 756 726 897
3 830 684 805
3 805 684 231
3 830 721 684
3 684 721 231
3 741 231 692
3 692 787 741
3 88 683 89
3 89 683 149
3 88 917 683
3 683 917 149
3 900 682 781
3 781 682 807
3 900 775 682
3 682 775 807
3 962 706 681
3 681 706 864
3 399 1008 320
3 320 1008 957
3 399 1016 1008
3 1008 1016 957
3 750 806 719
3 719 977 750
3 738 988 781
3 781 988 841
3 738 744 988
3 988 744 841
3 756 779 836
3 836 779 796
3 756 897 779
3 779 897 796
3 879 685 762
3 835 715 685
3 685 715 762
3 830 680 771
3 771 680 954
3 830 726 680
3 680 726 954
3 721 830 771
3 756 1013 852
3 852 1013 236
3 756 724 1013
3 1013 724 236
3 954 679 771
3 771 679 817
3 954 763 679
3 679 763 817
3 314 1025 800
3 800 1025 899
3 314 882 1025
3 1025 882 899
3 216 945 210
3 210 945 215
3 216 894 945
3 945 894 215
3 835 685 393
3 393 685 879
3 902 732 385
3 385 732 910
3 902 831 732
3 732 831 910
3 302 969 831
3 831 969 966
3 451 886 381
3 381 886 450
3 451 452 886
3 886 452 450
3 819 746 1024
3 1024 746 905
3 819 761 746
3 746 761 905
3 873 721 714
3 714 721 771
3 905 740 763
3 763 740 817
3 905 761 740
3 740 761 817
3 738 713 744
3 744 713 145
3 738 769 713
3 713 769 145
3 769 699 145
3 769 714 699
3 699 714 817
3 146 678 88
3 88 678 917
3 146 818 678
3 678 818 917
3 899 1048 232
3 232 1048 1040
3 899 882 1048
3 1048 882 1040
3 83 677 87
3 87 677 88
3 83 146 677
3 677 146 88
3 145 1020 744
3 819 912 1020
3 1020 912 744
3 145 676 761
3 761 676 817
3 145 699 676
3 676 699 817
3 912 675 767
3 767 675 146
3 912 818 675
3 675 818 146
3 819 674 761
3 761 674 145
3 819 1020 674
3 674 1020 145
3 996 672 315
3 315 672 395
3 996 816 672
3 672 816 395
3 1050 671 986
3 986 671 315
3 1050 828 671
3 671 828 315
3 43 670 865
3 865 670 41
3 43 839 670
3 670 839 41
