# vtk DataFile Version 3.0
A great-looking cell
ASCII
DATASET POLYDATA
POINTS 902 double
282.66834588606105 121.21950669612053 36.31934425357427
270.40513712993896 105.17699582465299 11.396460861011219
255.52945469053458 121.36292522637048 23.330224616206525
273.88654202027266 113.71328064861615 10.816537592768999
256.1200660582468 118.63721696456348 39.799417340128116
255.46488358973346 121.73646818039275 38.42592060478954
281.15013766176 128.689023595962 35.799650519974186
271.36284730459676 106.54266923129376 8.599251343503948
253.25844244632572 118.67694778122835 23.76839722338361
274.8625502519863 109.13809947873847 9.207473460655589
253.8437792174129 122.50277854805854 25.145242471381714
268.0594195328167 107.10928112847562 9.971248364329462
250.86202294898243 122.6145326677588 28.415889628804724
264.6187660456556 110.36466474842481 14.313859255710948
257.1497093689575 124.59419292859583 36.60890607869955
281.0333499634957 129.8405713592147 28.964850131094767
267.19587871072997 108.90728336647787 12.361657847317431
268.50187438456646 105.62476888717804 11.320575480204637
269.9111177996655 104.91409764511081 15.14631150026337
267.069737627137 105.48431240661536 12.726857492651073
271.107035254849 105.56299466928189 12.777864610183824
259.3214101301675 126.13684052194317 34.750695803882884
261.3463445513912 119.96310917488933 39.59361556250345
274.9505954102088 107.61494141743005 12.846778120184158
255.75010482822995 111.30207096297592 23.464057255942507
271.14478570109816 105.50100828709023 14.324136532262818
262.3953064466763 108.53573473259608 14.352321371858201
259.64301649676554 109.98939170890515 17.72208376748366
254.1008126636506 124.5437063664277 30.214022832505695
280.9444824791021 130.89154456283958 30.25068625722844
256.62510778310167 115.82119346509789 38.483446896931895
257.81696467308575 117.26594086150907 39.65938280599319
275.9685891708629 110.17146525819905 12.252095753358134
253.64537167054715 112.5674639485312 25.709075779424136
268.7987439882651 128.5440821941247 25.526072364995215
254.56436581463117 119.92172540726038 38.550507962918715
272.72865089501863 106.63531801442862 10.087130616443574
275.1877052342482 111.21033590745346 8.88597541741716
275.3161812172338 109.33578274452452 21.620026806599455
276.6161380409706 112.99136977183036 11.656614238704078
275.97398518968845 110.66369222870591 14.915581760183883
253.98671312319476 120.936506125417 24.52892872571259
252.75457627308143 117.23081181646279 37.33863151082404
276.3904373016849 111.43212037751543 13.190605054406271
256.2490355358607 123.30001639951797 37.51976895395837
267.59708486339906 107.2872645488955 11.742876601211655
259.5280965905473 121.1756659622625 40.28293225096685
274.74095330116114 115.30278333441262 12.002840069565561
274.30666490889644 112.82259825563072 9.912346540419199
262.070680718828 106.06388081393715 13.483050139549727
253.457565331087 112.75749627052176 22.68458082538765
264.4699002946534 107.53901856058211 11.823525015881545
268.00805560934884 112.22043558548397 13.12790808053494
256.43003779288756 120.91989004903466 39.779812986164906
274.7382030352268 119.12367853221637 13.695241191614935
261.1908096853483 109.71102638570608 15.922754329948908
270.79901975505584 104.30982701384004 19.240596649768058
274.7618517182337 108.08589689712099 17.183400712085067
275.6191660022561 118.68280244003317 15.351058089555385
271.30016774383336 114.76700508747257 13.011542448405491
271.07296080612474 105.29983191416262 16.15693602813294
268.5556556675084 100.52339636957137 19.10912232585125
272.682903285354 106.27345207018973 15.277146263231932
274.8092057074214 108.58563362660703 18.79665317467035
274.5791137977411 108.18024011523113 20.46826593134565
252.33847824679972 121.65779226461324 35.29849418218958
267.51966145850497 110.52844616636489 12.570797328655106
266.076566038178 112.90518119375439 15.091832782711748
259.10251571615385 112.95036001810844 34.229994509093345
262.2480816469928 100.80911389757824 18.65991433685447
249.20887442127122 120.37179548435861 28.46802599967924
264.066795373142 112.10182860168958 15.797718997175615
261.7217020277433 127.45824773403226 30.054758785091664
273.42197639494293 106.4839440175123 21.02750619081867
269.2333432738036 116.21860308420246 15.330878425290692
276.23748698658335 115.77956500446716 17.36351371196165
269.43441637020914 105.21296118691886 13.28209804181783
261.170318453643 117.90792073391371 38.32279692823157
260.8737123993819 114.35088088635267 18.415680844913183
264.84283627390454 124.24598218025119 21.066991284153577
274.5175715524131 107.67066853379637 15.040134730820455
270.0350845540796 117.12492013790003 15.718768928676775
267.12304148084695 107.67797988817667 31.513778209796854
251.55990942698156 116.22340216600054 35.51374251560775
255.87095973885778 124.38532698931976 24.094980801685377
251.3682818849238 114.98927818709711 26.320063473570055
258.71056499047177 114.9884431016429 37.32210082431818
254.32630330568 121.84942258273573 36.79081792383255
276.5229998096488 118.47817152539731 19.363673252652017
275.9405849049041 116.75811359884183 16.07641146227491
260.6211750176214 101.89262156864838 22.591946572095914
271.27392848083645 113.25571759839201 11.828738539306125
251.95009489516877 114.15028455143106 29.458036157987745
256.3073446687683 118.92252147326569 21.148171598478825
258.3301041556048 110.23286454110327 21.423522545658564
261.217867744853 111.47647050990506 16.95245304398384
259.3214159210054 105.9677974299071 20.165689993282406
257.401337796787 111.28765576832585 19.543426167954102
276.47870967925564 116.17042754217344 19.73751141987222
267.345543546174 104.23032136075975 26.95612039055607
256.6198856196345 122.75457295457211 23.07232224085402
275.5853550059209 109.38308187053016 13.622694807062274
271.4326923219754 125.63520766526484 18.187888547920945
273.3906587514007 124.69650380924953 19.209617421363294
256.0856062427792 117.00487148683547 19.88719643520126
264.5401069526318 126.04950897309773 21.707974127984574
267.38556886453983 114.1650452866994 36.91072573633813
265.78475712208365 105.5758905011919 28.05614636591139
265.8785878030294 108.20491085629286 32.14584440079264
261.0792526919731 123.95918896496772 37.522694794834884
275.3961892883185 109.01391312138324 11.299476526993338
275.689814206352 117.33400538669548 13.848334671321389
271.67127564671836 104.61888555486158 24.66513430196111
279.1883651820972 117.87324132945298 25.701702925221852
278.6554232560466 120.10995288933769 23.72490225642331
273.2361169479937 114.63190913498894 11.941516035108235
277.768021208612 116.82357011000789 22.2866163431618
277.41634529843145 123.056526731696 23.112375097946458
259.5122787886173 115.02526342665604 18.85853259376574
262.0675591965474 113.91546291664788 17.87907482038885
256.93629334327795 120.8214784099206 21.912867566401932
274.9629097001048 111.10403140866968 31.520831560049185
250.59499574430976 120.98948800517849 32.95276536943485
253.96036014155996 123.37967952906199 34.735644553021366
273.9599374521683 127.50660398747168 23.6609436047771
262.057528174851 122.97273342375739 21.332896364259838
271.50627134735646 118.52181557170971 16.019794858820596
272.0097140007345 107.71017091834318 30.31407608323888
264.0835830966816 117.11291813813078 18.905412200481592
269.5258096760678 125.93899515846933 35.17952873240631
274.42023256781425 107.95492657761795 26.828670238634114
259.9879989852196 112.56131637450237 18.009466789254862
263.74863271604323 109.24490456656645 32.16551426157567
265.872175387525 119.08184671884368 19.38347892918469
269.2766885790946 120.69578549924223 18.358440091602336
267.47898872460866 117.65970390900262 17.565429017370707
270.66621277438816 104.91634962541086 26.080827248314435
254.51169969744652 112.5283845364774 31.724566315206566
263.0151510907141 121.73276953258146 20.810927385342165
260.8023373552264 126.87705052774282 23.716446107938552
266.0752673438306 126.65585654012429 32.923290885379
258.1917345589508 118.44842945624931 20.201271548604044
276.0972866711415 112.74346343796208 9.869203602635299
261.35323640609323 103.52023736264428 26.3893712920828
252.8352932923775 123.53154806652874 29.906063148363028
269.6791700763403 105.85696341175286 9.558956722562655
268.53798712629174 124.55631767984377 19.648375647030843
266.8396557364608 122.4576774166519 19.907308199970753
262.97110837813085 127.70966379932463 23.112371173240902
269.4095133923202 111.59604523162433 11.576917458783862
267.65640460168265 128.2204819824837 23.544498178172518
261.6284965797407 119.7249536226892 20.310517243271654
264.0521531707086 125.75404647075568 33.617921334901006
275.43569334224804 110.02905005763652 23.43541326444511
272.3885056719826 105.7196458885216 19.656163948628887
262.90014982006403 112.49075923194962 16.66018419166807
274.065691064807 123.0204537278444 18.269187120436193
264.55336016411195 120.59527939038152 20.3464787989364
269.3688323835569 118.51286924990829 17.193119171426257
258.5745654814667 112.36912946843864 32.766665411146654
263.99168309637037 127.57513105301243 29.333056760396016
251.27782768425467 117.52187572931733 24.87619435900846
261.3909552864061 128.44850070525644 27.54231829261486
259.5003252132739 105.64209718669207 24.305779695330333
266.60352021807154 114.50521639359822 15.749180174153047
269.76921363081465 121.41953814228975 38.7080866460162
264.32838898927247 126.71016054918937 31.534074597063363
256.76961437370386 111.2136460692871 21.533685458971306
261.5895131842706 112.6229957788186 17.44459352816681
276.440718618212 125.88455599274366 24.541371349510015
263.8724474898807 106.32647207542065 27.9395185293928
268.73460887179635 113.55610727539836 36.6804820379239
267.6269112517021 106.4365137143848 28.891082524874076
269.99634733493986 122.69045939704813 38.38710507503173
272.9963802691082 127.334092378847 22.573981238762304
269.88132173745635 103.93856468810048 16.83236675715611
254.8186999629258 111.91040347370821 21.11925259242326
249.7486403985868 117.5128611979933 30.881393636849143
278.5136060934932 117.41054900083432 24.270507860220704
275.5747070503692 121.68992631464472 19.40961694835453
274.70677714045434 121.21485370945523 17.099812870992643
270.68284591661643 128.77506012780768 26.20515459239749
277.0316206170178 131.459369219693 36.10806885954973
274.27672165872565 107.67200679908723 10.287070798263926
266.43533563850673 124.47525161451571 20.491296235579828
260.2691554017879 104.41943966939698 16.652061953010637
273.5610807849215 106.89393764366105 11.880330650427563
271.91087084954825 104.79278186398128 21.408766757834396
267.22205552042453 119.415650443631 37.90483034156367
272.5716294085565 117.5969285103514 14.911817216801985
276.8687498774026 115.33143542278609 21.105887444469964
254.31585757746745 115.27892277185428 37.377101282132514
276.560022342866 113.859796096829 13.6164205308272
278.84411546605133 125.8176810893838 26.33006646193487
259.09933387710123 120.38658798879692 20.802761490314005
268.315381673479 103.9412813006423 14.898637824612
281.430571153359 127.97109803076106 28.83022912417803
269.8229049965417 127.01183553668395 33.56143443577727
262.38713580550666 106.6719190474776 26.7676655776041
282.91347850400007 126.94595733577407 32.21290728336043
264.87895721398826 113.5064182044831 16.269219198882244
277.52595686231274 121.21726116917954 22.238047862645466
281.8795577727033 129.11547004819596 33.601608966671115
267.09923886395063 122.39781183741056 37.39352446461837
262.9086122261705 108.99826089077037 29.604208846818867
262.8545522069089 128.5541656976543 25.51759441439703
263.3007801557926 120.26445520080463 20.417909273311643
266.00027334262455 121.07019316967684 20.02726095446844
264.9186836047628 115.46529646898104 17.514130802643077
258.26634685881265 126.69512122863408 24.494918082571807
268.7618599432501 120.07786093621425 38.021192785138034
282.1969506152358 125.16277962410916 36.570736177888016
271.5320772876015 115.4726846805787 36.8685592032039
267.693762416541 128.21377789044539 29.897582118590623
262.3668991602447 117.86083575559437 19.562937003344576
265.3444770094623 108.5963406646138 13.052041087106787
280.8196266611547 127.72069424889897 36.88967849061872
269.39247729948454 113.78861866256898 13.299167027805087
255.5263775848137 125.56133819290798 30.365225320161848
278.09800064153416 125.28570816410254 39.53699034147357
273.85065600694907 131.38598499891003 30.071790389290452
281.6113549966042 127.56905145031213 35.960135735623055
263.6987469388369 119.05650548645936 19.966931075683267
265.8429229311249 109.75442184611678 13.477371968654559
270.0097068466626 123.65729041977923 18.51612344501134
254.7279554918545 112.69482312206448 33.15285516360335
259.5856072577913 127.84665901275528 28.806344725542278
249.33933772765636 117.72298699827458 28.5080341573975
261.50304016567173 108.6411910810181 27.51907542437812
263.2704191569686 123.91964243908062 21.435867838551655
260.3104067578398 125.3351220182931 35.8941356863627
273.7773762393255 107.02168744349305 18.806575686639842
274.400322445109 124.99824825335283 21.097194041675056
259.14062377926234 128.29691491956186 26.47728203154495
278.42080047704053 127.80782455386985 38.62458522426896
260.8705301694057 124.08192523023703 22.01638594640596
268.2666862644064 123.89124692534168 37.18868230924362
270.89054029139373 104.9429219287869 17.51896832073528
257.60696715452497 110.92535787587065 28.293187713761863
275.3607633448 119.62988028181712 16.57934942154742
279.70151358207687 121.96888488688613 28.137833633893784
256.18006060545997 111.54604682237863 30.477502797482998
252.5909638073052 122.12848630070698 26.154132297215607
277.26588425371057 112.97727012170125 28.435891310617567
258.2369486618621 116.62889229240406 19.436805536554587
263.15133894016685 107.67279090447154 28.08304794799325
263.99240479705435 120.86051253086463 38.09740851459709
270.29250293735066 115.78254381642061 14.432931591520012
275.7720811496194 111.06432154241004 21.64185087873778
270.4161337136422 107.914365792894 31.746615503495683
265.52484256716775 102.8166080222466 26.45406555336363
273.28825570954524 106.80336153056606 25.050273929405495
274.5503250788199 120.35901283728654 15.297189558856033
282.24636591956494 122.64202965981478 33.56047537748042
274.3032010374992 109.96919856021646 31.750941511294393
276.119697777647 115.71765360962115 12.489614324311463
277.85109168882997 124.10624449536351 24.941557604468326
275.2100940770368 109.76102460567236 28.309236795407134
281.83318780601434 119.89849537427135 36.52563126036003
268.22760218433797 127.39178348229233 31.8682531792396
275.85618827511576 119.46735200443482 18.301791569565115
256.7742321869419 110.6343846000658 25.814859547089522
272.2330251720715 109.8870127348545 34.16438838820532
273.26328794787673 110.13955817763531 33.30172907469926
266.0352380260547 120.78286584047896 37.662648533565246
268.44015743480816 122.51999456169288 19.10250654325842
254.8839551105163 117.52696382058276 38.41474170363435
272.8582496251039 129.3531229031131 26.944151466771412
265.0417881685522 118.68474009897962 37.81740286513454
266.1351580656851 124.92817371878684 34.70854722303608
277.29844375624674 127.29298370108611 25.537308304445084
268.687421841582 109.55099853501135 34.780241449371466
261.64570101549924 114.52201156836341 35.55086779951815
263.36986345723085 115.31943767483052 18.147564295866445
278.2158547865033 116.30142123210429 35.680694583520804
262.3720604953832 109.83073225397352 31.099466115425823
271.3917424086803 117.04089366390136 14.993198832583857
279.8017593246344 131.00343159674622 28.846813405350417
275.635788687092 130.12271660410926 36.02566349085299
252.50542701484554 115.98165314567534 20.436528694987683
266.85840745404977 123.44939856666852 35.93947027778649
262.169903596112 121.99836623535576 38.483020625085246
258.6512618970284 124.38971987042375 37.66825982974099
273.5428654408346 130.76372555128117 32.181901714231735
270.98912488959905 128.73129005960016 28.497349598896953
274.4760639251313 127.00132469605325 37.759317192448634
272.0817308559319 124.59811863046009 38.15095439870369
276.0994535036694 129.18868601400058 37.375813194403996
276.0027820529808 127.80221925407102 37.793266084707255
275.5003352147169 109.61860103937687 17.754187853376543
265.0678927581286 111.55157563424385 14.953930817116893
281.58564546702354 121.2900027881677 33.74435769067085
252.57834463643448 113.49623411688977 24.72078416389084
255.74763493438448 126.11389594688728 25.485720671592127
256.08050616492 125.37962356250894 33.01413270797121
268.78412705126163 122.61212382039632 38.16622668694301
268.67243597648735 128.43952795531283 27.86271052211757
280.1000140473785 121.15158159656254 29.36021540871008
259.43377794314455 113.89256573019733 35.42533243847868
278.17536059717287 130.9562153043958 27.804331386565483
274.42515009197984 117.06044976828164 37.138977389890755
277.0107006084801 117.498083844171 20.487822514941655
280.495952238573 119.79879184375024 31.663429711000607
270.19450128930976 106.90658841370757 29.31570327145132
255.96270298491754 124.58617978934697 35.29084080757814
275.843831813649 111.09690100393533 18.287841390040462
278.6645078388551 129.17412350820305 37.24743567773092
273.14392923849744 123.70405900169212 38.516187922195215
278.9257433478653 132.22366820017692 33.74592543263308
282.7684684466165 124.86387943394666 35.05623087245984
259.01781295877834 109.78536919275696 25.583938540511113
275.77172183562675 118.32393885699035 16.943940984522953
251.97978192601468 119.86183101091424 25.456572531452963
273.2280109188946 119.03363578715182 14.974586761830892
267.8105185546369 121.12061976790811 38.41097806455969
265.98047667343985 117.26355743633366 18.146036874656232
273.2814947711104 117.6769551807875 37.55646032833239
282.1643730539966 129.4088461713869 30.308656765544605
269.83875738529537 108.16040328493037 9.083162354816757
259.5264079623651 116.5980939615596 38.67574964477514
278.580173455902 131.59085069947773 35.39867457609247
281.2725719931668 122.96529456287529 31.082841410841034
266.0498994205032 106.39754904789234 29.19519123036745
269.4883530376844 125.2360504172517 36.77874597645636
254.96054086658066 122.68262421962412 24.291607425403
275.7679066319867 110.04095436670801 25.865652135818447
271.67932843054274 127.84066679062698 33.40261924264222
264.33046619508775 124.1399506825652 35.25419155160493
272.53007998320777 108.94936358080498 31.705084392773536
282.0246593027076 123.89569780622556 37.70461087993098
276.7139146102831 113.02870601545943 22.2610420699804
258.1311135104147 119.49592376055956 40.64112169544567
260.78217644193313 128.92699211674122 25.1048663975571
266.60568930811445 116.0428239346934 16.817232666097702
276.19437337365235 115.64836529135658 14.4376063507069
267.43813060088604 115.62233404842927 15.942335431462208
272.4290152672971 126.27890796161235 20.627037848570524
282.5528384878445 121.83587883862286 34.87973133049669
266.78543742640204 118.28331159255328 18.41693304425628
275.1081054668645 127.76036278731287 24.8552741239386
270.10518408879426 123.97052335480315 37.965205142203025
280.26453812714954 125.2873266811224 38.620534955452776
275.6766634302313 113.65188167447934 33.469793152869414
260.835537795006 105.59860104848956 26.108962622773337
279.23969046576667 132.50493849153884 31.946191997834962
258.52758304183004 111.05263876486276 30.74618499026401
280.17080732712134 127.1026223704672 27.515377468364793
272.79441599205023 112.83823711196636 10.749309173075801
276.38497438941107 111.81684178936189 24.436465751055238
273.0058081927989 113.27333685840338 35.52854427401968
273.9202414756265 117.4937789965393 14.21582988755077
278.7730677263591 122.64974161449274 25.562616668325656
281.2635228761624 130.46706477523367 34.01618309505423
263.10955961560296 128.3023460347253 27.64446658789374
265.1782641086482 116.30810348179745 37.33531650596049
276.4595339427562 111.40797660955907 27.356543665057586
277.9960051072303 126.600125503147 39.27173361963465
282.08926399654894 120.8725706029079 37.77717412701141
280.57092831823223 118.64511906733848 32.27640463069073
280.68086767757404 118.10026203779476 33.63308933525231
251.6690416317851 122.44929246213512 27.204032570440564
265.7253945036237 114.88637907572529 16.603443018182244
267.72620001706525 104.61213863831296 13.750976443411428
256.28162929366437 112.27913516151213 32.80929330964291
259.9064039131232 110.1826854616915 27.77572957217907
267.4141651838299 120.78710075189387 19.3076220001153
263.5545079425135 98.77301327159228 17.530445140727007
261.8356171256163 115.88204247923254 18.798376095882293
278.8140226832424 116.05395698078149 27.988739376253623
276.5604127878472 118.89858667511982 38.54841759238297
273.26977912904977 107.81114541574502 8.28659879109021
276.14033011659893 111.01916462488705 10.952743720081312
270.1988059942998 103.46992225728715 24.296455780680905
253.99360583002002 112.54687722395194 29.46674983032783
276.48022397065165 122.80225390219911 39.10702912504255
265.73463020628986 98.34619880491339 15.816103448816442
268.68605323616276 118.52682982612667 38.13518109836354
272.76115645490916 126.27943276245827 37.709435785266756
267.4326023340108 113.38301129104858 14.364433287065758
266.5201550299112 95.97775584684744 25.12879359677288
253.7651935843305 124.24606578444073 25.400077030575964
260.8148221552542 112.66098472541756 33.8602403339058
252.92293334472384 115.75819472529862 36.46159906289502
260.2801210370822 117.5243621028225 19.595074193133566
279.70903225114444 118.44592547714466 27.016354860052434
277.05754128377777 127.23997128446588 38.67946513359476
278.215697054616 130.55756946736904 36.4102575689426
273.798405400164 119.24552538827577 38.42161049674915
272.45644480239946 116.179536345457 13.81536587315695
268.35469201525626 98.99751843508258 21.82472189193189
268.073979011229 96.33247372879609 17.45008649410221
266.6158015387252 111.67907333327882 13.961881581353202
268.0056069101329 101.05836010389764 24.944404688784005
250.96139444629117 122.35423289503942 31.03187805308755
268.05060194505273 94.58512528509357 24.205594164358303
278.6001935788311 132.18631642019636 28.98113254924471
271.1153470530412 127.67122771556001 21.943913526369343
281.06697354987944 124.09198768414561 29.712222184251566
271.42709728124527 111.93221230572449 10.531885410154496
270.96717424116406 109.8650581878289 34.81482034330566
274.13258679199254 125.20054423904168 38.28843156152091
264.206441984939 109.15885482006647 13.685061180027018
269.47514917104616 109.76071098632507 10.247810323517227
269.58060739537837 103.74318401825926 25.688505679125317
251.67424761453725 114.77326876324237 33.966967958718556
268.3343898886422 115.18178546520545 15.010649307661152
262.05376605103476 105.13472673672042 26.811754629876535
264.771807134604 95.85041964755575 24.670496560779483
281.29797311093284 119.01967331323003 35.104169128998656
261.3681445288973 103.09677033367312 16.291924764218912
273.20331416171865 130.13107114054543 30.842172657049268
263.42606678539244 106.54200376059123 12.647136547115485
263.7444677302438 99.78668791225604 24.316768289819393
264.4079684703177 94.17164399239007 23.678208236990606
255.02443261028245 119.7541031153643 22.69511226400683
274.7753000275021 132.10342281542034 31.703595227618802
267.2416709204891 93.39397541224436 22.623060642155473
277.62223981276895 120.21803077155614 39.07157483672971
266.70256189515374 110.57206611541223 35.464969813252814
274.1787926949859 114.47503249029575 35.12964550582046
262.84486188222456 123.40491855201995 36.575239388970715
249.9364346605038 118.96212146075653 26.416248020048222
272.6409369038751 107.18190462383826 28.331322441011608
280.4920381249085 117.58422584963249 35.21440721800256
266.6759978317196 93.51374076791389 19.037749096390527
265.58013469599877 99.59067313202554 15.997018511331346
265.74321137875546 106.22711701500864 11.920769551654296
259.00343805092706 110.5034499381227 19.406727405541595
263.07513844530365 104.47996357730368 13.873197284019456
263.0578550919494 96.25638347524124 21.432697310993632
264.1115237477049 93.84634216882051 21.95760903364218
254.36468414515434 125.09438830671279 26.992300194799753
251.30312019092105 115.44317923216461 24.266784155869658
277.955688061498 115.58674150572976 32.940997178036234
265.0503337476664 122.61110288036615 20.671574441030483
277.16023430149886 129.9080279835747 36.91749761825994
270.3370079164266 114.85282566271893 37.05617174595548
267.01489925064044 112.61222747691035 36.29334404163929
263.6844866848658 99.02077738693767 23.28987005798473
272.5281864607254 128.90421432747604 31.623029151448044
263.42032156095826 95.92178327406175 18.609329020283266
265.4636989237528 93.3395978768151 22.7766591895971
272.7736459646901 111.18728167368629 34.76691563605042
275.1294598033642 129.2882555221713 26.473304871362743
267.8977878271965 93.73879614569377 20.537970366276372
275.7364769981755 132.15609710567196 33.2372640696895
277.4340997176474 129.25817419697464 26.50372267220801
260.14561336824914 122.93391295548146 39.20880216047956
276.53155055530124 113.83856736319177 20.497266377514798
269.6949877529514 122.20037293706477 18.461608601683434
265.7419731430162 128.254259528111 21.856765571110195
263.2284664574321 97.50469647371189 18.01119081882502
274.0949154444764 108.34781871645494 28.38769096632951
282.4605208206034 127.60547031958784 33.63824331924405
258.5161703266142 111.68285956454787 18.47989593796883
252.97448391373354 113.17599990361303 27.236642049544418
278.8263756775964 117.8414836413866 37.62310524246103
263.66894926949175 104.56818475444908 27.295855291465415
259.169206002348 109.10927724053138 23.37562341459366
264.8726152567142 94.12387666035218 18.15802674752985
270.4045256296488 103.65163855884971 22.75848250234367
269.03710892507456 95.5096688965045 20.325032913307627
263.5457601978838 122.20546569131243 37.48267953191159
254.18822887345803 117.76675527290746 21.461709955835758
271.03739869690594 106.29494480985927 27.93508197531649
271.83346896768904 104.62968524891505 22.982062944704097
266.7041723253208 95.39013368186586 16.553742932012966
266.22275233143506 94.41604945581625 24.591000620887236
260.87854136277963 125.45773541120158 22.797686992647947
279.42068962514156 122.97401914639006 39.2524259478063
268.1129154753406 108.39775678175721 32.58332476190718
257.60897767598414 110.28322338864882 23.521171027432977
267.6966676027096 127.82173265775802 21.065722968296782
268.063807996691 94.77532397702541 18.46622224748221
263.1971796060112 111.91708450948941 34.03648266604257
281.43987823521144 126.44606105841625 36.722042440481424
259.70850029187073 118.40036755591602 39.70201819168227
260.7596085257265 126.60067160838642 33.67429897213142
263.393089843625 94.85639762586462 20.392655424098415
270.4794564356935 128.0988691733665 31.8565580160226
263.60396763778596 115.32765746789245 36.2115322346848
280.2884589849689 123.40172432878093 28.445508523237446
264.5071064371467 105.18622633712363 12.988677556713617
276.2894776758707 114.52155023364314 16.164902382114132
265.56886686298316 104.44137649889267 26.963484043732596
257.33781394457475 127.28853068700057 26.880307592405853
258.2357800122465 115.85172581672374 38.86471243726096
262.53882688035105 100.09413509756685 19.934629765268852
270.16006534304745 113.1777276637152 36.44510482028691
266.0646294691291 127.563106361192 30.74527194196783
279.41659706833804 119.96866658136113 38.41428671501784
282.6594382671426 126.07151619448608 31.121556043612696
262.99761659154245 97.23976257597502 20.160253518971366
262.4013626734247 101.33472334519956 17.257733476011083
263.0013942807312 99.11968563327741 18.844317355614326
268.25583060770043 109.21045824407709 10.89507125925569
282.08535461152667 120.39864109095262 34.98197596995902
276.2633981430361 112.62752138753092 17.509542327903812
266.84623231341845 128.3346070455918 26.124758724118763
260.8030430508717 101.8266457312039 24.837960892863993
269.91435753441414 116.24754332861554 37.434155455708144
271.12280352554717 126.69742102764366 34.88923239368639
262.0014831398633 110.73776604395808 32.457551487097525
262.29445224017513 100.36945824978892 23.828650826446975
267.89144283514037 100.3541676566024 23.895221549614284
266.9409953236856 117.48347151566927 37.966347552454636
274.81984172986733 120.56313129764624 38.94503676289161
280.896054095875 120.8745826466003 38.671579590908834
276.3927199065851 112.31149842897626 15.339034028125331
279.2952645000976 116.8171846077803 35.19461621780135
279.82460722216655 118.8048937205884 28.842984909912758
272.6655665518184 108.8625031570257 6.9981960857159855
279.55754340534315 117.33246875079266 36.66257488496343
250.66526033230946 116.07181902541258 25.34666246673044
278.392570101142 116.09330670694533 34.38737648143309
268.6578950668299 102.0168277744579 16.311041953470127
263.0307053393183 116.98003488710854 37.40197587136417
249.82962204072666 116.54216850658736 29.525087424055123
259.8621424895654 104.5260168025867 25.75459852325441
280.85797014580135 118.60718427543239 36.640842459725484
280.4398871868328 126.45553926401927 37.820994018562956
259.76159297954865 104.35909161273285 20.320269301865732
267.7087214408641 98.92177274190429 23.446269094063073
279.00879992036283 120.60231781766915 24.82584578197802
280.3667101232031 131.5250383844929 31.491251444470727
254.43409908611667 113.14498023704418 19.699609920768836
258.3259738067352 110.3038006445756 26.882709957318188
258.4303200618001 127.578184421327 27.856338669418566
253.10576468248053 114.32664056573864 35.57440783885152
249.2512600361842 118.94772476907522 29.73988748043311
259.24002879692506 124.18811555107527 22.48780806209102
274.6953576877673 111.7788745148511 32.74305523203769
278.67080324697497 115.5108895414221 30.570604335524607
257.5742346678556 113.09096347474619 34.745109326678445
260.8289190700353 105.58345736948637 15.211174098896237
275.1921422813877 110.48137814076347 30.394340916293576
263.121347357316 97.4865099103672 22.317514809421336
254.52736048425405 111.89234592277683 22.904504111162495
271.04287464721165 111.97098577537227 35.612766723596884
270.690634717892 110.25147344462404 9.570530341820097
275.1669485076265 131.85771077868387 28.638387240204935
260.87175746173915 110.44071442944963 30.15587334946458
271.492340310688 116.61171960974328 37.411499767821084
278.0246180184699 123.69534076058957 39.24176413375423
254.5804556228732 114.95258087375234 19.143595484387628
274.92270783437095 123.60852773830347 38.759564700859876
273.25117150285536 122.31393719543185 38.56185445559297
249.96416654317716 118.83015648885407 33.02108664350176
273.16056689820766 129.1730731228536 33.63178860809525
268.41831531636507 96.67178493463733 24.25258373735084
271.2965255618208 128.5944365636191 30.306320498003235
268.64270162077156 98.98272063906835 20.336506630518457
259.2236499842229 110.57230231536307 29.249317228047374
268.3542496019184 116.64046818711864 16.243155096438407
278.28425988483184 114.70173902268718 27.626810089247037
273.5213899879712 127.47055375009836 36.51109629061758
261.14579060106115 102.44242948937273 17.831882925483647
267.9653810908011 126.12043067921357 34.00624372741961
269.3433106644366 101.72119703323409 24.185997915209583
272.82910391436394 129.49599997657035 29.495180750391786
260.99689540840905 115.8359412007148 37.28846384353518
282.5854372705353 124.30821013200581 33.30070800347056
262.6592692921939 120.48073959445247 38.71898501536972
276.706554605027 124.39355626332642 39.22309140748462
258.0319821411289 113.07885760371508 18.541448724009246
249.5951910814363 121.7879905685377 29.792149057050153
268.2851154902664 107.26983000048564 30.796052625810056
269.7293421385438 126.73813082047278 20.046153563810957
273.72143524989355 108.90145783478923 29.889738685629858
264.6884314425784 128.37772797298913 26.93527240851648
279.91699081571073 118.38625069834356 30.604783966809837
277.52693266153665 132.59663977125408 32.596393380239384
261.75596372020794 100.57560031167552 22.146953776275694
265.60906053702325 123.57773232333658 35.444211951449
254.0916921155912 124.94405083539353 28.675177269457347
274.1112338466448 128.94055914282643 35.36372735256387
269.76755949054177 102.0098705771068 22.421834968685364
265.51200743362415 93.16643277137844 20.618181884613882
257.82851317560073 122.53759307463358 39.37860760110397
270.6040449576878 126.0625468054315 36.165424697600216
264.71608205412707 110.21615853981254 34.0552233288124
277.4649338432394 113.43385319316596 24.337408336983714
276.77425641965675 119.81257439754103 20.39088415443758
268.8797258998706 111.68555102026303 35.83361193622756
276.19185150040425 117.13643943582605 18.402275357159223
282.65841544098873 123.30007296580438 34.864727412895775
282.3883986000605 123.66796379730084 36.28261330427155
275.32118143085296 114.43662766522924 10.864171550939544
267.05096945368274 115.64717707005369 37.28650825054286
262.1973268964004 111.1809896228779 16.19496444034045
264.75489494838126 107.28274415371995 29.026401598978637
268.949736452734 97.41735590584797 21.68993294422926
280.84321533284657 130.07041866405967 35.54306896576577
275.5005299843532 109.99744409274001 19.770024393724782
272.6795684862859 127.69456503720829 34.984871530383586
260.2811572561625 109.19151936673087 26.501747875275836
271.0653068797331 121.87270179074325 17.75771580071327
271.9625979866658 109.64933896144312 8.126864011659645
277.20399290622913 128.82693291724368 38.22793005492556
259.13772365924126 108.35495418879158 21.022266710662475
256.423809370715 117.37588041561168 38.96223673025687
275.09803358411193 115.55613721355574 35.642817310328965
256.2782023216157 122.38960695479389 39.07961794534885
256.4089463730391 113.67526619999136 36.918858822796004
263.3846816193976 102.58205284586059 26.535871468390727
249.55871814845716 120.19276594619299 30.945707562710396
277.86049797916115 122.03718726797267 39.561052374404525
260.18866516002333 114.84842836459029 36.372702285170625
274.8971638601699 126.22160854973173 22.880023603582618
257.0691088052027 114.95071367705722 19.05881656326822
280.9916880631516 120.83423336360622 32.49340390480123
276.1977417438404 128.26710957884728 26.025807766764956
267.57601974492474 123.4732055054625 19.783090331046587
266.6135530332867 100.65016787711912 25.407423214146295
276.7990610342579 113.8486836388229 32.31178629817875
275.37754261976517 114.83926107148062 34.64220199554064
271.079262619011 125.58835902102172 37.369425078897876
252.37301980526772 116.71281768745772 22.841020915406077
263.1429095201115 127.1280173997103 30.791336792424662
276.502318777605 111.52515263498763 25.960893592860707
270.24371024153345 102.39261931613262 20.841891684578446
282.40536693816034 128.56113280561607 32.08041889992164
254.7275993587567 111.56920085561408 26.463166163564054
271.4130280122267 122.81717458336003 38.394835479593276
266.1846532071226 103.64188393977001 14.183645525725925
272.8724627878677 122.58052041488563 16.769873483614987
274.8364922914389 107.52647947516176 11.48509830114266
257.40418524702363 111.84216271990388 31.676208235606836
276.98668938891615 115.30767297803456 34.116530039581185
259.52491582281436 106.15326908558363 17.90414017437969
262.2429090067141 125.670856703148 22.41354076166644
258.1873505614842 126.43977695190213 33.547680487158736
265.29342524793924 99.31490376527682 24.398401445281937
276.16152012518717 130.79334344320606 27.56783839596553
278.8080452752065 118.86778123280195 23.80928133301858
271.27125576402784 108.07013129793948 7.265232292087768
267.3171831678016 98.02086387936815 16.610537518222902
266.5082565412986 109.21134389965017 33.77157433068856
267.16046973601294 102.20438719244828 15.370636992031178
278.9040159474676 116.5050904442486 26.441077872100735
281.12221152417453 119.71359093300286 33.44898581917955
274.70689662024216 123.51911578291292 19.86133807891345
272.64812544315436 116.19662993734036 36.68959270739225
268.67362954416785 115.22668226266546 37.015211221326126
282.8407371749576 125.54852932832927 32.291360782536195
256.0888544733117 110.93459469241517 27.264071931119556
279.6820345387059 129.21795345395086 27.6766959610312
257.5882760956654 119.6594457508424 20.915371440473145
279.75065827991136 127.84029943929526 37.86976427165207
271.6291810940211 109.02836574650051 33.304442290013235
252.959668265832 123.65275205361648 27.616955650662536
266.3057379574397 128.1334495084805 28.514863790627416
272.84382002760447 105.82905877457762 22.996553338719494
279.5754592837582 119.7625164614933 26.57046730299553
271.6632619862499 121.12305683886025 38.25404756681376
279.7131779326562 132.23735876136956 30.21128499937319
269.51689424166295 101.24807390378257 20.021071411898355
252.2552560664695 114.5589511395513 22.50991043051729
269.962093026535 108.7120610423598 33.56427653821817
250.48041109063018 117.8662246165474 34.71861366070018
260.71342211813993 107.45090016306692 15.04470406165817
278.1417495696635 114.36127929213686 29.62838154878615
265.13172201238007 109.04525518338804 33.157526293961226
270.2049651259973 119.75126737544699 38.231621594573774
254.6897901409122 114.0240755971557 36.202294561789074
278.47142702752075 115.92432367672991 24.882665775962806
260.9186628292137 122.00050908795245 21.085157017437467
276.19198818506044 111.60880188545273 29.343361019943618
271.78085461435285 128.07228462213425 23.18766238630789
251.51286600814527 118.18995308858898 36.02097793312144
277.19639135814515 112.9452121908095 26.230733330034177
251.36277032611326 121.37729291878068 34.14799283862743
262.305083728522 113.14749490282793 34.723561605001066
264.05084179037163 103.58653672490344 14.715152484112458
277.72394599135504 132.7693812207196 30.537836190149626
261.94651061350186 104.0441334029783 15.08282207556132
277.2716769655253 132.15741890491466 34.38884183820849
283.0029356802149 126.01822420707501 33.66731080634657
276.4757712286195 124.61380466008157 23.080075188381915
275.856555132182 112.75785133863371 32.53891750844034
269.8517291776179 125.16126036878524 19.061659889950516
271.3122099484888 105.84352156489534 10.188901777728942
271.7675682430771 114.29395294351136 36.35271088309681
274.3345588406478 131.827789422358 32.9721071533466
278.1274079685937 114.59125512599884 31.395969482645388
279.2352202769784 123.46239798822073 26.877403358251748
273.4325292868997 120.77276966650422 38.54980056261885
267.5654980629166 105.335804223734 27.899905341588337
273.80396121931216 109.9452049673991 7.543843286159511
266.8130966885407 99.83566254914454 24.170409983007733
272.18329703501604 105.78193337700799 17.65430229348847
278.7680126353143 116.2057024996566 31.925482770785713
269.49056473449593 128.56416492136123 30.13562929269426
258.7682012737882 122.70492878495051 22.012058887988033
262.29925355525967 115.75813860068072 36.50527525478541
263.4995576568997 100.2294556425275 16.721397881933406
255.50536691494955 111.63510293519434 28.29472582281299
269.90875091428245 110.59546500941055 35.551087236247916
254.26070450267036 112.05487722484976 24.417481617943523
280.54318072513837 122.46209532063881 29.620519691684905
275.6187237199146 132.6755565988749 30.114060649904857
270.7416574787211 103.84494057125544 21.099023794574034
281.66417477466445 129.4384501836166 34.86500306219359
280.4537972098154 125.17191341621826 28.06419992665096
251.40911712258458 114.64891493745309 31.851486596205028
272.4399163540629 106.03228519670888 13.252451137184813
279.3550612050988 119.25954291750443 25.174506133432043
278.9593973037828 127.86061710929927 26.302116672886978
279.8487115110577 120.1661473952617 27.985315866693767
281.7826628230837 123.36634751409935 32.40319060172091
270.07513824021197 101.85280456668862 18.351625740713924
275.0206756617959 118.3405468706664 38.20602894769972
280.3499062905991 129.19181241689475 36.8902908888419
262.19060995539155 101.38827208592323 25.932883834868523
275.71982503714565 119.81366503972917 38.61452453577075
276.78376892690795 121.57741704590073 20.663408603102184
263.97987387038614 98.33040980928321 16.136304833199663
256.81517884386346 125.60592146802996 24.03780025987766
259.0749667944291 106.33174044101591 22.195952934668163
253.6204862156317 118.60012167421732 37.93731157658273
259.54080742786715 108.01780417833635 16.723171809838917
279.4155580460328 124.60048745427517 39.382282724214114
259.9760866890033 103.53761887998967 24.380292690695267
268.9027047487936 94.97343156607317 22.415312246413805
271.9898412971901 119.527307814633 38.05014916881352
268.0059268227652 124.96975851277857 35.708683964161835
267.34074891580246 100.43770749103982 16.88379940557917
266.29623580197494 107.73465573909127 12.457715640317113
282.44595184905376 127.50727248135433 30.607897763508447
257.33900314205096 126.36355578109769 31.50740748962501
252.57598994478388 119.751436746948 36.990408828263924
272.8236019782057 111.26290079033986 9.354063729500577
269.43130385445477 105.59223862242615 27.287865533533743
260.1495401057675 107.74441056776139 25.5162734617714
263.5226147051781 113.4701923251287 35.49763808996578
267.71057377401894 126.05026713897233 20.337863820645214
274.24364800221537 130.48740892321308 28.10855406706928
282.82156711677703 122.49674450333457 35.99660946392314
274.87996820286907 128.54057679181642 36.95898248332125
261.30226170594517 101.7019266806544 19.330355139565185
280.7510837975734 121.28378033682489 30.937317132275687
263.76902323935303 97.5331199871351 24.473058219464715
276.1213639184356 111.46282844186815 22.935340966609836
250.45748110557423 116.02942073054344 31.557424168845348
261.68396247811853 124.51082367197588 36.29619422331328
276.25423027148753 121.2218509867952 39.105511868629975
275.94816944071863 111.98222885883615 31.328578512653447
279.37146619643136 126.38152868169259 39.07311903900177
281.0402323150624 119.59892519139673 37.99819953345426
279.3628648103213 121.39009665845889 39.05100422934402
266.2142657569924 97.58378457102057 25.257427723817564
254.94251205123197 124.42531812491849 33.79649587508609
253.3357366039354 113.6742486831507 20.705751538342977
259.9143946756675 119.62774445737543 40.70571610089686
262.4764322939713 125.41620381338127 35.24273777983875
281.36901269840206 122.07402996881638 32.418046371081225
257.9326526761408 121.12744454870048 40.27866694611635
257.05660136048004 125.50516729732715 34.3639353074799
257.5430645724008 127.05769571603642 29.27515508508124
281.4696518808188 130.31339223274819 32.10384355165081
277.1618399495753 113.08851700204177 30.439124945998874
267.74224376243524 119.14542774881492 18.459446945103615
275.45186137003407 109.3497809985829 15.850731083375447
281.36973172508067 122.27072798251642 38.70509106637891
262.5250485471621 126.72499910101054 32.185988919471825
254.06157988301086 123.98761351913257 32.06675285219825
264.38979769372935 127.88126196497441 22.486085295290106
276.90880221372464 132.43959226109925 28.5362901375387
276.25213428547374 123.30669883462761 21.283912256546465
258.01820411017565 125.57974499730537 35.5981465330177
261.31847066127915 109.58094044502866 28.748686264307338
261.8320421126663 128.25354031790167 24.138904396517002
263.65912575605944 114.15827698621744 17.33992136657854
276.51819754509455 114.35645042799861 12.01121352695394
260.14743301818544 111.39776581254435 32.025873818496606
271.6075231930733 123.59880193021056 17.712217845522897
276.2369688173706 117.71293998412426 37.82311052134014
276.98671401091457 125.79442658523529 38.89944022442701
272.8257022110284 124.14376701568165 17.69112720335766
252.51084483503692 123.09060695453205 31.53050742957053
255.6394288074036 126.29414377711893 27.92906759555112
265.02815976443753 122.4329958791829 36.560149751959834
259.4355396466065 127.18728121636035 31.297156142559263
274.1717774743787 112.95615597782513 34.29571413462312
272.2176085529774 118.18445095604984 37.916097798062125
276.51910471609875 116.27226102233074 35.55024896297548
255.9017973073282 112.79428834049146 19.016675805224285
279.7216707819833 118.64566903475286 37.78135451918513
250.52610209179247 115.66818220828156 30.284000666755258
270.27524178911773 128.4205500271639 23.831395182132514
278.1624002641713 118.81313001669442 22.299668726238195
259.8688758866201 104.30592720074024 18.8323989262394
259.15735313890053 107.45331416322237 23.355616781913607
265.64670746259134 97.10684410561545 15.762391479860181
281.16599946511144 126.5280357269433 28.33976916881213
276.2743004541601 114.7112142077207 18.83194665549045
259.2877057851397 109.20058092083869 19.2706353175705
273.74580021523985 111.46293176079085 33.82042384681105
270.44220368349585 117.93917553623726 37.813879017664505
274.7975364089802 108.43846127650251 24.78029776215686
273.03715912728046 106.9569028595341 26.706754881090045
270.89030053919106 119.94490102533275 17.38141162663079
275.5788624809428 116.77022522469481 36.45522923342376
276.1604155039247 112.32384743119653 19.823829058075304
268.60081582156306 101.11822143595947 17.642247735159224
279.5688953787697 117.66028635358599 32.19164090114524
276.2505381634872 132.63401670576297 31.642928395094124
266.3714627960135 126.5302489211492 20.980697083806085
259.8243724964826 119.01777344421991 20.140784605107054
279.54866998776436 130.48977644383518 36.21952205315591
257.83462784295705 124.55427354991573 23.16400508424253
274.8961521525122 121.86509942841255 38.809335840721594
278.0876768309759 118.4510212637784 38.479756797919016
275.75510652428636 125.03199444269629 38.64316340044694
262.4963819403969 126.24149603069014 33.73402007159245
254.21797351742225 116.69574050128632 19.890529176675106
273.67760463754826 106.85725936557692 16.796816240824484
282.04903180942944 128.2559491852341 34.93428646510845
275.6191175190576 124.88645885734113 21.97979098309473
262.73279671759036 99.37379747719339 21.41682758006319
275.84589253866926 131.65053692500862 34.94967970660084
277.5463360919192 125.74287348029583 25.428111063615717
261.61455605613446 100.96978525426576 20.63010609204432
277.85457606901906 115.19310631339516 23.463564978476956
260.99332849595476 121.6254623488064 39.716286760991544
279.5853159790666 121.25066349649774 26.080905038849988
282.6722467246444 122.41165472283612 37.463028615680116
264.0777087079635 96.00409330660041 16.558924094733122
280.0940610209092 131.325530647152 34.76990090701145
263.45926255997716 95.55377112349493 22.827236894548843
274.34836534900563 116.15084283746177 12.99602546727658
262.845111544592 102.24117771540843 16.087085495874817
262.9934622970146 107.82137155471729 12.886431399289384
250.52960495649003 116.46462819595412 33.13278216489554
271.8152630708681 105.86622097605436 26.665125690193452
273.94232016818313 128.7146347904855 25.694805428436148
279.32435659278747 116.89642526769327 33.701688449424005
270.87004721503826 109.0670841625096 8.43384165926021
258.08592477895735 113.77462707514098 36.18262204636652
260.3509602940527 102.76161040939505 20.205566642683376
252.16460121067558 122.51161768697624 33.142482419424645
282.19952096400425 124.53033974311481 31.289240708704984
273.761511555974 115.4085877895289 36.07214153243158
259.9235805152746 106.29417629694333 16.21819293993153
268.61630263475183 116.80024606411263 37.67431763933585
253.1924676089841 113.3772399952409 33.227375353830055
264.9857921484478 112.0011724889019 35.572960092029774
267.95634870948095 102.11088860875383 26.27153381917794
263.3355072927892 110.71734995630406 15.229294347150093
280.11627965377255 119.92039869578119 29.919344731394236
278.48363100419937 121.86839738116532 24.311279448399226
268.764754158498 100.6512025881236 21.755866909506057
268.58351804964866 97.1894350424904 18.944298404842932
249.9464596233388 116.64559882067033 26.451275740999883
265.0173326323391 128.39326652209277 24.226478027177972
274.5318882885402 130.7556697602326 34.11893341323537
279.4380403016135 117.19500970108598 28.663617581165337
261.12814778304124 127.16328001558196 31.851029392317
255.0799676718386 113.09558163204818 34.75471348798903
255.35471531904125 111.29059739142558 25.02582751906165
282.47166548308405 126.6453149019221 35.33107023448526
255.0334533432713 123.36576738612327 36.15528127059425
250.70105847413234 121.03271922411602 26.74452534005508
256.11938006798607 111.52484175111944 20.142948952536695
259.676026555721 127.79215476383209 24.82463568039749
271.9768834955719 105.95135531659696 11.591857736534783
281.25743656853405 125.2027534820536 37.78804271581752
251.6897251847671 114.47728684535036 27.84427907450978
277.66761444919416 117.08062947841485 37.10695148434965
264.64676494549434 108.05661931678603 30.709386869466712
259.3113370962425 107.95464532447991 18.81759765977606
269.2969071406248 127.98784203623178 22.021515586803503
266.61653403820054 94.19288399497233 17.946570774186835
275.9386341715964 110.92490741761907 16.606280359634862
251.0246903715056 119.88352093642385 34.874423537612806
275.77148371853434 126.32740210434318 38.34329619814539
279.23526808916273 116.77319917111174 30.552138372182018
265.5155988904746 114.16555905744488 36.52764242824951
252.9341298745463 113.33831848117134 31.151307272603418
254.2220662898139 112.08745789859681 27.88468623116919
280.34485615843 131.5366246374068 33.01534607541832
268.03849710471786 99.03650864524286 18.407607378876335
275.58975058718306 110.03192806059306 9.999609202641757
262.56862770532973 128.15644363782712 28.739699277171336
273.6489483736932 106.87486647178086 13.658454675970171
273.7677794522499 126.33174550776451 21.684995476312785
264.13227880094183 100.89581141002236 25.44082203942755
259.68855248855846 104.34975545930043 22.03476982720571
278.12101129944807 114.73887823379948 25.484574871863817
271.88535904251125 126.76139821167449 36.373863437203475
272.87398150088285 120.31921047939979 16.821675327916047
259.6030776391738 125.30292937045762 23.07173747523145
250.59320207969722 115.69710140172015 28.34581663659996
280.8752089584774 123.91954699865751 38.8738434454289
278.77136970689776 115.76267962536676 29.187453647913287
272.6961118385193 128.32167367729372 24.59080528521378
266.2573513956319 107.02522999113467 30.464626571740414
263.19934707333573 110.27323711248533 33.46431183592256
262.8733802050452 119.13753945144552 38.30264951851687
274.3525775299798 107.81276336011291 22.77236569005579
265.3263993172377 101.51753415048105 15.274519135930456
281.91824252823136 125.91688870345432 29.546576822397363
POLYGONS 1800 7200
3 703 901 397
3 826 329 763
3 866 329 211
3 211 329 586
3 866 893 329
3 199 453 677
3 677 644 199
3 644 561 841
3 644 491 199
3 285 738 555
3 196 728 901
3 728 621 199
3 475 216 520
3 216 648 520
3 759 621 317
3 817 202 702
3 621 759 202
3 901 841 397
3 728 199 491
3 234 306 598
3 598 306 435
3 306 386 435
3 386 182 435
3 648 216 712
3 712 216 6
3 352 702 202
3 860 817 221
3 221 817 6
3 6 817 702
3 211 475 866
3 841 491 644
3 817 453 202
3 6 216 221
3 221 216 475
3 747 520 648
3 677 453 860
3 341 520 747
3 592 6 702
3 352 880 828
3 712 306 648
3 221 475 860
3 860 475 211
3 828 592 352
3 352 592 702
3 6 592 712
3 714 506 387
3 563 543 219
3 563 374 543
3 563 545 374
3 763 357 826
3 385 356 234
3 234 356 747
3 721 543 469
3 543 721 219
3 614 746 760
3 563 219 777
3 654 546 623
3 615 419 783
3 285 400 875
3 531 342 783
3 0 826 357
3 0 737 826
3 623 546 307
3 307 546 545
3 385 234 598
3 321 699 397
3 346 703 193
3 703 685 193
3 302 849 740
3 640 291 496
3 561 644 677
3 691 532 876
3 876 532 894
3 748 357 507
3 699 297 240
3 699 740 297
3 297 740 849
3 291 640 610
3 435 182 278
3 570 805 876
3 876 805 691
3 738 575 555
3 738 278 575
3 575 278 855
3 598 288 385
3 738 285 288
3 317 728 196
3 317 621 728
3 740 610 302
3 308 828 880
3 278 287 435
3 435 287 598
3 278 738 287
3 288 598 287
3 287 738 288
3 219 356 777
3 309 677 860
3 309 561 677
3 306 234 648
3 586 585 309
3 309 585 561
3 699 481 397
3 397 481 703
3 699 240 481
3 699 321 740
3 740 321 755
3 826 737 586
3 586 737 585
3 555 377 285
3 377 616 286
3 346 646 196
3 875 385 288
3 288 285 875
3 841 321 397
3 329 893 763
3 341 866 520
3 866 475 520
3 894 661 554
3 894 532 661
3 893 866 341
3 0 337 737
3 737 337 585
3 561 585 253
3 860 211 309
3 211 586 309
3 453 817 860
3 443 633 446
3 220 410 283
3 283 410 439
3 220 559 410
3 410 559 439
3 784 724 798
3 258 0 357
3 849 510 708
3 708 510 384
3 202 453 621
3 453 199 621
3 202 759 352
3 841 901 491
3 491 901 728
3 439 548 283
3 283 548 855
3 283 415 220
3 203 280 781
3 328 263 649
3 442 797 783
3 783 797 531
3 442 263 797
3 797 263 531
3 535 257 667
3 531 263 254
3 254 263 328
3 755 253 291
3 423 836 359
3 691 805 836
3 836 805 359
3 616 377 889
3 889 377 555
3 535 667 746
3 746 667 760
3 894 856 876
3 856 639 384
3 614 679 746
3 746 679 531
3 614 342 679
3 679 342 531
3 747 721 341
3 554 888 639
3 554 670 888
3 267 736 443
3 267 559 736
3 736 559 220
3 706 653 384
3 384 653 708
3 706 825 653
3 653 825 708
3 510 856 384
3 510 849 570
3 570 849 302
3 538 399 442
3 661 532 684
3 684 760 661
3 747 648 234
3 443 736 633
3 291 610 755
3 519 408 258
3 876 856 570
3 570 856 510
3 253 337 291
3 610 740 755
3 570 358 805
3 805 358 359
3 358 570 302
3 685 256 193
3 585 337 253
3 601 842 419
3 642 682 842
3 561 709 841
3 841 709 321
3 253 709 561
3 798 663 376
3 798 724 663
3 302 640 358
3 302 610 640
3 329 826 586
3 408 359 640
3 640 359 358
3 356 219 747
3 291 337 496
3 691 684 532
3 321 709 755
3 709 253 755
3 639 368 554
3 554 368 894
3 639 856 368
3 368 856 894
3 506 714 745
3 640 496 408
3 748 258 357
3 616 340 286
3 711 776 369
3 369 776 812
3 264 314 203
3 314 295 203
3 285 377 400
3 400 377 286
3 745 811 506
3 506 811 686
3 369 714 711
3 714 387 711
3 387 724 784
3 258 496 0
3 496 337 0
3 399 262 442
3 442 262 263
3 399 649 262
3 262 649 263
3 519 512 423
3 563 813 545
3 563 777 813
3 328 649 249
3 374 745 606
3 374 811 745
3 295 340 236
3 385 777 356
3 385 875 777
3 507 357 763
3 286 307 400
3 400 813 875
3 875 813 777
3 802 842 601
3 747 219 721
3 842 349 419
3 842 682 349
3 749 606 417
3 760 243 661
3 661 243 554
3 760 667 243
3 548 575 855
3 439 326 548
3 439 479 326
3 784 542 316
3 316 542 642
3 708 825 240
3 240 825 685
3 667 257 355
3 355 257 325
3 543 606 469
3 543 374 606
3 703 481 685
3 685 481 240
3 240 297 708
3 708 297 849
3 546 811 545
3 545 811 374
3 813 400 545
3 400 307 545
3 812 868 456
3 456 787 812
3 274 868 785
3 776 868 812
3 776 802 868
3 408 496 258
3 284 296 692
3 519 258 748
3 781 327 420
3 785 601 615
3 615 601 419
3 748 490 787
3 490 812 787
3 554 243 670
3 601 785 802
3 802 785 868
3 267 284 559
3 559 550 439
3 559 284 550
3 550 284 692
3 469 606 749
3 512 456 868
3 512 274 509
3 512 868 274
3 785 615 628
3 628 274 785
3 439 550 479
3 479 550 692
3 724 387 686
3 387 506 686
3 663 724 654
3 654 724 686
3 654 686 546
3 686 811 546
3 423 509 836
3 423 512 509
3 787 456 512
3 711 300 776
3 711 316 300
3 300 316 642
3 836 509 514
3 749 490 507
3 507 490 748
3 760 684 614
3 542 212 642
3 642 212 682
3 542 436 212
3 212 436 682
3 776 300 802
3 512 519 787
3 519 748 787
3 784 316 387
3 387 316 711
3 433 614 684
3 684 691 433
3 691 836 433
3 433 836 514
3 433 628 614
3 628 342 614
3 469 893 721
3 342 615 783
3 342 628 615
3 514 628 433
3 763 893 469
3 274 628 514
3 582 201 790
3 268 264 246
3 781 462 246
3 246 462 281
3 781 420 462
3 462 420 281
3 257 535 568
3 420 327 754
3 274 514 509
3 721 893 341
3 469 749 763
3 763 749 507
3 606 745 417
3 417 745 714
3 296 498 651
3 264 268 188
3 542 500 436
3 500 643 436
3 643 171 436
3 437 583 171
3 236 203 295
3 236 280 203
3 784 798 542
3 798 500 542
3 376 844 798
3 798 844 500
3 623 165 654
3 165 663 654
3 442 349 538
3 538 349 682
3 692 259 479
3 271 658 399
3 399 658 649
3 271 470 658
3 314 165 295
3 327 573 269
3 269 573 280
3 327 781 573
3 573 781 280
3 480 354 516
3 516 354 268
3 436 488 682
3 682 488 538
3 488 583 538
3 307 286 623
3 286 340 623
3 480 877 354
3 877 846 437
3 437 418 583
3 583 418 271
3 437 846 418
3 583 488 171
3 171 488 436
3 846 474 580
3 246 264 781
3 781 264 203
3 501 326 197
3 197 326 479
3 295 173 340
3 340 173 623
3 295 165 173
3 173 165 623
3 548 326 594
3 594 326 501
3 812 490 417
3 417 490 749
3 714 369 417
3 369 812 417
3 264 188 314
3 489 213 651
3 692 296 213
3 213 296 651
3 280 725 269
3 269 725 557
3 280 236 725
3 651 160 489
3 725 236 323
3 692 213 259
3 259 213 489
3 269 152 327
3 498 150 854
3 205 569 854
3 651 498 569
3 569 498 854
3 889 555 594
3 594 501 889
3 854 148 205
3 754 327 152
3 330 190 823
3 160 651 569
3 616 579 323
3 616 889 579
3 579 889 501
3 489 140 259
3 140 152 269
3 284 181 296
3 895 789 181
3 802 300 842
3 842 300 642
3 259 197 479
3 236 340 323
3 323 340 616
3 130 325 257
3 323 579 129
3 129 579 501
3 548 594 575
3 575 594 555
3 557 140 269
3 557 129 197
3 197 129 501
3 323 129 725
3 725 129 557
3 553 135 158
3 260 179 582
3 336 396 174
3 259 557 197
3 259 140 557
3 339 124 895
3 895 124 174
3 339 608 124
3 124 608 174
3 678 117 768
3 850 201 117
3 117 201 768
3 790 301 582
3 190 116 823
3 790 178 116
3 116 178 823
3 790 201 114
3 114 201 850
3 639 113 384
3 384 113 706
3 639 178 113
3 113 178 706
3 354 505 268
3 505 188 268
3 251 834 112
3 249 127 328
3 249 303 127
3 127 303 422
3 474 381 502
3 325 153 348
3 348 581 670
3 823 888 581
3 581 888 670
3 670 243 355
3 355 243 667
3 470 566 249
3 566 303 249
3 531 121 746
3 746 121 535
3 531 254 121
3 121 254 535
3 588 354 877
3 480 734 877
3 877 734 846
3 734 474 846
3 663 210 376
3 314 188 210
3 210 188 376
3 502 897 474
3 474 897 580
3 502 132 897
3 897 132 580
3 844 505 588
3 588 505 354
3 809 320 386
3 320 182 386
3 270 169 339
3 678 608 169
3 169 608 339
3 844 643 500
3 844 588 643
3 670 619 348
3 348 619 325
3 670 355 619
3 619 355 325
3 254 328 568
3 568 535 254
3 188 505 376
3 376 505 844
3 643 106 171
3 171 106 437
3 643 588 106
3 592 809 712
3 592 828 809
3 399 697 271
3 271 697 583
3 399 538 697
3 697 538 583
3 320 828 308
3 419 349 783
3 783 349 442
3 580 418 846
3 823 665 888
3 888 665 639
3 823 178 665
3 665 178 639
3 437 106 877
3 877 106 588
3 320 809 828
3 768 818 678
3 678 818 608
3 768 232 818
3 818 232 608
3 174 885 336
3 336 885 232
3 174 608 885
3 885 608 232
3 567 396 336
3 272 734 480
3 678 169 256
3 256 351 850
3 850 351 825
3 256 685 351
3 351 685 825
3 162 353 205
3 160 569 353
3 353 569 205
3 345 774 159
3 345 541 774
3 774 541 502
3 205 332 162
3 332 233 162
3 261 471 310
3 502 275 132
3 132 275 204
3 502 541 275
3 275 541 204
3 194 666 151
3 666 138 151
3 228 733 198
3 138 434 157
3 434 184 147
3 233 226 162
3 758 782 226
3 516 694 480
3 480 694 272
3 516 560 694
3 694 560 272
3 222 157 133
3 151 214 383
3 383 214 367
3 151 222 214
3 157 206 138
3 138 206 151
3 157 222 206
3 206 222 151
3 128 222 133
3 271 637 470
3 637 108 470
3 235 666 693
3 693 666 194
3 229 434 138
3 235 125 666
3 666 125 138
3 235 229 125
3 125 229 138
3 148 630 139
3 630 229 235
3 367 118 383
3 420 109 281
3 109 230 282
3 152 166 764
3 693 194 120
3 754 477 230
3 790 634 178
3 178 634 706
3 790 114 634
3 634 114 706
3 132 869 108
3 108 869 896
3 869 590 896
3 706 523 825
3 825 523 850
3 706 114 523
3 523 114 850
3 303 464 422
3 422 464 834
3 303 732 464
3 464 732 834
3 471 458 310
3 310 458 733
3 174 668 895
3 895 668 789
3 174 396 668
3 668 396 789
3 472 450 150
3 150 450 854
3 733 343 198
3 733 163 343
3 208 128 315
3 315 128 133
3 208 273 128
3 128 273 367
3 273 119 367
3 325 799 153
3 325 130 799
3 799 130 251
3 224 265 146
3 222 128 214
3 214 128 367
3 157 207 133
3 133 207 365
3 207 147 365
3 580 637 418
3 418 637 271
3 303 172 732
3 303 566 172
3 590 170 107
3 198 457 170
3 170 457 107
3 147 207 434
3 434 207 157
3 172 566 896
3 156 179 180
3 232 103 336
3 204 245 590
3 204 228 245
3 245 228 198
3 336 102 567
3 336 103 102
3 208 315 333
3 333 315 135
3 834 136 112
3 112 136 403
3 834 732 136
3 136 732 403
3 810 693 100
3 100 693 120
3 99 403 732
3 182 820 278
3 445 855 820
3 820 855 278
3 422 452 568
3 568 452 257
3 422 130 452
3 452 130 257
3 584 98 795
3 795 98 190
3 584 301 98
3 98 301 190
3 365 761 133
3 761 158 135
3 137 241 363
3 599 458 94
3 94 458 471
3 93 414 120
3 733 792 163
3 733 458 792
3 792 458 599
3 803 248 593
3 803 330 248
3 582 88 260
3 260 88 584
3 582 301 88
3 88 301 584
3 455 85 292
3 810 100 84
3 84 100 324
3 590 869 204
3 204 869 132
3 179 641 768
3 768 641 232
3 179 156 641
3 180 179 260
3 809 306 712
3 809 386 306
3 184 735 146
3 472 567 735
3 735 567 146
3 146 612 184
3 184 612 147
3 146 265 612
3 612 265 147
3 803 448 330
3 330 448 190
3 803 795 448
3 448 795 190
3 147 265 365
3 365 265 134
3 333 135 553
3 103 232 641
3 641 156 103
3 803 497 795
3 112 652 251
3 652 899 251
3 107 322 590
3 590 322 896
3 107 172 322
3 322 172 896
3 81 553 158
3 229 79 434
3 434 79 184
3 229 105 79
3 79 105 184
3 131 78 119
3 119 78 367
3 131 118 78
3 78 118 367
3 170 590 245
3 245 198 170
3 77 560 516
3 158 761 134
3 134 761 365
3 363 627 159
3 159 627 345
3 363 241 627
3 627 241 345
3 584 311 260
3 761 338 133
3 133 338 315
3 761 135 338
3 338 135 315
3 273 772 119
3 119 772 155
3 273 208 772
3 596 625 890
3 625 156 180
3 272 298 381
3 414 2 120
3 324 100 2
3 2 100 120
3 383 244 141
3 383 118 244
3 244 118 609
3 364 770 541
3 541 770 204
3 364 228 770
3 770 228 204
3 159 533 363
3 533 858 363
3 241 238 345
3 899 38 153
3 593 248 38
3 38 248 153
3 200 155 772
3 772 208 200
3 795 497 483
3 596 449 224
3 224 449 265
3 596 134 449
3 449 134 265
3 333 335 164
3 164 335 405
3 333 553 335
3 335 553 405
3 646 299 277
3 299 633 767
3 134 801 158
3 134 596 801
3 801 596 890
3 126 158 801
3 801 890 126
3 208 361 200
3 200 361 164
3 208 333 361
3 361 333 164
3 311 584 89
3 81 158 126
3 230 769 282
3 164 405 378
3 260 239 180
3 260 311 239
3 153 742 348
3 348 742 330
3 153 248 742
3 742 248 330
3 895 181 267
3 267 181 284
3 149 217 91
3 405 247 217
3 603 858 533
3 582 715 201
3 201 715 768
3 582 179 715
3 715 179 768
3 378 405 217
3 790 116 301
3 301 116 190
3 593 305 803
3 873 497 305
3 305 497 803
3 290 391 223
3 795 75 584
3 584 75 89
3 795 483 75
3 75 483 89
3 553 74 405
3 405 74 247
3 553 81 74
3 74 81 247
3 899 652 73
3 73 652 187
3 126 313 189
3 126 890 313
3 758 729 782
3 782 729 631
3 758 218 729
3 298 68 381
3 381 68 159
3 298 533 68
3 68 533 159
3 162 226 72
3 72 226 782
3 290 71 200
3 200 71 155
3 290 848 71
3 71 848 155
3 164 67 200
3 391 290 67
3 67 290 200
3 180 239 252
3 873 305 289
3 289 305 593
3 313 890 252
3 231 154 690
3 231 73 154
3 154 73 187
3 899 73 64
3 64 73 231
3 192 483 508
3 378 391 67
3 67 164 378
3 189 350 388
3 189 313 350
3 231 63 64
3 64 63 593
3 63 289 593
3 81 276 247
3 189 388 276
3 276 388 247
3 241 137 373
3 91 217 59
3 59 217 247
3 252 239 58
3 58 239 311
3 126 189 276
3 276 81 126
3 192 334 483
3 483 334 89
3 192 255 334
3 111 58 89
3 89 58 311
3 59 247 388
3 388 350 830
3 314 210 165
3 165 210 663
3 497 873 508
3 508 483 497
3 63 231 57
3 57 289 63
3 58 54 252
3 58 111 54
3 54 111 350
3 154 187 56
3 56 690 154
3 378 52 391
3 149 66 52
3 89 334 111
3 111 334 255
3 149 52 217
3 217 52 378
3 149 495 66
3 896 82 108
3 108 82 470
3 896 566 82
3 82 566 470
3 50 698 292
3 223 391 66
3 391 52 66
3 115 47 587
3 587 47 255
3 47 830 255
3 186 884 705
3 80 62 884
3 884 62 705
3 91 59 115
3 59 388 115
3 289 762 873
3 289 57 762
3 762 57 80
3 508 43 192
3 101 762 80
3 153 799 899
3 899 799 251
3 873 40 508
3 873 762 40
3 40 762 101
3 43 508 40
3 40 101 43
3 47 115 830
3 830 115 388
3 252 54 313
3 313 54 350
3 191 266 42
3 91 398 149
3 149 398 539
3 398 731 539
3 192 43 39
3 39 43 371
3 899 64 38
3 38 64 593
3 731 48 37
3 255 830 111
3 830 350 111
3 115 347 91
3 347 48 731
3 398 91 347
3 347 731 398
3 705 865 186
3 865 36 186
3 186 36 183
3 183 36 370
3 296 34 498
3 789 150 34
3 34 150 498
3 292 33 455
3 455 33 622
3 292 698 33
3 33 698 622
3 631 477 782
3 62 816 690
3 690 816 231
3 816 57 231
3 765 294 218
3 690 237 60
3 60 237 175
3 690 56 237
3 237 56 175
3 101 32 43
3 43 32 371
3 101 110 32
3 32 110 371
3 150 871 472
3 150 789 871
3 871 789 396
3 789 34 181
3 181 34 296
3 317 29 759
3 29 277 655
3 674 344 655
3 308 880 344
3 218 28 765
3 765 28 144
3 218 574 28
3 28 574 144
3 27 131 95
3 401 26 848
3 26 55 848
3 705 62 25
3 108 662 132
3 132 662 580
3 108 637 662
3 662 637 580
3 102 103 778
3 560 319 86
3 560 77 319
3 319 77 476
3 86 30 603
3 266 191 30
3 30 191 603
3 261 24 471
3 80 23 101
3 23 110 101
3 339 835 443
3 443 835 267
3 339 895 835
3 835 895 267
3 574 218 780
3 780 218 758
3 574 650 144
3 650 380 242
3 94 427 599
3 131 27 427
3 92 878 704
3 137 845 878
3 878 845 704
3 858 225 363
3 363 225 137
3 858 845 225
3 225 845 137
3 471 24 167
3 167 24 176
3 123 65 87
3 77 22 476
3 230 21 769
3 769 21 631
3 230 477 21
3 21 477 631
3 705 25 20
3 20 25 76
3 727 45 19
3 690 60 62
3 60 25 62
3 76 18 195
3 76 25 18
3 18 25 60
3 76 19 17
3 17 19 45
3 727 16 45
3 66 495 16
3 16 495 45
3 415 445 806
3 646 15 196
3 196 15 317
3 646 277 15
3 633 540 767
3 633 736 540
3 540 736 220
3 633 299 446
3 446 299 646
3 764 814 152
3 152 814 754
3 764 477 814
3 814 477 754
3 282 447 109
3 109 447 281
3 93 463 414
3 279 617 463
3 92 455 373
3 95 168 155
3 155 168 119
3 95 131 168
3 168 131 119
3 304 14 769
3 769 14 282
3 304 44 14
3 14 44 282
3 290 13 848
3 848 13 401
3 290 223 13
3 13 223 401
3 144 650 12
3 66 16 223
3 223 16 727
3 195 18 175
3 175 18 60
3 242 10 41
3 41 10 324
3 242 380 10
3 10 380 324
3 110 183 9
3 9 183 370
3 865 705 20
3 29 317 15
3 15 277 29
3 855 683 283
3 283 683 415
3 855 445 683
3 683 445 415
3 182 320 676
3 676 320 308
3 308 344 571
3 571 344 674
3 277 395 655
3 655 395 674
3 395 767 674
3 850 117 256
3 256 117 678
3 567 680 146
3 146 680 224
3 567 102 680
3 680 102 224
3 93 141 104
3 27 95 55
3 282 44 578
3 331 31 476
3 495 11 45
3 495 318 11
3 11 318 145
3 414 8 41
3 8 617 161
3 318 7 145
3 7 370 36
3 53 5 35
3 35 5 87
3 5 44 87
3 266 4 35
3 35 4 53
3 806 445 571
3 571 674 806
3 892 867 92
3 92 867 455
3 892 85 867
3 867 85 455
3 55 589 848
3 848 589 155
3 55 95 589
3 589 95 155
3 364 526 310
3 310 526 261
3 364 238 526
3 526 238 261
3 233 209 485
3 485 209 293
3 85 432 292
3 161 617 432
3 84 324 380
3 380 293 84
3 122 840 393
3 51 215 727
3 727 215 223
3 51 401 215
3 215 401 223
3 587 142 48
3 371 37 142
3 142 37 48
3 48 3 587
3 587 3 115
3 48 347 3
3 3 347 115
3 41 2 414
3 41 324 2
3 676 308 571
3 571 445 676
3 415 700 220
3 415 806 700
3 764 857 477
3 477 857 782
3 764 72 857
3 857 72 782
3 704 788 92
3 92 788 892
3 471 167 94
3 94 167 97
3 31 319 476
3 380 431 293
3 574 780 431
3 431 780 293
3 780 758 485
3 485 293 780
3 76 1 20
3 76 17 1
3 1 17 145
3 631 757 769
3 769 757 304
3 631 294 757
3 757 294 304
3 110 626 183
3 183 626 186
3 110 23 626
3 626 23 186
3 759 29 524
3 524 29 655
3 176 537 50
3 50 537 698
3 176 24 537
3 537 24 698
3 858 528 845
3 892 853 85
3 853 421 161
3 865 681 36
3 145 7 681
3 681 7 36
3 17 45 11
3 11 145 17
3 292 657 50
3 617 279 657
3 233 527 226
3 226 527 758
3 233 485 527
3 527 485 758
3 767 395 299
3 299 395 277
3 845 404 704
3 845 528 404
3 404 528 83
3 540 220 700
3 700 767 540
3 421 312 161
3 312 242 41
3 20 1 865
3 421 227 70
3 246 898 268
3 268 898 516
3 898 77 516
3 83 382 42
3 42 382 191
3 83 528 382
3 382 528 191
3 463 617 8
3 8 414 463
3 432 617 657
3 657 292 432
3 681 865 1
3 1 145 681
3 57 816 80
3 80 816 62
3 65 730 87
3 730 35 87
3 447 282 578
3 578 46 447
3 8 161 312
3 312 41 8
3 331 53 4
3 4 31 331
3 823 581 330
3 330 581 348
3 65 123 840
3 840 123 765
3 93 104 463
3 880 524 344
3 344 524 655
3 759 880 352
3 759 524 880
3 139 891 209
3 891 810 209
3 122 393 605
3 731 597 539
3 70 862 421
3 70 12 862
3 53 756 578
3 578 756 46
3 53 331 756
3 756 331 46
3 609 544 104
3 186 23 884
3 884 23 80
3 853 892 227
3 227 421 853
3 118 564 609
3 118 131 564
3 256 821 193
3 193 821 270
3 256 169 821
3 821 169 270
3 110 882 371
3 371 882 37
3 110 9 882
3 882 9 37
3 281 824 22
3 22 824 46
3 281 447 824
3 824 447 46
3 182 676 820
3 820 676 445
3 393 144 12
3 786 544 609
3 192 773 255
3 255 773 587
3 192 39 773
3 773 39 587
3 765 751 294
3 294 751 304
3 765 123 751
3 751 123 304
3 230 744 754
3 754 744 420
3 230 109 744
3 744 109 420
3 704 743 788
3 788 743 177
3 704 833 743
3 743 833 177
3 46 753 22
3 22 753 476
3 46 331 753
3 753 331 476
3 218 294 729
3 729 294 631
3 874 730 65
3 620 701 460
3 460 701 187
3 620 56 701
3 701 56 187
3 37 688 731
3 37 9 688
3 688 9 370
3 767 700 674
3 674 700 806
3 122 671 840
3 840 671 65
3 122 874 671
3 671 874 65
3 241 696 238
3 241 373 696
3 649 658 249
3 249 658 470
3 193 707 346
3 193 270 707
3 707 270 446
3 890 625 180
3 180 252 890
3 39 371 142
3 142 587 39
3 346 794 703
3 703 794 901
3 346 196 794
3 794 196 901
3 77 898 22
3 597 731 688
3 191 664 603
3 603 664 858
3 191 528 664
3 664 528 858
3 42 669 83
3 42 730 669
3 669 730 874
3 144 779 765
3 765 779 840
3 144 393 779
3 779 393 840
3 141 647 194
3 194 647 120
3 141 93 647
3 647 93 120
3 304 861 44
3 44 861 87
3 304 123 861
3 861 123 87
3 35 719 266
3 266 719 42
3 35 730 719
3 719 730 42
3 704 404 833
3 833 404 83
3 318 635 7
3 7 635 370
3 270 611 446
3 446 611 443
3 270 339 611
3 611 339 443
3 421 862 312
3 312 862 242
3 44 602 578
3 578 602 53
3 44 5 602
3 602 5 53
3 266 600 4
3 4 600 31
3 266 30 600
3 600 30 31
3 228 595 733
3 733 595 310
3 228 364 595
3 595 364 310
3 560 607 272
3 272 607 298
3 560 86 607
3 607 86 298
3 346 707 646
3 646 707 446
3 22 562 281
3 281 562 246
3 22 898 562
3 562 898 246
3 345 552 541
3 541 552 364
3 345 238 552
3 552 238 364
3 474 672 381
3 381 672 272
3 474 734 672
3 672 734 272
3 696 645 238
3 238 645 261
3 696 622 645
3 645 622 261
3 833 547 177
3 547 874 122
3 891 530 810
3 810 530 693
3 891 235 530
3 530 235 693
3 177 529 227
3 227 529 70
3 177 605 529
3 529 605 70
3 105 807 184
3 105 450 807
3 807 450 472
3 159 774 381
3 381 774 502
3 472 871 567
3 567 871 396
3 735 184 807
3 807 472 735
3 177 517 788
3 788 517 892
3 177 227 517
3 517 227 892
3 293 717 84
3 84 717 810
3 293 209 717
3 717 209 810
3 175 515 195
3 85 513 432
3 432 513 161
3 85 853 513
3 513 853 161
3 370 511 688
3 688 511 597
3 370 635 511
3 511 635 597
3 597 837 539
3 539 837 318
3 597 635 837
3 837 635 318
3 130 800 251
3 251 800 834
3 130 422 800
3 800 422 834
3 156 778 103
3 156 625 778
3 224 775 596
3 778 625 775
3 775 625 596
3 720 27 55
3 107 687 172
3 172 687 732
3 107 99 687
3 687 99 732
3 102 778 775
3 775 224 102
3 698 859 622
3 622 859 261
3 698 24 859
3 859 24 261
3 673 624 900
3 139 864 332
3 332 864 233
3 139 209 864
3 864 209 233
3 423 359 408
3 408 519 423
3 328 127 568
3 568 127 422
3 599 870 96
3 27 720 870
3 51 832 401
3 49 26 832
3 832 26 401
3 383 808 151
3 151 808 194
3 383 141 808
3 808 141 194
3 50 752 176
3 752 279 544
3 673 900 831
3 489 166 140
3 140 166 152
3 250 847 99
3 99 847 403
3 847 558 403
3 141 244 104
3 104 244 609
3 96 718 599
3 163 792 718
3 718 792 599
3 97 427 94
3 695 831 900
3 83 659 833
3 874 547 659
3 659 547 833
3 605 177 547
3 547 122 605
3 175 56 710
3 710 56 620
3 49 660 26
3 279 752 657
3 657 752 50
3 55 26 660
3 660 720 55
3 718 887 163
3 718 96 887
3 96 870 629
3 629 870 720
3 669 874 659
3 659 83 669
3 96 629 791
3 791 629 185
3 839 90 887
3 92 373 878
3 878 373 137
3 886 613 250
3 515 175 710
3 839 822 90
3 393 565 605
3 605 565 70
3 393 12 565
3 565 12 70
3 97 786 564
3 564 786 609
3 27 796 427
3 427 796 599
3 27 870 796
3 796 870 599
3 675 673 831
3 660 843 720
3 185 629 843
3 843 629 720
3 143 604 457
3 457 604 250
3 604 886 250
3 61 851 551
3 791 185 556
3 556 839 791
3 279 815 544
3 544 815 104
3 279 463 815
3 815 463 104
3 139 771 148
3 148 771 205
3 139 332 771
3 771 332 205
3 163 887 722
3 722 887 90
3 620 656 710
3 710 656 61
3 620 851 656
3 656 851 61
3 49 534 660
3 49 675 534
3 534 675 185
3 839 521 791
3 791 521 96
3 839 887 521
3 521 887 96
3 176 863 167
3 167 863 97
3 176 786 863
3 863 786 97
3 166 489 160
3 603 838 86
3 86 838 298
3 603 533 838
3 838 533 298
3 886 604 713
3 713 604 143
3 176 525 786
3 786 525 544
3 176 752 525
3 525 752 544
3 843 660 534
3 534 185 843
3 839 739 822
3 822 739 69
3 839 556 739
3 739 556 69
3 632 613 886
3 522 851 504
3 504 851 558
3 886 713 503
3 854 766 148
3 148 766 105
3 854 450 766
3 766 450 105
3 558 576 460
3 460 576 620
3 558 851 576
3 576 851 620
3 90 499 722
3 722 499 143
3 499 713 143
3 695 494 69
3 69 493 695
3 695 493 831
3 69 556 493
3 493 556 831
3 622 879 455
3 455 879 373
3 622 696 879
3 879 696 373
3 69 487 822
3 822 487 819
3 69 494 487
3 487 494 819
3 847 250 613
3 31 486 319
3 319 486 86
3 31 30 486
3 486 30 86
3 163 518 343
3 343 518 143
3 163 722 518
3 518 722 143
3 162 883 353
3 353 883 160
3 162 72 883
3 883 72 160
3 148 105 630
3 630 105 229
3 515 638 195
3 900 624 638
3 638 624 195
3 457 484 107
3 107 484 99
3 457 250 484
3 484 250 99
3 764 618 72
3 72 618 160
3 764 166 618
3 618 166 160
3 482 624 673
3 522 689 632
3 632 689 613
3 522 504 689
3 689 504 613
3 494 492 819
3 713 499 503
3 503 499 90
3 624 482 19
3 551 881 61
3 636 726 881
3 881 726 61
3 61 804 710
3 710 804 515
3 61 726 804
3 804 726 515
3 549 591 522
3 591 852 551
3 591 549 723
3 852 636 881
3 881 551 852
3 822 572 90
3 90 572 503
3 822 819 572
3 572 819 503
3 492 536 819
3 536 829 741
3 235 468 630
3 630 468 139
3 235 891 468
3 468 891 139
3 723 461 591
3 591 461 852
3 461 473 852
3 187 465 460
3 460 465 112
3 187 652 465
3 465 652 112
3 459 577 478
3 131 454 564
3 564 454 97
3 131 427 454
3 454 427 97
3 494 451 492
3 451 716 827
3 473 461 444
3 444 461 723
3 459 827 466
3 522 750 549
3 632 438 741
3 819 536 438
3 438 536 741
3 441 430 577
3 577 430 478
3 430 829 478
3 492 440 478
3 492 451 440
3 440 451 827
3 632 741 750
3 750 522 632
3 716 793 827
3 636 466 793
3 793 466 827
3 492 429 536
3 536 429 829
3 492 478 429
3 429 478 829
3 49 428 675
3 675 428 673
3 49 482 428
3 428 482 673
3 459 478 440
3 440 827 459
3 19 426 727
3 727 426 51
3 19 482 426
3 426 482 51
3 819 438 503
3 459 424 577
3 473 444 424
3 424 444 577
3 726 425 900
3 900 425 695
3 425 716 695
3 441 416 467
3 416 444 723
3 467 413 441
3 829 430 413
3 413 430 441
3 444 416 577
3 577 416 441
3 503 412 886
3 886 412 632
3 503 438 412
3 412 438 632
3 51 411 832
3 832 411 49
3 51 482 411
3 411 482 49
3 675 409 185
3 185 409 556
3 675 831 409
3 409 831 556
3 425 726 636
3 829 407 741
3 407 750 741
3 343 406 198
3 198 406 457
3 343 143 406
3 406 143 457
3 539 402 149
3 149 402 495
3 539 318 402
3 402 318 495
3 549 394 723
3 467 416 394
3 394 416 723
3 900 638 726
3 726 638 515
3 852 390 636
3 636 390 466
3 852 473 390
3 390 473 466
3 413 467 407
3 407 829 413
3 473 872 466
3 466 872 459
3 473 424 872
3 872 424 459
3 522 389 851
3 851 389 551
3 522 591 389
3 389 591 551
3 574 431 650
3 650 431 380
3 716 375 793
3 793 375 636
3 716 425 375
3 375 425 636
3 403 372 112
3 112 372 460
3 403 558 372
3 372 558 460
3 558 392 504
3 504 392 613
3 558 847 392
3 392 847 613
3 750 379 549
3 750 407 379
3 379 407 467
3 716 366 695
3 695 366 494
3 716 451 366
3 366 451 494
3 394 549 379
3 379 467 394
3 195 362 76
3 76 362 19
3 195 624 362
3 362 624 19
3 242 360 650
3 650 360 12
3 242 862 360
3 360 862 12
