# vtk DataFile Version 3.0
A great-looking cell
ASCII
DATASET POLYDATA
POINTS 730 double
152.63569532314514 206.43778094869828 51.6205983852701
153.1284933523435 209.7280814908762 51.83553903321256
155.05884474235 209.27232340558 49.92018122060678
152.58379367608637 204.5973562102862 51.26959239691516
153.92753460692717 205.90496659732185 52.25327524767824
157.2118022714637 207.3808553991843 50.17681452625034
151.54347609143437 207.8369868761421 51.89468890531512
150.89666717343516 210.0518671664846 52.12537776423977
163.49090767445966 211.20282923615156 49.192624649807314
157.8576993837159 209.35689045693493 48.259758387070676
148.94859057745066 203.93247016365132 51.28199686498414
151.58313041487068 203.08342749444307 51.31936048328348
152.86888647626142 202.71597546483895 52.01018010584366
154.17090949049802 204.00924706750615 52.22895806440804
148.47002900736814 206.819275081408 50.65922977158231
155.48615554888545 205.30127237561297 52.62801329319958
156.88759330500133 204.73043574253003 53.6207671250135
159.02311602493265 206.6682124423955 51.390565245947414
153.0369436491505 213.14730808929664 50.41173983079277
162.46346176057278 212.7020469730318 47.438418171835465
157.57943570800416 212.23863264706583 47.362785700290225
147.9795715228239 200.6703928724974 53.13568383208306
151.3572871877 199.62728660425114 52.71386009632203
151.50905909679506 201.4801962992427 51.70046485479776
153.03355438497528 200.8828947297696 52.70593565403764
145.42419226858414 203.51815490504444 52.31021526706646
146.6909228484662 202.1374254900745 52.76240677416781
154.55885866300005 202.0975523863274 52.26669019308442
154.768470723274 200.39000347302436 53.22137867096367
155.6249780103235 201.8357371424125 53.44833046807561
155.50393385377834 203.465277617817 53.21584901959443
156.7558523116319 202.71160391839223 54.56060393827485
147.0766737926792 206.259985509906 51.318908672999534
158.67177769051398 205.61450816561515 53.26992610950423
160.0221384574627 205.42581607859285 54.8224228289328
147.0900630752577 209.28102953006393 53.178187479448454
160.67288477419785 206.37561407071365 52.752401696534996
162.95060966756384 207.695381863704 52.056394328026975
162.20099668735625 206.30684454263266 54.473871388121154
164.20748876219665 207.61459722776678 54.53764983991442
150.46785799145874 212.39993284791117 54.600300599035194
152.44152565497257 215.66808612612462 51.395906104521636
155.51627317859268 217.2327964108436 49.10993685506737
164.23979717818085 215.95827818915674 48.670946967399644
145.38921771092942 198.90417647485444 55.00678950131463
146.18609029053167 200.64951290100916 54.04456433116002
146.43708683639937 196.94197211798593 54.9841411902582
148.70985095996488 197.01986064206332 54.46187104179804
153.39188673203702 196.1146384461422 54.8678030035908
155.75143823619968 197.01544996225283 54.80705344199158
153.3344023363133 198.7140064234463 53.6995112250167
155.24541897509536 198.8565287310199 54.242367611639374
157.2218216100128 198.80127713655384 54.811946106438874
145.260185890296 202.41785912233036 53.98828047495854
144.30265144036952 200.7708520407139 54.907575707994496
156.17643218302155 200.6092460315807 54.36021903864172
157.93215891216542 200.95876353383784 55.08146300062437
159.2009465391175 201.61096252215663 56.49216239021489
158.26828180546866 202.69354993863467 55.54721415077925
159.4208933369934 203.88425105842387 56.54432742724954
160.37371419914797 204.18778067085762 57.676737884777246
144.98316926304966 208.003003021814 54.711803548612544
161.2650418593661 205.39192570836033 56.757572432742386
163.37615918427684 206.70295964107237 56.34466680210071
166.0625954595307 208.6521684389683 55.63799406373356
147.29237841358784 212.10402502857815 57.379190583518145
148.7349488388027 213.32855011969656 58.04322199084708
150.27785865298043 214.2429398382429 57.22590318915869
167.44366046012058 213.03254616364794 52.75733626773975
150.89449536142303 216.09157057467846 56.38137331170689
150.7584789179197 214.25694853211994 55.38357766984641
151.23085966418597 216.4684070289741 54.08023576211571
166.24867942908145 214.85293212367316 50.60823655444503
153.4994750900485 218.5476402128269 50.44563916791689
165.98332195140594 217.5610587065739 49.9021506860788
162.87039619098778 218.06851469795876 47.777274099005076
158.16021328199827 221.54735683497802 48.24596697685835
144.28853033009878 195.61860623663082 57.609242306812774
144.78229259807628 197.30206034436586 56.31471653710097
156.75090052426035 194.43870281669732 58.097149914471125
155.6208906982305 192.67617779601628 59.8558081806368
159.06497104563647 195.68009380673018 59.21380993450249
157.5689003746152 196.93962288965412 56.74834200420693
143.73669793972337 199.15849197327674 56.31174521066507
142.99771751937223 197.41629787035512 57.478625814474896
142.1139332739195 199.4144712084086 57.70957207061754
158.7443755726621 199.4113685879265 56.350359372844
142.9543560247191 201.19296297215186 56.584178551913
141.6505210579945 201.61242091179278 58.63767789425984
142.1694549432681 208.47728413053056 60.88821433188282
160.57453274345673 202.45591102200711 58.05267877235581
141.51253084884735 204.03763746609536 58.88021253516389
160.99268728934334 204.67366500234382 58.97914386541996
161.9965947947485 205.90683747004158 60.134667439114914
143.624042873409 209.78900558247832 60.83135765712753
162.6767818209725 206.2489641388058 58.39777804036766
144.50810596562894 210.05714755931294 59.10603551413253
165.0025273631761 207.40876787958314 57.88092633386271
163.77348017430955 206.84498655718858 60.28514941408295
165.9204467438836 208.62850566030443 60.54334688498715
146.3636377085435 213.23058627259564 60.42448698456777
147.3035106154792 212.88197874874868 58.85048739955966
166.89981629008173 209.34172943114135 57.8636077072496
148.49201624597728 213.58046507938525 59.773469314223654
168.4265451274654 211.3192226419772 57.01060710024552
149.85938627795068 214.5323502800258 58.83962785069036
169.32985032138328 215.3784695803701 55.18955204796809
150.48903764474508 215.67119992133146 57.925352482014056
150.42683975952923 217.3822483230458 57.770328426942136
169.62315328902432 215.4829277166318 57.99530322821253
149.64178557528282 219.53226969875408 57.73310432646422
150.01134442204165 218.31823901141826 55.552053270030974
151.90332551503306 222.3402003488745 55.75115350491006
167.51238330848227 218.39557949055205 51.92180527894572
150.6668958798783 220.3844395803167 53.8034423023915
153.73175857750692 222.69837715896412 53.773610570739606
157.44328828448909 223.32139485683217 50.34653022044606
163.5697858481623 223.09937464530668 49.579354131899095
167.63529448006798 221.16983055446605 51.70245771143035
164.7314023388511 219.6359844893347 48.954387522963025
147.69644445068568 191.5252396003071 61.45741693037004
148.6127300064311 190.80294870118792 63.729292888176154
155.35792642688324 191.6254726958564 63.4636723862953
156.4764685586987 192.27947964085297 65.58874036388607
158.95060809392155 194.43235538476134 61.89420013562658
142.76197079002887 196.00766211773617 59.479735568707284
141.96852567112046 197.93269419008124 58.94451004925403
141.19178299998057 197.52193279737784 60.68079718297761
141.40968923123611 209.50244391992916 64.46897686595794
161.89767033997578 203.51061028484247 62.36701384315578
161.4656320386811 202.68598391395142 60.28976117495153
161.4404985748714 204.6094079141026 60.848115325888394
162.10813741637298 206.08285475329822 62.16969937371741
163.02691067473978 206.8786454316171 64.57051821007381
142.59292019920431 209.55786839071234 62.48120698529215
164.45002170392328 207.52337968347402 62.526563399098436
167.00063534133972 210.3704976597029 62.639762356137766
144.74109149127207 212.83842014161974 62.514221328203114
146.13682496762593 214.74066626871036 61.85162535749726
167.71771933391452 210.88572100034077 59.85275686806596
147.8083947553995 215.17263675633245 63.055495518926136
148.0631619992345 214.30129279815628 61.35561753731089
168.5842544863214 212.7758788749671 61.95066577968332
149.7187023994117 214.6964097625209 62.29929090696167
149.7897546434639 214.80290332155482 60.53431022183594
150.9132652768405 216.6029712797847 61.43175252690716
150.59227527079742 216.17283171219262 59.35343625852584
150.21159771327487 218.30700511174558 59.67740611922127
169.3668855503576 217.09535514175104 62.208690267716165
149.93838207562413 220.91714980426738 59.77538916069056
169.82922232951066 220.0108939754592 58.075030262116705
152.26448245118874 222.36920292172567 58.854710973896104
155.06284719814892 224.88138153698748 54.77135589960215
169.77900666919643 220.2995539537012 55.39656962398657
162.51452002346366 227.82216422978283 57.30297739685176
165.51038130161956 226.45095065810307 55.71194890318733
167.37478578717977 223.52125569740818 52.83983987401339
148.34714944502906 190.75812944893192 66.49057338922333
153.11402907745847 191.0551976839576 64.58199752442017
140.5800597039448 197.9419460213512 65.08446367083069
159.49431974137744 194.84511108496332 64.51695149832766
162.0849777041771 200.92018157085434 62.118131282508394
138.98662716493536 207.5131425514015 68.21040049720062
161.99807285589677 199.46157220893608 64.42982475165837
161.84873140499346 203.1688478225792 66.78024676835786
161.91599751284704 202.08478633524496 64.39158040799968
141.8605658467676 209.91027352721775 68.70013252087911
140.40167050724096 209.42093977271273 66.81765375642708
161.654478806535 204.66635500944162 64.4290755669499
161.43868704379653 205.97226854181272 66.46172875031559
142.96336610219814 210.6018811298129 66.43455809388092
163.5683442925345 207.6782997424793 67.09446950644708
144.0869307217428 212.70376411663582 67.9182039313196
144.064240931845 213.0196317387416 65.2086729274852
165.43926648653266 208.79393477696664 64.83148334029961
166.2550038923391 210.2125225530357 66.97679804072774
145.52113461102428 215.02099473087526 63.94629835038101
145.33801835258723 215.12455128042393 66.75535475318881
167.42002835638633 213.85023643103293 68.53045655162381
147.68550093428027 215.81726058050222 65.19422662480653
149.3304812227767 214.4027719381998 66.13202013093154
149.50540855647725 214.45630491208374 64.2232645003487
168.48765482736772 213.5228021744491 64.86274187800963
151.22341108090527 215.8410977166348 65.3184553867838
150.97092951849987 215.59879074062476 63.305743951893135
151.3184557023213 217.69616839918535 63.575494265742066
168.95631943884405 218.28649473031882 66.3180799696956
151.90351955671403 220.26467857934995 63.867188420939534
150.3341763259561 219.33026483765437 61.92313398167379
153.5972075887256 222.63315022432295 63.66752810847366
151.70902277854876 221.72473981828276 61.60676457485417
155.16173487861485 224.97141284924848 62.63709138927261
154.90413312182972 225.13876604329238 59.66954911073479
161.64836172642075 227.64748476469774 61.979222328470804
167.3700782861784 225.14782667958949 60.23254263502464
169.9036306207462 222.5591585612383 57.16044743148437
158.61560036505492 194.58244091885874 69.407731466094
161.5148358703005 198.43670785857051 67.10942116312992
160.46799677243942 196.93722493938148 69.46483627394072
141.11813555473915 196.9766298313484 66.92455664861805
140.6918444477087 200.80104569264137 69.08278402731278
140.49534294826393 202.0850273191506 66.96038541047577
139.21329884379932 207.0511248404385 72.42188121991379
139.3591406467324 205.19658963240852 70.0448129240924
143.61430151536788 209.6878067882429 72.23090555626932
140.0122164914084 208.88123305839326 70.25913223825616
161.1910284123272 204.74920590709186 68.23395682280236
160.7473387420944 204.86112610885166 70.12860623644094
161.4490113707572 206.91877049426597 68.67107744716543
144.62780036626793 212.20071150192604 72.52366753635914
143.88344137454104 211.00591399722214 70.00619428921274
144.61459194308944 213.84037727650193 70.29935535878758
164.34980448935283 209.67196451993388 68.79923130742988
146.59349186011744 215.3277853856674 71.39025986117483
146.13029561164424 215.4260986200951 69.05496625711028
148.46800123836942 215.26214311783446 69.62056684618769
147.9272118346757 215.70029155664514 67.48675002623264
149.40718175399158 213.99613471300464 67.9974555472309
168.10320299695167 218.7945757811064 68.65530982796784
150.84893067327963 214.9760573445012 67.10093088375721
151.65283665465196 216.84780717646873 67.40991061552158
152.39135299100218 219.1654592359162 67.94226421000147
151.71274700272164 218.60141746255135 65.80373175325714
153.19444998629197 221.35501791534315 66.42980706774286
154.9969956169625 223.97105516196342 67.05429806931204
159.0453247435545 227.09075662396 65.57235246995587
169.3873437619217 219.73727261949398 61.734878573043424
168.35334461271185 223.43578430592066 64.37670203874832
149.2457711261485 194.78779583834117 77.92175187963521
155.665576718105 196.47796133377557 77.34703681574159
157.4015442223877 194.38647470814524 72.24860798565237
159.42826603550625 196.02932845051885 71.79243070234917
143.85398740005047 197.16614006948615 75.9038751236214
143.19963201958484 195.198835968424 72.22918105109704
160.93627680339745 202.9021206363098 71.57590252629075
140.77459284563568 199.59200402910352 71.49648406138479
159.53922358338744 203.00302904454432 73.74235766196408
160.56708011070165 204.92836408528814 72.32804483115281
140.46330346440166 204.1453529095083 72.54892758751214
142.6935002469256 209.27125937117407 74.42735656201933
160.8951278943479 206.836852965916 71.0061630956587
161.25863507430097 210.41074874873837 71.23466353957208
163.0698676672748 210.56192260156615 70.59759747422625
161.8802210252389 208.85563894473742 69.95739029075337
144.5418550189999 210.39103743052064 74.02840982457444
146.48399497295802 211.26925274888075 73.67183601089697
146.91452175302013 213.72431188494036 73.47389251292087
164.83270050048066 212.10564006583448 70.4303098075497
148.74346407652052 214.13423529981878 71.52610831887083
166.01247974004153 214.53542423861916 70.53192866910997
149.77389776455317 213.29431565536856 69.5797606615544
151.18473642414534 215.1681391910998 68.9033528117754
152.24949130660127 217.4170242767113 69.41020545150208
153.86027491319047 219.43211893534271 69.62914490915901
154.32751962197358 222.04918541084717 69.04147045497993
156.99163432998435 224.5307406806955 68.600996825196
167.1873158263918 222.34020802243268 68.68996656981497
162.6207610637915 225.46694608207042 68.65034785652401
165.3895368540065 225.80870844923302 64.94328179430426
151.75764124779442 197.83316158288562 78.94811886959111
152.03644645309197 199.71306148354347 77.6862381458367
156.07212198230908 200.2982770291226 76.99670788423636
149.3530814455755 199.30560432937816 78.15268109077357
159.29278556118547 200.18544246111145 74.9560718341446
147.63751171737658 196.9256764871092 78.00804937316913
141.7049526388405 205.08435455791087 77.21700923179412
159.91926181899404 205.2090093220023 74.09936795800778
160.60347643847214 206.8310342508539 73.16375178434672
141.09868219273 203.60495057386615 75.10058578904774
142.5349190461043 208.18270506733683 77.03907131025383
145.9246780383325 210.23462623351418 75.50950553901829
160.50558427481417 213.60656739062247 71.88868723576388
147.80947377375796 210.9189275857392 75.08645728308892
162.52785603176326 212.31271172035648 71.73064543890702
147.96479345382232 212.07093296859932 73.94075885489033
150.24817495528694 212.70098698166836 71.20884813796528
153.33899150241402 214.92324101332912 71.72555943225971
157.01221403248948 220.02380734031263 71.9804838715714
155.08933289302033 219.02020455096422 71.24059269038825
164.04647828347024 217.19016908557276 73.29761647109447
163.95224574339338 221.44671201141645 71.57715569179301
156.83290208291209 222.72549667997873 70.36375872316563
154.21109574505172 198.70941440581407 78.18775031366896
155.73920950647206 202.59880130029129 77.15222145932069
157.5818420638353 202.30908298384355 75.7839992049122
158.15568835264608 204.76563959668115 74.76473547331024
146.71381619454436 200.44757378100897 78.37422284175182
145.74436564332635 203.3076851321162 77.86340549082655
144.29069935532164 205.89827145160186 77.91472388750425
159.71875832813504 210.1143600976494 72.68566760909422
145.67328141964958 208.21748833982576 76.90920160699447
147.47194378199424 209.58127578574658 76.28526155709002
149.53367874762498 211.50815303742777 74.29745416283619
162.64050253454016 214.81563584631672 72.69351294188742
161.14748004244257 216.9138421911064 73.22366917176124
151.02955522523797 201.7214326654057 77.92833050995851
152.4100158139102 203.65581307074157 77.6186975435421
153.79731840683988 201.54466100794565 78.23407970567528
154.34838665419392 203.64059327236285 77.22665556776306
148.5316916927804 202.18364293002517 78.61923661097995
156.15901251491422 204.94747354185253 76.17872657152479
157.7541565473206 200.2798711943516 76.195930482914
144.912514040145 214.36414080877444 68.50813002111566
138.98500865685395 207.2181803063913 70.25784227556079
140.86292121309157 206.88917241211254 76.32759211598379
142.13141488413132 209.6216977193787 70.72519756497908
140.3744057334103 208.3200604470554 74.98644226157326
156.94120745012083 207.45309779990694 75.28636438282227
141.074037057544 209.26387681261195 72.57857483124567
143.6843075677065 204.16677160959517 77.44448194249414
145.5589680647122 192.39979851773464 71.33148560239054
153.24770620434822 192.99686941348202 75.93282756157151
153.86085792656016 194.78231777631535 56.27133739142499
155.61027254474197 194.69307066563513 76.37458107002344
147.40441451486421 195.0505102636883 76.77593817545521
146.89815495952047 206.0733910722205 78.27051428163915
147.24100637885118 198.74953729967845 78.22236969031319
151.58419732433026 195.55198117599795 77.9572788310584
148.85095572078794 190.89590977295356 68.11838991814764
143.6097876070816 210.69670112881522 68.19107637911941
157.63615224824 193.76956105483936 60.06246622769029
156.28175376931802 193.78460570757213 73.75116919782694
160.18396469282098 199.1513897958513 73.52733476470021
152.86841873938565 191.4851394916004 71.5821373407175
150.29175412829042 190.77884843237314 67.7552397134762
147.6539425350153 192.62492454131063 59.46588853472848
154.49920685890567 191.577685623705 67.61639471018603
149.29473598829526 190.79069156135358 69.65948142852311
152.60831744590664 191.9977876682617 74.16021158232036
148.72282081203016 191.51098854133448 73.03567422140064
151.2524777786898 193.29508134109318 76.49273233164689
148.40384564256598 208.11935142022605 77.40883285076104
140.07746250495308 209.1938611129515 68.50849051951933
149.38249496044475 191.04738381897155 61.86686260961292
144.45218961750294 192.6068750114652 67.92989530321667
157.6226881786193 198.2445490296688 76.31615499379373
149.7934034868328 191.89514229374913 74.4817721472612
143.55833174129592 194.40147090973207 60.846708347647485
150.2506529597302 221.67411059298857 57.61574507742998
163.59970017894352 214.4181656455241 47.59561054266292
159.8526785412898 198.13367845507707 57.97133807069261
152.13761604306305 191.63598547438522 60.17776770433355
158.95574199705175 197.5832789858127 73.80499212972131
160.39891899547237 195.96071380142118 62.83623213182978
154.5350689482211 197.47695049761774 53.86572329520235
150.9883212402877 193.60537864996707 56.63941772860063
155.47990205843143 192.08128669876086 61.59352909990005
157.35321791391198 193.3515639336233 68.44843102744676
145.40537339956748 198.4567876985965 77.43309100966981
144.75800441950068 200.85919561435693 77.2385178264548
160.62429976575186 197.46402256492016 59.8720278832147
159.91648545273924 200.3078794713555 57.68847089257977
143.72188520951508 193.16068742817407 66.70300948208546
168.3884370430276 217.29592543987772 67.81645487853987
157.73084783654724 224.54920277838255 70.11404678162697
164.53015016448919 213.4009252342998 48.85134628176313
152.79143129626638 220.83066170684566 52.0780179491765
164.56308970993288 217.80593326787857 48.67125850166313
166.77296749136497 222.75734993514277 51.1634712217877
163.89025859295904 209.81020125179415 50.863298176713
154.7364433591363 224.231519994926 64.82903411459608
165.53695980028434 221.66401382002766 50.29592231022399
164.280565031651 222.9714055620005 70.99281987066493
167.64763736515084 224.96639044560803 56.42018751004485
165.1182012061829 219.50908175278374 72.24061231220446
152.73803284060037 211.6086052009308 72.96118332952152
163.95871997817002 227.398285359903 56.5979357372305
162.15599620176675 226.62971374473034 52.87873631879644
161.44259691414456 227.45871660120807 54.27323114033281
165.72876527907064 225.38079940823712 66.51154246296879
168.66049506085213 221.78416925346116 53.92955810604873
162.07841018702948 227.2954928728296 63.79898716065208
167.48906884310784 220.42246321599447 68.71878200570669
160.69019954111954 227.84911233771354 55.79919866232641
163.99749456933117 226.648751643194 65.27958284607617
166.54541955432893 219.71663562674405 50.28613802112421
161.07521412084367 217.13972256764544 48.238165457708824
160.34973870911853 226.1105850267285 51.708906373448215
169.41457379323444 222.41337671198806 62.303660169715435
156.55079818825476 214.93775958325625 47.98034472693973
166.96659364261367 216.64756575234193 51.263429852798225
169.58953056391087 219.83127202948475 59.78549826893173
167.06567313920104 224.85524027141196 54.63136211477877
157.5321243493776 226.08466246909705 54.31605404648236
160.66955911564875 227.24040511133214 65.70414441726079
159.93544133260218 213.6642220127586 47.041532517372445
164.04365515065612 227.09441975493328 60.972150846356534
166.5123435309884 225.66130540658486 58.16269767278083
160.25444884168158 219.11690136806214 47.9998009167372
157.71779529990096 218.4992210809646 48.61568590421311
168.9046195166432 219.90572061919372 53.18737259776412
159.00481765595455 224.06908889057195 71.03241394201818
161.99184875787952 224.76738560491046 50.893112118172574
144.40200880648095 195.4633063900891 75.22925430880547
159.955868564929 227.75980393079078 62.580574649018786
165.90771220450745 225.8274044549125 62.28652635338696
161.9892884235226 215.58395262672246 47.14189006960789
164.3047887646862 225.11570270952873 68.37360844211065
160.3348795385851 228.1245575506413 58.467971787087954
157.4226677842957 214.176891361549 73.13845073353778
168.78741029141767 217.94367872497352 54.232328823480465
162.77451645209618 223.46853400728685 71.29821924072496
160.93177988568357 225.80438846068202 69.05718874039935
166.67827061234965 211.13169153113108 52.61687743501185
155.19357158212705 222.265167078039 51.40573973086845
167.966616332271 215.78027738434892 52.73592811297327
169.88846822281778 221.65966638499427 59.79526420478949
162.96752561547956 227.31356728865254 55.13324744571966
168.51191734892777 213.01934422282588 54.96445441012002
162.54665429919572 226.6519214233149 67.30886233946327
157.71756782395505 227.3656306543926 58.592453996146226
155.75367035237198 220.10320359819846 49.625998833343296
153.95590268780686 216.60850617174074 50.129111534721595
159.33038674022293 215.27653910916032 72.618322473962
160.73919808881425 223.21456448217236 48.67563280438754
169.29743813807315 213.58706695983892 56.809565945488956
165.59494940380313 222.33392734076028 70.51162859949964
162.3858919060716 227.85128311140826 59.565996992562965
169.09969831686902 214.96541337475188 62.85319482262456
167.40529705470973 209.86202626379963 56.19803014166955
169.6130969007202 215.1636946768741 60.64326586837776
166.44584644307272 217.2669576547195 71.57576015630282
157.9690737010825 226.25288904963244 67.39252546530328
155.8354925236 212.80161648031557 73.2995212988663
160.24185388914827 210.98740418200745 47.917472394247554
164.61814195502944 215.5386513701801 71.86204877602634
168.51927418536687 224.30443686159757 58.277216250112836
168.80208514539515 223.6763927307341 55.107280884910686
153.60029894784674 223.5379995230196 55.38255390204156
167.19814563671466 210.8901563586861 54.55403039279051
151.4138802739517 218.39951975555832 52.23560833703506
161.16358877287928 224.72999437224843 70.25504038178401
163.9398955431971 225.46093939189043 51.956152109755095
165.36963136136583 211.8503517620849 51.130810766602366
165.63206410541966 225.1917188519298 53.29200994403256
168.93497250282434 213.18463648831695 59.04676635467662
169.2974087842358 218.45922839819937 63.90202787074956
169.7609380739934 217.8809124514006 59.60372193954821
158.21581109479752 214.33695122200228 47.161647664162544
161.49424078754026 221.50309447444317 72.14810348788676
167.9229632495026 224.31779342248018 62.26960768115187
153.73366399272894 205.53897156573484 77.20969560477968
165.3338883672179 223.86663262456355 51.271102928187226
155.15873960328358 192.5325565396793 72.40640711276953
156.641556116644 221.81152184066147 49.90710098069642
150.16339840079453 203.93588390770037 78.0611553775978
165.9220042860349 223.50037902539597 69.40891966999398
161.2605476722923 199.93119832172567 59.541752689871835
143.19636333788804 202.6145462069236 76.23432273134738
149.80797081690403 220.75151423002936 55.89497927702097
160.6729257058328 198.48972933359772 71.76867129197764
140.37673537512438 205.78402049412483 74.84865947295705
164.8233643915319 207.35964451913767 56.04615855511639
139.862825816665 205.09128198143537 64.8025241749559
159.11586111198346 221.83465191295463 71.67923449831392
148.10876450913432 204.28463296114526 78.15324124143162
164.4275205284579 227.0216493273909 58.33377010298797
155.80676298351614 223.30658717576318 68.75666511951671
149.35178032642386 199.05910877693245 53.372466445815604
158.8037863114619 223.41489588303799 49.21053593420849
140.59576033076905 203.21051593300626 69.10226869341302
154.82695196720132 207.12503341186328 75.96407223414255
144.36530480880714 194.49724490719547 59.251815548640906
161.7600918578278 200.84902961489385 68.27453533065793
155.3455840690147 215.04851252012935 73.08841408768187
148.431687033361 193.2917427322934 76.0390339013941
160.5869339512106 227.54325874463876 64.09273643041641
168.86156278687145 216.34147438123267 64.49917551556835
168.48075039181776 214.2665106939949 53.82047286004622
156.55234962047567 225.8451031813155 65.14694510661566
158.31023495694603 227.25835331852775 63.239708085711676
153.37714274676674 220.53821062986 68.3018032691124
157.85116928719532 218.12632286099156 72.81849175625817
153.6696499551549 223.32075480459125 60.92073479752513
160.71078377833823 223.2370342718162 71.50939648190521
155.08532239641713 220.89004532081344 70.90262348150664
143.59285090913033 204.9618521158758 55.55759307593095
166.93016844157899 224.81208880073638 63.978190164282026
158.2487194633594 204.27413958366535 54.832461985158396
149.8727339877248 210.78575989882472 53.73554080699261
152.57357384943018 211.5380225973076 51.837524246952384
153.8047038074113 224.09373813210055 57.27592181814085
152.29585893115922 213.26569541604766 52.10231166502261
155.4632132037836 207.10589665952554 51.67448045065294
153.42070681946433 211.075909119058 50.26982784414445
143.83826213957178 202.8119663109194 55.308051175289535
145.4600831926336 213.9734065068087 72.08584333540051
153.76386428192257 207.8484722727275 52.072624251427854
165.8920888050846 221.26299697011265 72.01281297403084
160.8826991712146 207.33703838711273 50.86820316539275
159.50219619496787 207.8863810075633 49.488573839186095
157.11907886832486 206.42436504464385 52.36111332843555
156.68341060745786 209.48707690935447 74.43134472593805
168.57355563597054 215.60946013534794 66.95165955340417
158.58640825030287 195.55113522012644 73.42184782000847
157.29293230557067 227.20049513432835 56.253711574736386
156.51687816244694 225.2963096957365 67.12224637845011
161.71666720814173 209.24908747758192 49.50227342042944
140.8311204470214 204.6982135602673 60.734399339228965
151.72273093489048 208.63941929008516 74.81144327239306
139.34766833087838 207.29382444689284 65.00599543199102
151.46003951750137 213.99942254855895 53.453394935857695
153.63515146496766 192.08621896205855 59.24878159196452
154.44169509352378 214.97612366473876 49.675718272292244
142.2233387041623 197.5450030432388 75.45443242968568
157.53677557187703 212.28477722640366 73.06066425040636
154.989101144878 223.73292709406354 52.967491825239286
149.18228706739313 212.6574466599866 56.19696883428504
153.18045658929907 209.91908030189867 73.78433384877215
139.7084314796537 204.71274838563514 66.92886901683609
162.59605167768152 219.3521542807509 72.60519715430925
158.74083402350877 227.55976856679953 55.23390960152014
159.38119656651745 224.41012593669922 50.6724570496344
155.8691569600148 217.43304576140483 72.27682054694586
151.81239163929945 192.56973586128836 58.020784674013164
157.06394851698957 195.39551040217768 74.9289639162043
157.21519579861004 216.7557795437622 48.3010426727093
167.4965220988516 218.15877337407346 70.10191676711887
152.7879293373112 191.10075841030422 67.21747309445081
140.14645775780386 205.447726151128 62.86511627189359
154.77704220291358 191.46994544761102 66.0431712023489
159.8832868418945 209.27752539588406 48.62401518824628
154.42045478378628 220.34947385877652 51.045568096259565
144.68782596552535 206.32935872832482 53.9198029013015
142.94788590684473 194.07561516073355 64.95387407252959
145.74324319579299 191.79398555488072 66.6194535077086
152.5461302966366 193.94359699332563 56.111665111274625
165.7302711104201 208.8093374671246 62.63871922395666
160.49628154681838 200.7608737710234 72.78220603581227
155.34916802521775 195.33672190870465 56.257715510815984
156.2571880905932 211.12290470678147 73.826992676893
142.5486861146107 194.72468030774465 63.66198411431282
158.89051840446527 227.92739954447805 56.855478610877164
155.43881736824463 208.44385208922458 74.89937050175094
149.49694363574395 208.42186497096012 51.28230001115904
156.48664750885823 224.60437985412858 52.30281021593821
143.57533152382223 208.51908457197376 57.63962215110474
164.59701272982642 213.55579888255136 72.25003765261572
168.01415562569656 222.61587672104096 66.45489640297164
149.1528271224661 193.1915331952565 57.36825774284799
143.42596963886947 193.7882769641215 68.86909654853939
169.6406767321388 222.17189809365138 55.23982638604659
144.76877530168878 211.46311415938652 60.60150217134347
141.17490319537515 199.47237017163613 59.58842062993608
157.4934392943353 216.26146876261564 73.2620684805624
142.11697036244826 195.53795205307839 62.137335629718514
142.34523540379823 194.8757426364107 66.86065030440733
146.04272743079443 192.02212460557183 63.63055748180634
149.027636972874 211.4195381520769 54.90105881379875
154.3016357179342 191.6764154850632 69.47114097467835
168.2178429462496 220.57457857979264 67.28170107809278
159.08581261273838 216.3308253519701 47.54045169357133
156.57609738470484 193.00595250701062 69.9787579103217
165.74838142521634 226.3039752968358 60.00471180106893
142.70385945317597 194.89740897799746 70.6434872214927
166.92682326946817 220.0841381899638 70.48162744231254
158.9076319343042 211.90756306970206 71.8610217283168
160.6590820220313 226.72798331761862 67.47162122373838
149.87374574174163 191.74863584501986 60.04063338083475
142.91031332674532 196.340434276334 74.0349405106129
158.30368186061943 226.05888462823125 51.94228941039301
160.93334420931825 215.26677635823492 72.31255359733379
166.27193566336598 211.74753596513415 68.66680231288105
149.09782197649864 212.77476661662848 72.94372628052025
153.90407683832672 191.61180766110346 61.36257600171722
144.83348616421128 205.16950855395368 52.41744268362112
159.28064750580975 206.9529772400614 75.16096354014178
144.02332321456848 193.3723013105622 71.38250762621583
160.56737310679844 211.6717618471668 71.79519208190278
140.76718662664362 197.630503920918 63.01820488913747
145.9110724461613 193.2296274134719 72.6990078567742
159.1611681627728 225.44921290501927 69.27215040225855
140.4800097062255 201.62774834440063 62.19084650163286
150.1320546927682 206.95545880943976 50.834222446737016
145.45976733371197 193.0022400342341 60.69973073991818
151.4067484146588 205.5655491479971 77.05733003332153
163.71447087017148 226.9677830270136 63.56573725666506
164.0740065390294 226.27586986540928 53.76524204814596
151.19553266738754 210.42780749218454 73.85798713003086
140.4262342528417 200.0570464532016 64.08524243274401
160.62000904597218 208.55335204585376 71.87894032374864
158.35859809022298 208.8231765500017 74.02705206101669
140.8232906424316 202.15589061394144 71.0962223254006
141.6737517788699 205.7433533060615 59.47726102542678
141.6845707063753 201.44857619505342 73.71025974332188
161.0765348683354 196.93116998685903 64.66726100157052
149.21598608094428 205.87436325790028 77.50475435845341
145.3056465242794 192.16925566391947 69.48651950514737
145.36189163819435 195.73362817097666 77.1490972341552
150.77656129980292 190.64994475009937 65.37197430336981
151.6688150583455 191.05925496604866 69.63378021432518
156.02187910157357 192.39479368069703 67.69178506041067
150.33205531422195 207.27070147774285 76.05167958318334
164.10526567650933 221.3517200381685 49.204510770234315
140.47292207921393 203.7427560282002 70.68237224156736
156.2681933865734 226.34282396883165 59.16826358260762
151.23032554720888 205.92788098556633 51.06402068034754
147.40557608167128 191.57485658408632 71.42635161675348
140.4674153718939 199.58357249327608 66.70310941040317
142.89730981851045 203.40746473953945 57.22242438227743
157.88543232638187 224.63391802785483 51.27174619522256
147.4836757975084 207.84346183404733 52.093371466463495
152.30553199708612 212.73153923567904 71.4554335653458
143.60654453983025 193.4862447265887 62.907277429413156
141.53691151087665 196.70465144633823 71.59472486469902
162.14014522457782 210.78580065824258 48.14690665355494
145.5361768388588 206.77656645918626 51.90245195169728
144.31271407822385 204.1539178150471 53.77319105583063
146.20508942806381 209.46586690566912 54.812510539726276
147.4278420056873 211.21368704681737 55.61812949211283
160.41765430595072 221.2106437796739 48.25896121811562
148.35294143460646 202.17919654161824 51.80778125088706
165.9439877729518 224.59952563293018 68.04743909904008
168.77308155055576 223.92927823568448 56.73567737069035
165.02495827168445 208.96766771144294 66.98610765039513
143.7052348518107 210.99383201360703 62.014564637597665
152.63774708373018 207.30386033780698 76.27437112918757
150.12960303548715 202.6293513436186 51.576332619647715
153.48078358553343 196.5047764776905 78.21868154325149
159.8072387302802 219.15980559177277 72.01455449074663
156.19191138671775 210.6845142188492 48.27713123152949
141.0136445106355 207.8925325119154 62.703125201539805
167.48792656707673 216.50937847403037 69.1595226878495
163.8025227680508 224.53775331837585 50.67566239732961
145.64354799162263 210.28075264487728 57.03678564105267
143.8910872191941 207.12649228498734 55.822841877153145
147.21432471113846 203.67188962755202 51.695405647189446
146.07065085170674 205.01197277142768 51.282624535979345
144.22128428128346 192.63309723174766 64.93878716620985
166.80084321306308 224.32997984655265 65.9531670452243
143.35461185149634 210.99791128823918 63.87035526425602
156.7361644193181 226.14407760170056 63.02014901301083
161.42274109714123 199.03022023824536 69.49635118378053
149.71935923619023 200.8116141984696 52.134622386361436
144.28593405895464 209.19062116047886 75.53376761748535
153.85099005135467 194.3172398144322 77.32779126410699
143.19022846750622 208.88794140333587 59.533469350172965
153.79718519571932 208.53582327371214 74.98067122018179
168.80173616942042 220.79246743540526 64.62069112949295
154.8764788688288 212.30850497075264 48.69606999820108
155.7232891271888 226.11093790550976 57.328023500514554
162.92496555513466 208.15891699154037 68.74931981001832
154.5502039826335 216.19692917104356 72.11838093111068
150.68346120848588 204.24413819969416 51.06018894038348
146.22326893167912 194.29453067787642 75.00284208682335
147.34140254605578 198.87529069920487 54.172382228446146
154.98840564488896 209.83737056655917 74.21080693363335
159.13384172578625 217.15236687960396 72.80004752967417
169.00466102307644 223.6787584335852 60.331343507583014
154.82120756003428 193.68365335221037 74.97799667653182
140.79757730817593 200.99520974274049 60.45512143939076
151.1020023239253 197.49807151705528 53.897251303894365
145.82894360861926 208.08661167838275 53.31373268145616
154.04739813637335 223.10770551385224 65.51507899329066
147.44730430946208 191.1938929793343 68.65351686484415
148.79721057984207 209.46547238999386 52.740889383759615
150.3370004961007 191.43721284354987 72.00608625830839
150.854885087408 211.9633620964668 72.79131083337228
140.40513624121152 202.97444141078725 64.44548824217847
140.54519771194992 199.52075800260468 61.62852434926942
141.84691738320862 195.81476320819502 69.02015839319793
140.87403568578927 202.74215617375094 60.47522362865427
154.31840441818525 193.47109814203347 57.52506208525476
162.37007252132307 227.15895033771162 65.5705349743796
147.81440123860926 195.3340874986319 56.09858691799324
167.27522766783468 223.68412080593131 67.39332766934142
155.90287588477932 198.43107163224516 77.23789104698044
161.37486971766393 200.8134554162928 70.60755172450085
152.4489990303316 215.76584304674577 70.32076726610879
154.69635732250444 211.04762672818663 72.68240644762145
159.84291814259717 227.07189355306005 53.630533231427485
164.3208785861777 224.0878541875026 69.73266252013148
159.29974588600905 227.88290676742312 60.90933681443502
146.268077305057 194.10024192380084 57.99847155899689
152.0814218218137 221.82467743899818 53.69884337759453
151.43682864595655 214.20160695541838 70.66834107936964
147.68907786550318 205.0140954738246 50.32416653118376
142.87335297002824 199.48936608136398 76.06087374508643
150.47784767365613 194.9958973419877 55.287901550215174
156.85147952327333 226.54727298798994 61.049135038259166
156.90487266262988 192.76243537602758 61.774371346541486
144.02176082619164 194.11948571336265 73.73876329243453
154.12706745856738 212.99462007414888 72.35701817325746
141.44992406548053 198.42748697562465 73.93252624908341
158.09883255980125 193.58820114993443 66.6856808939892
151.35151102896126 211.96344579445667 53.05502923263562
144.8116911462757 208.71141643294288 55.97608454268282
159.77378014524547 208.28999037442617 73.44035605116726
157.60930155593636 210.35521691420828 72.75818499476644
142.68609724378072 205.8989924246534 57.64967240343317
141.67701318659357 195.906865362193 64.66084464468177
148.0107843334939 210.371781029761 54.08340021521262
153.73126500253963 223.67386144056246 59.17271297117552
151.43940123681824 190.75889994504124 62.42913517884627
161.48019781001966 202.9148755766724 69.30424023417658
160.9272042064174 227.95197246060928 60.2405344952174
164.25809149789092 226.15446137481362 66.96288395749433
167.9070417624164 211.90240961706368 63.6197022385828
145.89388714742748 211.7433379946413 58.84758077578928
158.88292084837363 213.38630964725294 72.81860804651545
149.60742702536126 205.41665385027665 50.350398370707836
161.39171865234147 198.01450113234475 62.039991945104404
162.8793758681547 224.89877605724826 70.32087898470081
147.56415133499112 192.34636693763085 73.93659389481914
149.91939942012073 196.8862906386604 78.15609003960454
140.95107449467844 198.21598294301728 69.1459237769678
167.40297015240122 212.32126752302784 66.84488077170512
153.46524424116132 191.20411906489846 62.954518564154625
165.9954809880842 213.13778194984695 69.41090606315198
141.256734680183 206.63973027419559 60.94720331654492
156.366315593356 226.1295206318967 55.64475669607041
169.76670905016036 217.8212483001929 56.711066489399016
168.1142817226268 213.78053104947654 66.8408495784759
160.0493628568818 195.7540505839228 67.00082667193914
145.8656808335811 195.78261546765364 56.51697794778878
157.66075233339106 193.10714243413753 63.98432753566873
149.45375557164877 209.44756529808706 75.32862744925792
147.09928136725742 191.15052288889416 65.10135604216033
162.50794850580326 220.9544707762783 48.10182478586262
160.26798961988982 196.17772189235362 61.12164318215555
150.58262878177604 218.3524929075101 53.81001374448128
161.920216671887 200.7918015496461 66.20794237845136
165.51193024630302 209.38181849865092 52.840128925646
140.48600613205642 203.49073937687527 62.13045613442949
140.45537085588884 201.1717713063437 65.5471577266458
167.24590226946603 211.08865150531975 64.99118847739845
157.66533528102408 206.02386910224809 75.44960978054846
153.91758559800735 217.17315499761042 70.96730041716037
142.4132651273753 207.3601294845009 59.3486018133141
169.51854834758782 223.16074461015734 58.905626598130375
POLYGONS 1456 5824
3 18 639 484
3 484 639 2
3 2 9 5
3 0 3 596
3 3 12 11
3 13 12 3
3 0 4 3
3 3 4 13
3 4 15 13
3 5 490 17
3 24 22 23
3 24 23 12
3 11 12 23
3 27 28 24
3 24 12 27
3 12 13 27
3 27 13 30
3 30 31 29
3 16 478 31
3 30 16 31
3 14 32 601
3 33 478 16
3 36 38 34
3 36 34 33
3 39 38 37
3 37 722 39
3 645 46 44
3 21 45 26
3 51 52 49
3 53 54 485
3 44 54 45
3 51 50 28
3 24 28 50
3 55 56 52
3 55 52 51
3 51 28 55
3 28 29 55
3 55 29 31
3 55 31 56
3 58 59 57
3 58 57 56
3 31 58 56
3 31 478 58
3 478 59 58
3 59 62 60
3 59 34 62
3 38 63 62
3 34 38 62
3 38 39 63
3 67 70 507
3 507 70 40
3 69 70 67
3 111 71 69
3 70 69 71
3 74 72 43
3 46 78 44
3 54 87 485
3 77 84 78
3 44 83 54
3 52 86 82
3 52 56 86
3 86 56 57
3 57 59 90
3 90 59 60
3 90 60 92
3 60 62 92
3 95 98 93
3 95 93 92
3 62 95 92
3 62 63 95
3 97 98 95
3 63 97 95
3 99 98 97
3 102 99 97
3 64 102 97
3 103 101 100
3 144 105 103
3 66 103 105
3 66 105 67
3 146 107 105
3 146 105 144
3 67 105 107
3 67 107 69
3 147 108 146
3 107 146 108
3 69 107 108
3 69 108 111
3 110 111 108
3 110 108 147
3 125 545 127
3 129 161 130
3 447 130 161
3 621 128 134
3 89 621 134
3 131 132 129
3 131 129 130
3 92 131 130
3 131 92 93
3 131 93 132
3 89 134 94
3 93 98 132
3 135 133 132
3 98 135 132
3 135 98 99
3 137 176 138
3 100 137 138
3 140 141 138
3 140 138 176
3 100 138 141
3 100 141 103
3 139 142 136
3 143 144 141
3 143 141 140
3 103 141 144
3 145 146 144
3 145 144 143
3 188 147 145
3 146 145 147
3 149 147 188
3 147 149 110
3 190 151 149
3 161 165 163
3 161 129 165
3 128 500 167
3 168 169 164
3 168 164 165
3 129 168 165
3 129 132 168
3 168 132 133
3 168 133 169
3 166 170 167
3 133 171 169
3 172 173 170
3 174 171 133
3 133 135 174
3 216 179 177
3 176 177 179
3 176 179 140
3 180 181 179
3 180 179 216
3 140 179 181
3 140 181 143
3 183 184 181
3 183 181 180
3 143 181 184
3 143 184 145
3 222 185 183
3 184 183 185
3 145 184 185
3 145 185 188
3 187 188 185
3 187 185 222
3 189 190 187
3 188 187 190
3 149 188 190
3 164 169 206
3 206 208 207
3 206 169 208
3 169 171 208
3 209 210 204
3 210 209 211
3 172 210 211
3 213 214 211
3 215 216 214
3 215 214 213
3 177 214 216
3 217 216 215
3 216 217 180
3 251 219 217
3 180 217 219
3 180 219 183
3 252 220 251
3 219 251 220
3 183 219 220
3 183 220 222
3 221 222 220
3 221 220 252
3 222 221 223
3 187 222 223
3 187 223 189
3 224 223 254
3 237 236 234
3 207 240 237
3 207 237 234
3 207 208 240
3 204 239 244
3 242 241 243
3 240 208 243
3 204 244 209
3 272 245 270
3 244 270 245
3 209 244 245
3 212 247 242
3 212 242 243
3 274 246 245
3 274 245 272
3 209 245 246
3 213 246 248
3 213 248 215
3 275 250 248
3 215 248 250
3 215 250 217
3 217 250 251
3 259 260 262
3 266 236 237
3 288 269 265
3 237 267 266
3 237 240 267
3 290 269 288
3 270 290 291
3 270 291 272
3 242 273 241
3 242 247 273
3 292 274 272
3 642 727 276
3 727 278 253
3 261 297 282
3 295 262 260
3 297 295 260
3 262 299 286
3 285 284 236
3 284 263 236
3 266 566 285
3 266 285 236
3 266 267 566
3 315 288 287
3 290 288 315
3 291 716 272
3 272 716 292
3 271 273 293
3 294 293 279
3 296 295 297
3 297 298 296
3 261 283 297
3 297 283 298
3 284 300 283
3 284 285 300
3 299 455 287
3 455 315 287
3 455 586 315
3 533 461 307
3 315 586 331
3 290 315 331
3 290 331 291
3 291 331 716
3 295 445 299
3 296 298 441
3 299 445 455
3 586 455 445
3 586 592 331
3 499 508 578
3 616 441 461
3 461 533 637
3 616 461 637
3 637 646 508
3 508 646 669
3 669 646 530
3 492 530 646
3 484 2 1
3 645 44 45
3 45 21 645
3 53 26 45
3 45 54 53
3 83 85 87
3 87 54 83
3 83 44 78
3 78 84 83
3 125 127 126
3 282 297 260
3 260 259 282
3 445 295 296
3 298 283 300
3 300 441 298
3 575 592 586
3 586 445 575
3 22 24 50
3 29 28 27
3 27 30 29
3 716 331 592
3 287 286 299
3 231 230 196
3 64 39 722
3 621 89 709
3 173 172 177
3 177 176 173
3 203 162 509
3 101 103 66
3 66 65 101
3 238 202 203
3 126 543 85
3 543 88 85
3 299 262 295
3 173 176 137
3 90 92 130
3 130 447 90
3 268 451 238
3 451 202 238
3 124 81 719
3 525 547 717
3 160 684 715
3 89 728 709
3 77 78 714
3 198 231 196
3 52 82 49
3 46 714 78
3 124 715 680
3 82 81 79
3 160 715 124
3 80 662 79
3 664 673 714
3 46 664 714
3 645 47 46
3 157 717 121
3 717 157 525
3 47 651 678
3 678 651 48
3 121 717 547
3 10 676 700
3 101 698 100
3 11 643 3
3 11 617 643
3 617 611 10
3 21 26 611
3 102 139 99
3 698 101 65
3 627 32 676
3 676 10 626
3 523 565 607
3 565 627 25
3 139 102 104
3 624 65 609
3 601 606 652
3 627 676 626
3 626 25 627
3 523 625 61
3 625 686 61
3 617 10 643
3 10 700 643
3 173 630 170
3 173 137 630
3 611 617 633
3 633 21 611
3 23 617 11
3 23 633 617
3 542 615 137
3 615 630 137
3 99 139 136
3 448 265 268
3 26 626 611
3 611 626 10
3 53 25 26
3 25 626 26
3 609 608 624
3 32 627 606
3 66 507 65
3 66 67 507
3 485 607 53
3 53 607 25
3 534 14 601
3 565 523 606
3 606 627 565
3 100 542 137
3 100 698 542
3 65 624 698
3 698 624 96
3 199 598 159
3 199 705 598
3 643 596 3
3 643 700 596
3 203 594 238
3 723 572 658
3 572 650 659
3 714 673 77
3 659 127 569
3 579 658 572
3 572 659 579
3 121 547 120
3 122 715 123
3 122 680 715
3 684 591 123
3 123 715 684
3 230 552 196
3 77 125 84
3 574 120 547
3 235 200 705
3 545 569 127
3 543 650 88
3 552 549 591
3 579 159 598
3 598 705 200
3 200 201 598
3 650 543 659
3 659 543 127
3 84 125 126
3 540 587 567
3 659 569 579
3 579 569 159
3 83 84 85
3 84 126 85
3 127 543 126
3 268 584 448
3 14 676 32
3 14 700 676
3 88 87 85
3 65 507 609
3 507 548 609
3 41 503 18
3 482 501 41
3 40 70 501
3 71 41 501
3 501 70 71
3 16 30 15
3 15 30 13
3 6 487 0
3 487 4 0
3 33 17 36
3 9 490 5
3 497 37 489
3 15 491 16
3 491 5 17
3 33 16 491
3 491 17 33
3 38 36 37
3 36 489 37
3 6 1 487
3 487 1 2
3 480 685 482
3 40 501 685
3 685 501 482
3 18 484 480
3 490 489 17
3 17 489 36
3 490 497 489
3 483 15 4
3 41 18 482
3 482 18 480
3 15 483 491
3 491 483 5
3 5 483 2
3 2 483 487
3 33 34 478
3 478 34 59
3 487 483 4
3 18 503 639
3 48 651 50
3 50 651 22
3 128 621 500
3 655 7 534
3 7 480 1
3 1 480 484
3 0 596 6
3 596 573 6
3 642 276 464
3 669 682 365
3 682 464 276
3 250 675 251
3 250 275 675
3 252 668 727
3 675 276 668
3 668 276 727
3 675 668 251
3 251 668 252
3 246 563 248
3 246 274 563
3 602 276 675
3 602 657 365
3 292 563 274
3 292 657 563
3 248 563 275
3 275 563 657
3 275 602 675
3 275 657 602
3 365 657 578
3 578 657 292
3 61 608 652
3 652 608 35
3 7 1 6
3 464 682 423
3 609 691 608
3 608 691 35
3 579 724 658
3 658 724 201
3 579 598 724
3 724 598 201
3 685 479 40
3 548 691 609
3 655 35 691
3 40 548 507
3 40 479 548
3 601 655 534
3 7 479 685
3 685 480 7
3 479 691 548
3 479 655 691
3 581 688 492
3 267 687 566
3 652 35 601
3 479 7 655
3 307 566 581
3 566 687 581
3 687 289 581
3 581 289 688
3 289 580 241
3 289 687 580
3 580 687 267
3 240 580 267
3 14 573 700
3 700 573 596
3 505 688 556
3 556 688 289
3 461 300 307
3 35 655 601
3 616 637 499
3 637 508 499
3 492 646 533
3 533 646 637
3 6 573 534
3 534 573 14
3 533 307 492
3 492 307 581
3 300 461 441
3 6 534 7
3 241 580 243
3 243 580 240
3 271 568 273
3 273 568 241
3 568 289 241
3 523 61 652
3 606 523 652
3 492 688 530
3 688 505 530
3 556 289 568
3 568 271 556
3 413 699 271
3 505 556 699
3 699 556 271
3 682 276 602
3 602 365 682
3 499 578 716
3 624 608 686
3 686 608 61
3 578 508 365
3 508 669 365
3 606 601 32
3 292 716 578
3 171 641 208
3 208 641 243
3 171 212 641
3 641 212 243
3 175 562 212
3 562 247 212
3 413 561 294
3 294 561 293
3 413 271 561
3 561 271 293
3 716 592 499
3 499 592 616
3 599 87 88
3 25 607 565
3 441 616 575
3 575 616 592
3 445 296 575
3 296 441 575
3 647 413 294
3 186 550 218
3 413 544 399
3 413 647 544
3 94 542 96
3 542 698 96
3 96 624 536
3 536 624 686
3 650 572 661
3 661 572 723
3 607 476 523
3 650 661 88
3 96 636 94
3 96 536 636
3 619 647 294
3 91 599 88
3 625 536 686
3 621 519 500
3 661 91 88
3 278 513 277
3 279 510 294
3 510 619 294
3 201 509 658
3 134 615 94
3 94 636 89
3 728 89 636
3 636 536 728
3 536 689 728
3 542 94 615
3 399 423 505
3 505 423 530
3 661 498 91
3 91 498 583
3 162 500 509
3 630 128 170
3 625 689 536
3 519 723 658
3 476 599 689
3 523 476 625
3 625 476 689
3 519 498 723
3 723 498 661
3 170 128 167
3 253 475 254
3 254 475 281
3 253 278 475
3 647 472 544
3 277 513 472
3 472 513 544
3 128 630 134
3 134 630 615
3 167 500 162
3 192 473 191
3 190 189 473
3 473 189 191
3 221 471 223
3 223 471 254
3 221 253 471
3 471 253 254
3 727 253 252
3 253 221 252
3 642 513 727
3 727 513 278
3 281 475 277
3 277 475 278
3 498 519 709
3 709 519 621
3 498 709 583
3 599 476 485
3 485 476 607
3 728 689 583
3 544 464 399
3 464 423 399
3 87 599 485
3 583 689 91
3 689 599 91
3 505 699 399
3 399 699 413
3 460 509 201
3 544 513 464
3 464 513 642
3 268 238 584
3 238 582 584
3 200 460 201
3 200 582 460
3 460 582 594
3 277 472 619
3 619 472 647
3 582 238 594
3 235 582 200
3 235 584 582
3 709 728 583
3 161 701 447
3 701 161 163
3 268 265 451
3 509 460 203
3 203 460 594
3 23 22 633
3 47 458 651
3 633 22 458
3 458 22 651
3 46 47 664
3 664 47 678
3 633 458 21
3 21 458 645
3 458 47 645
3 136 725 174
3 174 725 175
3 178 562 706
3 706 562 175
3 190 473 151
3 175 614 174
3 174 614 171
3 175 212 614
3 614 212 171
3 182 697 142
3 142 697 136
3 182 725 697
3 697 725 136
3 247 537 273
3 273 537 293
3 247 249 537
3 725 182 706
3 706 175 725
3 136 527 99
3 99 527 135
3 136 174 527
3 527 174 135
3 151 481 112
3 481 640 152
3 186 493 467
3 467 493 182
3 469 225 470
3 247 708 249
3 249 708 178
3 247 562 708
3 708 562 178
3 106 711 109
3 153 150 711
3 638 550 186
3 178 622 249
3 178 493 622
3 255 457 281
3 281 457 254
3 255 224 457
3 457 224 254
3 277 454 281
3 277 619 454
3 182 712 706
3 706 712 178
3 182 493 712
3 712 493 178
3 64 452 39
3 39 452 63
3 64 97 452
3 452 97 63
3 280 439 510
3 510 439 619
3 186 467 436
3 436 467 148
3 192 640 481
3 466 470 225
3 139 435 142
3 139 104 435
3 410 495 640
3 281 454 391
3 391 454 474
3 71 430 41
3 41 430 73
3 722 429 64
3 711 150 437
3 437 109 711
3 37 359 722
3 37 497 359
3 359 497 8
3 112 428 115
3 115 428 152
3 112 481 428
3 428 481 152
3 293 425 279
3 293 537 425
3 425 537 249
3 9 20 424
3 669 423 682
3 669 530 423
3 191 679 192
3 679 470 672
3 469 422 225
3 422 557 225
3 454 619 439
3 439 474 454
3 109 437 420
3 420 437 148
3 64 419 102
3 102 419 104
3 64 429 419
3 419 429 104
3 638 186 436
3 436 226 638
3 421 249 622
3 142 418 182
3 148 467 418
3 418 467 182
3 435 109 420
3 420 142 435
3 109 415 106
3 109 435 415
3 415 435 104
3 41 412 503
3 503 412 42
3 41 73 412
3 412 73 42
3 73 411 42
3 557 409 663
3 663 409 696
3 557 257 409
3 409 257 696
3 72 68 433
3 104 429 408
3 408 429 68
3 195 406 150
3 497 605 8
3 8 605 19
3 497 424 605
3 605 424 19
3 72 405 68
3 571 557 422
3 422 255 571
3 679 672 410
3 722 403 429
3 429 403 68
3 722 433 403
3 403 433 68
3 571 402 557
3 557 402 257
3 571 431 402
3 402 431 257
3 439 401 474
3 439 280 401
3 398 417 154
3 420 148 418
3 418 142 420
3 153 711 400
3 400 711 106
3 535 116 404
3 398 410 672
3 75 718 119
3 257 397 696
3 696 397 612
3 257 671 397
3 397 671 612
3 431 474 401
3 256 416 555
3 258 395 576
3 440 194 395
3 43 396 75
3 470 394 672
3 672 394 193
3 470 466 394
3 394 466 193
3 117 414 392
3 474 431 391
3 391 431 571
3 415 104 408
3 408 106 415
3 405 113 400
3 400 106 405
3 118 390 113
3 153 400 390
3 390 400 113
3 42 411 389
3 389 411 76
3 551 389 388
3 388 389 76
3 386 193 576
3 425 249 421
3 421 279 425
3 414 117 718
3 551 396 385
3 385 396 19
3 663 384 557
3 557 384 225
3 663 466 384
3 384 466 225
3 718 75 388
3 670 560 383
3 155 382 434
3 382 427 156
3 406 381 150
3 150 381 437
3 406 226 381
3 381 226 437
3 113 380 74
3 74 380 72
3 113 405 380
3 380 405 72
3 503 42 379
3 226 406 378
3 378 406 648
3 417 193 386
3 436 148 226
3 148 437 226
3 551 376 396
3 396 376 75
3 551 388 376
3 376 388 75
3 74 375 113
3 113 375 118
3 74 119 375
3 663 374 576
3 576 374 258
3 663 696 374
3 374 696 258
3 638 226 378
3 378 227 638
3 373 398 154
3 535 152 383
3 383 560 535
3 256 372 550
3 550 372 218
3 256 555 372
3 372 555 218
3 466 371 193
3 193 371 576
3 466 663 371
3 371 663 576
3 373 154 407
3 156 370 118
3 153 390 370
3 370 390 118
3 696 369 258
3 258 369 629
3 696 612 369
3 369 612 629
3 670 368 367
3 367 368 407
3 670 373 368
3 368 373 407
3 407 366 155
3 155 366 456
3 407 154 366
3 366 154 456
3 279 421 364
3 364 421 555
3 386 576 395
3 427 370 156
3 671 362 416
3 416 362 280
3 671 401 362
3 362 401 280
3 153 195 150
3 382 363 427
3 382 155 363
3 442 432 434
3 392 367 432
3 118 375 361
3 361 375 119
3 387 426 363
3 442 361 117
3 118 358 156
3 156 358 442
3 118 361 358
3 358 361 442
3 75 357 43
3 43 357 74
3 75 119 357
3 357 119 74
3 115 404 356
3 8 433 359
3 359 433 722
3 72 355 43
3 72 433 355
3 355 433 8
3 189 360 191
3 224 469 360
3 360 469 191
3 281 354 255
3 255 354 571
3 281 391 354
3 354 391 571
3 629 538 227
3 538 256 550
3 426 194 648
3 426 387 194
3 512 392 414
3 392 377 367
3 560 670 377
3 377 670 367
3 430 114 356
3 356 73 430
3 406 729 648
3 648 729 426
3 406 195 729
3 729 195 426
3 512 560 377
3 377 392 512
3 495 710 640
3 640 710 152
3 495 383 710
3 710 383 152
3 470 631 469
3 469 631 191
3 470 679 631
3 631 679 191
3 648 194 440
3 456 553 387
3 387 553 194
3 456 386 553
3 9 521 490
3 490 521 497
3 9 424 521
3 521 424 497
3 503 379 639
3 639 379 20
3 192 692 473
3 473 692 151
3 192 481 692
3 692 481 151
3 427 613 195
3 195 613 426
3 427 363 613
3 613 363 426
3 427 541 370
3 370 541 153
3 427 195 541
3 541 195 153
3 19 355 8
3 560 600 535
3 535 600 116
3 560 512 600
3 600 512 116
3 442 434 156
3 434 382 156
3 395 194 553
3 553 386 395
3 417 695 193
3 193 695 672
3 417 398 695
3 695 398 672
3 154 417 456
3 417 386 456
3 407 577 367
3 434 432 577
3 577 432 367
3 424 20 385
3 385 19 424
3 434 577 155
3 155 577 407
3 398 532 410
3 410 532 495
3 398 373 532
3 421 517 555
3 555 517 218
3 421 622 517
3 517 622 218
3 670 511 373
3 495 532 511
3 511 532 373
3 535 506 152
3 152 506 115
3 535 404 506
3 506 404 115
3 495 511 383
3 383 511 670
3 192 595 640
3 640 595 410
3 192 679 595
3 595 679 410
3 392 623 117
3 117 623 442
3 392 432 623
3 623 432 442
3 279 364 510
3 510 364 280
3 255 496 224
3 224 496 469
3 255 422 496
3 496 422 469
3 117 593 718
3 718 593 119
3 117 361 593
3 593 361 119
3 280 488 416
3 416 488 555
3 280 364 488
3 488 364 555
3 456 387 155
3 387 363 155
3 440 477 227
3 227 477 629
3 477 258 629
3 416 446 671
3 671 446 612
3 416 256 446
3 446 256 612
3 431 702 257
3 257 702 671
3 431 401 702
3 702 401 671
3 224 653 223
3 223 653 189
3 224 360 653
3 653 360 189
3 551 516 389
3 389 516 42
3 551 379 516
3 516 379 42
3 73 522 411
3 411 522 404
3 73 356 522
3 522 356 404
3 639 620 2
3 2 620 9
3 639 20 620
3 620 20 9
3 68 468 408
3 408 468 106
3 68 405 468
3 468 405 106
3 116 459 76
3 76 459 414
3 116 512 459
3 459 512 414
3 411 444 76
3 76 444 116
3 411 404 444
3 444 404 116
3 718 610 414
3 414 610 76
3 718 388 610
3 610 388 76
3 227 378 440
3 440 378 648
3 20 438 385
3 385 438 551
3 20 379 438
3 438 379 551
3 258 477 395
3 395 477 440
3 218 353 186
3 186 353 493
3 218 622 353
3 353 622 493
3 227 538 638
3 638 538 550
3 256 665 612
3 612 665 629
3 256 538 665
3 665 538 629
3 683 584 235
3 584 677 448
3 584 683 677
3 163 721 197
3 199 660 705
3 197 632 198
3 632 450 198
3 644 570 703
3 705 604 235
3 705 660 604
3 690 199 159
3 231 198 450
3 683 235 604
3 207 694 206
3 207 234 694
3 547 603 574
3 569 545 690
3 690 159 569
3 165 164 721
3 721 163 165
3 566 726 285
3 285 726 300
3 566 307 726
3 726 307 300
3 450 632 667
3 667 632 463
3 206 694 164
3 228 704 264
3 264 704 262
3 704 259 262
3 158 589 693
3 693 589 121
3 589 157 121
3 163 585 701
3 163 197 585
3 683 604 559
3 559 604 233
3 694 463 164
3 164 463 721
3 694 234 667
3 667 463 694
3 549 590 518
3 540 554 660
3 233 604 554
3 554 604 660
3 660 546 540
3 660 199 546
3 603 628 524
3 603 547 628
3 628 547 525
3 567 681 233
3 681 559 233
3 678 539 664
3 514 558 539
3 545 531 690
3 690 531 524
3 545 603 531
3 531 603 524
3 690 524 546
3 546 199 690
3 82 86 340
3 198 713 197
3 684 160 713
3 49 529 48
3 529 79 662
3 664 539 673
3 48 526 678
3 662 514 526
3 591 520 123
3 158 122 520
3 520 122 123
3 683 504 677
3 677 504 232
3 683 559 504
3 504 559 232
3 703 465 644
3 465 330 228
3 632 197 463
3 463 197 721
3 284 283 261
3 263 528 236
3 528 234 236
3 564 502 80
3 514 662 502
3 502 662 80
3 574 462 673
3 673 462 77
3 462 125 77
3 552 443 549
3 589 158 518
3 559 393 232
3 232 393 588
3 559 681 393
3 546 352 540
3 546 524 352
3 340 351 447
3 447 351 90
3 351 57 90
3 693 707 158
3 158 707 122
3 693 564 707
3 707 564 122
3 81 350 719
3 340 447 350
3 448 349 287
3 287 349 286
3 448 677 349
3 232 348 677
3 232 588 348
3 348 588 264
3 196 347 684
3 684 347 591
3 196 552 347
3 347 552 591
3 680 346 80
3 80 346 564
3 680 122 346
3 346 122 564
3 585 197 713
3 713 160 585
3 678 345 539
3 539 345 514
3 678 526 345
3 345 526 514
3 50 344 48
3 48 344 49
3 50 51 344
3 344 51 49
3 701 343 719
3 160 124 343
3 343 124 719
3 231 450 342
3 82 79 529
3 529 49 82
3 514 341 558
3 564 693 341
3 341 693 558
3 570 644 681
3 681 567 570
3 719 350 701
3 701 350 447
3 43 339 396
3 396 339 19
3 43 355 339
3 339 355 19
3 157 654 525
3 654 587 525
3 234 528 667
3 667 528 450
3 603 337 574
3 603 545 337
3 337 545 125
3 465 336 330
3 465 703 336
3 229 515 335
3 335 515 342
3 350 81 340
3 340 81 82
3 86 57 351
3 351 340 86
3 335 342 263
3 597 703 570
3 230 443 552
3 693 333 558
3 558 333 120
3 693 121 333
3 333 121 120
3 518 158 520
3 233 554 567
3 554 540 567
3 259 618 282
3 282 618 229
3 618 635 229
3 628 525 352
3 352 524 628
3 540 334 587
3 587 334 525
3 540 352 334
3 334 352 525
3 336 329 656
3 656 329 597
3 336 703 329
3 329 703 597
3 336 328 330
3 336 656 328
3 443 649 328
3 590 656 327
3 327 656 597
3 518 326 549
3 549 326 591
3 518 520 326
3 326 520 591
3 120 325 558
3 673 539 325
3 325 539 558
3 157 589 324
3 324 589 518
3 590 327 324
3 324 518 590
3 549 323 590
3 590 323 656
3 549 443 323
3 263 322 528
3 528 322 450
3 263 342 322
3 322 342 450
3 649 321 515
3 515 321 230
3 649 443 321
3 321 443 230
3 462 574 337
3 337 125 462
3 328 656 323
3 323 443 328
3 585 160 343
3 343 701 585
3 644 588 393
3 393 681 644
3 80 320 680
3 80 79 320
3 320 79 81
3 673 325 574
3 574 325 120
3 349 677 348
3 348 286 349
3 124 680 320
3 320 81 124
3 502 564 341
3 341 514 502
3 157 318 654
3 654 318 327
3 157 324 318
3 318 324 327
3 635 317 330
3 317 228 330
3 286 316 262
3 262 316 264
3 286 348 316
3 316 348 264
3 264 314 228
3 264 588 314
3 314 588 644
3 618 259 317
3 317 635 618
3 515 313 649
3 649 313 635
3 515 229 313
3 313 229 635
3 597 587 654
3 654 327 597
3 342 494 231
3 231 494 230
3 342 515 494
3 494 515 230
3 704 228 317
3 317 259 704
3 196 684 713
3 713 198 196
3 662 312 529
3 529 312 48
3 662 526 312
3 312 526 48
3 465 228 314
3 314 644 465
3 328 311 330
3 330 311 635
3 328 649 311
3 311 649 635
3 597 310 587
3 587 310 567
3 597 570 310
3 310 570 567
3 114 720 111
3 111 720 71
3 114 430 720
3 720 430 71
3 115 674 112
3 112 674 114
3 115 356 674
3 674 356 114
3 269 634 239
3 269 290 634
3 634 290 270
3 114 449 112
3 114 111 449
3 449 111 110
3 151 338 149
3 149 338 110
3 151 112 338
3 244 239 634
3 634 270 244
3 162 332 167
3 167 332 166
3 162 205 332
3 332 205 166
3 166 319 170
3 170 319 172
3 166 210 319
3 319 210 172
3 210 305 204
3 210 166 305
3 305 166 205
3 204 308 239
3 239 306 269
3 239 308 306
3 449 110 338
3 338 112 449
3 202 308 205
3 269 304 265
3 265 304 451
3 269 306 304
3 304 306 451
3 205 303 202
3 202 303 203
3 205 162 303
3 303 162 203
3 202 451 306
3 306 308 202
3 205 308 305
3 305 308 204
3 500 453 509
3 509 453 658
3 500 519 453
3 453 519 658
3 265 309 288
3 288 309 287
3 265 448 309
3 309 448 287
3 229 666 282
3 282 666 261
3 229 335 666
3 666 335 261
3 209 486 211
3 211 486 213
3 209 246 486
3 486 246 213
3 214 302 211
3 211 302 172
3 214 177 302
3 302 177 172
3 261 301 284
3 284 301 263
3 261 335 301
3 301 335 263
